Linear acceleration,Rotational velocity,Time values,Absolute time values,Temperature,Ambient light,Reflected light
1.67446,292.45283,-2000,24528,37.3286,22171,802
2.48976,292.0199,-1999,24529,37.3286,22171,802
1.82698,280.08328,-1998,24530,37.4779,22171,802
1.67161,271.9294,-1997,24531,37.6273,22171,802
1.88858,268.62276,-1996,24532,37.5277,22171,802
2.36401,263.70889,-1995,24533,37.4281,22177,799
2.46086,256.46493,-1994,24534,37.6273,22177,799
1.96529,251.45779,-1993,24535,37.3286,22177,799
2.85884,254.27964,-1992,24536,37.5277,22177,799
2.80326,263.97871,-1991,24537,37.6273,22177,799
2.97651,276.84656,-1990,24538,37.6273,22177,799
2.34782,289.40814,-1989,24539,37.6273,22177,799
2.74829,299.78662,-1988,24540,37.2788,22177,799
1.40163,306.5981,-1987,24541,37.3286,22177,799
1.59273,310.32535,-1986,24542,37.5277,22177,799
1.51917,310.82108,-1985,24543,37.6273,22180,791
1.05631,308.55775,-1984,24544,37.6273,22180,791
3.12805,306.55278,-1983,24545,37.6273,22180,791
1.1472,305.36893,-1982,24546,37.3286,22180,791
1.05631,304.68977,-1981,24547,37.4281,22180,791
1.92856,304.12272,-1980,24548,37.4281,22180,791
1.32827,300.94006,-1979,24549,37.3286,22180,791
2.97651,294.75254,-1978,24550,37.677,22180,791
0.85693,285.59116,-1977,24551,37.4281,22180,791
2.0785,276.67858,-1976,24552,37.5277,22180,791
2.0716,268.28694,-1975,24553,37.4281,22196,779
1.92361,262.23175,-1974,24554,37.4779,22196,779
1.27702,262.09158,-1973,24555,37.1792,22196,779
1.83479,267.12488,-1972,24556,37.4281,22196,779
1.67161,269.85508,-1971,24557,37.4281,22196,779
1.07865,264.61671,-1970,24558,37.5277,22196,779
2.0785,254.86498,-1969,24559,37.4281,22196,779
1.25821,244.99767,-1968,24560,37.6273,22196,779
0.710948,235.21213,-1967,24561,37.3286,22196,779
2.3539,228.22859,-1966,24562,37.4281,22196,779
1.71108,221.29233,-1965,24563,37.4779,22224,769
1.66589,216.85354,-1964,24564,37.3286,22224,769
1.18804,214.56023,-1963,24565,37.677,22224,769
1.28447,213.4971,-1962,24566,37.3286,22224,769
0.946812,211.36914,-1961,24567,37.4281,22224,769
1.51917,210.35566,-1960,24568,37.6273,22224,769
1.97498,208.04291,-1959,24569,37.2788,22224,769
0.730792,208.5329,-1958,24570,37.6273,22224,769
1.98701,208.63963,-1957,24571,37.4281,22224,769
1.09619,208.50045,-1956,24572,37.6273,22224,769
1.56555,210.75188,-1955,24573,37.4281,22269,758
1.94824,208.70989,-1954,24574,37.5277,22269,758
1.78473,203.4406,-1953,24575,37.677,22269,758
1.77132,204.5748,-1952,24576,37.6273,22269,758
1.7551,215.07324,-1951,24577,37.5277,22269,758
2.38009,229.81885,-1950,24578,37.4281,22269,758
1.70829,242.51024,-1949,24579,37.4281,22269,758
1.25061,248.76738,-1948,24580,37.3286,22269,758
1.61355,241.95512,-1947,24581,37.6273,22269,758
1.28447,228.40595,-1946,24582,37.6273,22269,758
1.27702,218.33032,-1945,24583,37.7268,22325,750
1.20794,216.18546,-1944,24584,37.3286,22325,750
2.14177,224.78492,-1943,24585,37.6273,22325,750
1.21188,238.00283,-1942,24586,37.4281,22325,750
1.80334,249.52345,-1941,24587,37.677,22325,750
1.59572,247.43162,-1940,24588,37.2788,22325,750
1.13045,238.10102,-1939,24589,37.4779,22325,750
1.46484,235.00361,-1938,24590,37.6273,22325,750
1.21188,232.8837,-1937,24591,37.6273,22325,750
1.0381,219.36959,-1936,24592,37.6273,22325,750
1.02423,195.14156,-1935,24593,37.677,22367,746
1.42525,176.46664,-1934,24594,37.7268,22367,746
0.884315,169.88302,-1933,24595,37.5277,22367,746
1.05631,169.71883,-1932,24596,37.677,22367,746
2.48784,177.37619,-1931,24597,37.4779,22367,746
2.09677,189.53231,-1930,24598,37.4779,22367,746
1.36019,195.91209,-1929,24599,37.6273,22367,746
1.04268,196.40597,-1928,24600,37.1792,22367,746
1.68298,189.54186,-1927,24601,37.4281,22367,746
1.4219,168.47494,-1926,24602,37.4281,22367,746
2.39805,145.27378,-1925,24603,37.6273,22381,742
1.68298,127.60535,-1924,24604,37.5277,22381,742
1.66589,108.88863,-1923,24605,37.5277,22381,742
1.41854,108.48095,-1922,24606,37.4281,22381,742
1.00543,124.08704,-1921,24607,37.6273,22381,742
2.22905,128.78719,-1920,24608,37.4281,22381,742
1.52231,117.72965,-1919,24609,37.6273,22381,742
2.11037,110.53526,-1918,24610,37.5277,22381,742
1.61945,115.83302,-1917,24611,37.2788,22381,742
1.12623,128.96461,-1916,24612,37.4281,22381,742
1.91864,139.29977,-1915,24613,37.2788,22416,735
2.44921,146.22347,-1914,24614,37.3286,22416,735
2.29856,149.74848,-1913,24615,37.3286,22416,735
1.36719,153.4552,-1912,24616,37.3286,22416,735
1.60168,166.71489,-1911,24617,37.5277,22416,735
2.0156,177.8487,-1910,24618,37.4779,22416,735
0.889691,187.80215,-1909,24619,37.3286,22416,735
1.70829,196.04637,-1908,24620,37.1792,22416,735
1.30655,195.13878,-1907,24621,37.6273,22416,735
2.66729,198.14118,-1906,24622,37.5277,22416,735
2.26301,208.79509,-1905,24623,37.3286,22495,729
1.69427,211.19141,-1904,24624,37.677,22495,729
2.11714,203.16586,-1903,24625,37.6273,22495,729
2.59846,193.23117,-1902,24626,37.4281,22495,729
1.64863,189.646,-1901,24627,37.5277,22495,729
0.750112,199.15056,-1900,24628,37.677,22495,729
1.90617,213.08641,-1899,24629,37.5277,22495,729
0.981433,216.56918,-1898,24630,37.4281,22495,729
1.95556,210.81122,-1897,24631,37.4281,22495,729
2.62403,210.23375,-1896,24632,37.3286,22495,729
1.85804,208.34524,-1895,24633,37.5277,22635,721
1.68014,202.99735,-1894,24634,37.4281,22635,721
2.41786,201.07489,-1893,24635,37.3286,22635,721
1.50022,194.66468,-1892,24636,37.4779,22635,721
2.08994,186.08877,-1891,24637,37.4779,22635,721
2.23118,188.40531,-1890,24638,37.1792,22635,721
2.19672,199.80412,-1889,24639,37.4281,22635,721
1.71386,216.31042,-1888,24640,37.5277,22635,721
2.17929,239.73506,-1887,24641,37.4281,22635,721
3.17646,248.98738,-1886,24642,37.677,22635,721
2.02033,231.99032,-1885,24643,37.6273,22810,722
2.29856,208.91802,-1884,24644,37.5277,22810,722
2.83876,198.08375,-1883,24645,37.6273,22810,722
2.93131,204.41092,-1882,24646,37.3286,22810,722
2.19672,222.12487,-1881,24647,37.4779,22810,722
1.40163,242.0682,-1880,24648,37.4281,22810,722
1.84257,256.29987,-1879,24649,37.677,22810,722
2.08079,259.26798,-1878,24650,37.4281,22810,722
2.03678,258.52167,-1877,24651,37.3286,22810,722
2.5353,245.5092,-1876,24652,37.677,22810,722
2.05543,233.1982,-1875,24653,37.4281,23078,719
2.33151,239.02471,-1874,24654,37.3286,23078,719
2.25668,251.86564,-1873,24655,37.4281,23078,719
2.38009,251.79641,-1872,24656,37.5277,23078,719
2.44336,229.24977,-1871,24657,37.3286,23078,719
1.66589,201.13624,-1870,24658,37.5277,23078,719
1.46158,201.39326,-1869,24659,37.3286,23078,719
1.86827,224.05899,-1868,24660,37.6273,23078,719
1.71664,225.36153,-1867,24661,37.4281,23078,719
1.66589,206.46533,-1866,24662,37.6273,23078,719
2.03444,196.53893,-1865,24663,37.3286,23336,712
1.94824,194.73662,-1864,24664,37.2788,23336,712
3.33321,191.63663,-1863,24665,37.2788,23336,712
4.73809,220.89641,-1862,24666,37.6273,23336,712
5.57411,305.08522,-1861,24667,37.4281,23336,712
3.45543,307.03744,-1860,24668,37.4281,23336,712
2.11037,181.84466,-1859,24669,37.5277,23336,712
2.06237,80.886298,-1858,24670,37.3286,23336,712
1.85804,218.20385,-1857,24671,37.6273,23336,712
1.60168,285.52476,-1856,24672,37.2788,23336,712
1.3637,271.52074,-1855,24673,37.4281,23187,712
2.56336,226.46201,-1854,24674,37.4281,23187,712
2.53718,188.70416,-1853,24675,37.3286,23187,712
2.35997,154.91709,-1852,24676,37.677,23187,712
2.45115,121.47689,-1851,24677,37.6273,23187,712
2.32946,93.84,-1850,24678,37.5277,23187,712
2.54656,68.325143,-1849,24679,37.3286,23187,712
2.68865,67.090492,-1848,24680,37.3286,23187,712
3.09587,80.195457,-1847,24681,37.6273,23187,712
2.40203,88.807306,-1846,24682,37.4281,23187,712
2.77935,94.513329,-1845,24683,37.677,23187,708
2.22905,90.270233,-1844,24684,37.2788,23187,708
2.37809,76.428397,-1843,24685,37.4281,23187,708
2.92806,58.337095,-1842,24686,37.2788,23187,708
1.92608,55.090644,-1841,24687,37.5277,23187,708
2.0716,49.557841,-1840,24688,37.6273,23187,708
2.35593,29.344139,-1839,24689,37.5277,23187,708
3.16894,19.426063,-1838,24690,37.5277,23187,708
2.0693,34.12231,-1837,24691,37.4779,23187,708
1.67446,36.108473,-1836,24692,37.6273,23187,708
2.51263,31.63859,-1835,24693,37.4281,22964,715
2.19672,45.132847,-1834,24694,37.6273,22964,715
2.93294,82.101156,-1833,24695,37.5277,22964,715
2.62948,102.68385,-1832,24696,37.2788,22964,715
3.23005,99.772152,-1831,24697,37.2788,22964,715
2.66729,92.666243,-1830,24698,37.2788,22964,715
1.78473,91.498112,-1829,24699,37.4281,22964,715
3.38009,88.439668,-1828,24700,37.6273,22964,715
1.55638,94.610084,-1827,24701,37.4779,22964,715
2.62403,109.73286,-1826,24702,37.6273,22964,715
2.22262,136.72823,-1825,24703,37.5277,22848,717
2.68333,164.12634,-1824,24704,37.3286,22848,717
3.5102,164.69384,-1823,24705,37.5277,22848,717
2.6003,152.50706,-1822,24706,37.4779,22848,717
3.02261,163.09809,-1821,24707,37.3286,22848,717
2.78449,210.79369,-1820,24708,37.6273,22848,717
3.21228,259.78768,-1819,24709,37.4281,22848,717
2.25034,273.01532,-1818,24710,37.3286,22848,717
2.34578,267.07631,-1817,24711,37.2788,22848,717
2.60579,256.0682,-1816,24712,37.3286,22848,717
1.39139,244.40196,-1815,24713,37.3286,22867,715
3.14477,248.77573,-1814,24714,37.4779,22867,715
2.14177,272.71838,-1813,24715,37.4281,22867,715
1.66016,285.09861,-1812,24716,37.4779,22867,715
2.42573,275.51186,-1811,24717,37.5277,22867,715
2.44336,266.07184,-1810,24718,37.6273,22867,715
2.95723,273.31728,-1809,24719,37.4779,22867,715
2.30684,288.29953,-1808,24720,37.5277,22867,715
2.04146,297.46196,-1807,24721,37.8762,22867,715
1.86316,309.44656,-1806,24722,37.6273,22867,715
1.84257,322.20472,-1805,24723,37.6273,22886,720
1.94824,325.21172,-1804,24724,37.6273,22886,720
2.1771,317.25217,-1803,24725,37.4281,22886,720
2.32332,309.76214,-1802,24726,37.677,22886,720
2.32946,301.32146,-1801,24727,37.5277,22886,720
1.3029,299.43467,-1800,24728,37.6273,22886,720
1.38452,305.18325,-1799,24729,37.3286,22886,720
2.65294,316.184,-1798,24730,37.5277,22886,720
2.40203,333.76841,-1797,24731,37.4281,22886,720
1.88099,348.68946,-1796,24732,37.5277,22886,720
1.68863,351.88099,-1795,24733,37.6273,22778,722
1.25821,355.16172,-1794,24734,37.3286,22778,722
1.54717,351.64972,-1793,24735,37.3286,22778,722
1.66303,343.786,-1792,24736,37.677,22778,722
1.82698,329.86599,-1791,24737,37.3286,22778,722
0.905627,324.30308,-1790,24738,37.5277,22778,722
1.31745,343.03198,-1789,24739,37.3286,22778,722
2.20323,370.6538,-1788,24740,37.4281,22778,722
1.49066,380.06442,-1787,24741,37.5277,22778,722
1.98461,365.80941,-1786,24742,37.4779,22778,722
1.78473,341.1656,-1785,24743,37.6273,22583,726
1.59273,321.08022,-1784,24744,37.4281,22583,726
1.07865,310.45641,-1783,24745,37.4281,22583,726
1.98461,308.89016,-1782,24746,37.6273,22583,726
1.67161,311.36581,-1781,24747,37.4281,22583,726
1.83479,306.67476,-1780,24748,37.677,22583,726
2.23118,290.28672,-1779,24749,37.6273,22583,726
1.68014,263.36757,-1778,24750,37.4281,22583,726
2.22262,252.419,-1777,24751,37.3286,22583,726
0.840071,259.65449,-1776,24752,37.4281,22583,726
1.95556,248.75309,-1775,24753,37.4281,22461,720
1.81125,218.53937,-1774,24754,37.3286,22461,720
1.57769,196.78374,-1773,24755,37.677,22461,720
2.27981,200.32828,-1772,24756,37.5277,22461,720
0.717624,221.60852,-1771,24757,37.4281,22461,720
2.23118,255.33938,-1770,24758,37.6273,22461,720
0.862477,277.83482,-1769,24759,37.6273,22461,720
2.55217,270.6625,-1768,24760,37.6273,22461,720
1.68581,261.86367,-1767,24761,37.4779,22461,720
1.54717,250.83967,-1766,24762,37.7268,22461,720
1.98461,239.62259,-1765,24763,37.4779,22403,714
1.79007,241.95623,-1764,24764,37.4281,22403,714
1.18804,274.64806,-1763,24765,37.677,22403,714
2.4974,303.3464,-1762,24766,37.6273,22403,714
2.55591,309.68509,-1761,24767,37.5277,22403,714
2.5782,300.96217,-1760,24768,37.4779,22403,714
2.15951,302.5814,-1759,24769,37.4281,22403,714
2.57079,316.79647,-1758,24770,37.4281,22403,714
1.95556,338.17121,-1757,24771,37.3286,22403,714
2.47824,347.54123,-1756,24772,37.3286,22403,714
1.11773,319.1038,-1755,24773,37.4281,22388,713
2.09677,317.72485,-1754,24774,37.6273,22388,713
1.98701,331.12917,-1753,24775,37.6273,22388,713
2.21402,332.096,-1752,24776,37.677,22388,713
2.79304,328.80744,-1751,24777,37.6273,22388,713
2.17052,304.23319,-1750,24778,37.677,22388,713
2.51832,271.1893,-1749,24779,37.3286,22388,713
2.36401,241.52437,-1748,24780,37.3286,22388,713
2.01324,212.86382,-1747,24781,37.4281,22388,713
2.73089,189.48407,-1746,24782,37.1792,22388,713
2.02504,180.83496,-1745,24783,37.4281,22398,753
4.07474,178.69714,-1744,24784,37.3286,22398,753
2.32332,175.9787,-1743,24785,37.4281,22398,753
3.07113,165.30984,-1742,24786,37.4281,22398,753
4.21735,175.18234,-1741,24787,37.3286,22398,753
3.15386,212.91001,-1740,24788,37.6273,22398,753
2.97651,260.55118,-1739,24789,37.4281,22398,753
3.18246,307.30677,-1738,24790,37.677,22398,753
3.04149,345.22358,-1737,24791,37.5277,22398,753
2.28816,366.07145,-1736,24792,37.3286,22398,753
1.98701,379.05906,-1735,24793,37.3286,22440,784
2.37809,394.52024,-1734,24794,37.6273,22440,784
2.69397,418.51687,-1733,24795,37.5277,22440,784
1.49066,445.04487,-1732,24796,37.4281,22440,784
1.40163,465.3954,-1731,24797,37.4281,22440,784
1.81651,476.07392,-1730,24798,37.2788,22440,784
2.09222,530.69491,-1729,24799,37.6273,22440,784
2.44921,693.43619,-1728,24800,37.4281,22440,784
1.37067,834.71059,-1727,24801,37.677,22440,784
1.52856,825.27539,-1726,24802,37.4281,22440,784
1.79804,719.67005,-1725,24803,37.677,22502,748
2.11714,658.4241,-1724,24804,37.3286,22502,748
1.28447,663.43248,-1723,24805,37.2788,22502,748
2.08994,668.78769,-1722,24806,37.5277,22502,748
3.02892,616.89889,-1721,24807,37.3286,22502,748
1.91864,467.97329,-1720,24808,37.7268,22502,748
1.95313,287.68567,-1719,24809,37.5277,22502,748
1.92608,177.13635,-1718,24810,37.6273,22502,748
1.82437,114.86323,-1717,24811,37.677,22502,748
1.73047,120.31012,-1716,24812,37.4281,22502,748
1.50657,147.5983,-1715,24813,37.6273,22635,677
1.31745,143.48372,-1714,24814,37.2788,22635,677
2.01324,148.66991,-1713,24815,37.6273,22635,677
1.17998,170.4978,-1712,24816,37.677,22635,677
0.655098,209.48478,-1711,24817,37.3286,22635,677
1.06082,262.90732,-1710,24818,37.4779,22635,677
1.9798,314.27833,-1709,24819,37.4779,22635,677
0.690534,350.32748,-1708,24820,37.6273,22635,677
1.89614,371.88576,-1707,24821,37.1792,22635,677
0.905627,386.5196,-1706,24822,37.3286,22635,677
0.625305,397.13082,-1705,24823,37.4281,22660,676
1.51603,403.20853,-1704,24824,37.4281,22660,676
1.39139,405.66408,-1703,24825,37.6273,22660,676
2.60213,406.9716,-1702,24826,37.6273,22660,676
1.64863,407.36378,-1701,24827,37.677,22660,676
1.67446,406.96078,-1700,24828,37.677,22660,676
1.54717,402.25487,-1699,24829,37.4281,22660,676
3.04149,392.02185,-1698,24830,37.4281,22660,676
2.23545,379.02376,-1697,24831,37.677,22660,676
1.88858,366.4089,-1696,24832,37.4281,22660,676
4.24777,358.87053,-1695,24833,37.3286,22613,713
3.20485,355.28631,-1694,24834,37.4779,22613,713
2.94592,347.33005,-1693,24835,37.4779,22613,713
3.10203,331.57607,-1692,24836,37.4281,22613,713
1.76323,315.77957,-1691,24837,37.4281,22613,713
3.25358,304.88255,-1690,24838,37.4281,22613,713
1.95556,293.51283,-1689,24839,37.3286,22613,713
4.06302,279.76793,-1688,24840,37.4281,22613,713
1.45505,264.25088,-1687,24841,37.5277,22613,713
1.97739,246.86028,-1686,24842,37.4281,22613,713
2.19672,228.20796,-1685,24843,37.1294,22598,743
3.18695,211.20147,-1684,24844,37.3286,22598,743
1.75781,195.9846,-1683,24845,37.677,22598,743
0.78733,181.95967,-1682,24846,37.4281,22598,743
2.15287,171.12721,-1681,24847,37.677,22598,743
1.81651,160.44001,-1680,24848,37.4281,22598,743
2.35997,148.06198,-1679,24849,37.4281,22598,743
2.72389,137.39142,-1678,24850,37.4281,22598,743
2.05078,134.55194,-1677,24851,37.6273,22598,743
2.90024,138.67907,-1676,24852,37.2788,22598,743
2.24822,142.94454,-1675,24853,37.677,22642,756
3.2987,139.86158,-1674,24854,37.677,22642,756
2.57079,131.95919,-1673,24855,37.677,22642,756
2.56336,128.63645,-1672,24856,37.3286,22642,756
2.61128,136.24474,-1671,24857,37.3286,22642,756
2.29856,159.9994,-1670,24858,37.4281,22642,756
2.75695,184.36178,-1669,24859,37.1792,22642,756
2.63129,198.77508,-1668,24860,37.5277,22642,756
3.233,217.12414,-1667,24861,37.6273,22642,756
2.32126,255.28253,-1666,24862,37.3286,22642,756
3.41936,313.54862,-1665,24863,37.6273,22634,770
2.41983,377.3116,-1664,24864,37.3286,22634,770
3.14629,435.85854,-1663,24865,37.5277,22634,770
2.52588,485.39996,-1662,24866,37.2788,22634,770
2.10811,519.9706,-1661,24867,37.4779,22634,770
1.23912,536.4586,-1660,24868,37.6273,22634,770
1.85547,529.6225,-1659,24869,37.677,22634,770
1.4219,503.67751,-1658,24870,37.4281,22634,770
2.32946,461.46188,-1657,24871,37.6273,22634,770
1.20794,405.70481,-1656,24872,37.4281,22634,770
1.57769,339.10808,-1655,24873,37.5277,22575,773
1.19205,267.91333,-1654,24874,37.4281,22575,773
2.02269,209.85907,-1653,24875,37.3286,22575,773
2.79815,191.79965,-1652,24876,37.6273,22575,773
2.55591,213.80454,-1651,24877,37.3286,22575,773
2.46473,243.55612,-1650,24878,37.677,22575,773
2.66012,258.50161,-1649,24879,37.2788,22575,773
2.98451,253.03933,-1648,24880,37.4281,22575,773
2.56522,237.07419,-1647,24881,37.6273,22575,773
2.56522,225.86073,-1646,24882,37.6273,22575,773
2.55591,229.73023,-1645,24883,37.4281,22530,775
2.78106,246.84661,-1644,24884,37.4281,22530,775
2.01324,269.21848,-1643,24885,37.6273,22530,775
2.65294,289.7219,-1642,24886,37.6273,22530,775
2.01324,305.11494,-1641,24887,37.4281,22530,775
2.46473,314.90701,-1640,24888,37.6273,22530,775
2.16832,317.42666,-1639,24889,37.4281,22530,775
1.48103,312.95364,-1638,24890,37.5277,22530,775
1.23912,302.86845,-1637,24891,37.6273,22530,775
1.76323,289.05482,-1636,24892,37.6273,22530,775
1.73872,272.43523,-1635,24893,37.677,22530,767
2.15287,255.7653,-1634,24894,37.3286,22530,767
2.0156,242.70875,-1633,24895,37.4779,22530,767
2.36401,235.96662,-1632,24896,37.3286,22530,767
2.30684,315.49102,-1631,24897,37.4779,22530,767
2.25457,482.67827,-1630,24898,37.3286,22530,767
1.62532,545.75104,-1629,24899,37.5277,22530,767
2.26301,458.76793,-1628,24900,37.6273,22530,767
1.17998,387.60558,-1627,24901,37.4779,22530,767
1.80598,422.76842,-1626,24902,37.4281,22530,767
1.34255,467.06895,-1625,24903,37.3286,22526,763
1.17998,452.30102,-1624,24904,37.4281,22526,763
1.51917,374.60897,-1623,24905,37.4779,22526,763
1.17594,271.68596,-1622,24906,37.3286,22526,763
1.24296,206.29626,-1621,24907,37.6273,22526,763
1.50657,207.88933,-1620,24908,37.4281,22526,763
1.00543,221.3228,-1619,24909,37.5277,22526,763
1.27702,208.39651,-1618,24910,37.3286,22526,763
1.11345,175.49084,-1617,24911,37.6273,22526,763
1.3637,148.92183,-1616,24912,37.6273,22526,763
1.56555,149.64138,-1615,24913,37.5277,22549,758
2.03678,168.92648,-1614,24914,37.6273,22549,758
0.98628,194.09752,-1613,24915,37.4281,22549,758
0.926449,232.5036,-1612,24916,37.3286,22549,758
1.38452,306.87712,-1611,24917,37.2788,22549,758
1.20794,379.99502,-1610,24918,37.5277,22549,758
2.87879,413.35648,-1609,24919,37.4281,22549,758
1.12623,401.9709,-1608,24920,37.5277,22549,758
1.13045,374.9848,-1607,24921,37.3286,22549,758
2.27143,358.91398,-1606,24922,37.4281,22549,758
2.29648,350.0821,-1605,24923,37.4281,22580,762
3.02104,335.82998,-1604,24924,37.4281,22580,762
1.19205,316.49388,-1603,24925,37.4281,22580,762
3.40679,298.11247,-1602,24926,37.6273,22580,762
2.27143,281.69364,-1601,24927,37.2788,22580,762
1.83739,260.52659,-1600,24928,37.4281,22580,762
3.4637,231.33175,-1599,24929,37.4281,22580,762
1.39822,201.97075,-1598,24930,37.6273,22580,762
2.79474,176.62929,-1597,24931,37.3286,22580,762
2.11037,156.67909,-1596,24932,37.5277,22580,762
2.71688,132.19764,-1595,24933,37.4281,22603,766
2.09677,98.557396,-1594,24934,37.4779,22603,766
2.51263,74.831889,-1593,24935,37.6273,22603,766
3.15083,93.486415,-1592,24936,37.3286,22603,766
3.27403,132.74477,-1591,24937,37.4281,22603,766
2.49167,162.32437,-1590,24938,37.4281,22603,766
2.85718,171.39024,-1589,24939,37.677,22603,766
1.96287,162.25027,-1588,24940,37.4281,22603,766
2.13954,147.41232,-1587,24941,37.4281,22603,766
2.47824,140.33011,-1586,24942,37.4281,22603,766
2.15951,146.50294,-1585,24943,37.6273,22623,765
0.921287,158.58324,-1584,24944,37.6273,22623,765
1.98461,167.31588,-1583,24945,37.4779,22623,765
2.56336,168.87231,-1582,24946,37.6273,22623,765
2.31921,165.78632,-1581,24947,37.4281,22623,765
1.28447,162.68671,-1580,24948,37.6273,22623,765
2.16832,162.03826,-1579,24949,37.4281,22623,765
2.18584,165.21652,-1578,24950,37.4779,22623,765
2.93944,189.20717,-1577,24951,37.6273,22623,765
3.0163,250.93838,-1576,24952,37.6273,22623,765
2.06237,283.2686,-1575,24953,37.4281,22632,761
2.15066,244.43991,-1574,24954,37.3286,22632,761
1.87592,208.93742,-1573,24955,37.6273,22632,761
1.60466,230.19192,-1572,24956,37.3286,22632,761
1.44188,256.36425,-1571,24957,37.3286,22632,761
1.21581,248.00773,-1570,24958,37.4281,22632,761
0.793363,205.5821,-1569,24959,37.5277,22632,761
1.96529,159.35885,-1568,24960,37.3286,22632,761
1.73323,147.21771,-1567,24961,37.4779,22632,761
1.82698,165.46981,-1566,24962,37.4281,22632,761
0.971667,175.05096,-1565,24963,37.5277,22642,757
2.79815,153.59793,-1564,24964,37.4281,22642,757
1.84257,110.61995,-1563,24965,37.6273,22642,757
0.931581,70.044749,-1562,24966,37.4281,22642,757
1.63702,42.566847,-1561,24967,37.4281,22642,757
1.06977,29.205944,-1560,24968,37.6273,22642,757
1.07865,36.12147,-1559,24969,37.5277,22642,757
1.32827,44.863622,-1558,24970,37.4281,22642,757
1.33185,51.879021,-1557,24971,37.6273,22642,757
2.03444,59.799379,-1556,24972,37.4281,22642,757
1.63702,64.868169,-1555,24973,37.4281,22623,761
2.08079,70.359744,-1554,24974,37.1294,22623,761
2.99408,80.243011,-1553,24975,37.677,22623,761
0.507437,91.385671,-1552,24976,37.7268,22623,761
2.20323,99.397396,-1551,24977,37.6273,22623,761
0.931581,99.513063,-1550,24978,37.4281,22623,761
2.66012,90.318916,-1549,24979,37.4281,22623,761
2.93944,75.198285,-1548,24980,37.1792,22623,761
1.89614,59.527898,-1547,24981,37.4779,22623,761
0.811194,49.429433,-1546,24982,37.4281,22623,761
1.76052,44.282426,-1545,24983,37.6273,22599,768
2.6003,44.595946,-1544,24984,37.4281,22599,768
2.79645,52.650951,-1543,24985,37.4281,22599,768
1.9942,59.823047,-1542,24986,37.4281,22599,768
2.54844,58.510531,-1541,24987,37.4281,22599,768
2.58005,46.683397,-1540,24988,37.677,22599,768
2.32332,34.701264,-1539,24989,37.6273,22599,768
2.11488,36.693451,-1538,24990,37.7268,22599,768
1.89614,50.990627,-1537,24991,37.6273,22599,768
2.11714,63.446742,-1536,24992,37.3286,22599,768
1.92856,68.802081,-1535,24993,37.4779,22570,778
2.15287,74.672516,-1534,24994,37.677,22570,778
1.88099,80.211064,-1533,24995,37.4281,22570,778
2.9717,81.979372,-1532,24996,37.4281,22570,778
2.21187,88.058735,-1531,24997,37.4281,22570,778
1.5987,96.070111,-1530,24998,37.7268,22570,778
2.04146,100.47462,-1529,24999,37.4281,22570,778
1.53168,101.38063,-1528,25000,37.4281,22570,778
2.18366,100.94632,-1527,25001,37.6273,22570,778
1.01016,100.25689,-1526,25002,37.677,22570,778
1.60168,98.29359,-1525,25003,37.677,22543,786
2.03444,97.728702,-1524,25004,37.5277,22543,786
1.958,101.16625,-1523,25005,37.6273,22543,786
1.19604,103.11849,-1522,25006,37.4281,22543,786
1.82698,98.302761,-1521,25007,37.677,22543,786
1.23912,90.839425,-1520,25008,37.4779,22543,786
1.90617,90.015165,-1519,25009,37.3286,22543,786
0.577742,93.467764,-1518,25010,37.3286,22543,786
1.9942,94.362878,-1517,25011,37.4281,22543,786
0.78733,91.940747,-1516,25012,37.4779,22543,786
1.83739,81.615576,-1515,25013,37.3286,22523,789
2.82022,67.592791,-1514,25014,37.3286,22523,789
1.74146,58.267064,-1513,25015,37.3286,22523,789
2.91991,53.721063,-1512,25016,37.4281,22523,789
1.26953,49.907653,-1511,25017,37.6273,22523,789
1.98701,47.515467,-1510,25018,37.4281,22523,789
1.67446,43.468002,-1509,25019,37.3286,22523,789
1.36019,40.643548,-1508,25020,37.4281,22523,789
2.25457,38.52184,-1507,25021,37.3286,22523,789
2.0716,37.37844,-1506,25022,37.3286,22523,789
1.71664,37.17517,-1505,25023,37.4779,22508,790
2.20539,38.808569,-1504,25024,37.4281,22508,790
1.20794,42.345908,-1503,25025,37.4779,22508,790
2.48976,46.086676,-1502,25026,37.4281,22508,790
1.09183,49.494055,-1501,25027,37.4281,22508,790
2.39606,52.508684,-1500,25028,37.6273,22508,790
1.80598,55.791074,-1499,25029,37.3286,22508,790
2.26301,58.227923,-1498,25030,37.4779,22508,790
1.67161,57.910753,-1497,25031,37.6273,22508,790
1.51917,54.657792,-1496,25032,37.3286,22508,790
1.39139,49.584294,-1495,25033,37.4779,22498,797
2.44336,43.226165,-1494,25034,37.3286,22498,797
0.717624,38.872256,-1493,25035,37.2788,22498,797
2.36804,44.263241,-1492,25036,37.4281,22498,797
1.59273,52.700032,-1491,25037,37.6273,22498,797
1.48103,59.371993,-1490,25038,37.4281,22498,797
2.41193,68.214918,-1489,25039,37.4779,22498,797
1.94824,77.202983,-1488,25040,37.4281,22498,797
2.60213,80.882522,-1487,25041,37.4281,22498,797
2.08079,80.597658,-1486,25042,37.4281,22498,797
1.34255,81.153993,-1485,25043,37.4281,22497,796
2.50313,80.762682,-1484,25044,37.1294,22497,796
2.29024,80.803632,-1483,25045,37.4281,22497,796
1.62826,113.17827,-1482,25046,37.5277,22497,796
3.58812,178.95916,-1481,25047,37.4281,22497,796
3.70708,246.60986,-1480,25048,37.4281,22497,796
2.08994,302.83236,-1479,25049,37.4779,22497,796
2.80666,344.72905,-1478,25050,37.3286,22497,796
1.54717,386.25765,-1477,25051,37.4281,22497,796
2.47246,457.66428,-1476,25052,37.6273,22497,796
1.25061,505.72774,-1475,25053,37.4281,22495,792
1.11773,508.74977,-1474,25054,37.4281,22495,792
1.53168,530.91517,-1473,25055,37.4281,22495,792
1.86827,567.12073,-1472,25056,37.677,22495,792
1.02423,554.65755,-1471,25057,37.4281,22495,792
0.981433,470.81121,-1470,25058,37.4779,22495,792
1.56555,336.47417,-1469,25059,37.3286,22495,792
1.84516,243.56778,-1468,25060,37.6273,22495,792
2.12164,326.03829,-1467,25061,37.677,22495,792
1.68014,473.10102,-1466,25062,37.4281,22495,792
1.77938,575.42461,-1465,25063,37.3286,22495,792
1.88858,608.44069,-1464,25064,37.6273,22495,792
2.58743,589.60624,-1463,25065,37.4281,22495,792
3.31744,552.86495,-1462,25066,37.6273,22495,792
3.33893,515.46376,-1461,25067,37.4281,22495,792
4.0158,478.95869,-1460,25068,37.677,22495,792
2.94592,449.96531,-1459,25069,37.677,22495,792
1.61355,421.42392,-1458,25070,37.3286,22495,792
1.67446,383.48821,-1457,25071,37.3286,22495,792
2.76386,320.98551,-1456,25072,37.3286,22495,792
2.46667,225.76121,-1455,25073,37.6273,22468,791
1.73047,118.1884,-1454,25074,37.3286,22468,791
2.0156,91.471074,-1453,25075,37.6273,22468,791
3.41238,158.49235,-1452,25076,37.4281,22468,791
1.55638,196.63921,-1451,25077,37.6273,22468,791
2.00374,179.4253,-1450,25078,37.4281,22468,791
1.10916,116.50989,-1449,25079,37.6273,22468,791
1.62826,48.993403,-1448,25080,37.5277,22468,791
2.05078,63.743733,-1447,25081,37.4281,22468,791
1.59273,107.3005,-1446,25082,37.6273,22468,791
2.44921,134.83096,-1445,25083,37.3286,22453,814
2.51263,156.01054,-1444,25084,37.6273,22453,814
2.05078,171.61037,-1443,25085,37.4281,22453,814
1.11773,184.0175,-1442,25086,37.5277,22453,814
1.83739,197.56185,-1441,25087,37.5277,22453,814
1.71386,206.30764,-1440,25088,37.6273,22453,814
2.22905,203.46866,-1439,25089,37.6273,22453,814
2.17052,189.09917,-1438,25090,37.6273,22453,814
2.26722,167.42378,-1437,25091,37.5277,22453,814
2.09677,144.38106,-1436,25092,37.3286,22453,814
2.27352,125.28512,-1435,25093,37.4281,22470,802
2.17052,107.83356,-1434,25094,37.4281,22470,802
2.76386,90.304726,-1433,25095,37.4281,22470,802
2.75176,70.182362,-1432,25096,37.677,22470,802
2.09677,61.192911,-1431,25097,37.7268,22470,802
3.15537,72.642503,-1430,25098,37.6273,22470,802
1.83998,96.921983,-1429,25099,37.4779,22470,802
2.74308,123.07969,-1428,25100,37.3286,22470,802
2.80496,145.93857,-1427,25101,37.4779,22470,802
2.27981,163.18755,-1426,25102,37.4779,22470,802
3.34321,185.81656,-1425,25103,37.4779,22464,820
1.90867,221.85889,-1424,25104,37.6273,22464,820
2.43358,226.12869,-1423,25105,37.677,22464,820
1.45176,176.12589,-1422,25106,37.6273,22464,820
1.64863,123.9173,-1421,25107,37.4281,22464,820
1.88858,161.51088,-1420,25108,37.2788,22464,820
1.62826,218.50375,-1419,25109,37.6273,22464,820
1.44188,227.80499,-1418,25110,37.5277,22464,820
2.22905,190.10616,-1417,25111,37.4779,22464,820
1.77132,132.0592,-1416,25112,37.677,22464,820
1.0381,91.931346,-1415,25113,37.3286,22462,812
1.62826,98.656755,-1414,25114,37.6273,22462,812
1.06977,124.26188,-1413,25115,37.6273,22462,812
1.44518,135.83228,-1412,25116,37.6273,22462,812
0.78733,132.80453,-1411,25117,37.677,22462,812
0.239208,127.07203,-1410,25118,37.7268,22462,812
2.15951,126.16391,-1409,25119,37.4779,22462,812
1.15548,128.99026,-1408,25120,37.2788,22462,812
1.47134,132.13039,-1407,25121,37.6273,22462,812
1.66303,130.32868,-1406,25122,37.4779,22462,812
2.21832,124.65244,-1405,25123,37.3286,22461,811
2.15951,118.0938,-1404,25124,37.3286,22461,811
1.34255,110.84878,-1403,25125,37.6273,22461,811
1.37415,107.29349,-1402,25126,37.4281,22461,811
2.08994,105.3966,-1401,25127,37.3286,22461,811
2.29856,99.583117,-1400,25128,37.677,22461,811
1.48103,88.43773,-1399,25129,37.6273,22461,811
2.30684,78.157323,-1398,25130,37.6273,22461,811
2.05543,81.759411,-1397,25131,37.677,22461,811
1.63702,68.106374,-1396,25132,37.3286,22461,811
1.52856,52.978375,-1395,25133,37.677,22451,817
1.01016,75.605783,-1394,25134,37.6273,22451,817
2.34985,82.025982,-1393,25135,37.4779,22451,817
2.12837,67.771344,-1392,25136,37.6273,22451,817
0.961803,71.557051,-1391,25137,37.5277,22451,817
1.52544,108.51776,-1390,25138,37.1792,22451,817
1.68298,152.32189,-1389,25139,37.6273,22451,817
2.47439,185.78396,-1388,25140,37.3286,22451,817
2.37809,199.45393,-1387,25141,37.3286,22451,817
0.805294,192.21121,-1386,25142,37.2788,22451,817
1.59273,170.6067,-1385,25143,37.6273,22440,819
1.95556,145.19236,-1384,25144,37.677,22440,819
1.77938,125.50384,-1383,25145,37.5277,22440,819
1.0381,118.04584,-1382,25146,37.4281,22440,819
1.38452,120.1175,-1381,25147,37.6273,22440,819
1.82698,125.00095,-1380,25148,37.6273,22440,819
1.73323,127.5411,-1379,25149,37.677,22440,819
1.24296,131.54004,-1378,25150,37.6273,22440,819
2.09222,130.87264,-1377,25151,37.5277,22440,819
2.26301,131.47273,-1376,25152,37.4779,22440,819
1.80069,136.45665,-1375,25153,37.4779,22448,815
1.44518,142.56412,-1374,25154,37.4779,22448,815
2.10811,145.47837,-1373,25155,37.4281,22448,815
1.34255,143.61223,-1372,25156,37.6273,22448,815
2.36401,141.77845,-1371,25157,37.4281,22448,815
1.21581,144.12364,-1370,25158,37.3286,22448,815
1.59273,147.39645,-1369,25159,37.4281,22448,815
2.06006,151.91291,-1368,25160,37.4281,22448,815
2.02269,156.50119,-1367,25161,37.4779,22448,815
2.44336,159.71509,-1366,25162,37.6273,22448,815
1.63702,164.68986,-1365,25163,37.6273,22450,811
2.79815,169.22072,-1364,25164,37.4281,22450,811
2.45115,174.54288,-1363,25165,37.677,22450,811
1.79804,178.91127,-1362,25166,37.5277,22450,811
1.83479,177.28585,-1361,25167,37.3286,22450,811
2.1771,169.01097,-1360,25168,37.677,22450,811
1.97498,157.10814,-1359,25169,37.3286,22450,811
2.43162,147.5974,-1358,25170,37.4281,22450,811
1.82437,144.1318,-1357,25171,37.6273,22450,811
1.56859,146.43233,-1356,25172,37.6273,22450,811
1.59273,151.54797,-1355,25173,37.2788,22471,808
1.86827,156.84287,-1354,25174,37.3286,22471,808
1.74966,160.25605,-1353,25175,37.7268,22471,808
1.62239,160.90043,-1352,25176,37.6273,22471,808
2.55217,160.66331,-1351,25177,37.5277,22471,808
1.80334,161.5861,-1350,25178,37.4281,22471,808
2.0156,162.35342,-1349,25179,37.2788,22471,808
2.06237,163.56903,-1348,25180,37.3286,22471,808
1.48103,163.46965,-1347,25181,37.3286,22471,808
2.45698,163.93643,-1346,25182,37.6273,22471,808
1.958,165.61329,-1345,25183,37.4779,22504,809
1.60466,165.33224,-1344,25184,37.677,22504,809
2.58005,164.47506,-1343,25185,37.3286,22504,809
2.47631,164.4095,-1342,25186,37.5277,22504,809
1.92361,163.21189,-1341,25187,37.4281,22504,809
1.958,161.58024,-1340,25188,37.5277,22504,809
2.74308,159.95688,-1339,25189,37.4281,22504,809
1.71664,158.13393,-1338,25190,37.4281,22504,809
2.14177,156.40737,-1337,25191,37.4281,22504,809
2.92643,156.27784,-1336,25192,37.3286,22504,809
1.89865,156.85541,-1335,25193,37.6273,22557,809
3.14174,156.32137,-1334,25194,37.4281,22557,809
1.05631,157.16945,-1333,25195,37.6273,22557,809
2.46086,162.62341,-1332,25196,37.5277,22557,809
1.23912,171.47473,-1331,25197,37.3286,22557,809
1.39139,182.84556,-1330,25198,37.4779,22557,809
2.38009,194.86165,-1329,25199,37.5277,22557,809
2.24822,204.1235,-1328,25200,37.5277,22557,809
1.76323,209.81667,-1327,25201,37.4281,22557,809
1.39139,214.57992,-1326,25202,37.4779,22557,809
2.25668,226.64319,-1325,25203,37.3286,22641,809
2.08765,246.19536,-1324,25204,37.4281,22641,809
1.37415,273.20841,-1323,25205,37.3286,22641,809
1.60168,292.66843,-1322,25206,37.6273,22641,809
2.29856,302.34199,-1321,25207,37.4779,22641,809
2.48784,310.37005,-1320,25208,37.4779,22641,809
1.92856,319.52648,-1319,25209,37.3286,22641,809
2.51073,325.9988,-1318,25210,37.677,22641,809
3.20038,340.60428,-1317,25211,37.3286,22641,809
3.15386,357.35958,-1316,25212,37.6273,22641,809
2.90681,366.20567,-1315,25213,37.6273,22752,811
2.40401,368.39126,-1314,25214,37.3286,22752,811
2.46667,365.85263,-1313,25215,37.4779,22752,811
2.27352,362.73146,-1312,25216,37.677,22752,811
3.45819,358.11639,-1311,25217,37.677,22752,811
2.45115,349.60635,-1310,25218,37.677,22752,811
2.10585,337.95501,-1309,25219,37.6273,22752,811
2.97651,329.59457,-1308,25220,37.6273,22752,811
2.24609,325.6161,-1307,25221,37.3286,22752,811
2.89366,324.43416,-1306,25222,37.2788,22752,811
3.58679,322.99191,-1305,25223,37.5277,22931,812
4.31128,319.94741,-1304,25224,37.6273,22931,812
3.50204,316.25791,-1303,25225,37.3286,22931,812
1.84516,312.02688,-1302,25226,37.4281,22931,812
2.04146,301.34569,-1301,25227,37.6273,22931,812
2.60213,285.19904,-1300,25228,37.5277,22931,812
1.49385,274.82756,-1299,25229,37.4281,22931,812
2.18802,273.28438,-1298,25230,37.4779,22931,812
2.72914,270.35678,-1297,25231,37.4779,22931,812
2.59295,260.62992,-1296,25232,37.6273,22931,812
2.36199,248.79577,-1295,25233,37.6273,23112,808
2.8986,241.3394,-1294,25234,37.4281,23112,808
2.80326,237.1452,-1293,25235,37.6273,23112,808
2.40203,231.99212,-1292,25236,37.5277,23112,808
2.76559,225.38544,-1291,25237,37.5277,23112,808
2.97651,219.32679,-1290,25238,37.6273,23112,808
2.55777,216.00382,-1289,25239,37.677,23112,808
2.43358,218.57425,-1288,25240,37.4779,23112,808
1.91615,223.09868,-1287,25241,37.6273,23112,808
3.08198,228.2487,-1286,25242,37.4779,23112,808
2.40203,232.39139,-1285,25243,37.2788,23223,801
2.11488,232.82031,-1284,25244,37.4281,23223,801
2.28607,227.572,-1283,25245,37.6273,23223,801
2.85384,219.30682,-1282,25246,37.6273,23223,801
2.79645,213.33861,-1281,25247,37.6273,23223,801
2.46086,212.08479,-1280,25248,37.4281,23223,801
3.07113,218.35045,-1279,25249,37.4779,23223,801
2.54094,231.89822,-1278,25250,37.4779,23223,801
2.44336,242.308,-1277,25251,37.4281,23223,801
2.22262,244.98326,-1276,25252,37.6273,23223,801
2.32332,246.90989,-1275,25253,37.2788,23172,790
2.0739,253.01183,-1274,25254,37.4281,23172,790
2.46086,260.40611,-1273,25255,37.677,23172,790
2.50313,269.36991,-1272,25256,37.6273,23172,790
1.84774,277.89411,-1271,25257,37.5277,23172,790
2.86218,285.67252,-1270,25258,37.4779,23172,790
2.52588,296.45662,-1269,25259,37.6273,23172,790
2.44336,310.33716,-1268,25260,37.4281,23172,790
1.71942,323.57029,-1267,25261,37.2788,23172,790
2.10585,332.62821,-1266,25262,37.6273,23172,790
1.9942,330.82133,-1265,25263,37.5277,22986,786
2.39805,326.68581,-1264,25264,37.3286,22986,786
2.29856,334.65841,-1263,25265,37.5277,22986,786
2.33968,352.35329,-1262,25266,37.6273,22986,786
1.80334,366.60219,-1261,25267,37.4281,22986,786
2.27352,372.25748,-1260,25268,37.5277,22986,786
1.48103,372.88908,-1259,25269,37.4281,22986,786
1.42859,370.46007,-1258,25270,37.4779,22986,786
1.82437,439.74401,-1257,25271,37.4779,22986,786
2.05078,628.41427,-1256,25272,37.4281,22986,786
1.52856,781.06224,-1255,25273,37.4281,22759,779
1.01016,776.85831,-1254,25274,37.4281,22759,779
1.49066,682.00793,-1253,25275,37.4281,22759,779
0.805294,682.38116,-1252,25276,37.4281,22759,779
1.07865,757.17512,-1251,25277,37.8264,22759,779
0.534885,796.42592,-1250,25278,37.677,22759,779
0.78733,773.78623,-1249,25279,37.3286,22759,779
0.704209,700.98055,-1248,25280,37.4281,22759,779
1.00068,589.53876,-1247,25281,37.7268,22759,779
1.4219,486.74438,-1246,25282,37.6273,22759,779
1.39822,435.96906,-1245,25283,37.5277,22617,762
0.793363,422.56733,-1244,25284,37.4281,22617,762
1.54717,411.76808,-1243,25285,37.2788,22617,762
1.32827,387.96845,-1242,25286,37.6273,22617,762
1.82437,356.63744,-1241,25287,37.4779,22617,762
1.9335,319.25926,-1240,25288,37.6273,22617,762
1.20399,274.41952,-1239,25289,37.3286,22617,762
1.49704,236.31242,-1238,25290,37.6273,22617,762
1.18402,210.75279,-1237,25291,37.4281,22617,762
1.79539,187.8586,-1236,25292,37.4281,22617,762
1.85804,174.73895,-1235,25293,37.6273,22552,748
2.54094,183.40409,-1234,25294,37.6273,22552,748
1.39139,219.38983,-1233,25295,37.4281,22552,748
1.71386,269.31129,-1232,25296,37.8762,22552,748
1.19205,311.99784,-1231,25297,37.3286,22552,748
1.60466,341.11463,-1230,25298,37.4281,22552,748
1.04268,361.74459,-1229,25299,37.4281,22552,748
0.308816,377.62593,-1228,25300,37.6273,22552,748
1.33185,382.46632,-1227,25301,37.677,22552,748
1.98461,381.00235,-1226,25302,37.4779,22552,748
1.68581,374.43279,-1225,25303,37.6273,22519,766
1.57163,352.55018,-1224,25304,37.5277,22519,766
1.96772,317.85323,-1223,25305,37.6273,22519,766
1.17998,287.5128,-1222,25306,37.6273,22519,766
1.58973,260.26458,-1221,25307,37.2788,22519,766
2.45115,236.85192,-1220,25308,37.6273,22519,766
2.72389,220.22063,-1219,25309,37.6273,22519,766
2.11488,214.12699,-1218,25310,37.4281,22519,766
2.31921,232.65913,-1217,25311,37.4281,22519,766
2.40995,263.34969,-1216,25312,37.4281,22519,766
2.01087,279.031,-1215,25313,37.6273,22506,792
1.4118,271.15059,-1214,25314,37.6273,22506,792
1.62239,254.36082,-1213,25315,37.7268,22506,792
1.65728,242.77698,-1212,25316,37.6273,22506,792
1.00543,243.20444,-1211,25317,37.677,22506,792
1.97739,257.8071,-1210,25318,37.7268,22506,792
1.99897,281.82464,-1209,25319,37.3286,22506,792
2.1573,308.8795,-1208,25320,37.3286,22506,792
1.79273,328.24317,-1207,25321,37.5277,22506,792
1.01016,337.56682,-1206,25322,37.4281,22506,792
1.74693,339.54647,-1205,25323,37.5277,22548,813
2.80496,338.23016,-1204,25324,37.4281,22548,813
2.58743,334.32864,-1203,25325,37.3286,22548,813
3.43606,327.29739,-1202,25326,37.8264,22548,813
2.37809,316.28738,-1201,25327,37.6273,22548,813
1.69708,301.86863,-1200,25328,37.4281,22548,813
2.16392,288.95041,-1199,25329,37.3286,22548,813
2.51263,277.46947,-1198,25330,37.6273,22548,813
2.40797,268.04945,-1197,25331,37.5277,22548,813
2.47631,261.43907,-1196,25332,37.4281,22548,813
2.26722,256.88792,-1195,25333,37.6273,22640,818
2.05543,253.87858,-1194,25334,37.6273,22640,818
2.85884,249.42983,-1193,25335,37.5277,22640,818
1.97498,245.91836,-1192,25336,37.4281,22640,818
2.84547,243.32358,-1191,25337,37.6273,22640,818
2.25668,237.30312,-1190,25338,37.4779,22640,818
2.39606,231.79677,-1189,25339,37.3286,22640,818
3.09125,230.18911,-1188,25340,37.3286,22640,818
2.3539,231.23033,-1187,25341,37.3286,22640,818
2.0762,228.54487,-1186,25342,37.5277,22640,818
2.46086,221.89996,-1185,25343,37.4281,22750,814
3.03992,210.63072,-1184,25344,37.6273,22750,814
1.50657,193.969,-1183,25345,37.4281,22750,814
2.44921,175.43746,-1182,25346,37.3286,22750,814
2.06237,162.97498,-1181,25347,37.6273,22750,814
2.7862,154.30566,-1180,25348,37.3286,22750,814
2.60762,144.04737,-1179,25349,37.3286,22750,814
0.889691,132.10676,-1178,25350,37.5277,22750,814
1.75781,120.40651,-1177,25351,37.3286,22750,814
2.9443,110.17162,-1176,25352,37.4779,22750,814
2.71512,99.832472,-1175,25353,37.4281,22812,816
1.68014,92.213275,-1174,25354,37.2788,22812,816
2.44336,87.29265,-1173,25355,37.4281,22812,816
3.50612,82.435339,-1172,25356,37.5277,22812,816
2.75176,77.697826,-1171,25357,37.6273,22812,816
1.48103,69.920826,-1170,25358,37.5277,22812,816
2.37809,60.901465,-1169,25359,37.4281,22812,816
1.97739,56.860399,-1168,25360,37.3286,22812,816
2.41786,58.701607,-1167,25361,37.6273,22812,816
1.42525,61.219692,-1166,25362,37.4281,22812,816
1.94088,61.415563,-1165,25363,37.4281,22843,818
2.32946,60.493938,-1164,25364,37.6273,22843,818
2.32946,60.27431,-1163,25365,37.4779,22843,818
2.11714,59.990325,-1162,25366,37.6273,22843,818
1.87592,61.426601,-1161,25367,37.6273,22843,818
2.35187,65.399732,-1160,25368,37.4779,22843,818
2.29856,74.587458,-1159,25369,37.6273,22843,818
2.915,84.942257,-1158,25370,37.4779,22843,818
3.35176,92.907137,-1157,25371,37.4281,22843,818
2.57079,98.579166,-1156,25372,37.6273,22843,818
2.8705,100.87211,-1155,25373,37.5277,22825,817
2.05311,103.17289,-1154,25374,37.4779,22825,817
2.1771,102.63217,-1153,25375,37.3286,22825,817
2.03678,101.08144,-1152,25376,37.4281,22825,817
3.47881,101.61978,-1151,25377,37.677,22825,817
2.63129,103.49583,-1150,25378,37.6273,22825,817
2.99408,104.76336,-1149,25379,37.5277,22825,817
2.28399,102.28538,-1148,25380,37.6273,22825,817
2.25668,96.263955,-1147,25381,37.6273,22825,817
2.41786,92.581299,-1146,25382,37.3286,22825,817
1.98701,94.350323,-1145,25383,37.2788,22818,815
2.0156,98.670726,-1144,25384,37.3286,22818,815
2.46473,101.85595,-1143,25385,37.677,22818,815
1.50657,102.61939,-1142,25386,37.4281,22818,815
1.94824,105.0373,-1141,25387,37.5277,22818,815
2.24822,109.28348,-1140,25388,37.3286,22818,815
2.5353,109.96943,-1139,25389,37.4281,22818,815
2.13954,107.28987,-1138,25390,37.6273,22818,815
2.26722,102.38178,-1137,25391,37.2788,22818,815
2.48016,94.850282,-1136,25392,37.5277,22818,815
2.48976,86.195558,-1135,25393,37.4779,22840,807
2.1771,78.349078,-1134,25394,37.4281,22840,807
2.43358,73.525453,-1133,25395,37.6273,22840,807
1.66303,75.323318,-1132,25396,37.8762,22840,807
1.92112,86.754127,-1131,25397,37.2788,22840,807
2.05543,102.66556,-1130,25398,37.6273,22840,807
1.38452,117.82239,-1129,25399,37.4779,22840,807
1.50022,128.16958,-1128,25400,37.677,22840,807
2.28816,132.65831,-1127,25401,37.6273,22840,807
1.69708,134.15361,-1126,25402,37.4281,22840,807
2.39407,135.02549,-1125,25403,37.3286,22871,789
2.42966,134.38323,-1124,25404,37.3286,22871,789
1.33185,129.32709,-1123,25405,37.6273,22871,789
1.71664,119.72808,-1122,25406,37.4281,22871,789
2.06237,109.28177,-1121,25407,37.5277,22871,789
1.38452,100.68744,-1120,25408,37.6273,22871,789
2.26091,101.53961,-1119,25409,37.3286,22871,789
2.0156,109.2905,-1118,25410,37.6273,22871,789
2.10585,119.5514,-1117,25411,37.677,22871,789
2.0693,126.12711,-1116,25412,37.677,22871,789
0.717624,126.12439,-1115,25413,37.4281,22864,769
1.68863,125.58751,-1114,25414,37.4779,22864,769
1.80334,126.36589,-1113,25415,37.4281,22864,769
2.38609,130.52085,-1112,25416,37.3286,22864,769
1.29923,134.629,-1111,25417,37.6273,22864,769
2.2819,138.87836,-1110,25418,37.4281,22864,769
2.24822,143.52053,-1109,25419,37.6273,22864,769
2.61128,147.82801,-1108,25420,37.4281,22864,769
2.25668,149.43127,-1107,25421,37.4281,22864,769
2.00136,148.75183,-1106,25422,37.4281,22864,769
1.76052,180.29607,-1105,25423,37.3286,22826,750
1.62532,302.63143,-1104,25424,37.5277,22826,750
2.15066,397.00137,-1103,25425,37.677,22826,750
1.45176,376.82973,-1102,25426,37.4779,22826,750
1.53168,350.72449,-1101,25427,37.5277,22826,750
1.65728,399.95833,-1100,25428,37.4779,22826,750
0.525895,448.33867,-1099,25429,37.4281,22826,750
2.06006,442.75133,-1098,25430,37.4281,22826,750
1.33185,382.98393,-1097,25431,37.4779,22826,750
1.1472,292.654,-1096,25432,37.5277,22826,750
1.72495,214.30451,-1095,25433,37.4281,22792,732
0.640375,186.41384,-1094,25434,37.4281,22792,732
0.292969,184.49945,-1093,25435,37.6273,22792,732
0.478416,166.45351,-1092,25436,37.6273,22792,732
1.54408,133.59038,-1091,25437,37.4281,22792,732
1.17998,122.45338,-1090,25438,37.4281,22792,732
1.11773,148.91287,-1089,25439,37.6273,22792,732
0.878906,175.04053,-1088,25440,37.3286,22792,732
1.17594,174.4653,-1087,25441,37.6273,22792,732
1.13045,148.28262,-1086,25442,37.5277,22792,732
1.25821,124.33237,-1085,25443,37.4281,22793,722
0.458048,115.11645,-1084,25444,37.4779,22793,722
1.31745,113.14996,-1083,25445,37.4281,22793,722
1.8529,118.9855,-1082,25446,37.4779,22793,722
1.68863,132.29482,-1081,25447,37.7268,22793,722
1.00543,141.02777,-1080,25448,37.6273,22793,722
1.76323,152.13052,-1079,25449,37.3286,22793,722
1.61059,161.43701,-1078,25450,37.4281,22793,722
1.9798,164.81725,-1077,25451,37.5277,22793,722
1.36019,168.63403,-1076,25452,37.6273,22793,722
1.63702,177.00721,-1075,25453,37.6273,22793,722
2.15066,192.16128,-1074,25454,37.4281,22793,722
2.72039,202.92878,-1073,25455,37.4779,22793,722
2.63491,214.3767,-1072,25456,37.4281,22793,722
1.96772,227.80489,-1071,25457,37.6273,22793,722
1.60168,239.22153,-1070,25458,37.6273,22793,722
2.08994,250.5761,-1069,25459,37.6273,22793,722
2.15287,265.24109,-1068,25460,37.4779,22793,722
1.75781,295.30141,-1067,25461,37.6273,22793,722
2.22905,312.90088,-1066,25462,37.4779,22793,722
1.5807,285.04087,-1065,25463,37.677,22803,729
2.01324,233.10984,-1064,25464,37.4281,22803,729
1.1472,194.83967,-1063,25465,37.4281,22803,729
1.81651,179.95193,-1062,25466,37.4779,22803,729
1.18402,160.82151,-1061,25467,37.4281,22803,729
1.73047,131.67472,-1060,25468,37.2788,22803,729
2.16392,112.88033,-1059,25469,37.5277,22803,729
2.59295,116.95451,-1058,25470,37.0797,22803,729
0.488281,144.82808,-1057,25471,37.4779,22803,729
0.981433,176.20823,-1056,25472,37.2788,22803,729
1.01016,170.78902,-1055,25473,37.6273,22835,753
1.54717,148.48036,-1054,25474,37.6273,22835,753
1.5034,126.36276,-1053,25475,37.5277,22835,753
1.96529,130.22231,-1052,25476,37.4281,22835,753
2.05311,165.8091,-1051,25477,37.4281,22835,753
1.70829,198.49151,-1050,25478,37.6273,22835,753
1.3102,213.4599,-1049,25479,37.5277,22835,753
1.44518,220.09267,-1048,25480,37.4281,22835,753
1.94333,224.22406,-1047,25481,37.677,22835,753
1.5807,232.03062,-1046,25482,37.3286,22835,753
1.82437,239.0527,-1045,25483,37.4281,22876,780
1.59273,248.88077,-1044,25484,37.5277,22876,780
0.601994,254.86741,-1043,25485,37.6273,22876,780
2.1771,267.55757,-1042,25486,37.3286,22876,780
2.22905,301.27482,-1041,25487,37.677,22876,780
2.96689,347.83046,-1040,25488,37.2788,22876,780
2.02269,399.72499,-1039,25489,37.4281,22876,780
3.58679,457.78359,-1038,25490,37.3286,22876,780
2.27143,515.02081,-1037,25491,37.4779,22876,780
2.19672,573.86163,-1036,25492,37.2788,22876,780
2.88706,535.71608,-1035,25493,37.4779,22871,798
3.0163,466.11014,-1034,25494,37.6273,22871,798
2.4974,580.9254,-1033,25495,37.4281,22871,798
2.32332,574.60134,-1032,25496,37.5277,22871,798
3.71736,348.3204,-1031,25497,37.4281,22871,798
4.36841,143.99522,-1030,25498,37.4779,22871,798
2.75868,376.01526,-1029,25499,37.8762,22871,798
2.58005,625.66407,-1028,25500,37.4281,22871,798
1.9798,819.07229,-1027,25501,37.6273,22871,798
2.64575,884.01797,-1026,25502,37.4281,22871,798
2.0156,817.05023,-1025,25503,37.8264,22873,806
2.40797,696.98734,-1024,25504,37.6273,22873,806
0.840071,577.28219,-1023,25505,37.5277,22873,806
1.55638,464.82504,-1022,25506,37.4779,22873,806
0.946812,377.27625,-1021,25507,37.5277,22873,806
1.60466,337.19146,-1020,25508,37.5277,22873,806
0.737289,356.93844,-1019,25509,37.6273,22873,806
1.83739,394.63716,-1018,25510,37.4281,22873,806
1.22363,391.64222,-1017,25511,37.3286,22873,806
1.72495,337.45331,-1016,25512,37.3286,22873,806
1.82437,283.6513,-1015,25513,37.7268,22918,765
1.73323,240.41667,-1014,25514,37.7268,22918,765
2.25668,192.56587,-1013,25515,37.677,22918,765
2.03444,185.21655,-1012,25516,37.4281,22918,765
1.60168,216.21478,-1011,25517,37.5277,22918,765
3.34464,234.06893,-1010,25518,37.677,22918,765
1.81125,233.03929,-1009,25519,37.4779,22918,765
2.47631,225.85258,-1008,25520,37.4779,22918,765
2.0156,214.48539,-1007,25521,37.5277,22918,765
1.97739,200.43982,-1006,25522,37.4281,22918,765
2.76559,181.8086,-1005,25523,37.4281,22893,702
2.5353,172.12299,-1004,25524,37.3286,22893,702
2.44726,172.58454,-1003,25525,37.5277,22893,702
1.80334,170.19027,-1002,25526,37.6273,22893,702
1.89614,143.39537,-1001,25527,37.677,22893,702
1.77132,105.84376,-1000,25528,37.3286,22893,702
1.70829,78.388628,-999,25529,37.6273,22893,702
1.62239,76.558234,-998,25530,37.4779,22893,702
1.71664,89.976834,-997,25531,37.4281,22893,702
1.89614,103.30041,-996,25532,37.677,22893,702
2.27352,114.26811,-995,25533,37.6273,22904,695
2.3539,115.02664,-994,25534,37.4779,22904,695
1.67161,102.76501,-993,25535,37.3286,22904,695
1.76052,83.789155,-992,25536,37.4281,22904,695
1.9918,69.257235,-991,25537,37.4281,22904,695
1.69427,64.902502,-990,25538,37.2788,22904,695
2.75868,58.985608,-989,25539,37.7268,22904,695
2.21187,48.229515,-988,25540,37.3286,22904,695
1.93596,36.200383,-987,25541,37.677,22904,695
2.39407,28.124693,-986,25542,37.6273,22904,695
2.1573,22.060304,-985,25543,37.3286,22938,694
2.11037,16.226171,-984,25544,37.6273,22938,694
1.63993,13.272024,-983,25545,37.6273,22938,694
2.71688,18.169624,-982,25546,37.6273,22938,694
1.75781,25.905955,-981,25547,37.6273,22938,694
3.20336,33.638512,-980,25548,37.5277,22938,694
1.69427,39.643168,-979,25549,37.6273,22938,694
3.12653,43.209615,-978,25550,37.4281,22938,694
2.72564,43.528637,-977,25551,37.6273,22938,694
1.49704,42.819718,-976,25552,37.5277,22938,694
1.45505,43.08131,-975,25553,37.677,22953,693
1.62239,45.465743,-974,25554,37.6273,22953,693
3.39698,48.979867,-973,25555,37.6273,22953,693
1.27702,53.530163,-972,25556,37.677,22953,693
1.21188,57.864161,-971,25557,37.3286,22953,693
2.26722,61.22103,-970,25558,37.4779,22953,693
2.915,64.790019,-969,25559,37.4281,22953,693
2.18584,69.999102,-968,25560,37.677,22953,693
0.569429,75.618494,-967,25561,37.4779,22953,693
2.27352,78.847784,-966,25562,37.4779,22953,693
2.26301,79.781798,-965,25563,37.2788,22919,697
2.30063,81.836469,-964,25564,37.6273,22919,697
1.3637,85.942095,-963,25565,37.4281,22919,697
1.57769,92.030735,-962,25566,37.1792,22919,697
2.80496,95.399492,-961,25567,37.2788,22919,697
2.44531,96.686315,-960,25568,37.5277,22919,697
2.1771,99.275966,-959,25569,37.4779,22919,697
1.80334,103.10029,-958,25570,37.4779,22919,697
2.30063,103.76084,-957,25571,37.4281,22919,697
1.56555,100.24745,-956,25572,37.4281,22919,697
1.96529,100.97768,-955,25573,37.4281,22846,697
2.46667,111.89161,-954,25574,37.6273,22846,697
1.64863,124.68495,-953,25575,37.7268,22846,697
2.9717,128.57725,-952,25576,37.4281,22846,697
1.68014,125.1185,-951,25577,37.6273,22846,697
1.96529,123.38078,-950,25578,37.4281,22846,697
2.20539,126.85279,-949,25579,37.3286,22846,697
1.84516,133.63856,-948,25580,37.3286,22846,697
1.30655,136.80826,-947,25581,37.4281,22846,697
1.85547,138.75491,-946,25582,37.6273,22846,697
1.77132,140.02103,-945,25583,37.5277,22749,705
1.28447,138.45432,-944,25584,37.3286,22749,705
1.42525,134.49717,-943,25585,37.3286,22749,705
1.54408,130.49682,-942,25586,37.6273,22749,705
2.00374,126.84603,-941,25587,37.4281,22749,705
1.40163,125.46536,-940,25588,37.6273,22749,705
1.8529,122.91577,-939,25589,37.6273,22749,705
2.49549,117.42669,-938,25590,37.677,22749,705
2.39606,114.14129,-937,25591,37.6273,22749,705
1.38452,112.59536,-936,25592,37.4281,22749,705
1.84774,111.46169,-935,25593,37.4779,22688,709
1.10916,108.02264,-934,25594,37.4281,22688,709
1.78473,105.74397,-933,25595,37.6273,22688,709
1.20399,105.05461,-932,25596,37.4281,22688,709
1.02423,100.83488,-931,25597,37.4779,22688,709
1.29556,98.141722,-930,25598,37.7268,22688,709
1.32467,96.531764,-929,25599,37.4779,22688,709
1.02423,93.038241,-928,25600,37.5277,22688,709
1.67446,88.450113,-927,25601,37.6273,22688,709
1.74966,86.232287,-926,25602,37.6273,22688,709
2.44921,86.311049,-925,25603,37.7268,22654,721
2.0693,86.165818,-924,25604,37.677,22654,721
1.38452,91.957601,-923,25605,37.3286,22654,721
1.5034,124.84959,-922,25606,37.2788,22654,721
1.82437,158.25007,-921,25607,37.4281,22654,721
1.80334,149.61703,-920,25608,37.4281,22654,721
1.77132,110.13976,-919,25609,37.4281,22654,721
1.48103,84.461807,-918,25610,37.4779,22654,721
1.76323,74.587458,-917,25611,37.6273,22654,721
1.00068,48.338765,-916,25612,37.677,22654,721
1.19604,80.86124,-915,25613,37.4281,22635,727
1.93596,131.28604,-914,25614,37.6273,22635,727
1.27328,137.80008,-913,25615,37.6273,22635,727
1.02423,108.88699,-912,25616,37.3286,22635,727
1.31745,76.149277,-911,25617,37.6273,22635,727
1.98701,61.861352,-910,25618,37.5277,22635,727
2.37809,76.361103,-909,25619,37.6273,22635,727
1.40163,114.08305,-908,25620,37.4281,22635,727
0.690534,157.00961,-907,25621,37.6273,22635,727
1.85547,190.70716,-906,25622,37.3286,22635,727
0.525895,211.82467,-905,25623,37.6273,22645,733
0.834375,219.02921,-904,25624,37.3286,22645,733
2.66729,218.0689,-903,25625,37.7268,22645,733
0.995902,209.26847,-902,25626,37.677,22645,733
2.48976,197.70304,-901,25627,37.3286,22645,733
1.80334,185.7532,-900,25628,37.5277,22645,733
1.28447,176.94225,-899,25629,37.3286,22645,733
2.03678,164.18893,-898,25630,37.5277,22645,733
0.966748,156.85788,-897,25631,37.6273,22645,733
1.3029,154.77365,-896,25632,37.4779,22645,733
1.19604,150.0969,-895,25633,37.5277,22676,770
2.46667,131.82678,-894,25634,37.1792,22676,770
2.25034,100.51458,-893,25635,37.6273,22676,770
1.96529,86.505228,-892,25636,37.2788,22676,770
2.62039,122.10943,-891,25637,37.6273,22676,770
1.30655,161.43738,-890,25638,37.3286,22676,770
1.85547,177.50791,-889,25639,37.4281,22676,770
1.69427,172.13858,-888,25640,37.5277,22676,770
1.71664,160.53629,-887,25641,37.4779,22676,770
1.43857,165.7349,-886,25642,37.4281,22676,770
1.00068,178.88241,-885,25643,37.4281,22716,806
2.40995,189.2671,-884,25644,37.5277,22716,806
1.56555,190.6959,-883,25645,37.3286,22716,806
2.25034,187.66785,-882,25646,37.6273,22716,806
1.56555,184.22918,-881,25647,37.6273,22716,806
1.66589,181.10541,-880,25648,37.677,22716,806
1.7551,182.65411,-879,25649,37.5277,22716,806
1.76323,188.31608,-878,25650,37.6273,22716,806
1.82437,197.73929,-877,25651,37.6273,22716,806
2.13508,205.16657,-876,25652,37.2788,22716,806
0.690534,209.81305,-875,25653,37.4281,22780,830
1.04268,207.65886,-874,25654,37.3286,22780,830
1.96772,205.85597,-873,25655,37.4281,22780,830
1.55638,205.98243,-872,25656,37.4281,22780,830
1.80334,207.38241,-871,25657,37.4281,22780,830
1.83739,214.4059,-870,25658,37.677,22780,830
1.65728,222.84991,-869,25659,37.4281,22780,830
2.06237,234.48843,-868,25660,37.677,22780,830
1.39822,248.97062,-867,25661,37.4281,22780,830
1.69427,265.0187,-866,25662,37.3286,22780,830
2.45698,282.93586,-865,25663,37.677,22927,830
0.717624,291.41891,-864,25664,37.4281,22927,830
1.64863,297.91827,-863,25665,37.4281,22927,830
1.31383,299.95796,-862,25666,37.5277,22927,830
1.43857,302.50514,-861,25667,37.4779,22927,830
1.84774,311.8621,-860,25668,37.677,22927,830
2.0785,319.54392,-859,25669,37.3286,22927,830
1.71664,332.97114,-858,25670,37.5277,22927,830
3.12805,348.66102,-857,25671,37.3286,22927,830
2.8986,354.82732,-856,25672,37.677,22927,830
1.67161,357.43918,-855,25673,37.4779,23255,803
2.0739,360.54309,-854,25674,37.2788,23255,803
2.6131,368.86005,-853,25675,37.4281,23255,803
1.81388,373.25591,-852,25676,37.4281,23255,803
2.47439,374.19121,-851,25677,37.4281,23255,803
2.65833,371.6435,-850,25678,37.6273,23255,803
1.62826,366.79322,-849,25679,37.2788,23255,803
2.90353,357.46825,-848,25680,37.4281,23255,803
1.71942,351.77896,-847,25681,37.4281,23255,803
8.31226,522.56516,-846,25682,37.677,23255,803
8.25181,773.07128,-845,25683,37.5277,24402,780
7.88298,734.23795,-844,25684,37.677,24402,780
6.82826,576.40228,-843,25685,37.6273,24402,780
6.77146,497.52462,-842,25686,37.4281,24402,780
5.19968,483.68064,-841,25687,37.6273,24402,780
3.60271,467.99093,-840,25688,37.6273,24402,780
3.37162,422.46348,-839,25689,37.6273,24402,780
1.40163,346.50021,-838,25690,37.6273,24402,780
1.99897,216.71146,-837,25691,37.5277,24402,780
2.20539,107.30765,-836,25692,37.3286,24402,780
1.91615,317.45764,-835,25693,37.4281,24945,741
2.12388,485.1443,-834,25694,37.5277,24945,741
2.06237,526.92867,-833,25695,37.3286,24945,741
2.56893,471.02987,-832,25696,37.5277,24945,741
3.68256,384.84867,-831,25697,37.3286,24945,741
2.19672,305.62333,-830,25698,37.677,24945,741
1.39822,235.85441,-829,25699,37.6273,24945,741
1.61059,340.60522,-828,25700,37.3286,24945,741
0.817051,454.36284,-827,25701,37.3286,24945,741
0.981433,462.26968,-826,25702,37.4779,24945,741
1.23526,369.96823,-825,25703,37.3286,24726,742
1.86572,211.36238,-824,25704,37.3286,24726,742
0.662337,58.655134,-823,25705,37.6273,24726,742
0.878906,112.38619,-822,25706,37.677,24726,742
1.19205,155.01363,-821,25707,37.8762,24726,742
2.30684,110.54699,-820,25708,37.4281,24726,742
2.11037,60.969814,-819,25709,37.677,24726,742
2.23545,129.92692,-818,25710,37.2788,24726,742
1.91864,160.52399,-817,25711,37.3286,24726,742
2.4974,155.25357,-816,25712,37.4281,24726,742
2.96689,139.23541,-815,25713,37.4281,24779,726
2.51832,132.34815,-814,25714,37.6273,24779,726
2.82022,136.64276,-813,25715,37.677,24779,726
2.70985,139.32116,-812,25716,37.5277,24779,726
1.73047,132.18873,-811,25717,37.4281,24779,726
2.37608,115.57764,-810,25718,37.4281,24779,726
2.78962,96.250487,-809,25719,37.677,24779,726
2.86051,76.951367,-808,25720,37.2788,24779,726
1.7551,57.411733,-807,25721,37.677,24779,726
2.23545,39.855723,-806,25722,37.677,24779,726
1.94579,30.074171,-805,25723,37.4779,24875,719
2.74308,27.716682,-804,25724,37.6273,24875,719
1.85547,31.080022,-803,25725,37.4779,24875,719
1.33185,37.20462,-802,25726,37.4779,24875,719
1.93596,43.660406,-801,25727,37.3286,24875,719
1.27328,45.974344,-800,25728,37.3286,24875,719
1.70829,47.365483,-799,25729,37.6273,24875,719
1.48103,53.337044,-798,25730,37.677,24875,719
2.41193,55.155387,-797,25731,37.6273,24875,719
2.0716,56.892231,-796,25732,37.4281,24875,719
2.01324,57.598305,-795,25733,37.6273,24856,718
2.56336,52.9273,-794,25734,37.4281,24856,718
1.77132,51.555165,-793,25735,37.4281,24856,718
1.82698,54.796111,-792,25736,37.4281,24856,718
1.86827,60.651504,-791,25737,37.5277,24856,718
2.44336,65.704452,-790,25738,37.4281,24856,718
2.21187,62.895122,-789,25739,37.3286,24856,718
2.41588,53.613609,-788,25740,37.677,24856,718
2.32126,42.13,-787,25741,37.4281,24856,718
2.85718,39.429467,-786,25742,37.6273,24856,718
3.30592,45.095688,-785,25743,37.5277,24871,708
2.15066,41.883639,-784,25744,37.5277,24871,708
2.50122,33.566229,-783,25745,37.2788,24871,708
1.27702,26.509501,-782,25746,37.677,24871,708
2.46667,32.027119,-781,25747,37.5277,24871,708
1.99897,43.079061,-780,25748,37.6273,24871,708
1.40163,45.593221,-779,25749,37.5277,24871,708
1.26953,52.958964,-778,25750,37.4281,24871,708
2.54656,73.687307,-777,25751,37.677,24871,708
3.10817,93.750636,-776,25752,37.4281,24871,708
2.54282,108.3085,-775,25753,37.3286,24870,705
2.00136,123.10408,-774,25754,37.4281,24870,705
2.08994,146.18637,-773,25755,37.4281,24870,705
1.81651,174.2108,-772,25756,37.677,24870,705
2.44336,198.47661,-771,25757,37.4281,24870,705
1.62239,209.26046,-770,25758,37.3286,24870,705
1.71664,210.2447,-769,25759,37.3286,24870,705
2.26301,210.73978,-768,25760,37.5277,24870,705
2.77935,218.93885,-767,25761,37.3286,24870,705
2.72389,237.9441,-766,25762,37.6273,24870,705
2.46086,254.25781,-765,25763,37.677,24739,722
2.66729,255.55349,-764,25764,37.3286,24739,722
1.68014,241.18901,-763,25765,37.4281,24739,722
1.86827,219.70652,-762,25766,37.6273,24739,722
2.51832,204.30169,-761,25767,37.4779,24739,722
2.48016,205.48977,-760,25768,37.5277,24739,722
2.72914,214.72341,-759,25769,37.6273,24739,722
2.44336,224.89742,-758,25770,37.4281,24739,722
1.83479,239.8006,-757,25771,37.5277,24739,722
1.71664,254.43178,-756,25772,37.4779,24739,722
2.16612,263.21309,-755,25773,37.6273,24505,739
2.27352,252.36788,-754,25774,37.5277,24505,739
1.96529,225.49592,-753,25775,37.5277,24505,739
2.1771,223.99653,-752,25776,37.4281,24505,739
2.55217,250.58624,-751,25777,37.3286,24505,739
2.36199,271.60524,-750,25778,37.6273,24505,739
2.15951,269.85188,-749,25779,37.677,24505,739
3.13262,260.61168,-748,25780,37.4779,24505,739
1.58673,264.53254,-747,25781,37.5277,24505,739
2.35593,275.24896,-746,25782,37.677,24505,739
1.14304,275.07415,-745,25783,37.6273,24234,736
2.33968,275.02363,-744,25784,37.4281,24234,736
1.88858,274.24527,-743,25785,37.3286,24234,736
1.76052,265.52872,-742,25786,37.6273,24234,736
1.92608,262.11808,-741,25787,37.4779,24234,736
1.45176,270.77724,-740,25788,37.4779,24234,736
2.29024,270.98691,-739,25789,37.3286,24234,736
3.37727,247.2974,-738,25790,37.5277,24234,736
1.83479,203.44331,-737,25791,37.4281,24234,736
1.96772,168.67688,-736,25792,37.4281,24234,736
1.9335,153.25353,-735,25793,37.4281,24081,723
2.82191,153.64366,-734,25794,37.7268,24081,723
2.16832,156.32327,-733,25795,37.4281,24081,723
2.46086,155.26998,-732,25796,37.3286,24081,723
1.80334,146.48524,-731,25797,37.4281,24081,723
2.00136,131.5944,-730,25798,37.6273,24081,723
2.0739,113.52211,-729,25799,37.677,24081,723
1.54099,107.32515,-728,25800,37.5277,24081,723
2.54844,129.17,-727,25801,37.677,24081,723
2.35593,152.9972,-726,25802,37.6273,24081,723
2.18148,157.9095,-725,25803,37.3286,24103,720
1.73323,151.04518,-724,25804,37.4281,24103,720
2.39606,148.35642,-723,25805,37.3286,24103,720
1.70829,155.07706,-722,25806,37.3286,24103,720
2.15287,167.54816,-721,25807,37.4281,24103,720
2.0762,178.70206,-720,25808,37.5277,24103,720
1.1472,183.41839,-719,25809,37.4281,24103,720
2.13284,181.78188,-718,25810,37.677,24103,720
1.65728,181.09957,-717,25811,37.7268,24103,720
1.8606,180.85898,-716,25812,37.3286,24103,720
2.14177,176.50481,-715,25813,37.677,23982,700
1.97739,173.87055,-714,25814,37.5277,23982,700
1.04725,175.62567,-713,25815,37.5277,23982,700
1.57769,175.79096,-712,25816,37.5277,23982,700
2.41193,168.97499,-711,25817,37.4281,23982,700
1.77132,157.04615,-710,25818,37.6273,23982,700
1.81125,148.79655,-709,25819,37.3286,23982,700
1.84257,149.15029,-708,25820,37.677,23982,700
1.66589,152.0145,-707,25821,37.3286,23982,700
2.21187,154.93089,-706,25822,37.4281,23982,700
1.86827,157.25959,-705,25823,37.677,23859,685
2.3027,156.52508,-704,25824,37.4281,23859,685
1.77132,151.39086,-703,25825,37.4281,23859,685
2.75002,146.84526,-702,25826,37.4779,23859,685
1.13045,145.56372,-701,25827,37.4281,23859,685
2.11714,146.91962,-700,25828,37.5277,23859,685
2.02504,148.19522,-699,25829,37.5277,23859,685
2.00136,149.13401,-698,25830,37.5277,23859,685
1.97739,149.20114,-697,25831,37.5277,23859,685
2.22905,150.24272,-696,25832,37.3286,23859,685
2.35997,154.55095,-695,25833,37.4779,23745,675
1.92112,162.81201,-694,25834,37.3286,23745,675
1.73323,175.6568,-693,25835,37.3286,23745,675
2.09677,188.4883,-692,25836,37.6273,23745,675
2.79474,198.30148,-691,25837,37.4281,23745,675
1.7551,207.72171,-690,25838,37.7268,23745,675
2.23545,216.70902,-689,25839,37.4779,23745,675
2.05543,223.42979,-688,25840,37.4779,23745,675
0.900346,228.57202,-687,25841,37.6273,23745,675
1.96529,233.83594,-686,25842,37.6273,23745,675
2.10585,233.79448,-685,25843,37.677,23745,675
0.601994,225.41271,-684,25844,37.4281,23745,675
1.60466,207.62728,-683,25845,37.4281,23745,675
2.97491,188.00497,-682,25846,37.6273,23745,675
2.03678,177.49972,-681,25847,37.4281,23745,675
1.20794,172.40525,-680,25848,37.5277,23745,675
2.54844,171.04007,-679,25849,37.4281,23745,675
1.97256,163.0503,-678,25850,37.6273,23745,675
1.79273,143.9079,-677,25851,37.6273,23745,675
1.11773,140.781,-676,25852,37.677,23745,675
2.74829,164.09901,-675,25853,37.6273,23546,665
3.48566,197.79934,-674,25854,37.4779,23546,665
1.78473,207.12196,-673,25855,37.6273,23546,665
3.02104,196.89215,-672,25856,37.4281,23546,665
2.40203,181.22541,-671,25857,37.6273,23546,665
2.60762,167.38991,-670,25858,37.6273,23546,665
2.73786,153.43427,-669,25859,37.3286,23546,665
1.45176,144.10306,-668,25860,37.6273,23546,665
1.69708,151.28984,-667,25861,37.3286,23546,665
2.12837,171.20182,-666,25862,37.4281,23546,665
2.14177,189.95337,-665,25863,37.5277,23328,670
1.44518,200.69417,-664,25864,37.677,23328,670
2.44726,205.20394,-663,25865,37.3286,23328,670
2.80836,211.57779,-662,25866,37.8264,23328,670
2.41588,245.00086,-661,25867,37.3286,23328,670
2.71161,323.59369,-660,25868,37.6273,23328,670
2.15287,369.43537,-659,25869,37.3286,23328,670
2.26722,371.58416,-658,25870,37.677,23328,670
0.946812,366.18477,-657,25871,37.6273,23328,670
1.39481,364.85938,-656,25872,37.5277,23328,670
1.01487,352.84803,-655,25873,37.677,23109,664
1.47781,332.57523,-654,25874,37.4779,23109,664
2.0693,347.81939,-653,25875,37.7268,23109,664
2.03912,396.52369,-652,25876,37.4281,23109,664
1.73872,401.71854,-651,25877,37.6273,23109,664
2.31921,361.38093,-650,25878,37.5277,23109,664
1.37415,322.11326,-649,25879,37.2788,23109,664
1.6341,304.30525,-648,25880,37.4281,23109,664
1.49385,290.65436,-647,25881,37.4281,23109,664
1.77132,269.47339,-646,25882,37.6273,23109,664
1.13045,243.32438,-645,25883,37.6273,23007,674
1.68014,213.51008,-644,25884,37.6273,23007,674
0.352105,181.15411,-643,25885,37.4281,23007,674
2.24822,139.50928,-642,25886,37.8264,23007,674
1.82437,97.80331,-641,25887,37.677,23007,674
1.74146,84.31127,-640,25888,37.4779,23007,674
1.48103,76.24129,-639,25889,37.677,23007,674
0.981433,63.866926,-638,25890,37.4281,23007,674
1.5034,83.186955,-637,25891,37.4779,23007,674
3.22561,125.00638,-636,25892,37.4281,23007,674
2.48592,150.30564,-635,25893,37.6273,23002,717
1.73872,145.01054,-634,25894,37.4281,23002,717
1.56555,151.49186,-633,25895,37.6273,23002,717
1.63993,172.20102,-632,25896,37.4281,23002,717
2.0785,202.75772,-631,25897,37.3286,23002,717
1.23912,225.95139,-630,25898,37.5277,23002,717
2.10585,242.71477,-629,25899,37.6273,23002,717
1.53789,259.24346,-628,25900,37.6273,23002,717
1.56859,276.63285,-627,25901,37.4281,23002,717
1.96287,293.2166,-626,25902,37.6273,23002,717
1.67446,300.3441,-625,25903,37.6273,22989,713
2.41786,291.69201,-624,25904,37.4281,22989,713
2.37206,263.10667,-623,25905,37.6273,22989,713
2.25034,221.93256,-622,25906,37.5277,22989,713
2.71688,183.61769,-621,25907,37.3286,22989,713
2.81175,155.83862,-620,25908,37.677,22989,713
2.915,142.6651,-619,25909,37.2788,22989,713
2.26722,138.68912,-618,25910,37.677,22989,713
2.05078,133.79686,-617,25911,37.677,22989,713
2.30684,125.04547,-616,25912,37.677,22989,713
3.0068,119.04785,-615,25913,37.4281,22998,715
2.66371,112.63889,-614,25914,37.3286,22998,715
1.60168,103.56038,-613,25915,37.4281,22998,715
1.71664,97.770167,-612,25916,37.4779,22998,715
2.98291,100.60556,-611,25917,37.4779,22998,715
2.79815,111.22347,-610,25918,37.5277,22998,715
2.65833,120.65871,-609,25919,37.5277,22998,715
2.20323,127.63133,-608,25920,37.4281,22998,715
2.19238,134.62053,-607,25921,37.4281,22998,715
2.24822,142.3994,-606,25922,37.5277,22998,715
2.76903,147.99579,-605,25923,37.5277,23009,699
2.25668,149.56961,-604,25924,37.4779,23009,699
1.49066,146.09058,-603,25925,37.3286,23009,699
2.12613,137.811,-602,25926,37.4779,23009,699
2.49167,129.8294,-601,25927,37.3286,23009,699
2.19238,126.45607,-600,25928,37.677,23009,699
2.41786,123.58014,-599,25929,37.677,23009,699
2.18802,116.42468,-598,25930,37.6273,23009,699
1.62239,106.9407,-597,25931,37.4281,23009,699
1.98461,97.388167,-596,25932,37.4281,23009,699
3.07733,90.995538,-595,25933,37.4281,23108,711
2.37608,103.10173,-594,25934,37.677,23108,711
2.16392,120.46033,-593,25935,37.7268,23108,711
2.01324,110.27524,-592,25936,37.4281,23108,711
1.47458,93.127809,-591,25937,37.3286,23108,711
2.48016,74.30403,-590,25938,37.6273,23108,711
2.28816,65.796351,-589,25939,37.6273,23108,711
2.55777,77.267904,-588,25940,37.5277,23108,711
1.77401,95.212105,-587,25941,37.6273,23108,711
2.41786,109.18792,-586,25942,37.4281,23108,711
1.68581,110.25234,-585,25943,37.2788,23201,712
2.50693,110.1541,-584,25944,37.677,23201,712
2.26091,119.32515,-583,25945,37.3286,23201,712
2.70985,113.50445,-582,25946,37.677,23201,712
2.05078,98.967259,-581,25947,37.677,23201,712
1.96772,110.21651,-580,25948,37.677,23201,712
2.79645,127.003,-579,25949,37.5277,23201,712
2.08079,126.35881,-578,25950,37.4779,23201,712
1.81913,125.84638,-577,25951,37.4779,23201,712
1.79539,133.64843,-576,25952,37.2788,23201,712
1.82698,127.25899,-575,25953,37.6273,23260,709
1.36019,117.31999,-574,25954,37.4281,23260,709
2.85384,107.66159,-573,25955,37.5277,23260,709
2.18584,92.837743,-572,25956,37.4779,23260,709
1.83479,90.203106,-571,25957,37.5277,23260,709
1.88858,108.86769,-570,25958,37.4779,23260,709
1.96287,131.78111,-569,25959,37.6273,23260,709
2.63129,143.33264,-568,25960,37.5277,23260,709
2.35593,142.2809,-567,25961,37.6273,23260,709
1.86572,137.85911,-566,25962,37.677,23260,709
1.90116,139.97787,-565,25963,37.6273,23303,709
2.30684,150.72332,-564,25964,37.6273,23303,709
2.29856,165.00497,-563,25965,37.3286,23303,709
2.18802,178.55687,-562,25966,37.6273,23303,709
1.89865,186.03612,-561,25967,37.4281,23303,709
1.65728,175.19301,-560,25968,37.3286,23303,709
2.42966,144.23081,-559,25969,37.3286,23303,709
1.69708,108.706,-558,25970,37.3286,23303,709
1.39481,83.377777,-557,25971,37.4281,23303,709
2.04845,73.408218,-556,25972,37.6273,23303,709
2.3539,74.226379,-555,25973,37.6273,23320,696
2.15951,76.065086,-554,25974,37.3286,23320,696
1.18402,73.719453,-553,25975,37.4779,23320,696
2.9443,68.075627,-552,25976,37.6273,23320,696
1.60168,64.696459,-551,25977,37.3286,23320,696
2.20539,69.872646,-550,25978,37.5277,23320,696
1.63993,82.557534,-549,25979,37.4779,23320,696
3.15083,96.691632,-548,25980,37.6273,23320,696
1.34255,102.40157,-547,25981,37.6273,23320,696
1.70829,94.312648,-546,25982,37.6273,23320,696
1.56555,77.043003,-545,25983,37.3286,23308,693
1.14304,64.950699,-544,25984,37.3286,23308,693
2.41391,68.412651,-543,25985,37.4281,23308,693
1.56859,77.621458,-542,25986,37.4281,23308,693
1.66016,84.93059,-541,25987,37.2788,23308,693
2.4277,91.16732,-540,25988,37.6273,23308,693
2.08079,96.710354,-539,25989,37.4281,23308,693
1.05631,98.457029,-538,25990,37.4281,23308,693
1.59273,94.03123,-537,25991,37.4281,23308,693
2.44336,85.98933,-536,25992,37.3286,23308,693
2.5819,80.765634,-535,25993,37.677,23319,693
1.86827,77.028785,-534,25994,37.6273,23319,693
1.71386,73.954262,-533,25995,37.5277,23319,693
1.57769,70.290562,-532,25996,37.3286,23319,693
2.51832,68.955574,-531,25997,37.3286,23319,693
2.4974,68.663113,-530,25998,37.5277,23319,693
2.36199,65.732455,-529,25999,37.4779,23319,693
1.69708,60.207523,-528,26000,37.4281,23319,693
2.04845,67.653389,-527,26001,37.6273,23319,693
2.11714,66.202412,-526,26002,37.3286,23319,693
1.80069,105.56542,-525,26003,37.4281,23338,698
2.05078,115.54108,-524,26004,37.4779,23338,698
2.01324,81.441576,-523,26005,37.7268,23338,698
1.95556,83.492524,-522,26006,37.4281,23338,698
1.34255,138.77081,-521,26007,37.6273,23338,698
2.47246,157.41003,-520,26008,37.5277,23338,698
2.0716,138.4265,-519,26009,37.2788,23338,698
2.00136,124.94545,-518,26010,37.4281,23338,698
2.82022,115.86685,-517,26011,37.2788,23338,698
1.69146,83.576186,-516,26012,37.2788,23338,698
2.44921,65.649773,-515,26013,37.677,23333,695
1.23912,99.896559,-514,26014,37.4281,23333,695
0.811194,111.44618,-513,26015,37.4779,23333,695
2.42573,84.542923,-512,26016,37.6273,23333,695
2.34578,47.9918,-511,26017,37.4779,23333,695
1.18402,40.475099,-510,26018,37.4281,23333,695
1.91864,53.171956,-509,26019,37.6273,23333,695
1.91615,68.48101,-508,26020,37.677,23333,695
2.08079,86.198324,-507,26021,37.3286,23333,695
2.09222,99.617827,-506,26022,37.6273,23333,695
2.08537,108.32844,-505,26023,37.4281,23287,709
1.97739,114.36138,-504,26024,37.3286,23287,709
1.71664,114.79874,-503,26025,37.4281,23287,709
1.49066,106.16258,-502,26026,37.3286,23287,709
0.811194,115.01401,-501,26027,37.6273,23287,709
1.33185,127.71431,-500,26028,37.4779,23287,709
1.73047,126.13479,-499,26029,37.677,23287,709
1.36019,149.2881,-498,26030,37.6273,23287,709
2.36401,193.66139,-497,26031,37.3286,23287,709
1.89865,233.70743,-496,26032,37.7268,23287,709
2.3539,253.81788,-495,26033,37.6273,23153,713
1.90116,249.37591,-494,26034,37.4779,23153,713
1.92112,233.60093,-493,26035,37.4281,23153,713
2.3539,219.15636,-492,26036,37.4281,23153,713
2.37206,210.07638,-491,26037,37.5277,23153,713
1.76323,206.0092,-490,26038,37.4779,23153,713
2.23332,199.543,-489,26039,37.3286,23153,713
1.49385,194.24567,-488,26040,37.4779,23153,713
2.05078,181.10599,-487,26041,37.6273,23153,713
2.41983,160.45686,-486,26042,37.4281,23153,713
2.09677,138.91087,-485,26043,37.4281,22998,713
2.74482,125.94113,-484,26044,37.4281,22998,713
1.61059,123.66813,-483,26045,37.4281,22998,713
1.4118,127.36907,-482,26046,37.3286,22998,713
2.63853,126.9516,-481,26047,37.5277,22998,713
2.03444,121.36398,-480,26048,37.6273,22998,713
1.73323,110.67766,-479,26049,37.5277,22998,713
1.75781,96.772275,-478,26050,37.3286,22998,713
1.62532,92.898796,-477,26051,37.5277,22998,713
2.42573,97.52845,-476,26052,37.6273,22998,713
1.77938,101.4217,-475,26053,37.677,22910,711
1.27328,100.00815,-474,26054,37.6273,22910,711
2.17052,94.789464,-473,26055,37.4281,22910,711
1.23912,87.532671,-472,26056,37.5277,22910,711
1.958,85.237164,-471,26057,37.7268,22910,711
0.926449,87.924781,-470,26058,37.6273,22910,711
1.3637,88.523451,-469,26059,37.8264,22910,711
2.46667,88.977368,-468,26060,37.4281,22910,711
3.44022,97.337431,-467,26061,37.2788,22910,711
1.42525,105.491,-466,26062,37.4779,22910,711
0.799351,112.95601,-465,26063,37.3286,22858,714
2.11714,119.0071,-464,26064,37.5277,22858,714
1.51603,122.6973,-463,26065,37.6273,22858,714
1.49704,127.83484,-462,26066,37.6273,22858,714
1.56555,132.63786,-461,26067,37.4281,22858,714
1.13045,137.23798,-460,26068,37.7268,22858,714
1.80334,139.91313,-459,26069,37.6273,22858,714
2.05543,139.03637,-458,26070,37.4281,22858,714
2.55591,130.02918,-457,26071,37.6273,22858,714
1.73047,133.76372,-456,26072,37.4281,22858,714
2.15951,148.49381,-455,26073,37.2788,22806,720
2.62403,154.26302,-454,26074,37.4779,22806,720
1.28817,146.4244,-453,26075,37.6273,22806,720
2.33968,133.6292,-452,26076,37.3286,22806,720
1.60168,125.82815,-451,26077,37.677,22806,720
1.10916,124.59182,-450,26078,37.3286,22806,720
1.77938,121.99485,-449,26079,37.3286,22806,720
2.02975,113.96217,-448,26080,37.6273,22806,720
2.54844,105.37702,-447,26081,37.7268,22806,720
2.15066,103.05496,-446,26082,37.4281,22806,720
1.82698,105.16264,-445,26083,37.4281,22786,731
2.66012,106.24641,-444,26084,37.677,22786,731
1.22363,102.50309,-443,26085,37.6273,22786,731
3.06491,97.687602,-442,26086,37.677,22786,731
1.77132,92.779942,-441,26087,37.4281,22786,731
1.74146,92.095559,-440,26088,37.4779,22786,731
1.60168,95.873234,-439,26089,37.5277,22786,731
1.87592,98.751412,-438,26090,37.4281,22786,731
2.76386,98.316024,-437,26091,37.3286,22786,731
1.57466,89.774146,-436,26092,37.677,22786,731
3.23595,87.267297,-435,26093,37.4281,22770,736
3.18695,85.355522,-434,26094,37.3286,22770,736
1.70829,77.012631,-433,26095,37.5277,22770,736
2.54094,64.73192,-432,26096,37.5277,22770,736
2.48016,55.653086,-431,26097,37.2788,22770,736
2.9701,55.096595,-430,26098,37.6273,22770,736
1.01487,58.419286,-429,26099,37.6273,22770,736
1.76323,59.654052,-428,26100,37.4281,22770,736
1.76323,54.858485,-427,26101,37.677,22770,736
2.20323,46.42814,-426,26102,37.6273,22770,736
2.65833,41.014172,-425,26103,37.677,22748,742
2.47246,38.863246,-424,26104,37.5277,22748,742
1.55638,37.870335,-423,26105,37.677,22748,742
2.19238,34.868119,-422,26106,37.6273,22748,742
2.15287,33.614582,-421,26107,37.677,22748,742
2.13508,34.497986,-420,26108,37.4281,22748,742
1.47781,33.33883,-419,26109,37.4281,22748,742
1.00068,26.599847,-418,26110,37.4281,22748,742
1.11773,17.744758,-417,26111,37.6273,22748,742
2.13508,16.721405,-416,26112,37.2788,22748,742
1.99659,19.785184,-415,26113,37.6273,22719,743
2.59295,19.919915,-414,26114,37.4281,22719,743
1.9798,21.955356,-413,26115,37.4281,22719,743
1.92856,29.010903,-412,26116,37.6273,22719,743
1.80598,34.014055,-411,26117,37.6273,22719,743
1.51603,34.711998,-410,26118,37.6273,22719,743
2.72914,33.931375,-409,26119,37.3286,22719,743
2.14399,36.387807,-408,26120,37.5277,22719,743
2.15287,40.36044,-407,26121,37.5277,22719,743
2.64575,42.755987,-406,26122,37.677,22719,743
1.68863,44.676567,-405,26123,37.4281,22686,746
2.54282,45.119638,-404,26124,37.6273,22686,746
1.4681,42.172422,-403,26125,37.2788,22686,746
1.95556,38.929139,-402,26126,37.6273,22686,746
0.840071,46.048346,-401,26127,37.3286,22686,746
2.04146,61.104209,-400,26128,37.5277,22686,746
2.06237,68.194927,-399,26129,37.4281,22686,746
1.83739,59.47443,-398,26130,37.5277,22686,746
1.02423,40.345669,-397,26131,37.4281,22686,746
2.21187,24.967482,-396,26132,37.3286,22686,746
2.91827,27.921032,-395,26133,37.6273,22653,747
2.04146,40.745893,-394,26134,37.5277,22653,747
2.20539,51.251508,-393,26135,37.6273,22653,747
2.23545,60.733876,-392,26136,37.6273,22653,747
3.13262,79.402962,-391,26137,37.6273,22653,747
2.21402,100.69639,-390,26138,37.6273,22653,747
2.02269,105.7477,-389,26139,37.4281,22653,747
1.38452,95.77231,-388,26140,37.6273,22653,747
2.09222,92.567376,-387,26141,37.4779,22653,747
2.49167,103.97424,-386,26142,37.6273,22653,747
1.58673,118.67062,-385,26143,37.3286,22602,745
1.77132,129.21966,-384,26144,37.3286,22602,745
2.12613,138.84654,-383,26145,37.5277,22602,745
2.33968,151.65806,-382,26146,37.5277,22602,745
1.77401,155.09469,-381,26147,37.4281,22602,745
1.99659,149.00926,-380,26148,37.677,22602,745
2.0739,134.02331,-379,26149,37.6273,22602,745
1.71664,108.10682,-378,26150,37.4281,22602,745
1.68014,79.180454,-377,26151,37.4281,22602,745
1.71664,67.767167,-376,26152,37.4779,22602,745
1.83739,76.449743,-375,26153,37.5277,22553,753
3.19293,86.831986,-374,26154,37.3286,22553,753
1.19205,90.739388,-373,26155,37.4281,22553,753
1.59273,135.95877,-372,26156,37.6273,22553,753
2.08994,209.8328,-371,26157,37.4281,22553,753
0.811194,232.80809,-370,26158,37.6273,22553,753
1.56555,198.38413,-369,26159,37.4779,22553,753
2.53718,228.96694,-368,26160,37.6273,22553,753
1.73047,340.79467,-367,26161,37.3286,22553,753
1.07865,407.98041,-366,26162,37.4779,22553,753
1.28817,392.37496,-365,26163,37.677,22498,753
2.24822,344.59971,-364,26164,37.5277,22498,753
1.97498,328.18044,-363,26165,37.6273,22498,753
1.65728,343.65785,-362,26166,37.4281,22498,753
2.41983,389.20997,-361,26167,37.6273,22498,753
2.8986,597.81068,-360,26168,37.4281,22498,753
1.67446,846.86865,-359,26169,37.3286,22498,753
3.02104,678.5123,-358,26170,37.6273,22498,753
4.64355,488.60326,-357,26171,37.4779,22498,753
4.01936,809.00446,-356,26172,37.6273,22498,753
3.98481,1174.1977,-355,26173,37.677,22471,752
4.35639,1407.9367,-354,26174,37.4281,22471,752
2.79474,1557.7993,-353,26175,37.4779,22471,752
3.1143,1591.6003,-352,26176,37.4281,22471,752
4.03711,1525.4566,-351,26177,37.3286,22471,752
3.71222,1417.1703,-350,26178,37.4281,22471,752
3.33464,1233.5411,-349,26179,37.5277,22471,752
4.20829,975.52927,-348,26180,37.6273,22471,752
4.4388,653.06058,-347,26181,37.6273,22471,752
3.7276,338.53747,-346,26182,37.6273,22471,752
3.85216,54.723183,-345,26183,37.6273,22621,805
3.68127,245.53635,-344,26184,37.6273,22621,805
2.09677,471.41442,-343,26185,37.3286,22621,805
3.15083,624.35194,-342,26186,37.7268,22621,805
2.06237,700.75273,-341,26187,37.4281,22621,805
2.85384,709.5217,-340,26188,37.6273,22621,805
1.94824,654.29208,-339,26189,37.4281,22621,805
1.66303,558.5425,-338,26190,37.4281,22621,805
1.34255,466.60369,-337,26191,37.4281,22621,805
1.13886,395.50604,-336,26192,37.4281,22621,805
1.15135,338.32751,-335,26193,37.5277,22658,783
2.52588,294.88125,-334,26194,37.3286,22658,783
2.27352,263.12388,-333,26195,37.4779,22658,783
2.52021,253.36937,-332,26196,37.4779,22658,783
1.56859,280.87764,-331,26197,37.5277,22658,783
1.25442,325.91745,-330,26198,37.5277,22658,783
2.14177,363.41123,-329,26199,37.4281,22658,783
1.04268,383.43566,-328,26200,37.3286,22658,783
1.3461,389.82913,-327,26201,37.4779,22658,783
1.36019,389.97856,-326,26202,37.4281,22658,783
1.73047,389.76997,-325,26203,37.5277,22606,790
2.32126,395.94644,-324,26204,37.4281,22606,790
1.87592,413.59877,-323,26205,37.8264,22606,790
1.6165,423.28741,-322,26206,37.677,22606,790
1.60168,412.17829,-321,26207,37.3286,22606,790
1.88353,389.32825,-320,26208,37.4779,22606,790
0.601994,369.21392,-319,26209,37.5277,22606,790
0.710948,359.71439,-318,26210,37.3286,22606,790
2.39407,357.33765,-317,26211,37.4779,22606,790
2.57079,349.31543,-316,26212,37.3286,22606,790
1.73323,336.94701,-315,26213,37.5277,22519,803
2.34578,326.42428,-314,26214,37.4281,22519,803
2.0716,319.5261,-313,26215,37.4281,22519,803
2.00136,315.8248,-312,26216,37.4281,22519,803
2.18366,313.91126,-311,26217,37.677,22519,803
1.12198,315.03976,-310,26218,37.6273,22519,803
1.94579,315.91582,-309,26219,37.3286,22519,803
2.48592,312.16546,-308,26220,37.6273,22519,803
2.28816,305.53536,-307,26221,37.4281,22519,803
1.33185,301.41793,-306,26222,37.4281,22519,803
1.34255,300.37478,-305,26223,37.3286,22408,807
1.67446,301.69546,-304,26224,37.3286,22408,807
2.39407,305.43907,-303,26225,37.6273,22408,807
2.24609,306.86352,-302,26226,37.677,22408,807
1.89614,305.90151,-301,26227,37.6273,22408,807
2.915,305.64329,-300,26228,37.4281,22408,807
1.84516,305.74315,-299,26229,37.677,22408,807
1.94824,306.14789,-298,26230,37.4779,22408,807
2.06006,307.45247,-297,26231,37.3286,22408,807
1.92112,309.01108,-296,26232,37.6273,22408,807
1.79804,309.07745,-295,26233,37.6273,22408,807
2.09904,308.29434,-294,26234,37.5277,22408,807
1.79804,307.04278,-293,26235,37.4281,22408,807
2.65833,304.33892,-292,26236,37.677,22408,807
2.05543,299.00584,-291,26237,37.677,22408,807
1.95556,290.29239,-290,26238,37.1294,22408,807
2.58559,279.94707,-289,26239,37.4281,22408,807
2.11488,269.67708,-288,26240,37.4779,22408,807
2.17052,258.99287,-287,26241,37.6273,22408,807
2.06237,250.08978,-286,26242,37.677,22408,807
1.88858,245.65976,-285,26243,37.6273,22297,813
2.01087,242.49817,-284,26244,37.3286,22297,813
2.08994,234.54234,-283,26245,37.4281,22297,813
2.71512,225.21275,-282,26246,37.6273,22297,813
2.65474,217.06261,-281,26247,37.4779,22297,813
2.11714,211.97952,-280,26248,37.4281,22297,813
3.00204,208.46797,-279,26249,37.4281,22297,813
2.56336,204.03982,-278,26250,37.6273,22297,813
3.12805,197.48174,-277,26251,37.4281,22297,813
2.44726,189.90316,-276,26252,37.5277,22297,813
1.88099,183.36127,-275,26253,37.677,22260,821
2.44921,179.85759,-274,26254,37.4281,22260,821
2.24609,177.69031,-273,26255,37.7268,22260,821
1.29923,174.49796,-272,26256,37.4281,22260,821
1.96287,170.19049,-271,26257,37.4281,22260,821
1.76323,164.87005,-270,26258,37.6273,22260,821
1.78473,159.59973,-269,26259,37.4281,22260,821
2.75176,154.47929,-268,26260,37.677,22260,821
2.44141,148.08301,-267,26261,37.4779,22260,821
2.44336,140.32135,-266,26262,37.4281,22260,821
2.88706,132.6564,-265,26263,37.6273,22221,831
3.28857,126.26609,-264,26264,37.6273,22221,831
1.96529,120.88376,-263,26265,37.4281,22221,831
3.79354,114.22038,-262,26266,37.1792,22221,831
1.74966,110.28524,-261,26267,37.6273,22221,831
2.22905,104.90301,-260,26268,37.6273,22221,831
2.86051,97.903206,-259,26269,37.5277,22221,831
0.647778,90.529849,-258,26270,37.3286,22221,831
3.34891,82.560512,-257,26271,37.3286,22221,831
2.37005,77.246013,-256,26272,37.6273,22221,831
2.21187,75.012579,-255,26273,37.3286,22208,831
2.54844,70.332524,-254,26274,37.2788,22208,831
2.32332,63.486187,-253,26275,37.5277,22208,831
3.53051,56.744054,-252,26276,37.3286,22208,831
2.04845,51.736791,-251,26277,37.7268,22208,831
3.51698,49.194639,-250,26278,37.6273,22208,831
2.26301,48.809048,-249,26279,37.5277,22208,831
1.96287,49.502183,-248,26280,37.3286,22208,831
2.58743,48.494496,-247,26281,37.6273,22208,831
1.73047,45.630464,-246,26282,37.4281,22208,831
2.75176,41.701977,-245,26283,37.6273,22203,835
2.0785,38.530349,-244,26284,37.4281,22203,835
2.00136,37.902979,-243,26285,37.6273,22203,835
2.37809,39.819254,-242,26286,37.6273,22203,835
2.21402,39.314222,-241,26287,37.3286,22203,835
2.2819,34.385931,-240,26288,37.4281,22203,835
1.69708,30.57709,-239,26289,37.6273,22203,835
2.91827,33.139561,-238,26290,37.5277,22203,835
2.50122,42.372643,-237,26291,37.4281,22203,835
2.13508,52.468229,-236,26292,37.6273,22203,835
2.55404,58.800523,-235,26293,37.6273,22200,836
1.77132,59.70087,-234,26294,37.6273,22200,836
2.33968,62.145779,-233,26295,37.8264,22200,836
1.31383,68.662679,-232,26296,37.4281,22200,836
3.40679,75.704658,-231,26297,37.6273,22200,836
3.22709,81.407812,-230,26298,37.677,22200,836
2.31509,83.343009,-229,26299,37.5277,22200,836
1.71386,82.44754,-228,26300,37.3286,22200,836
1.68863,84.387764,-227,26301,37.677,22200,836
1.58673,89.566757,-226,26302,37.4281,22200,836
2.82529,95.458204,-225,26303,37.5277,22201,831
2.13508,98.462099,-224,26304,37.3286,22201,831
1.98461,99.867095,-223,26305,37.6273,22201,831
1.76323,104.32699,-222,26306,37.4779,22201,831
2.74308,111.14849,-221,26307,37.3286,22201,831
1.85804,115.88897,-220,26308,37.6273,22201,831
2.63672,117.73579,-219,26309,37.4281,22201,831
1.71664,118.25369,-218,26310,37.677,22201,831
1.24296,120.22184,-217,26311,37.4281,22201,831
1.9942,125.31152,-216,26312,37.5277,22201,831
2.52777,132.9214,-215,26313,37.6273,22211,833
1.19205,139.93145,-214,26314,37.4779,22211,833
1.47781,146.95405,-213,26315,37.6273,22211,833
1.48103,154.08301,-212,26316,37.6273,22211,833
2.84714,159.42191,-211,26317,37.6273,22211,833
1.98461,159.57844,-210,26318,37.6273,22211,833
2.74308,155.72129,-209,26319,37.4281,22211,833
2.28816,150.20523,-208,26320,37.4281,22211,833
2.44921,146.7667,-207,26321,37.4779,22211,833
1.91615,148.37911,-206,26322,37.3286,22211,833
2.77763,155.09536,-205,26323,37.6273,22229,825
1.43857,165.26247,-204,26324,37.4281,22229,825
1.56859,175.78193,-203,26325,37.5277,22229,825
2.15287,185.27065,-202,26326,37.4281,22229,825
2.36199,190.72532,-201,26327,37.6273,22229,825
2.17052,192.16992,-200,26328,37.4281,22229,825
2.23759,191.99115,-199,26329,37.6273,22229,825
1.40163,193.73455,-198,26330,37.4281,22229,825
1.76323,198.45247,-197,26331,37.4281,22229,825
2.72564,205.96735,-196,26332,37.5277,22229,825
2.66729,213.75306,-195,26333,37.4779,22237,823
2.95239,219.94977,-194,26334,37.3286,22237,823
1.64863,224.99456,-193,26335,37.4281,22237,823
2.60213,235.1085,-192,26336,37.4281,22237,823
2.40203,272.40911,-191,26337,37.677,22237,823
3.47881,341.71423,-190,26338,37.4281,22237,823
2.04845,418.38328,-189,26339,37.6273,22237,823
2.23332,473.50489,-188,26340,37.677,22237,823
2.9443,485.46469,-187,26341,37.6273,22237,823
3.17646,451.07627,-186,26342,37.6273,22237,823
3.45267,390.19225,-185,26343,37.4281,22245,820
2.40203,328.38148,-184,26344,37.6273,22245,820
1.28447,284.90936,-183,26345,37.677,22245,820
2.60213,266.48953,-182,26346,37.6273,22245,820
2.77247,266.96565,-181,26347,37.4281,22245,820
1.58673,277.77053,-180,26348,37.4281,22245,820
2.12164,286.25072,-179,26349,37.677,22245,820
2.04146,291.09347,-178,26350,37.4281,22245,820
2.81175,293.30806,-177,26351,37.4779,22245,820
1.76052,291.82279,-176,26352,37.5277,22245,820
1.41517,293.22298,-175,26353,37.4281,22245,818
2.03209,306.01705,-174,26354,37.4281,22245,818
1.78473,328.94636,-173,26355,37.4281,22245,818
1.84516,358.02199,-172,26356,37.3286,22245,818
1.48103,387.32833,-171,26357,37.6273,22245,818
2.32332,403.09462,-170,26358,37.4281,22245,818
2.36401,395.85061,-169,26359,37.3286,22245,818
2.73089,366.72386,-168,26360,37.4779,22245,818
2.36199,324.93145,-167,26361,37.4281,22245,818
2.4974,287.52161,-166,26362,37.4779,22245,818
2.50693,270.93002,-165,26363,37.3286,22263,824
2.82529,285.5813,-164,26364,37.6273,22263,824
2.0739,311.48531,-163,26365,37.4281,22263,824
2.83876,326.17336,-162,26366,37.3286,22263,824
2.58743,331.06617,-161,26367,37.3286,22263,824
2.40203,336.85811,-160,26368,37.3286,22263,824
2.24822,338.02336,-159,26369,37.6273,22263,824
2.67443,339.34746,-158,26370,37.4779,22263,824
2.22047,331.32802,-157,26371,37.4281,22263,824
1.77132,311.45694,-156,26372,37.3286,22263,824
2.0739,295.74876,-155,26373,37.6273,22266,825
2.75868,296.64108,-154,26374,37.5277,22266,825
2.05543,307.95226,-153,26375,37.1294,22266,825
2.41983,322.04492,-152,26376,37.4281,22266,825
3.01472,327.48109,-151,26377,37.677,22266,825
2.22262,317.13522,-150,26378,37.5277,22266,825
1.9798,302.65219,-149,26379,37.4281,22266,825
1.73323,291.53895,-148,26380,37.4779,22266,825
1.81913,289.64204,-147,26381,37.3286,22266,825
1.32467,292.92096,-146,26382,37.4779,22266,825
1.19604,294.67799,-145,26383,37.4281,22259,822
1.21581,297.07764,-144,26384,37.4281,22259,822
2.58559,298.5033,-143,26385,37.6273,22259,822
1.40163,296.38398,-142,26386,37.2788,22259,822
0.862477,292.51496,-141,26387,37.3286,22259,822
1.66589,291.28261,-140,26388,37.5277,22259,822
1.27328,290.3312,-139,26389,37.677,22259,822
2.38409,293.50808,-138,26390,37.677,22259,822
2.4974,302.66226,-137,26391,37.6273,22259,822
0.889691,306.7693,-136,26392,37.4281,22259,822
1.04268,302.77722,-135,26393,37.4281,22253,820
2.22905,298.45415,-134,26394,37.6273,22253,820
1.32827,302.4338,-133,26395,37.3286,22253,820
1.69708,312.00169,-132,26396,37.3286,22253,820
1.73047,322.12521,-131,26397,37.6273,22253,820
2.02269,326.75352,-130,26398,37.4779,22253,820
1.67161,329.95705,-129,26399,37.2788,22253,820
2.25034,337.00262,-128,26400,37.4281,22253,820
2.76903,346.71635,-127,26401,37.7268,22253,820
2.30684,356.81821,-126,26402,37.6273,22253,820
1.73047,366.70168,-125,26403,37.4281,22229,823
1.61945,377.23373,-124,26404,37.4281,22229,823
1.96287,387.50611,-123,26405,37.6273,22229,823
1.45505,398.7456,-122,26406,37.677,22229,823
1.98461,407.79988,-121,26407,37.5277,22229,823
1.76323,416.119,-120,26408,37.5277,22229,823
3.24771,418.91358,-119,26409,37.4281,22229,823
1.87592,415.66074,-118,26410,37.4281,22229,823
1.25442,408.01527,-117,26411,37.2788,22229,823
2.81853,398.59172,-116,26412,37.6273,22229,823
2.88045,388.79849,-115,26413,37.6273,22212,828
2.43162,379.32402,-114,26414,37.4281,22212,828
1.9942,368.04699,-113,26415,37.1792,22212,828
1.87846,354.35744,-112,26416,37.5277,22212,828
2.1573,339.00447,-111,26417,37.677,22212,828
2.27981,322.96374,-110,26418,37.4281,22212,828
2.98291,306.62111,-109,26419,37.4281,22212,828
2.46086,289.18109,-108,26420,37.2788,22212,828
2.11488,271.49242,-107,26421,37.5277,22212,828
1.4219,254.23064,-106,26422,37.5277,22212,828
2.63129,238.14128,-105,26423,37.5277,22197,842
2.11488,225.64162,-104,26424,37.3286,22197,842
2.9893,214.34539,-103,26425,37.677,22197,842
2.34985,204.69342,-102,26426,37.4281,22197,842
1.73323,198.71765,-101,26427,37.4281,22197,842
1.76323,194.98882,-100,26428,37.3286,22197,842
2.65833,191.62232,-99,26429,37.677,22197,842
1.97256,186.14994,-98,26430,37.3286,22197,842
1.75781,179.69559,-97,26431,37.4281,22197,842
0.966748,172.78133,-96,26432,37.4779,22197,842
1.75781,166.79639,-95,26433,37.4281,22194,851
3.54265,161.31055,-94,26434,37.4281,22194,851
1.20399,157.29938,-93,26435,37.677,22194,851
1.18804,153.61165,-92,26436,37.3286,22194,851
1.79804,147.86111,-91,26437,37.8762,22194,851
2.28816,143.38815,-90,26438,37.8264,22194,851
2.02033,144.48712,-89,26439,37.6273,22194,851
1.51917,147.12471,-88,26440,37.4281,22194,851
1.56555,151.91615,-87,26441,37.6273,22194,851
1.07865,158.59776,-86,26442,37.4281,22194,851
1.85547,162.14324,-85,26443,37.6273,22196,850
2.42966,163.33455,-84,26444,37.677,22196,850
1.81913,167.54812,-83,26445,37.4281,22196,850
1.09619,183.88887,-82,26446,37.5277,22196,850
2.09222,198.99524,-81,26447,37.4281,22196,850
2.11714,204.83813,-80,26448,37.6273,22196,850
2.13508,205.14416,-79,26449,37.3286,22196,850
2.0156,198.96075,-78,26450,37.4281,22196,850
2.15951,188.22834,-77,26451,37.4779,22196,850
2.03444,170.01976,-76,26452,37.4281,22196,850
1.83739,147.34746,-75,26453,37.4779,22194,839
1.86827,127.93534,-74,26454,37.5277,22194,839
1.90617,119.54405,-73,26455,37.4281,22194,839
2.05543,121.46757,-72,26456,37.6273,22194,839
2.89366,117.40562,-71,26457,37.5277,22194,839
2.91827,109.19891,-70,26458,37.4281,22194,839
1.89865,99.669943,-69,26459,37.6273,22194,839
2.22262,74.396923,-68,26460,37.5277,22194,839
2.36602,46.237908,-67,26461,37.6273,22194,839
1.76323,45.036501,-66,26462,37.6273,22194,839
2.58559,59.338101,-65,26463,37.3286,22186,826
2.72039,78.195635,-64,26464,37.3286,22186,826
2.0739,82.419973,-63,26465,37.6273,22186,826
1.96287,64.408373,-62,26466,37.4281,22186,826
2.60945,56.50959,-61,26467,37.5277,22186,826
2.59295,80.134023,-60,26468,37.6273,22186,826
2.12164,114.43302,-59,26469,37.5277,22186,826
1.38452,147.78521,-58,26470,37.4281,22186,826
2.77935,171.1714,-57,26471,37.5277,22186,826
1.92608,188.15237,-56,26472,37.3286,22186,826
3.18096,204.6813,-55,26473,37.4281,22197,819
1.96529,222.99179,-54,26474,37.6273,22197,819
2.02975,245.40268,-53,26475,37.4779,22197,819
2.36602,269.03175,-52,26476,37.4779,22197,819
2.56708,286.14458,-51,26477,37.4281,22197,819
2.915,295.23785,-50,26478,37.4281,22197,819
2.66012,301.22669,-49,26479,37.4281,22197,819
3.55071,307.63593,-48,26480,37.4281,22197,819
3.58679,314.84016,-47,26481,37.2788,22197,819
2.81345,331.63655,-46,26482,37.6273,22197,819
2.72564,364.12576,-45,26483,37.6273,22197,824
2.64575,405.50169,-44,26484,37.4281,22197,824
2.33968,442.051,-43,26485,37.677,22197,824
3.34606,470.34745,-42,26486,37.4779,22197,824
2.25668,492.43657,-41,26487,37.4779,22197,824
2.56522,513.91473,-40,26488,37.5277,22197,824
3.08971,537.05382,-39,26489,37.4281,22197,824
2.95239,551.7119,-38,26490,37.4281,22197,824
2.8986,555.23281,-37,26491,37.7268,22197,824
2.90353,555.83062,-36,26492,37.6273,22197,824
2.48976,553.40206,-35,26493,37.5277,22193,834
2.36401,549.89104,-34,26494,37.677,22193,834
2.42966,551.46895,-33,26495,37.3286,22193,834
2.7396,567.13086,-32,26496,37.6273,22193,834
2.71161,598.27532,-31,26497,37.3286,22193,834
3.34464,630.65325,-30,26498,37.4281,22193,834
3.22266,648.41131,-29,26499,37.4779,22193,834
2.49167,650.03863,-28,26500,37.4281,22193,834
2.50693,646.21689,-27,26501,37.4281,22193,834
2.82022,649.55096,-26,26502,37.677,22193,834
1.77132,667.14107,-25,26503,37.3286,22194,856
2.38009,691.05031,-24,26504,37.4779,22194,856
2.62403,695.87481,-23,26505,37.4281,22194,856
2.78277,671.73577,-22,26506,37.677,22194,856
1.62826,624.89106,-21,26507,37.4281,22194,856
2.18584,611.02295,-20,26508,37.3286,22194,856
2.67443,651.66382,-19,26509,37.677,22194,856
2.37206,713.51343,-18,26510,37.3286,22194,856
1.31745,755.73814,-17,26511,37.6273,22194,856
2.58743,762.29064,-16,26512,37.4779,22194,856
2.57264,745.88511,-15,26513,37.4281,22295,851
1.68581,730.78037,-14,26514,37.4779,22295,851
0.889691,732.08371,-13,26515,37.4281,22295,851
2.915,750.82128,-12,26516,37.4281,22295,851
1.84257,775.95191,-11,26517,37.4281,22295,851
2.67086,796.95467,-10,26518,37.677,22295,851
2.0693,808.4617,-9,26519,37.4281,22295,851
1.34255,810.41844,-8,26520,37.3286,22295,851
1.91864,803.84108,-7,26521,37.4281,22295,851
1.23912,791.96511,-6,26522,37.4281,22295,851
1.97498,778.09705,-5,26523,37.677,22488,849
1.06082,765.20686,-4,26524,37.6273,22488,849
1.90116,753.76541,-3,26525,37.5277,22488,849
1.63702,743.9798,-2,26526,37.3286,22488,849
3.39136,784.97295,-1,26527,37.677,22488,849
26.6396,1781.3267,0,26528,37.677,22488,849
25.845,2749.4406,1,26529,37.3286,22488,849
13.5918,1766.1587,2,26530,37.3286,22488,849
6.24237,732.97437,3,26531,37.5277,22488,849
7.08126,1558.106,4,26532,37.4281,22488,849
6.18635,1736.4396,5,26533,37.3286,22338,902
4.58153,1537.7823,6,26534,37.7268,22338,902
5.33725,1130.4274,7,26535,37.4779,22338,902
6.01439,969.69848,8,26536,37.677,22338,902
4.83176,1360.1868,9,26537,37.7268,22338,902
3.48292,1678.6056,10,26538,37.4281,22338,902
1.87592,1732.0649,11,26539,37.5277,22338,902
2.10811,1589.6209,12,26540,37.6273,22338,902
1.57163,1386.4135,13,26541,37.5277,22338,902
2.44141,1236.8446,14,26542,37.4281,22338,902
2.73786,1137.5946,15,26543,37.3286,22222,891
3.25797,1019.4958,16,26544,37.6273,22222,891
3.06336,871.75198,17,26545,37.6273,22222,891
2.23545,732.39568,18,26546,37.4779,22222,891
2.51263,646.54018,19,26547,37.4779,22222,891
2.27981,639.05098,20,26548,37.4281,22222,891
1.36019,699.62516,21,26549,37.6273,22222,891
1.4219,790.20021,22,26550,37.6273,22222,891
0.585938,864.37034,23,26551,37.3286,22222,891
1.19205,882.93905,24,26552,37.3286,22222,891
0.878906,830.92764,25,26553,37.6273,22185,900
0.292969,735.5661,26,26554,37.4281,22185,900
0.946812,649.19617,27,26555,37.4779,22185,900
1.33543,625.78223,28,26556,37.4281,22185,900
1.89362,683.71695,29,26557,37.3286,22185,900
0.921287,767.44107,30,26558,37.5277,22185,900
1.61945,830.99535,31,26559,37.4779,22185,900
0.956832,864.56887,32,26560,37.3286,22185,900
2.9909,871.25201,33,26561,37.4281,22185,900
2.18366,855.01711,34,26562,37.677,22185,900
1.34255,824.63903,35,26563,37.4281,22166,870
1.74966,799.05483,36,26564,37.4281,22166,870
2.15951,785.92524,37,26565,37.3286,22166,870
2.26301,777.57246,38,26566,37.6273,22166,870
1.11345,767.16262,39,26567,37.5277,22166,870
1.55638,758.57515,40,26568,37.6273,22166,870
1.49704,751.46695,41,26569,37.4281,22166,870
2.56522,747.0308,42,26570,37.3286,22166,870
1.40163,744.85679,43,26571,37.4281,22166,870
1.38452,743.5777,44,26572,37.4281,22166,870
1.45176,739.41508,45,26573,37.6273,22162,804
2.06237,733.51836,46,26574,37.677,22162,804
1.39139,728.75492,47,26575,37.4779,22162,804
1.4219,723.69879,48,26576,37.4281,22162,804
2.26301,714.83531,49,26577,37.5277,22162,804
2.24822,702.97016,50,26578,37.7268,22162,804
1.48103,683.72533,51,26579,37.4281,22162,804
1.4118,658.67412,52,26580,37.677,22162,804
3.79354,631.72067,53,26581,37.5277,22162,804
1.61355,605.14663,54,26582,37.5277,22162,804
2.10811,578.15735,55,26583,37.6273,22163,764
2.78449,553.07496,56,26584,37.4281,22163,764
2.45698,529.72198,57,26585,37.6273,22163,764
2.59663,506.98389,58,26586,37.4779,22163,764
1.92856,487.16809,59,26587,37.4281,22163,764
2.43358,472.20985,60,26588,37.4281,22163,764
1.34255,463.82846,61,26589,37.6273,22163,764
2.35593,457.98954,62,26590,37.5277,22163,764
1.68581,452.25647,63,26591,37.4281,22163,764
2.7028,445.6655,64,26592,37.6273,22163,764
2.43554,438.96595,65,26593,37.6273,22162,743
2.23759,433.5854,66,26594,37.6273,22162,743
2.02269,429.48345,67,26595,37.2788,22162,743
2.10585,424.98053,68,26596,37.4281,22162,743
2.44921,420.23815,69,26597,37.6273,22162,743
2.3539,416.00721,70,26598,37.3286,22162,743
2.0156,410.42635,71,26599,37.4281,22162,743
2.11714,401.75089,72,26600,37.4281,22162,743
2.24822,394.31723,73,26601,37.6273,22162,743
2.79645,391.25371,74,26602,37.4281,22162,743
2.11263,386.35495,75,26603,37.3286,22160,735
2.0785,376.36797,76,26604,37.3286,22160,735
2.76559,364.03868,77,26605,37.2788,22160,735
3.28131,352.5939,78,26606,37.6273,22160,735
2.0156,343.38103,79,26607,37.5277,22160,735
2.14399,336.78352,80,26608,37.5277,22160,735
2.54094,331.59973,81,26609,37.4281,22160,735
2.18584,326.01004,82,26610,37.3286,22160,735
2.47246,319.71543,83,26611,37.4281,22160,735
2.54844,313.05964,84,26612,37.677,22160,735
2.75176,308.28758,85,26613,37.3286,22168,735
2.75176,306.08266,86,26614,37.3286,22168,735
2.50503,303.76655,87,26615,37.6273,22168,735
2.06237,301.48711,88,26616,37.4779,22168,735
2.48784,300.2117,89,26617,37.7268,22168,735
2.05543,299.03664,90,26618,37.4779,22168,735
2.54282,297.69869,91,26619,37.4779,22168,735
2.19238,296.15966,92,26620,37.6273,22168,735
2.01324,294.06845,93,26621,37.6273,22168,735
2.38009,292.56409,94,26622,37.677,22168,735
2.55217,292.15741,95,26623,37.5277,22168,733
2.26091,290.88016,96,26624,37.4281,22168,733
2.11037,287.83023,97,26625,37.4779,22168,733
2.08994,284.11579,98,26626,37.4281,22168,733
2.75176,281.55228,99,26627,37.2788,22168,733
2.04146,280.56212,100,26628,37.6273,22168,733
