Linear acceleration,Rotational velocity,Time values,Absolute time values,Temperature,Ambient light,Reflected light
1.33185,118.88928,-2000,22416,23.5887,4562,299
1.05179,120.57686,-1999,22417,23.4891,4562,299
1.21581,121.57388,-1998,22418,23.8376,4562,299
1.23912,123.58358,-1997,22419,23.6385,4562,299
1.24679,125.15327,-1996,22420,23.6385,4562,299
1.07422,127.90208,-1995,22421,23.7878,4562,299
2.34578,130.60451,-1994,22422,23.6385,4562,299
0.552427,131.02768,-1993,22423,23.4393,4572,293
1.05631,129.96447,-1992,22424,23.6385,4572,293
1.45176,129.64379,-1991,22425,23.5887,4572,293
1.96287,129.5468,-1990,22426,23.7878,4572,293
1.63702,128.76532,-1989,22427,23.6385,4572,293
1.42525,127.38088,-1988,22428,23.4393,4572,293
1.44518,125.96887,-1987,22429,23.6385,4572,293
0.507437,124.42474,-1986,22430,23.7878,4572,293
1.79273,122.75807,-1985,22431,23.5887,4572,293
1.5807,121.07621,-1984,22432,23.6385,4572,293
1.47134,118.15738,-1983,22433,23.6385,4575,304
1.14304,115.03565,-1982,22434,23.4891,4575,304
1.06082,112.33162,-1981,22435,23.6385,4575,304
1.47134,109.68933,-1980,22436,23.6385,4575,304
1.52856,106.59143,-1979,22437,23.738,4575,304
0.338291,102.60168,-1978,22438,23.6385,4575,304
1.10916,97.848398,-1977,22439,23.4891,4575,304
1.3029,92.731908,-1976,22440,23.6385,4575,304
0.717624,87.493252,-1975,22441,23.4393,4575,304
1.71386,82.93328,-1974,22442,23.6385,4575,304
1.17998,77.941679,-1973,22443,23.4891,4587,267
1.21188,73.694688,-1972,22444,23.738,4587,267
2.05543,70.412247,-1971,22445,23.7878,4587,267
0.59402,67.728675,-1970,22446,23.6385,4587,267
0.981433,65.716584,-1969,22447,23.6385,4587,267
0.98628,64.497614,-1968,22448,23.5887,4587,267
0.840071,64.001524,-1967,22449,23.738,4587,267
1.13045,62.622546,-1966,22450,23.8376,4587,267
1.18804,60.344357,-1965,22451,23.6385,4587,267
1.52856,57.621972,-1964,22452,23.5887,4587,267
4.04184,54.762924,-1963,22453,23.4393,4627,310
2.16392,52.923499,-1962,22454,23.7878,4627,310
1.19604,51.487342,-1961,22455,23.4891,4627,310
0.981433,51.137117,-1960,22456,23.5887,4627,310
1.4118,53.696648,-1959,22457,23.4891,4627,310
1.1472,58.528737,-1958,22458,23.6385,4627,310
1.19205,64.198076,-1957,22459,23.4393,4627,310
0.625305,68.788977,-1956,22460,23.6385,4627,310
1.25442,72.212303,-1955,22461,23.3895,4627,310
1.11773,74.562581,-1954,22462,23.6385,4627,310
3.17646,76.378761,-1953,22463,23.5887,4668,335
0.59402,77.799022,-1952,22464,23.738,4668,335
0.811194,79.817931,-1951,22465,23.738,4668,335
1.23912,83.023249,-1950,22466,23.7878,4668,335
1.09183,88.26916,-1949,22467,23.7878,4668,335
1.28447,93.101244,-1948,22468,23.6385,4668,335
1.60168,96.861082,-1947,22469,23.6385,4668,335
1.40163,100.84589,-1946,22470,23.7878,4668,335
1.62826,99.088917,-1945,22471,23.738,4668,335
1.20794,91.324341,-1944,22472,23.6385,4668,335
0.425674,79.335561,-1943,22473,23.7878,4671,263
3.48292,64.401664,-1942,22474,23.6385,4671,263
1.78473,45.796708,-1941,22475,23.6385,4671,263
0.365396,33.580875,-1940,22476,23.7878,4671,263
1.62826,30.823177,-1939,22477,23.6385,4671,263
1.5034,30.763172,-1938,22478,23.5887,4671,263
1.01016,30.719304,-1937,22479,23.4891,4671,263
1.60466,28.652219,-1936,22480,23.7878,4671,263
1.27702,26.026467,-1935,22481,23.738,4671,263
0.921287,25.167512,-1934,22482,23.4393,4671,263
2.18584,25.757993,-1933,22483,23.738,4621,277
2.85384,28.858465,-1932,22484,23.6385,4621,277
1.40842,34.273292,-1931,22485,23.738,4621,277
1.11773,38.702257,-1930,22486,23.6385,4621,277
1.60466,31.679304,-1929,22487,23.6385,4621,277
2.38209,21.621613,-1928,22488,23.6385,4621,277
1.42859,26.53001,-1927,22489,23.5887,4621,277
1.11773,38.425206,-1926,22490,23.8376,4621,277
0.905627,29.962232,-1925,22491,23.6385,4621,277
0.981433,22.504019,-1924,22492,23.6385,4621,277
1.4681,24.300579,-1923,22493,23.6385,4621,277
0.218366,23.441632,-1922,22494,23.6385,4621,277
1.59273,20.479091,-1921,22495,23.3895,4621,277
0.926449,19.320302,-1920,22496,23.7878,4621,277
1.01956,22.258342,-1919,22497,23.6385,4621,277
1.10916,24.606178,-1918,22498,23.4891,4621,277
0.497951,28.702362,-1917,22499,23.6385,4621,277
1.18804,35.000349,-1916,22500,23.6385,4621,277
2.1771,46.291696,-1915,22501,23.4891,4621,277
0.323889,59.207751,-1914,22502,23.738,4621,277
1.01956,51.416676,-1913,22503,23.7878,4597,320
1.34255,50.909175,-1912,22504,23.738,4597,320
2.32332,90.220284,-1911,22505,23.4891,4597,320
0.169146,126.53293,-1910,22506,23.7878,4597,320
1.02423,147.49277,-1909,22507,23.6385,4597,320
1.61355,101.91146,-1908,22508,23.6385,4597,320
1.22752,44.685905,-1907,22509,23.6385,4597,320
0.799351,33.266568,-1906,22510,23.6385,4597,320
1.59572,36.865436,-1905,22511,23.6385,4597,320
0.946812,83.751533,-1904,22512,23.6385,4597,320
0.845728,123.95914,-1903,22513,23.7878,4604,290
1.02423,148.84131,-1902,22514,23.6385,4604,290
1.00543,158.78368,-1901,22515,23.7878,4604,290
0.966748,159.55463,-1900,22516,23.6385,4604,290
1.23912,152.75255,-1899,22517,23.5887,4604,290
1.68014,141.94704,-1898,22518,23.6385,4604,290
1.31745,130.66229,-1897,22519,23.4891,4604,290
0.59402,116.36253,-1896,22520,23.6385,4604,290
1.99897,96.333278,-1895,22521,23.4891,4604,290
1.69708,80.457764,-1894,22522,23.738,4604,290
1.36019,81.607359,-1893,22523,23.6385,4605,323
0.981433,99.921392,-1892,22524,23.4891,4605,323
2.31921,119.76641,-1891,22525,23.5887,4605,323
1.15548,131.02359,-1890,22526,23.4891,4605,323
1.98701,135.64896,-1889,22527,23.7878,4605,323
2.51073,141.47317,-1888,22528,23.6385,4605,323
1.91864,150.95133,-1887,22529,23.4393,4605,323
1.29923,153.35632,-1886,22530,23.6385,4605,323
1.4681,143.65192,-1885,22531,23.7878,4605,323
1.57466,128.72788,-1884,22532,23.6385,4605,323
0.59402,121.00179,-1883,22533,23.4891,4582,318
1.00068,119.84172,-1882,22534,23.6385,4582,318
1.92856,120.45353,-1881,22535,23.5887,4582,318
2.74308,124.9148,-1880,22536,23.5887,4582,318
1.54717,130.22614,-1879,22537,23.6385,4582,318
1.77132,135.37884,-1878,22538,23.4891,4582,318
1.55638,138.08446,-1877,22539,23.6385,4582,318
1.23912,141.30676,-1876,22540,23.4393,4582,318
1.14304,147.66669,-1875,22541,23.5887,4582,318
1.38107,150.94551,-1874,22542,23.6385,4582,318
1.77132,141.99086,-1873,22543,23.6385,4556,277
1.70829,137.64655,-1872,22544,23.4393,4556,277
1.92608,145.33423,-1871,22545,23.6385,4556,277
1.78206,154.20264,-1870,22546,23.738,4556,277
2.74308,154.57437,-1869,22547,23.4891,4556,277
1.40163,159.82957,-1868,22548,23.738,4556,277
1.79539,170.83517,-1867,22549,23.6385,4556,277
1.38107,181.37808,-1866,22550,23.7878,4556,277
1.93596,188.64272,-1865,22551,23.5887,4556,277
1.62239,191.92349,-1864,22552,23.7878,4556,277
1.19604,190.2031,-1863,22553,23.6385,4512,307
1.95556,181.88247,-1862,22554,23.6385,4512,307
1.95556,172.59633,-1861,22555,23.7878,4512,307
2.0716,170.73993,-1860,22556,23.6385,4512,307
2.09677,169.71909,-1859,22557,23.4891,4512,307
2.49167,165.6804,-1858,22558,23.5887,4512,307
1.23912,161.41268,-1857,22559,23.7878,4512,307
1.07865,159.43902,-1856,22560,23.7878,4512,307
2.11263,155.87232,-1855,22561,23.5887,4512,307
1.62826,147.31626,-1854,22562,23.6385,4512,307
1.33185,133.61598,-1853,22563,23.6385,4473,321
1.22752,119.54723,-1852,22564,23.738,4473,321
1.63702,107.51263,-1851,22565,23.738,4473,321
2.18584,98.099959,-1850,22566,23.5887,4473,321
2.14399,89.674001,-1849,22567,23.6385,4473,321
4.81,81.367624,-1848,22568,23.6385,4473,321
2.04845,73.746938,-1847,22569,23.6385,4473,321
1.88858,67.078386,-1846,22570,23.3895,4473,321
1.56555,62.498212,-1845,22571,23.7878,4473,321
2.24822,60.468685,-1844,22572,23.6385,4473,321
1.89865,63.835187,-1843,22573,23.6385,4468,292
1.7551,73.167076,-1842,22574,23.4891,4468,292
1.79804,75.402507,-1841,22575,23.6385,4468,292
1.96772,69.014651,-1840,22576,23.5887,4468,292
2.09222,66.407372,-1839,22577,24.0367,4468,292
1.53789,67.149103,-1838,22578,23.4891,4468,292
1.53168,67.696766,-1837,22579,23.4891,4468,292
1.40163,68.76016,-1836,22580,23.4891,4468,292
1.13045,73.386292,-1835,22581,23.6385,4468,292
1.81913,79.688169,-1834,22582,23.6385,4468,292
1.54099,87.035448,-1833,22583,23.6385,4473,323
1.20794,95.965046,-1832,22584,23.7878,4473,323
1.34255,104.76684,-1831,22585,23.738,4473,323
1.71108,112.0902,-1830,22586,23.6385,4473,323
2.12613,118.63463,-1829,22587,23.4393,4473,323
1.85547,126.29553,-1828,22588,23.738,4473,323
1.41517,133.44005,-1827,22589,23.7878,4473,323
1.49704,137.96592,-1826,22590,23.6385,4473,323
1.56859,142.55126,-1825,22591,23.7878,4473,323
1.54408,147.84353,-1824,22592,23.5887,4473,323
1.34255,152.71118,-1823,22593,23.6385,4510,282
1.49385,156.87047,-1822,22594,23.4891,4510,282
1.06082,160.54386,-1821,22595,23.738,4510,282
1.85804,164.3537,-1820,22596,23.7878,4510,282
1.52544,167.98427,-1819,22597,23.7878,4510,282
0.971667,170.70637,-1818,22598,23.5887,4510,282
2.02269,173.25429,-1817,22599,23.4891,4510,282
1.34255,175.23269,-1816,22600,23.6385,4510,282
1.13886,176.83674,-1815,22601,23.5887,4510,282
1.37415,177.51685,-1814,22602,23.6385,4510,282
0.905627,177.25152,-1813,22603,23.738,4563,282
1.25442,177.1903,-1812,22604,23.6385,4563,282
0.840071,176.76359,-1811,22605,23.6385,4563,282
1.04268,176.19622,-1810,22606,23.4891,4563,282
0.632885,174.05103,-1809,22607,23.7878,4563,282
0.85693,169.83389,-1808,22608,23.5887,4563,282
1.25821,162.90154,-1807,22609,23.7878,4563,282
1.62239,154.50635,-1806,22610,23.5887,4563,282
1.37067,149.15084,-1805,22611,23.4891,4563,282
1.11773,145.79949,-1804,22612,23.3895,4563,282
0.218366,133.12505,-1803,22613,23.738,4642,332
1.58673,103.10636,-1802,22614,23.6385,4642,332
1.01487,84.199585,-1801,22615,23.7878,4642,332
1.28817,97.957071,-1800,22616,23.6385,4642,332
1.13045,137.87862,-1799,22617,23.6385,4642,332
1.36019,173.76095,-1798,22618,23.4891,4642,332
0.793363,193.27586,-1797,22619,23.5887,4642,332
3.45267,193.71036,-1796,22620,23.6385,4642,332
0.625305,173.3401,-1795,22621,23.738,4642,332
1.23912,138.58873,-1794,22622,23.6385,4642,332
0.560992,100.14231,-1793,22623,23.6385,4607,317
1.49066,68.792443,-1792,22624,23.7878,4607,317
1.31745,47.020369,-1791,22625,23.5887,4607,317
1.09619,33.57555,-1790,22626,23.738,4607,317
2.05078,27.066047,-1789,22627,23.8376,4607,317
1.65152,29.395636,-1788,22628,23.9371,4607,317
1.3102,42.809799,-1787,22629,23.6385,4607,317
2.84547,64.054005,-1786,22630,23.6385,4607,317
0.655098,88.206592,-1785,22631,23.7878,4607,317
2.32126,111.42445,-1784,22632,23.6385,4607,317
1.64863,129.30957,-1783,22633,23.6385,4574,264
1.13045,138.69766,-1782,22634,23.4393,4574,264
0.840071,143.03755,-1781,22635,23.738,4574,264
0.138107,137.48895,-1780,22636,23.8376,4574,264
0.690534,125.94166,-1779,22637,23.6385,4574,264
1.06082,118.17926,-1778,22638,23.6385,4574,264
1.44518,115.04264,-1777,22639,23.7878,4574,264
0.488281,110.92088,-1776,22640,23.6385,4574,264
2.75695,111.23339,-1775,22641,23.6385,4574,264
1.07865,116.31475,-1774,22642,23.6385,4574,264
1.17594,122.26821,-1773,22643,23.6385,4572,286
1.45176,130.93548,-1772,22644,23.6385,4572,286
1.81913,143.97473,-1771,22645,23.6385,4572,286
1.31745,153.32347,-1770,22646,23.6385,4572,286
1.19604,153.43199,-1769,22647,23.6385,4572,286
1.1596,151.30584,-1768,22648,23.6385,4572,286
0.632885,149.70265,-1767,22649,23.6385,4572,286
1.12623,142.46573,-1766,22650,23.4891,4572,286
3.5601,131.01853,-1765,22651,23.6385,4572,286
1.86572,130.49568,-1764,22652,23.4891,4572,286
1.20794,140.77989,-1763,22653,23.6385,4583,310
1.31745,145.4838,-1762,22654,23.4891,4583,310
1.42859,145.9015,-1761,22655,23.4891,4583,310
0.946812,143.67079,-1760,22656,23.7878,4583,310
2.10585,146.47405,-1759,22657,23.4891,4583,310
1.44188,148.67873,-1758,22658,23.738,4583,310
1.53168,146.77487,-1757,22659,23.7878,4583,310
1.04268,143.41527,-1756,22660,23.6385,4583,310
1.26577,140.40681,-1755,22661,23.6385,4583,310
2.11488,134.7126,-1754,22662,23.738,4583,310
1.54408,130.05765,-1753,22663,23.7878,4579,296
0.926449,134.06644,-1752,22664,23.6385,4579,296
0.730792,143.37323,-1751,22665,23.6385,4579,296
1.06977,143.13753,-1750,22666,23.7878,4579,296
1.63702,131.62582,-1749,22667,23.5887,4579,296
1.83739,125.13374,-1748,22668,23.7878,4579,296
1.1472,119.95283,-1747,22669,23.6385,4579,296
0.931581,115.66096,-1746,22670,23.7878,4579,296
1.4118,113.10313,-1745,22671,23.6385,4579,296
1.86316,107.95461,-1744,22672,23.4393,4579,296
1.87846,103.91834,-1743,22673,23.6385,4539,304
2.34782,103.27278,-1742,22674,23.6385,4539,304
1.63702,100.18233,-1741,22675,23.6385,4539,304
1.66303,94.65803,-1740,22676,23.6385,4539,304
1.86572,87.736631,-1739,22677,23.6385,4539,304
1.45176,78.688118,-1738,22678,23.4891,4539,304
1.68581,69.968654,-1737,22679,23.6385,4539,304
2.38209,66.611925,-1736,22680,23.6385,4539,304
1.67446,66.43205,-1735,22681,23.6385,4539,304
1.46484,64.484098,-1734,22682,23.6385,4539,304
3.24771,56.382875,-1733,22683,23.6385,4518,277
1.3461,45.493265,-1732,22684,23.3895,4518,277
2.09222,34.436163,-1731,22685,23.6385,4518,277
1.73047,28.118069,-1730,22686,23.4393,4518,277
1.49066,25.070817,-1729,22687,23.4891,4518,277
1.15135,24.564053,-1728,22688,23.4891,4518,277
0.921287,29.893771,-1727,22689,23.6385,4518,277
1.48103,40.684773,-1726,22690,23.4891,4518,277
1.05179,54.702076,-1725,22691,23.6385,4518,277
2.05078,70.2824,-1724,22692,23.5887,4518,277
2.0739,87.271139,-1723,22693,23.738,4522,300
2.35187,104.55819,-1722,22694,23.5887,4522,300
2.27352,118.70244,-1721,22695,23.4891,4522,300
1.38452,129.35595,-1720,22696,23.5887,4522,300
1.47134,139.67079,-1719,22697,23.738,4522,300
1.71942,150.8952,-1718,22698,23.6385,4522,300
1.86827,161.75795,-1717,22699,23.6385,4522,300
0.931581,173.13035,-1716,22700,23.738,4522,300
1.88606,186.67441,-1715,22701,23.4891,4522,300
2.32332,201.94924,-1714,22702,23.738,4522,300
2.32946,217.91931,-1713,22703,23.738,4527,311
2.93619,231.72177,-1712,22704,23.7878,4527,311
1.45505,240.50776,-1711,22705,23.4891,4527,311
1.83739,246.57472,-1710,22706,23.7878,4527,311
1.64863,252.23523,-1709,22707,23.6385,4527,311
1.44188,257.85111,-1708,22708,23.7878,4527,311
2.22905,261.8316,-1707,22709,23.6385,4527,311
1.51917,264.07172,-1706,22710,23.738,4527,311
1.82698,262.08851,-1705,22711,23.7878,4527,311
1.68298,260.21168,-1704,22712,23.4891,4527,311
1.45176,260.54192,-1703,22713,23.738,4507,300
1.24296,259.73861,-1702,22714,23.4891,4507,300
1.00068,262.40362,-1701,22715,23.738,4507,300
1.45176,266.89791,-1700,22716,23.7878,4507,300
1.73047,268.10192,-1699,22717,23.4393,4507,300
1.39139,268.61366,-1698,22718,23.738,4507,300
1.83479,270.54761,-1697,22719,23.6385,4507,300
0.995902,267.05464,-1696,22720,23.5887,4507,300
1.30655,262.76816,-1695,22721,23.7878,4507,300
1.78473,261.28212,-1694,22722,23.7878,4507,300
0.921287,257.78909,-1693,22723,23.4891,4507,300
1.57769,249.53092,-1692,22724,23.6385,4507,300
2.37206,245.33819,-1691,22725,23.8376,4507,300
1.96772,246.97847,-1690,22726,23.4891,4507,300
1.04725,246.93533,-1689,22727,23.3895,4507,300
2.12837,244.20394,-1688,22728,23.5887,4507,300
1.27328,242.51553,-1687,22729,23.6385,4507,300
1.00068,242.42159,-1686,22730,23.4891,4507,300
1.27328,235.63182,-1685,22731,23.6385,4507,300
1.4118,224.9687,-1684,22732,23.3895,4507,300
1.71664,217.58279,-1683,22733,23.7878,4493,287
1.45176,208.72688,-1682,22734,23.6385,4493,287
2.63491,196.99323,-1681,22735,23.4891,4493,287
1.18402,188.76101,-1680,22736,23.3895,4493,287
1.5034,186.5641,-1679,22737,23.738,4493,287
1.99897,188.7835,-1678,22738,23.6385,4493,287
0.946812,187.6432,-1677,22739,23.6385,4493,287
1.43525,183.40881,-1676,22740,23.8376,4493,287
1.87846,181.35044,-1675,22741,23.6385,4493,287
1.04725,179.07157,-1674,22742,23.5887,4493,287
2.79304,180.37077,-1673,22743,23.738,4501,299
0.76272,184.40881,-1672,22744,23.738,4501,299
1.36019,182.62425,-1671,22745,23.4393,4501,299
2.31097,175.61884,-1670,22746,23.7878,4501,299
1.17998,172.18717,-1669,22747,23.7878,4501,299
1.28817,176.19961,-1668,22748,23.738,4501,299
1.67161,178.42897,-1667,22749,23.6385,4501,299
0.900346,172.30812,-1666,22750,23.7878,4501,299
1.47781,168.37767,-1665,22751,23.6385,4501,299
1.17594,167.04492,-1664,22752,23.6385,4501,299
1.66303,164.99671,-1663,22753,23.738,4520,278
0.981433,160.86158,-1662,22754,23.738,4520,278
2.19672,157.11132,-1661,22755,23.5887,4520,278
4.21056,154.74563,-1660,22756,23.7878,4520,278
0.76272,150.75446,-1659,22757,23.8376,4520,278
1.70269,144.99204,-1658,22758,23.6385,4520,278
0.889691,139.17477,-1657,22759,23.6385,4520,278
1.13886,131.23609,-1656,22760,23.3895,4520,278
1.09183,122.39155,-1655,22761,23.6385,4520,278
1.45176,114.2908,-1654,22762,23.738,4520,278
1.49385,108.16484,-1653,22763,23.6385,4548,306
1.55332,103.25042,-1652,22764,23.7878,4548,306
0.946812,89.013786,-1651,22765,23.3895,4548,306
0.625305,75.658585,-1650,22766,23.3895,4548,306
0.292969,69.548161,-1649,22767,23.7878,4548,306
0.840071,62.159205,-1648,22768,23.5887,4548,306
1.02423,48.523525,-1647,22769,23.738,4548,306
0.981433,45.265048,-1646,22770,23.4393,4548,306
0.625305,51.151685,-1645,22771,23.6385,4548,306
1.31745,47.774428,-1644,22772,23.6385,4548,306
1.00543,46.460705,-1643,22773,23.6385,4565,303
1.09619,58.942773,-1642,22774,23.4393,4565,303
0.926449,73.849613,-1641,22775,23.6385,4565,303
0.78733,76.057838,-1640,22776,23.6385,4565,303
0.710948,69.787182,-1639,22777,23.6385,4565,303
1.37415,68.391956,-1638,22778,23.6385,4565,303
0.402647,71.744639,-1637,22779,23.6385,4565,303
1.04268,72.666807,-1636,22780,23.6385,4565,303
1.22752,69.501759,-1635,22781,23.9371,4565,303
1.38452,66.661345,-1634,22782,23.6385,4565,303
1.62239,67.103373,-1633,22783,23.5887,4557,295
1.83479,71.202578,-1632,22784,23.4393,4557,295
1.36019,78.70213,-1631,22785,23.6385,4557,295
1.57769,90.335578,-1630,22786,23.7878,4557,295
1.20399,105.70429,-1629,22787,23.6385,4557,295
0.878906,125.33685,-1628,22788,23.6385,4557,295
1.3461,145.47304,-1627,22789,23.4891,4557,295
0.905627,160.04535,-1626,22790,23.4891,4557,295
1.3637,168.28361,-1625,22791,23.6385,4557,295
0.916097,172.36307,-1624,22792,23.738,4557,295
1.70829,173.47063,-1623,22793,23.6385,4540,281
0.697405,172.82988,-1622,22794,23.5887,4540,281
1.6341,168.10589,-1621,22795,23.5887,4540,281
0.78733,161.3969,-1620,22796,23.4891,4540,281
1.31383,156.82634,-1619,22797,23.5887,4540,281
0.895034,154.76917,-1618,22798,23.6385,4540,281
1.41517,155.75684,-1617,22799,23.738,4540,281
0.793363,158.90723,-1616,22800,23.6385,4540,281
0.845728,164.6095,-1615,22801,23.738,4540,281
1.11773,171.76477,-1614,22802,23.738,4540,281
0.76272,178.02343,-1613,22803,23.4891,4558,262
1.23526,180.69627,-1612,22804,23.738,4558,262
1.39139,180.82985,-1611,22805,23.6385,4558,262
0.862477,179.52613,-1610,22806,23.6385,4558,262
1.48103,178.00099,-1609,22807,23.6385,4558,262
1.45176,176.87011,-1608,22808,23.738,4558,262
1.88858,173.23106,-1607,22809,23.6385,4558,262
0.946812,169.20504,-1606,22810,23.4393,4558,262
0.931581,168.40882,-1605,22811,23.7878,4558,262
0.138107,170.09564,-1604,22812,23.6385,4558,262
1.13886,171.68438,-1603,22813,23.6385,4545,324
0.966748,171.17122,-1602,22814,23.3895,4545,324
0.76272,169.93582,-1601,22815,23.4393,4545,324
1.45176,169.33938,-1600,22816,23.7878,4545,324
1.45505,170.38746,-1599,22817,23.738,4545,324
0.662337,171.4829,-1598,22818,23.4891,4545,324
3.30592,170.75551,-1597,22819,23.5887,4545,324
0.323889,167.08951,-1596,22820,23.4393,4545,324
1.81388,162.88274,-1595,22821,23.7878,4545,324
1.0381,160.32429,-1594,22822,23.6385,4545,324
1.12198,157.52879,-1593,22823,23.6385,4507,312
1.82437,152.44275,-1592,22824,23.738,4507,312
1.52856,146.32005,-1591,22825,23.7878,4507,312
1.44188,141.47633,-1590,22826,23.7878,4507,312
1.01016,137.26355,-1589,22827,23.5887,4507,312
1.28817,130.89274,-1588,22828,23.6385,4507,312
3.95478,123.52611,-1587,22829,23.6385,4507,312
1.91864,117.82985,-1586,22830,23.7878,4507,312
1.92608,115.33061,-1585,22831,23.6385,4507,312
1.12623,120.46608,-1584,22832,23.6385,4507,312
1.19205,131.74283,-1583,22833,23.7878,4466,255
2.5782,177.7928,-1582,22834,23.8376,4466,255
0.793363,295.63577,-1581,22835,23.6385,4466,255
1.42859,332.20289,-1580,22836,23.6385,4466,255
1.11773,256.5,-1579,22837,23.6385,4466,255
1.25442,210.11531,-1578,22838,23.4891,4466,255
3.99556,195.47551,-1577,22839,23.738,4466,255
1.77132,190.70653,-1576,22840,23.4393,4466,255
1.80598,172.78689,-1575,22841,23.5887,4466,255
1.72495,172.00855,-1574,22842,23.7878,4466,255
2.49167,174.73759,-1573,22843,23.5887,4455,281
2.11488,190.63248,-1572,22844,23.4891,4455,281
2.13508,208.1471,-1571,22845,23.4891,4455,281
2.7862,209.94138,-1570,22846,23.4891,4455,281
2.15951,210.89073,-1569,22847,23.738,4455,281
1.85804,215.64304,-1568,22848,23.4393,4455,281
2.41983,214.12967,-1567,22849,23.6385,4455,281
2.14399,190.33107,-1566,22850,23.4891,4455,281
2.60945,155.7011,-1565,22851,23.4891,4455,281
2.16392,126.07884,-1564,22852,23.6385,4455,281
2.47246,102.58802,-1563,22853,23.738,4458,299
1.62239,85.57869,-1562,22854,23.7878,4458,299
1.77132,83.022531,-1561,22855,23.6385,4458,299
2.14622,92.104296,-1560,22856,23.9371,4458,299
3.75183,98.925091,-1559,22857,23.4393,4458,299
2.94592,103.76307,-1558,22858,23.6385,4458,299
2.80496,113.44832,-1557,22859,23.5887,4458,299
2.54844,129.05344,-1556,22860,23.7878,4458,299
2.04845,146.49928,-1555,22861,23.738,4458,299
2.16832,163.49276,-1554,22862,23.4891,4458,299
1.95556,181.85039,-1553,22863,23.6385,4496,299
2.62039,203.21881,-1552,22864,23.738,4496,299
1.55332,226.66593,-1551,22865,23.4393,4496,299
2.93294,249.14177,-1550,22866,23.6385,4496,299
1.76323,269.87742,-1549,22867,23.738,4496,299
1.77132,289.62761,-1548,22868,23.6385,4496,299
1.41517,308.59773,-1547,22869,23.6385,4496,299
1.60168,325.76303,-1546,22870,23.7878,4496,299
2.15287,339.21181,-1545,22871,23.6385,4496,299
2.09677,347.80542,-1544,22872,23.6385,4496,299
1.89362,349.95689,-1543,22873,23.6385,4570,311
1.79804,345.38092,-1542,22874,23.7878,4570,311
0.717624,333.17193,-1541,22875,23.6385,4570,311
0.845728,314.07861,-1540,22876,23.6385,4570,311
1.01487,290.82334,-1539,22877,23.738,4570,311
1.27328,267.56437,-1538,22878,23.6385,4570,311
2.54282,247.46428,-1537,22879,23.6385,4570,311
2.31715,231.35509,-1536,22880,23.6385,4570,311
1.93596,220.86062,-1535,22881,23.738,4570,311
2.15066,216.61954,-1534,22882,23.6385,4570,311
1.1596,217.04284,-1533,22883,23.5887,4632,278
1.72495,219.36225,-1532,22884,23.4891,4632,278
1.38107,222.48291,-1531,22885,23.6385,4632,278
1.40163,224.1295,-1530,22886,23.7878,4632,278
1.53168,222.29969,-1529,22887,23.6385,4632,278
0.878906,215.80409,-1528,22888,23.6385,4632,278
1.89614,207.07252,-1527,22889,23.5887,4632,278
2.15951,200.625,-1526,22890,23.6385,4632,278
2.36199,197.76766,-1525,22891,23.5887,4632,278
1.65728,197.31291,-1524,22892,23.6385,4632,278
1.54717,199.20719,-1523,22893,23.7878,4629,284
1.82698,205.6295,-1522,22894,23.6385,4629,284
1.56859,214.13238,-1521,22895,23.6385,4629,284
1.79804,219.50584,-1520,22896,23.4393,4629,284
1.92856,223.03706,-1519,22897,23.4891,4629,284
1.94088,228.64353,-1518,22898,23.7878,4629,284
1.59273,237.18189,-1517,22899,23.6385,4629,284
1.96287,245.26818,-1516,22900,23.7878,4629,284
1.32827,250.95201,-1515,22901,23.5887,4629,284
3.64743,256.17818,-1514,22902,23.5887,4629,284
2.49549,262.80233,-1513,22903,23.6385,4579,310
1.54717,269.74487,-1512,22904,23.738,4579,310
1.70829,277.31396,-1511,22905,23.6385,4579,310
1.83998,286.69826,-1510,22906,23.5887,4579,310
2.28607,294.34109,-1509,22907,23.7878,4579,310
1.64863,295.67572,-1508,22908,23.4891,4579,310
2.74308,292.03375,-1507,22909,23.738,4579,310
1.4118,291.93885,-1506,22910,23.3895,4579,310
2.1771,294.68223,-1505,22911,23.6385,4579,310
1.27328,292.25955,-1504,22912,23.4393,4579,310
3.2108,286.69831,-1503,22913,23.6385,4522,319
1.69427,288.01799,-1502,22914,23.5887,4522,319
2.25034,297.72649,-1501,22915,23.5887,4522,319
1.75238,309.42474,-1500,22916,23.6385,4522,319
1.86827,317.45551,-1499,22917,23.6385,4522,319
2.11263,321.15279,-1498,22918,23.7878,4522,319
1.66589,321.71945,-1497,22919,23.7878,4522,319
1.77938,318.69982,-1496,22920,23.6385,4522,319
1.13045,313.01925,-1495,22921,23.7878,4522,319
1.40163,306.06477,-1494,22922,23.7878,4522,319
4.58673,298.30316,-1493,22923,23.738,4468,276
1.81125,292.37109,-1492,22924,23.6385,4468,276
1.01016,289.02822,-1491,22925,23.6385,4468,276
1.09619,286.54437,-1490,22926,23.5887,4468,276
1.69427,285.29078,-1489,22927,23.6385,4468,276
0.921287,285.80049,-1488,22928,23.6385,4468,276
1.33185,286.10276,-1487,22929,23.7878,4468,276
1.33543,284.70822,-1486,22930,23.7878,4468,276
1.76323,282.89331,-1485,22931,23.738,4468,276
1.85804,280.91986,-1484,22932,23.6385,4468,276
1.31745,278.25616,-1483,22933,23.6385,4438,317
2.23118,273.19352,-1482,22934,23.6385,4438,317
1.06977,264.79068,-1481,22935,23.7878,4438,317
1.76323,253.91414,-1480,22936,23.6385,4438,317
1.49385,242.14526,-1479,22937,23.7878,4438,317
1.56555,229.61387,-1478,22938,23.6385,4438,317
2.08079,219.50082,-1477,22939,23.6385,4438,317
1.54099,208.65862,-1476,22940,23.4891,4438,317
1.54099,195.46594,-1475,22941,23.5887,4438,317
2.38009,179.04498,-1474,22942,23.5887,4438,317
2.20323,159.7358,-1473,22943,23.738,4412,289
1.1472,143.22932,-1472,22944,23.738,4412,289
1.30655,137.37223,-1471,22945,23.7878,4412,289
2.12837,143.61493,-1470,22946,23.7878,4412,289
1.77132,152.69401,-1469,22947,23.6385,4412,289
1.04268,154.4394,-1468,22948,23.6385,4412,289
1.49066,151.64789,-1467,22949,23.738,4412,289
1.62826,154.77418,-1466,22950,23.6385,4412,289
1.90617,161.77559,-1465,22951,23.4393,4412,289
0.497951,162.30271,-1464,22952,23.5887,4412,289
1.26577,150.53764,-1463,22953,23.6385,4412,289
1.87846,128.2431,-1462,22954,23.5887,4412,289
2.44336,103.40422,-1461,22955,23.3895,4412,289
2.45115,91.866568,-1460,22956,23.7878,4412,289
1.71386,104.18378,-1459,22957,23.5887,4412,289
1.12198,128.88243,-1458,22958,23.7878,4412,289
1.85804,153.6857,-1457,22959,23.4891,4412,289
2.39407,172.75848,-1456,22960,23.4891,4412,289
2.43554,185.85661,-1455,22961,23.6385,4412,289
1.49385,194.7776,-1454,22962,23.738,4412,289
1.47781,202.2182,-1453,22963,23.738,4391,281
2.21832,209.43484,-1452,22964,23.4393,4391,281
2.4974,221.06192,-1451,22965,23.6385,4391,281
1.88099,237.61801,-1450,22966,23.738,4391,281
1.13045,254.15995,-1449,22967,23.6385,4391,281
1.78206,267.57487,-1448,22968,23.738,4391,281
2.0762,272.62775,-1447,22969,23.738,4391,281
1.4681,259.21489,-1446,22970,23.6385,4391,281
1.29923,224.05729,-1445,22971,23.6385,4391,281
1.37415,179.01556,-1444,22972,23.6385,4391,281
2.08079,143.17104,-1443,22973,23.7878,4381,332
0.995902,133.77135,-1442,22974,23.6385,4381,332
2.32332,144.81439,-1441,22975,23.6385,4381,332
1.34255,155.00551,-1440,22976,23.6385,4381,332
2.00374,160.39839,-1439,22977,23.738,4381,332
2.36401,168.63606,-1438,22978,23.6385,4381,332
3.05868,183.52049,-1437,22979,23.5887,4381,332
1.69708,205.06192,-1436,22980,23.6385,4381,332
1.99897,229.33896,-1435,22981,23.6385,4381,332
2.15287,249.4082,-1434,22982,23.4891,4381,332
1.80598,264.36191,-1433,22983,23.6385,4380,317
1.68863,275.2836,-1432,22984,23.738,4380,317
0.905627,281.65851,-1431,22985,23.7878,4380,317
4.65688,282.21666,-1430,22986,23.6385,4380,317
1.10916,281.1477,-1429,22987,23.5887,4380,317
1.57769,283.30744,-1428,22988,23.8376,4380,317
1.70269,284.97447,-1427,22989,23.5887,4380,317
1.82437,282.71363,-1426,22990,23.6385,4380,317
1.97739,281.01092,-1425,22991,23.6385,4380,317
0.98628,283.97855,-1424,22992,23.6385,4380,317
1.81913,288.29157,-1423,22993,23.5887,4384,261
1.73047,291.10604,-1422,22994,23.738,4384,261
1.55638,291.73512,-1421,22995,23.7878,4384,261
2.93131,288.36354,-1420,22996,23.7878,4384,261
1.57769,282.02958,-1419,22997,23.5887,4384,261
1.36019,275.45065,-1418,22998,23.6385,4384,261
2.62403,269.43451,-1417,22999,23.5887,4384,261
2.14399,264.12112,-1416,23000,23.6385,4384,261
1.57163,262.1019,-1415,23001,23.6385,4384,261
1.77401,264.41424,-1414,23002,23.4891,4384,261
2.4277,269.04333,-1413,23003,23.8376,4406,297
1.74146,273.21921,-1412,23004,23.7878,4406,297
2.03444,277.55187,-1411,23005,23.738,4406,297
1.83479,282.82356,-1410,23006,23.738,4406,297
3.20038,285.07853,-1409,23007,23.4891,4406,297
2.18148,285.19437,-1408,23008,23.4393,4406,297
1.37415,285.20957,-1407,23009,23.6385,4406,297
1.41517,281.61293,-1406,23010,23.8376,4406,297
1.84516,273.70486,-1405,23011,23.3895,4406,297
1.3029,263.84091,-1404,23012,23.8376,4406,297
1.47781,252.77434,-1403,23013,23.4393,4433,311
1.958,239.43369,-1402,23014,23.7878,4433,311
1.9798,225.28522,-1401,23015,23.6385,4433,311
2.03444,216.28903,-1400,23016,23.6385,4433,311
5.03096,214.83213,-1399,23017,23.6385,4433,311
3.13262,216.73889,-1398,23018,23.5887,4433,311
2.0156,218.34489,-1397,23019,23.6385,4433,311
1.47458,219.52675,-1396,23020,23.6385,4433,311
1.5034,222.12977,-1395,23021,23.4891,4433,311
1.60168,223.10329,-1394,23022,23.4891,4433,311
1.02423,218.76536,-1393,23023,23.6385,4444,293
2.18366,210.53367,-1392,23024,23.6385,4444,293
2.34985,201.5582,-1391,23025,23.3895,4444,293
1.97498,189.9358,-1390,23026,23.4891,4444,293
1.89614,174.55308,-1389,23027,23.5887,4444,293
2.0693,156.81679,-1388,23028,23.5887,4444,293
2.0739,140.40325,-1387,23029,23.6385,4444,293
1.76052,126.68252,-1386,23030,23.6385,4444,293
1.47781,112.54393,-1385,23031,23.5887,4444,293
1.68014,98.849597,-1384,23032,23.6385,4444,293
1.45176,93.378683,-1383,23033,23.6385,4474,325
1.55638,99.416659,-1382,23034,23.4393,4474,325
1.87846,110.04007,-1381,23035,23.3895,4474,325
2.0716,116.58923,-1380,23036,23.6385,4474,325
1.00543,113.00903,-1379,23037,23.6385,4474,325
1.60168,103.18812,-1378,23038,23.6385,4474,325
2.35187,97.63458,-1377,23039,23.6385,4474,325
1.18402,100.35011,-1376,23040,23.7878,4474,325
1.62532,104.08397,-1375,23041,23.5887,4474,325
1.80334,104.86188,-1374,23042,23.4393,4474,325
1.26577,109.54741,-1373,23043,23.738,4486,273
1.54717,121.07523,-1372,23044,23.5887,4486,273
1.31745,134.14722,-1371,23045,23.5887,4486,273
1.33185,144.6645,-1370,23046,23.9869,4486,273
1.67446,145.7246,-1369,23047,23.5887,4486,273
1.48746,138.99333,-1368,23048,23.7878,4486,273
2.77763,139.26361,-1367,23049,23.5887,4486,273
1.80334,144.34808,-1366,23050,23.6385,4486,273
1.28817,152.1099,-1365,23051,23.6385,4486,273
1.91864,159.38424,-1364,23052,23.7878,4486,273
1.47458,172.58351,-1363,23053,23.7878,4498,293
1.18804,196.3664,-1362,23054,23.6385,4498,293
1.82698,225.96811,-1361,23055,23.7878,4498,293
2.99568,256.30711,-1360,23056,23.5887,4498,293
2.12837,279.54491,-1359,23057,23.4393,4498,293
1.3102,298.77619,-1358,23058,23.7878,4498,293
1.5034,316.78507,-1357,23059,23.6385,4498,293
1.96044,331.67717,-1356,23060,23.7878,4498,293
2.21617,336.38056,-1355,23061,23.6385,4498,293
2.00136,343.02844,-1354,23062,23.7878,4498,293
2.22047,358.98222,-1353,23063,23.6385,4484,318
2.48592,372.48933,-1352,23064,23.7878,4484,318
2.44336,377.11408,-1351,23065,23.6385,4484,318
0.905627,370.83368,-1350,23066,23.5887,4484,318
1.45505,355.23075,-1349,23067,23.6385,4484,318
1.60168,339.45509,-1348,23068,23.3895,4484,318
1.71386,325.66184,-1347,23069,23.5887,4484,318
1.88606,309.909,-1346,23070,23.6385,4484,318
2.24609,293.52636,-1345,23071,23.6385,4484,318
1.60466,281.91176,-1344,23072,23.4393,4484,318
1.30655,276.4428,-1343,23073,23.6385,4497,300
1.29923,268.82339,-1342,23074,23.738,4497,300
0.878906,256.93577,-1341,23075,23.6385,4497,300
1.09619,249.7226,-1340,23076,23.8376,4497,300
0.793363,247.4763,-1339,23077,23.5887,4497,300
1.08306,244.55141,-1338,23078,23.738,4497,300
0.811194,233.92399,-1337,23079,23.738,4497,300
1.02423,216.04604,-1336,23080,23.7878,4497,300
0.926449,199.61583,-1335,23081,23.6385,4497,300
0.828641,189.2804,-1334,23082,23.738,4497,300
1.21581,186.69476,-1333,23083,23.6385,4585,303
1.30655,196.53764,-1332,23084,23.4393,4585,303
1.74966,203.62799,-1331,23085,23.5887,4585,303
1.10916,206.63277,-1330,23086,23.6385,4585,303
2.06237,212.50341,-1329,23087,23.6385,4585,303
0.239208,203.09393,-1328,23088,23.738,4585,303
1.34255,172.28256,-1327,23089,23.5887,4585,303
1.13045,138.39942,-1326,23090,23.6385,4585,303
0.560992,121.18109,-1325,23091,23.7878,4585,303
1.05631,125.17928,-1324,23092,23.6385,4585,303
0.560992,135.50459,-1323,23093,23.4891,4616,305
1.27702,140.34768,-1322,23094,23.7878,4616,305
0.768946,141.09179,-1321,23095,23.738,4616,305
1.33185,134.01541,-1320,23096,23.6385,4616,305
1.73047,121.16941,-1319,23097,23.6385,4616,305
0.601994,112.73344,-1318,23098,23.6385,4616,305
1.61945,116.8417,-1317,23099,23.6385,4616,305
1.84516,132.12074,-1316,23100,23.5887,4616,305
4.29243,148.82914,-1315,23101,23.4891,4616,305
1.09183,161.30976,-1314,23102,23.6385,4616,305
1.73047,170.06721,-1313,23103,23.738,4557,293
1.11773,171.48594,-1312,23104,23.7878,4557,293
1.76323,165.0976,-1311,23105,23.4891,4557,293
1.76323,152.03886,-1310,23106,23.6385,4557,293
2.44921,134.956,-1309,23107,23.5887,4557,293
1.60466,121.44107,-1308,23108,23.5887,4557,293
3.28276,115.52561,-1307,23109,23.5887,4557,293
2.06237,111.96842,-1306,23110,23.3895,4557,293
2.91827,106.00498,-1305,23111,23.6385,4557,293
2.11714,97.720545,-1304,23112,23.7878,4557,293
1.12623,89.452972,-1303,23113,23.6385,4539,319
2.40203,84.736143,-1302,23114,23.5887,4539,319
1.16371,84.003978,-1301,23115,23.3895,4539,319
1.95556,81.676716,-1300,23116,23.6385,4539,319
1.87592,76.386857,-1299,23117,23.4891,4539,319
3.19442,73.355219,-1298,23118,23.6385,4539,319
1.35668,76.140666,-1297,23119,23.4891,4539,319
2.14844,81.056526,-1296,23120,23.738,4539,319
2.14622,82.785004,-1295,23121,23.6385,4539,319
4.08875,82.227653,-1294,23122,23.738,4539,319
0.966748,82.226929,-1293,23123,23.6385,4618,284
0.78733,87.159656,-1292,23124,23.738,4618,284
1.39481,97.632138,-1291,23125,23.5887,4618,284
0.946812,112.07344,-1290,23126,23.5887,4618,284
1.44188,130.53621,-1289,23127,23.4891,4618,284
2.40401,145.17409,-1288,23128,23.5887,4618,284
0.560992,156.44233,-1287,23129,23.7878,4618,284
1.38107,163.39543,-1286,23130,23.738,4618,284
1.60168,163.999,-1285,23131,23.6385,4618,284
2.50693,159.16284,-1284,23132,23.6385,4618,284
1.25821,150.17372,-1283,23133,23.4891,4694,298
1.47134,134.49933,-1282,23134,23.6385,4694,298
1.35668,109.89983,-1281,23135,23.6385,4694,298
1.16371,84.396504,-1280,23136,23.6385,4694,298
0.768946,76.703102,-1279,23137,23.6385,4694,298
1.19205,85.5429,-1278,23138,23.5887,4694,298
1.09183,107.69494,-1277,23139,23.738,4694,298
1.13886,154.51445,-1276,23140,23.6385,4694,298
1.86316,215.35037,-1275,23141,23.8376,4694,298
1.13045,266.76757,-1274,23142,23.6385,4694,298
1.51917,290.69127,-1273,23143,23.4891,4663,302
1.76052,280.67628,-1272,23144,23.7878,4663,302
1.77938,241.08281,-1271,23145,23.738,4663,302
1.3637,183.35436,-1270,23146,23.6385,4663,302
1.4118,125.7262,-1269,23147,23.6385,4663,302
2.29024,95.335351,-1268,23148,23.6385,4663,302
1.23912,103.60807,-1267,23149,23.738,4663,302
1.66016,123.19659,-1266,23150,23.7878,4663,302
1.57466,133.22324,-1265,23151,23.6385,4663,302
1.71386,128.4113,-1264,23152,23.7878,4663,302
0.828641,113.76547,-1263,23153,23.6385,4578,262
1.42859,99.570023,-1262,23154,23.4393,4578,262
0.710948,96.796832,-1261,23155,23.6385,4578,262
0.966748,108.23287,-1260,23156,23.6385,4578,262
0.585938,128.32162,-1259,23157,23.6385,4578,262
1.1472,147.59931,-1258,23158,23.738,4578,262
2.16171,156.07218,-1257,23159,23.738,4578,262
2.40797,149.51346,-1256,23160,23.6385,4578,262
0.76272,133.3947,-1255,23161,23.6385,4578,262
2.29024,115.22468,-1254,23162,23.7878,4578,262
0.704209,99.380679,-1253,23163,23.8376,4582,318
1.28447,87.532756,-1252,23164,23.6385,4582,318
1.64283,79.33265,-1251,23165,23.4891,4582,318
1.05631,75.315899,-1250,23166,23.6385,4582,318
1.18804,76.699119,-1249,23167,23.6385,4582,318
0.926449,87.439247,-1248,23168,23.7878,4582,318
1.00068,107.48802,-1247,23169,23.6385,4582,318
1.24296,132.60151,-1246,23170,23.6385,4582,318
1.7551,158.42653,-1245,23171,23.6385,4582,318
0.768946,180.9381,-1244,23172,23.4891,4582,318
1.44518,195.63698,-1243,23173,23.9371,4633,332
0.895034,199.82209,-1242,23174,23.7878,4633,332
1.19205,193.73428,-1241,23175,23.6385,4633,332
1.01016,180.64942,-1240,23176,23.7878,4633,332
1.25442,166.15142,-1239,23177,23.7878,4633,332
0.981433,155.01007,-1238,23178,23.4891,4633,332
1.01487,148.30659,-1237,23179,23.6385,4633,332
1.3637,146.64887,-1236,23180,23.6385,4633,332
1.46484,148.8342,-1235,23181,23.6385,4633,332
0.710948,154.19104,-1234,23182,23.6385,4633,332
1.17594,160.26437,-1233,23183,23.7878,4633,332
1.86827,165.89176,-1232,23184,23.4891,4633,332
2.9717,172.15208,-1231,23185,23.7878,4633,332
0.793363,179.35469,-1230,23186,23.7878,4633,332
0.425674,184.942,-1229,23187,23.738,4633,332
0.534885,188.21825,-1228,23188,23.7878,4633,332
1.05179,190.53835,-1227,23189,23.738,4633,332
0.895034,191.79317,-1226,23190,23.738,4633,332
0.840071,189.52756,-1225,23191,23.4891,4633,332
1.17594,185.43573,-1224,23192,23.5887,4633,332
0.365396,184.24095,-1223,23193,23.8376,4659,271
1.61355,185.8702,-1222,23194,23.6385,4659,271
2.82022,191.85582,-1221,23195,23.6385,4659,271
1.13045,203.89791,-1220,23196,23.6385,4659,271
0.365396,222.16777,-1219,23197,23.5887,4659,271
0.941763,244.60381,-1218,23198,23.6385,4659,271
0.926449,265.93163,-1217,23199,23.6385,4659,271
0.805294,282.42918,-1216,23200,23.6385,4659,271
0.981433,292.12415,-1215,23201,23.6385,4659,271
1.92608,292.87683,-1214,23202,23.6385,4659,271
1.56555,283.14193,-1213,23203,23.7878,4649,281
1.63702,266.3156,-1212,23204,23.6385,4649,281
2.99408,250.20245,-1211,23205,23.738,4649,281
1.30655,240.4356,-1210,23206,23.6385,4649,281
1.4681,236.55312,-1209,23207,23.7878,4649,281
0.292969,234.69471,-1208,23208,23.5887,4649,281
1.94088,233.60957,-1207,23209,23.738,4649,281
1.88858,233.43336,-1206,23210,23.7878,4649,281
1.7767,235.40126,-1205,23211,23.6385,4649,281
1.22752,241.40231,-1204,23212,23.6385,4649,281
0.905627,252.10771,-1203,23213,23.7878,4619,304
1.57466,266.92242,-1202,23214,23.7878,4619,304
0.921287,283.30855,-1201,23215,23.6385,4619,304
2.16171,299.0192,-1200,23216,23.4393,4619,304
1.41517,313.40682,-1199,23217,23.5887,4619,304
1.60168,326.46116,-1198,23218,23.6385,4619,304
1.53789,337.14187,-1197,23219,23.6385,4619,304
1.59273,342.97739,-1196,23220,23.738,4619,304
1.44518,346.50225,-1195,23221,23.4891,4619,304
0.85693,348.04903,-1194,23222,23.738,4619,304
1.94824,347.83008,-1193,23223,23.6385,4602,306
1.68298,347.23477,-1192,23224,23.5887,4602,306
1.83739,347.06017,-1191,23225,23.6385,4602,306
1.45505,347.92243,-1190,23226,23.4891,4602,306
2.34578,349.76442,-1189,23227,23.8376,4602,306
1.62532,352.48986,-1188,23228,23.6385,4602,306
1.38107,356.02947,-1187,23229,23.6385,4602,306
1.66303,359.57636,-1186,23230,23.6385,4602,306
1.01487,361.81879,-1185,23231,23.6385,4602,306
2.0693,362.70204,-1184,23232,23.6385,4602,306
3.054,360.75644,-1183,23233,23.738,4564,321
0.710948,356.73733,-1182,23234,23.738,4564,321
1.09183,351.59855,-1181,23235,23.8376,4564,321
1.5034,346.32811,-1180,23236,23.6385,4564,321
1.6165,343.43172,-1179,23237,23.7878,4564,321
2.16171,341.91899,-1178,23238,23.6385,4564,321
2.05078,339.18694,-1177,23239,23.5887,4564,321
1.66589,334.90306,-1176,23240,23.4891,4564,321
1.75781,329.42354,-1175,23241,23.7878,4564,321
1.31383,324.03543,-1174,23242,23.5887,4564,321
1.33185,320.58476,-1173,23243,23.6385,4539,278
1.36719,319.4157,-1172,23244,23.5887,4539,278
1.92608,321.50338,-1171,23245,23.6385,4539,278
1.39822,328.26654,-1170,23246,23.738,4539,278
1.86827,339.2683,-1169,23247,23.4891,4539,278
0.811194,351.37589,-1168,23248,23.6385,4539,278
1.74146,362.19735,-1167,23249,23.6385,4539,278
1.39822,370.36394,-1166,23250,23.7878,4539,278
0.497951,377.15001,-1165,23251,23.738,4539,278
0.98628,383.85671,-1164,23252,23.738,4539,278
2.0785,386.53942,-1163,23253,23.6385,4534,280
1.68014,380.11074,-1162,23254,23.8376,4534,280
1.09619,363.72344,-1161,23255,23.4891,4534,280
2.3027,341.92681,-1160,23256,23.6385,4534,280
2.54844,321.45499,-1159,23257,23.7878,4534,280
2.03444,307.89746,-1158,23258,23.6385,4534,280
2.25668,301.73238,-1157,23259,23.6385,4534,280
2.30684,298.6513,-1156,23260,23.6385,4534,280
1.82698,292.76495,-1155,23261,23.6385,4534,280
1.56555,283.84109,-1154,23262,23.6385,4534,280
1.83998,274.15432,-1153,23263,23.4891,4496,307
1.90867,266.80815,-1152,23264,23.6385,4496,307
2.90517,263.07268,-1151,23265,23.738,4496,307
1.59572,260.79624,-1150,23266,23.6385,4496,307
1.09619,258.78339,-1149,23267,23.6385,4496,307
2.9717,258.07021,-1148,23268,23.6385,4496,307
2.72214,257.52884,-1147,23269,23.738,4496,307
1.83479,257.08953,-1146,23270,23.738,4496,307
1.46158,255.91924,-1145,23271,23.4891,4496,307
1.66589,251.83934,-1144,23272,23.7878,4496,307
2.14844,246.3257,-1143,23273,23.738,4455,305
1.70549,242.3761,-1142,23274,23.7878,4455,305
1.14304,240.00442,-1141,23275,23.7878,4455,305
1.96529,236.72235,-1140,23276,23.6385,4455,305
1.69427,232.12863,-1139,23277,23.6385,4455,305
2.17052,225.70141,-1138,23278,23.6385,4455,305
2.01324,218.59603,-1137,23279,23.6385,4455,305
1.8606,211.57233,-1136,23280,23.738,4455,305
2.8236,204.66405,-1135,23281,23.7878,4455,305
2.11714,197.57049,-1134,23282,23.7878,4455,305
2.49167,190.81542,-1133,23283,23.5887,4427,283
2.77935,188.2249,-1132,23284,23.7878,4427,283
2.54844,188.69958,-1131,23285,23.7878,4427,283
2.40203,187.91221,-1130,23286,23.6385,4427,283
2.41983,184.36756,-1129,23287,23.7878,4427,283
1.77132,179.2595,-1128,23288,23.6385,4427,283
2.79304,173.59952,-1127,23289,23.738,4427,283
2.88045,166.67797,-1126,23290,23.6385,4427,283
2.43358,159.45757,-1125,23291,23.4891,4427,283
2.91337,153.89717,-1124,23292,23.4393,4427,283
2.45698,150.33528,-1123,23293,23.4891,4408,301
3.26528,148.70674,-1122,23294,23.738,4408,301
2.0156,149.93266,-1121,23295,23.6385,4408,301
1.79804,153.07247,-1120,23296,23.738,4408,301
2.08079,156.40961,-1119,23297,23.5887,4408,301
2.48208,157.72807,-1118,23298,23.738,4408,301
5.0053,155.38745,-1117,23299,23.4891,4408,301
2.47246,149.34404,-1116,23300,23.7878,4408,301
2.04146,141.61977,-1115,23301,23.8376,4408,301
1.61355,134.81797,-1114,23302,23.7878,4408,301
2.93781,130.27053,-1113,23303,23.7878,4408,293
2.39208,127.58135,-1112,23304,23.7878,4408,293
2.12388,126.36931,-1111,23305,23.4891,4408,293
2.40203,125.98336,-1110,23306,23.738,4408,293
1.55638,125.34363,-1109,23307,23.6385,4408,293
1.13045,125.11403,-1108,23308,23.7878,4408,293
2.19238,126.81813,-1107,23309,23.4891,4408,293
1.83739,128.25512,-1106,23310,23.7878,4408,293
1.54717,127.93959,-1105,23311,23.4393,4408,293
1.76323,131.05429,-1104,23312,23.738,4408,293
2.44336,139.12573,-1103,23313,23.8376,4417,261
1.4681,147.9465,-1102,23314,23.6385,4417,261
1.66589,150.33924,-1101,23315,23.5887,4417,261
2.09677,148.37193,-1100,23316,23.6385,4417,261
1.88858,151.25502,-1099,23317,23.7878,4417,261
1.84516,159.59936,-1098,23318,23.4891,4417,261
1.33185,167.86106,-1097,23319,23.6385,4417,261
1.73047,172.06624,-1096,23320,23.7878,4417,261
1.66016,170.99907,-1095,23321,23.4393,4417,261
1.81125,164.96293,-1094,23322,23.3895,4417,261
2.11488,157.20391,-1093,23323,23.6385,4439,323
1.09183,151.33219,-1092,23324,23.3895,4439,323
1.84257,149.28291,-1091,23325,23.9371,4439,323
1.99897,150.14157,-1090,23326,23.738,4439,323
2.27981,153.46841,-1089,23327,23.6385,4439,323
1.66303,158.28703,-1088,23328,23.4891,4439,323
2.21617,163.84483,-1087,23329,23.738,4439,323
1.83998,168.29689,-1086,23330,23.4393,4439,323
2.49549,170.17994,-1085,23331,23.7878,4439,323
1.18402,170.23474,-1084,23332,23.5887,4439,323
1.38452,166.24874,-1083,23333,23.4891,4460,316
0.750112,158.50754,-1082,23334,23.8376,4460,316
1.70829,147.18931,-1081,23335,23.6385,4460,316
2.27981,133.56802,-1080,23336,23.6385,4460,316
0.697405,119.79402,-1079,23337,23.6385,4460,316
1.9335,108.76848,-1078,23338,23.4891,4460,316
2.02504,102.52467,-1077,23339,23.6385,4460,316
0.497951,100.32977,-1076,23340,23.7878,4460,316
0.730792,101.21756,-1075,23341,23.4393,4460,316
2.13954,105.26362,-1074,23342,23.6385,4460,316
2.41391,109.97485,-1073,23343,23.6385,4481,279
0.425674,111.47646,-1072,23344,23.8376,4481,279
0.690534,110.1771,-1071,23345,23.738,4481,279
0.941763,111.02662,-1070,23346,23.7878,4481,279
1.27702,117.03545,-1069,23347,23.7878,4481,279
0.961803,127.92509,-1068,23348,23.6385,4481,279
0.845728,143.05063,-1067,23349,23.7878,4481,279
1.91615,159.73688,-1066,23350,23.738,4481,279
0.931581,175.831,-1065,23351,23.6385,4481,279
1.77132,187.70707,-1064,23352,23.7878,4481,279
1.07865,193.48094,-1063,23353,23.5887,4495,292
1.31745,194.5797,-1062,23354,23.6385,4495,292
2.14399,194.8901,-1061,23355,23.738,4495,292
1.32467,197.7252,-1060,23356,23.738,4495,292
2.25668,204.355,-1059,23357,23.5887,4495,292
1.59273,213.40534,-1058,23358,23.6385,4495,292
1.44518,223.30397,-1057,23359,23.6385,4495,292
1.27328,233.10399,-1056,23360,23.738,4495,292
1.61945,240.66638,-1055,23361,23.738,4495,292
1.49066,241.87576,-1054,23362,23.6385,4495,292
2.26091,234.49583,-1053,23363,23.7878,4489,303
2.02504,219.36249,-1052,23364,23.6385,4489,303
1.25442,198.6264,-1051,23365,23.6385,4489,303
2.30063,175.37842,-1050,23366,23.6385,4489,303
2.11714,153.07413,-1049,23367,23.9371,4489,303
1.45505,135.55412,-1048,23368,23.6385,4489,303
2.44336,124.40306,-1047,23369,23.7878,4489,303
1.45505,119.39731,-1046,23370,23.738,4489,303
1.45505,119.19583,-1045,23371,23.5887,4489,303
1.50657,121.67588,-1044,23372,23.738,4489,303
1.37415,124.73089,-1043,23373,23.8376,4525,303
1.67161,128.25873,-1042,23374,23.3895,4525,303
1.43525,133.21188,-1041,23375,23.738,4525,303
1.44518,139.90243,-1040,23376,23.6385,4525,303
0.805294,147.85386,-1039,23377,23.7878,4525,303
1.45505,156.67619,-1038,23378,23.6385,4525,303
1.06082,166.31179,-1037,23379,23.6385,4525,303
1.94088,177.33586,-1036,23380,23.5887,4525,303
1.56555,190.20239,-1035,23381,23.6385,4525,303
1.5807,204.30402,-1034,23382,23.6385,4525,303
3.03207,219.04673,-1033,23383,23.6385,4588,310
0.750112,232.28675,-1032,23384,23.7878,4588,310
1.54717,242.91391,-1031,23385,23.738,4588,310
1.06082,249.87367,-1030,23386,23.6385,4588,310
1.25442,252.8758,-1029,23387,23.738,4588,310
1.34255,253.08141,-1028,23388,23.6385,4588,310
1.66303,252.33623,-1027,23389,23.4891,4588,310
1.77132,252.31694,-1026,23390,23.3895,4588,310
1.3029,253.57815,-1025,23391,23.9869,4588,310
1.51603,255.34145,-1024,23392,23.6385,4588,310
2.02033,255.85419,-1023,23393,23.6385,4663,273
3.85958,253.54395,-1022,23394,23.738,4663,273
1.45176,249.13453,-1021,23395,23.5887,4663,273
1.80598,243.54132,-1020,23396,23.7878,4663,273
1.81651,235.12266,-1019,23397,23.7878,4663,273
1.13045,220.92639,-1018,23398,23.738,4663,273
1.19205,203.56227,-1017,23399,23.6385,4663,273
0.878906,189.74526,-1016,23400,23.6385,4663,273
0.905627,182.53337,-1015,23401,23.4891,4663,273
1.13045,181.5852,-1014,23402,23.7878,4663,273
0.884315,186.20065,-1013,23403,23.4891,4650,299
3.35602,193.15755,-1012,23404,23.5887,4650,299
1.28447,201.10049,-1011,23405,23.6385,4650,299
0.981433,212.48318,-1010,23406,23.6385,4650,299
1.27328,226.62336,-1009,23407,23.6385,4650,299
1.14304,234.36321,-1008,23408,23.6385,4650,299
0.946812,231.31838,-1007,23409,23.7878,4650,299
0.889691,221.59259,-1006,23410,23.4393,4650,299
1.57769,213.81527,-1005,23411,23.4393,4650,299
0.956832,207.13807,-1004,23412,23.6385,4650,299
1.28817,199.48287,-1003,23413,23.7878,4650,299
1.77401,191.3862,-1002,23414,23.5887,4650,299
1.7767,184.50046,-1001,23415,23.4393,4650,299
1.16371,181.79778,-1000,23416,23.738,4650,299
0.878906,184.41217,-999,23417,23.4891,4650,299
1.84257,193.10524,-998,23418,23.5887,4650,299
0.402647,208.38983,-997,23419,23.6385,4650,299
1.87846,230.16797,-996,23420,23.4891,4650,299
1.48103,257.21513,-995,23421,23.738,4650,299
0.750112,288.18032,-994,23422,23.7878,4650,299
0.873464,321.30152,-993,23423,23.6385,4524,334
1.92856,354.66892,-992,23424,23.7878,4524,334
0.840071,386.43613,-991,23425,23.8376,4524,334
1.34255,416.19658,-990,23426,23.6385,4524,334
2.0693,440.55083,-989,23427,23.4393,4524,334
0.218366,457.10617,-988,23428,23.6385,4524,334
1.49385,464.52125,-987,23429,23.738,4524,334
2.03444,463.58046,-986,23430,23.4891,4524,334
1.39822,454.72425,-985,23431,23.7878,4524,334
1.77132,439.02514,-984,23432,23.5887,4524,334
1.19604,418.18096,-983,23433,23.3895,4454,300
1.08306,393.813,-982,23434,23.6385,4454,300
1.45505,367.41327,-981,23435,23.6385,4454,300
0.59402,340.12888,-980,23436,23.4891,4454,300
0.926449,312.80855,-979,23437,23.6385,4454,300
1.36019,285.96682,-978,23438,23.7878,4454,300
1.75781,261.23152,-977,23439,23.6385,4454,300
1.28817,240.85948,-976,23440,23.7878,4454,300
1.59273,227.12578,-975,23441,23.5887,4454,300
2.33764,219.7885,-974,23442,23.6385,4454,300
1.70269,213.73086,-973,23443,23.738,4448,298
1.24679,205.79856,-972,23444,23.6385,4448,298
1.8606,197.20299,-971,23445,23.4393,4448,298
2.65115,189.02149,-970,23446,23.9371,4448,298
1.47781,181.37237,-969,23447,23.6385,4448,298
1.17998,177.59787,-968,23448,23.7878,4448,298
2.01324,180.66839,-967,23449,23.7878,4448,298
2.35187,188.19307,-966,23450,23.6385,4448,298
1.31383,194.72296,-965,23451,23.6385,4448,298
1.61945,197.91152,-964,23452,23.5887,4448,298
2.27981,198.12662,-963,23453,23.4891,4465,306
1.63993,195.76044,-962,23454,23.6385,4465,306
2.38409,190.73282,-961,23455,23.7878,4465,306
1.83219,186.25686,-960,23456,23.4393,4465,306
1.60168,186.53834,-959,23457,23.6385,4465,306
1.98461,193.2498,-958,23458,23.6385,4465,306
1.41517,203.31667,-957,23459,23.6385,4465,306
1.62826,216.76416,-956,23460,23.6385,4465,306
1.20794,234.02971,-955,23461,23.6385,4465,306
2.42376,254.72041,-954,23462,23.7878,4465,306
1.37415,277.85877,-953,23463,23.5887,4508,292
2.39407,301.34285,-952,23464,23.4393,4508,292
2.4277,323.89351,-951,23465,23.9371,4508,292
2.70985,344.41541,-950,23466,23.6385,4508,292
4.72398,361.78189,-949,23467,23.6385,4508,292
2.45892,374.52887,-948,23468,23.9371,4508,292
1.82698,381.08819,-947,23469,23.6385,4508,292
2.28816,380.22749,-946,23470,23.5887,4508,292
2.26512,372.49819,-945,23471,23.4891,4508,292
2.54844,358.20158,-944,23472,23.5887,4508,292
1.00543,335.20783,-943,23473,23.6385,4621,299
2.22262,294.78679,-942,23474,23.6385,4621,299
3.38995,243.23517,-941,23475,23.738,4621,299
11.363,308.8776,-940,23476,23.7878,4621,299
6.87073,224.80772,-939,23477,23.4393,4621,299
3.53456,281.51873,-938,23478,23.6385,4621,299
1.40163,281.96974,-937,23479,23.738,4621,299
1.57466,321.53807,-936,23480,23.4891,4621,299
1.74966,526.50071,-935,23481,23.6385,4621,299
2.0716,451.52437,-934,23482,23.5887,4621,299
0.828641,301.53853,-933,23483,23.738,4840,303
1.51917,354.27635,-932,23484,23.7878,4840,303
2.00374,472.34468,-931,23485,23.6385,4840,303
0.811194,562.35759,-930,23486,23.738,4840,303
0.976563,532.69687,-929,23487,23.6385,4840,303
3.09433,522.76877,-928,23488,23.738,4840,303
1.04268,569.89302,-927,23489,23.6385,4840,303
0.840071,624.18236,-926,23490,23.5887,4840,303
1.20794,660.63693,-925,23491,23.8376,4840,303
0.981433,677.02038,-924,23492,23.6385,4840,303
1.09183,692.35565,-923,23493,23.4393,4659,295
1.43525,696.29828,-922,23494,23.7878,4659,295
2.77247,626.3364,-921,23495,23.738,4659,295
2.92643,472.63054,-920,23496,23.738,4659,295
3.5828,457.42533,-919,23497,23.4393,4659,295
3.20038,713.1495,-918,23498,23.7878,4659,295
1.89865,648.57318,-917,23499,23.7878,4659,295
1.86827,511.43542,-916,23500,23.6385,4659,295
1.66303,520.2759,-915,23501,23.7878,4659,295
1.44188,584.8513,-914,23502,23.6385,4659,295
1.96772,588.33166,-913,23503,23.6385,4468,291
2.21187,481.12081,-912,23504,23.6385,4468,291
2.9248,395.27794,-911,23505,23.6385,4468,291
3.25211,359.7905,-910,23506,23.6385,4468,291
2.66729,345.40135,-909,23507,23.8376,4468,291
1.85804,326.07807,-908,23508,23.5887,4468,291
2.04845,299.2229,-907,23509,23.4891,4468,291
2.36401,282.2457,-906,23510,23.6385,4468,291
3.53995,277.11491,-905,23511,23.7878,4468,291
2.40995,278.53808,-904,23512,23.6385,4468,291
2.79304,278.49025,-903,23513,23.7878,4372,261
2.35593,275.60454,-902,23514,23.738,4372,261
2.58559,274.42756,-901,23515,23.5887,4372,261
3.20038,277.7006,-900,23516,23.5887,4372,261
2.50883,281.97011,-899,23517,23.4891,4372,261
2.75868,279.12601,-898,23518,23.4393,4372,261
1.73872,266.05521,-897,23519,23.6385,4372,261
2.44336,247.46377,-896,23520,23.5887,4372,261
3.03207,226.83177,-895,23521,23.738,4372,261
3.04619,203.02774,-894,23522,23.738,4372,261
3.05556,174.50565,-893,23523,23.738,4349,308
2.96689,145.1685,-892,23524,23.4393,4349,308
2.89036,123.11334,-891,23525,23.6385,4349,308
2.83035,113.0354,-890,23526,23.5887,4349,308
2.19455,116.4316,-889,23527,23.7878,4349,308
2.67443,133.18475,-888,23528,23.6385,4349,308
3.07113,157.66178,-887,23529,23.6385,4349,308
2.81853,180.03815,-886,23530,23.4393,4349,308
2.20323,196.53885,-885,23531,23.6385,4349,308
2.19672,209.40567,-884,23532,23.4891,4349,308
2.8705,221.1024,-883,23533,23.5887,4353,311
2.21617,232.15354,-882,23534,23.4891,4353,311
2.44336,243.27642,-881,23535,23.4891,4353,311
2.44336,255.91732,-880,23536,23.6385,4353,311
2.66729,270.43399,-879,23537,23.4891,4353,311
2.97812,284.5415,-878,23538,23.6385,4353,311
2.05078,294.06394,-877,23539,23.738,4353,311
1.958,299.42944,-876,23540,23.4891,4353,311
2.22691,304.7742,-875,23541,23.738,4353,311
2.31921,313.95478,-874,23542,23.7878,4353,311
1.37415,324.18678,-873,23543,23.738,4386,271
2.71161,329.94537,-872,23544,23.6385,4386,271
1.28817,330.66613,-871,23545,23.7878,4386,271
1.62239,329.66819,-870,23546,23.7878,4386,271
2.09222,327.10209,-869,23547,23.7878,4386,271
2.26301,319.37152,-868,23548,23.738,4386,271
1.54099,303.47382,-867,23549,23.4891,4386,271
1.86572,281.33693,-866,23550,23.6385,4386,271
2.83876,259.67756,-865,23551,23.738,4386,271
2.31715,243.43896,-864,23552,23.6385,4386,271
1.66589,230.1726,-863,23553,23.4891,4488,274
1.86572,215.19386,-862,23554,23.738,4488,274
1.40163,197.53538,-861,23555,23.6385,4488,274
1.70549,180.78119,-860,23556,23.8376,4488,274
1.32827,166.62665,-859,23557,23.6385,4488,274
1.5807,153.84211,-858,23558,23.6385,4488,274
1.60168,141.69614,-857,23559,23.7878,4488,274
1.25821,130.51012,-856,23560,23.4891,4488,274
18.0991,145.35545,-855,23561,23.7878,4488,274
19.9303,561.57472,-854,23562,23.4891,4488,274
1.99897,727.56489,-853,23563,23.6385,4857,271
2.0716,648.23093,-852,23564,23.5887,4857,271
2.40797,568.56996,-851,23565,23.5887,4857,271
2.29024,630.27362,-850,23566,23.5887,4857,271
3.11277,647.20419,-849,23567,23.6385,4857,271
2.37005,561.62667,-848,23568,23.8376,4857,271
1.20794,430.14982,-847,23569,23.4393,4857,271
1.43525,488.26295,-846,23570,23.4891,4857,271
1.77401,549.58614,-845,23571,23.3895,4857,271
2.06237,553.66403,-844,23572,23.4891,4857,271
1.66016,516.57787,-843,23573,23.6385,4650,302
1.22363,514.99503,-842,23574,23.6385,4650,302
0.41432,564.84944,-841,23575,23.5887,4650,302
2.41588,565.9099,-840,23576,23.5887,4650,302
1.15548,563.55093,-839,23577,23.5887,4650,302
0.905627,586.93098,-838,23578,23.738,4650,302
1.79539,618.57712,-837,23579,23.5887,4650,302
2.20539,619.364,-836,23580,23.6385,4650,302
1.40163,599.18408,-835,23581,23.5887,4650,302
2.72214,592.7938,-834,23582,23.7878,4650,302
2.01324,597.67561,-833,23583,23.7878,4533,314
1.45176,600.7857,-832,23584,23.5887,4533,314
1.28447,601.0936,-831,23585,23.8376,4533,314
1.64863,605.99777,-830,23586,23.6385,4533,314
2.57264,615.42376,-829,23587,23.4891,4533,314
2.47246,624.24854,-828,23588,23.5887,4533,314
2.27981,632.22077,-827,23589,23.7878,4533,314
3.52781,639.74908,-826,23590,23.6385,4533,314
1.68298,646.9364,-825,23591,23.5887,4533,314
1.49066,651.94554,-824,23592,23.5887,4533,314
2.79986,651.94751,-823,23593,23.6385,4431,269
3.53861,644.44122,-822,23594,23.6385,4431,269
2.19672,632.3337,-821,23595,23.738,4431,269
2.38409,619.82871,-820,23596,23.3895,4431,269
2.58005,607.40987,-819,23597,23.6385,4431,269
2.74134,593.54023,-818,23598,23.6385,4431,269
2.91827,577.33293,-817,23599,23.9869,4431,269
3.00521,564.90792,-816,23600,23.6385,4431,269
3.16292,555.79519,-815,23601,23.6385,4431,269
2.73612,549.68072,-814,23602,23.738,4431,269
2.58559,546.4523,-813,23603,23.6385,4385,290
3.27549,547.02247,-812,23604,23.6385,4385,290
2.16392,550.59879,-811,23605,23.7878,4385,290
2.67977,555.11149,-810,23606,23.6385,4385,290
2.44726,559.95648,-809,23607,23.6385,4385,290
2.90353,564.80377,-808,23608,24.0367,4385,290
2.69574,570.3233,-807,23609,23.6385,4385,290
3.24771,576.17367,-806,23610,23.6385,4385,290
3.4416,581.19137,-805,23611,23.3895,4385,290
2.66729,585.51038,-804,23612,23.738,4385,290
2.84044,590.60693,-803,23613,23.6385,4371,298
3.58546,598.36802,-802,23614,23.4393,4371,298
2.56522,607.40855,-801,23615,23.6385,4371,298
2.97972,615.09043,-800,23616,23.7878,4371,298
2.46086,621.37282,-799,23617,23.5887,4371,298
2.9893,625.59822,-798,23618,23.7878,4371,298
2.41193,627.87884,-797,23619,23.6385,4371,298
1.88099,626.4071,-796,23620,23.6385,4371,298
2.21617,621.83021,-795,23621,23.6385,4371,298
3.37303,614.40589,-794,23622,23.7878,4371,298
2.6851,605.7739,-793,23623,23.7878,4392,293
1.60168,596.92144,-792,23624,23.738,4392,293
2.05078,587.8871,-791,23625,23.6385,4392,293
2.66371,579.16395,-790,23626,23.8376,4392,293
2.83708,571.31611,-789,23627,23.6385,4392,293
2.68333,563.81903,-788,23628,23.4393,4392,293
2.52588,558.05215,-787,23629,23.6385,4392,293
1.9942,555.35474,-786,23630,23.6385,4392,293
2.27981,554.84015,-785,23631,23.8376,4392,293
2.52777,555.9644,-784,23632,23.7878,4392,293
2.67443,559.81158,-783,23633,23.738,4447,290
2.05311,568.20782,-782,23634,23.7878,4447,290
2.88871,582.52369,-781,23635,23.7878,4447,290
1.53168,599.87297,-780,23636,23.7878,4447,290
1.56859,617.58784,-779,23637,23.6385,4447,290
2.27772,633.75769,-778,23638,23.6385,4447,290
2.48976,646.31941,-777,23639,23.738,4447,290
1.53168,653.92387,-776,23640,23.6385,4447,290
2.2944,656.95119,-775,23641,23.5887,4447,290
1.28447,653.24756,-774,23642,23.738,4447,290
1.70269,641.00304,-773,23643,23.6385,4447,290
1.41854,620.44627,-772,23644,23.6385,4447,290
1.71108,591.69888,-771,23645,23.4891,4447,290
1.84257,555.56082,-770,23646,23.7878,4447,290
1.51603,515.01819,-769,23647,23.4891,4447,290
2.0156,476.27129,-768,23648,23.738,4447,290
2.26091,443.75865,-767,23649,23.6385,4447,290
2.41193,420.03162,-766,23650,23.5887,4447,290
2.36401,407.00476,-765,23651,23.3895,4447,290
2.64575,411.41305,-764,23652,23.4891,4447,290
2.37608,431.90818,-763,23653,23.3895,4491,290
1.59273,426.36003,-762,23654,23.6385,4491,290
1.54408,389.27934,-761,23655,23.738,4491,290
1.27328,358.93029,-760,23656,23.4891,4491,290
2.02504,338.75057,-759,23657,23.6385,4491,290
1.70829,309.87818,-758,23658,23.6385,4491,290
2.45698,307.85741,-757,23659,23.738,4491,290
1.66303,373.17176,-756,23660,23.6385,4491,290
1.36019,420.52911,-755,23661,23.6385,4491,290
1.82698,416.66017,-754,23662,23.6385,4491,290
3.18096,406.49066,-753,23663,23.7878,4471,276
2.41391,408.90359,-752,23664,23.7878,4471,276
4.01342,407.98368,-751,23665,23.8376,4471,276
4.0158,392.58701,-750,23666,23.6385,4471,276
2.54094,365.34912,-749,23667,23.5887,4471,276
3.59343,338.14644,-748,23668,23.5887,4471,276
2.26091,314.05838,-747,23669,23.738,4471,276
2.43358,275.64582,-746,23670,23.7878,4471,276
3.50612,218.01703,-745,23671,23.4891,4471,276
2.50503,159.35754,-744,23672,23.4891,4471,276
2.7862,115.7598,-743,23673,23.6385,4429,261
2.92806,89.201665,-742,23674,23.738,4429,261
3.10356,75.632681,-741,23675,23.738,4429,261
2.29856,72.444077,-740,23676,23.5887,4429,261
2.39606,86.031083,-739,23677,23.738,4429,261
1.37067,126.59492,-738,23678,23.6385,4429,261
1.95556,177.43855,-737,23679,23.5887,4429,261
2.48016,227.45617,-736,23680,23.738,4429,261
2.15287,274.98163,-735,23681,23.6385,4429,261
2.63672,313.66593,-734,23682,23.5887,4429,261
2.19889,343.13016,-733,23683,23.6385,4393,297
2.65474,368.35687,-732,23684,23.738,4393,297
2.97651,390.82692,-731,23685,23.7878,4393,297
4.37387,414.69256,-730,23686,23.4891,4393,297
2.72914,436.21078,-729,23687,23.7878,4393,297
4.07239,444.70965,-728,23688,23.7878,4393,297
3.56144,454.51145,-727,23689,23.5887,4393,297
4.17073,476.8555,-726,23690,23.738,4393,297
4.67426,505.24444,-725,23691,23.9371,4393,297
4.95648,533.91577,-724,23692,23.3895,4393,297
5.33189,567.03837,-723,23693,23.7878,4364,294
4.87206,597.85859,-722,23694,23.6385,4364,294
4.76218,624.11519,-721,23695,23.7878,4364,294
4.88086,649.4331,-720,23696,23.738,4364,294
5.15825,680.05459,-719,23697,23.7878,4364,294
4.15355,715.03214,-718,23698,23.738,4364,294
4.61987,742.32101,-717,23699,23.6385,4364,294
3.66178,767.41594,-716,23700,23.5887,4364,294
2.87879,795.85666,-715,23701,23.738,4364,294
3.54534,817.52953,-714,23702,23.4891,4364,294
3.01472,828.11236,-713,23703,23.4891,4357,270
2.38009,833.10699,-712,23704,23.7878,4357,270
3.21821,837.60067,-711,23705,23.6385,4357,270
2.62948,842.59658,-710,23706,23.6385,4357,270
3.46095,846.98313,-709,23707,23.7878,4357,270
2.29856,850.93996,-708,23708,23.6385,4357,270
2.16392,858.07163,-707,23709,23.4393,4357,270
2.25457,870.72942,-706,23710,23.6385,4357,270
2.9443,886.56777,-705,23711,23.7878,4357,270
3.55608,903.07366,-704,23712,23.6385,4357,270
3.58147,917.3928,-703,23713,23.6385,4371,274
3.87192,929.62779,-702,23714,23.6385,4371,274
3.5534,942.42163,-701,23715,23.5887,4371,274
3.39698,956.07452,-700,23716,23.6385,4371,274
4.36076,970.41032,-699,23717,23.7878,4371,274
2.80836,985.852,-698,23718,23.6385,4371,274
3.06647,1004.8669,-697,23719,23.6385,4371,274
2.48016,1027.4024,-696,23720,23.4393,4371,274
3.05868,1049.462,-695,23721,23.6385,4371,274
2.48976,1068.3592,-694,23722,23.6385,4371,274
3.00045,1085.563,-693,23723,23.5887,4423,282
2.83371,1103.9977,-692,23724,23.6385,4423,282
3.49113,1122.3067,-691,23725,23.4393,4423,282
3.30015,1138.7864,-690,23726,23.6385,4423,282
3.20038,1154.5254,-689,23727,23.5887,4423,282
2.82529,1164.9119,-688,23728,23.7878,4423,282
23.0231,1259.5807,-687,23729,23.6385,4423,282
16.7801,1679.0527,-686,23730,23.4393,4423,282
4.2444,1281.5768,-685,23731,23.7878,4423,282
1.88606,382.35596,-684,23732,23.738,4423,282
2.12388,432.02055,-683,23733,23.6385,4736,318
3.79228,1033.9438,-682,23734,23.7878,4736,318
2.91337,1128.1053,-681,23735,23.5887,4736,318
2.9717,971.33301,-680,23736,23.5887,4736,318
1.78473,1200.5866,-679,23737,23.7878,4736,318
1.39822,1268.737,-678,23738,23.8376,4736,318
5.90235,1152.1541,-677,23739,23.5887,4736,318
6.38959,1022.8515,-676,23740,23.5887,4736,318
2.99568,825.41216,-675,23741,23.4891,4736,318
1.88858,695.03304,-674,23742,23.6385,4736,318
2.09677,700.68102,-673,23743,23.6385,4735,348
1.34255,690.19645,-672,23744,23.7878,4735,348
1.95556,743.081,-671,23745,23.6385,4735,348
1.45176,675.54229,-670,23746,23.7878,4735,348
2.22691,702.76656,-669,23747,23.6385,4735,348
1.73047,721.6861,-668,23748,23.6385,4735,348
5.0072,678.06385,-667,23749,23.6385,4735,348
2.15951,650.04681,-666,23750,23.4393,4735,348
1.73323,621.29347,-665,23751,23.7878,4735,348
1.49066,598.83338,-664,23752,23.6385,4735,348
2.0739,556.33468,-663,23753,23.738,4618,278
3.37868,512.08978,-662,23754,23.738,4618,278
1.4118,484.74765,-661,23755,23.5887,4618,278
0.768946,452.69155,-660,23756,23.7878,4618,278
1.40163,424.64221,-659,23757,23.7878,4618,278
1.09619,406.88101,-658,23758,23.5887,4618,278
0.601994,398.68278,-657,23759,23.6385,4618,278
2.77935,388.61615,-656,23760,23.738,4618,278
0.750112,374.18949,-655,23761,23.5887,4618,278
1.36019,364.7437,-654,23762,23.7878,4618,278
1.22752,362.03381,-653,23763,23.5887,4589,274
1.40163,359.94466,-652,23764,23.738,4589,274
0.981433,353.71952,-651,23765,23.738,4589,274
1.73323,342.72138,-650,23766,23.8376,4589,274
1.11773,323.66183,-649,23767,23.7878,4589,274
1.54408,296.48846,-648,23768,23.4393,4589,274
2.27352,265.29421,-647,23769,23.7878,4589,274
2.25668,239.38063,-646,23770,23.6385,4589,274
1.57466,229.37067,-645,23771,23.6385,4589,274
2.1771,240.41834,-644,23772,23.7878,4589,274
0.218366,265.31134,-643,23773,23.6385,4621,370
0.683594,299.19222,-642,23774,23.4891,4621,370
0.323889,339.473,-641,23775,23.4891,4621,370
0.497951,372.51683,-640,23776,23.9371,4621,370
0.889691,389.32529,-639,23777,23.4393,4621,370
1.09619,394.30897,-638,23778,23.4891,4621,370
0.577742,397.9676,-637,23779,23.7878,4621,370
3.26528,403.40781,-636,23780,23.6385,4621,370
1.48103,406.40705,-635,23781,23.4891,4621,370
0.425674,408.24514,-634,23782,23.6385,4621,370
0.768946,413.23969,-633,23783,23.5887,4629,355
1.44518,422.62403,-632,23784,23.6385,4629,355
0.497951,430.45908,-631,23785,23.738,4629,355
0.458048,434.5282,-630,23786,23.6385,4629,355
0.425674,436.99242,-629,23787,23.4891,4629,355
0.697405,437.03347,-628,23788,23.6385,4629,355
0.647778,435.55057,-627,23789,23.5887,4629,355
0.750112,431.22272,-626,23790,23.6385,4629,355
1.00543,422.05852,-625,23791,23.6385,4629,355
0.926449,409.18014,-624,23792,23.4891,4629,355
0.889691,394.22494,-623,23793,23.738,4620,313
0.425674,376.79794,-622,23794,23.738,4620,313
1.0381,358.82155,-621,23795,23.8376,4620,313
0.560992,344.6781,-620,23796,23.6385,4620,313
0.552427,339.97761,-619,23797,23.6385,4620,313
0.921287,346.70331,-618,23798,23.9869,4620,313
1.10916,359.23219,-617,23799,23.738,4620,313
0.717624,374.32777,-616,23800,23.4891,4620,313
1.45505,390.69393,-615,23801,23.7878,4620,313
1.62826,407.91897,-614,23802,23.6385,4620,313
0.647778,422.18349,-613,23803,23.6385,4600,296
1.39139,427.97075,-612,23804,23.6385,4600,296
1.75238,425.49412,-611,23805,23.6385,4600,296
0.976563,419.61281,-610,23806,23.6385,4600,296
0.884315,415.39344,-609,23807,23.6385,4600,296
0.308816,411.71327,-608,23808,23.8376,4600,296
1.52544,407.84088,-607,23809,23.3895,4600,296
0.966748,405.43926,-606,23810,23.6385,4600,296
0.497951,408.44787,-605,23811,23.8376,4600,296
1.70549,416.31793,-604,23812,23.8376,4600,296
1.0381,426.05809,-603,23813,23.6385,4544,321
1.04268,434.63391,-602,23814,23.4393,4544,321
1.21581,442.03696,-601,23815,23.4891,4544,321
0.690534,449.68387,-600,23816,23.6385,4544,321
0.811194,457.6493,-599,23817,23.4891,4544,321
0.878906,464.57535,-598,23818,23.738,4544,321
0.905627,469.85542,-597,23819,23.8376,4544,321
1.02423,477.32848,-596,23820,23.738,4544,321
1.81651,494.42078,-595,23821,23.6385,4544,321
0.971667,525.85496,-594,23822,23.5887,4544,321
0.717624,571.47695,-593,23823,23.6385,4424,310
0.926449,624.97202,-592,23824,23.5887,4424,310
1.20399,678.28569,-591,23825,23.6385,4424,310
1.44188,723.73251,-590,23826,23.7878,4424,310
2.11263,755.56602,-589,23827,23.6385,4424,310
1.18402,770.11567,-588,23828,23.7878,4424,310
1.51603,765.62668,-587,23829,23.5887,4424,310
1.62239,741.97627,-586,23830,23.6385,4424,310
1.62239,706.37749,-585,23831,23.4891,4424,310
1.51603,672.07206,-584,23832,23.7878,4424,310
2.15287,649.86828,-583,23833,23.7878,4360,307
1.60168,644.47625,-582,23834,23.4393,4360,307
2.48784,654.36848,-581,23835,23.6385,4360,307
1.39822,675.13788,-580,23836,23.738,4360,307
0.625305,703.56254,-579,23837,23.7878,4360,307
2.90517,735.31309,-578,23838,23.738,4360,307
1.60466,753.61523,-577,23839,23.7878,4360,307
1.70829,774.05672,-576,23840,23.738,4360,307
1.73872,791.56449,-575,23841,23.738,4360,307
2.46086,796.14361,-574,23842,23.6385,4360,307
2.55777,798.21135,-573,23843,23.7878,4335,330
1.75781,803.46799,-572,23844,23.4891,4335,330
2.52588,806.24981,-571,23845,23.738,4335,330
1.78206,805.06586,-570,23846,23.6385,4335,330
2.08765,801.62823,-569,23847,23.5887,4335,330
2.31097,797.48144,-568,23848,23.738,4335,330
2.82191,800.9479,-567,23849,23.4891,4335,330
2.47824,819.26341,-566,23850,23.4891,4335,330
3.34606,845.52189,-565,23851,23.738,4335,330
2.54844,876.59269,-564,23852,23.6385,4335,330
3.75437,918.3125,-563,23853,23.738,4338,298
3.58679,969.21114,-562,23854,23.8376,4338,298
3.28857,1024.3403,-561,23855,23.6385,4338,298
3.68515,1079.4634,-560,23856,23.7878,4338,298
2.44336,1124.7767,-559,23857,23.738,4338,298
4.21282,1155.0851,-558,23858,23.4891,4338,298
3.36454,1190.9405,-557,23859,23.738,4338,298
2.39606,1232.0663,-556,23860,23.738,4338,298
2.48976,1236.0884,-555,23861,23.6385,4338,298
3.08507,1268.3861,-554,23862,23.9371,4338,298
2.80666,1359.2311,-553,23863,23.7878,4339,275
5.17117,1461.0875,-552,23864,23.5887,4339,275
3.68127,1553.9353,-551,23865,23.6385,4339,275
5.30769,1633.0941,-550,23866,23.5887,4339,275
6.25229,1692.1641,-549,23867,23.6385,4339,275
5.77742,1708.3053,-548,23868,23.8376,4339,275
5.48094,1654.1502,-547,23869,23.4891,4339,275
6.75666,1526.8745,-546,23870,23.7878,4339,275
8.15357,1379.2069,-545,23871,23.6385,4339,275
7.81067,1259.7567,-544,23872,23.7878,4339,275
7.73275,1190.4897,-543,23873,23.5887,4339,275
6.56915,1177.3993,-542,23874,23.738,4339,275
6.95008,1204.2756,-541,23875,23.5887,4339,275
7.65839,1225.7348,-540,23876,23.738,4339,275
6.3963,1221.4647,-539,23877,23.6385,4339,275
5.98896,1203.1702,-538,23878,23.7878,4339,275
5.40649,1185.8026,-537,23879,23.7878,4339,275
6.15622,1182.5151,-536,23880,23.7878,4339,275
5.27796,1204.1848,-535,23881,23.7878,4339,275
4.92946,1252.568,-534,23882,23.4891,4339,275
5.56641,1295.9458,-533,23883,23.8376,4344,299
5.54581,1324.5937,-532,23884,23.738,4344,299
4.35091,1334.7218,-531,23885,23.6385,4344,299
4.90814,1324.4991,-530,23886,23.4891,4344,299
4.88184,1297.5534,-529,23887,23.7878,4344,299
5.49224,1274.4371,-528,23888,23.6385,4344,299
5.26801,1249.8851,-527,23889,23.7878,4344,299
5.44778,1177.4704,-526,23890,23.7878,4344,299
5.24078,1083.2991,-525,23891,23.738,4344,299
5.12114,1028.8779,-524,23892,23.4891,4344,299
4.96417,1025.0298,-523,23893,23.4393,4378,296
4.27239,1033.2392,-522,23894,23.9869,4378,296
4.55857,1005.1404,-521,23895,23.738,4378,296
5.66154,946.92006,-520,23896,23.6385,4378,296
5.10248,921.21086,-519,23897,23.738,4378,296
4.49431,930.81573,-518,23898,23.738,4378,296
4.24889,974.20624,-517,23899,23.5887,4378,296
3.8186,1060.1778,-516,23900,23.6385,4378,296
4.64253,1074.0128,-515,23901,23.738,4378,296
3.32605,1019.3028,-514,23902,23.4891,4378,296
3.69807,1008.4213,-513,23903,23.5887,4473,282
4.42157,1000.7855,-512,23904,23.738,4473,282
3.20336,953.86562,-511,23905,23.738,4473,282
3.80358,905.05524,-510,23906,23.6385,4473,282
3.22561,894.31109,-509,23907,23.6385,4473,282
3.97162,902.72585,-508,23908,23.5887,4473,282
3.07268,900.46816,-507,23909,23.6385,4473,282
3.07113,887.24859,-506,23910,23.5887,4473,282
3.67089,856.9753,-505,23911,23.6385,4473,282
3.51155,805.71419,-504,23912,23.4393,4473,282
29.3341,1126.1862,-503,23913,23.4891,4562,278
47.4546,3261.0412,-502,23914,23.7878,4562,278
5.86344,2895.1738,-501,23915,23.6385,4562,278
4.78814,1359.1871,-500,23916,23.6385,4562,278
5.26348,702.744,-499,23917,23.738,4562,278
5.27434,567.85199,-498,23918,23.6385,4562,278
4.73306,602.8962,-497,23919,23.8376,4562,278
4.06536,1015.3767,-496,23920,23.6385,4562,278
3.66699,1808.1419,-495,23921,23.738,4562,278
3.14022,1707.8894,-494,23922,23.9371,4562,278
3.24624,1153.0362,-493,23923,23.4891,4607,290
2.16392,745.83117,-492,23924,23.5887,4607,290
2.46086,501.99856,-491,23925,23.7878,4607,290
2.46086,347.04553,-490,23926,23.4891,4607,290
2.23759,426.80107,-489,23927,23.5887,4607,290
1.37415,714.84977,-488,23928,23.7878,4607,290
1.19604,880.30123,-487,23929,23.4891,4607,290
1.19604,824.83139,-486,23930,23.3895,4607,290
1.79804,662.57137,-485,23931,23.6385,4607,290
2.0693,521.36168,-484,23932,23.6385,4607,290
2.50883,416.88434,-483,23933,23.7878,4550,312
1.55638,330.86072,-482,23934,23.6385,4550,312
1.70549,279.11611,-481,23935,23.3895,4550,312
1.92856,294.95184,-480,23936,23.6385,4550,312
0.931581,327.86668,-479,23937,23.7878,4550,312
0.921287,322.01586,-478,23938,23.6385,4550,312
1.6165,284.65156,-477,23939,23.9371,4550,312
1.48746,252.80246,-476,23940,23.6385,4550,312
2.38809,245.6802,-475,23941,23.6385,4550,312
1.77132,250.07137,-474,23942,23.6385,4550,312
2.5819,234.71287,-473,23943,23.738,4463,336
2.96689,203.21466,-472,23944,23.738,4463,336
2.59663,181.83982,-471,23945,23.7878,4463,336
2.59479,167.27241,-470,23946,23.6385,4463,336
3.62251,147.01295,-469,23947,23.5887,4463,336
4.81892,118.41179,-468,23948,23.6385,4463,336
3.06024,110.10539,-467,23949,23.7878,4463,336
3.2987,129.93747,-466,23950,23.738,4463,336
2.84547,153.44675,-465,23951,23.6385,4463,336
3.03049,190.13442,-464,23952,23.6385,4463,336
2.84714,229.53043,-463,23953,23.7878,4416,301
1.82698,254.12019,-462,23954,23.7878,4416,301
1.99897,256.14695,-461,23955,23.6385,4416,301
2.56522,264.72098,-460,23956,23.6385,4416,301
1.59273,291.87665,-459,23957,24.0367,4416,301
4.22751,312.8403,-458,23958,23.5887,4416,301
1.17998,327.68486,-457,23959,23.6385,4416,301
1.77132,337.87585,-456,23960,23.6385,4416,301
2.46086,335.74549,-455,23961,23.738,4416,301
1.44188,329.66556,-454,23962,23.4891,4416,301
1.1472,361.66271,-453,23963,23.738,4416,264
1.55638,386.86701,-452,23964,23.7878,4416,264
1.67161,394.52364,-451,23965,23.6385,4416,264
1.34255,395.97468,-450,23966,23.5887,4416,264
1.46158,390.079,-449,23967,23.6385,4416,264
1.24296,376.29842,-448,23968,23.6385,4416,264
3.82857,379.44084,-447,23969,23.7878,4416,264
2.20323,465.37222,-446,23970,23.6385,4416,264
1.1596,513.21128,-445,23971,23.738,4416,264
1.11773,444.68615,-444,23972,23.7878,4416,264
0.926449,388.52631,-443,23973,23.6385,4461,317
1.54099,427.52852,-442,23974,23.738,4461,317
0.59402,470.66086,-441,23975,23.7878,4461,317
0.840071,503.92333,-440,23976,23.6385,4461,317
1.54717,523.94526,-439,23977,23.6385,4461,317
1.40163,487.94085,-438,23978,23.6385,4461,317
2.79474,421.26297,-437,23979,23.7878,4461,317
1.88099,370.90839,-436,23980,23.4891,4461,317
2.25245,335.00833,-435,23981,23.738,4461,317
1.05179,357.21976,-434,23982,23.7878,4461,317
1.08306,430.02298,-433,23983,23.5887,4546,320
1.07865,437.02887,-432,23984,23.5887,4546,320
1.88606,345.83082,-431,23985,23.4891,4546,320
0.889691,270.27925,-430,23986,23.738,4546,320
2.17052,295.42047,-429,23987,23.5887,4546,320
2.16832,345.0326,-428,23988,23.6385,4546,320
1.70549,358.26913,-427,23989,23.5887,4546,320
4.91105,336.48471,-426,23990,23.4393,4546,320
4.82485,377.3917,-425,23991,23.4891,4546,320
3.03049,467.59426,-424,23992,23.7878,4546,320
2.52021,410.82348,-423,23993,23.6385,4754,279
2.09222,226.1191,-422,23994,23.4891,4754,279
2.62948,208.02046,-421,23995,23.738,4754,279
1.49066,189.43747,-420,23996,23.5887,4754,279
2.67264,159.61098,-419,23997,23.4891,4754,279
2.93944,147.10086,-418,23998,23.3895,4754,279
2.37206,177.79477,-417,23999,23.6385,4754,279
3.66569,221.06472,-416,24000,23.4891,4754,279
2.29856,246.20063,-415,24001,23.7878,4754,279
3.50204,261.82514,-414,24002,23.6385,4754,279
2.25034,266.82239,-413,24003,23.7878,4761,307
2.28816,271.1582,-412,24004,23.6385,4761,307
3.08507,288.79777,-411,24005,23.7878,4761,307
2.1771,310.68429,-410,24006,23.7878,4761,307
2.24822,322.46536,-409,24007,23.5887,4761,307
2.37005,319.55093,-408,24008,23.5887,4761,307
2.94268,327.79357,-407,24009,23.738,4761,307
3.48566,367.42063,-406,24010,23.7878,4761,307
2.95561,404.09452,-405,24011,23.6385,4761,307
3.4416,409.32367,-404,24012,23.6385,4761,307
2.38809,412.99632,-403,24013,23.6385,4670,281
2.14399,447.68182,-402,24014,23.5887,4670,281
2.51643,494.74744,-401,24015,23.4393,4670,281
1.95556,514.05833,-400,24016,23.6385,4670,281
2.31509,521.26529,-399,24017,23.5887,4670,281
2.25034,534.79868,-398,24018,23.5887,4670,281
2.15287,555.43469,-397,24019,23.6385,4670,281
1.5034,576.98594,-396,24020,23.7878,4670,281
2.08994,593.42132,-395,24021,23.4393,4670,281
1.9335,602.06808,-394,24022,23.6385,4670,281
2.5221,610.86962,-393,24023,23.4891,4546,259
2.4974,617.46463,-392,24024,23.4891,4546,259
2.32332,616.05792,-391,24025,23.8376,4546,259
2.39606,599.44416,-390,24026,23.7878,4546,259
0.900346,578.83469,-389,24027,23.6385,4546,259
1.64863,573.85441,-388,24028,23.738,4546,259
1.23526,580.61494,-387,24029,23.6385,4546,259
1.18402,602.19762,-386,24030,23.7878,4546,259
1.80598,603.5033,-385,24031,23.5887,4546,259
1.96772,598.71602,-384,24032,23.7878,4546,259
1.90617,599.97679,-383,24033,23.7878,4463,316
1.21188,605.20261,-382,24034,23.6385,4463,316
0.577742,615.01744,-381,24035,23.4393,4463,316
1.64863,618.91044,-380,24036,23.6385,4463,316
2.09904,615.3861,-379,24037,23.738,4463,316
1.29556,611.6486,-378,24038,23.6385,4463,316
1.62239,597.91476,-377,24039,23.5887,4463,316
1.75238,580.33672,-376,24040,23.8376,4463,316
1.11773,569.39864,-375,24041,23.8376,4463,316
2.28816,569.35732,-374,24042,23.4891,4463,316
2.11037,564.55844,-373,24043,23.7878,4412,304
1.11773,558.6453,-372,24044,23.5887,4412,304
1.36019,549.12113,-371,24045,23.4891,4412,304
1.31745,535.39597,-370,24046,23.5887,4412,304
1.96287,517.93582,-369,24047,23.5887,4412,304
1.31745,496.65665,-368,24048,23.7878,4412,304
2.08994,478.20079,-367,24049,23.6385,4412,304
2.18802,460.83315,-366,24050,23.738,4412,304
2.00612,442.54361,-365,24051,23.6385,4412,304
3.50884,421.4883,-364,24052,24.1861,4412,304
1.84257,395.59227,-363,24053,23.6385,4381,288
1.55638,366.97063,-362,24054,23.6385,4381,288
1.81651,337.62543,-361,24055,23.738,4381,288
1.73323,310.98585,-360,24056,23.5887,4381,288
2.17052,290.20879,-359,24057,23.6385,4381,288
2.23759,273.02174,-358,24058,24.0367,4381,288
1.34255,254.97593,-357,24059,23.6385,4381,288
1.5034,241.82268,-356,24060,23.5887,4381,288
1.73323,246.74931,-355,24061,23.7878,4381,288
1.66303,262.94719,-354,24062,23.6385,4381,288
3.83977,273.80202,-353,24063,23.6385,4375,298
2.41786,270.13484,-352,24064,23.9371,4375,298
1.04268,261.58298,-351,24065,23.738,4375,298
0.926449,262.76828,-350,24066,23.738,4375,298
1.40163,272.03448,-349,24067,23.738,4375,298
1.34255,277.66073,-348,24068,23.6385,4375,298
1.47458,274.48188,-347,24069,23.738,4375,298
1.45176,263.44756,-346,24070,23.6385,4375,298
1.67446,260.32896,-345,24071,23.7878,4375,298
1.13045,273.48657,-344,24072,23.738,4375,298
0.690534,289.06513,-343,24073,23.4891,4398,257
0.625305,292.55133,-342,24074,23.738,4398,257
1.49385,295.32411,-341,24075,23.7878,4398,257
1.34255,310.69501,-340,24076,23.738,4398,257
0.647778,334.14366,-339,24077,23.738,4398,257
0.41432,353.47897,-338,24078,23.5887,4398,257
0.737289,362.73238,-337,24079,23.7878,4398,257
1.19205,363.75751,-336,24080,23.7878,4398,257
0.768946,358.8992,-335,24081,23.7878,4398,257
0.365396,352.4743,-334,24082,23.4891,4398,257
1.19604,346.63715,-333,24083,23.6385,4478,307
1.04725,345.19464,-332,24084,23.7878,4478,307
0.995902,362.63295,-331,24085,23.6385,4478,307
1.4118,345.76254,-330,24086,23.6385,4478,307
2.13508,309.17131,-329,24087,23.4393,4478,307
2.64394,264.95428,-328,24088,23.8376,4478,307
0.946812,183.54643,-327,24089,23.6385,4478,307
0.828641,255.38985,-326,24090,23.3895,4478,307
1.17594,318.93375,-325,24091,23.7878,4478,307
1.19604,217.55563,-324,24092,23.7878,4478,307
3.67738,163.62167,-323,24093,23.9371,4660,328
2.9701,292.25507,-322,24094,23.738,4660,328
24.3058,544.55791,-321,24095,23.8376,4660,328
13.2341,798.01065,-320,24096,23.6385,4660,328
2.39606,587.22563,-319,24097,23.7878,4660,328
0.239208,603.60137,-318,24098,23.8376,4660,328
1.24296,847.96328,-317,24099,23.8376,4660,328
2.0156,676.91595,-316,24100,23.6385,4660,328
1.5034,677.28461,-315,24101,23.5887,4660,328
2.21187,847.24773,-314,24102,23.6385,4660,328
2.06237,972.64434,-313,24103,23.6385,4660,328
2.19238,1027.1813,-312,24104,23.6385,4660,328
3.00204,1022.1413,-311,24105,23.6385,4660,328
2.65294,992.86987,-310,24106,23.7878,4660,328
1.28075,970.96268,-309,24107,23.6385,4660,328
1.68863,965.31368,-308,24108,23.5887,4660,328
2.44921,961.95428,-307,24109,23.7878,4660,328
1.60168,951.0802,-306,24110,23.4393,4660,328
2.01797,935.73396,-305,24111,23.738,4660,328
0.828641,927.65105,-304,24112,23.6385,4660,328
1.13886,930.62994,-303,24113,23.4891,4600,259
1.05631,935.45705,-302,24114,23.8376,4600,259
0.840071,931.43409,-301,24115,23.8376,4600,259
0.941763,927.34296,-300,24116,23.7878,4600,259
0.799351,929.96829,-299,24117,23.4891,4600,259
1.73047,942.79161,-298,24118,23.5887,4600,259
0.981433,958.85124,-297,24119,23.4891,4600,259
1.41854,971.96115,-296,24120,23.7878,4600,259
1.41854,990.24188,-295,24121,23.7878,4600,259
1.14304,998.59609,-294,24122,23.4891,4600,259
2.32332,986.58131,-293,24123,23.7878,4516,284
2.45698,965.16337,-292,24124,23.738,4516,284
2.38609,944.96777,-291,24125,23.6385,4516,284
3.54265,921.66784,-290,24126,23.738,4516,284
2.32946,901.25265,-289,24127,23.4891,4516,284
1.92856,880.5195,-288,24128,23.738,4516,284
1.81125,839.5341,-287,24129,23.6385,4516,284
2.13508,792.40064,-286,24130,23.7878,4516,284
1.9798,781.22257,-285,24131,23.6385,4516,284
2.00612,784.90841,-284,24132,23.6385,4516,284
1.74966,766.49351,-283,24133,23.4891,4457,334
1.79007,745.15836,-282,24134,23.6385,4457,334
1.79007,747.35613,-281,24135,23.6385,4457,334
2.0785,770.7738,-280,24136,23.6385,4457,334
1.85547,781.33012,-279,24137,23.6385,4457,334
1.13045,814.09227,-278,24138,23.6385,4457,334
1.32827,855.3944,-277,24139,23.8376,4457,334
1.01956,885.30731,-276,24140,23.7878,4457,334
0.878906,924.9111,-275,24141,23.7878,4457,334
1.37067,989.10274,-274,24142,23.4891,4457,334
1.45505,1032.0979,-273,24143,23.738,4440,312
1.83739,1032.5919,-272,24144,23.6385,4440,312
2.12613,1031.7552,-271,24145,23.6385,4440,312
1.96529,1045.1726,-270,24146,23.6385,4440,312
2.4277,1050.8607,-269,24147,23.738,4440,312
1.3461,1040.3806,-268,24148,23.738,4440,312
1.63702,1006.1406,-267,24149,23.6385,4440,312
1.9942,956.18222,-266,24150,23.6385,4440,312
2.56336,921.98864,-265,24151,23.6385,4440,312
1.39822,907.44139,-264,24152,23.6385,4440,312
1.55638,874.9867,-263,24153,23.738,4434,298
1.69708,820.83388,-262,24154,23.7878,4434,298
1.90116,778.50495,-261,24155,23.6385,4434,298
1.73872,754.03671,-260,24156,23.6385,4434,298
1.33185,722.72806,-259,24157,23.6385,4434,298
1.85804,680.99291,-258,24158,23.738,4434,298
1.84257,660.16178,-257,24159,23.6385,4434,298
1.25442,686.91613,-256,24160,23.738,4434,298
1.21581,733.13288,-255,24161,23.9371,4434,298
1.57769,797.91233,-254,24162,23.5887,4434,298
4.33004,853.48129,-253,24163,23.6385,4476,287
3.54937,907.74696,-252,24164,23.6385,4476,287
2.39208,993.79334,-251,24165,23.7878,4476,287
3.21377,1000.9575,-250,24166,23.8376,4476,287
5.40649,852.47447,-249,24167,23.7878,4476,287
3.80358,576.97157,-248,24168,23.4393,4476,287
4.64458,377.73545,-247,24169,23.6385,4476,287
4.56066,303.40468,-246,24170,23.8376,4476,287
5.28879,333.91452,-245,24171,23.7878,4476,287
5.62859,468.99122,-244,24172,23.7878,4476,287
5.4197,716.68416,-243,24173,23.6385,4427,290
5.49832,851.94285,-242,24174,23.5887,4427,290
6.60462,877.3653,-241,24175,23.6385,4427,290
5.42234,911.43389,-240,24176,23.6385,4427,290
5.81198,974.19988,-239,24177,23.6385,4427,290
5.80706,1029.5904,-238,24178,23.4891,4427,290
6.12126,1051.5018,-237,24179,23.6385,4427,290
8.74828,1023.5854,-236,24180,23.3895,4427,290
11.6018,985.12323,-235,24181,23.7878,4427,290
18.3846,1008.1612,-234,24182,23.7878,4427,290
10.2358,1238.0012,-233,24183,23.5887,4487,324
6.2263,1269.4477,-232,24184,23.5887,4487,324
6.01518,959.54003,-231,24185,23.7878,4487,324
7.81494,671.20693,-230,24186,23.6385,4487,324
17.52,317.39082,-229,24187,23.7878,4487,324
11.1285,417.61995,-228,24188,23.7878,4487,324
8.50955,239.68841,-227,24189,23.6385,4487,324
7.23316,286.25613,-226,24190,23.738,4487,324
6.10644,611.7192,-225,24191,23.7878,4487,324
5.56212,504.54652,-224,24192,23.7878,4487,324
5.78485,131.61908,-223,24193,23.6385,4834,287
5.7766,245.13883,-222,24194,23.738,4834,287
5.02337,463.04707,-221,24195,23.5887,4834,287
5.12765,696.65202,-220,24196,23.7878,4834,287
3.57614,505.07736,-219,24197,23.6385,4834,287
4.42157,273.83234,-218,24198,23.6385,4834,287
3.95598,304.66742,-217,24199,23.8376,4834,287
2.53154,280.47811,-216,24200,23.738,4834,287
3.79982,280.11679,-215,24201,23.7878,4834,287
3.17646,233.95392,-214,24202,23.738,4834,287
4.08292,282.21402,-213,24203,23.7878,4755,293
3.47744,369.04611,-212,24204,23.7878,4755,293
3.49658,400.90576,-211,24205,23.6385,4755,293
3.58679,361.73596,-210,24206,23.6385,4755,293
3.62645,319.57092,-209,24207,23.7878,4755,293
3.31168,388.144,-208,24208,23.6385,4755,293
6.93566,876.76583,-207,24209,23.4393,4755,293
13.7463,1128.2716,-206,24210,23.6385,4755,293
5.8805,526.02275,-205,24211,23.4891,4755,293
4.10737,421.64206,-204,24212,23.6385,4755,293
2.23332,457.73929,-203,24213,23.738,4860,310
2.61675,908.41959,-202,24214,23.738,4860,310
3.608,1173.2222,-201,24215,23.7878,4860,310
3.86452,788.99074,-200,24216,23.9371,4860,310
4.37278,489.37917,-199,24217,23.7878,4860,310
3.06491,545.69627,-198,24218,23.7878,4860,310
2.93781,688.27389,-197,24219,23.7878,4860,310
2.22905,823.38522,-196,24220,23.6385,4860,310
2.23545,712.1506,-195,24221,23.6385,4860,310
3.054,605.10447,-194,24222,23.4393,4860,310
2.63853,621.58945,-193,24223,23.7878,4616,296
2.16832,725.34834,-192,24224,23.738,4616,296
2.52021,825.46601,-191,24225,23.6385,4616,296
2.06237,813.35721,-190,24226,23.7878,4616,296
2.16392,773.72562,-189,24227,23.738,4616,296
1.92856,777.18867,-188,24228,23.7878,4616,296
2.11037,818.53425,-187,24229,23.6385,4616,296
3.74292,852.0483,-186,24230,23.738,4616,296
2.27981,847.50726,-185,24231,23.7878,4616,296
2.60213,832.72048,-184,24232,23.6385,4616,296
3.00521,835.82372,-183,24233,23.7878,4523,291
2.98451,863.334,-182,24234,23.738,4523,291
2.46667,905.35774,-181,24235,23.738,4523,291
2.82698,934.93769,-180,24236,23.8376,4523,291
2.48592,945.77297,-179,24237,23.4891,4523,291
3.08971,942.64629,-178,24238,23.6385,4523,291
1.37415,934.18787,-177,24239,23.6385,4523,291
3.14174,933.89675,-176,24240,23.6385,4523,291
2.67443,939.84865,-175,24241,23.6385,4523,291
2.70985,950.72536,-174,24242,23.6385,4523,291
3.41797,963.97661,-173,24243,23.5887,4463,310
2.47824,977.09438,-172,24244,23.738,4463,310
1.68298,1003.8395,-171,24245,23.738,4463,310
1.70829,1047.9433,-170,24246,23.6385,4463,310
2.75695,1084.0886,-169,24247,23.6385,4463,310
2.11037,1088.7037,-168,24248,23.738,4463,310
2.25457,1077.9491,-167,24249,23.4891,4463,310
2.75176,1094.4202,-166,24250,23.6385,4463,310
3.72376,1130.856,-165,24251,23.6385,4463,310
2.0785,1172.8756,-164,24252,23.6385,4463,310
1.91366,1197.1932,-163,24253,23.6385,4456,306
1.54099,1197.8905,-162,24254,23.6385,4456,306
2.58559,1190.3342,-161,24255,23.738,4456,306
1.73047,1185.6277,-160,24256,23.9371,4456,306
2.22905,1183.9017,-159,24257,23.6385,4456,306
2.21617,1171.2192,-158,24258,23.8376,4456,306
1.25821,1133.6527,-157,24259,23.5887,4456,306
1.77938,1094.7735,-156,24260,23.738,4456,306
2.06237,1061.4908,-155,24261,23.6385,4456,306
2.11488,1030.0633,-154,24262,23.6385,4456,306
1.83479,1006.3686,-153,24263,23.6385,4473,279
0.981433,979.88076,-152,24264,23.6385,4473,279
1.79273,948.5276,-151,24265,23.738,4473,279
1.92856,920.37501,-150,24266,23.738,4473,279
0.817051,896.67674,-149,24267,23.738,4473,279
1.33543,868.73637,-148,24268,23.9371,4473,279
0.931581,834.91216,-147,24269,23.4891,4473,279
1.7551,798.65452,-146,24270,23.6385,4473,279
1.16371,761.01898,-145,24271,23.6385,4473,279
0.138107,720.48129,-144,24272,23.7878,4473,279
1.3029,675.28399,-143,24273,23.7878,4444,276
0.655098,627.31355,-142,24274,23.5887,4444,276
1.07865,578.30036,-141,24275,23.4891,4444,276
1.06977,528.96398,-140,24276,23.738,4444,276
1.7551,479.86178,-139,24277,23.738,4444,276
0.845728,431.51199,-138,24278,23.9371,4444,276
1.958,385.23801,-137,24279,23.738,4444,276
0.840071,341.11166,-136,24280,23.6385,4444,276
0.655098,297.68857,-135,24281,23.8376,4444,276
1.37067,255.35904,-134,24282,23.4393,4444,276
1.22363,214.21643,-133,24283,23.6385,4387,337
2.04379,174.51607,-132,24284,23.7878,4387,337
1.76052,140.9929,-131,24285,23.6385,4387,337
1.87592,125.4362,-130,24286,23.738,4387,337
1.38452,137.81998,-129,24287,23.738,4387,337
1.98701,169.60246,-128,24288,23.6385,4387,337
1.17998,210.00075,-127,24289,23.6385,4387,337
2.0156,257.21026,-126,24290,23.7878,4387,337
1.10916,308.97995,-125,24291,23.7878,4387,337
3.03049,358.7802,-124,24292,23.738,4387,337
0.497951,403.25997,-123,24293,23.7878,4396,350
1.38452,441.65633,-122,24294,23.5887,4396,350
1.38452,474.60983,-121,24295,23.7878,4396,350
0.971667,500.85598,-120,24296,23.738,4396,350
0.525895,521.4772,-119,24297,23.6385,4396,350
1.44188,539.65501,-118,24298,23.7878,4396,350
1.04268,557.17568,-117,24299,23.7878,4396,350
0.425674,562.68567,-116,24300,23.7878,4396,350
14.4927,630.5899,-115,24301,23.738,4396,350
14.2438,766.31471,-114,24302,23.738,4396,350
3.26966,309.76349,-113,24303,23.6385,4559,277
0.488281,866.22058,-112,24304,23.6385,4559,277
0.921287,789.48878,-111,24305,23.4891,4559,277
1.47458,359.21352,-110,24306,23.6385,4559,277
3.13718,677.10572,-109,24307,23.6385,4559,277
3.32318,591.2582,-108,24308,23.5887,4559,277
1.4118,488.29852,-107,24309,23.6385,4559,277
3.17495,462.3581,-106,24310,23.8376,4559,277
1.56555,441.3931,-105,24311,23.738,4559,277
1.72495,714.13577,-104,24312,23.738,4559,277
2.62403,662.09762,-103,24313,23.6385,4602,268
3.83977,464.10605,-102,24314,23.738,4602,268
2.56336,437.00921,-101,24315,23.6385,4602,268
1.06977,529.88799,-100,24316,23.6385,4602,268
1.79804,583.05256,-99,24317,23.8376,4602,268
1.31745,529.24285,-98,24318,23.7878,4602,268
1.68298,507.92983,-97,24319,23.7878,4602,268
2.10585,533.13007,-96,24320,23.8376,4602,268
1.88858,567.93729,-95,24321,23.738,4602,268
2.15951,589.73817,-94,24322,23.738,4602,268
2.78106,582.56758,-93,24323,23.6385,4649,319
2.57264,576.05689,-92,24324,23.6385,4649,319
2.40203,586.58099,-91,24325,23.5887,4649,319
2.03444,604.08337,-90,24326,23.6385,4649,319
2.73786,611.62398,-89,24327,23.7878,4649,319
2.41983,605.78232,-88,24328,23.7878,4649,319
1.61945,599.03698,-87,24329,23.738,4649,319
3.17646,597.05684,-86,24330,23.4393,4649,319
2.04845,595.14314,-85,24331,23.6385,4649,319
1.49385,588.37226,-84,24332,23.6385,4649,319
2.27981,576.76983,-83,24333,23.6385,4649,319
2.85384,562.21442,-82,24334,23.738,4649,319
2.50693,546.81159,-81,24335,23.8376,4649,319
2.8236,532.90695,-80,24336,23.7878,4649,319
2.7862,519.74652,-79,24337,23.6385,4649,319
2.31509,505.99876,-78,24338,23.7878,4649,319
2.23332,490.54725,-77,24339,23.7878,4649,319
3.1387,473.5829,-76,24340,23.8376,4649,319
2.9443,456.45302,-75,24341,23.7878,4649,319
2.40203,439.22766,-74,24342,23.7878,4649,319
2.31715,420.83042,-73,24343,23.6385,4590,329
2.66729,400.1363,-72,24344,23.6385,4590,329
4.37822,377.8257,-71,24345,23.7878,4590,329
3.15537,355.84237,-70,24346,23.6385,4590,329
2.62403,334.14721,-69,24347,23.738,4590,329
1.94088,308.03681,-68,24348,23.9869,4590,329
2.98771,275.81054,-67,24349,23.7878,4590,329
3.24771,244.1568,-66,24350,23.5887,4590,329
3.00521,210.92009,-65,24351,23.7878,4590,329
2.37005,175.08734,-64,24352,23.6385,4590,329
2.36401,135.21534,-63,24353,23.4891,4522,301
2.63129,102.26527,-62,24354,23.4393,4522,301
2.40401,71.240239,-61,24355,23.7878,4522,301
3.35318,44.965805,-60,24356,23.6385,4522,301
2.43358,35.361222,-59,24357,23.6385,4522,301
2.90517,54.645386,-58,24358,23.738,4522,301
2.71688,85.611157,-57,24359,23.9869,4522,301
2.41193,119.35868,-56,24360,23.738,4522,301
2.54094,152.65867,-55,24361,23.7878,4522,301
2.53342,183.61733,-54,24362,23.6385,4522,301
2.51832,209.37681,-53,24363,23.738,4472,282
1.56555,224.8777,-52,24364,23.738,4472,282
1.52856,225.61853,-51,24365,23.6385,4472,282
2.15951,215.29006,-50,24366,23.8376,4472,282
2.954,210.61831,-49,24367,23.4891,4472,282
2.64575,222.82276,-48,24368,23.7878,4472,282
2.75695,241.95143,-47,24369,23.6385,4472,282
2.49167,260.4332,-46,24370,23.5887,4472,282
4.07474,284.05027,-45,24371,23.7878,4472,282
2.97812,313.1064,-44,24372,23.7878,4472,282
2.39407,343.22983,-43,24373,23.6385,4426,295
1.94824,370.02222,-42,24374,23.6385,4426,295
2.41983,390.05906,-41,24375,23.6385,4426,295
3.23595,403.57182,-40,24376,23.4891,4426,295
2.48784,411.94831,-39,24377,23.8376,4426,295
2.28607,417.3747,-38,24378,23.738,4426,295
2.65654,417.98834,-37,24379,23.6385,4426,295
2.19238,416.84241,-36,24380,23.6385,4426,295
1.60466,417.13542,-35,24381,23.738,4426,295
1.94333,419.09718,-34,24382,23.6385,4426,295
2.75695,420.09895,-33,24383,23.7878,4397,303
2.24822,418.47224,-32,24384,23.9371,4397,303
3.06647,415.62561,-31,24385,23.5887,4397,303
1.74966,414.7676,-30,24386,23.8376,4397,303
2.59295,417.04682,-29,24387,23.6385,4397,303
3.07113,420.60697,-28,24388,23.7878,4397,303
3.45267,425.70301,-27,24389,23.6385,4397,303
1.96529,433.82534,-26,24390,23.738,4397,303
3.30592,443.66613,-25,24391,23.7878,4397,303
2.77247,454.40962,-24,24392,23.6385,4397,303
3.28712,466.61966,-23,24393,23.6385,4396,314
3.18545,481.54315,-22,24394,23.8376,4396,314
3.40679,500.03795,-21,24395,23.7878,4396,314
3.32749,520.53557,-20,24396,23.6385,4396,314
3.86452,540.37986,-19,24397,23.7878,4396,314
3.41378,560.51524,-18,24398,23.7878,4396,314
3.07888,581.26721,-17,24399,23.738,4396,314
2.79815,597.77378,-16,24400,23.7878,4396,314
3.50476,601.95654,-15,24401,23.6385,4396,314
2.54094,593.01174,-14,24402,23.6385,4396,314
1.58673,584.33305,-13,24403,23.6385,4423,297
2.18366,590.04386,-12,24404,23.7878,4423,297
1.4118,605.85857,-11,24405,23.6385,4423,297
1.88858,615.19298,-10,24406,23.7878,4423,297
1.67446,603.25401,-9,24407,23.4891,4423,297
1.94088,572.2569,-8,24408,23.738,4423,297
2.00612,536.98196,-7,24409,23.6385,4423,297
1.59273,506.39271,-6,24410,23.5887,4423,297
1.83479,480.6769,-5,24411,23.4891,4423,297
1.60168,461.98222,-4,24412,23.6385,4423,297
1.55638,457.56855,-3,24413,23.6385,4524,294
2.47824,466.35841,-2,24414,23.5887,4524,294
1.88858,476.75884,-1,24415,23.6385,4524,294
17.3295,371.36562,0,24416,23.738,4524,294
12.6083,357.36857,1,24417,23.738,4524,294
0.840071,159.49331,2,24418,23.4891,4524,294
1.79539,587.63064,3,24419,24.0367,4524,294
1.40163,479.90342,4,24420,23.738,4524,294
2.43554,128.85596,5,24421,23.4891,4524,294
1.38452,500.73462,6,24422,23.738,4524,294
1.90116,511.8899,7,24423,23.738,4660,310
2.41786,278.85597,8,24424,23.738,4660,310
1.00068,303.38471,9,24425,23.7878,4660,310
1.76323,139.39366,10,24426,23.6385,4660,310
1.53168,186.91799,11,24427,23.738,4660,310
2.24609,116.29156,12,24428,23.9869,4660,310
2.6655,246.60454,13,24429,23.9869,4660,310
1.89362,338.45572,14,24430,23.6385,4660,310
1.92608,226.43398,15,24431,23.7878,4660,310
1.70829,221.06044,16,24432,23.6385,4660,310
1.8529,296.91781,17,24433,23.6385,4521,260
1.99659,372.94784,18,24434,23.7878,4521,260
2.21187,448.65324,19,24435,23.6385,4521,260
1.88099,532.22067,20,24436,23.6385,4521,260
1.53168,593.45035,21,24437,23.8376,4521,260
1.57769,598.99099,22,24438,23.9371,4521,260
2.15287,576.89164,23,24439,23.6385,4521,260
1.79539,551.47847,24,24440,23.7878,4521,260
1.25442,522.43764,25,24441,23.6385,4521,260
1.50657,489.46891,26,24442,23.4891,4521,260
1.39139,463.54422,27,24443,23.738,4448,280
2.16392,453.04049,28,24444,23.7878,4448,280
1.61945,447.3636,29,24445,23.6385,4448,280
1.60466,441.33792,30,24446,23.7878,4448,280
2.02504,442.38938,31,24447,23.5887,4448,280
2.57264,454.76295,32,24448,23.8376,4448,280
2.18802,469.16412,33,24449,23.7878,4448,280
3.08198,482.01518,34,24450,23.6385,4448,280
2.85384,495.21192,35,24451,23.4393,4448,280
1.96044,509.32266,36,24452,23.4891,4448,280
3.37444,522.4402,37,24453,23.738,4423,338
2.09222,530.63942,38,24454,23.4891,4423,338
2.44336,531.96132,39,24455,23.9371,4423,338
2.87382,525.25054,40,24456,23.738,4423,338
3.45405,511.14515,41,24457,23.738,4423,338
3.76958,492.77537,42,24458,23.738,4423,338
2.11714,473.93923,43,24459,23.4393,4423,338
3.97162,458.5249,44,24460,23.8376,4423,338
2.98132,448.30031,45,24461,23.7878,4423,338
3.00997,444.18919,46,24462,23.7878,4423,338
2.31921,443.93462,47,24463,23.738,4422,263
2.62948,444.78167,48,24464,23.6385,4422,263
3.60932,446.85481,49,24465,23.6385,4422,263
2.95723,450.75461,50,24466,23.6385,4422,263
1.19604,455.87975,51,24467,23.6385,4422,263
1.80334,460.17291,52,24468,23.9371,4422,263
2.22047,462.2086,53,24469,23.7878,4422,263
2.38209,463.02473,54,24470,23.6385,4422,263
2.32332,463.67061,55,24471,23.6385,4422,263
1.83739,463.90877,56,24472,23.7878,4422,263
1.33543,463.57556,57,24473,23.738,4460,277
2.09222,463.43794,58,24474,23.7878,4460,277
1.19604,464.42864,59,24475,23.6385,4460,277
2.11037,465.72942,60,24476,23.7878,4460,277
2.77247,465.69997,61,24477,23.6385,4460,277
2.32742,463.48157,62,24478,23.738,4460,277
1.5034,459.68967,63,24479,23.7878,4460,277
1.89614,454.74822,64,24480,23.7878,4460,277
2.32946,449.91762,65,24481,23.7878,4460,277
1.35316,445.73856,66,24482,23.7878,4460,277
2.06237,441.25743,67,24483,23.6385,4576,324
2.67443,435.80261,68,24484,23.738,4576,324
2.25457,430.6883,69,24485,23.8376,4576,324
2.03444,426.82228,70,24486,23.8376,4576,324
0.768946,419.61861,71,24487,23.6385,4576,324
12.7739,247.71956,72,24488,23.6385,4576,324
13.0194,186.30385,73,24489,23.738,4576,324
3.1143,235.67175,74,24490,23.7878,4576,324
1.22752,256.80359,75,24491,23.7878,4576,324
1.93596,187.16771,76,24492,23.8376,4576,324
2.18584,282.8936,77,24493,23.6385,4730,301
2.01324,457.70971,78,24494,23.4891,4730,301
1.88353,470.03004,79,24495,23.7878,4730,301
2.01087,333.37686,80,24496,23.6385,4730,301
1.17594,303.92306,81,24497,23.8376,4730,301
1.92856,358.5854,82,24498,23.5887,4730,301
0.966748,380.88011,83,24499,23.6385,4730,301
1.53789,266.40503,84,24500,23.6385,4730,301
1.65728,148.76816,85,24501,23.738,4730,301
1.4219,134.92475,86,24502,23.6385,4730,301
0.402647,136.8375,87,24503,23.6385,4684,316
1.23912,147.75733,88,24504,23.6385,4684,316
1.21581,152.37495,89,24505,23.6385,4684,316
1.53789,157.05365,90,24506,23.7878,4684,316
0.916097,135.81775,91,24507,23.5887,4684,316
0.793363,127.61767,92,24508,23.4891,4684,316
0.926449,126.18138,93,24509,23.6385,4684,316
1.49385,110.04258,94,24510,23.7878,4684,316
1.78206,96.955955,95,24511,23.4393,4684,316
3.77337,105.5328,96,24512,23.738,4684,316
2.35997,124.40792,97,24513,23.7878,4626,301
1.09619,129.67436,98,24514,23.4393,4626,301
0.497951,124.09346,99,24515,23.738,4626,301
1.23912,124.44354,100,24516,23.738,4626,301
