Linear acceleration,Rotational velocity,Time values,Absolute time values,Temperature,Ambient light,Reflected light
0.710948,470.35664,-2000,83391,31.056,16937,537
0.981433,472.68316,-1999,83392,31.1556,16937,537
2.09677,472.58097,-1998,83393,31.056,16976,503
1.71386,469.42075,-1997,83394,31.056,16976,503
1.56555,462.87873,-1996,83395,30.9564,16976,503
1.49066,455.90346,-1995,83396,31.056,16976,503
1.30655,448.51307,-1994,83397,31.1058,16976,503
1.38452,442.16656,-1993,83398,31.056,16976,503
2.44921,437.01378,-1992,83399,30.9564,16976,503
1.93596,432.612,-1991,83400,30.9564,16976,503
1.77401,428.42339,-1990,83401,31.056,16976,503
2.00612,424.31237,-1989,83402,31.056,16976,503
1.89614,420.19829,-1988,83403,31.056,16984,461
2.81684,416.52671,-1987,83404,31.3049,16984,461
2.02033,412.61329,-1986,83405,31.056,16984,461
2.87879,408.4884,-1985,83406,30.9564,16984,461
2.45892,404.22732,-1984,83407,31.1556,16984,461
2.89366,400.14643,-1983,83408,31.1058,16984,461
1.83739,396.38189,-1982,83409,31.4045,16984,461
2.68155,393.05983,-1981,83410,31.3049,16984,461
1.4118,390.84611,-1980,83411,31.2551,16984,461
3.00362,390.29508,-1979,83412,31.056,16984,461
2.48976,390.82339,-1978,83413,31.056,16991,427
2.34985,391.08966,-1977,83414,31.3049,16991,427
2.45504,389.88299,-1976,83415,31.056,16991,427
2.98291,387.53325,-1975,83416,31.056,16991,427
2.88871,384.11218,-1974,83417,30.9564,16991,427
2.95723,380.34204,-1973,83418,31.1556,16991,427
2.43358,378.32489,-1972,83419,31.056,16991,427
2.11488,378.36768,-1971,83420,31.2551,16991,427
3.37444,379.23364,-1970,83421,30.9564,16991,427
1.97739,378.7049,-1969,83422,30.9067,16991,427
2.52021,376.09895,-1968,83423,30.9564,16998,416
2.92806,372.45657,-1967,83424,31.2551,16998,416
1.88099,367.90285,-1966,83425,31.056,16998,416
2.35187,362.84882,-1965,83426,31.1058,16998,416
2.51832,358.98239,-1964,83427,31.1556,16998,416
2.0716,357.72411,-1963,83428,31.1058,16998,416
2.93944,357.34426,-1962,83429,31.056,16998,416
3.0163,355.9582,-1961,83430,31.4045,16998,416
3.14022,353.36406,-1960,83431,31.056,16998,416
2.51263,350.32415,-1959,83432,31.3049,16998,416
2.74134,348.02154,-1958,83433,30.8569,16990,408
2.60213,347.38717,-1957,83434,31.1058,16990,408
2.84044,348.15699,-1956,83435,31.1058,16990,408
2.73786,350.2935,-1955,83436,31.056,16990,408
2.02504,354.74542,-1954,83437,31.056,16990,408
1.98701,361.79223,-1953,83438,31.056,16990,408
2.60762,369.46681,-1952,83439,31.056,16990,408
3.16292,376.80844,-1951,83440,31.056,16990,408
1.66589,383.0418,-1950,83441,31.2551,16990,408
3.1097,387.96868,-1949,83442,30.9564,16990,408
2.92806,391.74997,-1948,83443,30.9564,16968,410
2.60762,395.33201,-1947,83444,31.3049,16968,410
2.89201,399.49365,-1946,83445,31.056,16968,410
2.98451,405.66275,-1945,83446,30.9067,16968,410
2.28816,413.24708,-1944,83447,30.9067,16968,410
1.67161,421.21739,-1943,83448,31.1058,16968,410
2.33356,429.39849,-1942,83449,31.1058,16968,410
3.1097,437.22727,-1941,83450,31.056,16968,410
1.56859,444.81862,-1940,83451,31.056,16968,410
1.76323,452.37794,-1939,83452,31.056,16968,410
2.17052,459.76136,-1938,83453,31.056,16951,418
2.51263,466.99379,-1937,83454,31.1058,16951,418
1.61355,474.2662,-1936,83455,31.1058,16951,418
2.71512,480.7504,-1935,83456,31.1058,16951,418
2.67443,486.26943,-1934,83457,31.1058,16951,418
1.83739,491.59953,-1933,83458,31.1556,16951,418
1.60466,497.18323,-1932,83459,31.056,16951,418
1.64863,504.02473,-1931,83460,31.056,16951,418
2.0716,511.50012,-1930,83461,31.056,16951,418
2.21617,519.47661,-1929,83462,31.4045,16951,418
2.3539,526.5252,-1928,83463,31.056,16945,429
1.42525,531.74896,-1927,83464,31.056,16945,429
1.73047,535.3482,-1926,83465,31.056,16945,429
2.19889,538.77988,-1925,83466,30.9067,16945,429
1.45505,543.12608,-1924,83467,31.056,16945,429
2.44336,548.97856,-1923,83468,31.056,16945,429
8.41772,693.2561,-1922,83469,31.056,16945,429
12.2736,1536.659,-1921,83470,31.4045,16945,429
1.76052,1504.2428,-1920,83471,31.056,16945,429
1.06977,695.81777,-1919,83472,30.9067,16945,429
2.34782,609.0595,-1918,83473,31.1058,16948,445
2.83371,759.73823,-1917,83474,31.056,16948,445
3.55608,595.96858,-1916,83475,31.1058,16948,445
3.50748,429.77705,-1915,83476,31.1556,16948,445
2.22047,386.69172,-1914,83477,31.1058,16948,445
2.11488,487.05915,-1913,83478,30.8569,16948,445
1.84516,632.19839,-1912,83479,30.9564,16948,445
2.76386,716.79818,-1911,83480,31.1058,16948,445
2.47824,710.93849,-1910,83481,30.9067,16948,445
3.21821,632.21451,-1909,83482,31.1058,16948,445
3.84845,510.66558,-1908,83483,31.2551,16941,477
2.15066,393.09397,-1907,83484,31.056,16941,477
1.53789,319.98634,-1906,83485,31.056,16941,477
2.69574,304.17183,-1905,83486,31.1556,16941,477
2.29024,346.77894,-1904,83487,31.056,16941,477
2.17052,417.26813,-1903,83488,31.1058,16941,477
1.09183,478.19742,-1902,83489,31.056,16941,477
2.45115,496.3345,-1901,83490,30.9067,16941,477
2.29648,485.63211,-1900,83491,31.1058,16941,477
1.09183,462.50007,-1899,83492,31.056,16941,477
1.82437,443.69847,-1898,83493,31.1556,16929,495
0.768946,439.93363,-1897,83494,31.056,16929,495
1.57466,453.4162,-1896,83495,31.1556,16929,495
1.28447,479.62165,-1895,83496,31.056,16929,495
1.38452,508.9599,-1894,83497,31.1556,16929,495
1.07865,531.66861,-1893,83498,31.1058,16929,495
1.88858,543.60264,-1892,83499,30.9067,16929,495
2.15951,545.74677,-1891,83500,31.1058,16929,495
2.2819,542.66823,-1890,83501,31.1058,16929,495
1.43525,540.38081,-1889,83502,31.056,16929,495
1.07865,541.71215,-1888,83503,30.9067,16904,524
0.916097,546.423,-1887,83504,31.056,16904,524
1.93596,552.43077,-1886,83505,30.9564,16904,524
1.6165,558.02833,-1885,83506,31.056,16904,524
1.76323,561.40163,-1884,83507,31.1058,16904,524
1.4681,561.33736,-1883,83508,31.1058,16904,524
1.68863,556.92549,-1882,83509,31.056,16904,524
2.0716,549.21593,-1881,83510,31.056,16904,524
1.68014,539.36922,-1880,83511,31.3049,16904,524
1.84516,528.84649,-1879,83512,31.056,16904,524
1.62826,519.47243,-1878,83513,31.1556,16880,548
2.18584,512.19531,-1877,83514,31.2551,16880,548
1.73047,506.27334,-1876,83515,31.056,16880,548
1.22363,500.61895,-1875,83516,31.1556,16880,548
1.49704,494.6729,-1874,83517,31.1556,16880,548
1.60466,488.73712,-1873,83518,31.1058,16880,548
2.25034,482.29925,-1872,83519,31.056,16880,548
1.61355,475.00365,-1871,83520,31.3049,16880,548
2.49167,466.94489,-1870,83521,31.2551,16880,548
1.42525,458.25686,-1869,83522,31.056,16880,548
1.89865,449.01955,-1868,83523,31.2551,16863,571
1.80334,439.73819,-1867,83524,31.056,16863,571
1.52544,431.37094,-1866,83525,31.056,16863,571
2.15066,424.45429,-1865,83526,31.056,16863,571
1.54408,417.93759,-1864,83527,31.056,16863,571
1.81388,411.0017,-1863,83528,31.1058,16863,571
2.19672,402.9473,-1862,83529,31.1058,16863,571
1.73047,394.2423,-1861,83530,30.9564,16863,571
2.21402,385.49942,-1860,83531,31.1556,16863,571
1.66875,377.44946,-1859,83532,30.9564,16863,571
1.64863,371.18611,-1858,83533,31.056,16853,588
0.828641,366.55904,-1857,83534,31.056,16853,588
2.30477,362.48475,-1856,83535,31.056,16853,588
1.68298,358.32993,-1855,83536,30.9067,16853,588
1.87592,354.39829,-1854,83537,31.056,16853,588
0.873464,350.68481,-1853,83538,31.1058,16853,588
2.48976,346.86268,-1852,83539,30.9564,16853,588
1.89865,342.17968,-1851,83540,31.056,16853,588
2.01324,336.14379,-1850,83541,31.1058,16853,588
1.09619,329.21861,-1849,83542,30.8569,16853,588
1.33185,322.06352,-1848,83543,31.1058,16851,611
1.05179,315.66033,-1847,83544,31.056,16851,611
1.69708,309.97102,-1846,83545,31.056,16851,611
1.5034,305.36552,-1845,83546,31.056,16851,611
1.38452,303.84664,-1844,83547,31.056,16851,611
1.52856,307.26262,-1843,83548,31.056,16851,611
1.74966,313.15891,-1842,83549,31.1058,16851,611
1.74966,316.51281,-1841,83550,31.1556,16851,611
1.25821,311.18723,-1840,83551,31.1556,16851,611
0.995902,294.91399,-1839,83552,31.2551,16851,611
1.60466,270.22631,-1838,83553,31.056,16846,626
0.552427,242.16467,-1837,83554,31.056,16846,626
1.94088,216.9264,-1836,83555,31.056,16846,626
1.81913,199.60754,-1835,83556,31.056,16846,626
1.45176,192.81565,-1834,83557,31.056,16846,626
0.425674,194.55396,-1833,83558,31.2551,16846,626
1.22363,202.99177,-1832,83559,31.056,16846,626
1.40163,214.79252,-1831,83560,31.056,16846,626
1.08306,226.79744,-1830,83561,31.056,16846,626
1.48103,236.82053,-1829,83562,31.3049,16846,626
0.995902,244.0602,-1828,83563,31.056,16857,637
1.45505,248.51507,-1827,83564,31.056,16857,637
0.730792,250.61859,-1826,83565,30.9067,16857,637
1.19205,250.67863,-1825,83566,30.9067,16857,637
1.40163,248.20392,-1824,83567,31.2551,16857,637
1.31745,242.71855,-1823,83568,31.2551,16857,637
0.905627,234.25096,-1822,83569,31.056,16857,637
0.710948,223.20349,-1821,83570,31.056,16857,637
0.793363,211.32007,-1820,83571,31.1058,16857,637
1.24296,199.9834,-1819,83572,31.3049,16857,637
1.37067,191.54983,-1818,83573,31.056,16863,643
0.710948,188.86061,-1817,83574,31.1058,16863,643
0.811194,192.19799,-1816,83575,31.1556,16863,643
1.25061,201.01886,-1815,83576,31.056,16863,643
0.632885,213.9224,-1814,83577,31.1058,16863,643
0.946812,228.38664,-1813,83578,31.1058,16863,643
1.73047,242.38646,-1812,83579,31.056,16863,643
0.569429,255.22246,-1811,83580,31.1058,16863,643
1.00068,266.01384,-1810,83581,31.056,16863,643
1.22363,275.13565,-1809,83582,30.8569,16863,643
0.878906,282.55597,-1808,83583,31.056,16863,643
0.976563,289.5153,-1807,83584,30.9067,16863,643
0.507437,294.85287,-1806,83585,31.056,16863,643
0.878906,299.03801,-1805,83586,31.056,16863,643
0.697405,302.46809,-1804,83587,30.9067,16863,643
0.625305,304.58502,-1803,83588,30.9067,16863,643
0.76272,305.08834,-1802,83589,30.9564,16863,643
0.840071,304.21426,-1801,83590,31.056,16863,643
0.577742,302.23086,-1800,83591,30.9067,16863,643
0.169146,298.93205,-1799,83592,31.2551,16863,643
0.625305,294.96154,-1798,83593,31.056,16867,648
0.926449,290.99379,-1797,83594,31.056,16867,648
0.793363,286.92216,-1796,83595,31.1556,16867,648
0.338291,282.88857,-1795,83596,31.056,16867,648
1.21188,278.8545,-1794,83597,31.056,16867,648
0.365396,274.96727,-1793,83598,31.056,16867,648
0.655098,271.10723,-1792,83599,31.1058,16867,648
0.768946,267.87918,-1791,83600,31.056,16867,648
0.632885,264.88723,-1790,83601,30.9067,16867,648
0.41432,262.4973,-1789,83602,30.9564,16867,648
0.900346,260.30503,-1788,83603,31.1058,16870,653
0.402647,258.68522,-1787,83604,30.9067,16870,653
0.352105,257.45072,-1786,83605,31.056,16870,653
0.402647,256.73047,-1785,83606,31.2551,16870,653
0.817051,256.37053,-1784,83607,30.8569,16870,653
0.276214,256.17304,-1783,83608,31.056,16870,653
0.905627,256.05888,-1782,83609,31.056,16870,653
0.817051,256.15297,-1781,83610,30.9067,16870,653
0.617632,256.39572,-1780,83611,31.1058,16870,653
1.15548,256.85317,-1779,83612,30.9564,16870,653
0.828641,257.22825,-1778,83613,31.1058,16867,664
1.02423,258.17871,-1777,83614,31.1058,16867,664
0.365396,259.94623,-1776,83615,31.056,16867,664
1.00068,262.20652,-1775,83616,30.9564,16867,664
0.799351,264.75399,-1774,83617,31.056,16867,664
0.840071,267.82129,-1773,83618,31.056,16867,664
1.22363,271.71516,-1772,83619,31.056,16867,664
1.47458,276.4135,-1771,83620,31.056,16867,664
1.33185,281.52667,-1770,83621,31.2551,16867,664
0.946812,287.32025,-1769,83622,31.1556,16867,664
1.09619,293.61361,-1768,83623,31.056,16857,673
1.92112,300.35499,-1767,83624,31.056,16857,673
1.19604,307.18176,-1766,83625,30.9564,16857,673
0.78733,313.90933,-1765,83626,30.9067,16857,673
1.31745,320.87498,-1764,83627,31.3049,16857,673
1.34255,328.01865,-1763,83628,31.1556,16857,673
1.21188,335.34039,-1762,83629,30.8569,16857,673
0.425674,343.00937,-1761,83630,31.056,16857,673
1.43857,350.48343,-1760,83631,31.056,16857,673
1.29923,358.07343,-1759,83632,31.056,16857,673
0.601994,365.9954,-1758,83633,31.3049,16848,682
1.52544,374.03637,-1757,83634,31.056,16848,682
0.59402,381.81307,-1756,83635,31.1058,16848,682
1.49385,389.54873,-1755,83636,30.9067,16848,682
1.09183,397.21974,-1754,83637,31.056,16848,682
1.33185,405.48697,-1753,83638,30.9067,16848,682
1.17998,414.37156,-1752,83639,30.9564,16848,682
1.59273,423.52715,-1751,83640,30.9067,16848,682
0.85693,433.07607,-1750,83641,31.1058,16848,682
0.717624,442.43083,-1749,83642,30.8569,16848,682
2.06237,451.30773,-1748,83643,31.3049,16841,691
0.921287,459.93089,-1747,83644,31.1556,16841,691
0.632885,468.15953,-1746,83645,31.056,16841,691
1.09619,476.56478,-1745,83646,31.056,16841,691
0.683594,484.29912,-1744,83647,31.1058,16841,691
1.48103,491.62263,-1743,83648,30.9067,16841,691
1.55638,497.8117,-1742,83649,31.056,16841,691
2.48784,503.36252,-1741,83650,31.1058,16841,691
1.47134,508.77502,-1740,83651,31.056,16841,691
1.28817,514.26057,-1739,83652,31.1556,16841,691
1.99659,520.19814,-1738,83653,31.056,16836,700
3.39557,526.6294,-1737,83654,31.056,16836,700
0.98628,533.68896,-1736,83655,31.3049,16836,700
3.32605,540.61947,-1735,83656,31.2551,16836,700
2.50693,547.06938,-1734,83657,31.1058,16836,700
1.31383,553.08941,-1733,83658,31.056,16836,700
1.49066,559.11003,-1732,83659,31.056,16836,700
1.23912,565.7839,-1731,83660,31.056,16836,700
2.50883,572.6185,-1730,83661,31.056,16836,700
1.89614,579.60806,-1729,83662,31.056,16836,700
3.67608,585.99331,-1728,83663,31.056,16834,705
2.24822,591.75418,-1727,83664,31.1058,16834,705
2.08994,596.51405,-1726,83665,30.9067,16834,705
2.55031,600.48749,-1725,83666,31.056,16834,705
3.36595,605.00941,-1724,83667,31.056,16834,705
2.2944,609.71366,-1723,83668,31.056,16834,705
1.62826,614.37626,-1722,83669,31.056,16834,705
4.03239,618.57537,-1721,83670,30.9067,16834,705
2.8236,622.67891,-1720,83671,31.056,16834,705
2.85884,627.55048,-1719,83672,30.9067,16834,705
2.60213,633.3495,-1718,83673,31.056,16840,706
2.09222,639.01318,-1717,83674,31.2551,16840,706
2.73089,645.30726,-1716,83675,31.056,16840,706
4.71387,715.40374,-1715,83676,31.1556,16840,706
10.9645,1154.3554,-1714,83677,30.9067,16840,706
3.18096,1125.5881,-1713,83678,31.3049,16840,706
5.30859,696.67959,-1712,83679,30.9564,16840,706
3.00997,502.73173,-1711,83680,30.9564,16840,706
3.86329,471.0431,-1710,83681,31.1058,16840,706
4.84261,432.83114,-1709,83682,31.056,16840,706
3.29436,424.33124,-1708,83683,31.3049,16856,694
3.18844,474.79877,-1707,83684,31.056,16856,694
4.00867,599.50188,-1706,83685,30.8569,16856,694
3.5708,696.84718,-1705,83686,30.9067,16856,694
4.11896,708.91317,-1704,83687,31.1556,16856,694
3.41936,644.64602,-1703,83688,31.2551,16856,694
2.47246,545.38247,-1702,83689,30.9067,16856,694
3.69678,477.46125,-1701,83690,30.8569,16856,694
2.83203,493.04624,-1700,83691,30.9067,16856,694
2.17929,552.13072,-1699,83692,30.9564,16856,694
2.05078,518.41368,-1698,83693,31.056,16846,710
2.18366,443.67323,-1697,83694,31.056,16846,710
3.12653,396.61997,-1696,83695,31.1556,16846,710
2.9893,389.21294,-1695,83696,31.056,16846,710
2.47824,412.98714,-1694,83697,31.056,16846,710
2.0716,459.73096,-1693,83698,31.056,16846,710
1.3461,487.85373,-1692,83699,31.1058,16846,710
2.26722,481.5439,-1691,83700,31.056,16846,710
3.17495,460.9855,-1690,83701,31.1058,16846,710
2.45504,443.01054,-1689,83702,31.056,16846,710
2.32946,434.02808,-1688,83703,31.056,16845,718
1.91864,431.98226,-1687,83704,31.1058,16845,718
2.25457,429.87934,-1686,83705,30.9067,16845,718
2.0693,423.97524,-1685,83706,31.1058,16845,718
2.15951,413.10071,-1684,83707,30.9067,16845,718
1.95556,399.39694,-1683,83708,30.9564,16845,718
1.70829,386.823,-1682,83709,31.056,16845,718
1.66303,375.21273,-1681,83710,30.9067,16845,718
1.92608,362.29747,-1680,83711,30.9564,16845,718
2.13284,347.1541,-1679,83712,31.056,16845,718
2.41588,331.66362,-1678,83713,31.056,16845,713
1.53168,317.75242,-1677,83714,31.1556,16845,713
1.21188,305.93546,-1676,83715,31.056,16845,713
1.83219,296.37216,-1675,83716,31.1556,16845,713
2.06237,288.32351,-1674,83717,30.9067,16845,713
0.497951,281.41173,-1673,83718,31.1058,16845,713
1.62532,275.11477,-1672,83719,31.056,16845,713
1.27328,263.56408,-1671,83720,31.2551,16845,713
1.20794,253.17665,-1670,83721,31.3049,16845,713
1.6165,262.57801,-1669,83722,31.1058,16845,713
1.45505,288.84947,-1668,83723,31.1058,16850,717
1.66016,310.6187,-1667,83724,30.9564,16850,717
1.00068,308.78776,-1666,83725,31.2551,16850,717
2.27352,293.09946,-1665,83726,31.1556,16850,717
1.98701,284.72874,-1664,83727,31.3049,16850,717
0.737289,287.07431,-1663,83728,31.056,16850,717
1.56859,290.23076,-1662,83729,31.056,16850,717
1.90617,293.09275,-1661,83730,31.056,16850,717
1.56859,300.3627,-1660,83731,30.9067,16850,717
2.11263,312.79419,-1659,83732,30.8569,16850,717
1.19205,325.38473,-1658,83733,31.2551,16849,726
1.50022,332.30934,-1657,83734,31.4045,16849,726
1.97739,329.74228,-1656,83735,31.056,16849,726
1.70269,323.70296,-1655,83736,31.2551,16849,726
1.57769,323.5276,-1654,83737,31.056,16849,726
2.68688,328.39841,-1653,83738,31.056,16849,726
1.45176,336.64126,-1652,83739,31.1058,16849,726
2.27981,343.1651,-1651,83740,31.056,16849,726
2.03678,344.06407,-1650,83741,30.9067,16849,726
1.61355,337.43392,-1649,83742,31.1556,16849,726
1.84257,324.06528,-1648,83743,30.8569,16847,737
2.02269,324.294,-1647,83744,31.2551,16847,737
0.845728,344.20839,-1646,83745,31.1556,16847,737
1.41517,364.02004,-1645,83746,30.9067,16847,737
1.76052,375.31317,-1644,83747,30.8569,16847,737
1.4681,379.67404,-1643,83748,31.056,16847,737
0.811194,382.27663,-1642,83749,30.9564,16847,737
1.82698,384.22309,-1641,83750,30.9564,16847,737
2.37809,383.22376,-1640,83751,31.056,16847,737
2.35997,380.44572,-1639,83752,30.8569,16847,737
2.56336,379.5015,-1638,83753,30.8569,16849,744
2.00374,382.78659,-1637,83754,31.1556,16849,744
2.25034,389.4554,-1636,83755,31.1058,16849,744
2.20539,396.93258,-1635,83756,31.1556,16849,744
1.79539,402.88701,-1634,83757,31.056,16849,744
1.60466,407.31575,-1633,83758,31.056,16849,744
2.29856,407.17647,-1632,83759,31.056,16849,744
2.41786,402.34644,-1631,83760,31.056,16849,744
1.33185,411.833,-1630,83761,30.7573,16849,744
1.42525,443.19804,-1629,83762,31.2551,16849,744
2.70809,478.76893,-1628,83763,31.2551,16853,754
2.01797,494.2085,-1627,83764,31.2551,16853,754
2.25034,489.71233,-1626,83765,31.1058,16853,754
3.0163,481.77065,-1625,83766,31.056,16853,754
2.77935,480.36238,-1624,83767,31.056,16853,754
2.58559,483.50846,-1623,83768,31.1058,16853,754
2.2944,486.31932,-1622,83769,31.056,16853,754
2.25668,489.6101,-1621,83770,31.056,16853,754
2.33764,496.32962,-1620,83771,31.1058,16853,754
1.88858,511.21888,-1619,83772,30.9067,16853,754
2.25034,527.97871,-1618,83773,30.9564,16856,762
2.22905,540.34742,-1617,83774,31.1058,16856,762
1.86572,544.41998,-1616,83775,31.3049,16856,762
1.62826,541.25134,-1615,83776,30.9067,16856,762
1.61945,535.71353,-1614,83777,31.056,16856,762
2.0156,530.69911,-1613,83778,31.1058,16856,762
1.94088,526.56431,-1612,83779,31.2551,16856,762
1.81388,524.56413,-1611,83780,30.8569,16856,762
2.48592,525.49784,-1610,83781,31.1556,16856,762
1.65728,529.50227,-1609,83782,31.056,16856,762
2.83876,535.67751,-1608,83783,31.056,16852,776
2.77591,541.3558,-1607,83784,31.1556,16852,776
2.06237,543.55607,-1606,83785,30.9067,16852,776
2.17052,542.84689,-1605,83786,30.9067,16852,776
1.88099,541.87789,-1604,83787,31.056,16852,776
1.25061,542.8703,-1603,83788,31.2551,16852,776
1.43857,544.95127,-1602,83789,31.056,16852,776
3.02892,547.14308,-1601,83790,31.1058,16852,776
1.53168,548.41499,-1600,83791,31.2551,16852,776
2.21187,548.52983,-1599,83792,31.056,16852,776
1.96772,548.58275,-1598,83793,31.1556,16855,791
1.75781,548.01762,-1597,83794,31.056,16855,791
2.04146,546.93483,-1596,83795,31.056,16855,791
2.24397,545.65428,-1595,83796,30.9067,16855,791
2.45698,545.29198,-1594,83797,31.1556,16855,791
2.47824,545.50529,-1593,83798,31.056,16855,791
1.81651,545.80755,-1592,83799,31.3049,16855,791
1.96529,545.77167,-1591,83800,31.056,16855,791
2.58559,544.80657,-1590,83801,31.2551,16855,791
1.90617,542.92765,-1589,83802,31.056,16855,791
2.54094,540.90777,-1588,83803,31.1058,16860,798
2.12837,538.36614,-1587,83804,31.056,16860,798
1.98701,536.29773,-1586,83805,31.3049,16860,798
2.0693,533.99762,-1585,83806,31.1058,16860,798
2.27981,531.80209,-1584,83807,31.1058,16860,798
1.17188,530.01223,-1583,83808,31.2551,16860,798
2.28816,527.45589,-1582,83809,31.2551,16860,798
1.57769,524.21731,-1581,83810,31.2551,16860,798
1.54099,520.68857,-1580,83811,31.1058,16860,798
2.43358,516.81462,-1579,83812,30.9564,16860,798
1.86316,512.34581,-1578,83813,30.9564,16860,804
1.49385,507.16473,-1577,83814,31.2551,16860,804
1.09619,501.56922,-1576,83815,30.9067,16860,804
1.36019,495.70253,-1575,83816,30.9564,16860,804
1.4118,489.77301,-1574,83817,30.9564,16860,804
1.10916,482.97632,-1573,83818,31.1058,16860,804
1.81388,475.61591,-1572,83819,31.056,16860,804
1.79539,467.60013,-1571,83820,30.9564,16860,804
1.77132,459.71132,-1570,83821,31.1058,16860,804
1.46484,451.88863,-1569,83822,30.9564,16860,804
1.32827,444.12751,-1568,83823,31.1058,16863,809
2.11037,436.11421,-1567,83824,31.056,16863,809
0.905627,428.00987,-1566,83825,31.056,16863,809
1.99897,419.8979,-1565,83826,31.1058,16863,809
2.16392,411.29707,-1564,83827,31.056,16863,809
2.43358,402.50612,-1563,83828,31.1556,16863,809
1.50657,393.32568,-1562,83829,31.1058,16863,809
2.67443,383.92509,-1561,83830,30.9067,16863,809
1.22752,374.4624,-1560,83831,31.1058,16863,809
1.23912,364.96104,-1559,83832,30.8569,16863,809
1.71386,354.68997,-1558,83833,31.1556,16865,809
2.19238,344.74863,-1557,83834,31.056,16865,809
1.76052,335.07667,-1556,83835,30.9564,16865,809
1.66589,325.46232,-1555,83836,31.056,16865,809
1.92608,315.88799,-1554,83837,31.056,16865,809
2.50313,306.37095,-1553,83838,31.1058,16865,809
2.18802,296.40698,-1552,83839,31.056,16865,809
1.87592,286.20787,-1551,83840,31.2551,16865,809
1.59273,276.05337,-1550,83841,31.1556,16865,809
1.57769,265.74878,-1549,83842,31.056,16865,809
1.83479,255.478,-1548,83843,30.9067,16865,805
1.59273,245.11068,-1547,83844,31.056,16865,805
2.35997,235.36935,-1546,83845,31.2551,16865,805
2.8986,226.25047,-1545,83846,31.1058,16865,805
2.11488,217.82027,-1544,83847,31.056,16865,805
2.43358,209.94426,-1543,83848,31.056,16865,805
2.99568,202.26351,-1542,83849,31.056,16865,805
2.0785,194.11072,-1541,83850,30.9067,16865,805
2.18802,185.9449,-1540,83851,30.9067,16865,805
1.60168,177.81488,-1539,83852,31.056,16865,805
2.58005,169.12378,-1538,83853,31.056,16868,803
2.40203,160.23527,-1537,83854,30.9067,16868,803
2.55777,151.83221,-1536,83855,31.3049,16868,803
2.51832,144.28303,-1535,83856,31.056,16868,803
3.00997,137.47681,-1534,83857,31.056,16868,803
2.99568,131.23132,-1533,83858,31.056,16868,803
2.1771,125.65732,-1532,83859,31.1556,16868,803
2.18584,120.76746,-1531,83860,31.1058,16868,803
2.0762,116.56488,-1530,83861,31.056,16868,803
3.01472,113.25033,-1529,83862,31.2551,16868,803
3.0068,110.21482,-1528,83863,31.056,16869,806
2.7028,108.16029,-1527,83864,30.9564,16869,806
2.79815,106.91199,-1526,83865,31.056,16869,806
1.45176,106.61079,-1525,83866,31.1058,16869,806
2.31303,107.7316,-1524,83867,31.056,16869,806
1.91615,109.85853,-1523,83868,31.056,16869,806
1.82437,112.53221,-1522,83869,31.056,16869,806
1.94088,115.78586,-1521,83870,31.4045,16869,806
2.80666,119.61321,-1520,83871,30.9067,16869,806
1.98461,124.2223,-1519,83872,31.1556,16869,806
2.75868,129.43794,-1518,83873,30.9067,16862,810
1.80334,134.53599,-1517,83874,31.056,16862,810
1.22752,139.94545,-1516,83875,31.2551,16862,810
1.80598,145.30167,-1515,83876,31.056,16862,810
1.28447,151.02096,-1514,83877,31.1058,16862,810
1.51603,157.01246,-1513,83878,31.056,16862,810
2.09677,162.92678,-1512,83879,31.056,16862,810
1.71108,168.50382,-1511,83880,31.056,16862,810
1.80334,174.21401,-1510,83881,31.056,16862,810
1.14304,180.32169,-1509,83882,30.9564,16862,810
1.9942,186.88945,-1508,83883,30.9067,16868,823
1.04268,193.44031,-1507,83884,31.056,16868,823
2.09904,199.84718,-1506,83885,31.056,16868,823
1.28447,206.09001,-1505,83886,31.056,16868,823
1.06977,212.58947,-1504,83887,31.056,16868,823
0.981433,218.97189,-1503,83888,31.056,16868,823
2.49167,225.38167,-1502,83889,30.9067,16868,823
2.32332,231.47573,-1501,83890,30.9067,16868,823
1.19604,237.65447,-1500,83891,31.1058,16868,823
1.15548,244.86176,-1499,83892,30.9067,16868,823
3.90747,405.29178,-1498,83893,31.3049,16866,827
7.6478,855.00882,-1497,83894,31.056,16866,827
1.80334,745.19786,-1496,83895,30.9564,16866,827
0.577742,304.81067,-1495,83896,31.056,16866,827
1.44188,577.6295,-1494,83897,31.056,16866,827
1.38452,715.7687,-1493,83898,31.1058,16866,827
3.233,554.191,-1492,83899,31.1058,16866,827
2.48784,354.60039,-1491,83900,31.1556,16866,827
2.01324,258.68543,-1490,83901,30.9564,16866,827
1.59273,256.96891,-1489,83902,31.4045,16866,827
1.4118,291.73972,-1488,83903,31.056,16873,839
0.308816,311.48471,-1487,83904,31.1058,16873,839
1.64863,323.60511,-1486,83905,30.9564,16873,839
1.47781,316.49925,-1485,83906,31.1058,16873,839
2.27981,281.53643,-1484,83907,30.8569,16873,839
1.25442,240.66737,-1483,83908,31.1058,16873,839
1.71664,209.1663,-1482,83909,31.056,16873,839
2.04845,203.85709,-1481,83910,31.4045,16873,839
1.74693,231.31352,-1480,83911,30.9564,16873,839
2.38609,260.87011,-1479,83912,31.1058,16873,839
1.42859,272.55884,-1478,83913,31.3049,16863,852
1.82698,268.71938,-1477,83914,30.9067,16863,852
0.365396,256.71642,-1476,83915,31.056,16863,852
2.15066,242.19335,-1475,83916,31.056,16863,852
1.31745,229.55932,-1474,83917,31.2551,16863,852
1.41854,221.21734,-1473,83918,31.1556,16863,852
1.28817,218.07512,-1472,83919,31.2551,16863,852
1.98701,219.47207,-1471,83920,30.9564,16863,852
1.1596,223.15268,-1470,83921,31.056,16863,852
0.138107,225.69612,-1469,83922,31.1058,16863,852
1.59273,225.07942,-1468,83923,31.1058,16850,864
0.895034,221.18794,-1467,83924,31.056,16850,864
1.54099,215.59515,-1466,83925,31.2551,16850,864
1.44188,210.85787,-1465,83926,31.1058,16850,864
1.38452,207.71034,-1464,83927,31.1058,16850,864
2.06237,205.86187,-1463,83928,31.1058,16850,864
1.14304,204.49492,-1462,83929,31.1058,16850,864
2.19238,203.18845,-1461,83930,31.1556,16850,864
1.60168,201.18176,-1460,83931,31.1556,16850,864
1.49385,197.33035,-1459,83932,31.1058,16850,864
1.97498,192.65352,-1458,83933,30.9564,16842,862
1.27328,187.7412,-1457,83934,31.1058,16842,862
2.5782,182.6384,-1456,83935,31.1556,16842,862
1.95556,177.58252,-1455,83936,31.2551,16842,862
1.60466,172.27218,-1454,83937,31.056,16842,862
1.28447,166.63116,-1453,83938,31.1556,16842,862
1.48103,160.51415,-1452,83939,30.9564,16842,862
0.834375,154.02981,-1451,83940,30.9067,16842,862
1.60168,147.3288,-1450,83941,30.9564,16842,862
1.57769,140.30563,-1449,83942,31.056,16842,862
1.70829,133.54035,-1448,83943,31.056,16838,865
1.1472,126.84486,-1447,83944,30.9067,16838,865
1.1596,120.52835,-1446,83945,31.2551,16838,865
1.67446,115.00922,-1445,83946,31.2551,16838,865
1.70549,110.54274,-1444,83947,31.1556,16838,865
1.67161,107.70462,-1443,83948,31.2551,16838,865
2.41983,106.88349,-1442,83949,31.056,16838,865
1.63702,108.06981,-1441,83950,30.9564,16838,865
1.17998,110.87056,-1440,83951,30.9564,16838,865
1.22752,114.56843,-1439,83952,30.9564,16838,865
1.45505,119.36735,-1438,83953,31.056,16835,866
2.84379,125.19975,-1437,83954,30.7573,16835,866
1.63702,131.72999,-1436,83955,31.1058,16835,866
0.981433,138.57986,-1435,83956,31.2551,16835,866
1.79007,146.09506,-1434,83957,31.1556,16835,866
1.28817,154.21129,-1433,83958,31.1556,16835,866
0.840071,161.91972,-1432,83959,31.2551,16835,866
1.3029,169.18364,-1431,83960,30.8569,16835,866
0.966748,176.76026,-1430,83961,30.9067,16835,866
1.91864,183.04853,-1429,83962,31.056,16835,866
1.74966,189.85584,-1428,83963,30.9067,16831,869
1.69708,196.89593,-1427,83964,31.1556,16831,869
1.92608,203.50501,-1426,83965,31.056,16831,869
2.11037,209.3162,-1425,83966,30.9067,16831,869
1.74966,214.59343,-1424,83967,31.056,16831,869
1.31745,220.26349,-1423,83968,31.056,16831,869
1.39481,226.67418,-1422,83969,31.1058,16831,869
1.73872,233.94943,-1421,83970,31.3049,16831,869
0.710948,241.9933,-1420,83971,30.9564,16831,869
1.51603,250.22949,-1419,83972,30.9067,16831,869
1.30655,258.06152,-1418,83973,30.9564,16833,874
1.62826,265.81648,-1417,83974,31.056,16833,874
2.02504,274.02708,-1416,83975,31.056,16833,874
1.75781,281.82948,-1415,83976,31.056,16833,874
1.43525,289.32915,-1414,83977,31.056,16833,874
1.02423,296.82907,-1413,83978,30.9564,16833,874
1.1596,304.17958,-1412,83979,31.056,16833,874
0.811194,311.60467,-1411,83980,30.9067,16833,874
2.26091,318.32647,-1410,83981,31.056,16833,874
0.78733,324.25533,-1409,83982,30.9564,16833,874
1.5034,330.17355,-1408,83983,31.1058,16842,875
0.218366,336.18583,-1407,83984,31.056,16842,875
1.56555,342.44258,-1406,83985,31.1058,16842,875
1.10916,348.62758,-1405,83986,31.1058,16842,875
1.09619,354.80824,-1404,83987,31.1058,16842,875
0.916097,361.21616,-1403,83988,31.1556,16842,875
1.80334,367.88902,-1402,83989,31.3049,16842,875
2.54094,374.60197,-1401,83990,31.056,16842,875
1.13045,380.36312,-1400,83991,31.056,16842,875
1.39481,384.95076,-1399,83992,31.1058,16842,875
0.981433,389.60317,-1398,83993,31.056,16847,877
0.710948,395.13611,-1397,83994,30.9564,16847,877
1.26953,400.84926,-1396,83995,31.1058,16847,877
1.19205,405.97035,-1395,83996,31.056,16847,877
1.958,410.4089,-1394,83997,31.1058,16847,877
1.43857,414.7867,-1393,83998,30.9564,16847,877
1.46158,418.97044,-1392,83999,31.056,16847,877
1.59273,423.42876,-1391,84000,30.9564,16847,877
0.878906,427.99136,-1390,84001,31.3049,16847,877
1.74966,432.75436,-1389,84002,31.056,16847,877
2.05078,437.05422,-1388,84003,30.9564,16847,870
0.768946,440.85323,-1387,84004,31.056,16847,870
1.24679,444.28721,-1386,84005,30.9067,16847,870
1.49385,447.32028,-1385,84006,30.9564,16847,870
2.11263,450.01517,-1384,84007,30.9067,16847,870
1.57163,452.15017,-1383,84008,31.056,16847,870
1.52231,454.07088,-1382,84009,31.1058,16847,870
1.80334,455.99852,-1381,84010,31.056,16847,870
2.04146,457.5415,-1380,84011,31.3049,16847,870
2.54282,458.46307,-1379,84012,31.1556,16847,870
1.91864,459.09509,-1378,84013,31.3049,16849,858
2.77763,459.43054,-1377,84014,30.9564,16849,858
2.21187,459.43784,-1376,84015,31.056,16849,858
1.20399,459.39276,-1375,84016,31.1058,16849,858
2.00612,459.08048,-1374,84017,31.056,16849,858
2.08079,458.49463,-1373,84018,30.9067,16849,858
2.67264,457.77454,-1372,84019,31.2551,16849,858
1.23912,457.1947,-1371,84020,31.1556,16849,858
1.68014,456.16751,-1370,84021,31.056,16849,858
1.98461,454.90733,-1369,84022,31.056,16849,858
2.22047,453.44289,-1368,84023,30.9067,16857,848
2.03444,451.53861,-1367,84024,31.1058,16857,848
1.53168,449.58728,-1366,84025,30.9067,16857,848
1.36019,447.30888,-1365,84026,31.056,16857,848
2.25668,444.92733,-1364,84027,30.9067,16857,848
2.08537,442.50805,-1363,84028,31.1058,16857,848
2.11263,440.34926,-1362,84029,31.056,16857,848
1.22752,438.09804,-1361,84030,31.056,16857,848
1.61945,435.85639,-1360,84031,31.2551,16857,848
2.0785,433.47864,-1359,84032,31.3049,16857,848
1.88099,431.23642,-1358,84033,31.2551,16860,840
1.958,429.04009,-1357,84034,31.1556,16860,840
2.48976,426.80833,-1356,84035,31.1556,16860,840
1.99897,424.71316,-1355,84036,30.9067,16860,840
2.77763,422.55437,-1354,84037,31.1556,16860,840
1.79539,419.93162,-1353,84038,31.1556,16860,840
1.67446,416.88677,-1352,84039,30.9067,16860,840
2.31715,413.32146,-1351,84040,31.1058,16860,840
2.0693,409.50007,-1350,84041,31.056,16860,840
2.16171,405.00314,-1349,84042,31.056,16860,840
2.18366,400.48485,-1348,84043,31.056,16866,835
1.72495,395.92446,-1347,84044,31.2551,16866,835
2.03209,391.02903,-1346,84045,30.8569,16866,835
2.64033,388.3323,-1345,84046,30.9564,16866,835
1.80334,388.87036,-1344,84047,30.9564,16866,835
1.17998,395.61668,-1343,84048,31.056,16866,835
2.0716,461.2815,-1342,84049,31.056,16866,835
1.48746,435.14,-1341,84050,31.1058,16866,835
1.28447,273.23724,-1340,84051,30.9067,16866,835
1.47134,143.2624,-1339,84052,30.9067,16866,835
1.85804,221.4517,-1338,84053,31.056,16870,829
1.92608,325.90613,-1337,84054,30.9067,16870,829
1.3461,382.25117,-1336,84055,31.1058,16870,829
1.9335,374.57812,-1335,84056,31.1058,16870,829
2.03444,315.52968,-1334,84057,31.3049,16870,829
1.79804,242.0055,-1333,84058,31.056,16870,829
1.38452,194.94724,-1332,84059,31.056,16870,829
2.01324,191.9221,-1331,84060,31.056,16870,829
1.68014,224.71954,-1330,84061,31.1058,16870,829
2.33151,272.82292,-1329,84062,31.056,16870,829
2.76559,312.97319,-1328,84063,31.1058,16869,826
1.46484,327.43968,-1327,84064,30.9564,16869,826
1.66875,313.96999,-1326,84065,31.1058,16869,826
1.10916,287.55374,-1325,84066,31.1058,16869,826
1.74966,267.44045,-1324,84067,31.1058,16869,826
1.9918,264.59511,-1323,84068,31.2551,16869,826
2.14177,277.29921,-1322,84069,31.056,16869,826
0.889691,297.09765,-1321,84070,30.9564,16869,826
1.68863,312.67681,-1320,84071,31.2551,16869,826
1.40163,318.47033,-1319,84072,31.056,16869,826
1.6165,316.03874,-1318,84073,31.1556,16866,832
1.19205,312.5246,-1317,84074,31.056,16866,832
1.95556,313.79719,-1316,84075,31.056,16866,832
1.87592,321.68467,-1315,84076,30.9564,16866,832
1.69708,331.23354,-1314,84077,31.056,16866,832
1.66303,333.34953,-1313,84078,30.9067,16866,832
0.601994,329.76777,-1312,84079,31.056,16866,832
1.52544,323.46482,-1311,84080,31.1058,16866,832
1.85547,318.09139,-1310,84081,30.9564,16866,832
1.11345,318.23618,-1309,84082,31.2551,16866,832
1.50022,332.32384,-1308,84083,31.2551,16866,830
2.48784,350.65236,-1307,84084,30.9564,16866,830
1.66303,343.41596,-1306,84085,31.056,16866,830
0.525895,311.0141,-1305,84086,31.1556,16866,830
0.926449,280.4903,-1304,84087,31.056,16866,830
1.83739,274.92917,-1303,84088,31.056,16866,830
0.817051,291.18573,-1302,84089,30.9067,16866,830
3.03364,311.45622,-1301,84090,31.056,16866,830
1.02423,323.29282,-1300,84091,31.056,16866,830
2.26301,327.35814,-1299,84092,31.056,16866,830
1.70829,328.90649,-1298,84093,30.8569,16860,830
1.79539,330.91625,-1297,84094,31.056,16860,830
1.68298,332.67334,-1296,84095,31.1058,16860,830
2.10585,331.52218,-1295,84096,31.056,16860,830
1.69427,327.77707,-1294,84097,31.056,16860,830
1.77132,325.08415,-1293,84098,31.056,16860,830
1.90617,326.19686,-1292,84099,31.056,16860,830
2.11714,331.17291,-1291,84100,30.8569,16860,830
2.16171,337.87281,-1290,84101,31.056,16860,830
1.66016,343.1466,-1289,84102,31.056,16860,830
2.37809,345.92431,-1288,84103,31.3049,16860,827
0.966748,347.02018,-1287,84104,31.056,16860,827
2.33151,347.35472,-1286,84105,31.1556,16860,827
1.33543,348.70743,-1285,84106,31.1058,16860,827
2.16612,351.51954,-1284,84107,31.2551,16860,827
1.47458,354.44506,-1283,84108,31.4045,16860,827
1.27328,357.8523,-1282,84109,31.056,16860,827
1.67161,361.36231,-1281,84110,31.056,16860,827
1.87846,364.75314,-1280,84111,30.8569,16860,827
2.02269,368.02341,-1279,84112,31.1058,16860,827
2.33151,371.29258,-1278,84113,30.9564,16850,822
2.43162,374.43566,-1277,84114,30.8569,16850,822
1.60466,377.86898,-1276,84115,30.9564,16850,822
2.18584,381.00171,-1275,84116,31.056,16850,822
2.34985,384.299,-1274,84117,31.056,16850,822
2.11714,388.01195,-1273,84118,31.056,16850,822
2.71512,391.60194,-1272,84119,31.3049,16850,822
2.40995,395.44155,-1271,84120,30.9067,16850,822
1.63702,399.37782,-1270,84121,30.9564,16850,822
1.31383,403.4016,-1269,84122,31.056,16850,822
2.0156,408.24023,-1268,84123,31.4045,16851,808
1.83998,414.76821,-1267,84124,31.1058,16851,808
1.77132,430.79782,-1266,84125,31.1058,16851,808
4.01342,532.58926,-1265,84126,30.9564,16851,808
0.931581,587.35933,-1264,84127,30.9564,16851,808
1.46484,455.72379,-1263,84128,31.2551,16851,808
1.47134,307.09516,-1262,84129,31.1556,16851,808
2.41391,240.05005,-1261,84130,30.8569,16851,808
2.32332,273.73189,-1260,84131,31.1058,16851,808
2.57264,334.58121,-1259,84132,31.1058,16851,808
1.52544,375.56473,-1258,84133,31.056,16853,792
1.58973,385.46386,-1257,84134,31.056,16853,792
2.88375,369.97442,-1256,84135,30.9564,16853,792
1.92608,345.50093,-1255,84136,31.056,16853,792
1.98701,327.01406,-1254,84137,31.056,16853,792
1.66016,320.77335,-1253,84138,31.2551,16853,792
1.86827,328.94914,-1252,84139,31.1058,16853,792
1.82698,341.18851,-1251,84140,31.1058,16853,792
2.12837,342.97463,-1250,84141,31.1058,16853,792
1.23912,339.45528,-1249,84142,31.056,16853,792
2.24822,337.03985,-1248,84143,31.056,16850,775
1.51917,335.28137,-1247,84144,31.056,16850,775
2.54844,330.20326,-1246,84145,30.9067,16850,775
2.49549,322.38735,-1245,84146,30.9564,16850,775
2.03444,315.63276,-1244,84147,31.1556,16850,775
2.48976,314.52898,-1243,84148,31.2551,16850,775
1.97498,316.2757,-1242,84149,31.1556,16850,775
1.88353,316.5753,-1241,84150,31.1058,16850,775
1.78206,316.24357,-1240,84151,31.1556,16850,775
1.41854,314.07138,-1239,84152,30.9564,16850,775
1.60466,313.90252,-1238,84153,31.056,16852,758
0.805294,341.7901,-1237,84154,31.056,16852,758
2.27352,368.22764,-1236,84155,30.9067,16852,758
1.57466,308.23827,-1235,84156,31.1058,16852,758
1.66303,246.9569,-1234,84157,31.1058,16852,758
0.817051,257.83336,-1233,84158,31.2551,16852,758
1.47134,302.85027,-1232,84159,31.1058,16852,758
1.59273,327.5477,-1231,84160,30.9564,16852,758
1.81388,324.49214,-1230,84161,31.1058,16852,758
2.35593,302.79752,-1229,84162,31.056,16852,758
1.94088,280.48934,-1228,84163,30.8569,16853,742
1.4681,272.70885,-1227,84164,31.056,16853,742
2.55777,276.68612,-1226,84165,31.056,16853,742
2.31303,277.7873,-1225,84166,31.1058,16853,742
1.70549,273.36605,-1224,84167,31.056,16853,742
1.70829,275.49301,-1223,84168,31.056,16853,742
2.02269,288.82803,-1222,84169,31.1556,16853,742
1.77132,302.06661,-1221,84170,31.056,16853,742
0.966748,303.34667,-1220,84171,31.1058,16853,742
1.60466,293.72598,-1219,84172,31.2551,16853,742
0.98628,284.23175,-1218,84173,30.9564,16851,726
1.69146,281.56541,-1217,84174,30.9564,16851,726
1.47458,280.89209,-1216,84175,31.056,16851,726
2.14399,280.4721,-1215,84176,31.056,16851,726
1.66589,281.5774,-1214,84177,30.9067,16851,726
1.48103,285.73458,-1213,84178,31.1058,16851,726
2.25034,289.97522,-1212,84179,30.9564,16851,726
2.02504,289.45286,-1211,84180,31.056,16851,726
1.32827,292.56938,-1210,84181,31.1556,16851,726
1.40163,300.86533,-1209,84182,31.056,16851,726
2.50313,305.99563,-1208,84183,31.4045,16858,711
1.97739,304.47439,-1207,84184,30.9067,16858,711
0.525895,299.05914,-1206,84185,31.2551,16858,711
1.71664,291.49376,-1205,84186,31.1556,16858,711
1.65152,285.37154,-1204,84187,31.056,16858,711
2.08537,282.31702,-1203,84188,31.056,16858,711
1.70549,276.59021,-1202,84189,31.1058,16858,711
2.98771,272.18149,-1201,84190,31.056,16858,711
1.33185,270.5331,-1200,84191,31.056,16858,711
1.08306,270.76202,-1199,84192,31.1556,16858,711
1.46484,269.82662,-1198,84193,31.2551,16854,697
2.60945,266.90157,-1197,84194,31.056,16854,697
1.36019,262.56609,-1196,84195,31.2551,16854,697
1.41517,259.33119,-1195,84196,31.056,16854,697
1.98701,257.47233,-1194,84197,31.3049,16854,697
2.11037,255.79658,-1193,84198,30.8569,16854,697
1.13045,254.5286,-1192,84199,31.1058,16854,697
1.21188,253.53372,-1191,84200,31.1058,16854,697
1.70549,253.26804,-1190,84201,31.056,16854,697
1.45505,254.00676,-1189,84202,31.056,16854,697
2.38809,255.37699,-1188,84203,31.056,16856,685
1.8529,256.5564,-1187,84204,30.9564,16856,685
1.47458,257.31267,-1186,84205,30.9067,16856,685
1.9798,257.45928,-1185,84206,31.3049,16856,685
1.83479,256.30284,-1184,84207,31.056,16856,685
1.13886,253.98309,-1183,84208,31.1556,16856,685
1.70829,250.72211,-1182,84209,31.1058,16856,685
1.37415,247.25808,-1181,84210,31.1556,16856,685
1.63702,244.43128,-1180,84211,30.8569,16856,685
1.59273,242.09498,-1179,84212,30.9067,16856,685
1.54099,239.58802,-1178,84213,31.056,16854,673
1.40163,236.88451,-1177,84214,31.056,16854,673
2.30063,234.34133,-1176,84215,30.9564,16854,673
2.08765,232.29166,-1175,84216,31.056,16854,673
1.44188,230.77744,-1174,84217,30.9067,16854,673
1.33185,229.51413,-1173,84218,31.056,16854,673
1.61355,228.16744,-1172,84219,31.1058,16854,673
1.10916,226.81817,-1171,84220,31.056,16854,673
1.66016,225.39195,-1170,84221,30.9067,16854,673
1.6341,223.79783,-1169,84222,31.1058,16854,673
1.69146,221.65784,-1168,84223,30.9067,16852,660
1.71108,218.68725,-1167,84224,31.1058,16852,660
1.49066,215.23385,-1166,84225,31.1058,16852,660
2.1573,211.04379,-1165,84226,31.056,16852,660
1.80598,207.19827,-1164,84227,30.9564,16852,660
1.22752,203.22892,-1163,84228,31.056,16852,660
2.14622,199.39351,-1162,84229,31.1058,16852,660
0.905627,195.62616,-1161,84230,31.056,16852,660
1.83739,192.12192,-1160,84231,30.9564,16852,660
2.61493,188.7929,-1159,84232,31.056,16852,660
1.67446,185.70105,-1158,84233,31.056,16850,652
2.04845,182.58251,-1157,84234,31.056,16850,652
1.64863,179.83232,-1156,84235,31.056,16850,652
1.85804,177.3793,-1155,84236,31.056,16850,652
2.24822,174.89826,-1154,84237,30.9564,16850,652
0.878906,172.97656,-1153,84238,31.056,16850,652
1.85804,171.651,-1152,84239,31.1556,16850,652
2.03209,170.26918,-1151,84240,31.056,16850,652
2.04845,168.58379,-1150,84241,31.056,16850,652
1.53168,166.73415,-1149,84242,30.9564,16850,652
1.39139,164.73817,-1148,84243,30.9564,16854,643
1.16371,162.41968,-1147,84244,30.9564,16854,643
1.98461,160.62551,-1146,84245,31.3049,16854,643
1.51917,158.7705,-1145,84246,31.1058,16854,643
1.43857,156.73586,-1144,84247,31.2551,16854,643
1.3461,154.8776,-1143,84248,31.2551,16854,643
2.42376,152.64364,-1142,84249,31.2551,16854,643
2.16392,149.67807,-1141,84250,31.056,16854,643
1.52544,146.39595,-1140,84251,30.9067,16854,643
1.25821,143.56662,-1139,84252,31.1556,16854,643
1.79804,142.24984,-1138,84253,31.1058,16854,634
1.81388,142.66469,-1137,84254,31.2551,16854,634
2.19238,144.61422,-1136,84255,30.9067,16854,634
1.52231,146.51163,-1135,84256,31.056,16854,634
1.76323,148.60139,-1134,84257,31.1058,16854,634
1.86572,152.28808,-1133,84258,31.1556,16854,634
0.926449,161.6752,-1132,84259,31.056,16854,634
1.52856,151.04084,-1131,84260,31.1058,16854,634
1.37067,160.60283,-1130,84261,31.2551,16854,634
1.59273,314.54469,-1129,84262,31.056,16854,634
2.82698,594.52085,-1128,84263,31.1058,16855,625
4.12475,914.8955,-1127,84264,31.3049,16855,625
5.19876,1152.9298,-1126,84265,31.056,16855,625
5.91929,1206.7393,-1125,84266,30.9067,16855,625
8.02625,1028.8521,-1124,84267,31.2551,16855,625
8.11546,682.60471,-1123,84268,31.056,16855,625
7.6876,452.29805,-1122,84269,31.1058,16855,625
4.94299,629.56489,-1121,84270,31.3049,16855,625
5.27434,893.07133,-1120,84271,31.1058,16855,625
3.20038,1056.556,-1119,84272,31.056,16855,625
2.65115,1058.207,-1118,84273,31.056,16855,618
1.90867,947.82736,-1117,84274,31.1058,16855,618
2.48016,923.28699,-1116,84275,30.9067,16855,618
1.69708,1105.3396,-1115,84276,31.1058,16855,618
2.44336,1319.9494,-1114,84277,30.9067,16855,618
4.10621,1406.5979,-1113,84278,31.056,16855,618
3.54399,1342.1034,-1112,84279,31.056,16855,618
3.84349,1193.5436,-1111,84280,31.056,16855,618
3.86946,1018.9442,-1110,84281,31.056,16855,618
3.57347,860.16138,-1109,84282,31.056,16855,618
3.33893,792.99044,-1108,84283,31.1058,16838,614
3.88912,809.07279,-1107,84284,31.056,16838,614
3.68127,807.65257,-1106,84285,31.056,16838,614
4.49006,744.02851,-1105,84286,30.9067,16838,614
3.53995,633.16497,-1104,84287,31.056,16838,614
3.77843,517.1728,-1103,84288,31.056,16838,614
3.26966,446.75021,-1102,84289,31.056,16838,614
4.05244,395.9929,-1101,84290,30.9564,16838,614
3.054,387.76653,-1100,84291,31.056,16838,614
3.03835,463.11635,-1099,84292,31.3049,16838,614
2.954,557.62053,-1098,84293,31.056,16838,636
3.62645,608.26632,-1097,84294,31.1058,16838,636
3.06491,592.04557,-1096,84295,31.1058,16838,636
3.34891,527.44695,-1095,84296,31.056,16838,636
2.32332,478.03648,-1094,84297,31.056,16838,636
2.17052,484.59762,-1093,84298,31.3049,16838,636
2.32126,472.66011,-1092,84299,31.2551,16838,636
3.88299,482.34165,-1091,84300,31.056,16838,636
2.34578,519.6333,-1090,84301,31.1556,16838,636
0.966748,763.42134,-1089,84302,31.1058,16838,636
1.61945,1146.5597,-1088,84303,30.9067,16834,650
2.34782,1308.3588,-1087,84304,30.9067,16834,650
1.77938,1180.8597,-1086,84305,31.056,16834,650
2.97812,901.73756,-1085,84306,31.056,16834,650
2.56336,637.49812,-1084,84307,31.4045,16834,650
2.08079,498.90955,-1083,84308,31.2551,16834,650
2.44531,511.68164,-1082,84309,31.056,16834,650
1.06082,587.58575,-1081,84310,31.056,16834,650
1.66016,663.3653,-1080,84311,31.2551,16834,650
3.45129,719.1149,-1079,84312,31.056,16834,650
2.33151,745.23243,-1078,84313,31.056,16822,677
2.38409,741.52901,-1077,84314,31.1058,16822,677
1.47458,710.88109,-1076,84315,31.056,16822,677
3.09741,668.63611,-1075,84316,30.9067,16822,677
2.65115,640.07542,-1074,84317,31.1556,16822,677
2.40995,642.12115,-1073,84318,30.8569,16822,677
2.82529,658.23987,-1072,84319,31.2551,16822,677
1.89865,673.74365,-1071,84320,31.056,16822,677
2.77935,688.81286,-1070,84321,31.056,16822,677
2.44921,691.13421,-1069,84322,30.9067,16822,677
2.37005,678.81956,-1068,84323,30.9067,16818,713
2.12613,665.54665,-1067,84324,31.2551,16818,713
2.83708,655.22843,-1066,84325,31.056,16818,713
2.85384,646.77582,-1065,84326,30.9564,16818,713
2.11714,639.65837,-1064,84327,31.056,16818,713
1.96529,637.08707,-1063,84328,31.1058,16818,713
2.28816,633.98447,-1062,84329,30.9067,16818,713
1.98701,630.18657,-1061,84330,30.8569,16818,713
2.64033,622.55688,-1060,84331,30.9564,16818,713
2.62948,606.79793,-1059,84332,30.8569,16818,713
2.3539,589.79769,-1058,84333,31.1058,16812,761
1.69708,579.28374,-1057,84334,31.1058,16812,761
2.15951,572.16862,-1056,84335,31.1556,16812,761
2.41983,566.32528,-1055,84336,31.056,16812,761
1.63993,558.19936,-1054,84337,31.4045,16812,761
1.80334,551.62606,-1053,84338,31.1556,16812,761
0.931581,552.43931,-1052,84339,30.9564,16812,761
1.28817,557.08223,-1051,84340,31.056,16812,761
2.57079,559.55142,-1050,84341,31.056,16812,761
2.22262,554.7939,-1049,84342,31.1556,16812,761
2.0739,545.46366,-1048,84343,30.9067,16812,787
1.3029,542.48949,-1047,84344,31.3049,16812,787
0.895034,555.31171,-1046,84345,31.056,16812,787
1.63702,581.90744,-1045,84346,31.056,16812,787
1.91864,609.53175,-1044,84347,30.9564,16812,787
0.601994,625.0591,-1043,84348,31.1058,16812,787
2.51832,627.81429,-1042,84349,30.9564,16812,787
2.12388,636.804,-1041,84350,30.9067,16812,787
0.768946,656.18554,-1040,84351,31.1058,16812,787
1.50657,659.50444,-1039,84352,31.1556,16812,787
2.31303,641.07519,-1038,84353,31.056,16809,787
1.40163,630.45327,-1037,84354,31.056,16809,787
1.07865,649.31228,-1036,84355,31.056,16809,787
2.23332,692.19242,-1035,84356,31.1058,16809,787
2.33356,739.1106,-1034,84357,31.3049,16809,787
0.458048,771.07024,-1033,84358,31.056,16809,787
1.26953,782.43761,-1032,84359,31.056,16809,787
0.750112,780.31122,-1031,84360,31.056,16809,787
1.94088,772.93033,-1030,84361,31.1058,16809,787
2.37206,765.52178,-1029,84362,31.056,16809,787
1.99659,759.56176,-1028,84363,31.056,16809,815
1.49066,749.56052,-1027,84364,31.056,16809,815
2.03444,730.34735,-1026,84365,31.2551,16809,815
2.91337,705.06735,-1025,84366,31.056,16809,815
1.86572,677.02914,-1024,84367,31.056,16809,815
2.18584,648.38409,-1023,84368,31.056,16809,815
2.01324,618.49332,-1022,84369,31.056,16809,815
1.67446,586.17586,-1021,84370,30.9067,16809,815
1.45176,552.15853,-1020,84371,31.056,16809,815
1.56859,520.9281,-1019,84372,31.056,16809,815
2.31715,500.59145,-1018,84373,30.9067,16819,855
1.89865,494.03922,-1017,84374,31.056,16819,855
1.43857,493.30728,-1016,84375,31.1556,16819,855
2.81175,494.03956,-1015,84376,31.056,16819,855
2.4974,496.8956,-1014,84377,31.056,16819,855
2.97812,498.87725,-1013,84378,31.1058,16819,855
3.51969,492.84248,-1012,84379,31.1058,16819,855
2.62766,481.09398,-1011,84380,31.056,16819,855
2.63672,471.48534,-1010,84381,31.056,16819,855
2.58559,467.61867,-1009,84382,31.1058,16819,855
3.00997,471.38715,-1008,84383,30.9564,16818,882
3.17495,482.12473,-1007,84384,31.056,16818,882
2.09904,495.7576,-1006,84385,31.1556,16818,882
2.80836,509.24529,-1005,84386,31.056,16818,882
2.43358,519.91714,-1004,84387,31.1058,16818,882
2.29024,525.41945,-1003,84388,31.1058,16818,882
2.36602,528.18744,-1002,84389,30.9067,16818,882
3.49931,537.14224,-1001,84390,31.056,16818,882
2.08079,559.61497,-1000,84391,31.3049,16818,882
2.50693,601.05054,-999,84392,31.1058,16818,882
3.00997,659.5037,-998,84393,30.8569,16822,888
2.04146,724.46945,-997,84394,31.056,16822,888
2.26091,779.10129,-996,84395,31.1058,16822,888
3.38995,809.83511,-995,84396,30.8569,16822,888
2.56336,814.26727,-994,84397,31.1058,16822,888
2.43358,795.1355,-993,84398,30.9067,16822,888
2.41193,755.73231,-992,84399,31.1058,16822,888
2.48784,700.36712,-991,84400,31.056,16822,888
2.35997,634.99794,-990,84401,31.1058,16822,888
2.11488,565.28814,-989,84402,31.1058,16822,888
2.09904,498.79062,-988,84403,31.1058,16829,885
1.07422,446.4022,-987,84404,31.1058,16829,885
0.916097,415.05437,-986,84405,31.1058,16829,885
2.01324,403.57082,-985,84406,30.9067,16829,885
1.82698,407.01014,-984,84407,31.3049,16829,885
1.61059,419.72029,-983,84408,30.9067,16829,885
1.86827,438.86445,-982,84409,31.3049,16829,885
1.58673,463.29318,-981,84410,31.2551,16829,885
0.750112,486.30142,-980,84411,31.1058,16829,885
2.0156,500.82539,-979,84412,31.056,16829,885
1.82698,502.1479,-978,84413,31.1058,16843,885
1.49066,488.99906,-977,84414,31.2551,16843,885
1.71386,462.83004,-976,84415,31.2551,16843,885
2.27143,429.08458,-975,84416,31.1556,16843,885
1.69708,395.19786,-974,84417,31.056,16843,885
2.05078,364.44866,-973,84418,31.056,16843,885
2.02504,336.43805,-972,84419,31.3049,16843,885
1.45505,308.69111,-971,84420,31.056,16843,885
2.56522,281.71027,-970,84421,31.056,16843,885
2.30684,256.49134,-969,84422,31.1556,16843,885
3.12653,235.8599,-968,84423,31.056,16850,882
2.96689,220.75247,-967,84424,31.056,16850,882
1.958,210.29966,-966,84425,31.3049,16850,882
2.0716,202.06251,-965,84426,31.1058,16850,882
2.59663,194.85565,-964,84427,31.1556,16850,882
2.56522,190.04638,-963,84428,31.056,16850,882
2.6131,186.3492,-962,84429,31.3049,16850,882
1.55332,183.10616,-961,84430,31.056,16850,882
1.70829,179.9251,-960,84431,31.1058,16850,882
1.98461,177.25059,-959,84432,31.056,16850,882
2.59295,174.43006,-958,84433,31.2551,16866,874
2.15951,170.46655,-957,84434,31.056,16866,874
1.79539,165.77036,-956,84435,31.056,16866,874
1.73323,162.92665,-955,84436,31.056,16866,874
1.70549,162.52666,-954,84437,31.056,16866,874
1.87592,163.94307,-953,84438,31.056,16866,874
2.77763,167.80677,-952,84439,30.9564,16866,874
2.05078,174.27695,-951,84440,31.4045,16866,874
1.74966,182.76881,-950,84441,31.056,16866,874
2.19672,192.02688,-949,84442,30.9067,16866,874
2.44336,201.53705,-948,84443,31.1556,16881,856
2.45698,210.88416,-947,84444,30.9067,16881,856
2.44531,219.83196,-946,84445,31.1058,16881,856
1.68298,228.77195,-945,84446,31.1556,16881,856
1.75238,238.53479,-944,84447,31.056,16881,856
1.00543,249.30837,-943,84448,30.9564,16881,856
3.33464,262.36048,-942,84449,31.056,16881,856
1.86316,276.92279,-941,84450,31.056,16881,856
2.36199,291.10732,-940,84451,31.1058,16881,856
0.889691,304.34582,-939,84452,31.056,16881,856
1.8529,316.93737,-938,84453,31.1058,16886,842
1.19604,329.77518,-937,84454,31.056,16886,842
1.51603,344.24826,-936,84455,31.1058,16886,842
2.66729,359.59422,-935,84456,31.056,16886,842
2.90517,373.39227,-934,84457,31.2551,16886,842
1.57466,384.26594,-933,84458,31.1058,16886,842
1.63702,391.95152,-932,84459,31.3049,16886,842
2.33151,399.27124,-931,84460,31.2551,16886,842
2.75695,409.7776,-930,84461,31.056,16886,842
2.35997,423.8688,-929,84462,31.2551,16886,842
2.47246,439.99312,-928,84463,31.056,16885,836
1.74146,455.91783,-927,84464,30.9067,16885,836
1.60168,469.15522,-926,84465,31.2551,16885,836
2.59663,478.35818,-925,84466,30.9564,16885,836
0.447517,484.67727,-924,84467,31.1556,16885,836
2.03444,491.14756,-923,84468,30.9067,16885,836
2.0693,499.73156,-922,84469,31.056,16885,836
1.20794,511.53702,-921,84470,31.056,16885,836
1.38452,525.43992,-920,84471,31.3049,16885,836
2.39407,539.7166,-919,84472,31.1058,16885,836
1.20399,553.2705,-918,84473,30.9067,16863,841
1.23912,565.02371,-917,84474,31.056,16863,841
2.0156,576.1343,-916,84475,31.056,16863,841
2.23332,587.58461,-915,84476,30.9564,16863,841
0.889691,598.52898,-914,84477,31.3049,16863,841
2.50693,607.84116,-913,84478,31.056,16863,841
2.58743,614.79285,-912,84479,30.9564,16863,841
1.90116,618.84574,-911,84480,31.056,16863,841
1.96772,620.9066,-910,84481,30.9067,16863,841
1.84257,623.92338,-909,84482,31.2551,16863,841
2.21187,627.28522,-908,84483,31.056,16840,834
1.86316,628.94608,-907,84484,31.056,16840,834
1.68014,629.05949,-906,84485,30.9067,16840,834
2.39805,628.95578,-905,84486,31.056,16840,834
1.78473,628.62083,-904,84487,31.3049,16840,834
1.73872,628.73831,-903,84488,30.9564,16840,834
2.88706,630.92766,-902,84489,31.056,16840,834
2.64575,633.49178,-901,84490,31.056,16840,834
2.55031,635.69378,-900,84491,31.2551,16840,834
2.6655,637.66217,-899,84492,31.056,16840,834
2.0716,639.38371,-898,84493,31.056,16828,821
2.32946,639.2848,-897,84494,31.3049,16828,821
2.63672,635.71544,-896,84495,30.9067,16828,821
3.56947,630.41934,-895,84496,31.1058,16828,821
2.64935,626.14752,-894,84497,30.9564,16828,821
2.25034,619.89187,-893,84498,31.056,16828,821
2.85384,608.77933,-892,84499,31.1556,16828,821
2.48784,595.93708,-891,84500,31.1556,16828,821
2.51263,584.39668,-890,84501,31.056,16828,821
2.80496,570.63698,-889,84502,31.3049,16828,821
3.51291,554.67413,-888,84503,31.2551,16820,804
2.30477,539.99687,-887,84504,31.056,16820,804
2.9717,526.25476,-886,84505,31.1556,16820,804
3.64089,512.54308,-885,84506,31.1556,16820,804
2.56708,499.28717,-884,84507,30.9067,16820,804
2.3027,487.37937,-883,84508,31.3049,16820,804
1.84257,478.06121,-882,84509,30.9564,16820,804
1.74146,471.94996,-881,84510,31.056,16820,804
2.65115,468.09637,-880,84511,31.3049,16820,804
2.79815,467.07377,-879,84512,31.2551,16820,804
2.29856,469.25308,-878,84513,31.056,16827,780
1.53168,472.83519,-877,84514,31.2551,16827,780
4.37931,593.88256,-876,84515,31.056,16827,780
6.86448,895.66998,-875,84516,30.9067,16827,780
3.28857,933.40253,-874,84517,31.1058,16827,780
2.58005,585.89051,-873,84518,31.056,16827,780
1.75238,266.60992,-872,84519,31.2551,16827,780
1.45176,361.90206,-871,84520,31.3049,16827,780
2.32946,307.50687,-870,84521,30.9067,16827,780
3.13414,151.58327,-869,84522,31.1058,16827,780
3.41378,328.2872,-868,84523,31.056,16832,766
1.83739,493.7355,-867,84524,31.056,16832,766
1.95556,549.95711,-866,84525,30.9067,16832,766
2.38209,518.35817,-865,84526,31.1058,16832,766
2.96367,416.9802,-864,84527,31.1058,16832,766
2.81853,302.18567,-863,84528,31.056,16832,766
2.56893,202.65279,-862,84529,30.9564,16832,766
2.5353,159.33216,-861,84530,31.1556,16832,766
3.06491,167.51588,-860,84531,30.9067,16832,766
2.58005,183.81548,-859,84532,30.9067,16832,766
1.68581,191.38371,-858,84533,31.1058,16825,770
2.61493,196.06244,-857,84534,31.056,16825,770
2.87382,204.13084,-856,84535,30.9067,16825,770
2.61128,220.6204,-855,84536,31.1058,16825,770
1.92608,244.47639,-854,84537,31.1058,16825,770
2.36199,264.7073,-853,84538,30.9564,16825,770
1.80069,271.17598,-852,84539,31.056,16825,770
2.77247,262.59376,-851,84540,31.056,16825,770
1.66016,243.84076,-850,84541,31.1556,16825,770
1.67161,223.82879,-849,84542,31.056,16825,770
2.14177,211.38247,-848,84543,31.1058,16829,754
2.32946,214.17987,-847,84544,31.056,16829,754
1.65152,265.27264,-846,84545,30.9564,16829,754
1.11345,368.24901,-845,84546,31.1058,16829,754
1.38107,417.50563,-844,84547,31.056,16829,754
1.28817,386.09281,-843,84548,31.1058,16829,754
0.730792,299.38022,-842,84549,31.1058,16829,754
1.34255,165.10469,-841,84550,31.056,16829,754
1.4118,42.32074,-840,84551,30.9067,16829,754
1.88858,103.30452,-839,84552,31.1058,16829,754
1.88858,155.23092,-838,84553,31.2551,16829,749
1.41517,169.77896,-837,84554,31.4045,16829,749
1.76052,184.66116,-836,84555,31.056,16829,749
1.95556,216.04725,-835,84556,31.056,16829,749
1.84257,241.08958,-834,84557,31.056,16829,749
1.53168,238.30426,-833,84558,30.9067,16829,749
1.99897,224.20156,-832,84559,30.9564,16829,749
1.92856,218.81273,-831,84560,31.2551,16829,749
2.03444,223.20399,-830,84561,31.3049,16829,749
1.45505,231.52941,-829,84562,30.9564,16829,749
0.840071,249.25939,-828,84563,31.1058,16835,748
1.16371,278.60149,-827,84564,30.9564,16835,748
1.38452,302.5293,-826,84565,31.056,16835,748
1.96529,310.99084,-825,84566,31.1556,16835,748
1.30655,311.14954,-824,84567,30.9067,16835,748
1.27702,312.75534,-823,84568,31.3049,16835,748
1.19604,320.13202,-822,84569,31.056,16835,748
0.478416,331.38045,-821,84570,31.056,16835,748
1.65728,345.17224,-820,84571,31.056,16835,748
0.85693,359.43698,-819,84572,31.056,16835,748
0.717624,372.57495,-818,84573,31.1058,16839,747
1.65152,383.27687,-817,84574,31.2551,16839,747
1.07422,390.34084,-816,84575,31.1556,16839,747
1.46158,393.67483,-815,84576,31.4045,16839,747
1.69427,395.19266,-814,84577,31.056,16839,747
1.73872,397.42605,-813,84578,31.3049,16839,747
2.23759,403.0133,-812,84579,31.056,16839,747
1.3637,412.50694,-811,84580,31.056,16839,747
0.710948,424.44731,-810,84581,31.056,16839,747
2.04146,436.3791,-809,84582,31.1058,16839,747
1.23912,446.87747,-808,84583,31.1058,16844,738
0.995902,454.5725,-807,84584,30.9564,16844,738
1.58973,459.50679,-806,84585,31.1058,16844,738
0.710948,463.0111,-805,84586,31.056,16844,738
0.878906,466.39838,-804,84587,31.056,16844,738
1.44518,470.15751,-803,84588,30.9067,16844,738
1.68863,473.41072,-802,84589,30.9067,16844,738
2.44921,474.80528,-801,84590,31.056,16844,738
0.525895,473.72093,-800,84591,31.1058,16844,738
1.61945,470.61704,-799,84592,31.1058,16844,738
0.737289,467.01115,-798,84593,31.1058,16851,727
1.71108,464.82753,-797,84594,31.3049,16851,727
2.0739,465.68239,-796,84595,30.9564,16851,727
1.41517,468.55978,-795,84596,30.9067,16851,727
2.48208,472.0858,-794,84597,31.1058,16851,727
1.4118,473.6823,-793,84598,31.3049,16851,727
2.10811,472.8648,-792,84599,31.056,16851,727
1.21188,469.14753,-791,84600,30.9564,16851,727
2.19672,464.53844,-790,84601,31.2551,16851,727
0.981433,460.56873,-789,84602,31.056,16851,727
2.0693,457.71974,-788,84603,31.1556,16858,711
1.09619,455.12385,-787,84604,31.2551,16858,711
2.23118,452.18299,-786,84605,31.056,16858,711
2.16832,449.53116,-785,84606,31.2551,16858,711
1.77132,447.62721,-784,84607,31.056,16858,711
2.1771,446.56627,-783,84608,31.4045,16858,711
1.51917,446.15108,-782,84609,30.9067,16858,711
2.20323,445.66505,-781,84610,31.2551,16858,711
2.09222,444.2564,-780,84611,31.1058,16858,711
3.33893,441.39859,-779,84612,31.1556,16858,711
2.31715,438.40954,-778,84613,31.056,16858,711
1.88858,436.26232,-777,84614,30.9067,16858,711
2.15287,435.21422,-776,84615,30.9564,16858,711
3.3617,435.95956,-775,84616,31.1556,16858,711
2.25034,438.16771,-774,84617,31.056,16858,711
2.47246,441.72976,-773,84618,31.3049,16858,711
2.28816,445.87348,-772,84619,31.056,16858,711
2.67264,450.60584,-771,84620,31.1058,16858,711
3.09741,455.91003,-770,84621,31.056,16858,711
2.70104,459.65278,-769,84622,31.1556,16858,711
2.27981,461.87454,-768,84623,30.8569,16925,677
2.68688,461.59905,-767,84624,31.056,16925,677
1.8606,459.1469,-766,84625,31.2551,16925,677
2.6131,454.70674,-765,84626,31.056,16925,677
2.03678,448.51304,-764,84627,30.9564,16925,677
1.67161,440.02655,-763,84628,31.056,16925,677
2.45892,430.23981,-762,84629,31.3049,16925,677
2.32332,419.0714,-761,84630,31.1556,16925,677
2.36199,407.25761,-760,84631,31.056,16925,677
1.75238,393.7723,-759,84632,30.9067,16925,677
2.58559,380.82708,-758,84633,31.056,17043,635
2.83876,368.89887,-757,84634,31.056,17043,635
2.86051,358.09292,-756,84635,31.056,17043,635
2.40797,349.06208,-755,84636,31.1058,17043,635
2.23972,340.24581,-754,84637,30.9067,17043,635
2.54282,332.42765,-753,84638,31.1058,17043,635
2.38809,326.61036,-752,84639,30.9067,17043,635
3.18695,323.05435,-751,84640,30.9564,17043,635
2.5353,317.71631,-750,84641,31.056,17043,635
2.0762,312.91153,-749,84642,30.8569,17043,635
2.85718,313.15363,-748,84643,31.056,17073,605
3.52646,318.23941,-747,84644,31.056,17073,605
2.44921,324.90481,-746,84645,31.1556,17073,605
2.7862,330.18521,-745,84646,31.056,17073,605
2.77763,332.52101,-744,84647,31.1556,17073,605
2.08994,332.73147,-743,84648,31.1556,17073,605
2.88045,334.3269,-742,84649,31.1058,17073,605
3.12805,340.9992,-741,84650,31.056,17073,605
2.55217,351.95708,-740,84651,31.056,17073,605
2.75176,364.1417,-739,84652,31.056,17073,605
2.13284,376.24354,-738,84653,31.056,17019,621
2.84547,386.50632,-737,84654,31.056,17019,621
2.95239,395.55645,-736,84655,31.056,17019,621
1.72495,404.15027,-735,84656,31.1058,17019,621
2.93944,412.78437,-734,84657,31.056,17019,621
2.32946,421.98005,-733,84658,31.1058,17019,621
3.10203,431.43182,-732,84659,31.1058,17019,621
3.20038,441.05708,-731,84660,31.056,17019,621
2.68155,451.94001,-730,84661,31.056,17019,621
2.79133,464.43559,-729,84662,31.3049,17019,621
2.95884,478.93156,-728,84663,31.1058,16896,699
1.21581,492.36503,-727,84664,31.1058,16896,699
3.54399,506.20195,-726,84665,31.1058,16896,699
2.60213,521.85985,-725,84666,31.056,16896,699
3.12805,534.94939,-724,84667,31.056,16896,699
3.49522,542.23873,-723,84668,31.1556,16896,699
2.0785,544.4634,-722,84669,31.1058,16896,699
2.73786,546.02826,-721,84670,30.9067,16896,699
2.95723,550.78387,-720,84671,31.056,16896,699
3.00045,557.59167,-719,84672,31.1556,16896,699
3.07888,563.42072,-718,84673,31.056,16844,709
3.18695,566.5439,-717,84674,31.2551,16844,709
2.54844,567.52531,-716,84675,31.3049,16844,709
2.11714,568.3382,-715,84676,31.3049,16844,709
3.91357,570.88726,-714,84677,30.9564,16844,709
2.64394,574.30581,-713,84678,31.1556,16844,709
3.50612,576.72617,-712,84679,30.9564,16844,709
2.73089,577.36375,-711,84680,31.056,16844,709
2.21617,577.44841,-710,84681,31.1058,16844,709
4.09691,577.92166,-709,84682,31.056,16844,709
1.92112,578.45635,-708,84683,31.1058,16828,677
2.76386,578.9553,-707,84684,30.8569,16828,677
2.90681,578.72051,-706,84685,31.056,16828,677
2.18366,577.88446,-705,84686,31.4045,16828,677
2.24397,576.53769,-704,84687,30.9067,16828,677
2.12613,575.24195,-703,84688,31.1556,16828,677
1.92361,573.25984,-702,84689,30.9564,16828,677
3.24183,569.73537,-701,84690,31.1058,16828,677
1.99897,565.29001,-700,84691,31.1556,16828,677
1.45176,560.43975,-699,84692,31.1058,16828,677
1.65152,554.39135,-698,84693,31.056,16824,654
2.2819,546.88187,-697,84694,31.056,16824,654
1.48103,538.38386,-696,84695,31.1556,16824,654
1.53168,530.82877,-695,84696,31.056,16824,654
2.09677,524.81646,-694,84697,31.1058,16824,654
1.40163,520.90532,-693,84698,30.7573,16824,654
1.41517,518.69401,-692,84699,31.056,16824,654
1.60466,517.20471,-691,84700,30.9067,16824,654
1.96287,514.53187,-690,84701,31.056,16824,654
1.70549,509.42374,-689,84702,31.056,16824,654
1.68298,501.66225,-688,84703,31.1058,16831,635
1.31383,493.14474,-687,84704,30.9564,16831,635
1.25061,485.43439,-686,84705,30.8569,16831,635
1.59572,479.77554,-685,84706,30.9564,16831,635
1.4118,476.15263,-684,84707,31.4045,16831,635
1.68863,473.12804,-683,84708,31.1058,16831,635
1.74146,469.62443,-682,84709,31.2551,16831,635
1.68298,465.07942,-681,84710,31.1556,16831,635
2.82698,458.84821,-680,84711,31.056,16831,635
2.89366,452.02785,-679,84712,31.1058,16831,635
2.03444,445.94972,-678,84713,31.056,16834,623
2.03444,441.33962,-677,84714,31.056,16834,623
1.958,438.61659,-676,84715,31.056,16834,623
1.42859,436.34147,-675,84716,31.2551,16834,623
1.97256,433.72805,-674,84717,31.1556,16834,623
1.96287,428.61023,-673,84718,31.056,16834,623
3.40679,419.75921,-672,84719,31.056,16834,623
1.88353,408.31817,-671,84720,30.9564,16834,623
1.70549,397.22987,-670,84721,31.1556,16834,623
1.52856,389.3931,-669,84722,30.9067,16834,623
2.46086,387.00629,-668,84723,31.056,16832,613
1.64863,387.78126,-667,84724,31.1058,16832,613
2.27981,385.93566,-666,84725,31.056,16832,613
2.89201,377.6877,-665,84726,31.056,16832,613
1.56555,363.1368,-664,84727,31.1058,16832,613
2.03209,347.64637,-663,84728,31.3049,16832,613
2.03444,336.53058,-662,84729,31.1058,16832,613
2.53906,330.07779,-661,84730,31.2551,16832,613
2.16612,326.15691,-660,84731,31.056,16832,613
2.17052,321.43719,-659,84732,31.1058,16832,613
2.02269,314.18541,-658,84733,30.9564,16828,601
1.43525,304.39492,-657,84734,31.056,16828,601
2.04146,292.64766,-656,84735,31.056,16828,601
2.40797,281.64777,-655,84736,30.9067,16828,601
1.40163,272.5472,-654,84737,31.3049,16828,601
2.9909,265.47815,-653,84738,31.1556,16828,601
1.92608,261.0455,-652,84739,30.9067,16828,601
1.63702,258.07391,-651,84740,31.056,16828,601
2.0156,255.2668,-650,84741,31.056,16828,601
1.88858,250.61609,-649,84742,31.1058,16828,601
3.21228,243.76411,-648,84743,31.056,16819,591
3.1311,236.03263,-647,84744,31.2551,16819,591
2.44921,228.09053,-646,84745,31.1058,16819,591
2.45504,221.35916,-645,84746,31.056,16819,591
2.16832,217.88265,-644,84747,31.1058,16819,591
2.81175,216.45297,-643,84748,30.8569,16819,591
1.84774,213.59922,-642,84749,31.056,16819,591
0.905627,212.23966,-641,84750,31.056,16819,591
1.59273,210.25629,-640,84751,31.056,16819,591
1.75781,207.47748,-639,84752,31.4045,16819,591
1.80598,206.04388,-638,84753,31.1058,16819,581
1.81125,203.53811,-637,84754,31.056,16819,581
2.20323,206.16548,-636,84755,30.8569,16819,581
2.18802,206.16653,-635,84756,31.056,16819,581
2.2819,200.16636,-634,84757,31.056,16819,581
2.44921,202.09587,-633,84758,30.9564,16819,581
2.0693,200.54206,-632,84759,31.056,16819,581
2.27143,194.54523,-631,84760,31.056,16819,581
1.79539,199.24837,-630,84761,31.1058,16819,581
2.20539,203.89064,-629,84762,31.056,16819,581
1.45176,200.75342,-628,84763,31.056,16822,558
1.46484,203.69834,-627,84764,30.9564,16822,558
1.55638,210.46317,-626,84765,31.1556,16822,558
1.80334,211.33012,-625,84766,31.3049,16822,558
1.97739,207.24512,-624,84767,31.056,16822,558
1.21188,203.43335,-623,84768,31.056,16822,558
1.13045,203.73085,-622,84769,31.1058,16822,558
2.16392,206.62444,-621,84770,31.056,16822,558
2.37005,208.24401,-620,84771,30.9067,16822,558
1.43525,207.0193,-619,84772,31.056,16822,558
1.69427,204.26507,-618,84773,30.9067,16826,545
1.88858,200.18947,-617,84774,31.2551,16826,545
1.74966,196.35688,-616,84775,31.1556,16826,545
0.895034,193.77577,-615,84776,31.056,16826,545
2.06006,191.39699,-614,84777,30.7573,16826,545
1.89865,189.86098,-613,84778,31.056,16826,545
2.37809,190.64808,-612,84779,31.1058,16826,545
2.88541,191.17517,-611,84780,31.056,16826,545
0.905627,189.19437,-610,84781,31.2551,16826,545
1.09619,186.65645,-609,84782,31.056,16826,545
0.878906,185.42368,-608,84783,31.1058,16825,544
1.74966,184.89309,-607,84784,31.1058,16825,544
1.63702,184.32076,-606,84785,30.9067,16825,544
2.12164,183.35217,-605,84786,31.1556,16825,544
1.70829,181.92613,-604,84787,30.9564,16825,544
1.49066,180.55062,-603,84788,31.056,16825,544
1.88099,179.53908,-602,84789,31.056,16825,544
1.46484,177.09794,-601,84790,31.056,16825,544
2.13508,174.07655,-600,84791,31.056,16825,544
1.91864,170.17578,-599,84792,31.1058,16825,544
1.31383,165.77477,-598,84793,31.3049,16821,541
2.13954,157.83753,-597,84794,31.2551,16821,541
1.28817,152.48229,-596,84795,31.1556,16821,541
1.77132,155.90037,-595,84796,31.056,16821,541
1.60466,162.27002,-594,84797,31.056,16821,541
1.21188,165.15522,-593,84798,31.2551,16821,541
0.971667,164.00877,-592,84799,31.1058,16821,541
1.49704,160.2925,-591,84800,31.056,16821,541
2.03444,158.31621,-590,84801,30.9067,16821,541
1.33185,161.62418,-589,84802,31.056,16821,541
1.82698,165.79755,-588,84803,31.056,16827,539
1.89614,168.01394,-587,84804,31.056,16827,539
1.77401,168.85894,-586,84805,31.056,16827,539
1.96529,169.94402,-585,84806,31.056,16827,539
2.24397,171.76616,-584,84807,30.9564,16827,539
1.21188,172.44012,-583,84808,31.056,16827,539
1.52856,171.60781,-582,84809,31.3049,16827,539
1.27702,171.13048,-581,84810,31.1556,16827,539
1.43857,171.56855,-580,84811,31.3049,16827,539
1.72772,171.58992,-579,84812,31.3049,16827,539
1.76323,169.56239,-578,84813,31.056,16821,545
0.601994,165.23663,-577,84814,31.2551,16821,545
1.58673,159.77619,-576,84815,31.1058,16821,545
1.48103,155.87471,-575,84816,30.9564,16821,545
0.946812,154.32126,-574,84817,31.056,16821,545
0.717624,154.84026,-573,84818,31.056,16821,545
1.31745,155.55662,-572,84819,31.2551,16821,545
1.47781,153.30447,-571,84820,31.3049,16821,545
1.58673,149.64192,-570,84821,31.056,16821,545
1.87846,146.53004,-569,84822,31.1556,16821,545
1.37067,145.53638,-568,84823,31.1556,16826,543
1.83739,145.3593,-567,84824,31.1058,16826,543
2.16171,142.8027,-566,84825,31.056,16826,543
1.71664,137.89224,-565,84826,31.056,16826,543
0.884315,132.72546,-564,84827,31.056,16826,543
1.99897,129.36459,-563,84828,30.9067,16826,543
1.0381,131.17635,-562,84829,31.056,16826,543
2.11263,136.49672,-561,84830,31.1556,16826,543
1.81388,141.59383,-560,84831,31.056,16826,543
2.63672,145.07747,-559,84832,31.1058,16826,543
1.96287,145.505,-558,84833,31.056,16826,535
1.19604,144.32439,-557,84834,30.9067,16826,535
2.42966,144.07488,-556,84835,31.056,16826,535
1.09619,145.05847,-555,84836,31.056,16826,535
1.9942,147.55191,-554,84837,30.9564,16826,535
2.03444,150.6677,-553,84838,31.056,16826,535
2.56522,153.84235,-552,84839,30.9564,16826,535
2.0156,156.18638,-551,84840,31.056,16826,535
1.00068,161.11991,-550,84841,31.056,16826,535
2.24397,175.76646,-549,84842,31.2551,16826,535
2.21832,194.16522,-548,84843,30.9067,16827,536
2.18802,204.50144,-547,84844,31.056,16827,536
1.76052,200.01641,-546,84845,31.2551,16827,536
2.08994,183.47286,-545,84846,30.9067,16827,536
1.88858,165.53,-544,84847,31.056,16827,536
1.32827,156.79774,-543,84848,31.1058,16827,536
1.83739,157.91039,-542,84849,31.1556,16827,536
1.44518,162.77544,-541,84850,31.1058,16827,536
1.7767,164.09029,-540,84851,31.056,16827,536
2.36199,157.54714,-539,84852,31.1058,16827,536
1.37415,145.23777,-538,84853,31.1058,16830,541
1.18402,134.56972,-537,84854,31.056,16830,541
2.00136,129.91539,-536,84855,31.056,16830,541
1.98461,130.32502,-535,84856,31.1556,16830,541
1.4219,131.58982,-534,84857,31.1058,16830,541
1.91366,130.79252,-533,84858,31.056,16830,541
2.11488,128.4798,-532,84859,30.9067,16830,541
1.66303,127.05368,-531,84860,31.1058,16830,541
1.45505,127.94058,-530,84861,31.1556,16830,541
2.16392,130.36852,-529,84862,31.2551,16830,541
2.06237,132.10636,-528,84863,31.1556,16827,536
1.33185,132.05712,-527,84864,31.056,16827,536
1.11773,131.28808,-526,84865,30.8569,16827,536
2.05078,131.34595,-525,84866,31.1556,16827,536
2.06006,132.02986,-524,84867,30.9067,16827,536
1.34255,132.08442,-523,84868,30.9067,16827,536
1.81388,131.99578,-522,84869,31.056,16827,536
1.51917,132.57848,-521,84870,31.056,16827,536
0.851347,133.27188,-520,84871,31.1058,16827,536
1.13045,134.43494,-519,84872,30.8569,16827,536
1.57769,136.1286,-518,84873,31.3049,16827,536
0.793363,137.54248,-517,84874,31.056,16827,536
1.38796,137.84814,-516,84875,30.8569,16827,536
1.86572,136.97312,-515,84876,31.056,16827,536
1.95556,137.3374,-514,84877,31.1058,16827,536
1.01016,142.1169,-513,84878,31.056,16827,536
2.9893,148.97925,-512,84879,31.056,16827,536
2.36401,154.56483,-511,84880,30.9067,16827,536
1.00068,159.95371,-510,84881,31.056,16827,536
1.87592,165.92697,-509,84882,31.1058,16827,536
1.54717,171.45895,-508,84883,31.1556,16817,536
0.507437,175.97264,-507,84884,31.056,16817,536
1.39822,181.31798,-506,84885,31.4045,16817,536
1.40842,190.80234,-505,84886,31.1556,16817,536
1.20794,206.09681,-504,84887,31.1556,16817,536
1.96287,223.99719,-503,84888,31.1556,16817,536
1.73047,236.22981,-502,84889,31.1058,16817,536
2.25668,239.0685,-501,84890,31.1556,16817,536
2.32946,237.37695,-500,84891,31.056,16817,536
1.56859,238.32071,-499,84892,31.1058,16817,536
1.4219,245.19873,-498,84893,30.9564,16827,541
2.16832,254.91561,-497,84894,31.1058,16827,541
0.601994,264.21154,-496,84895,31.3049,16827,541
1.9942,275.22581,-495,84896,31.1058,16827,541
1.60168,288.4469,-494,84897,30.9067,16827,541
1.27328,302.71402,-493,84898,30.8569,16827,541
1.00068,314.59111,-492,84899,31.2551,16827,541
1.33543,322.56156,-491,84900,30.9067,16827,541
1.3029,325.52026,-490,84901,31.056,16827,541
1.19604,323.77074,-489,84902,31.2551,16827,541
1.57769,318.56399,-488,84903,31.4045,16825,545
1.96772,313.98359,-487,84904,31.056,16825,545
1.17998,316.42127,-486,84905,31.1058,16825,545
1.77132,322.4218,-485,84906,31.1556,16825,545
1.59273,325.14697,-484,84907,30.9564,16825,545
0.98628,320.38295,-483,84908,31.3049,16825,545
0.601994,311.24871,-482,84909,31.1058,16825,545
0.750112,302.24614,-481,84910,31.1058,16825,545
0.717624,297.02316,-480,84911,31.2551,16825,545
1.09619,295.30888,-479,84912,31.3049,16825,545
1.36019,293.97028,-478,84913,31.1556,16823,553
0.966748,292.23472,-477,84914,31.2551,16823,553
1.07422,292.71086,-476,84915,31.1556,16823,553
0.981433,294.23154,-475,84916,31.056,16823,553
1.73872,294.58531,-474,84917,31.2551,16823,553
0.966748,291.63262,-473,84918,30.9564,16823,553
1.61945,284.22431,-472,84919,31.2551,16823,553
1.44518,278.44479,-471,84920,31.2551,16823,553
1.70829,278.56124,-470,84921,31.056,16823,553
1.55638,284.11802,-469,84922,31.2551,16823,553
1.31383,294.61222,-468,84923,31.056,16817,563
2.21617,307.61239,-467,84924,31.056,16817,563
1.77132,319.03823,-466,84925,30.9067,16817,563
1.73323,328.45344,-465,84926,30.9067,16817,563
1.38452,337.67519,-464,84927,31.056,16817,563
1.37415,346.51427,-463,84928,31.1556,16817,563
1.54099,351.54126,-462,84929,31.1556,16817,563
0.743728,349.91214,-461,84930,30.9564,16817,563
1.96044,340.7718,-460,84931,31.056,16817,563
1.41517,326.21185,-459,84932,31.056,16817,563
2.16832,308.47509,-458,84933,31.056,16817,568
1.63702,289.45705,-457,84934,31.056,16817,568
2.21832,271.1826,-456,84935,31.1556,16817,568
2.0739,253.06839,-455,84936,31.056,16817,568
1.96772,233.48771,-454,84937,31.1058,16817,568
2.46086,212.60163,-453,84938,30.9067,16817,568
1.82698,193.45849,-452,84939,31.2551,16817,568
2.33151,177.21717,-451,84940,31.1058,16817,568
1.90617,164.40093,-450,84941,31.056,16817,568
2.44921,154.49733,-449,84942,30.7573,16817,568
2.31715,147.55297,-448,84943,31.056,16810,577
3.22709,143.29277,-447,84944,31.3049,16810,577
3.17345,142.37188,-446,84945,31.1058,16810,577
3.12042,144.63581,-445,84946,31.056,16810,577
2.48016,149.07474,-444,84947,30.9067,16810,577
2.53906,155.94089,-443,84948,31.1556,16810,577
3.48976,166.142,-442,84949,30.9067,16810,577
2.13508,177.77805,-441,84950,31.056,16810,577
2.0156,189.19378,-440,84951,30.9564,16810,577
2.53718,200.91654,-439,84952,31.1058,16810,577
2.6851,213.6362,-438,84953,31.056,16806,580
3.66048,225.77692,-437,84954,31.056,16806,580
2.13954,239.11543,-436,84955,31.056,16806,580
2.83371,254.14514,-435,84956,31.1058,16806,580
3.07888,268.2367,-434,84957,31.056,16806,580
2.35593,279.57865,-433,84958,31.1058,16806,580
2.56336,289.64775,-432,84959,31.1058,16806,580
2.50313,299.89419,-431,84960,31.1058,16806,580
2.66371,311.2944,-430,84961,31.2551,16806,580
3.46645,321.84673,-429,84962,31.3049,16806,580
2.98771,331.36289,-428,84963,31.056,16815,581
1.66303,341.79607,-427,84964,31.1058,16815,581
3.18695,357.82942,-426,84965,31.056,16815,581
3.81985,397.33684,-425,84966,31.1556,16815,581
2.9443,479.05175,-424,84967,31.1058,16815,581
2.35187,587.86437,-423,84968,31.056,16815,581
2.13508,688.13085,-422,84969,31.056,16815,581
2.43358,754.04666,-421,84970,31.1058,16815,581
2.94592,777.8133,-420,84971,31.056,16815,581
1.3461,767.25426,-419,84972,30.9067,16815,581
2.55031,736.64422,-418,84973,31.4045,16817,570
2.5353,698.16754,-417,84974,31.056,16817,570
1.66875,658.95312,-416,84975,31.1556,16817,570
2.76386,621.48926,-415,84976,31.1556,16817,570
1.89865,586.87296,-414,84977,31.056,16817,570
2.14622,556.49223,-413,84978,31.056,16817,570
2.4974,532.57911,-412,84979,31.1556,16817,570
2.22905,516.1984,-411,84980,30.9067,16817,570
1.26577,509.67308,-410,84981,31.2551,16817,570
1.76052,511.95928,-409,84982,31.1556,16817,570
1.40163,517.30894,-408,84983,31.1556,16835,557
1.3637,520.93799,-407,84984,31.2551,16835,557
2.05543,519.27587,-406,84985,31.3049,16835,557
8.31226,700.64851,-405,84986,31.056,16835,557
13.5098,1645.493,-404,84987,31.1556,16835,557
4.92946,1812.4576,-403,84988,31.056,16835,557
5.13508,1650.0633,-402,84989,31.1058,16835,557
4.39345,1400.5376,-401,84990,30.9564,16835,557
4.29465,1142.3654,-400,84991,30.9564,16835,557
4.24103,1085.3033,-399,84992,31.056,16835,557
2.67264,984.53635,-398,84993,31.1556,16875,537
3.04775,855.88918,-397,84994,31.056,16875,537
1.52544,829.86921,-396,84995,30.9067,16875,537
1.97739,886.79413,-395,84996,30.9067,16875,537
1.88858,921.10735,-394,84997,31.3049,16875,537
1.99659,907.29242,-393,84998,31.3049,16875,537
1.62826,886.82937,-392,84999,31.1556,16875,537
1.96044,877.78816,-391,85000,30.7573,16875,537
1.75238,868.50504,-390,85001,31.056,16875,537
2.54844,849.10946,-389,85002,30.9067,16875,537
2.36199,807.50745,-388,85003,31.056,16874,544
2.53718,744.18316,-387,85004,30.9564,16874,544
3.054,691.62175,-386,85005,31.1058,16874,544
2.00374,691.40627,-385,85006,31.1556,16874,544
1.92856,749.76239,-384,85007,31.056,16874,544
1.57163,826.35162,-383,85008,31.2551,16874,544
2.09677,874.57174,-382,85009,31.1058,16874,544
0.995902,876.42106,-381,85010,31.2551,16874,544
1.28447,850.18419,-380,85011,31.1058,16874,544
1.21188,823.50298,-379,85012,31.056,16874,544
1.55638,813.26666,-378,85013,31.056,16888,543
1.17594,820.14718,-377,85014,31.2551,16888,543
1.83998,835.484,-376,85015,31.056,16888,543
0.239208,848.37762,-375,85016,30.8569,16888,543
0.878906,850.91966,-374,85017,31.056,16888,543
0.690534,838.8606,-373,85018,31.056,16888,543
1.81651,815.60452,-372,85019,30.9564,16888,543
0.750112,792.53919,-371,85020,31.1058,16888,543
0.840071,776.72995,-370,85021,31.056,16888,543
1.05631,765.75986,-369,85022,31.056,16888,543
1.27702,758.19153,-368,85023,30.9067,16902,536
0.85693,756.35189,-367,85024,31.2551,16902,536
0.662337,761.84271,-366,85025,31.056,16902,536
0.921287,767.17001,-365,85026,31.1556,16902,536
1.19604,767.5347,-364,85027,31.056,16902,536
2.09222,761.9326,-363,85028,31.1058,16902,536
1.97739,755.79501,-362,85029,30.9564,16902,536
1.52231,756.14323,-361,85030,31.1058,16902,536
1.60168,763.16642,-360,85031,31.056,16902,536
1.36019,775.6359,-359,85032,31.1058,16902,536
0.981433,781.76917,-358,85033,31.1556,16937,525
1.69708,772.26425,-357,85034,30.9067,16937,525
1.76323,755.24429,-356,85035,31.056,16937,525
2.73612,745.01659,-355,85036,31.3049,16937,525
1.94579,746.22416,-354,85037,30.9564,16937,525
1.80598,759.98759,-353,85038,31.056,16937,525
2.18366,782.28852,-352,85039,31.1058,16937,525
2.45115,801.25416,-351,85040,31.056,16937,525
2.54282,807.01416,-350,85041,31.056,16937,525
2.67977,799.85012,-349,85042,31.1058,16937,525
3.27403,783.1335,-348,85043,31.056,17019,522
3.03521,761.06894,-347,85044,30.8569,17019,522
2.69574,742.47228,-346,85045,31.4045,17019,522
2.90353,735.67024,-345,85046,30.8569,17019,522
2.68155,739.51989,-344,85047,31.1058,17019,522
2.37809,741.97639,-343,85048,31.2551,17019,522
3.28857,737.43974,-342,85049,31.056,17019,522
3.98121,725.56821,-341,85050,31.1058,17019,522
3.17796,703.20508,-340,85051,31.1556,17019,522
2.44336,672.35204,-339,85052,31.3049,17019,522
3.96922,638.58529,-338,85053,31.3049,17198,529
3.68256,610.06393,-337,85054,31.1058,17198,529
2.74308,590.09646,-336,85055,31.1556,17198,529
4.03357,581.09771,-335,85056,31.1058,17198,529
4.58153,580.96515,-334,85057,31.504,17198,529
3.77464,584.31816,-333,85058,31.056,17198,529
3.40259,584.55808,-332,85059,31.056,17198,529
3.53456,576.76735,-331,85060,31.056,17198,529
3.41657,555.97138,-330,85061,31.2551,17198,529
4.82979,527.18245,-329,85062,31.3049,17198,529
4.72499,524.09425,-328,85063,30.9564,17626,509
4.1409,526.42627,-327,85064,31.056,17626,509
3.19293,513.35934,-326,85065,31.1058,17626,509
5.19876,504.65116,-325,85066,31.1556,17626,509
3.15083,511.32219,-324,85067,31.056,17626,509
3.55206,516.91423,-323,85068,31.2551,17626,509
3.37444,508.39158,-322,85069,31.056,17626,509
4.04773,485.3985,-321,85070,30.9564,17626,509
3.58812,457.51824,-320,85071,31.1058,17626,509
3.55608,431.82019,-319,85072,31.1556,17626,509
3.68127,409.01365,-318,85073,30.8569,18006,490
2.96528,388.55701,-317,85074,31.056,18006,490
3.53995,371.5397,-316,85075,31.056,18006,490
2.8354,359.36644,-315,85076,31.056,18006,490
3.6304,351.02277,-314,85077,31.2551,18006,490
2.79304,345.16799,-313,85078,31.056,18006,490
3.21228,340.11414,-312,85079,30.8569,18006,490
2.75176,333.64541,-311,85080,31.4045,18006,490
2.2819,323.40849,-310,85081,31.056,18006,490
1.64863,313.19888,-309,85082,31.1556,18006,490
2.35187,306.197,-308,85083,31.3049,17865,481
2.78449,304.80805,-307,85084,31.056,17865,481
2.84044,308.15354,-306,85085,31.2551,17865,481
2.17929,308.96353,-305,85086,31.1556,17865,481
3.07113,304.67307,-304,85087,31.3049,17865,481
2.74308,300.57568,-303,85088,31.056,17865,481
2.58743,300.01617,-302,85089,31.1058,17865,481
3.12195,298.46601,-301,85090,31.3049,17865,481
1.46484,293.19434,-300,85091,31.056,17865,481
2.66907,286.5737,-299,85092,31.1058,17865,481
2.34985,283.11329,-298,85093,31.1556,17453,479
2.20323,286.72625,-297,85094,31.3049,17453,479
2.00612,295.39992,-296,85095,31.1058,17453,479
2.96206,305.97152,-295,85096,31.056,17453,479
1.90867,315.78212,-294,85097,31.4045,17453,479
2.05543,323.71521,-293,85098,30.9067,17453,479
2.37809,330.91109,-292,85099,31.1058,17453,479
2.29856,338.61832,-291,85100,31.056,17453,479
2.66729,346.50034,-290,85101,31.2551,17453,479
2.0716,353.34938,-289,85102,31.1556,17453,479
1.69427,361.05076,-288,85103,31.1556,17161,485
2.04845,369.04682,-287,85104,31.1058,17161,485
2.33764,375.71922,-286,85105,31.1058,17161,485
2.49167,383.60525,-285,85106,31.056,17161,485
1.67446,396.94234,-284,85107,30.9564,17161,485
2.36199,409.43933,-283,85108,30.9067,17161,485
2.85884,416.91546,-282,85109,31.4045,17161,485
1.59273,427.37725,-281,85110,31.4045,17161,485
2.20323,438.0173,-280,85111,31.1556,17161,485
2.50503,444.13183,-279,85112,31.056,17161,485
2.02269,453.1737,-278,85113,31.056,17029,498
1.97739,469.03921,-277,85114,31.056,17029,498
1.49066,486.34531,-276,85115,31.1058,17029,498
1.62826,503.03551,-275,85116,31.3049,17029,498
1.87592,519.23083,-274,85117,31.2551,17029,498
2.22905,532.78467,-273,85118,31.056,17029,498
1.60466,539.42617,-272,85119,31.056,17029,498
1.89865,541.75281,-271,85120,30.9067,17029,498
2.0156,543.56117,-270,85121,31.1556,17029,498
1.57769,548.26717,-269,85122,31.056,17029,498
1.21581,559.2858,-268,85123,31.1556,16943,516
1.67161,572.83377,-267,85124,31.056,16943,516
1.38452,578.39447,-266,85125,31.1556,16943,516
1.25061,571.8045,-265,85126,31.3049,16943,516
1.07865,561.05364,-264,85127,30.8569,16943,516
1.50022,547.29112,-263,85128,30.8569,16943,516
1.23912,530.75943,-262,85129,31.1556,16943,516
1.04725,519.63705,-261,85130,31.056,16943,516
1.02423,519.7354,-260,85131,30.8569,16943,516
1.23912,527.24125,-259,85132,31.056,16943,516
1.70549,529.91367,-258,85133,31.056,16943,516
1.47781,521.00263,-257,85134,31.1058,16943,516
1.27702,506.01508,-256,85135,30.9564,16943,516
1.11773,490.10393,-255,85136,31.056,16943,516
1.20794,479.51055,-254,85137,31.056,16943,516
1.20399,474.24554,-253,85138,31.056,16943,516
0.239208,472.31763,-252,85139,31.1556,16943,516
1.00068,474.08327,-251,85140,31.4045,16943,516
1.28817,480.61223,-250,85141,31.1058,16943,516
0.878906,485.12584,-249,85142,31.1058,16943,516
1.89614,486.60194,-248,85143,31.1556,16890,525
1.05179,482.25822,-247,85144,31.1058,16890,525
1.13045,468.98469,-246,85145,31.056,16890,525
0.655098,466.89242,-245,85146,31.1556,16890,525
3.33893,659.66483,-244,85147,30.9067,16890,525
12.9886,1504.8137,-243,85148,31.4045,16890,525
9.52687,1802.2929,-242,85149,31.1556,16890,525
3.44022,763.68465,-241,85150,30.9067,16890,525
3.46645,714.05993,-240,85151,31.1058,16890,525
1.86572,1748.5537,-239,85152,30.9067,16890,525
2.47631,1978.2396,-238,85153,31.056,16899,533
2.81853,1692.4024,-237,85154,31.056,16899,533
3.64743,1308.052,-236,85155,31.056,16899,533
3.30015,1005.9663,-235,85156,30.9564,16899,533
3.02892,743.10203,-234,85157,31.056,16899,533
2.09904,523.93258,-233,85158,31.1058,16899,533
2.02269,418.34324,-232,85159,30.9067,16899,533
2.38009,466.77445,-231,85160,31.056,16899,533
2.71512,521.99705,-230,85161,31.056,16899,533
2.97651,496.34155,-229,85162,31.1058,16899,533
4.1432,444.86177,-228,85163,30.9067,16889,538
3.56278,459.69983,-227,85164,30.7075,16889,538
3.05556,526.41279,-226,85165,30.9564,16889,538
4.10389,590.81504,-225,85166,30.9564,16889,538
3.30736,639.18975,-224,85167,31.2551,16889,538
1.99897,672.06491,-223,85168,31.056,16889,538
2.83035,687.58991,-222,85169,31.1058,16889,538
1.71108,679.6215,-221,85170,31.056,16889,538
3.38573,639.88194,-220,85171,31.3049,16889,538
2.56708,571.39657,-219,85172,31.1556,16889,538
2.0693,488.40626,-218,85173,31.1058,16860,548
2.49549,410.20982,-217,85174,31.1556,16860,548
1.46484,350.97091,-216,85175,31.4045,16860,548
1.31745,317.93976,-215,85176,30.9067,16860,548
2.40995,309.3611,-214,85177,31.2551,16860,548
1.97739,318.34433,-213,85178,31.1058,16860,548
2.71512,336.47682,-212,85179,30.9564,16860,548
1.76052,360.13376,-211,85180,31.056,16860,548
2.45115,385.15998,-210,85181,31.056,16860,548
1.3029,406.79039,-209,85182,31.1058,16860,548
3.53861,419.52015,-208,85183,30.9067,16851,562
1.97739,419.3728,-207,85184,31.3049,16851,562
1.88858,407.00007,-206,85185,31.056,16851,562
2.37809,386.00764,-205,85186,30.9067,16851,562
2.34985,358.14346,-204,85187,31.1556,16851,562
1.40163,333.22134,-203,85188,31.1556,16851,562
2.53718,309.49755,-202,85189,30.9067,16851,562
2.94592,286.831,-201,85190,30.9564,16851,562
2.21832,265.84709,-200,85191,31.056,16851,562
1.7551,247.47232,-199,85192,31.056,16851,562
2.45115,232.18406,-198,85193,31.1556,16847,565
2.11263,220.68844,-197,85194,31.1556,16847,565
2.8236,212.93867,-196,85195,31.056,16847,565
3.34464,207.90621,-195,85196,31.056,16847,565
3.36879,205.99542,-194,85197,31.1058,16847,565
3.23447,205.15099,-193,85198,31.056,16847,565
3.08971,207.11073,-192,85199,30.9067,16847,565
3.40959,213.9972,-191,85200,31.1058,16847,565
4.02173,224.9104,-190,85201,31.3049,16847,565
4.05362,236.42889,-189,85202,31.1556,16847,565
4.05714,245.05511,-188,85203,31.056,16842,571
4.04773,249.18474,-187,85204,31.056,16842,571
4.12475,249.64077,-186,85205,31.2551,16842,571
3.24036,249.77316,-185,85206,31.056,16842,571
3.80484,252.57,-184,85207,31.1556,16842,571
4.39887,257.80065,-183,85208,31.1058,16842,571
3.59608,265.41356,-182,85209,31.1556,16842,571
3.98959,276.46449,-181,85210,31.056,16842,571
4.07122,289.33656,-180,85211,31.056,16842,571
3.87438,300.44529,-179,85212,31.056,16842,571
3.9608,309.45835,-178,85213,31.056,16836,576
3.82109,316.4193,-177,85214,30.9067,16836,576
3.71736,323.29033,-176,85215,31.056,16836,576
4.78814,330.86455,-175,85216,30.9564,16836,576
3.94995,338.55259,-174,85217,31.1556,16836,576
3.86699,345.13615,-173,85218,31.056,16836,576
3.41099,351.15893,-172,85219,31.056,16836,576
2.63491,355.88764,-171,85220,30.9067,16836,576
3.10356,360.05265,-170,85221,31.2551,16836,576
2.41983,364.30074,-169,85222,30.9564,16836,576
3.06491,369.13622,-168,85223,31.1058,16839,579
3.39557,374.20674,-167,85224,31.056,16839,579
2.53154,379.17258,-166,85225,31.1058,16839,579
2.93944,383.16282,-165,85226,31.1058,16839,579
2.85384,385.38501,-164,85227,31.1058,16839,579
2.44921,384.94693,-163,85228,30.9564,16839,579
2.44726,382.11356,-162,85229,30.9067,16839,579
2.40203,377.05484,-161,85230,31.1058,16839,579
1.63702,369.18943,-160,85231,31.056,16839,579
2.63672,359.05895,-159,85232,31.3049,16839,579
1.49385,347.12197,-158,85233,31.1556,16836,579
1.5034,334.65048,-157,85234,30.9564,16836,579
1.85804,322.41053,-156,85235,31.1058,16836,579
1.4219,311.68787,-155,85236,30.9564,16836,579
2.08537,301.78337,-154,85237,31.1556,16836,579
2.1573,291.70652,-153,85238,31.2551,16836,579
1.01016,280.95747,-152,85239,31.1556,16836,579
1.32827,268.82591,-151,85240,31.2551,16836,579
1.07422,255.3172,-150,85241,31.1058,16836,579
2.09904,242.78524,-149,85242,31.056,16836,579
1.94824,226.52014,-148,85243,31.1556,16841,582
1.63993,232.29859,-147,85244,31.056,16841,582
1.27702,284.02994,-146,85245,31.3049,16841,582
2.11488,340.30418,-145,85246,31.056,16841,582
2.10585,362.67412,-144,85247,31.1058,16841,582
1.66303,369.03586,-143,85248,31.4045,16841,582
1.38452,407.8314,-142,85249,30.9564,16841,582
1.56859,487.71717,-141,85250,31.056,16841,582
3.14022,572.45673,-140,85251,31.1058,16841,582
1.19205,635.5155,-139,85252,31.056,16841,582
2.32332,673.05064,-138,85253,31.056,16840,577
1.49704,684.06554,-137,85254,31.1058,16840,577
2.15066,666.68071,-136,85255,30.9564,16840,577
2.16171,624.43387,-135,85256,31.1058,16840,577
2.48784,564.19752,-134,85257,31.3049,16840,577
2.05543,493.46525,-133,85258,31.1058,16840,577
2.44921,417.2965,-132,85259,30.9067,16840,577
2.38009,340.49253,-131,85260,31.056,16840,577
2.66907,268.84921,-130,85261,30.9067,16840,577
3.26382,209.21976,-129,85262,31.056,16840,577
3.42354,167.52553,-128,85263,31.1058,16841,580
3.18994,145.85441,-127,85264,31.056,16841,580
3.08507,144.79402,-126,85265,31.1556,16841,580
3.84845,156.01307,-125,85266,31.3049,16841,580
2.96528,169.62899,-124,85267,30.9067,16841,580
2.49167,178.9298,-123,85268,31.056,16841,580
2.75868,181.19594,-122,85269,31.1058,16841,580
4.21848,176.938,-121,85270,31.056,16841,580
2.88706,170.68176,-120,85271,31.1058,16841,580
2.13284,170.04123,-119,85272,31.1556,16841,580
4.2354,180.56196,-118,85273,30.9067,16838,572
3.18096,201.1995,-117,85274,31.1058,16838,572
2.65474,227.39917,-116,85275,31.1058,16838,572
3.16292,254.06328,-115,85276,31.056,16838,572
2.98771,278.5116,-114,85277,31.1058,16838,572
3.20485,301.28548,-113,85278,31.056,16838,572
2.02269,326.38805,-112,85279,30.9564,16838,572
2.02033,358.50029,-111,85280,31.1058,16838,572
2.11714,396.16152,-110,85281,31.1556,16838,572
1.78206,439.81698,-109,85282,31.056,16838,572
2.35593,475.6012,-108,85283,31.056,16835,565
3.35744,505.52124,-107,85284,31.2551,16835,565
2.91827,526.51401,-106,85285,31.1556,16835,565
1.74146,536.64035,-105,85286,31.056,16835,565
1.77132,546.3453,-104,85287,31.056,16835,565
2.28607,578.01614,-103,85288,31.056,16835,565
2.12388,634.82926,-102,85289,30.9067,16835,565
3.19293,696.71971,-101,85290,31.2551,16835,565
2.06237,739.00611,-100,85291,31.056,16835,565
2.51263,751.13357,-99,85292,30.9067,16835,565
2.26091,741.14037,-98,85293,30.8569,16829,567
2.47246,725.76854,-97,85294,31.4045,16829,567
2.75176,719.40287,-96,85295,31.2551,16829,567
3.05868,727.16938,-95,85296,31.3049,16829,567
2.30684,749.88002,-94,85297,31.056,16829,567
2.60945,783.24228,-93,85298,31.056,16829,567
2.75176,818.92643,-92,85299,31.1058,16829,567
2.83876,851.19688,-91,85300,31.1058,16829,567
2.21617,879.01321,-90,85301,31.1556,16829,567
3.80358,904.78697,-89,85302,31.056,16829,567
3.2609,932.46112,-88,85303,31.056,16821,575
1.75781,967.22269,-87,85304,31.2551,16821,575
2.92806,1011.3179,-86,85305,31.056,16821,575
2.93131,1063.577,-85,85306,31.056,16821,575
2.97812,1121.6806,-84,85307,31.2551,16821,575
1.57769,1178.7761,-83,85308,31.056,16821,575
2.83371,1227.092,-82,85309,31.1058,16821,575
2.32946,1267.9363,-81,85310,31.056,16821,575
2.39606,1308.7817,-80,85311,30.9067,16821,575
1.61945,1352.8408,-79,85312,30.9067,16821,575
2.44336,1402.6851,-78,85313,30.9564,16807,601
2.89366,1461.2451,-77,85314,30.9067,16807,601
3.35318,1560.5163,-76,85315,31.056,16807,601
2.0156,1678.4862,-75,85316,31.1058,16807,601
2.21832,1631.5078,-74,85317,31.3049,16807,601
1.96287,1386.182,-73,85318,30.9564,16807,601
1.96287,1127.5192,-72,85319,31.1556,16807,601
2.0762,1048.7146,-71,85320,31.2551,16807,601
1.91864,1176.7258,-70,85321,31.3049,16807,601
3.62514,1359.9349,-69,85322,31.3049,16807,601
3.7212,1460.9477,-68,85323,31.056,16807,627
4.62297,1456.6069,-67,85324,31.1556,16807,627
3.86822,1379.0536,-66,85325,31.3049,16807,627
5.54495,1272.1557,-65,85326,31.056,16807,627
5.38882,1170.5207,-64,85327,31.1556,16807,627
6.46673,1094.0996,-63,85328,31.056,16807,627
6.07827,1050.6986,-62,85329,31.056,16807,627
6.12983,1039.236,-61,85330,31.1058,16807,627
6.86448,1053.5645,-60,85331,30.9067,16807,627
5.69513,1073.8025,-59,85332,30.9067,16807,627
6.60607,1082.4395,-58,85333,31.056,16804,667
6.30015,1077.7462,-57,85334,30.9067,16804,667
6.69854,1064.7084,-56,85335,31.056,16804,667
5.90477,1047.8658,-55,85336,31.056,16804,667
6.01597,1034.3152,-54,85337,31.056,16804,667
6.03734,1022.892,-53,85338,31.2551,16804,667
5.07061,1013.3915,-52,85339,31.056,16804,667
4.26345,1011.8254,-51,85340,31.056,16804,667
4.50597,1021.3503,-50,85341,31.1556,16804,667
4.88086,1030.5333,-49,85342,31.1556,16804,667
4.90717,1032.1852,-48,85343,30.9564,16802,682
4.30574,1031.3876,-47,85344,31.056,16802,682
4.12128,1033.2341,-46,85345,31.2551,16802,682
4.46023,1039.0598,-45,85346,31.056,16802,682
4.30796,1048.1596,-44,85347,31.2551,16802,682
3.80859,1056.8169,-43,85348,31.056,16802,682
4.13629,1064.6875,-42,85349,31.2551,16802,682
3.96682,1073.7888,-41,85350,31.1058,16802,682
4.69258,1086.3684,-40,85351,31.1556,16802,682
4.47943,1100.9768,-39,85352,30.9067,16802,682
4.58984,1112.1217,-38,85353,31.056,16799,705
3.95116,1118.6822,-37,85354,31.1556,16799,705
3.40259,1122.2495,-36,85355,31.056,16799,705
3.84101,1123.2827,-35,85356,31.056,16799,705
3.8186,1123.6099,-34,85357,31.1058,16799,705
3.20634,1125.7552,-33,85358,31.056,16799,705
3.44022,1127.9369,-32,85359,31.056,16799,705
4.15584,1128.466,-31,85360,31.1556,16799,705
3.4747,1127.5946,-30,85361,31.056,16799,705
3.78347,1126.5106,-29,85362,30.9564,16799,705
2.90517,1123.9769,-28,85363,31.056,16802,723
3.14022,1118.3153,-27,85364,31.2551,16802,723
3.62777,1108.1146,-26,85365,31.1556,16802,723
3.42215,1096.9441,-25,85366,31.1556,16802,723
2.67977,1088.118,-24,85367,31.1556,16802,723
2.11037,1080.9541,-23,85368,31.2551,16802,723
2.64033,1074.1664,-22,85369,31.1556,16802,723
2.1573,1066.7402,-21,85370,31.056,16802,723
2.58743,1056.844,-20,85371,31.056,16802,723
2.67264,1044.0185,-19,85372,31.056,16802,723
1.47134,1027.2538,-18,85373,31.056,16807,718
2.08994,1006.6049,-17,85374,31.1058,16807,718
2.14622,983.12454,-16,85375,31.1058,16807,718
2.0716,956.85418,-15,85376,31.3049,16807,718
1.58973,935.6263,-14,85377,30.8569,16807,718
1.54717,916.00083,-13,85378,31.4045,16807,718
2.02269,896.71963,-12,85379,31.1058,16807,718
2.24822,876.61647,-11,85380,31.3049,16807,718
1.07865,853.89449,-10,85381,31.056,16807,718
1.87592,828.38475,-9,85382,31.1556,16807,718
1.39822,802.01394,-8,85383,31.056,16809,713
0.768946,777.94315,-7,85384,31.056,16809,713
2.67264,756.26057,-6,85385,31.2551,16809,713
1.82437,735.94122,-5,85386,31.2551,16809,713
1.00068,716.27235,-4,85387,31.3049,16809,713
0.98628,696.63317,-3,85388,31.2551,16809,713
1.57769,676.58329,-2,85389,31.1058,16809,713
1.85547,727.352,-1,85390,30.9067,16809,713
14.1602,1330.6416,0,85391,31.056,16809,713
7.48394,1673.475,1,85392,31.2551,16809,713
3.95598,959.78876,2,85393,30.9067,16809,713
3.45405,200.97645,3,85394,31.2551,16809,713
3.02104,473.2505,4,85395,31.1058,16809,713
2.29648,660.99137,5,85396,31.4045,16809,713
1.84257,541.31638,6,85397,31.056,16809,713
2.06237,298.03816,7,85398,31.056,16809,713
2.08079,372.11094,8,85399,30.9067,16809,713
0.85693,435.93291,9,85400,31.056,16809,713
0.811194,310.39771,10,85401,31.2551,16809,713
1.20794,207.01815,11,85402,31.056,16809,713
0.793363,328.10658,12,85403,31.056,16828,703
1.38107,427.22327,13,85404,31.056,16828,703
1.9942,408.27618,14,85405,30.9564,16828,703
1.74966,310.52259,15,85406,30.9564,16828,703
2.36199,204.88512,16,85407,30.9564,16828,703
1.27328,138.16472,17,85408,30.9564,16828,703
0.625305,138.81155,18,85409,31.1058,16828,703
1.09619,201.29913,19,85410,31.2551,16828,703
1.77132,281.00732,20,85411,31.1556,16828,703
2.13954,342.58276,21,85412,30.9067,16828,703
1.26953,374.75982,22,85413,31.3049,16860,707
2.60213,385.64948,23,85414,31.1058,16860,707
2.48976,390.88351,24,85415,30.9067,16860,707
1.38452,404.32936,25,85416,30.9067,16860,707
2.26091,429.33302,26,85417,31.056,16860,707
0.534885,462.4661,27,85418,31.056,16860,707
1.50657,499.51067,28,85419,31.056,16860,707
1.80334,537.35664,29,85420,30.9067,16860,707
1.17998,571.7219,30,85421,31.056,16860,707
1.3102,600.0954,31,85422,31.056,16860,707
1.19205,622.70991,32,85423,31.1556,16845,707
1.51917,641.72866,33,85424,31.2551,16845,707
0.78733,660.1545,34,85425,31.056,16845,707
1.62239,680.27136,35,85426,31.1058,16845,707
1.6165,702.04212,36,85427,31.1556,16845,707
2.16832,724.60923,37,85428,31.056,16845,707
1.76052,746.67342,38,85429,30.9067,16845,707
2.52021,767.50033,39,85430,31.1058,16845,707
2.09222,786.92561,40,85431,31.1556,16845,707
2.1573,805.00869,41,85432,30.9067,16845,707
1.96772,821.93548,42,85433,31.056,16822,693
2.14622,838.01398,43,85434,30.9564,16822,693
2.13284,853.97615,44,85435,31.1058,16822,693
1.88858,869.52436,45,85436,31.3049,16822,693
1.31383,884.45154,46,85437,31.056,16822,693
2.1771,898.77897,47,85438,31.1556,16822,693
2.37809,912.42921,48,85439,30.9067,16822,693
2.21402,925.39334,49,85440,31.2551,16822,693
2.94592,937.67036,50,85441,30.8569,16822,693
2.19455,949.22306,51,85442,31.1556,16822,693
2.77763,960.39159,52,85443,31.1556,16813,683
3.26966,970.91449,53,85444,31.1058,16813,683
1.84516,980.63282,54,85445,31.3049,16813,683
2.69397,989.34321,55,85446,30.9067,16813,683
4.15929,996.93733,56,85447,31.056,16813,683
4.03357,1003.5003,57,85448,31.3049,16813,683
1.90116,1008.8186,58,85449,31.1058,16813,683
4.09807,1013.343,59,85450,31.2551,16813,683
3.96922,1016.8523,60,85451,30.9564,16813,683
3.5224,1019.4235,61,85452,31.056,16813,683
2.69397,1021.2913,62,85453,30.9564,16808,668
3.76958,1021.9409,63,85454,31.2551,16808,668
2.8354,1021.3662,64,85455,30.9564,16808,668
3.25211,1020.4563,65,85456,31.056,16808,668
2.5819,1018.6249,66,85457,31.056,16808,668
3.43606,1015.4086,67,85458,31.056,16808,668
3.29725,1011.0406,68,85459,31.056,16808,668
4.09807,1005.7991,69,85460,31.4045,16808,668
4.01461,999.47765,70,85461,31.056,16808,668
3.40259,992.48082,71,85462,31.056,16808,668
4.2444,985.23933,72,85463,31.1058,16806,646
3.69549,977.84728,73,85464,30.8569,16806,646
3.73399,968.49291,74,85465,31.056,16806,646
4.61057,957.23981,75,85466,31.3049,16806,646
3.61328,944.77723,76,85467,31.1058,16806,646
2.51263,930.99142,77,85468,31.1058,16806,646
3.82109,915.89362,78,85469,30.9067,16806,646
3.91844,897.80754,79,85470,31.1556,16806,646
3.5921,880.44199,80,85471,31.2551,16806,646
4.21735,861.53783,81,85472,31.4045,16806,646
3.11277,840.28765,82,85473,30.9067,16808,621
4.38258,816.53759,83,85474,31.056,16808,621
4.67732,790.83175,84,85475,31.1058,16808,621
4.51654,763.72035,85,85476,31.1556,16808,621
5.14714,736.35105,86,85477,31.1556,16808,621
4.65995,709.24791,87,85478,30.9564,16808,621
3.64743,682.66718,88,85479,31.056,16808,621
4.08058,655.3171,89,85480,31.056,16808,621
4.48156,624.56168,90,85481,31.2551,16808,621
4.83374,589.26355,91,85482,30.9564,16808,621
4.34214,550.55127,92,85483,31.2551,16809,607
3.71351,514.72685,93,85484,31.1058,16809,607
2.81175,515.65599,94,85485,31.3049,16809,607
3.7391,562.65483,95,85486,31.3049,16809,607
4.43019,610.17129,96,85487,31.1058,16809,607
4.2891,629.96958,97,85488,30.9564,16809,607
4.10737,622.16742,98,85489,31.2551,16809,607
4.51548,607.70749,99,85490,31.056,16809,607
4.39127,591.61548,100,85491,31.056,16809,607
