Linear acceleration,Rotational velocity,Time values,Absolute time values,Temperature,Ambient light,Reflected light
2.97812,363.40726,-2000,83148,31.4045,16852,439
1.41854,363.71621,-1999,83149,30.9067,16852,439
1.96772,363.18216,-1998,83150,31.1556,16852,439
2.30684,361.2969,-1997,83151,31.2551,16852,439
1.60168,357.76345,-1996,83152,31.056,16852,439
1.25061,352.67634,-1995,83153,30.9067,16859,442
2.08079,347.17902,-1994,83154,31.1556,16859,442
2.54094,341.45229,-1993,83155,30.9564,16859,442
2.21617,335.66331,-1992,83156,31.056,16859,442
1.97498,328.87983,-1991,83157,31.056,16859,442
0.98628,320.75874,-1990,83158,31.1058,16859,442
1.33185,311.52435,-1989,83159,31.056,16859,442
1.60466,301.1463,-1988,83160,31.056,16859,442
1.52856,289.75373,-1987,83161,31.056,16859,442
1.70549,277.08159,-1986,83162,31.056,16859,442
1.80334,263.59978,-1985,83163,31.056,16858,440
1.53168,250.60571,-1984,83164,31.1058,16858,440
2.21187,239.33671,-1983,83165,31.056,16858,440
1.17594,231.58443,-1982,83166,30.9067,16858,440
1.44188,226.69489,-1981,83167,31.2551,16858,440
1.81913,222.41455,-1980,83168,30.9564,16858,440
0.78733,216.02852,-1979,83169,31.1058,16858,440
1.66303,205.37556,-1978,83170,31.056,16858,440
1.70549,189.1349,-1977,83171,31.3049,16858,440
1.65728,168.10328,-1976,83172,31.056,16858,440
1.74146,145.32505,-1975,83173,31.1058,16858,435
2.09222,125.63313,-1974,83174,31.1556,16858,435
0.625305,113.39235,-1973,83175,30.9564,16858,435
1.76052,111.74609,-1972,83176,31.2551,16858,435
1.59273,122.68522,-1971,83177,31.056,16858,435
2.52021,145.16213,-1970,83178,31.056,16858,435
1.11773,174.36914,-1969,83179,30.8569,16858,435
1.75781,204.45422,-1968,83180,31.2551,16858,435
2.3027,230.13867,-1967,83181,31.1058,16858,435
1.0381,249.93303,-1966,83182,30.8569,16858,435
1.70829,264.97911,-1965,83183,31.056,16850,440
1.96529,277.89898,-1964,83184,31.2551,16850,440
2.50122,289.87728,-1963,83185,30.9564,16850,440
1.08306,300.70666,-1962,83186,31.1058,16850,440
2.37809,308.41576,-1961,83187,30.8569,16850,440
1.75238,310.57322,-1960,83188,30.9564,16850,440
2.53718,305.03522,-1959,83189,31.1058,16850,440
2.43358,291.10596,-1958,83190,30.9067,16850,440
1.38796,270.10972,-1957,83191,30.9564,16850,440
1.5807,245.77653,-1956,83192,31.056,16850,440
2.61493,223.30451,-1955,83193,31.3049,16847,440
2.09222,206.37166,-1954,83194,31.3049,16847,440
2.38409,196.56937,-1953,83195,31.056,16847,440
3.08971,193.40368,-1952,83196,31.1058,16847,440
2.45115,194.69235,-1951,83197,31.1058,16847,440
2.74482,198.89618,-1950,83198,31.2551,16847,440
2.33151,204.9622,-1949,83199,31.056,16847,440
3.43467,211.1526,-1948,83200,31.056,16847,440
2.76386,218.21013,-1947,83201,31.056,16847,440
2.81345,228.61162,-1946,83202,31.056,16847,440
2.24822,244.96525,-1945,83203,31.056,16850,438
3.96561,267.21105,-1944,83204,31.3049,16850,438
2.69397,290.15007,-1943,83205,31.3049,16850,438
3.04775,310.98564,-1942,83206,31.1058,16850,438
2.36199,323.83883,-1941,83207,31.3049,16850,438
2.68865,334.14045,-1940,83208,31.056,16850,438
2.15287,343.26235,-1939,83209,31.056,16850,438
2.77075,354.03171,-1938,83210,31.056,16850,438
5.18774,416.77306,-1937,83211,31.056,16850,438
10.1548,874.45199,-1936,83212,31.1058,16850,438
3.41657,1236.1612,-1935,83213,31.2551,16862,430
1.82698,1022.0823,-1934,83214,31.1058,16862,430
1.958,653.25779,-1933,83215,31.056,16862,430
2.14622,447.18907,-1932,83216,31.2551,16862,430
2.95239,625.09047,-1931,83217,31.1058,16862,430
2.48016,814.37431,-1930,83218,31.3049,16862,430
2.16832,844.0731,-1929,83219,31.4045,16862,430
3.94995,711.68982,-1928,83220,31.1556,16862,430
2.90189,477.22395,-1927,83221,31.056,16862,430
2.45892,323.7475,-1926,83222,31.2551,16862,430
2.55777,379.59184,-1925,83223,31.1058,16868,429
2.42376,434.96539,-1924,83224,31.056,16868,429
1.28447,382.99126,-1923,83225,30.9564,16868,429
1.34255,261.11188,-1922,83226,31.056,16868,429
1.4219,208.83305,-1921,83227,31.056,16868,429
1.27702,280.81208,-1920,83228,30.7573,16868,429
1.15135,324.061,-1919,83229,31.2551,16868,429
1.31383,282.73645,-1918,83230,31.2551,16868,429
1.7551,183.91998,-1917,83231,31.4045,16868,429
1.98701,103.30993,-1916,83232,31.056,16868,429
2.09677,117.92106,-1915,83233,30.9067,16868,430
2.30684,141.64959,-1914,83234,31.1058,16868,430
1.74693,128.32749,-1913,83235,31.056,16868,430
1.92856,93.476453,-1912,83236,30.8569,16868,430
1.82437,67.536331,-1911,83237,30.9564,16868,430
2.72389,71.245258,-1910,83238,31.1556,16868,430
1.42525,92.276275,-1909,83239,30.8569,16868,430
1.45176,116.20228,-1908,83240,30.9067,16868,430
1.5034,135.12015,-1907,83241,31.056,16868,430
2.30684,142.58675,-1906,83242,30.9564,16868,430
2.22905,138.10604,-1905,83243,31.056,16868,444
2.56522,127.13686,-1904,83244,31.056,16868,444
2.70104,118.25463,-1903,83245,31.056,16868,444
2.56522,116.4792,-1902,83246,31.056,16868,444
1.58973,121.08963,-1901,83247,31.3049,16868,444
2.37809,128.38878,-1900,83248,31.1556,16868,444
2.48976,135.06571,-1899,83249,30.9067,16868,444
2.47824,140.71276,-1898,83250,31.056,16868,444
1.55638,145.6043,-1897,83251,31.1556,16868,444
3.67867,150.5076,-1896,83252,31.2551,16868,444
2.27981,155.52745,-1895,83253,31.1058,16872,496
1.81388,160.70194,-1894,83254,31.056,16872,496
2.79474,166.20724,-1893,83255,31.056,16872,496
3.11736,170.55652,-1892,83256,30.9564,16872,496
2.45892,168.9902,-1891,83257,31.056,16872,496
3.08971,162.25294,-1890,83258,31.056,16872,496
3.94874,302.3398,-1889,83259,31.056,16872,496
2.94592,417.42323,-1888,83260,30.9564,16872,496
1.93596,319.22834,-1887,83261,31.056,16872,496
2.39805,357.21682,-1886,83262,31.056,16872,496
3.0163,590.17911,-1885,83263,31.1058,16869,527
2.48784,662.48774,-1884,83264,31.2551,16869,527
3.6146,566.21271,-1883,83265,31.2551,16869,527
2.5353,406.76929,-1882,83266,30.8569,16869,527
2.28607,282.18445,-1881,83267,31.056,16869,527
1.66589,264.32939,-1880,83268,31.1556,16869,527
3.18545,305.10439,-1879,83269,31.056,16869,527
2.30684,333.03314,-1878,83270,31.056,16869,527
3.48976,344.76914,-1877,83271,31.056,16869,527
3.38573,353.28787,-1876,83272,31.056,16869,527
2.13284,362.90428,-1875,83273,31.056,16864,547
1.44518,368.64687,-1874,83274,31.056,16864,547
2.87382,364.39299,-1873,83275,31.056,16864,547
2.22905,358.33927,-1872,83276,30.9564,16864,547
1.97498,361.4268,-1871,83277,31.056,16864,547
2.78449,369.54482,-1870,83278,30.8569,16864,547
2.52588,374.22597,-1869,83279,31.2551,16864,547
2.44921,374.88751,-1868,83280,31.056,16864,547
2.04379,375.0952,-1867,83281,30.9067,16864,547
2.44141,377.6164,-1866,83282,31.1556,16864,547
2.1771,383.73692,-1865,83283,31.1058,16860,562
4.04184,393.10397,-1864,83284,30.8569,16860,562
1.89865,403.32794,-1863,83285,31.1556,16860,562
2.65474,412.05862,-1862,83286,30.9564,16860,562
2.76731,420.51866,-1861,83287,30.7573,16860,562
1.89362,430.83848,-1860,83288,30.9564,16860,562
2.68688,439.87859,-1859,83289,31.1556,16860,562
1.71664,445.64232,-1858,83290,31.1058,16860,562
2.9909,448.69012,-1857,83291,31.2551,16860,562
2.01324,450.95169,-1856,83292,31.1058,16860,562
2.27981,450.50326,-1855,83293,31.3049,16864,578
2.03444,443.31669,-1854,83294,31.056,16864,578
2.30684,430.87034,-1853,83295,31.1058,16864,578
2.55777,421.01054,-1852,83296,31.056,16864,578
1.5807,417.28016,-1851,83297,31.2551,16864,578
2.8986,418.41034,-1850,83298,31.056,16864,578
2.89366,421.08108,-1849,83299,31.056,16864,578
2.16832,422.85484,-1848,83300,31.056,16864,578
2.55777,422.02606,-1847,83301,31.1058,16864,578
2.20539,419.09142,-1846,83302,31.4543,16864,578
1.75781,415.45621,-1845,83303,30.8569,16869,591
1.97739,408.51548,-1844,83304,30.9067,16869,591
1.69708,403.4901,-1843,83305,31.3049,16869,591
1.98701,413.86416,-1842,83306,30.9067,16869,591
1.89362,447.36633,-1841,83307,31.1058,16869,591
2.29856,488.91964,-1840,83308,31.056,16869,591
1.73872,507.35497,-1839,83309,31.1058,16869,591
1.84516,494.39881,-1838,83310,31.056,16869,591
2.75695,466.25858,-1837,83311,31.1058,16869,591
1.97498,443.7542,-1836,83312,31.1058,16869,591
1.76052,439.67919,-1835,83313,31.1556,16871,603
1.30655,454.64947,-1834,83314,31.1556,16871,603
2.38009,480.76131,-1833,83315,31.1058,16871,603
1.33185,506.25053,-1832,83316,31.1058,16871,603
1.66303,523.56424,-1831,83317,30.9067,16871,603
1.88099,533.76337,-1830,83318,30.9067,16871,603
1.74146,540.9285,-1829,83319,30.8569,16871,603
1.0381,548.7739,-1828,83320,30.8569,16871,603
1.04268,558.76089,-1827,83321,31.3049,16871,603
1.41517,569.97918,-1826,83322,31.1556,16871,603
1.61355,580.4076,-1825,83323,31.1556,16871,603
1.31745,588.37831,-1824,83324,31.1556,16871,603
1.94579,594.11119,-1823,83325,31.056,16871,603
1.73872,597.76052,-1822,83326,30.9564,16871,603
0.921287,599.58247,-1821,83327,31.056,16871,603
1.14304,599.31403,-1820,83328,30.9564,16871,603
1.21581,597.55025,-1819,83329,31.056,16871,603
1.25061,594.86371,-1818,83330,30.8569,16871,603
2.26722,591.53647,-1817,83331,31.056,16871,603
1.56555,587.78866,-1816,83332,31.3049,16871,603
0.525895,583.93448,-1815,83333,31.056,16876,612
1.05179,579.71752,-1814,83334,31.1058,16876,612
1.94088,574.96508,-1813,83335,31.1556,16876,612
1.4118,570.00685,-1812,83336,31.1058,16876,612
1.05179,564.87951,-1811,83337,31.056,16876,612
1.17998,559.72007,-1810,83338,31.056,16876,612
1.45505,554.56667,-1809,83339,31.056,16876,612
1.08306,549.52787,-1808,83340,30.9564,16876,612
1.93842,544.75983,-1807,83341,31.056,16876,612
2.10358,539.95679,-1806,83342,31.1556,16876,612
2.48784,535.01413,-1805,83343,30.9067,16872,607
1.81913,530.11512,-1804,83344,31.2551,16872,607
1.45505,525.04134,-1803,83345,31.1058,16872,607
1.5034,518.63373,-1802,83346,31.1058,16872,607
1.07865,510.64874,-1801,83347,30.9564,16872,607
2.2819,505.87896,-1800,83348,30.9067,16872,607
1.51603,509.52719,-1799,83349,31.056,16872,607
2.25668,518.51671,-1798,83350,30.9564,16872,607
1.96529,523.02423,-1797,83351,30.9564,16872,607
2.15287,518.00435,-1796,83352,31.056,16872,607
1.16371,505.01145,-1795,83353,31.1058,16877,600
2.25668,490.89998,-1794,83354,31.1058,16877,600
1.60466,481.24869,-1793,83355,30.9564,16877,600
2.80666,477.98284,-1792,83356,31.056,16877,600
0.750112,479.47679,-1791,83357,31.056,16877,600
0.577742,483.20193,-1790,83358,30.8569,16877,600
1.1472,485.73975,-1789,83359,30.9067,16877,600
0.889691,485.68797,-1788,83360,31.1058,16877,600
1.60466,481.54026,-1787,83361,31.1058,16877,600
1.4118,474.49773,-1786,83362,31.056,16877,600
2.37005,466.38367,-1785,83363,30.9564,16883,585
0.750112,459.36617,-1784,83364,31.056,16883,585
1.78473,455.50957,-1783,83365,30.9067,16883,585
0.138107,455.08353,-1782,83366,31.1058,16883,585
1.0381,456.92369,-1781,83367,31.056,16883,585
1.49066,459.39426,-1780,83368,31.056,16883,585
1.76863,460.84324,-1779,83369,31.056,16883,585
1.22752,461.19749,-1778,83370,30.8569,16883,585
0.447517,460.98956,-1777,83371,31.2551,16883,585
1.60168,460.69687,-1776,83372,31.056,16883,585
2.0762,461.59142,-1775,83373,31.056,16901,566
1.87592,463.17061,-1774,83374,31.056,16901,566
0.697405,465.55418,-1773,83375,31.056,16901,566
1.31745,467.41634,-1772,83376,30.9564,16901,566
2.02269,468.52175,-1771,83377,31.1556,16901,566
1.79539,468.20619,-1770,83378,31.056,16901,566
2.54844,466.17419,-1769,83379,31.2551,16901,566
1.63702,463.21214,-1768,83380,31.056,16901,566
0.76272,460.10406,-1767,83381,30.9564,16901,566
1.33543,457.72703,-1766,83382,30.9067,16901,566
1.58673,456.65249,-1765,83383,31.1556,16937,537
1.86827,456.29284,-1764,83384,31.056,16937,537
1.95556,456.26932,-1763,83385,31.3049,16937,537
2.11263,456.57921,-1762,83386,31.1058,16937,537
0.834375,457.42067,-1761,83387,30.9564,16937,537
1.73047,459.58824,-1760,83388,31.056,16937,537
1.60168,462.61113,-1759,83389,31.1058,16937,537
0.976563,466.64009,-1758,83390,30.9067,16937,537
0.710948,470.35664,-1757,83391,31.056,16937,537
0.981433,472.68316,-1756,83392,31.1556,16937,537
2.09677,472.58097,-1755,83393,31.056,16976,503
1.71386,469.42075,-1754,83394,31.056,16976,503
1.56555,462.87873,-1753,83395,30.9564,16976,503
1.49066,455.90346,-1752,83396,31.056,16976,503
1.30655,448.51307,-1751,83397,31.1058,16976,503
1.38452,442.16656,-1750,83398,31.056,16976,503
2.44921,437.01378,-1749,83399,30.9564,16976,503
1.93596,432.612,-1748,83400,30.9564,16976,503
1.77401,428.42339,-1747,83401,31.056,16976,503
2.00612,424.31237,-1746,83402,31.056,16976,503
1.89614,420.19829,-1745,83403,31.056,16984,461
2.81684,416.52671,-1744,83404,31.3049,16984,461
2.02033,412.61329,-1743,83405,31.056,16984,461
2.87879,408.4884,-1742,83406,30.9564,16984,461
2.45892,404.22732,-1741,83407,31.1556,16984,461
2.89366,400.14643,-1740,83408,31.1058,16984,461
1.83739,396.38189,-1739,83409,31.4045,16984,461
2.68155,393.05983,-1738,83410,31.3049,16984,461
1.4118,390.84611,-1737,83411,31.2551,16984,461
3.00362,390.29508,-1736,83412,31.056,16984,461
2.48976,390.82339,-1735,83413,31.056,16991,427
2.34985,391.08966,-1734,83414,31.3049,16991,427
2.45504,389.88299,-1733,83415,31.056,16991,427
2.98291,387.53325,-1732,83416,31.056,16991,427
2.88871,384.11218,-1731,83417,30.9564,16991,427
2.95723,380.34204,-1730,83418,31.1556,16991,427
2.43358,378.32489,-1729,83419,31.056,16991,427
2.11488,378.36768,-1728,83420,31.2551,16991,427
3.37444,379.23364,-1727,83421,30.9564,16991,427
1.97739,378.7049,-1726,83422,30.9067,16991,427
2.52021,376.09895,-1725,83423,30.9564,16998,416
2.92806,372.45657,-1724,83424,31.2551,16998,416
1.88099,367.90285,-1723,83425,31.056,16998,416
2.35187,362.84882,-1722,83426,31.1058,16998,416
2.51832,358.98239,-1721,83427,31.1556,16998,416
2.0716,357.72411,-1720,83428,31.1058,16998,416
2.93944,357.34426,-1719,83429,31.056,16998,416
3.0163,355.9582,-1718,83430,31.4045,16998,416
3.14022,353.36406,-1717,83431,31.056,16998,416
2.51263,350.32415,-1716,83432,31.3049,16998,416
2.74134,348.02154,-1715,83433,30.8569,16990,408
2.60213,347.38717,-1714,83434,31.1058,16990,408
2.84044,348.15699,-1713,83435,31.1058,16990,408
2.73786,350.2935,-1712,83436,31.056,16990,408
2.02504,354.74542,-1711,83437,31.056,16990,408
1.98701,361.79223,-1710,83438,31.056,16990,408
2.60762,369.46681,-1709,83439,31.056,16990,408
3.16292,376.80844,-1708,83440,31.056,16990,408
1.66589,383.0418,-1707,83441,31.2551,16990,408
3.1097,387.96868,-1706,83442,30.9564,16990,408
2.92806,391.74997,-1705,83443,30.9564,16968,410
2.60762,395.33201,-1704,83444,31.3049,16968,410
2.89201,399.49365,-1703,83445,31.056,16968,410
2.98451,405.66275,-1702,83446,30.9067,16968,410
2.28816,413.24708,-1701,83447,30.9067,16968,410
1.67161,421.21739,-1700,83448,31.1058,16968,410
2.33356,429.39849,-1699,83449,31.1058,16968,410
3.1097,437.22727,-1698,83450,31.056,16968,410
1.56859,444.81862,-1697,83451,31.056,16968,410
1.76323,452.37794,-1696,83452,31.056,16968,410
2.17052,459.76136,-1695,83453,31.056,16951,418
2.51263,466.99379,-1694,83454,31.1058,16951,418
1.61355,474.2662,-1693,83455,31.1058,16951,418
2.71512,480.7504,-1692,83456,31.1058,16951,418
2.67443,486.26943,-1691,83457,31.1058,16951,418
1.83739,491.59953,-1690,83458,31.1556,16951,418
1.60466,497.18323,-1689,83459,31.056,16951,418
1.64863,504.02473,-1688,83460,31.056,16951,418
2.0716,511.50012,-1687,83461,31.056,16951,418
2.21617,519.47661,-1686,83462,31.4045,16951,418
2.3539,526.5252,-1685,83463,31.056,16945,429
1.42525,531.74896,-1684,83464,31.056,16945,429
1.73047,535.3482,-1683,83465,31.056,16945,429
2.19889,538.77988,-1682,83466,30.9067,16945,429
1.45505,543.12608,-1681,83467,31.056,16945,429
2.44336,548.97856,-1680,83468,31.056,16945,429
8.41772,693.2561,-1679,83469,31.056,16945,429
12.2736,1536.659,-1678,83470,31.4045,16945,429
1.76052,1504.2428,-1677,83471,31.056,16945,429
1.06977,695.81777,-1676,83472,30.9067,16945,429
2.34782,609.0595,-1675,83473,31.1058,16948,445
2.83371,759.73823,-1674,83474,31.056,16948,445
3.55608,595.96858,-1673,83475,31.1058,16948,445
3.50748,429.77705,-1672,83476,31.1556,16948,445
2.22047,386.69172,-1671,83477,31.1058,16948,445
2.11488,487.05915,-1670,83478,30.8569,16948,445
1.84516,632.19839,-1669,83479,30.9564,16948,445
2.76386,716.79818,-1668,83480,31.1058,16948,445
2.47824,710.93849,-1667,83481,30.9067,16948,445
3.21821,632.21451,-1666,83482,31.1058,16948,445
3.84845,510.66558,-1665,83483,31.2551,16941,477
2.15066,393.09397,-1664,83484,31.056,16941,477
1.53789,319.98634,-1663,83485,31.056,16941,477
2.69574,304.17183,-1662,83486,31.1556,16941,477
2.29024,346.77894,-1661,83487,31.056,16941,477
2.17052,417.26813,-1660,83488,31.1058,16941,477
1.09183,478.19742,-1659,83489,31.056,16941,477
2.45115,496.3345,-1658,83490,30.9067,16941,477
2.29648,485.63211,-1657,83491,31.1058,16941,477
1.09183,462.50007,-1656,83492,31.056,16941,477
1.82437,443.69847,-1655,83493,31.1556,16929,495
0.768946,439.93363,-1654,83494,31.056,16929,495
1.57466,453.4162,-1653,83495,31.1556,16929,495
1.28447,479.62165,-1652,83496,31.056,16929,495
1.38452,508.9599,-1651,83497,31.1556,16929,495
1.07865,531.66861,-1650,83498,31.1058,16929,495
1.88858,543.60264,-1649,83499,30.9067,16929,495
2.15951,545.74677,-1648,83500,31.1058,16929,495
2.2819,542.66823,-1647,83501,31.1058,16929,495
1.43525,540.38081,-1646,83502,31.056,16929,495
1.07865,541.71215,-1645,83503,30.9067,16904,524
0.916097,546.423,-1644,83504,31.056,16904,524
1.93596,552.43077,-1643,83505,30.9564,16904,524
1.6165,558.02833,-1642,83506,31.056,16904,524
1.76323,561.40163,-1641,83507,31.1058,16904,524
1.4681,561.33736,-1640,83508,31.1058,16904,524
1.68863,556.92549,-1639,83509,31.056,16904,524
2.0716,549.21593,-1638,83510,31.056,16904,524
1.68014,539.36922,-1637,83511,31.3049,16904,524
1.84516,528.84649,-1636,83512,31.056,16904,524
1.62826,519.47243,-1635,83513,31.1556,16880,548
2.18584,512.19531,-1634,83514,31.2551,16880,548
1.73047,506.27334,-1633,83515,31.056,16880,548
1.22363,500.61895,-1632,83516,31.1556,16880,548
1.49704,494.6729,-1631,83517,31.1556,16880,548
1.60466,488.73712,-1630,83518,31.1058,16880,548
2.25034,482.29925,-1629,83519,31.056,16880,548
1.61355,475.00365,-1628,83520,31.3049,16880,548
2.49167,466.94489,-1627,83521,31.2551,16880,548
1.42525,458.25686,-1626,83522,31.056,16880,548
1.89865,449.01955,-1625,83523,31.2551,16863,571
1.80334,439.73819,-1624,83524,31.056,16863,571
1.52544,431.37094,-1623,83525,31.056,16863,571
2.15066,424.45429,-1622,83526,31.056,16863,571
1.54408,417.93759,-1621,83527,31.056,16863,571
1.81388,411.0017,-1620,83528,31.1058,16863,571
2.19672,402.9473,-1619,83529,31.1058,16863,571
1.73047,394.2423,-1618,83530,30.9564,16863,571
2.21402,385.49942,-1617,83531,31.1556,16863,571
1.66875,377.44946,-1616,83532,30.9564,16863,571
1.64863,371.18611,-1615,83533,31.056,16853,588
0.828641,366.55904,-1614,83534,31.056,16853,588
2.30477,362.48475,-1613,83535,31.056,16853,588
1.68298,358.32993,-1612,83536,30.9067,16853,588
1.87592,354.39829,-1611,83537,31.056,16853,588
0.873464,350.68481,-1610,83538,31.1058,16853,588
2.48976,346.86268,-1609,83539,30.9564,16853,588
1.89865,342.17968,-1608,83540,31.056,16853,588
2.01324,336.14379,-1607,83541,31.1058,16853,588
1.09619,329.21861,-1606,83542,30.8569,16853,588
1.33185,322.06352,-1605,83543,31.1058,16851,611
1.05179,315.66033,-1604,83544,31.056,16851,611
1.69708,309.97102,-1603,83545,31.056,16851,611
1.5034,305.36552,-1602,83546,31.056,16851,611
1.38452,303.84664,-1601,83547,31.056,16851,611
1.52856,307.26262,-1600,83548,31.056,16851,611
1.74966,313.15891,-1599,83549,31.1058,16851,611
1.74966,316.51281,-1598,83550,31.1556,16851,611
1.25821,311.18723,-1597,83551,31.1556,16851,611
0.995902,294.91399,-1596,83552,31.2551,16851,611
1.60466,270.22631,-1595,83553,31.056,16846,626
0.552427,242.16467,-1594,83554,31.056,16846,626
1.94088,216.9264,-1593,83555,31.056,16846,626
1.81913,199.60754,-1592,83556,31.056,16846,626
1.45176,192.81565,-1591,83557,31.056,16846,626
0.425674,194.55396,-1590,83558,31.2551,16846,626
1.22363,202.99177,-1589,83559,31.056,16846,626
1.40163,214.79252,-1588,83560,31.056,16846,626
1.08306,226.79744,-1587,83561,31.056,16846,626
1.48103,236.82053,-1586,83562,31.3049,16846,626
0.995902,244.0602,-1585,83563,31.056,16857,637
1.45505,248.51507,-1584,83564,31.056,16857,637
0.730792,250.61859,-1583,83565,30.9067,16857,637
1.19205,250.67863,-1582,83566,30.9067,16857,637
1.40163,248.20392,-1581,83567,31.2551,16857,637
1.31745,242.71855,-1580,83568,31.2551,16857,637
0.905627,234.25096,-1579,83569,31.056,16857,637
0.710948,223.20349,-1578,83570,31.056,16857,637
0.793363,211.32007,-1577,83571,31.1058,16857,637
1.24296,199.9834,-1576,83572,31.3049,16857,637
1.37067,191.54983,-1575,83573,31.056,16863,643
0.710948,188.86061,-1574,83574,31.1058,16863,643
0.811194,192.19799,-1573,83575,31.1556,16863,643
1.25061,201.01886,-1572,83576,31.056,16863,643
0.632885,213.9224,-1571,83577,31.1058,16863,643
0.946812,228.38664,-1570,83578,31.1058,16863,643
1.73047,242.38646,-1569,83579,31.056,16863,643
0.569429,255.22246,-1568,83580,31.1058,16863,643
1.00068,266.01384,-1567,83581,31.056,16863,643
1.22363,275.13565,-1566,83582,30.8569,16863,643
0.878906,282.55597,-1565,83583,31.056,16863,643
0.976563,289.5153,-1564,83584,30.9067,16863,643
0.507437,294.85287,-1563,83585,31.056,16863,643
0.878906,299.03801,-1562,83586,31.056,16863,643
0.697405,302.46809,-1561,83587,30.9067,16863,643
0.625305,304.58502,-1560,83588,30.9067,16863,643
0.76272,305.08834,-1559,83589,30.9564,16863,643
0.840071,304.21426,-1558,83590,31.056,16863,643
0.577742,302.23086,-1557,83591,30.9067,16863,643
0.169146,298.93205,-1556,83592,31.2551,16863,643
0.625305,294.96154,-1555,83593,31.056,16867,648
0.926449,290.99379,-1554,83594,31.056,16867,648
0.793363,286.92216,-1553,83595,31.1556,16867,648
0.338291,282.88857,-1552,83596,31.056,16867,648
1.21188,278.8545,-1551,83597,31.056,16867,648
0.365396,274.96727,-1550,83598,31.056,16867,648
0.655098,271.10723,-1549,83599,31.1058,16867,648
0.768946,267.87918,-1548,83600,31.056,16867,648
0.632885,264.88723,-1547,83601,30.9067,16867,648
0.41432,262.4973,-1546,83602,30.9564,16867,648
0.900346,260.30503,-1545,83603,31.1058,16870,653
0.402647,258.68522,-1544,83604,30.9067,16870,653
0.352105,257.45072,-1543,83605,31.056,16870,653
0.402647,256.73047,-1542,83606,31.2551,16870,653
0.817051,256.37053,-1541,83607,30.8569,16870,653
0.276214,256.17304,-1540,83608,31.056,16870,653
0.905627,256.05888,-1539,83609,31.056,16870,653
0.817051,256.15297,-1538,83610,30.9067,16870,653
0.617632,256.39572,-1537,83611,31.1058,16870,653
1.15548,256.85317,-1536,83612,30.9564,16870,653
0.828641,257.22825,-1535,83613,31.1058,16867,664
1.02423,258.17871,-1534,83614,31.1058,16867,664
0.365396,259.94623,-1533,83615,31.056,16867,664
1.00068,262.20652,-1532,83616,30.9564,16867,664
0.799351,264.75399,-1531,83617,31.056,16867,664
0.840071,267.82129,-1530,83618,31.056,16867,664
1.22363,271.71516,-1529,83619,31.056,16867,664
1.47458,276.4135,-1528,83620,31.056,16867,664
1.33185,281.52667,-1527,83621,31.2551,16867,664
0.946812,287.32025,-1526,83622,31.1556,16867,664
1.09619,293.61361,-1525,83623,31.056,16857,673
1.92112,300.35499,-1524,83624,31.056,16857,673
1.19604,307.18176,-1523,83625,30.9564,16857,673
0.78733,313.90933,-1522,83626,30.9067,16857,673
1.31745,320.87498,-1521,83627,31.3049,16857,673
1.34255,328.01865,-1520,83628,31.1556,16857,673
1.21188,335.34039,-1519,83629,30.8569,16857,673
0.425674,343.00937,-1518,83630,31.056,16857,673
1.43857,350.48343,-1517,83631,31.056,16857,673
1.29923,358.07343,-1516,83632,31.056,16857,673
0.601994,365.9954,-1515,83633,31.3049,16848,682
1.52544,374.03637,-1514,83634,31.056,16848,682
0.59402,381.81307,-1513,83635,31.1058,16848,682
1.49385,389.54873,-1512,83636,30.9067,16848,682
1.09183,397.21974,-1511,83637,31.056,16848,682
1.33185,405.48697,-1510,83638,30.9067,16848,682
1.17998,414.37156,-1509,83639,30.9564,16848,682
1.59273,423.52715,-1508,83640,30.9067,16848,682
0.85693,433.07607,-1507,83641,31.1058,16848,682
0.717624,442.43083,-1506,83642,30.8569,16848,682
2.06237,451.30773,-1505,83643,31.3049,16841,691
0.921287,459.93089,-1504,83644,31.1556,16841,691
0.632885,468.15953,-1503,83645,31.056,16841,691
1.09619,476.56478,-1502,83646,31.056,16841,691
0.683594,484.29912,-1501,83647,31.1058,16841,691
1.48103,491.62263,-1500,83648,30.9067,16841,691
1.55638,497.8117,-1499,83649,31.056,16841,691
2.48784,503.36252,-1498,83650,31.1058,16841,691
1.47134,508.77502,-1497,83651,31.056,16841,691
1.28817,514.26057,-1496,83652,31.1556,16841,691
1.99659,520.19814,-1495,83653,31.056,16836,700
3.39557,526.6294,-1494,83654,31.056,16836,700
0.98628,533.68896,-1493,83655,31.3049,16836,700
3.32605,540.61947,-1492,83656,31.2551,16836,700
2.50693,547.06938,-1491,83657,31.1058,16836,700
1.31383,553.08941,-1490,83658,31.056,16836,700
1.49066,559.11003,-1489,83659,31.056,16836,700
1.23912,565.7839,-1488,83660,31.056,16836,700
2.50883,572.6185,-1487,83661,31.056,16836,700
1.89614,579.60806,-1486,83662,31.056,16836,700
3.67608,585.99331,-1485,83663,31.056,16834,705
2.24822,591.75418,-1484,83664,31.1058,16834,705
2.08994,596.51405,-1483,83665,30.9067,16834,705
2.55031,600.48749,-1482,83666,31.056,16834,705
3.36595,605.00941,-1481,83667,31.056,16834,705
2.2944,609.71366,-1480,83668,31.056,16834,705
1.62826,614.37626,-1479,83669,31.056,16834,705
4.03239,618.57537,-1478,83670,30.9067,16834,705
2.8236,622.67891,-1477,83671,31.056,16834,705
2.85884,627.55048,-1476,83672,30.9067,16834,705
2.60213,633.3495,-1475,83673,31.056,16840,706
2.09222,639.01318,-1474,83674,31.2551,16840,706
2.73089,645.30726,-1473,83675,31.056,16840,706
4.71387,715.40374,-1472,83676,31.1556,16840,706
10.9645,1154.3554,-1471,83677,30.9067,16840,706
3.18096,1125.5881,-1470,83678,31.3049,16840,706
5.30859,696.67959,-1469,83679,30.9564,16840,706
3.00997,502.73173,-1468,83680,30.9564,16840,706
3.86329,471.0431,-1467,83681,31.1058,16840,706
4.84261,432.83114,-1466,83682,31.056,16840,706
3.29436,424.33124,-1465,83683,31.3049,16856,694
3.18844,474.79877,-1464,83684,31.056,16856,694
4.00867,599.50188,-1463,83685,30.8569,16856,694
3.5708,696.84718,-1462,83686,30.9067,16856,694
4.11896,708.91317,-1461,83687,31.1556,16856,694
3.41936,644.64602,-1460,83688,31.2551,16856,694
2.47246,545.38247,-1459,83689,30.9067,16856,694
3.69678,477.46125,-1458,83690,30.8569,16856,694
2.83203,493.04624,-1457,83691,30.9067,16856,694
2.17929,552.13072,-1456,83692,30.9564,16856,694
2.05078,518.41368,-1455,83693,31.056,16846,710
2.18366,443.67323,-1454,83694,31.056,16846,710
3.12653,396.61997,-1453,83695,31.1556,16846,710
2.9893,389.21294,-1452,83696,31.056,16846,710
2.47824,412.98714,-1451,83697,31.056,16846,710
2.0716,459.73096,-1450,83698,31.056,16846,710
1.3461,487.85373,-1449,83699,31.1058,16846,710
2.26722,481.5439,-1448,83700,31.056,16846,710
3.17495,460.9855,-1447,83701,31.1058,16846,710
2.45504,443.01054,-1446,83702,31.056,16846,710
2.32946,434.02808,-1445,83703,31.056,16845,718
1.91864,431.98226,-1444,83704,31.1058,16845,718
2.25457,429.87934,-1443,83705,30.9067,16845,718
2.0693,423.97524,-1442,83706,31.1058,16845,718
2.15951,413.10071,-1441,83707,30.9067,16845,718
1.95556,399.39694,-1440,83708,30.9564,16845,718
1.70829,386.823,-1439,83709,31.056,16845,718
1.66303,375.21273,-1438,83710,30.9067,16845,718
1.92608,362.29747,-1437,83711,30.9564,16845,718
2.13284,347.1541,-1436,83712,31.056,16845,718
2.41588,331.66362,-1435,83713,31.056,16845,713
1.53168,317.75242,-1434,83714,31.1556,16845,713
1.21188,305.93546,-1433,83715,31.056,16845,713
1.83219,296.37216,-1432,83716,31.1556,16845,713
2.06237,288.32351,-1431,83717,30.9067,16845,713
0.497951,281.41173,-1430,83718,31.1058,16845,713
1.62532,275.11477,-1429,83719,31.056,16845,713
1.27328,263.56408,-1428,83720,31.2551,16845,713
1.20794,253.17665,-1427,83721,31.3049,16845,713
1.6165,262.57801,-1426,83722,31.1058,16845,713
1.45505,288.84947,-1425,83723,31.1058,16850,717
1.66016,310.6187,-1424,83724,30.9564,16850,717
1.00068,308.78776,-1423,83725,31.2551,16850,717
2.27352,293.09946,-1422,83726,31.1556,16850,717
1.98701,284.72874,-1421,83727,31.3049,16850,717
0.737289,287.07431,-1420,83728,31.056,16850,717
1.56859,290.23076,-1419,83729,31.056,16850,717
1.90617,293.09275,-1418,83730,31.056,16850,717
1.56859,300.3627,-1417,83731,30.9067,16850,717
2.11263,312.79419,-1416,83732,30.8569,16850,717
1.19205,325.38473,-1415,83733,31.2551,16849,726
1.50022,332.30934,-1414,83734,31.4045,16849,726
1.97739,329.74228,-1413,83735,31.056,16849,726
1.70269,323.70296,-1412,83736,31.2551,16849,726
1.57769,323.5276,-1411,83737,31.056,16849,726
2.68688,328.39841,-1410,83738,31.056,16849,726
1.45176,336.64126,-1409,83739,31.1058,16849,726
2.27981,343.1651,-1408,83740,31.056,16849,726
2.03678,344.06407,-1407,83741,30.9067,16849,726
1.61355,337.43392,-1406,83742,31.1556,16849,726
1.84257,324.06528,-1405,83743,30.8569,16847,737
2.02269,324.294,-1404,83744,31.2551,16847,737
0.845728,344.20839,-1403,83745,31.1556,16847,737
1.41517,364.02004,-1402,83746,30.9067,16847,737
1.76052,375.31317,-1401,83747,30.8569,16847,737
1.4681,379.67404,-1400,83748,31.056,16847,737
0.811194,382.27663,-1399,83749,30.9564,16847,737
1.82698,384.22309,-1398,83750,30.9564,16847,737
2.37809,383.22376,-1397,83751,31.056,16847,737
2.35997,380.44572,-1396,83752,30.8569,16847,737
2.56336,379.5015,-1395,83753,30.8569,16849,744
2.00374,382.78659,-1394,83754,31.1556,16849,744
2.25034,389.4554,-1393,83755,31.1058,16849,744
2.20539,396.93258,-1392,83756,31.1556,16849,744
1.79539,402.88701,-1391,83757,31.056,16849,744
1.60466,407.31575,-1390,83758,31.056,16849,744
2.29856,407.17647,-1389,83759,31.056,16849,744
2.41786,402.34644,-1388,83760,31.056,16849,744
1.33185,411.833,-1387,83761,30.7573,16849,744
1.42525,443.19804,-1386,83762,31.2551,16849,744
2.70809,478.76893,-1385,83763,31.2551,16853,754
2.01797,494.2085,-1384,83764,31.2551,16853,754
2.25034,489.71233,-1383,83765,31.1058,16853,754
3.0163,481.77065,-1382,83766,31.056,16853,754
2.77935,480.36238,-1381,83767,31.056,16853,754
2.58559,483.50846,-1380,83768,31.1058,16853,754
2.2944,486.31932,-1379,83769,31.056,16853,754
2.25668,489.6101,-1378,83770,31.056,16853,754
2.33764,496.32962,-1377,83771,31.1058,16853,754
1.88858,511.21888,-1376,83772,30.9067,16853,754
2.25034,527.97871,-1375,83773,30.9564,16856,762
2.22905,540.34742,-1374,83774,31.1058,16856,762
1.86572,544.41998,-1373,83775,31.3049,16856,762
1.62826,541.25134,-1372,83776,30.9067,16856,762
1.61945,535.71353,-1371,83777,31.056,16856,762
2.0156,530.69911,-1370,83778,31.1058,16856,762
1.94088,526.56431,-1369,83779,31.2551,16856,762
1.81388,524.56413,-1368,83780,30.8569,16856,762
2.48592,525.49784,-1367,83781,31.1556,16856,762
1.65728,529.50227,-1366,83782,31.056,16856,762
2.83876,535.67751,-1365,83783,31.056,16852,776
2.77591,541.3558,-1364,83784,31.1556,16852,776
2.06237,543.55607,-1363,83785,30.9067,16852,776
2.17052,542.84689,-1362,83786,30.9067,16852,776
1.88099,541.87789,-1361,83787,31.056,16852,776
1.25061,542.8703,-1360,83788,31.2551,16852,776
1.43857,544.95127,-1359,83789,31.056,16852,776
3.02892,547.14308,-1358,83790,31.1058,16852,776
1.53168,548.41499,-1357,83791,31.2551,16852,776
2.21187,548.52983,-1356,83792,31.056,16852,776
1.96772,548.58275,-1355,83793,31.1556,16855,791
1.75781,548.01762,-1354,83794,31.056,16855,791
2.04146,546.93483,-1353,83795,31.056,16855,791
2.24397,545.65428,-1352,83796,30.9067,16855,791
2.45698,545.29198,-1351,83797,31.1556,16855,791
2.47824,545.50529,-1350,83798,31.056,16855,791
1.81651,545.80755,-1349,83799,31.3049,16855,791
1.96529,545.77167,-1348,83800,31.056,16855,791
2.58559,544.80657,-1347,83801,31.2551,16855,791
1.90617,542.92765,-1346,83802,31.056,16855,791
2.54094,540.90777,-1345,83803,31.1058,16860,798
2.12837,538.36614,-1344,83804,31.056,16860,798
1.98701,536.29773,-1343,83805,31.3049,16860,798
2.0693,533.99762,-1342,83806,31.1058,16860,798
2.27981,531.80209,-1341,83807,31.1058,16860,798
1.17188,530.01223,-1340,83808,31.2551,16860,798
2.28816,527.45589,-1339,83809,31.2551,16860,798
1.57769,524.21731,-1338,83810,31.2551,16860,798
1.54099,520.68857,-1337,83811,31.1058,16860,798
2.43358,516.81462,-1336,83812,30.9564,16860,798
1.86316,512.34581,-1335,83813,30.9564,16860,804
1.49385,507.16473,-1334,83814,31.2551,16860,804
1.09619,501.56922,-1333,83815,30.9067,16860,804
1.36019,495.70253,-1332,83816,30.9564,16860,804
1.4118,489.77301,-1331,83817,30.9564,16860,804
1.10916,482.97632,-1330,83818,31.1058,16860,804
1.81388,475.61591,-1329,83819,31.056,16860,804
1.79539,467.60013,-1328,83820,30.9564,16860,804
1.77132,459.71132,-1327,83821,31.1058,16860,804
1.46484,451.88863,-1326,83822,30.9564,16860,804
1.32827,444.12751,-1325,83823,31.1058,16863,809
2.11037,436.11421,-1324,83824,31.056,16863,809
0.905627,428.00987,-1323,83825,31.056,16863,809
1.99897,419.8979,-1322,83826,31.1058,16863,809
2.16392,411.29707,-1321,83827,31.056,16863,809
2.43358,402.50612,-1320,83828,31.1556,16863,809
1.50657,393.32568,-1319,83829,31.1058,16863,809
2.67443,383.92509,-1318,83830,30.9067,16863,809
1.22752,374.4624,-1317,83831,31.1058,16863,809
1.23912,364.96104,-1316,83832,30.8569,16863,809
1.71386,354.68997,-1315,83833,31.1556,16865,809
2.19238,344.74863,-1314,83834,31.056,16865,809
1.76052,335.07667,-1313,83835,30.9564,16865,809
1.66589,325.46232,-1312,83836,31.056,16865,809
1.92608,315.88799,-1311,83837,31.056,16865,809
2.50313,306.37095,-1310,83838,31.1058,16865,809
2.18802,296.40698,-1309,83839,31.056,16865,809
1.87592,286.20787,-1308,83840,31.2551,16865,809
1.59273,276.05337,-1307,83841,31.1556,16865,809
1.57769,265.74878,-1306,83842,31.056,16865,809
1.83479,255.478,-1305,83843,30.9067,16865,805
1.59273,245.11068,-1304,83844,31.056,16865,805
2.35997,235.36935,-1303,83845,31.2551,16865,805
2.8986,226.25047,-1302,83846,31.1058,16865,805
2.11488,217.82027,-1301,83847,31.056,16865,805
2.43358,209.94426,-1300,83848,31.056,16865,805
2.99568,202.26351,-1299,83849,31.056,16865,805
2.0785,194.11072,-1298,83850,30.9067,16865,805
2.18802,185.9449,-1297,83851,30.9067,16865,805
1.60168,177.81488,-1296,83852,31.056,16865,805
2.58005,169.12378,-1295,83853,31.056,16868,803
2.40203,160.23527,-1294,83854,30.9067,16868,803
2.55777,151.83221,-1293,83855,31.3049,16868,803
2.51832,144.28303,-1292,83856,31.056,16868,803
3.00997,137.47681,-1291,83857,31.056,16868,803
2.99568,131.23132,-1290,83858,31.056,16868,803
2.1771,125.65732,-1289,83859,31.1556,16868,803
2.18584,120.76746,-1288,83860,31.1058,16868,803
2.0762,116.56488,-1287,83861,31.056,16868,803
3.01472,113.25033,-1286,83862,31.2551,16868,803
3.0068,110.21482,-1285,83863,31.056,16869,806
2.7028,108.16029,-1284,83864,30.9564,16869,806
2.79815,106.91199,-1283,83865,31.056,16869,806
1.45176,106.61079,-1282,83866,31.1058,16869,806
2.31303,107.7316,-1281,83867,31.056,16869,806
1.91615,109.85853,-1280,83868,31.056,16869,806
1.82437,112.53221,-1279,83869,31.056,16869,806
1.94088,115.78586,-1278,83870,31.4045,16869,806
2.80666,119.61321,-1277,83871,30.9067,16869,806
1.98461,124.2223,-1276,83872,31.1556,16869,806
2.75868,129.43794,-1275,83873,30.9067,16862,810
1.80334,134.53599,-1274,83874,31.056,16862,810
1.22752,139.94545,-1273,83875,31.2551,16862,810
1.80598,145.30167,-1272,83876,31.056,16862,810
1.28447,151.02096,-1271,83877,31.1058,16862,810
1.51603,157.01246,-1270,83878,31.056,16862,810
2.09677,162.92678,-1269,83879,31.056,16862,810
1.71108,168.50382,-1268,83880,31.056,16862,810
1.80334,174.21401,-1267,83881,31.056,16862,810
1.14304,180.32169,-1266,83882,30.9564,16862,810
1.9942,186.88945,-1265,83883,30.9067,16868,823
1.04268,193.44031,-1264,83884,31.056,16868,823
2.09904,199.84718,-1263,83885,31.056,16868,823
1.28447,206.09001,-1262,83886,31.056,16868,823
1.06977,212.58947,-1261,83887,31.056,16868,823
0.981433,218.97189,-1260,83888,31.056,16868,823
2.49167,225.38167,-1259,83889,30.9067,16868,823
2.32332,231.47573,-1258,83890,30.9067,16868,823
1.19604,237.65447,-1257,83891,31.1058,16868,823
1.15548,244.86176,-1256,83892,30.9067,16868,823
3.90747,405.29178,-1255,83893,31.3049,16866,827
7.6478,855.00882,-1254,83894,31.056,16866,827
1.80334,745.19786,-1253,83895,30.9564,16866,827
0.577742,304.81067,-1252,83896,31.056,16866,827
1.44188,577.6295,-1251,83897,31.056,16866,827
1.38452,715.7687,-1250,83898,31.1058,16866,827
3.233,554.191,-1249,83899,31.1058,16866,827
2.48784,354.60039,-1248,83900,31.1556,16866,827
2.01324,258.68543,-1247,83901,30.9564,16866,827
1.59273,256.96891,-1246,83902,31.4045,16866,827
1.4118,291.73972,-1245,83903,31.056,16873,839
0.308816,311.48471,-1244,83904,31.1058,16873,839
1.64863,323.60511,-1243,83905,30.9564,16873,839
1.47781,316.49925,-1242,83906,31.1058,16873,839
2.27981,281.53643,-1241,83907,30.8569,16873,839
1.25442,240.66737,-1240,83908,31.1058,16873,839
1.71664,209.1663,-1239,83909,31.056,16873,839
2.04845,203.85709,-1238,83910,31.4045,16873,839
1.74693,231.31352,-1237,83911,30.9564,16873,839
2.38609,260.87011,-1236,83912,31.1058,16873,839
1.42859,272.55884,-1235,83913,31.3049,16863,852
1.82698,268.71938,-1234,83914,30.9067,16863,852
0.365396,256.71642,-1233,83915,31.056,16863,852
2.15066,242.19335,-1232,83916,31.056,16863,852
1.31745,229.55932,-1231,83917,31.2551,16863,852
1.41854,221.21734,-1230,83918,31.1556,16863,852
1.28817,218.07512,-1229,83919,31.2551,16863,852
1.98701,219.47207,-1228,83920,30.9564,16863,852
1.1596,223.15268,-1227,83921,31.056,16863,852
0.138107,225.69612,-1226,83922,31.1058,16863,852
1.59273,225.07942,-1225,83923,31.1058,16850,864
0.895034,221.18794,-1224,83924,31.056,16850,864
1.54099,215.59515,-1223,83925,31.2551,16850,864
1.44188,210.85787,-1222,83926,31.1058,16850,864
1.38452,207.71034,-1221,83927,31.1058,16850,864
2.06237,205.86187,-1220,83928,31.1058,16850,864
1.14304,204.49492,-1219,83929,31.1058,16850,864
2.19238,203.18845,-1218,83930,31.1556,16850,864
1.60168,201.18176,-1217,83931,31.1556,16850,864
1.49385,197.33035,-1216,83932,31.1058,16850,864
1.97498,192.65352,-1215,83933,30.9564,16842,862
1.27328,187.7412,-1214,83934,31.1058,16842,862
2.5782,182.6384,-1213,83935,31.1556,16842,862
1.95556,177.58252,-1212,83936,31.2551,16842,862
1.60466,172.27218,-1211,83937,31.056,16842,862
1.28447,166.63116,-1210,83938,31.1556,16842,862
1.48103,160.51415,-1209,83939,30.9564,16842,862
0.834375,154.02981,-1208,83940,30.9067,16842,862
1.60168,147.3288,-1207,83941,30.9564,16842,862
1.57769,140.30563,-1206,83942,31.056,16842,862
1.70829,133.54035,-1205,83943,31.056,16838,865
1.1472,126.84486,-1204,83944,30.9067,16838,865
1.1596,120.52835,-1203,83945,31.2551,16838,865
1.67446,115.00922,-1202,83946,31.2551,16838,865
1.70549,110.54274,-1201,83947,31.1556,16838,865
1.67161,107.70462,-1200,83948,31.2551,16838,865
2.41983,106.88349,-1199,83949,31.056,16838,865
1.63702,108.06981,-1198,83950,30.9564,16838,865
1.17998,110.87056,-1197,83951,30.9564,16838,865
1.22752,114.56843,-1196,83952,30.9564,16838,865
1.45505,119.36735,-1195,83953,31.056,16835,866
2.84379,125.19975,-1194,83954,30.7573,16835,866
1.63702,131.72999,-1193,83955,31.1058,16835,866
0.981433,138.57986,-1192,83956,31.2551,16835,866
1.79007,146.09506,-1191,83957,31.1556,16835,866
1.28817,154.21129,-1190,83958,31.1556,16835,866
0.840071,161.91972,-1189,83959,31.2551,16835,866
1.3029,169.18364,-1188,83960,30.8569,16835,866
0.966748,176.76026,-1187,83961,30.9067,16835,866
1.91864,183.04853,-1186,83962,31.056,16835,866
1.74966,189.85584,-1185,83963,30.9067,16831,869
1.69708,196.89593,-1184,83964,31.1556,16831,869
1.92608,203.50501,-1183,83965,31.056,16831,869
2.11037,209.3162,-1182,83966,30.9067,16831,869
1.74966,214.59343,-1181,83967,31.056,16831,869
1.31745,220.26349,-1180,83968,31.056,16831,869
1.39481,226.67418,-1179,83969,31.1058,16831,869
1.73872,233.94943,-1178,83970,31.3049,16831,869
0.710948,241.9933,-1177,83971,30.9564,16831,869
1.51603,250.22949,-1176,83972,30.9067,16831,869
1.30655,258.06152,-1175,83973,30.9564,16833,874
1.62826,265.81648,-1174,83974,31.056,16833,874
2.02504,274.02708,-1173,83975,31.056,16833,874
1.75781,281.82948,-1172,83976,31.056,16833,874
1.43525,289.32915,-1171,83977,31.056,16833,874
1.02423,296.82907,-1170,83978,30.9564,16833,874
1.1596,304.17958,-1169,83979,31.056,16833,874
0.811194,311.60467,-1168,83980,30.9067,16833,874
2.26091,318.32647,-1167,83981,31.056,16833,874
0.78733,324.25533,-1166,83982,30.9564,16833,874
1.5034,330.17355,-1165,83983,31.1058,16842,875
0.218366,336.18583,-1164,83984,31.056,16842,875
1.56555,342.44258,-1163,83985,31.1058,16842,875
1.10916,348.62758,-1162,83986,31.1058,16842,875
1.09619,354.80824,-1161,83987,31.1058,16842,875
0.916097,361.21616,-1160,83988,31.1556,16842,875
1.80334,367.88902,-1159,83989,31.3049,16842,875
2.54094,374.60197,-1158,83990,31.056,16842,875
1.13045,380.36312,-1157,83991,31.056,16842,875
1.39481,384.95076,-1156,83992,31.1058,16842,875
0.981433,389.60317,-1155,83993,31.056,16847,877
0.710948,395.13611,-1154,83994,30.9564,16847,877
1.26953,400.84926,-1153,83995,31.1058,16847,877
1.19205,405.97035,-1152,83996,31.056,16847,877
1.958,410.4089,-1151,83997,31.1058,16847,877
1.43857,414.7867,-1150,83998,30.9564,16847,877
1.46158,418.97044,-1149,83999,31.056,16847,877
1.59273,423.42876,-1148,84000,30.9564,16847,877
0.878906,427.99136,-1147,84001,31.3049,16847,877
1.74966,432.75436,-1146,84002,31.056,16847,877
2.05078,437.05422,-1145,84003,30.9564,16847,870
0.768946,440.85323,-1144,84004,31.056,16847,870
1.24679,444.28721,-1143,84005,30.9067,16847,870
1.49385,447.32028,-1142,84006,30.9564,16847,870
2.11263,450.01517,-1141,84007,30.9067,16847,870
1.57163,452.15017,-1140,84008,31.056,16847,870
1.52231,454.07088,-1139,84009,31.1058,16847,870
1.80334,455.99852,-1138,84010,31.056,16847,870
2.04146,457.5415,-1137,84011,31.3049,16847,870
2.54282,458.46307,-1136,84012,31.1556,16847,870
1.91864,459.09509,-1135,84013,31.3049,16849,858
2.77763,459.43054,-1134,84014,30.9564,16849,858
2.21187,459.43784,-1133,84015,31.056,16849,858
1.20399,459.39276,-1132,84016,31.1058,16849,858
2.00612,459.08048,-1131,84017,31.056,16849,858
2.08079,458.49463,-1130,84018,30.9067,16849,858
2.67264,457.77454,-1129,84019,31.2551,16849,858
1.23912,457.1947,-1128,84020,31.1556,16849,858
1.68014,456.16751,-1127,84021,31.056,16849,858
1.98461,454.90733,-1126,84022,31.056,16849,858
2.22047,453.44289,-1125,84023,30.9067,16857,848
2.03444,451.53861,-1124,84024,31.1058,16857,848
1.53168,449.58728,-1123,84025,30.9067,16857,848
1.36019,447.30888,-1122,84026,31.056,16857,848
2.25668,444.92733,-1121,84027,30.9067,16857,848
2.08537,442.50805,-1120,84028,31.1058,16857,848
2.11263,440.34926,-1119,84029,31.056,16857,848
1.22752,438.09804,-1118,84030,31.056,16857,848
1.61945,435.85639,-1117,84031,31.2551,16857,848
2.0785,433.47864,-1116,84032,31.3049,16857,848
1.88099,431.23642,-1115,84033,31.2551,16860,840
1.958,429.04009,-1114,84034,31.1556,16860,840
2.48976,426.80833,-1113,84035,31.1556,16860,840
1.99897,424.71316,-1112,84036,30.9067,16860,840
2.77763,422.55437,-1111,84037,31.1556,16860,840
1.79539,419.93162,-1110,84038,31.1556,16860,840
1.67446,416.88677,-1109,84039,30.9067,16860,840
2.31715,413.32146,-1108,84040,31.1058,16860,840
2.0693,409.50007,-1107,84041,31.056,16860,840
2.16171,405.00314,-1106,84042,31.056,16860,840
2.18366,400.48485,-1105,84043,31.056,16866,835
1.72495,395.92446,-1104,84044,31.2551,16866,835
2.03209,391.02903,-1103,84045,30.8569,16866,835
2.64033,388.3323,-1102,84046,30.9564,16866,835
1.80334,388.87036,-1101,84047,30.9564,16866,835
1.17998,395.61668,-1100,84048,31.056,16866,835
2.0716,461.2815,-1099,84049,31.056,16866,835
1.48746,435.14,-1098,84050,31.1058,16866,835
1.28447,273.23724,-1097,84051,30.9067,16866,835
1.47134,143.2624,-1096,84052,30.9067,16866,835
1.85804,221.4517,-1095,84053,31.056,16870,829
1.92608,325.90613,-1094,84054,30.9067,16870,829
1.3461,382.25117,-1093,84055,31.1058,16870,829
1.9335,374.57812,-1092,84056,31.1058,16870,829
2.03444,315.52968,-1091,84057,31.3049,16870,829
1.79804,242.0055,-1090,84058,31.056,16870,829
1.38452,194.94724,-1089,84059,31.056,16870,829
2.01324,191.9221,-1088,84060,31.056,16870,829
1.68014,224.71954,-1087,84061,31.1058,16870,829
2.33151,272.82292,-1086,84062,31.056,16870,829
2.76559,312.97319,-1085,84063,31.1058,16869,826
1.46484,327.43968,-1084,84064,30.9564,16869,826
1.66875,313.96999,-1083,84065,31.1058,16869,826
1.10916,287.55374,-1082,84066,31.1058,16869,826
1.74966,267.44045,-1081,84067,31.1058,16869,826
1.9918,264.59511,-1080,84068,31.2551,16869,826
2.14177,277.29921,-1079,84069,31.056,16869,826
0.889691,297.09765,-1078,84070,30.9564,16869,826
1.68863,312.67681,-1077,84071,31.2551,16869,826
1.40163,318.47033,-1076,84072,31.056,16869,826
1.6165,316.03874,-1075,84073,31.1556,16866,832
1.19205,312.5246,-1074,84074,31.056,16866,832
1.95556,313.79719,-1073,84075,31.056,16866,832
1.87592,321.68467,-1072,84076,30.9564,16866,832
1.69708,331.23354,-1071,84077,31.056,16866,832
1.66303,333.34953,-1070,84078,30.9067,16866,832
0.601994,329.76777,-1069,84079,31.056,16866,832
1.52544,323.46482,-1068,84080,31.1058,16866,832
1.85547,318.09139,-1067,84081,30.9564,16866,832
1.11345,318.23618,-1066,84082,31.2551,16866,832
1.50022,332.32384,-1065,84083,31.2551,16866,830
2.48784,350.65236,-1064,84084,30.9564,16866,830
1.66303,343.41596,-1063,84085,31.056,16866,830
0.525895,311.0141,-1062,84086,31.1556,16866,830
0.926449,280.4903,-1061,84087,31.056,16866,830
1.83739,274.92917,-1060,84088,31.056,16866,830
0.817051,291.18573,-1059,84089,30.9067,16866,830
3.03364,311.45622,-1058,84090,31.056,16866,830
1.02423,323.29282,-1057,84091,31.056,16866,830
2.26301,327.35814,-1056,84092,31.056,16866,830
1.70829,328.90649,-1055,84093,30.8569,16860,830
1.79539,330.91625,-1054,84094,31.056,16860,830
1.68298,332.67334,-1053,84095,31.1058,16860,830
2.10585,331.52218,-1052,84096,31.056,16860,830
1.69427,327.77707,-1051,84097,31.056,16860,830
1.77132,325.08415,-1050,84098,31.056,16860,830
1.90617,326.19686,-1049,84099,31.056,16860,830
2.11714,331.17291,-1048,84100,30.8569,16860,830
2.16171,337.87281,-1047,84101,31.056,16860,830
1.66016,343.1466,-1046,84102,31.056,16860,830
2.37809,345.92431,-1045,84103,31.3049,16860,827
0.966748,347.02018,-1044,84104,31.056,16860,827
2.33151,347.35472,-1043,84105,31.1556,16860,827
1.33543,348.70743,-1042,84106,31.1058,16860,827
2.16612,351.51954,-1041,84107,31.2551,16860,827
1.47458,354.44506,-1040,84108,31.4045,16860,827
1.27328,357.8523,-1039,84109,31.056,16860,827
1.67161,361.36231,-1038,84110,31.056,16860,827
1.87846,364.75314,-1037,84111,30.8569,16860,827
2.02269,368.02341,-1036,84112,31.1058,16860,827
2.33151,371.29258,-1035,84113,30.9564,16850,822
2.43162,374.43566,-1034,84114,30.8569,16850,822
1.60466,377.86898,-1033,84115,30.9564,16850,822
2.18584,381.00171,-1032,84116,31.056,16850,822
2.34985,384.299,-1031,84117,31.056,16850,822
2.11714,388.01195,-1030,84118,31.056,16850,822
2.71512,391.60194,-1029,84119,31.3049,16850,822
2.40995,395.44155,-1028,84120,30.9067,16850,822
1.63702,399.37782,-1027,84121,30.9564,16850,822
1.31383,403.4016,-1026,84122,31.056,16850,822
2.0156,408.24023,-1025,84123,31.4045,16851,808
1.83998,414.76821,-1024,84124,31.1058,16851,808
1.77132,430.79782,-1023,84125,31.1058,16851,808
4.01342,532.58926,-1022,84126,30.9564,16851,808
0.931581,587.35933,-1021,84127,30.9564,16851,808
1.46484,455.72379,-1020,84128,31.2551,16851,808
1.47134,307.09516,-1019,84129,31.1556,16851,808
2.41391,240.05005,-1018,84130,30.8569,16851,808
2.32332,273.73189,-1017,84131,31.1058,16851,808
2.57264,334.58121,-1016,84132,31.1058,16851,808
1.52544,375.56473,-1015,84133,31.056,16853,792
1.58973,385.46386,-1014,84134,31.056,16853,792
2.88375,369.97442,-1013,84135,30.9564,16853,792
1.92608,345.50093,-1012,84136,31.056,16853,792
1.98701,327.01406,-1011,84137,31.056,16853,792
1.66016,320.77335,-1010,84138,31.2551,16853,792
1.86827,328.94914,-1009,84139,31.1058,16853,792
1.82698,341.18851,-1008,84140,31.1058,16853,792
2.12837,342.97463,-1007,84141,31.1058,16853,792
1.23912,339.45528,-1006,84142,31.056,16853,792
2.24822,337.03985,-1005,84143,31.056,16850,775
1.51917,335.28137,-1004,84144,31.056,16850,775
2.54844,330.20326,-1003,84145,30.9067,16850,775
2.49549,322.38735,-1002,84146,30.9564,16850,775
2.03444,315.63276,-1001,84147,31.1556,16850,775
2.48976,314.52898,-1000,84148,31.2551,16850,775
1.97498,316.2757,-999,84149,31.1556,16850,775
1.88353,316.5753,-998,84150,31.1058,16850,775
1.78206,316.24357,-997,84151,31.1556,16850,775
1.41854,314.07138,-996,84152,30.9564,16850,775
1.60466,313.90252,-995,84153,31.056,16852,758
0.805294,341.7901,-994,84154,31.056,16852,758
2.27352,368.22764,-993,84155,30.9067,16852,758
1.57466,308.23827,-992,84156,31.1058,16852,758
1.66303,246.9569,-991,84157,31.1058,16852,758
0.817051,257.83336,-990,84158,31.2551,16852,758
1.47134,302.85027,-989,84159,31.1058,16852,758
1.59273,327.5477,-988,84160,30.9564,16852,758
1.81388,324.49214,-987,84161,31.1058,16852,758
2.35593,302.79752,-986,84162,31.056,16852,758
1.94088,280.48934,-985,84163,30.8569,16853,742
1.4681,272.70885,-984,84164,31.056,16853,742
2.55777,276.68612,-983,84165,31.056,16853,742
2.31303,277.7873,-982,84166,31.1058,16853,742
1.70549,273.36605,-981,84167,31.056,16853,742
1.70829,275.49301,-980,84168,31.056,16853,742
2.02269,288.82803,-979,84169,31.1556,16853,742
1.77132,302.06661,-978,84170,31.056,16853,742
0.966748,303.34667,-977,84171,31.1058,16853,742
1.60466,293.72598,-976,84172,31.2551,16853,742
0.98628,284.23175,-975,84173,30.9564,16851,726
1.69146,281.56541,-974,84174,30.9564,16851,726
1.47458,280.89209,-973,84175,31.056,16851,726
2.14399,280.4721,-972,84176,31.056,16851,726
1.66589,281.5774,-971,84177,30.9067,16851,726
1.48103,285.73458,-970,84178,31.1058,16851,726
2.25034,289.97522,-969,84179,30.9564,16851,726
2.02504,289.45286,-968,84180,31.056,16851,726
1.32827,292.56938,-967,84181,31.1556,16851,726
1.40163,300.86533,-966,84182,31.056,16851,726
2.50313,305.99563,-965,84183,31.4045,16858,711
1.97739,304.47439,-964,84184,30.9067,16858,711
0.525895,299.05914,-963,84185,31.2551,16858,711
1.71664,291.49376,-962,84186,31.1556,16858,711
1.65152,285.37154,-961,84187,31.056,16858,711
2.08537,282.31702,-960,84188,31.056,16858,711
1.70549,276.59021,-959,84189,31.1058,16858,711
2.98771,272.18149,-958,84190,31.056,16858,711
1.33185,270.5331,-957,84191,31.056,16858,711
1.08306,270.76202,-956,84192,31.1556,16858,711
1.46484,269.82662,-955,84193,31.2551,16854,697
2.60945,266.90157,-954,84194,31.056,16854,697
1.36019,262.56609,-953,84195,31.2551,16854,697
1.41517,259.33119,-952,84196,31.056,16854,697
1.98701,257.47233,-951,84197,31.3049,16854,697
2.11037,255.79658,-950,84198,30.8569,16854,697
1.13045,254.5286,-949,84199,31.1058,16854,697
1.21188,253.53372,-948,84200,31.1058,16854,697
1.70549,253.26804,-947,84201,31.056,16854,697
1.45505,254.00676,-946,84202,31.056,16854,697
2.38809,255.37699,-945,84203,31.056,16856,685
1.8529,256.5564,-944,84204,30.9564,16856,685
1.47458,257.31267,-943,84205,30.9067,16856,685
1.9798,257.45928,-942,84206,31.3049,16856,685
1.83479,256.30284,-941,84207,31.056,16856,685
1.13886,253.98309,-940,84208,31.1556,16856,685
1.70829,250.72211,-939,84209,31.1058,16856,685
1.37415,247.25808,-938,84210,31.1556,16856,685
1.63702,244.43128,-937,84211,30.8569,16856,685
1.59273,242.09498,-936,84212,30.9067,16856,685
1.54099,239.58802,-935,84213,31.056,16854,673
1.40163,236.88451,-934,84214,31.056,16854,673
2.30063,234.34133,-933,84215,30.9564,16854,673
2.08765,232.29166,-932,84216,31.056,16854,673
1.44188,230.77744,-931,84217,30.9067,16854,673
1.33185,229.51413,-930,84218,31.056,16854,673
1.61355,228.16744,-929,84219,31.1058,16854,673
1.10916,226.81817,-928,84220,31.056,16854,673
1.66016,225.39195,-927,84221,30.9067,16854,673
1.6341,223.79783,-926,84222,31.1058,16854,673
1.69146,221.65784,-925,84223,30.9067,16852,660
1.71108,218.68725,-924,84224,31.1058,16852,660
1.49066,215.23385,-923,84225,31.1058,16852,660
2.1573,211.04379,-922,84226,31.056,16852,660
1.80598,207.19827,-921,84227,30.9564,16852,660
1.22752,203.22892,-920,84228,31.056,16852,660
2.14622,199.39351,-919,84229,31.1058,16852,660
0.905627,195.62616,-918,84230,31.056,16852,660
1.83739,192.12192,-917,84231,30.9564,16852,660
2.61493,188.7929,-916,84232,31.056,16852,660
1.67446,185.70105,-915,84233,31.056,16850,652
2.04845,182.58251,-914,84234,31.056,16850,652
1.64863,179.83232,-913,84235,31.056,16850,652
1.85804,177.3793,-912,84236,31.056,16850,652
2.24822,174.89826,-911,84237,30.9564,16850,652
0.878906,172.97656,-910,84238,31.056,16850,652
1.85804,171.651,-909,84239,31.1556,16850,652
2.03209,170.26918,-908,84240,31.056,16850,652
2.04845,168.58379,-907,84241,31.056,16850,652
1.53168,166.73415,-906,84242,30.9564,16850,652
1.39139,164.73817,-905,84243,30.9564,16854,643
1.16371,162.41968,-904,84244,30.9564,16854,643
1.98461,160.62551,-903,84245,31.3049,16854,643
1.51917,158.7705,-902,84246,31.1058,16854,643
1.43857,156.73586,-901,84247,31.2551,16854,643
1.3461,154.8776,-900,84248,31.2551,16854,643
2.42376,152.64364,-899,84249,31.2551,16854,643
2.16392,149.67807,-898,84250,31.056,16854,643
1.52544,146.39595,-897,84251,30.9067,16854,643
1.25821,143.56662,-896,84252,31.1556,16854,643
1.79804,142.24984,-895,84253,31.1058,16854,634
1.81388,142.66469,-894,84254,31.2551,16854,634
2.19238,144.61422,-893,84255,30.9067,16854,634
1.52231,146.51163,-892,84256,31.056,16854,634
1.76323,148.60139,-891,84257,31.1058,16854,634
1.86572,152.28808,-890,84258,31.1556,16854,634
0.926449,161.6752,-889,84259,31.056,16854,634
1.52856,151.04084,-888,84260,31.1058,16854,634
1.37067,160.60283,-887,84261,31.2551,16854,634
1.59273,314.54469,-886,84262,31.056,16854,634
2.82698,594.52085,-885,84263,31.1058,16855,625
4.12475,914.8955,-884,84264,31.3049,16855,625
5.19876,1152.9298,-883,84265,31.056,16855,625
5.91929,1206.7393,-882,84266,30.9067,16855,625
8.02625,1028.8521,-881,84267,31.2551,16855,625
8.11546,682.60471,-880,84268,31.056,16855,625
7.6876,452.29805,-879,84269,31.1058,16855,625
4.94299,629.56489,-878,84270,31.3049,16855,625
5.27434,893.07133,-877,84271,31.1058,16855,625
3.20038,1056.556,-876,84272,31.056,16855,625
2.65115,1058.207,-875,84273,31.056,16855,618
1.90867,947.82736,-874,84274,31.1058,16855,618
2.48016,923.28699,-873,84275,30.9067,16855,618
1.69708,1105.3396,-872,84276,31.1058,16855,618
2.44336,1319.9494,-871,84277,30.9067,16855,618
4.10621,1406.5979,-870,84278,31.056,16855,618
3.54399,1342.1034,-869,84279,31.056,16855,618
3.84349,1193.5436,-868,84280,31.056,16855,618
3.86946,1018.9442,-867,84281,31.056,16855,618
3.57347,860.16138,-866,84282,31.056,16855,618
3.33893,792.99044,-865,84283,31.1058,16838,614
3.88912,809.07279,-864,84284,31.056,16838,614
3.68127,807.65257,-863,84285,31.056,16838,614
4.49006,744.02851,-862,84286,30.9067,16838,614
3.53995,633.16497,-861,84287,31.056,16838,614
3.77843,517.1728,-860,84288,31.056,16838,614
3.26966,446.75021,-859,84289,31.056,16838,614
4.05244,395.9929,-858,84290,30.9564,16838,614
3.054,387.76653,-857,84291,31.056,16838,614
3.03835,463.11635,-856,84292,31.3049,16838,614
2.954,557.62053,-855,84293,31.056,16838,636
3.62645,608.26632,-854,84294,31.1058,16838,636
3.06491,592.04557,-853,84295,31.1058,16838,636
3.34891,527.44695,-852,84296,31.056,16838,636
2.32332,478.03648,-851,84297,31.056,16838,636
2.17052,484.59762,-850,84298,31.3049,16838,636
2.32126,472.66011,-849,84299,31.2551,16838,636
3.88299,482.34165,-848,84300,31.056,16838,636
2.34578,519.6333,-847,84301,31.1556,16838,636
0.966748,763.42134,-846,84302,31.1058,16838,636
1.61945,1146.5597,-845,84303,30.9067,16834,650
2.34782,1308.3588,-844,84304,30.9067,16834,650
1.77938,1180.8597,-843,84305,31.056,16834,650
2.97812,901.73756,-842,84306,31.056,16834,650
2.56336,637.49812,-841,84307,31.4045,16834,650
2.08079,498.90955,-840,84308,31.2551,16834,650
2.44531,511.68164,-839,84309,31.056,16834,650
1.06082,587.58575,-838,84310,31.056,16834,650
1.66016,663.3653,-837,84311,31.2551,16834,650
3.45129,719.1149,-836,84312,31.056,16834,650
2.33151,745.23243,-835,84313,31.056,16822,677
2.38409,741.52901,-834,84314,31.1058,16822,677
1.47458,710.88109,-833,84315,31.056,16822,677
3.09741,668.63611,-832,84316,30.9067,16822,677
2.65115,640.07542,-831,84317,31.1556,16822,677
2.40995,642.12115,-830,84318,30.8569,16822,677
2.82529,658.23987,-829,84319,31.2551,16822,677
1.89865,673.74365,-828,84320,31.056,16822,677
2.77935,688.81286,-827,84321,31.056,16822,677
2.44921,691.13421,-826,84322,30.9067,16822,677
2.37005,678.81956,-825,84323,30.9067,16818,713
2.12613,665.54665,-824,84324,31.2551,16818,713
2.83708,655.22843,-823,84325,31.056,16818,713
2.85384,646.77582,-822,84326,30.9564,16818,713
2.11714,639.65837,-821,84327,31.056,16818,713
1.96529,637.08707,-820,84328,31.1058,16818,713
2.28816,633.98447,-819,84329,30.9067,16818,713
1.98701,630.18657,-818,84330,30.8569,16818,713
2.64033,622.55688,-817,84331,30.9564,16818,713
2.62948,606.79793,-816,84332,30.8569,16818,713
2.3539,589.79769,-815,84333,31.1058,16812,761
1.69708,579.28374,-814,84334,31.1058,16812,761
2.15951,572.16862,-813,84335,31.1556,16812,761
2.41983,566.32528,-812,84336,31.056,16812,761
1.63993,558.19936,-811,84337,31.4045,16812,761
1.80334,551.62606,-810,84338,31.1556,16812,761
0.931581,552.43931,-809,84339,30.9564,16812,761
1.28817,557.08223,-808,84340,31.056,16812,761
2.57079,559.55142,-807,84341,31.056,16812,761
2.22262,554.7939,-806,84342,31.1556,16812,761
2.0739,545.46366,-805,84343,30.9067,16812,787
1.3029,542.48949,-804,84344,31.3049,16812,787
0.895034,555.31171,-803,84345,31.056,16812,787
1.63702,581.90744,-802,84346,31.056,16812,787
1.91864,609.53175,-801,84347,30.9564,16812,787
0.601994,625.0591,-800,84348,31.1058,16812,787
2.51832,627.81429,-799,84349,30.9564,16812,787
2.12388,636.804,-798,84350,30.9067,16812,787
0.768946,656.18554,-797,84351,31.1058,16812,787
1.50657,659.50444,-796,84352,31.1556,16812,787
2.31303,641.07519,-795,84353,31.056,16809,787
1.40163,630.45327,-794,84354,31.056,16809,787
1.07865,649.31228,-793,84355,31.056,16809,787
2.23332,692.19242,-792,84356,31.1058,16809,787
2.33356,739.1106,-791,84357,31.3049,16809,787
0.458048,771.07024,-790,84358,31.056,16809,787
1.26953,782.43761,-789,84359,31.056,16809,787
0.750112,780.31122,-788,84360,31.056,16809,787
1.94088,772.93033,-787,84361,31.1058,16809,787
2.37206,765.52178,-786,84362,31.056,16809,787
1.99659,759.56176,-785,84363,31.056,16809,815
1.49066,749.56052,-784,84364,31.056,16809,815
2.03444,730.34735,-783,84365,31.2551,16809,815
2.91337,705.06735,-782,84366,31.056,16809,815
1.86572,677.02914,-781,84367,31.056,16809,815
2.18584,648.38409,-780,84368,31.056,16809,815
2.01324,618.49332,-779,84369,31.056,16809,815
1.67446,586.17586,-778,84370,30.9067,16809,815
1.45176,552.15853,-777,84371,31.056,16809,815
1.56859,520.9281,-776,84372,31.056,16809,815
2.31715,500.59145,-775,84373,30.9067,16819,855
1.89865,494.03922,-774,84374,31.056,16819,855
1.43857,493.30728,-773,84375,31.1556,16819,855
2.81175,494.03956,-772,84376,31.056,16819,855
2.4974,496.8956,-771,84377,31.056,16819,855
2.97812,498.87725,-770,84378,31.1058,16819,855
3.51969,492.84248,-769,84379,31.1058,16819,855
2.62766,481.09398,-768,84380,31.056,16819,855
2.63672,471.48534,-767,84381,31.056,16819,855
2.58559,467.61867,-766,84382,31.1058,16819,855
3.00997,471.38715,-765,84383,30.9564,16818,882
3.17495,482.12473,-764,84384,31.056,16818,882
2.09904,495.7576,-763,84385,31.1556,16818,882
2.80836,509.24529,-762,84386,31.056,16818,882
2.43358,519.91714,-761,84387,31.1058,16818,882
2.29024,525.41945,-760,84388,31.1058,16818,882
2.36602,528.18744,-759,84389,30.9067,16818,882
3.49931,537.14224,-758,84390,31.056,16818,882
2.08079,559.61497,-757,84391,31.3049,16818,882
2.50693,601.05054,-756,84392,31.1058,16818,882
3.00997,659.5037,-755,84393,30.8569,16822,888
2.04146,724.46945,-754,84394,31.056,16822,888
2.26091,779.10129,-753,84395,31.1058,16822,888
3.38995,809.83511,-752,84396,30.8569,16822,888
2.56336,814.26727,-751,84397,31.1058,16822,888
2.43358,795.1355,-750,84398,30.9067,16822,888
2.41193,755.73231,-749,84399,31.1058,16822,888
2.48784,700.36712,-748,84400,31.056,16822,888
2.35997,634.99794,-747,84401,31.1058,16822,888
2.11488,565.28814,-746,84402,31.1058,16822,888
2.09904,498.79062,-745,84403,31.1058,16829,885
1.07422,446.4022,-744,84404,31.1058,16829,885
0.916097,415.05437,-743,84405,31.1058,16829,885
2.01324,403.57082,-742,84406,30.9067,16829,885
1.82698,407.01014,-741,84407,31.3049,16829,885
1.61059,419.72029,-740,84408,30.9067,16829,885
1.86827,438.86445,-739,84409,31.3049,16829,885
1.58673,463.29318,-738,84410,31.2551,16829,885
0.750112,486.30142,-737,84411,31.1058,16829,885
2.0156,500.82539,-736,84412,31.056,16829,885
1.82698,502.1479,-735,84413,31.1058,16843,885
1.49066,488.99906,-734,84414,31.2551,16843,885
1.71386,462.83004,-733,84415,31.2551,16843,885
2.27143,429.08458,-732,84416,31.1556,16843,885
1.69708,395.19786,-731,84417,31.056,16843,885
2.05078,364.44866,-730,84418,31.056,16843,885
2.02504,336.43805,-729,84419,31.3049,16843,885
1.45505,308.69111,-728,84420,31.056,16843,885
2.56522,281.71027,-727,84421,31.056,16843,885
2.30684,256.49134,-726,84422,31.1556,16843,885
3.12653,235.8599,-725,84423,31.056,16850,882
2.96689,220.75247,-724,84424,31.056,16850,882
1.958,210.29966,-723,84425,31.3049,16850,882
2.0716,202.06251,-722,84426,31.1058,16850,882
2.59663,194.85565,-721,84427,31.1556,16850,882
2.56522,190.04638,-720,84428,31.056,16850,882
2.6131,186.3492,-719,84429,31.3049,16850,882
1.55332,183.10616,-718,84430,31.056,16850,882
1.70829,179.9251,-717,84431,31.1058,16850,882
1.98461,177.25059,-716,84432,31.056,16850,882
2.59295,174.43006,-715,84433,31.2551,16866,874
2.15951,170.46655,-714,84434,31.056,16866,874
1.79539,165.77036,-713,84435,31.056,16866,874
1.73323,162.92665,-712,84436,31.056,16866,874
1.70549,162.52666,-711,84437,31.056,16866,874
1.87592,163.94307,-710,84438,31.056,16866,874
2.77763,167.80677,-709,84439,30.9564,16866,874
2.05078,174.27695,-708,84440,31.4045,16866,874
1.74966,182.76881,-707,84441,31.056,16866,874
2.19672,192.02688,-706,84442,30.9067,16866,874
2.44336,201.53705,-705,84443,31.1556,16881,856
2.45698,210.88416,-704,84444,30.9067,16881,856
2.44531,219.83196,-703,84445,31.1058,16881,856
1.68298,228.77195,-702,84446,31.1556,16881,856
1.75238,238.53479,-701,84447,31.056,16881,856
1.00543,249.30837,-700,84448,30.9564,16881,856
3.33464,262.36048,-699,84449,31.056,16881,856
1.86316,276.92279,-698,84450,31.056,16881,856
2.36199,291.10732,-697,84451,31.1058,16881,856
0.889691,304.34582,-696,84452,31.056,16881,856
1.8529,316.93737,-695,84453,31.1058,16886,842
1.19604,329.77518,-694,84454,31.056,16886,842
1.51603,344.24826,-693,84455,31.1058,16886,842
2.66729,359.59422,-692,84456,31.056,16886,842
2.90517,373.39227,-691,84457,31.2551,16886,842
1.57466,384.26594,-690,84458,31.1058,16886,842
1.63702,391.95152,-689,84459,31.3049,16886,842
2.33151,399.27124,-688,84460,31.2551,16886,842
2.75695,409.7776,-687,84461,31.056,16886,842
2.35997,423.8688,-686,84462,31.2551,16886,842
2.47246,439.99312,-685,84463,31.056,16885,836
1.74146,455.91783,-684,84464,30.9067,16885,836
1.60168,469.15522,-683,84465,31.2551,16885,836
2.59663,478.35818,-682,84466,30.9564,16885,836
0.447517,484.67727,-681,84467,31.1556,16885,836
2.03444,491.14756,-680,84468,30.9067,16885,836
2.0693,499.73156,-679,84469,31.056,16885,836
1.20794,511.53702,-678,84470,31.056,16885,836
1.38452,525.43992,-677,84471,31.3049,16885,836
2.39407,539.7166,-676,84472,31.1058,16885,836
1.20399,553.2705,-675,84473,30.9067,16863,841
1.23912,565.02371,-674,84474,31.056,16863,841
2.0156,576.1343,-673,84475,31.056,16863,841
2.23332,587.58461,-672,84476,30.9564,16863,841
0.889691,598.52898,-671,84477,31.3049,16863,841
2.50693,607.84116,-670,84478,31.056,16863,841
2.58743,614.79285,-669,84479,30.9564,16863,841
1.90116,618.84574,-668,84480,31.056,16863,841
1.96772,620.9066,-667,84481,30.9067,16863,841
1.84257,623.92338,-666,84482,31.2551,16863,841
2.21187,627.28522,-665,84483,31.056,16840,834
1.86316,628.94608,-664,84484,31.056,16840,834
1.68014,629.05949,-663,84485,30.9067,16840,834
2.39805,628.95578,-662,84486,31.056,16840,834
1.78473,628.62083,-661,84487,31.3049,16840,834
1.73872,628.73831,-660,84488,30.9564,16840,834
2.88706,630.92766,-659,84489,31.056,16840,834
2.64575,633.49178,-658,84490,31.056,16840,834
2.55031,635.69378,-657,84491,31.2551,16840,834
2.6655,637.66217,-656,84492,31.056,16840,834
2.0716,639.38371,-655,84493,31.056,16828,821
2.32946,639.2848,-654,84494,31.3049,16828,821
2.63672,635.71544,-653,84495,30.9067,16828,821
3.56947,630.41934,-652,84496,31.1058,16828,821
2.64935,626.14752,-651,84497,30.9564,16828,821
2.25034,619.89187,-650,84498,31.056,16828,821
2.85384,608.77933,-649,84499,31.1556,16828,821
2.48784,595.93708,-648,84500,31.1556,16828,821
2.51263,584.39668,-647,84501,31.056,16828,821
2.80496,570.63698,-646,84502,31.3049,16828,821
3.51291,554.67413,-645,84503,31.2551,16820,804
2.30477,539.99687,-644,84504,31.056,16820,804
2.9717,526.25476,-643,84505,31.1556,16820,804
3.64089,512.54308,-642,84506,31.1556,16820,804
2.56708,499.28717,-641,84507,30.9067,16820,804
2.3027,487.37937,-640,84508,31.3049,16820,804
1.84257,478.06121,-639,84509,30.9564,16820,804
1.74146,471.94996,-638,84510,31.056,16820,804
2.65115,468.09637,-637,84511,31.3049,16820,804
2.79815,467.07377,-636,84512,31.2551,16820,804
2.29856,469.25308,-635,84513,31.056,16827,780
1.53168,472.83519,-634,84514,31.2551,16827,780
4.37931,593.88256,-633,84515,31.056,16827,780
6.86448,895.66998,-632,84516,30.9067,16827,780
3.28857,933.40253,-631,84517,31.1058,16827,780
2.58005,585.89051,-630,84518,31.056,16827,780
1.75238,266.60992,-629,84519,31.2551,16827,780
1.45176,361.90206,-628,84520,31.3049,16827,780
2.32946,307.50687,-627,84521,30.9067,16827,780
3.13414,151.58327,-626,84522,31.1058,16827,780
3.41378,328.2872,-625,84523,31.056,16832,766
1.83739,493.7355,-624,84524,31.056,16832,766
1.95556,549.95711,-623,84525,30.9067,16832,766
2.38209,518.35817,-622,84526,31.1058,16832,766
2.96367,416.9802,-621,84527,31.1058,16832,766
2.81853,302.18567,-620,84528,31.056,16832,766
2.56893,202.65279,-619,84529,30.9564,16832,766
2.5353,159.33216,-618,84530,31.1556,16832,766
3.06491,167.51588,-617,84531,30.9067,16832,766
2.58005,183.81548,-616,84532,30.9067,16832,766
1.68581,191.38371,-615,84533,31.1058,16825,770
2.61493,196.06244,-614,84534,31.056,16825,770
2.87382,204.13084,-613,84535,30.9067,16825,770
2.61128,220.6204,-612,84536,31.1058,16825,770
1.92608,244.47639,-611,84537,31.1058,16825,770
2.36199,264.7073,-610,84538,30.9564,16825,770
1.80069,271.17598,-609,84539,31.056,16825,770
2.77247,262.59376,-608,84540,31.056,16825,770
1.66016,243.84076,-607,84541,31.1556,16825,770
1.67161,223.82879,-606,84542,31.056,16825,770
2.14177,211.38247,-605,84543,31.1058,16829,754
2.32946,214.17987,-604,84544,31.056,16829,754
1.65152,265.27264,-603,84545,30.9564,16829,754
1.11345,368.24901,-602,84546,31.1058,16829,754
1.38107,417.50563,-601,84547,31.056,16829,754
1.28817,386.09281,-600,84548,31.1058,16829,754
0.730792,299.38022,-599,84549,31.1058,16829,754
1.34255,165.10469,-598,84550,31.056,16829,754
1.4118,42.32074,-597,84551,30.9067,16829,754
1.88858,103.30452,-596,84552,31.1058,16829,754
1.88858,155.23092,-595,84553,31.2551,16829,749
1.41517,169.77896,-594,84554,31.4045,16829,749
1.76052,184.66116,-593,84555,31.056,16829,749
1.95556,216.04725,-592,84556,31.056,16829,749
1.84257,241.08958,-591,84557,31.056,16829,749
1.53168,238.30426,-590,84558,30.9067,16829,749
1.99897,224.20156,-589,84559,30.9564,16829,749
1.92856,218.81273,-588,84560,31.2551,16829,749
2.03444,223.20399,-587,84561,31.3049,16829,749
1.45505,231.52941,-586,84562,30.9564,16829,749
0.840071,249.25939,-585,84563,31.1058,16835,748
1.16371,278.60149,-584,84564,30.9564,16835,748
1.38452,302.5293,-583,84565,31.056,16835,748
1.96529,310.99084,-582,84566,31.1556,16835,748
1.30655,311.14954,-581,84567,30.9067,16835,748
1.27702,312.75534,-580,84568,31.3049,16835,748
1.19604,320.13202,-579,84569,31.056,16835,748
0.478416,331.38045,-578,84570,31.056,16835,748
1.65728,345.17224,-577,84571,31.056,16835,748
0.85693,359.43698,-576,84572,31.056,16835,748
0.717624,372.57495,-575,84573,31.1058,16839,747
1.65152,383.27687,-574,84574,31.2551,16839,747
1.07422,390.34084,-573,84575,31.1556,16839,747
1.46158,393.67483,-572,84576,31.4045,16839,747
1.69427,395.19266,-571,84577,31.056,16839,747
1.73872,397.42605,-570,84578,31.3049,16839,747
2.23759,403.0133,-569,84579,31.056,16839,747
1.3637,412.50694,-568,84580,31.056,16839,747
0.710948,424.44731,-567,84581,31.056,16839,747
2.04146,436.3791,-566,84582,31.1058,16839,747
1.23912,446.87747,-565,84583,31.1058,16844,738
0.995902,454.5725,-564,84584,30.9564,16844,738
1.58973,459.50679,-563,84585,31.1058,16844,738
0.710948,463.0111,-562,84586,31.056,16844,738
0.878906,466.39838,-561,84587,31.056,16844,738
1.44518,470.15751,-560,84588,30.9067,16844,738
1.68863,473.41072,-559,84589,30.9067,16844,738
2.44921,474.80528,-558,84590,31.056,16844,738
0.525895,473.72093,-557,84591,31.1058,16844,738
1.61945,470.61704,-556,84592,31.1058,16844,738
0.737289,467.01115,-555,84593,31.1058,16851,727
1.71108,464.82753,-554,84594,31.3049,16851,727
2.0739,465.68239,-553,84595,30.9564,16851,727
1.41517,468.55978,-552,84596,30.9067,16851,727
2.48208,472.0858,-551,84597,31.1058,16851,727
1.4118,473.6823,-550,84598,31.3049,16851,727
2.10811,472.8648,-549,84599,31.056,16851,727
1.21188,469.14753,-548,84600,30.9564,16851,727
2.19672,464.53844,-547,84601,31.2551,16851,727
0.981433,460.56873,-546,84602,31.056,16851,727
2.0693,457.71974,-545,84603,31.1556,16858,711
1.09619,455.12385,-544,84604,31.2551,16858,711
2.23118,452.18299,-543,84605,31.056,16858,711
2.16832,449.53116,-542,84606,31.2551,16858,711
1.77132,447.62721,-541,84607,31.056,16858,711
2.1771,446.56627,-540,84608,31.4045,16858,711
1.51917,446.15108,-539,84609,30.9067,16858,711
2.20323,445.66505,-538,84610,31.2551,16858,711
2.09222,444.2564,-537,84611,31.1058,16858,711
3.33893,441.39859,-536,84612,31.1556,16858,711
2.31715,438.40954,-535,84613,31.056,16858,711
1.88858,436.26232,-534,84614,30.9067,16858,711
2.15287,435.21422,-533,84615,30.9564,16858,711
3.3617,435.95956,-532,84616,31.1556,16858,711
2.25034,438.16771,-531,84617,31.056,16858,711
2.47246,441.72976,-530,84618,31.3049,16858,711
2.28816,445.87348,-529,84619,31.056,16858,711
2.67264,450.60584,-528,84620,31.1058,16858,711
3.09741,455.91003,-527,84621,31.056,16858,711
2.70104,459.65278,-526,84622,31.1556,16858,711
2.27981,461.87454,-525,84623,30.8569,16925,677
2.68688,461.59905,-524,84624,31.056,16925,677
1.8606,459.1469,-523,84625,31.2551,16925,677
2.6131,454.70674,-522,84626,31.056,16925,677
2.03678,448.51304,-521,84627,30.9564,16925,677
1.67161,440.02655,-520,84628,31.056,16925,677
2.45892,430.23981,-519,84629,31.3049,16925,677
2.32332,419.0714,-518,84630,31.1556,16925,677
2.36199,407.25761,-517,84631,31.056,16925,677
1.75238,393.7723,-516,84632,30.9067,16925,677
2.58559,380.82708,-515,84633,31.056,17043,635
2.83876,368.89887,-514,84634,31.056,17043,635
2.86051,358.09292,-513,84635,31.056,17043,635
2.40797,349.06208,-512,84636,31.1058,17043,635
2.23972,340.24581,-511,84637,30.9067,17043,635
2.54282,332.42765,-510,84638,31.1058,17043,635
2.38809,326.61036,-509,84639,30.9067,17043,635
3.18695,323.05435,-508,84640,30.9564,17043,635
2.5353,317.71631,-507,84641,31.056,17043,635
2.0762,312.91153,-506,84642,30.8569,17043,635
2.85718,313.15363,-505,84643,31.056,17073,605
3.52646,318.23941,-504,84644,31.056,17073,605
2.44921,324.90481,-503,84645,31.1556,17073,605
2.7862,330.18521,-502,84646,31.056,17073,605
2.77763,332.52101,-501,84647,31.1556,17073,605
2.08994,332.73147,-500,84648,31.1556,17073,605
2.88045,334.3269,-499,84649,31.1058,17073,605
3.12805,340.9992,-498,84650,31.056,17073,605
2.55217,351.95708,-497,84651,31.056,17073,605
2.75176,364.1417,-496,84652,31.056,17073,605
2.13284,376.24354,-495,84653,31.056,17019,621
2.84547,386.50632,-494,84654,31.056,17019,621
2.95239,395.55645,-493,84655,31.056,17019,621
1.72495,404.15027,-492,84656,31.1058,17019,621
2.93944,412.78437,-491,84657,31.056,17019,621
2.32946,421.98005,-490,84658,31.1058,17019,621
3.10203,431.43182,-489,84659,31.1058,17019,621
3.20038,441.05708,-488,84660,31.056,17019,621
2.68155,451.94001,-487,84661,31.056,17019,621
2.79133,464.43559,-486,84662,31.3049,17019,621
2.95884,478.93156,-485,84663,31.1058,16896,699
1.21581,492.36503,-484,84664,31.1058,16896,699
3.54399,506.20195,-483,84665,31.1058,16896,699
2.60213,521.85985,-482,84666,31.056,16896,699
3.12805,534.94939,-481,84667,31.056,16896,699
3.49522,542.23873,-480,84668,31.1556,16896,699
2.0785,544.4634,-479,84669,31.1058,16896,699
2.73786,546.02826,-478,84670,30.9067,16896,699
2.95723,550.78387,-477,84671,31.056,16896,699
3.00045,557.59167,-476,84672,31.1556,16896,699
3.07888,563.42072,-475,84673,31.056,16844,709
3.18695,566.5439,-474,84674,31.2551,16844,709
2.54844,567.52531,-473,84675,31.3049,16844,709
2.11714,568.3382,-472,84676,31.3049,16844,709
3.91357,570.88726,-471,84677,30.9564,16844,709
2.64394,574.30581,-470,84678,31.1556,16844,709
3.50612,576.72617,-469,84679,30.9564,16844,709
2.73089,577.36375,-468,84680,31.056,16844,709
2.21617,577.44841,-467,84681,31.1058,16844,709
4.09691,577.92166,-466,84682,31.056,16844,709
1.92112,578.45635,-465,84683,31.1058,16828,677
2.76386,578.9553,-464,84684,30.8569,16828,677
2.90681,578.72051,-463,84685,31.056,16828,677
2.18366,577.88446,-462,84686,31.4045,16828,677
2.24397,576.53769,-461,84687,30.9067,16828,677
2.12613,575.24195,-460,84688,31.1556,16828,677
1.92361,573.25984,-459,84689,30.9564,16828,677
3.24183,569.73537,-458,84690,31.1058,16828,677
1.99897,565.29001,-457,84691,31.1556,16828,677
1.45176,560.43975,-456,84692,31.1058,16828,677
1.65152,554.39135,-455,84693,31.056,16824,654
2.2819,546.88187,-454,84694,31.056,16824,654
1.48103,538.38386,-453,84695,31.1556,16824,654
1.53168,530.82877,-452,84696,31.056,16824,654
2.09677,524.81646,-451,84697,31.1058,16824,654
1.40163,520.90532,-450,84698,30.7573,16824,654
1.41517,518.69401,-449,84699,31.056,16824,654
1.60466,517.20471,-448,84700,30.9067,16824,654
1.96287,514.53187,-447,84701,31.056,16824,654
1.70549,509.42374,-446,84702,31.056,16824,654
1.68298,501.66225,-445,84703,31.1058,16831,635
1.31383,493.14474,-444,84704,30.9564,16831,635
1.25061,485.43439,-443,84705,30.8569,16831,635
1.59572,479.77554,-442,84706,30.9564,16831,635
1.4118,476.15263,-441,84707,31.4045,16831,635
1.68863,473.12804,-440,84708,31.1058,16831,635
1.74146,469.62443,-439,84709,31.2551,16831,635
1.68298,465.07942,-438,84710,31.1556,16831,635
2.82698,458.84821,-437,84711,31.056,16831,635
2.89366,452.02785,-436,84712,31.1058,16831,635
2.03444,445.94972,-435,84713,31.056,16834,623
2.03444,441.33962,-434,84714,31.056,16834,623
1.958,438.61659,-433,84715,31.056,16834,623
1.42859,436.34147,-432,84716,31.2551,16834,623
1.97256,433.72805,-431,84717,31.1556,16834,623
1.96287,428.61023,-430,84718,31.056,16834,623
3.40679,419.75921,-429,84719,31.056,16834,623
1.88353,408.31817,-428,84720,30.9564,16834,623
1.70549,397.22987,-427,84721,31.1556,16834,623
1.52856,389.3931,-426,84722,30.9067,16834,623
2.46086,387.00629,-425,84723,31.056,16832,613
1.64863,387.78126,-424,84724,31.1058,16832,613
2.27981,385.93566,-423,84725,31.056,16832,613
2.89201,377.6877,-422,84726,31.056,16832,613
1.56555,363.1368,-421,84727,31.1058,16832,613
2.03209,347.64637,-420,84728,31.3049,16832,613
2.03444,336.53058,-419,84729,31.1058,16832,613
2.53906,330.07779,-418,84730,31.2551,16832,613
2.16612,326.15691,-417,84731,31.056,16832,613
2.17052,321.43719,-416,84732,31.1058,16832,613
2.02269,314.18541,-415,84733,30.9564,16828,601
1.43525,304.39492,-414,84734,31.056,16828,601
2.04146,292.64766,-413,84735,31.056,16828,601
2.40797,281.64777,-412,84736,30.9067,16828,601
1.40163,272.5472,-411,84737,31.3049,16828,601
2.9909,265.47815,-410,84738,31.1556,16828,601
1.92608,261.0455,-409,84739,30.9067,16828,601
1.63702,258.07391,-408,84740,31.056,16828,601
2.0156,255.2668,-407,84741,31.056,16828,601
1.88858,250.61609,-406,84742,31.1058,16828,601
3.21228,243.76411,-405,84743,31.056,16819,591
3.1311,236.03263,-404,84744,31.2551,16819,591
2.44921,228.09053,-403,84745,31.1058,16819,591
2.45504,221.35916,-402,84746,31.056,16819,591
2.16832,217.88265,-401,84747,31.1058,16819,591
2.81175,216.45297,-400,84748,30.8569,16819,591
1.84774,213.59922,-399,84749,31.056,16819,591
0.905627,212.23966,-398,84750,31.056,16819,591
1.59273,210.25629,-397,84751,31.056,16819,591
1.75781,207.47748,-396,84752,31.4045,16819,591
1.80598,206.04388,-395,84753,31.1058,16819,581
1.81125,203.53811,-394,84754,31.056,16819,581
2.20323,206.16548,-393,84755,30.8569,16819,581
2.18802,206.16653,-392,84756,31.056,16819,581
2.2819,200.16636,-391,84757,31.056,16819,581
2.44921,202.09587,-390,84758,30.9564,16819,581
2.0693,200.54206,-389,84759,31.056,16819,581
2.27143,194.54523,-388,84760,31.056,16819,581
1.79539,199.24837,-387,84761,31.1058,16819,581
2.20539,203.89064,-386,84762,31.056,16819,581
1.45176,200.75342,-385,84763,31.056,16822,558
1.46484,203.69834,-384,84764,30.9564,16822,558
1.55638,210.46317,-383,84765,31.1556,16822,558
1.80334,211.33012,-382,84766,31.3049,16822,558
1.97739,207.24512,-381,84767,31.056,16822,558
1.21188,203.43335,-380,84768,31.056,16822,558
1.13045,203.73085,-379,84769,31.1058,16822,558
2.16392,206.62444,-378,84770,31.056,16822,558
2.37005,208.24401,-377,84771,30.9067,16822,558
1.43525,207.0193,-376,84772,31.056,16822,558
1.69427,204.26507,-375,84773,30.9067,16826,545
1.88858,200.18947,-374,84774,31.2551,16826,545
1.74966,196.35688,-373,84775,31.1556,16826,545
0.895034,193.77577,-372,84776,31.056,16826,545
2.06006,191.39699,-371,84777,30.7573,16826,545
1.89865,189.86098,-370,84778,31.056,16826,545
2.37809,190.64808,-369,84779,31.1058,16826,545
2.88541,191.17517,-368,84780,31.056,16826,545
0.905627,189.19437,-367,84781,31.2551,16826,545
1.09619,186.65645,-366,84782,31.056,16826,545
0.878906,185.42368,-365,84783,31.1058,16825,544
1.74966,184.89309,-364,84784,31.1058,16825,544
1.63702,184.32076,-363,84785,30.9067,16825,544
2.12164,183.35217,-362,84786,31.1556,16825,544
1.70829,181.92613,-361,84787,30.9564,16825,544
1.49066,180.55062,-360,84788,31.056,16825,544
1.88099,179.53908,-359,84789,31.056,16825,544
1.46484,177.09794,-358,84790,31.056,16825,544
2.13508,174.07655,-357,84791,31.056,16825,544
1.91864,170.17578,-356,84792,31.1058,16825,544
1.31383,165.77477,-355,84793,31.3049,16821,541
2.13954,157.83753,-354,84794,31.2551,16821,541
1.28817,152.48229,-353,84795,31.1556,16821,541
1.77132,155.90037,-352,84796,31.056,16821,541
1.60466,162.27002,-351,84797,31.056,16821,541
1.21188,165.15522,-350,84798,31.2551,16821,541
0.971667,164.00877,-349,84799,31.1058,16821,541
1.49704,160.2925,-348,84800,31.056,16821,541
2.03444,158.31621,-347,84801,30.9067,16821,541
1.33185,161.62418,-346,84802,31.056,16821,541
1.82698,165.79755,-345,84803,31.056,16827,539
1.89614,168.01394,-344,84804,31.056,16827,539
1.77401,168.85894,-343,84805,31.056,16827,539
1.96529,169.94402,-342,84806,31.056,16827,539
2.24397,171.76616,-341,84807,30.9564,16827,539
1.21188,172.44012,-340,84808,31.056,16827,539
1.52856,171.60781,-339,84809,31.3049,16827,539
1.27702,171.13048,-338,84810,31.1556,16827,539
1.43857,171.56855,-337,84811,31.3049,16827,539
1.72772,171.58992,-336,84812,31.3049,16827,539
1.76323,169.56239,-335,84813,31.056,16821,545
0.601994,165.23663,-334,84814,31.2551,16821,545
1.58673,159.77619,-333,84815,31.1058,16821,545
1.48103,155.87471,-332,84816,30.9564,16821,545
0.946812,154.32126,-331,84817,31.056,16821,545
0.717624,154.84026,-330,84818,31.056,16821,545
1.31745,155.55662,-329,84819,31.2551,16821,545
1.47781,153.30447,-328,84820,31.3049,16821,545
1.58673,149.64192,-327,84821,31.056,16821,545
1.87846,146.53004,-326,84822,31.1556,16821,545
1.37067,145.53638,-325,84823,31.1556,16826,543
1.83739,145.3593,-324,84824,31.1058,16826,543
2.16171,142.8027,-323,84825,31.056,16826,543
1.71664,137.89224,-322,84826,31.056,16826,543
0.884315,132.72546,-321,84827,31.056,16826,543
1.99897,129.36459,-320,84828,30.9067,16826,543
1.0381,131.17635,-319,84829,31.056,16826,543
2.11263,136.49672,-318,84830,31.1556,16826,543
1.81388,141.59383,-317,84831,31.056,16826,543
2.63672,145.07747,-316,84832,31.1058,16826,543
1.96287,145.505,-315,84833,31.056,16826,535
1.19604,144.32439,-314,84834,30.9067,16826,535
2.42966,144.07488,-313,84835,31.056,16826,535
1.09619,145.05847,-312,84836,31.056,16826,535
1.9942,147.55191,-311,84837,30.9564,16826,535
2.03444,150.6677,-310,84838,31.056,16826,535
2.56522,153.84235,-309,84839,30.9564,16826,535
2.0156,156.18638,-308,84840,31.056,16826,535
1.00068,161.11991,-307,84841,31.056,16826,535
2.24397,175.76646,-306,84842,31.2551,16826,535
2.21832,194.16522,-305,84843,30.9067,16827,536
2.18802,204.50144,-304,84844,31.056,16827,536
1.76052,200.01641,-303,84845,31.2551,16827,536
2.08994,183.47286,-302,84846,30.9067,16827,536
1.88858,165.53,-301,84847,31.056,16827,536
1.32827,156.79774,-300,84848,31.1058,16827,536
1.83739,157.91039,-299,84849,31.1556,16827,536
1.44518,162.77544,-298,84850,31.1058,16827,536
1.7767,164.09029,-297,84851,31.056,16827,536
2.36199,157.54714,-296,84852,31.1058,16827,536
1.37415,145.23777,-295,84853,31.1058,16830,541
1.18402,134.56972,-294,84854,31.056,16830,541
2.00136,129.91539,-293,84855,31.056,16830,541
1.98461,130.32502,-292,84856,31.1556,16830,541
1.4219,131.58982,-291,84857,31.1058,16830,541
1.91366,130.79252,-290,84858,31.056,16830,541
2.11488,128.4798,-289,84859,30.9067,16830,541
1.66303,127.05368,-288,84860,31.1058,16830,541
1.45505,127.94058,-287,84861,31.1556,16830,541
2.16392,130.36852,-286,84862,31.2551,16830,541
2.06237,132.10636,-285,84863,31.1556,16827,536
1.33185,132.05712,-284,84864,31.056,16827,536
1.11773,131.28808,-283,84865,30.8569,16827,536
2.05078,131.34595,-282,84866,31.1556,16827,536
2.06006,132.02986,-281,84867,30.9067,16827,536
1.34255,132.08442,-280,84868,30.9067,16827,536
1.81388,131.99578,-279,84869,31.056,16827,536
1.51917,132.57848,-278,84870,31.056,16827,536
0.851347,133.27188,-277,84871,31.1058,16827,536
1.13045,134.43494,-276,84872,30.8569,16827,536
1.57769,136.1286,-275,84873,31.3049,16827,536
0.793363,137.54248,-274,84874,31.056,16827,536
1.38796,137.84814,-273,84875,30.8569,16827,536
1.86572,136.97312,-272,84876,31.056,16827,536
1.95556,137.3374,-271,84877,31.1058,16827,536
1.01016,142.1169,-270,84878,31.056,16827,536
2.9893,148.97925,-269,84879,31.056,16827,536
2.36401,154.56483,-268,84880,30.9067,16827,536
1.00068,159.95371,-267,84881,31.056,16827,536
1.87592,165.92697,-266,84882,31.1058,16827,536
1.54717,171.45895,-265,84883,31.1556,16817,536
0.507437,175.97264,-264,84884,31.056,16817,536
1.39822,181.31798,-263,84885,31.4045,16817,536
1.40842,190.80234,-262,84886,31.1556,16817,536
1.20794,206.09681,-261,84887,31.1556,16817,536
1.96287,223.99719,-260,84888,31.1556,16817,536
1.73047,236.22981,-259,84889,31.1058,16817,536
2.25668,239.0685,-258,84890,31.1556,16817,536
2.32946,237.37695,-257,84891,31.056,16817,536
1.56859,238.32071,-256,84892,31.1058,16817,536
1.4219,245.19873,-255,84893,30.9564,16827,541
2.16832,254.91561,-254,84894,31.1058,16827,541
0.601994,264.21154,-253,84895,31.3049,16827,541
1.9942,275.22581,-252,84896,31.1058,16827,541
1.60168,288.4469,-251,84897,30.9067,16827,541
1.27328,302.71402,-250,84898,30.8569,16827,541
1.00068,314.59111,-249,84899,31.2551,16827,541
1.33543,322.56156,-248,84900,30.9067,16827,541
1.3029,325.52026,-247,84901,31.056,16827,541
1.19604,323.77074,-246,84902,31.2551,16827,541
1.57769,318.56399,-245,84903,31.4045,16825,545
1.96772,313.98359,-244,84904,31.056,16825,545
1.17998,316.42127,-243,84905,31.1058,16825,545
1.77132,322.4218,-242,84906,31.1556,16825,545
1.59273,325.14697,-241,84907,30.9564,16825,545
0.98628,320.38295,-240,84908,31.3049,16825,545
0.601994,311.24871,-239,84909,31.1058,16825,545
0.750112,302.24614,-238,84910,31.1058,16825,545
0.717624,297.02316,-237,84911,31.2551,16825,545
1.09619,295.30888,-236,84912,31.3049,16825,545
1.36019,293.97028,-235,84913,31.1556,16823,553
0.966748,292.23472,-234,84914,31.2551,16823,553
1.07422,292.71086,-233,84915,31.1556,16823,553
0.981433,294.23154,-232,84916,31.056,16823,553
1.73872,294.58531,-231,84917,31.2551,16823,553
0.966748,291.63262,-230,84918,30.9564,16823,553
1.61945,284.22431,-229,84919,31.2551,16823,553
1.44518,278.44479,-228,84920,31.2551,16823,553
1.70829,278.56124,-227,84921,31.056,16823,553
1.55638,284.11802,-226,84922,31.2551,16823,553
1.31383,294.61222,-225,84923,31.056,16817,563
2.21617,307.61239,-224,84924,31.056,16817,563
1.77132,319.03823,-223,84925,30.9067,16817,563
1.73323,328.45344,-222,84926,30.9067,16817,563
1.38452,337.67519,-221,84927,31.056,16817,563
1.37415,346.51427,-220,84928,31.1556,16817,563
1.54099,351.54126,-219,84929,31.1556,16817,563
0.743728,349.91214,-218,84930,30.9564,16817,563
1.96044,340.7718,-217,84931,31.056,16817,563
1.41517,326.21185,-216,84932,31.056,16817,563
2.16832,308.47509,-215,84933,31.056,16817,568
1.63702,289.45705,-214,84934,31.056,16817,568
2.21832,271.1826,-213,84935,31.1556,16817,568
2.0739,253.06839,-212,84936,31.056,16817,568
1.96772,233.48771,-211,84937,31.1058,16817,568
2.46086,212.60163,-210,84938,30.9067,16817,568
1.82698,193.45849,-209,84939,31.2551,16817,568
2.33151,177.21717,-208,84940,31.1058,16817,568
1.90617,164.40093,-207,84941,31.056,16817,568
2.44921,154.49733,-206,84942,30.7573,16817,568
2.31715,147.55297,-205,84943,31.056,16810,577
3.22709,143.29277,-204,84944,31.3049,16810,577
3.17345,142.37188,-203,84945,31.1058,16810,577
3.12042,144.63581,-202,84946,31.056,16810,577
2.48016,149.07474,-201,84947,30.9067,16810,577
2.53906,155.94089,-200,84948,31.1556,16810,577
3.48976,166.142,-199,84949,30.9067,16810,577
2.13508,177.77805,-198,84950,31.056,16810,577
2.0156,189.19378,-197,84951,30.9564,16810,577
2.53718,200.91654,-196,84952,31.1058,16810,577
2.6851,213.6362,-195,84953,31.056,16806,580
3.66048,225.77692,-194,84954,31.056,16806,580
2.13954,239.11543,-193,84955,31.056,16806,580
2.83371,254.14514,-192,84956,31.1058,16806,580
3.07888,268.2367,-191,84957,31.056,16806,580
2.35593,279.57865,-190,84958,31.1058,16806,580
2.56336,289.64775,-189,84959,31.1058,16806,580
2.50313,299.89419,-188,84960,31.1058,16806,580
2.66371,311.2944,-187,84961,31.2551,16806,580
3.46645,321.84673,-186,84962,31.3049,16806,580
2.98771,331.36289,-185,84963,31.056,16815,581
1.66303,341.79607,-184,84964,31.1058,16815,581
3.18695,357.82942,-183,84965,31.056,16815,581
3.81985,397.33684,-182,84966,31.1556,16815,581
2.9443,479.05175,-181,84967,31.1058,16815,581
2.35187,587.86437,-180,84968,31.056,16815,581
2.13508,688.13085,-179,84969,31.056,16815,581
2.43358,754.04666,-178,84970,31.1058,16815,581
2.94592,777.8133,-177,84971,31.056,16815,581
1.3461,767.25426,-176,84972,30.9067,16815,581
2.55031,736.64422,-175,84973,31.4045,16817,570
2.5353,698.16754,-174,84974,31.056,16817,570
1.66875,658.95312,-173,84975,31.1556,16817,570
2.76386,621.48926,-172,84976,31.1556,16817,570
1.89865,586.87296,-171,84977,31.056,16817,570
2.14622,556.49223,-170,84978,31.056,16817,570
2.4974,532.57911,-169,84979,31.1556,16817,570
2.22905,516.1984,-168,84980,30.9067,16817,570
1.26577,509.67308,-167,84981,31.2551,16817,570
1.76052,511.95928,-166,84982,31.1556,16817,570
1.40163,517.30894,-165,84983,31.1556,16835,557
1.3637,520.93799,-164,84984,31.2551,16835,557
2.05543,519.27587,-163,84985,31.3049,16835,557
8.31226,700.64851,-162,84986,31.056,16835,557
13.5098,1645.493,-161,84987,31.1556,16835,557
4.92946,1812.4576,-160,84988,31.056,16835,557
5.13508,1650.0633,-159,84989,31.1058,16835,557
4.39345,1400.5376,-158,84990,30.9564,16835,557
4.29465,1142.3654,-157,84991,30.9564,16835,557
4.24103,1085.3033,-156,84992,31.056,16835,557
2.67264,984.53635,-155,84993,31.1556,16875,537
3.04775,855.88918,-154,84994,31.056,16875,537
1.52544,829.86921,-153,84995,30.9067,16875,537
1.97739,886.79413,-152,84996,30.9067,16875,537
1.88858,921.10735,-151,84997,31.3049,16875,537
1.99659,907.29242,-150,84998,31.3049,16875,537
1.62826,886.82937,-149,84999,31.1556,16875,537
1.96044,877.78816,-148,85000,30.7573,16875,537
1.75238,868.50504,-147,85001,31.056,16875,537
2.54844,849.10946,-146,85002,30.9067,16875,537
2.36199,807.50745,-145,85003,31.056,16874,544
2.53718,744.18316,-144,85004,30.9564,16874,544
3.054,691.62175,-143,85005,31.1058,16874,544
2.00374,691.40627,-142,85006,31.1556,16874,544
1.92856,749.76239,-141,85007,31.056,16874,544
1.57163,826.35162,-140,85008,31.2551,16874,544
2.09677,874.57174,-139,85009,31.1058,16874,544
0.995902,876.42106,-138,85010,31.2551,16874,544
1.28447,850.18419,-137,85011,31.1058,16874,544
1.21188,823.50298,-136,85012,31.056,16874,544
1.55638,813.26666,-135,85013,31.056,16888,543
1.17594,820.14718,-134,85014,31.2551,16888,543
1.83998,835.484,-133,85015,31.056,16888,543
0.239208,848.37762,-132,85016,30.8569,16888,543
0.878906,850.91966,-131,85017,31.056,16888,543
0.690534,838.8606,-130,85018,31.056,16888,543
1.81651,815.60452,-129,85019,30.9564,16888,543
0.750112,792.53919,-128,85020,31.1058,16888,543
0.840071,776.72995,-127,85021,31.056,16888,543
1.05631,765.75986,-126,85022,31.056,16888,543
1.27702,758.19153,-125,85023,30.9067,16902,536
0.85693,756.35189,-124,85024,31.2551,16902,536
0.662337,761.84271,-123,85025,31.056,16902,536
0.921287,767.17001,-122,85026,31.1556,16902,536
1.19604,767.5347,-121,85027,31.056,16902,536
2.09222,761.9326,-120,85028,31.1058,16902,536
1.97739,755.79501,-119,85029,30.9564,16902,536
1.52231,756.14323,-118,85030,31.1058,16902,536
1.60168,763.16642,-117,85031,31.056,16902,536
1.36019,775.6359,-116,85032,31.1058,16902,536
0.981433,781.76917,-115,85033,31.1556,16937,525
1.69708,772.26425,-114,85034,30.9067,16937,525
1.76323,755.24429,-113,85035,31.056,16937,525
2.73612,745.01659,-112,85036,31.3049,16937,525
1.94579,746.22416,-111,85037,30.9564,16937,525
1.80598,759.98759,-110,85038,31.056,16937,525
2.18366,782.28852,-109,85039,31.1058,16937,525
2.45115,801.25416,-108,85040,31.056,16937,525
2.54282,807.01416,-107,85041,31.056,16937,525
2.67977,799.85012,-106,85042,31.1058,16937,525
3.27403,783.1335,-105,85043,31.056,17019,522
3.03521,761.06894,-104,85044,30.8569,17019,522
2.69574,742.47228,-103,85045,31.4045,17019,522
2.90353,735.67024,-102,85046,30.8569,17019,522
2.68155,739.51989,-101,85047,31.1058,17019,522
2.37809,741.97639,-100,85048,31.2551,17019,522
3.28857,737.43974,-99,85049,31.056,17019,522
3.98121,725.56821,-98,85050,31.1058,17019,522
3.17796,703.20508,-97,85051,31.1556,17019,522
2.44336,672.35204,-96,85052,31.3049,17019,522
3.96922,638.58529,-95,85053,31.3049,17198,529
3.68256,610.06393,-94,85054,31.1058,17198,529
2.74308,590.09646,-93,85055,31.1556,17198,529
4.03357,581.09771,-92,85056,31.1058,17198,529
4.58153,580.96515,-91,85057,31.504,17198,529
3.77464,584.31816,-90,85058,31.056,17198,529
3.40259,584.55808,-89,85059,31.056,17198,529
3.53456,576.76735,-88,85060,31.056,17198,529
3.41657,555.97138,-87,85061,31.2551,17198,529
4.82979,527.18245,-86,85062,31.3049,17198,529
4.72499,524.09425,-85,85063,30.9564,17626,509
4.1409,526.42627,-84,85064,31.056,17626,509
3.19293,513.35934,-83,85065,31.1058,17626,509
5.19876,504.65116,-82,85066,31.1556,17626,509
3.15083,511.32219,-81,85067,31.056,17626,509
3.55206,516.91423,-80,85068,31.2551,17626,509
3.37444,508.39158,-79,85069,31.056,17626,509
4.04773,485.3985,-78,85070,30.9564,17626,509
3.58812,457.51824,-77,85071,31.1058,17626,509
3.55608,431.82019,-76,85072,31.1556,17626,509
3.68127,409.01365,-75,85073,30.8569,18006,490
2.96528,388.55701,-74,85074,31.056,18006,490
3.53995,371.5397,-73,85075,31.056,18006,490
2.8354,359.36644,-72,85076,31.056,18006,490
3.6304,351.02277,-71,85077,31.2551,18006,490
2.79304,345.16799,-70,85078,31.056,18006,490
3.21228,340.11414,-69,85079,30.8569,18006,490
2.75176,333.64541,-68,85080,31.4045,18006,490
2.2819,323.40849,-67,85081,31.056,18006,490
1.64863,313.19888,-66,85082,31.1556,18006,490
2.35187,306.197,-65,85083,31.3049,17865,481
2.78449,304.80805,-64,85084,31.056,17865,481
2.84044,308.15354,-63,85085,31.2551,17865,481
2.17929,308.96353,-62,85086,31.1556,17865,481
3.07113,304.67307,-61,85087,31.3049,17865,481
2.74308,300.57568,-60,85088,31.056,17865,481
2.58743,300.01617,-59,85089,31.1058,17865,481
3.12195,298.46601,-58,85090,31.3049,17865,481
1.46484,293.19434,-57,85091,31.056,17865,481
2.66907,286.5737,-56,85092,31.1058,17865,481
2.34985,283.11329,-55,85093,31.1556,17453,479
2.20323,286.72625,-54,85094,31.3049,17453,479
2.00612,295.39992,-53,85095,31.1058,17453,479
2.96206,305.97152,-52,85096,31.056,17453,479
1.90867,315.78212,-51,85097,31.4045,17453,479
2.05543,323.71521,-50,85098,30.9067,17453,479
2.37809,330.91109,-49,85099,31.1058,17453,479
2.29856,338.61832,-48,85100,31.056,17453,479
2.66729,346.50034,-47,85101,31.2551,17453,479
2.0716,353.34938,-46,85102,31.1556,17453,479
1.69427,361.05076,-45,85103,31.1556,17161,485
2.04845,369.04682,-44,85104,31.1058,17161,485
2.33764,375.71922,-43,85105,31.1058,17161,485
2.49167,383.60525,-42,85106,31.056,17161,485
1.67446,396.94234,-41,85107,30.9564,17161,485
2.36199,409.43933,-40,85108,30.9067,17161,485
2.85884,416.91546,-39,85109,31.4045,17161,485
1.59273,427.37725,-38,85110,31.4045,17161,485
2.20323,438.0173,-37,85111,31.1556,17161,485
2.50503,444.13183,-36,85112,31.056,17161,485
2.02269,453.1737,-35,85113,31.056,17029,498
1.97739,469.03921,-34,85114,31.056,17029,498
1.49066,486.34531,-33,85115,31.1058,17029,498
1.62826,503.03551,-32,85116,31.3049,17029,498
1.87592,519.23083,-31,85117,31.2551,17029,498
2.22905,532.78467,-30,85118,31.056,17029,498
1.60466,539.42617,-29,85119,31.056,17029,498
1.89865,541.75281,-28,85120,30.9067,17029,498
2.0156,543.56117,-27,85121,31.1556,17029,498
1.57769,548.26717,-26,85122,31.056,17029,498
1.21581,559.2858,-25,85123,31.1556,16943,516
1.67161,572.83377,-24,85124,31.056,16943,516
1.38452,578.39447,-23,85125,31.1556,16943,516
1.25061,571.8045,-22,85126,31.3049,16943,516
1.07865,561.05364,-21,85127,30.8569,16943,516
1.50022,547.29112,-20,85128,30.8569,16943,516
1.23912,530.75943,-19,85129,31.1556,16943,516
1.04725,519.63705,-18,85130,31.056,16943,516
1.02423,519.7354,-17,85131,30.8569,16943,516
1.23912,527.24125,-16,85132,31.056,16943,516
1.70549,529.91367,-15,85133,31.056,16943,516
1.47781,521.00263,-14,85134,31.1058,16943,516
1.27702,506.01508,-13,85135,30.9564,16943,516
1.11773,490.10393,-12,85136,31.056,16943,516
1.20794,479.51055,-11,85137,31.056,16943,516
1.20399,474.24554,-10,85138,31.056,16943,516
0.239208,472.31763,-9,85139,31.1556,16943,516
1.00068,474.08327,-8,85140,31.4045,16943,516
1.28817,480.61223,-7,85141,31.1058,16943,516
0.878906,485.12584,-6,85142,31.1058,16943,516
1.89614,486.60194,-5,85143,31.1556,16890,525
1.05179,482.25822,-4,85144,31.1058,16890,525
1.13045,468.98469,-3,85145,31.056,16890,525
0.655098,466.89242,-2,85146,31.1556,16890,525
3.33893,659.66483,-1,85147,30.9067,16890,525
12.9886,1504.8137,0,85148,31.4045,16890,525
9.52687,1802.2929,1,85149,31.1556,16890,525
3.44022,763.68465,2,85150,30.9067,16890,525
3.46645,714.05993,3,85151,31.1058,16890,525
1.86572,1748.5537,4,85152,30.9067,16890,525
2.47631,1978.2396,5,85153,31.056,16899,533
2.81853,1692.4024,6,85154,31.056,16899,533
3.64743,1308.052,7,85155,31.056,16899,533
3.30015,1005.9663,8,85156,30.9564,16899,533
3.02892,743.10203,9,85157,31.056,16899,533
2.09904,523.93258,10,85158,31.1058,16899,533
2.02269,418.34324,11,85159,30.9067,16899,533
2.38009,466.77445,12,85160,31.056,16899,533
2.71512,521.99705,13,85161,31.056,16899,533
2.97651,496.34155,14,85162,31.1058,16899,533
4.1432,444.86177,15,85163,30.9067,16889,538
3.56278,459.69983,16,85164,30.7075,16889,538
3.05556,526.41279,17,85165,30.9564,16889,538
4.10389,590.81504,18,85166,30.9564,16889,538
3.30736,639.18975,19,85167,31.2551,16889,538
1.99897,672.06491,20,85168,31.056,16889,538
2.83035,687.58991,21,85169,31.1058,16889,538
1.71108,679.6215,22,85170,31.056,16889,538
3.38573,639.88194,23,85171,31.3049,16889,538
2.56708,571.39657,24,85172,31.1556,16889,538
2.0693,488.40626,25,85173,31.1058,16860,548
2.49549,410.20982,26,85174,31.1556,16860,548
1.46484,350.97091,27,85175,31.4045,16860,548
1.31745,317.93976,28,85176,30.9067,16860,548
2.40995,309.3611,29,85177,31.2551,16860,548
1.97739,318.34433,30,85178,31.1058,16860,548
2.71512,336.47682,31,85179,30.9564,16860,548
1.76052,360.13376,32,85180,31.056,16860,548
2.45115,385.15998,33,85181,31.056,16860,548
1.3029,406.79039,34,85182,31.1058,16860,548
3.53861,419.52015,35,85183,30.9067,16851,562
1.97739,419.3728,36,85184,31.3049,16851,562
1.88858,407.00007,37,85185,31.056,16851,562
2.37809,386.00764,38,85186,30.9067,16851,562
2.34985,358.14346,39,85187,31.1556,16851,562
1.40163,333.22134,40,85188,31.1556,16851,562
2.53718,309.49755,41,85189,30.9067,16851,562
2.94592,286.831,42,85190,30.9564,16851,562
2.21832,265.84709,43,85191,31.056,16851,562
1.7551,247.47232,44,85192,31.056,16851,562
2.45115,232.18406,45,85193,31.1556,16847,565
2.11263,220.68844,46,85194,31.1556,16847,565
2.8236,212.93867,47,85195,31.056,16847,565
3.34464,207.90621,48,85196,31.056,16847,565
3.36879,205.99542,49,85197,31.1058,16847,565
3.23447,205.15099,50,85198,31.056,16847,565
3.08971,207.11073,51,85199,30.9067,16847,565
3.40959,213.9972,52,85200,31.1058,16847,565
4.02173,224.9104,53,85201,31.3049,16847,565
4.05362,236.42889,54,85202,31.1556,16847,565
4.05714,245.05511,55,85203,31.056,16842,571
4.04773,249.18474,56,85204,31.056,16842,571
4.12475,249.64077,57,85205,31.2551,16842,571
3.24036,249.77316,58,85206,31.056,16842,571
3.80484,252.57,59,85207,31.1556,16842,571
4.39887,257.80065,60,85208,31.1058,16842,571
3.59608,265.41356,61,85209,31.1556,16842,571
3.98959,276.46449,62,85210,31.056,16842,571
4.07122,289.33656,63,85211,31.056,16842,571
3.87438,300.44529,64,85212,31.056,16842,571
3.9608,309.45835,65,85213,31.056,16836,576
3.82109,316.4193,66,85214,30.9067,16836,576
3.71736,323.29033,67,85215,31.056,16836,576
4.78814,330.86455,68,85216,30.9564,16836,576
3.94995,338.55259,69,85217,31.1556,16836,576
3.86699,345.13615,70,85218,31.056,16836,576
3.41099,351.15893,71,85219,31.056,16836,576
2.63491,355.88764,72,85220,30.9067,16836,576
3.10356,360.05265,73,85221,31.2551,16836,576
2.41983,364.30074,74,85222,30.9564,16836,576
3.06491,369.13622,75,85223,31.1058,16839,579
3.39557,374.20674,76,85224,31.056,16839,579
2.53154,379.17258,77,85225,31.1058,16839,579
2.93944,383.16282,78,85226,31.1058,16839,579
2.85384,385.38501,79,85227,31.1058,16839,579
2.44921,384.94693,80,85228,30.9564,16839,579
2.44726,382.11356,81,85229,30.9067,16839,579
2.40203,377.05484,82,85230,31.1058,16839,579
1.63702,369.18943,83,85231,31.056,16839,579
2.63672,359.05895,84,85232,31.3049,16839,579
1.49385,347.12197,85,85233,31.1556,16836,579
1.5034,334.65048,86,85234,30.9564,16836,579
1.85804,322.41053,87,85235,31.1058,16836,579
1.4219,311.68787,88,85236,30.9564,16836,579
2.08537,301.78337,89,85237,31.1556,16836,579
2.1573,291.70652,90,85238,31.2551,16836,579
1.01016,280.95747,91,85239,31.1556,16836,579
1.32827,268.82591,92,85240,31.2551,16836,579
1.07422,255.3172,93,85241,31.1058,16836,579
2.09904,242.78524,94,85242,31.056,16836,579
1.94824,226.52014,95,85243,31.1556,16841,582
1.63993,232.29859,96,85244,31.056,16841,582
1.27702,284.02994,97,85245,31.3049,16841,582
2.11488,340.30418,98,85246,31.056,16841,582
2.10585,362.67412,99,85247,31.1058,16841,582
1.66303,369.03586,100,85248,31.4045,16841,582
