Linear acceleration,Rotational velocity,Time values,Absolute time values,Temperature,Ambient light,Reflected light
0.946812,173.63192,-2000,54463,31.1058,16745,596
2.57264,172.50647,-1999,54464,31.2551,16745,596
2.08079,172.01323,-1998,54465,30.9564,16745,596
1.81125,171.63025,-1997,54466,31.1058,16745,596
1.56859,174.60587,-1996,54467,31.1058,16745,596
1.4118,174.41985,-1995,54468,31.056,16745,596
2.79815,162.91028,-1994,54469,31.056,16745,596
1.41517,147.16724,-1993,54470,31.2551,16745,596
1.69708,136.10238,-1992,54471,31.2551,16745,596
1.34255,140.30176,-1991,54472,30.9564,16745,596
0.905627,157.01721,-1990,54473,31.2551,16749,595
2.13284,172.13442,-1989,54474,31.3049,16749,595
2.32946,178.75808,-1988,54475,31.4045,16749,595
1.46158,178.34134,-1987,54476,30.9067,16749,595
2.09449,176.75908,-1986,54477,31.056,16749,595
1.8606,176.85798,-1985,54478,31.2551,16749,595
1.15135,177.1837,-1984,54479,31.056,16749,595
1.17998,176.66312,-1983,54480,31.056,16749,595
2.36199,176.21559,-1982,54481,31.1058,16749,595
2.01324,176.96857,-1981,54482,31.056,16749,595
1.87592,177.10236,-1980,54483,30.9564,16740,596
1.56555,174.26011,-1979,54484,30.9067,16740,596
1.6165,168.03731,-1978,54485,31.056,16740,596
1.58673,159.70767,-1977,54486,31.3049,16740,596
2.15066,151.48754,-1976,54487,31.056,16740,596
1.68014,142.60765,-1975,54488,31.056,16740,596
1.43525,133.22128,-1974,54489,31.1058,16740,596
1.9942,123.21999,-1973,54490,30.8569,16740,596
2.77763,113.27309,-1972,54491,31.1556,16740,596
2.27143,104.57551,-1971,54492,31.056,16740,596
1.86572,97.489252,-1970,54493,30.9067,16735,596
1.76052,91.930049,-1969,54494,31.1058,16735,596
1.53789,86.80401,-1968,54495,31.3049,16735,596
1.28817,80.595439,-1967,54496,30.9564,16735,596
2.70985,73.580153,-1966,54497,31.056,16735,596
1.93596,67.449233,-1965,54498,31.2551,16735,596
0.981433,62.089286,-1964,54499,31.1556,16735,596
2.18366,57.163587,-1963,54500,31.056,16735,596
1.45505,53.245749,-1962,54501,31.056,16735,596
1.43525,49.673319,-1961,54502,30.7075,16735,596
1.74966,45.831835,-1960,54503,31.1058,16738,603
1.958,41.768922,-1959,54504,31.056,16738,603
1.97739,38.759391,-1958,54505,30.9067,16738,603
1.86316,36.832075,-1957,54506,30.9067,16738,603
1.92112,35.61672,-1956,54507,31.056,16738,603
1.68863,34.515691,-1955,54508,30.9564,16738,603
1.93596,32.272768,-1954,54509,30.9067,16738,603
2.29856,26.12875,-1953,54510,31.1058,16738,603
2.33356,21.656388,-1952,54511,31.1058,16738,603
2.23545,20.14641,-1951,54512,31.1058,16738,603
2.46086,21.366838,-1950,54513,31.056,16734,605
1.96287,22.495409,-1949,54514,31.056,16734,605
2.40401,23.320862,-1948,54515,31.056,16734,605
1.88099,24.148334,-1947,54516,30.9564,16734,605
1.63702,25.345101,-1946,54517,31.1058,16734,605
2.22905,26.147279,-1945,54518,30.9564,16734,605
2.14177,27.420753,-1944,54519,30.8569,16734,605
1.63993,29.800661,-1943,54520,31.1058,16734,605
2.31715,33.596181,-1942,54521,31.1058,16734,605
1.76323,38.463579,-1941,54522,31.056,16734,605
2.74482,43.023335,-1940,54523,31.1556,16737,609
1.58973,46.377723,-1939,54524,31.1058,16737,609
2.0156,48.512776,-1938,54525,31.1556,16737,609
2.28816,49.583542,-1937,54526,31.056,16737,609
2.50693,50.474709,-1936,54527,31.1058,16737,609
1.67161,52.087561,-1935,54528,31.056,16737,609
1.81125,54.138975,-1934,54529,31.056,16737,609
1.60168,56.395163,-1933,54530,30.9067,16737,609
1.85547,59.788289,-1932,54531,30.8569,16737,609
1.68298,63.767924,-1931,54532,31.3049,16737,609
2.59846,66.439116,-1930,54533,31.056,16737,609
1.45176,67.142445,-1929,54534,30.9067,16737,609
2.19672,66.659892,-1928,54535,31.056,16737,609
1.74966,66.04568,-1927,54536,31.056,16737,609
2.02033,66.179337,-1926,54537,31.1058,16737,609
1.25061,66.840714,-1925,54538,30.9067,16737,609
2.44726,67.55795,-1924,54539,31.1058,16737,609
2.0156,68.800349,-1923,54540,31.056,16737,609
1.47134,70.346506,-1922,54541,31.2551,16737,609
1.57769,71.848516,-1921,54542,31.056,16737,609
1.67161,74.336811,-1920,54543,31.056,16736,609
1.34255,77.763388,-1919,54544,31.1058,16736,609
1.80334,80.659754,-1918,54545,31.056,16736,609
1.25061,82.14933,-1917,54546,31.1058,16736,609
2.30684,81.96492,-1916,54547,31.2551,16736,609
1.89865,80.091987,-1915,54548,30.9067,16736,609
1.29923,76.78145,-1914,54549,31.3049,16736,609
2.08994,72.212612,-1913,54550,30.7573,16736,609
0.811194,67.162416,-1912,54551,31.1058,16736,609
2.46473,62.592081,-1911,54552,31.1058,16736,609
1.96772,58.796468,-1910,54553,31.4045,16746,609
1.64283,54.791624,-1909,54554,30.9564,16746,609
1.49704,50.33754,-1908,54555,31.056,16746,609
2.57635,46.172602,-1907,54556,31.056,16746,609
1.67161,43.380327,-1906,54557,31.3049,16746,609
0.884315,41.71091,-1905,54558,31.1058,16746,609
1.4118,38.264516,-1904,54559,31.1058,16746,609
0.995902,32.254525,-1903,54560,31.2551,16746,609
1.48103,25.989512,-1902,54561,30.8569,16746,609
1.56555,23.649213,-1901,54562,30.9067,16746,609
2.09222,25.47792,-1900,54563,31.2551,16748,611
2.09904,28.002302,-1899,54564,31.1058,16748,611
2.21832,30.242165,-1898,54565,31.056,16748,611
1.28447,33.940596,-1897,54566,31.3049,16748,611
1.96772,40.125683,-1896,54567,31.056,16748,611
1.40163,47.242473,-1895,54568,30.9564,16748,611
0.768946,54.57212,-1894,54569,31.1556,16748,611
1.22363,61.850511,-1893,54570,31.056,16748,611
0.737289,68.862913,-1892,54571,31.1058,16748,611
1.39139,75.832098,-1891,54572,31.2551,16748,611
1.6165,83.029621,-1890,54573,31.1556,16746,616
2.29024,89.957621,-1889,54574,31.2551,16746,616
1.57769,96.712666,-1888,54575,31.056,16746,616
1.59273,103.34043,-1887,54576,31.1058,16746,616
2.13284,110.39261,-1886,54577,31.1058,16746,616
1.14304,117.95663,-1885,54578,31.1556,16746,616
1.92856,125.16732,-1884,54579,31.056,16746,616
2.08994,131.76013,-1883,54580,31.1556,16746,616
1.32467,138.32317,-1882,54581,31.1058,16746,616
1.56859,145.17999,-1881,54582,30.9067,16746,616
1.11773,150.85683,-1880,54583,31.1058,16745,617
1.73323,156.76328,-1879,54584,30.8569,16745,617
1.09183,163.60669,-1878,54585,31.056,16745,617
1.83998,170.26918,-1877,54586,31.056,16745,617
1.13045,174.46957,-1876,54587,30.9067,16745,617
2.81345,177.89816,-1875,54588,31.1058,16745,617
1.99897,187.97108,-1874,54589,31.056,16745,617
1.98461,209.83638,-1873,54590,31.4045,16745,617
1.19205,204.9924,-1872,54591,30.8569,16745,617
1.77132,192.83903,-1871,54592,31.1556,16745,617
2.25034,196.64031,-1870,54593,31.2551,16743,620
1.89865,190.27602,-1869,54594,30.9564,16743,620
1.958,186.35647,-1868,54595,30.9564,16743,620
2.20539,188.41504,-1867,54596,31.3049,16743,620
2.25668,191.35186,-1866,54597,31.1058,16743,620
2.28816,194.11099,-1865,54598,31.056,16743,620
2.32332,191.09108,-1864,54599,31.3049,16743,620
1.96772,189.16622,-1863,54600,31.056,16743,620
2.06006,193.05431,-1862,54601,31.4045,16743,620
0.169146,200.65437,-1861,54602,31.1556,16743,620
1.73872,211.63039,-1860,54603,31.1556,16738,631
2.40203,226.6589,-1859,54604,31.2551,16738,631
1.38452,236.17274,-1858,54605,31.1058,16738,631
1.49066,235.79365,-1857,54606,31.1556,16738,631
0.878906,226.35789,-1856,54607,30.9564,16738,631
1.45176,214.8262,-1855,54608,31.1556,16738,631
1.62239,204.97234,-1854,54609,31.3049,16738,631
1.67446,194.41605,-1853,54610,30.9067,16738,631
1.69708,181.06155,-1852,54611,31.056,16738,631
2.03444,165.03003,-1851,54612,31.056,16738,631
2.47246,150.91846,-1850,54613,31.056,16733,638
2.51832,141.67421,-1849,54614,31.1556,16733,638
2.69397,136.50763,-1848,54615,31.2551,16733,638
2.55591,131.8886,-1847,54616,31.056,16733,638
2.14622,125.29345,-1846,54617,31.056,16733,638
2.15066,117.78748,-1845,54618,31.056,16733,638
2.3539,110.54813,-1844,54619,31.056,16733,638
2.36199,103.64438,-1843,54620,31.1058,16733,638
1.4681,96.592257,-1842,54621,31.3049,16733,638
2.60762,89.448557,-1841,54622,31.1058,16733,638
1.70549,81.701068,-1840,54623,30.9564,16731,644
1.02423,74.005926,-1839,54624,31.2551,16731,644
2.0739,67.199014,-1838,54625,31.2551,16731,644
2.44921,63.240552,-1837,54626,31.2551,16731,644
1.72495,67.423048,-1836,54627,31.056,16731,644
3.06647,75.016155,-1835,54628,31.2551,16731,644
1.96772,74.535797,-1834,54629,31.1556,16731,644
1.7767,65.631839,-1833,54630,31.056,16731,644
3.40259,61.325724,-1832,54631,31.056,16731,644
2.22905,71.465261,-1831,54632,30.9067,16731,644
2.85384,88.43992,-1830,54633,31.1058,16726,649
2.47246,103.49237,-1829,54634,30.9067,16726,649
1.21188,114.7309,-1828,54635,31.1556,16726,649
2.59846,124.89797,-1827,54636,31.1058,16726,649
2.0739,135.84671,-1826,54637,31.056,16726,649
3.11277,146.51392,-1825,54638,31.056,16726,649
1.57769,156.23712,-1824,54639,31.3049,16726,649
1.56555,165.1983,-1823,54640,31.1058,16726,649
2.42376,173.08322,-1822,54641,31.1556,16726,649
1.55638,178.79142,-1821,54642,30.9564,16726,649
2.51263,183.55515,-1820,54643,31.2551,16727,649
1.96529,188.40579,-1819,54644,30.9564,16727,649
1.80334,194.56606,-1818,54645,31.1058,16727,649
0.793363,201.74578,-1817,54646,31.1058,16727,649
2.14399,208.08073,-1816,54647,31.2551,16727,649
1.28075,212.1084,-1815,54648,30.9067,16727,649
1.61059,228.08863,-1814,54649,31.1058,16727,649
1.26953,253.90534,-1813,54650,31.056,16727,649
2.37608,286.99387,-1812,54651,31.1058,16727,649
2.24822,306.66786,-1811,54652,31.056,16727,649
2.40203,302.6771,-1810,54653,31.1058,16733,644
2.47439,289.55184,-1809,54654,30.9564,16733,644
3.03364,281.02126,-1808,54655,31.1058,16733,644
2.26091,280.0446,-1807,54656,31.3049,16733,644
2.03678,283.3557,-1806,54657,31.1058,16733,644
1.49066,287.68728,-1805,54658,31.056,16733,644
1.95556,289.71092,-1804,54659,31.2551,16733,644
0.931581,289.5886,-1803,54660,31.056,16733,644
0.78733,290.19485,-1802,54661,31.2551,16733,644
1.01487,291.28691,-1801,54662,30.8569,16733,644
1.1472,294.80001,-1800,54663,30.9067,16731,639
2.48976,300.23595,-1799,54664,31.056,16731,639
1.68298,305.49176,-1798,54665,31.3049,16731,639
1.54099,309.0835,-1797,54666,31.1058,16731,639
2.11714,315.20961,-1796,54667,31.2551,16731,639
0.805294,325.90044,-1795,54668,31.1058,16731,639
1.33185,338.41198,-1794,54669,31.1058,16731,639
1.85804,347.31741,-1793,54670,30.9564,16731,639
1.3102,355.09016,-1792,54671,30.8569,16731,639
1.27702,363.58212,-1791,54672,31.1058,16731,639
2.51832,369.8722,-1790,54673,31.1058,16731,639
1.37415,375.05632,-1789,54674,30.8569,16731,639
1.98461,380.13693,-1788,54675,30.9067,16731,639
1.68014,385.6587,-1787,54676,31.1556,16731,639
1.20399,388.8434,-1786,54677,31.056,16731,639
2.04146,389.71692,-1785,54678,31.1556,16731,639
1.92608,390.63997,-1784,54679,31.1058,16731,639
1.94824,390.68475,-1783,54680,31.1556,16731,639
1.61355,386.46061,-1782,54681,30.8569,16731,639
2.25034,378.34307,-1781,54682,31.056,16731,639
1.45505,371.15785,-1780,54683,31.1058,16714,635
1.9798,366.47608,-1779,54684,30.9067,16714,635
1.82698,360.12896,-1778,54685,31.2551,16714,635
1.70829,349.78189,-1777,54686,31.2551,16714,635
1.49385,337.84804,-1776,54687,31.1556,16714,635
2.06237,325.0475,-1775,54688,31.1556,16714,635
1.94824,310.50774,-1774,54689,30.9067,16714,635
1.92112,291.61663,-1773,54690,31.2551,16714,635
2.18584,265.78161,-1772,54691,30.9564,16714,635
2.38609,237.2363,-1771,54692,30.9067,16714,635
2.64575,209.21929,-1770,54693,31.056,16728,638
2.54844,184.49158,-1769,54694,31.056,16728,638
1.81125,161.02615,-1768,54695,31.3049,16728,638
1.77401,137.54345,-1767,54696,31.1058,16728,638
1.57769,112.42709,-1766,54697,31.056,16728,638
3.00204,87.432771,-1765,54698,30.9564,16728,638
2.39407,73.993341,-1764,54699,31.1556,16728,638
2.06237,68.100138,-1763,54700,31.056,16728,638
2.09904,67.958309,-1762,54701,30.8569,16728,638
2.61493,69.805863,-1761,54702,31.1058,16728,638
1.31383,72.75493,-1760,54703,31.3049,16731,640
1.44188,74.041959,-1759,54704,31.056,16731,640
1.87592,73.680836,-1758,54705,31.056,16731,640
1.18402,76.506929,-1757,54706,31.056,16731,640
1.46484,82.261081,-1756,54707,30.9564,16731,640
1.51917,95.221808,-1755,54708,31.056,16731,640
1.56859,115.85187,-1754,54709,31.1058,16731,640
1.26953,135.61144,-1753,54710,30.9564,16731,640
1.42859,145.01013,-1752,54711,30.9067,16731,640
2.15951,138.35699,-1751,54712,31.1556,16731,640
2.54282,122.76627,-1750,54713,31.056,16731,640
2.14399,116.04618,-1749,54714,31.2551,16731,640
1.87592,124.74612,-1748,54715,30.9564,16731,640
2.34782,134.81195,-1747,54716,31.056,16731,640
2.05543,134.00763,-1746,54717,30.9067,16731,640
2.0785,116.91309,-1745,54718,31.056,16731,640
2.06237,94.023385,-1744,54719,30.8569,16731,640
1.63993,87.074132,-1743,54720,31.056,16731,640
2.18584,104.25269,-1742,54721,31.1556,16731,640
2.68155,133.9563,-1741,54722,31.1058,16731,640
2.42376,155.90004,-1740,54723,31.1058,16730,648
1.28817,158.18608,-1739,54724,31.1556,16730,648
1.27328,144.5629,-1738,54725,31.3049,16730,648
2.44726,127.87295,-1737,54726,31.056,16730,648
1.99897,118.25337,-1736,54727,30.9067,16730,648
2.27352,117.5527,-1735,54728,31.056,16730,648
2.03444,120.06371,-1734,54729,31.1058,16730,648
2.30063,120.58656,-1733,54730,31.2551,16730,648
1.56555,118.56302,-1732,54731,30.9564,16730,648
1.73047,115.32828,-1731,54732,31.1058,16730,648
2.2819,111.86743,-1730,54733,31.056,16730,653
1.67446,109.38849,-1729,54734,31.056,16730,653
1.19604,106.57556,-1728,54735,31.4045,16730,653
2.26722,102.44209,-1727,54736,31.3049,16730,653
1.26953,98.182785,-1726,54737,31.1556,16730,653
2.56522,95.327614,-1725,54738,30.9564,16730,653
1.80334,94.115578,-1724,54739,31.056,16730,653
1.40163,94.332949,-1723,54740,31.2551,16730,653
2.19672,94.462627,-1722,54741,31.056,16730,653
2.54844,95.959845,-1721,54742,31.2551,16730,653
1.76323,96.979697,-1720,54743,30.9564,16726,663
1.41517,96.172893,-1719,54744,30.9564,16726,663
2.09904,93.453415,-1718,54745,30.9067,16726,663
2.16392,89.385148,-1717,54746,30.9564,16726,663
1.36719,84.443545,-1716,54747,31.056,16726,663
2.75695,83.482619,-1715,54748,31.1556,16726,663
2.28816,85.569199,-1714,54749,31.2551,16726,663
1.42525,83.545871,-1713,54750,31.056,16726,663
3.18096,80.151873,-1712,54751,31.1058,16726,663
2.28816,77.361862,-1711,54752,30.8569,16726,663
2.45115,73.342725,-1710,54753,31.1556,16719,669
1.68581,69.590999,-1709,54754,31.3049,16719,669
0.793363,71.19473,-1708,54755,31.056,16719,669
1.5034,76.180286,-1707,54756,31.1556,16719,669
2.18366,78.566733,-1706,54757,31.056,16719,669
2.74308,74.856179,-1705,54758,31.1058,16719,669
0.981433,72.314272,-1704,54759,31.056,16719,669
2.1771,76.47576,-1703,54760,31.1556,16719,669
1.86827,84.048402,-1702,54761,31.1058,16719,669
1.39822,89.881392,-1701,54762,31.2551,16719,669
1.00068,90.276753,-1700,54763,31.2551,16724,672
2.21402,87.015671,-1699,54764,31.1556,16724,672
1.84516,83.534009,-1698,54765,31.2551,16724,672
0.916097,82.948641,-1697,54766,31.3049,16724,672
1.57769,82.540927,-1696,54767,31.1058,16724,672
1.43525,80.187653,-1695,54768,31.1058,16724,672
1.86572,78.545962,-1694,54769,31.056,16724,672
1.67161,80.549666,-1693,54770,31.1058,16724,672
0.926449,84.709233,-1692,54771,31.056,16724,672
1.60168,86.645332,-1691,54772,30.8569,16724,672
0.601994,83.868968,-1690,54773,30.8569,16717,671
2.57635,79.930705,-1689,54774,31.1058,16717,671
2.56893,77.761855,-1688,54775,31.056,16717,671
1.51917,77.816928,-1687,54776,30.9564,16717,671
1.30655,80.403944,-1686,54777,31.056,16717,671
1.74966,84.511985,-1685,54778,31.1058,16717,671
1.24296,87.917154,-1684,54779,31.056,16717,671
2.32946,88.829032,-1683,54780,31.1058,16717,671
1.86827,86.822891,-1682,54781,31.3049,16717,671
1.38452,84.499201,-1681,54782,30.8569,16717,671
1.1472,84.097232,-1680,54783,31.056,16724,669
1.80334,84.823409,-1679,54784,31.056,16724,669
1.56555,83.930952,-1678,54785,31.056,16724,669
1.96772,81.404426,-1677,54786,31.1058,16724,669
1.37067,78.681963,-1676,54787,31.3049,16724,669
1.11773,77.403937,-1675,54788,31.2551,16724,669
1.91615,77.970447,-1674,54789,31.4045,16724,669
1.23912,78.553361,-1673,54790,31.1058,16724,669
1.67161,78.336239,-1672,54791,31.1058,16724,669
2.49167,76.762914,-1671,54792,30.8569,16724,669
1.07865,73.282968,-1670,54793,31.056,16730,675
2.16612,70.135211,-1669,54794,31.2551,16730,675
2.01087,67.285661,-1668,54795,31.1058,16730,675
1.37415,64.014328,-1667,54796,31.1556,16730,675
1.44518,60.137565,-1666,54797,30.9564,16730,675
2.23332,56.107877,-1665,54798,30.9067,16730,675
1.47134,52.033607,-1664,54799,31.056,16730,675
2.06237,48.155926,-1663,54800,31.056,16730,675
1.33185,45.41557,-1662,54801,31.1058,16730,675
1.78206,43.42839,-1661,54802,30.8569,16730,675
2.26722,40.783361,-1660,54803,31.1058,16729,670
1.74146,37.099335,-1659,54804,30.9564,16729,670
1.19604,33.28157,-1658,54805,31.1556,16729,670
1.98461,30.220478,-1657,54806,31.056,16729,670
1.5034,28.008687,-1656,54807,31.056,16729,670
1.60168,26.753736,-1655,54808,30.8569,16729,670
2.28816,30.984947,-1654,54809,30.9067,16729,670
0.98628,38.730354,-1653,54810,31.1556,16729,670
1.62239,44.679402,-1652,54811,30.9067,16729,670
2.11037,48.243108,-1651,54812,31.2551,16729,670
1.68014,50.856022,-1650,54813,31.2551,16728,670
1.63702,54.047932,-1649,54814,31.056,16728,670
1.80598,58.730157,-1648,54815,31.3049,16728,670
0.995902,63.854909,-1647,54816,31.056,16728,670
0.662337,68.821895,-1646,54817,31.056,16728,670
1.91864,72.201365,-1645,54818,31.056,16728,670
2.09677,74.04216,-1644,54819,31.1058,16728,670
2.03209,75.11164,-1643,54820,31.056,16728,670
1.51917,76.992312,-1642,54821,31.2551,16728,670
1.4118,79.155233,-1641,54822,31.056,16728,670
1.17188,79.81289,-1640,54823,31.1058,16732,675
2.09677,78.46083,-1639,54824,31.1058,16732,675
1.5807,78.433477,-1638,54825,31.4045,16732,675
1.18402,79.30757,-1637,54826,30.9564,16732,675
2.0156,79.798979,-1636,54827,31.3049,16732,675
1.9798,78.747179,-1635,54828,30.9067,16732,675
1.07865,79.644027,-1634,54829,31.2551,16732,675
2.22905,83.434411,-1633,54830,31.2551,16732,675
1.14304,88.109908,-1632,54831,30.8569,16732,675
1.19205,89.313435,-1631,54832,31.056,16732,675
1.88099,87.864596,-1630,54833,30.8569,16729,672
2.70809,87.496744,-1629,54834,30.9067,16729,672
1.51603,90.296558,-1628,54835,31.056,16729,672
1.79804,94.629218,-1627,54836,31.1556,16729,672
2.42376,96.268908,-1626,54837,31.3049,16729,672
1.38452,95.163889,-1625,54838,31.056,16729,672
1.97498,95.811277,-1624,54839,31.3049,16729,672
2.38609,100.46068,-1623,54840,31.3049,16729,672
0.889691,106.22614,-1622,54841,31.056,16729,672
1.88099,107.98401,-1621,54842,31.056,16729,672
1.92856,106.58311,-1620,54843,31.1058,16726,678
2.58005,105.28987,-1619,54844,31.056,16726,678
2.82529,102.74064,-1618,54845,31.056,16726,678
1.49704,96.94704,-1617,54846,30.9067,16726,678
1.80334,89.689703,-1616,54847,31.1058,16726,678
2.11037,86.479041,-1615,54848,31.056,16726,678
1.66303,89.198407,-1614,54849,31.056,16726,678
1.3637,92.551518,-1613,54850,31.056,16726,678
2.51263,91.831363,-1612,54851,31.056,16726,678
2.32332,88.911611,-1611,54852,31.1058,16726,678
1.0381,88.071933,-1610,54853,31.056,16723,680
2.06237,90.951067,-1609,54854,30.8569,16723,680
2.60945,93.002278,-1608,54855,30.9067,16723,680
1.27702,89.563097,-1607,54856,31.4045,16723,680
2.43358,79.298175,-1606,54857,31.1058,16723,680
1.61945,68.423976,-1605,54858,31.056,16723,680
1.88099,63.753668,-1604,54859,31.1058,16723,680
1.96529,67.742865,-1603,54860,31.1058,16723,680
1.98461,75.567341,-1602,54861,31.4045,16723,680
1.17998,79.350867,-1601,54862,31.056,16723,680
2.93294,74.620115,-1600,54863,31.056,16727,674
1.05631,66.54019,-1599,54864,31.1556,16727,674
1.13045,62.382349,-1598,54865,31.1058,16727,674
1.68298,62.924375,-1597,54866,31.3049,16727,674
1.77132,64.026432,-1596,54867,30.9067,16727,674
1.15548,63.358373,-1595,54868,31.056,16727,674
1.85547,61.31649,-1594,54869,31.2551,16727,674
1.42525,59.977283,-1593,54870,31.1556,16727,674
1.81125,58.853717,-1592,54871,31.1058,16727,674
0.956832,58.529119,-1591,54872,30.9067,16727,674
1.9942,59.710853,-1590,54873,30.9564,16727,671
1.39822,62.594938,-1589,54874,30.9067,16727,671
1.68863,64.141996,-1588,54875,30.9067,16727,671
1.68014,61.863881,-1587,54876,31.1058,16727,671
0.878906,55.347681,-1586,54877,31.056,16727,671
0.98628,49.521144,-1585,54878,31.1058,16727,671
2.00136,48.837127,-1584,54879,31.1058,16727,671
1.06977,52.556763,-1583,54880,31.1556,16727,671
2.23545,56.236933,-1582,54881,30.9067,16727,671
1.51603,56.393182,-1581,54882,31.056,16727,671
1.25821,53.850859,-1580,54883,30.8569,16727,669
1.88858,50.109677,-1579,54884,31.1556,16727,669
2.10811,46.882947,-1578,54885,31.056,16727,669
1.68014,45.284631,-1577,54886,30.9564,16727,669
1.87592,43.084768,-1576,54887,31.4045,16727,669
1.90617,40.394946,-1575,54888,31.1556,16727,669
1.80334,37.658444,-1574,54889,31.1556,16727,669
1.92112,35.511343,-1573,54890,31.1058,16727,669
1.68863,34.959667,-1572,54891,31.2551,16727,669
1.59273,35.639096,-1571,54892,31.056,16727,669
1.83739,36.470638,-1570,54893,31.3049,16727,672
2.97812,36.705226,-1569,54894,31.4045,16727,672
2.52021,35.889502,-1568,54895,31.1058,16727,672
2.23972,33.395992,-1567,54896,31.056,16727,672
1.77132,29.407293,-1566,54897,31.2551,16727,672
1.57769,25.922918,-1565,54898,31.1058,16727,672
2.24822,24.290459,-1564,54899,31.056,16727,672
0.218366,24.22842,-1563,54900,31.1556,16727,672
0.981433,24.588306,-1562,54901,31.2551,16727,672
2.14177,24.14494,-1561,54902,31.1058,16727,672
1.60168,22.096075,-1560,54903,31.056,16727,669
1.87592,19.33418,-1559,54904,31.056,16727,669
2.20539,16.445096,-1558,54905,31.1058,16727,669
2.67443,15.055284,-1557,54906,31.056,16727,669
1.61355,13.932068,-1556,54907,31.056,16727,669
2.23545,12.593374,-1555,54908,31.056,16727,669
2.31715,11.506382,-1554,54909,31.056,16727,669
2.09677,12.07139,-1553,54910,31.3049,16727,669
1.84774,15.372138,-1552,54911,31.3049,16727,669
1.4118,18.386075,-1551,54912,31.056,16727,669
1.22752,18.403491,-1550,54913,31.1058,16728,665
1.9335,16.593033,-1549,54914,31.056,16728,665
2.01324,14.09106,-1548,54915,31.2551,16728,665
2.35997,14.799735,-1547,54916,31.2551,16728,665
1.77132,18.600808,-1546,54917,31.1058,16728,665
1.16371,23.601593,-1545,54918,31.1556,16728,665
1.76052,26.883198,-1544,54919,31.1556,16728,665
1.88606,27.753485,-1543,54920,31.1556,16728,665
1.49066,26.660279,-1542,54921,31.056,16728,665
1.79007,25.17136,-1541,54922,30.9067,16728,665
1.8606,24.130124,-1540,54923,31.2551,16728,667
1.88858,24.591033,-1539,54924,31.056,16728,667
2.53718,26.950737,-1538,54925,31.056,16728,667
1.92608,30.091013,-1537,54926,31.1058,16728,667
0.793363,31.100392,-1536,54927,31.056,16728,667
0.793363,29.150534,-1535,54928,31.056,16728,667
1.23912,27.411785,-1534,54929,31.2551,16728,667
1.74966,26.757077,-1533,54930,31.056,16728,667
2.16612,26.314294,-1532,54931,31.056,16728,667
2.48976,25.458026,-1531,54932,31.056,16728,667
2.46473,23.751382,-1530,54933,31.4045,16728,667
1.4118,22.657776,-1529,54934,30.9564,16728,667
1.49704,22.305824,-1528,54935,31.1556,16728,667
2.25668,22.069084,-1527,54936,31.056,16728,667
1.28817,21.051732,-1526,54937,31.1058,16728,667
2.15951,18.966914,-1525,54938,31.2551,16728,667
2.85718,17.92772,-1524,54939,31.056,16728,667
1.6165,19.206203,-1523,54940,31.056,16728,667
0.817051,21.328796,-1522,54941,31.4045,16728,667
2.27352,22.851941,-1521,54942,31.1058,16728,667
2.25457,22.91673,-1520,54943,31.056,16719,664
1.90867,22.217132,-1519,54944,31.1058,16719,664
2.1771,22.296803,-1518,54945,31.056,16719,664
2.37809,23.002724,-1517,54946,31.1058,16719,664
1.96529,23.89275,-1516,54947,31.1058,16719,664
2.28399,24.191798,-1515,54948,31.056,16719,664
1.97739,23.679753,-1514,54949,30.9067,16719,664
2.3539,22.760795,-1513,54950,31.056,16719,664
1.61355,22.011955,-1512,54951,31.1058,16719,664
2.14177,21.177,-1511,54952,31.056,16719,664
0.662337,19.750886,-1510,54953,31.1058,16729,667
1.38796,19.206979,-1509,54954,31.3049,16729,667
2.19238,20.181143,-1508,54955,30.9067,16729,667
0.655098,21.013829,-1507,54956,31.1058,16729,667
2.2944,20.166001,-1506,54957,31.1556,16729,667
1.88858,17.323235,-1505,54958,31.056,16729,667
1.57769,16.63474,-1504,54959,30.9067,16729,667
1.63993,17.54291,-1503,54960,31.4045,16729,667
2.0739,20.272862,-1502,54961,31.056,16729,667
1.97256,25.265311,-1501,54962,31.1058,16729,667
2.03444,25.729341,-1500,54963,31.1556,16727,664
1.65728,22.504019,-1499,54964,31.056,16727,664
2.03678,19.770115,-1498,54965,31.1058,16727,664
1.76323,18.613221,-1497,54966,31.056,16727,664
1.53789,19.662796,-1496,54967,30.8569,16727,664
1.63993,20.301875,-1495,54968,31.056,16727,664
1.19604,21.053856,-1494,54969,30.9564,16727,664
1.53789,22.427409,-1493,54970,31.056,16727,664
2.31715,23.606328,-1492,54971,31.1058,16727,664
3.05712,24.895761,-1491,54972,31.1058,16727,664
1.77132,24.748984,-1490,54973,31.1556,16731,660
1.3461,24.857424,-1489,54974,30.9564,16731,660
1.73323,26.114204,-1488,54975,31.2551,16731,660
2.34782,28.81118,-1487,54976,31.3049,16731,660
1.76323,30.450121,-1486,54977,31.1556,16731,660
1.82437,31.228535,-1485,54978,31.1058,16731,660
1.98701,31.452003,-1484,54979,31.056,16731,660
1.26953,32.951298,-1483,54980,30.9067,16731,660
1.82698,35.168328,-1482,54981,31.1058,16731,660
1.87592,36.022947,-1481,54982,31.056,16731,660
0.697405,36.002672,-1480,54983,31.1556,16732,657
0.884315,35.511553,-1479,54984,30.9564,16732,657
1.40163,37.432817,-1478,54985,31.056,16732,657
1.66303,40.724859,-1477,54986,31.056,16732,657
1.17594,41.387057,-1476,54987,30.9067,16732,657
1.49704,39.492906,-1475,54988,31.2551,16732,657
1.40163,39.336389,-1474,54989,31.4543,16732,657
2.13954,43.84228,-1473,54990,31.2551,16732,657
1.14304,50.477956,-1472,54991,30.9564,16732,657
1.37415,54.87641,-1471,54992,30.9067,16732,657
1.00068,53.611664,-1470,54993,31.056,16732,654
1.63702,51.124877,-1469,54994,31.3049,16732,654
2.11037,51.110156,-1468,54995,30.9564,16732,654
1.36019,52.266197,-1467,54996,31.056,16732,654
2.21187,52.786625,-1466,54997,31.2551,16732,654
2.1771,53.721202,-1465,54998,31.2551,16732,654
2.51832,56.589169,-1464,54999,31.1556,16732,654
2.15287,59.5533,-1463,55000,31.056,16732,654
2.08994,60.028937,-1462,55001,31.1058,16732,654
1.97739,58.184658,-1461,55002,31.1058,16732,654
1.57769,56.801666,-1460,55003,31.1556,16736,654
1.76863,58.389307,-1459,55004,31.4045,16736,654
1.68863,62.552787,-1458,55005,31.3049,16736,654
1.8606,59.118086,-1457,55006,31.056,16736,654
1.07422,47.44187,-1456,55007,30.9067,16736,654
2.17052,37.432419,-1455,55008,31.056,16736,654
2.34985,35.095586,-1454,55009,31.1556,16736,654
2.0156,39.275921,-1453,55010,30.9564,16736,654
1.85804,44.023571,-1452,55011,31.3049,16736,654
0.889691,45.162386,-1451,55012,31.056,16736,654
1.52856,43.991065,-1450,55013,31.1058,16734,652
1.63993,43.622164,-1449,55014,31.2551,16734,652
1.57769,46.448676,-1448,55015,31.3049,16734,652
2.08994,52.081839,-1447,55016,31.1058,16734,652
2.26722,55.775447,-1446,55017,31.3049,16734,652
2.03678,51.8569,-1445,55018,31.3049,16734,652
1.9942,42.800052,-1444,55019,31.1058,16734,652
1.88858,36.959294,-1443,55020,31.1556,16734,652
1.34255,41.50265,-1442,55021,31.056,16734,652
1.94824,49.792269,-1441,55022,31.1556,16734,652
1.4118,51.650314,-1440,55023,31.3049,16737,648
2.10811,51.538254,-1439,55024,31.3049,16737,648
2.68333,55.663259,-1438,55025,31.2551,16737,648
2.25668,62.256099,-1437,55026,31.056,16737,648
2.19672,65.464068,-1436,55027,31.3049,16737,648
1.61059,65.037133,-1435,55028,31.1556,16737,648
1.62826,63.214156,-1434,55029,30.9564,16737,648
2.06237,63.20119,-1433,55030,31.1058,16737,648
1.96287,63.967406,-1432,55031,31.1058,16737,648
1.27702,61.923467,-1431,55032,30.9067,16737,648
2.15287,55.9724,-1430,55033,31.1556,16736,645
1.3637,46.985813,-1429,55034,31.056,16736,645
1.17998,39.113012,-1428,55035,31.056,16736,645
1.88099,36.706241,-1427,55036,31.056,16736,645
2.04146,38.187722,-1426,55037,31.1058,16736,645
1.94824,40.662059,-1425,55038,30.9564,16736,645
1.59273,42.88405,-1424,55039,31.1058,16736,645
1.51603,44.696741,-1423,55040,30.8569,16736,645
1.9942,45.247926,-1422,55041,31.1058,16736,645
2.54094,43.726567,-1421,55042,30.9067,16736,645
1.69427,40.661326,-1420,55043,31.1058,16734,647
2.28816,37.812055,-1419,55044,31.1058,16734,647
2.11037,39.567355,-1418,55045,31.1556,16734,647
2.32946,45.562816,-1417,55046,31.1058,16734,647
2.65474,50.676972,-1416,55047,30.8569,16734,647
2.48976,50.738537,-1415,55048,31.3049,16734,647
1.5034,46.844791,-1414,55049,30.8569,16734,647
2.39407,43.791438,-1413,55050,31.056,16734,647
1.61945,42.763654,-1412,55051,31.1556,16734,647
1.91864,43.886102,-1411,55052,31.3049,16734,647
2.08079,45.422296,-1410,55053,31.056,16739,649
1.39822,45.921969,-1409,55054,30.9564,16739,649
2.06237,44.287473,-1408,55055,31.1058,16739,649
1.9942,41.620965,-1407,55056,31.1058,16739,649
1.73047,38.867272,-1406,55057,31.056,16739,649
1.54099,37.067993,-1405,55058,31.056,16739,649
1.30655,36.7458,-1404,55059,31.2551,16739,649
1.28447,37.452517,-1403,55060,31.056,16739,649
1.28817,39.700073,-1402,55061,31.1058,16739,649
2.76386,41.981718,-1401,55062,31.056,16739,649
1.69708,42.724435,-1400,55063,31.1058,16736,647
1.57769,41.275112,-1399,55064,31.056,16736,647
2.25668,39.121583,-1398,55065,31.056,16736,647
1.88858,37.628161,-1397,55066,31.056,16736,647
1.71386,38.421134,-1396,55067,31.056,16736,647
1.68863,43.087535,-1395,55068,31.1556,16736,647
2.22047,52.546981,-1394,55069,31.056,16736,647
2.67443,63.900165,-1393,55070,31.056,16736,647
1.27702,73.556556,-1392,55071,31.2551,16736,647
1.71108,78.348698,-1391,55072,31.056,16736,647
1.7551,76.20092,-1390,55073,31.1556,16738,644
2.03444,68.340517,-1389,55074,31.3049,16738,644
2.86551,58.847893,-1388,55075,31.1556,16738,644
1.67161,50.790346,-1387,55076,31.1058,16738,644
0.98628,46.403741,-1386,55077,31.1058,16738,644
1.42525,43.385135,-1385,55078,31.2551,16738,644
1.74146,41.091304,-1384,55079,31.1556,16738,644
1.45505,39.365925,-1383,55080,31.1058,16738,644
1.38452,36.939937,-1382,55081,30.9067,16738,644
1.13045,33.41339,-1381,55082,31.056,16738,644
1.51917,29.681667,-1380,55083,30.9067,16739,640
1.68298,26.941336,-1379,55084,31.056,16739,640
1.68863,26.456611,-1378,55085,31.3049,16739,640
1.81913,29.087078,-1377,55086,31.1058,16739,640
2.1771,34.486322,-1376,55087,31.056,16739,640
1.62239,40.656012,-1375,55088,31.1556,16739,640
1.49385,46.787498,-1374,55089,31.3049,16739,640
1.38452,51.661708,-1373,55090,31.1058,16739,640
1.88858,54.906136,-1372,55091,30.9564,16739,640
2.38609,57.514422,-1371,55092,31.056,16739,640
2.13954,58.74373,-1370,55093,31.1556,16734,644
2.45892,59.196676,-1369,55094,31.2551,16734,644
2.32332,59.079131,-1368,55095,31.1058,16734,644
1.57163,58.380885,-1367,55096,31.1556,16734,644
1.30655,57.593519,-1366,55097,30.9564,16734,644
2.61493,56.883456,-1365,55098,30.9564,16734,644
2.16392,56.045829,-1364,55099,31.3049,16734,644
1.86572,54.74646,-1363,55100,31.3049,16734,644
1.80598,53.856116,-1362,55101,31.056,16734,644
1.53168,52.833464,-1361,55102,31.2551,16734,644
1.66875,51.84253,-1360,55103,30.9564,16735,640
2.27981,51.438553,-1359,55104,31.056,16735,640
1.84774,52.480156,-1358,55105,31.056,16735,640
2.48592,53.955769,-1357,55106,31.056,16735,640
1.57769,54.644431,-1356,55107,31.2551,16735,640
2.33151,54.91197,-1355,55108,31.056,16735,640
1.68298,56.637205,-1354,55109,31.4045,16735,640
2.33968,59.615946,-1353,55110,30.8569,16735,640
1.62239,61.372724,-1352,55111,31.3049,16735,640
2.02033,61.972658,-1351,55112,31.056,16735,640
1.60466,63.385179,-1350,55113,31.2551,16742,642
1.48103,65.991735,-1349,55114,31.056,16742,642
2.69397,67.433766,-1348,55115,31.1058,16742,642
2.00136,68.410255,-1347,55116,30.7573,16742,642
1.97739,69.306488,-1346,55117,31.056,16742,642
1.98461,70.958455,-1345,55118,31.056,16742,642
2.39606,72.516239,-1344,55119,31.056,16742,642
2.48016,73.843156,-1343,55120,31.056,16742,642
1.27328,74.756681,-1342,55121,31.1058,16742,642
2.10811,76.032854,-1341,55122,31.3049,16742,642
2.26301,78.219643,-1340,55123,31.1556,16737,637
1.67161,80.234375,-1339,55124,30.9564,16737,637
1.1472,82.033611,-1338,55125,31.056,16737,637
1.86316,83.752067,-1337,55126,31.056,16737,637
1.40163,84.882152,-1336,55127,30.9564,16737,637
1.48103,86.424747,-1335,55128,31.056,16737,637
1.77401,87.715058,-1334,55129,31.3049,16737,637
1.57769,87.55582,-1333,55130,30.8569,16737,637
2.39606,87.776873,-1332,55131,31.1058,16737,637
1.87592,88.252446,-1331,55132,31.1058,16737,637
1.23912,88.346275,-1330,55133,31.1058,16742,632
1.4118,87.56067,-1329,55134,31.1058,16742,632
1.59273,86.094972,-1328,55135,31.2551,16742,632
1.38452,85.56084,-1327,55136,31.056,16742,632
2.38009,86.668546,-1326,55137,31.1556,16742,632
1.78473,86.368952,-1325,55138,30.9564,16742,632
2.17052,83.835292,-1324,55139,31.056,16742,632
1.59273,82.59155,-1323,55140,31.2551,16742,632
3.18695,83.002517,-1322,55141,30.9067,16742,632
1.8606,85.23323,-1321,55142,31.3049,16742,632
1.19205,86.711347,-1320,55143,31.056,16746,631
1.54717,83.757137,-1319,55144,31.1058,16746,631
2.19238,81.27408,-1318,55145,31.056,16746,631
1.79804,82.3021,-1317,55146,31.3049,16746,631
1.90116,83.843823,-1316,55147,30.9564,16746,631
1.71664,81.743553,-1315,55148,31.1058,16746,631
2.11263,79.896022,-1314,55149,31.1556,16746,631
1.12198,87.067971,-1313,55150,31.2551,16746,631
1.96529,93.581127,-1312,55151,31.056,16746,631
1.62239,86.009862,-1311,55152,31.3049,16746,631
1.49704,71.259166,-1310,55153,31.1556,16746,629
2.0739,65.601408,-1309,55154,31.056,16746,629
2.87547,77.459745,-1308,55155,31.056,16746,629
1.38452,90.893542,-1307,55156,31.056,16746,629
2.14399,94.309172,-1306,55157,31.1556,16746,629
1.57769,87.286505,-1305,55158,30.9564,16746,629
1.25442,75.458216,-1304,55159,31.056,16746,629
0.889691,71.169923,-1303,55160,31.056,16746,629
2.08079,77.429729,-1302,55161,30.8569,16746,629
1.94824,85.78825,-1301,55162,30.9067,16746,629
0.966748,90.876572,-1300,55163,31.2551,16742,624
1.77938,85.902294,-1299,55164,31.1058,16742,624
1.61355,73.606172,-1298,55165,31.056,16742,624
1.91864,63.031441,-1297,55166,31.056,16742,624
1.79804,62.272971,-1296,55167,30.9564,16742,624
2.39407,73.166668,-1295,55168,31.056,16742,624
1.88099,83.972132,-1294,55169,30.9067,16742,624
1.39822,86.540534,-1293,55170,31.056,16742,624
1.94824,88.203889,-1292,55171,31.056,16742,624
2.54844,95.053433,-1291,55172,31.2551,16742,624
2.2819,98.97283,-1290,55173,31.3049,16743,624
1.38452,98.466866,-1289,55174,31.4045,16743,624
3.28131,104.35348,-1288,55175,31.056,16743,624
2.23545,120.83857,-1287,55176,31.1556,16743,624
1.19205,140.83666,-1286,55177,31.1556,16743,624
2.51073,150.77799,-1285,55178,31.056,16743,624
2.23759,145.05061,-1284,55179,31.056,16743,624
2.19672,130.92119,-1283,55180,31.056,16743,624
2.12388,118.36755,-1282,55181,31.056,16743,624
2.36602,114.48191,-1281,55182,31.1058,16743,624
1.8606,120.95751,-1280,55183,31.1058,16744,621
2.79304,133.4899,-1279,55184,31.3049,16744,621
1.95556,142.25345,-1278,55185,31.056,16744,621
2.47631,139.95781,-1277,55186,31.056,16744,621
2.30477,131.66182,-1276,55187,31.056,16744,621
2.49167,131.07675,-1275,55188,31.2551,16744,621
2.44531,141.44963,-1274,55189,31.056,16744,621
1.87592,155.35235,-1273,55190,30.9564,16744,621
2.18584,161.40267,-1272,55191,31.1058,16744,621
1.97739,160.7799,-1271,55192,31.056,16744,621
1.85547,160.23183,-1270,55193,30.9564,16744,621
2.26722,163.98632,-1269,55194,31.056,16744,621
2.28816,171.2616,-1268,55195,30.9564,16744,621
2.22905,179.1662,-1267,55196,30.8569,16744,621
1.59273,184.14949,-1266,55197,31.056,16744,621
1.43857,181.58516,-1265,55198,30.9067,16744,621
1.88353,179.25862,-1264,55199,31.056,16744,621
2.40203,180.46968,-1263,55200,31.2551,16744,621
2.1771,185.61509,-1262,55201,31.056,16744,621
2.23545,191.71025,-1261,55202,31.056,16744,621
1.67446,194.06711,-1260,55203,31.2551,16739,615
1.81125,190.12415,-1259,55204,30.9564,16739,615
2.48592,183.19086,-1258,55205,30.9067,16739,615
1.75781,178.4587,-1257,55206,31.1556,16739,615
2.23332,177.42881,-1256,55207,31.1556,16739,615
2.4974,179.04153,-1255,55208,31.1556,16739,615
1.58973,183.05232,-1254,55209,31.1058,16739,615
1.66303,186.9692,-1253,55210,31.1058,16739,615
1.99897,186.1782,-1252,55211,30.8569,16739,615
2.20323,181.29266,-1251,55212,30.9564,16739,615
1.66016,178.41398,-1250,55213,31.1058,16745,611
2.25034,179.36412,-1249,55214,31.056,16745,611
1.78473,181.27869,-1248,55215,31.1058,16745,611
1.09619,182.87714,-1247,55216,31.1556,16745,611
1.83479,184.24082,-1246,55217,31.1556,16745,611
1.96772,180.3557,-1245,55218,30.9067,16745,611
2.18148,177.27102,-1244,55219,30.9564,16745,611
2.17052,177.87722,-1243,55220,31.1058,16745,611
2.46473,178.49422,-1242,55221,31.1556,16745,611
2.51073,177.61453,-1241,55222,30.9564,16745,611
1.8606,180.59039,-1240,55223,31.2551,16750,605
2.82022,186.31709,-1239,55224,31.056,16750,605
0.78733,190.83108,-1238,55225,31.4045,16750,605
2.19238,185.49631,-1237,55226,31.056,16750,605
2.28816,181.54847,-1236,55227,31.3049,16750,605
1.83219,183.05704,-1235,55228,31.3049,16750,605
1.958,184.73272,-1234,55229,31.4045,16750,605
3.03364,189.11,-1233,55230,31.1058,16750,605
2.30684,193.13645,-1232,55231,31.056,16750,605
1.69708,189.6238,-1231,55232,31.056,16750,605
2.59295,181.37956,-1230,55233,30.9067,16760,598
1.86572,172.36436,-1229,55234,30.7573,16760,598
2.02269,168.66257,-1228,55235,31.2551,16760,598
1.99897,172.06225,-1227,55236,31.2551,16760,598
1.74966,169.77747,-1226,55237,31.1556,16760,598
1.71664,165.89499,-1225,55238,30.9067,16760,598
2.78962,166.7013,-1224,55239,31.056,16760,598
1.96287,171.1249,-1223,55240,30.9564,16760,598
1.66016,176.24848,-1222,55241,31.056,16760,598
1.50657,182.58822,-1221,55242,31.056,16760,598
2.37809,182.18707,-1220,55243,31.2551,16758,604
2.04146,172.73191,-1219,55244,31.1556,16758,604
1.77132,164.7407,-1218,55245,31.3049,16758,604
2.17052,166.95618,-1217,55246,31.056,16758,604
1.01487,173.68954,-1216,55247,31.3049,16758,604
1.67161,180.92015,-1215,55248,31.056,16758,604
2.35997,186.6938,-1214,55249,31.056,16758,604
1.82698,186.90655,-1213,55250,31.4045,16758,604
2.57079,183.91468,-1212,55251,30.9067,16758,604
1.76323,181.99484,-1211,55252,31.056,16758,604
1.17998,182.43354,-1210,55253,31.056,16761,602
2.50693,184.66685,-1209,55254,31.3049,16761,602
1.68298,182.08267,-1208,55255,30.9564,16761,602
2.11037,173.53307,-1207,55256,31.3049,16761,602
2.18584,165.48584,-1206,55257,31.1556,16761,602
0.601994,160.25047,-1205,55258,31.1058,16761,602
1.87592,155.65114,-1204,55259,31.056,16761,602
1.56555,154.39829,-1203,55260,30.8569,16761,602
1.80334,153.66873,-1202,55261,30.9564,16761,602
1.76323,153.49117,-1201,55262,31.056,16761,602
1.96772,150.90759,-1200,55263,31.3049,16761,602
1.52856,144.59609,-1199,55264,31.056,16761,602
1.4118,137.83549,-1198,55265,31.3049,16761,602
2.20539,132.70531,-1197,55266,30.9564,16761,602
0.889691,130.73514,-1196,55267,31.1556,16761,602
1.37415,133.88598,-1195,55268,30.9564,16761,602
1.42859,133.43285,-1194,55269,31.1058,16761,602
1.33185,128.58414,-1193,55270,31.056,16761,602
1.54717,125.93451,-1192,55271,31.1058,16761,602
2.55777,124.89153,-1191,55272,31.1058,16761,602
1.49066,125.7201,-1190,55273,31.056,16768,608
1.3637,127.20886,-1189,55274,30.9564,16768,608
1.23912,127.62415,-1188,55275,31.1058,16768,608
1.81125,127.52381,-1187,55276,31.2551,16768,608
1.958,124.79682,-1186,55277,31.1058,16768,608
1.92608,125.41137,-1185,55278,31.3049,16768,608
0.981433,131.18271,-1184,55279,31.056,16768,608
1.71108,136.42383,-1183,55280,31.1556,16768,608
1.18804,137.90277,-1182,55281,31.056,16768,608
1.68298,135.91673,-1181,55282,31.1058,16768,608
1.28817,134.93569,-1180,55283,31.056,16771,607
1.0381,140.25454,-1179,55284,31.056,16771,607
1.25061,145.18579,-1178,55285,31.4045,16771,607
1.54408,144.14152,-1177,55286,31.1556,16771,607
1.01487,139.93092,-1176,55287,31.056,16771,607
2.47246,136.61086,-1175,55288,31.1058,16771,607
1.36019,134.82875,-1174,55289,31.2551,16771,607
0.85693,132.99716,-1173,55290,31.056,16771,607
1.66303,132.10839,-1172,55291,31.056,16771,607
1.88858,133.33225,-1171,55292,31.056,16771,607
0.793363,135.48694,-1170,55293,31.1556,16771,610
1.21581,136.96974,-1169,55294,30.9067,16771,610
1.42859,137.55142,-1168,55295,30.8569,16771,610
0.878906,138.78455,-1167,55296,31.2551,16771,610
1.70829,139.97771,-1166,55297,31.056,16771,610
1.3637,141.62119,-1165,55298,31.1058,16771,610
0.878906,143.73669,-1164,55299,31.056,16771,610
1.28447,145.70072,-1163,55300,31.056,16771,610
1.27702,147.88434,-1162,55301,31.056,16771,610
0.76272,149.66408,-1161,55302,31.1556,16771,610
1.01016,149.92883,-1160,55303,31.1058,16774,605
2.16171,147.86545,-1159,55304,31.056,16774,605
1.31745,145.16547,-1158,55305,31.1058,16774,605
1.73047,142.38203,-1157,55306,31.1058,16774,605
1.52231,139.61477,-1156,55307,30.9067,16774,605
1.36019,137.38389,-1155,55308,31.3049,16774,605
1.68014,135.77237,-1154,55309,31.3049,16774,605
1.88858,133.78294,-1153,55310,30.9067,16774,605
1.69427,132.31667,-1152,55311,31.056,16774,605
1.13045,131.52282,-1151,55312,31.1556,16774,605
1.23912,130.7875,-1150,55313,31.3049,16773,603
1.27328,129.61833,-1149,55314,31.1058,16773,603
2.16832,128.71584,-1148,55315,30.9564,16773,603
1.74966,128.95924,-1147,55316,31.1058,16773,603
1.60168,129.89205,-1146,55317,31.2551,16773,603
2.66907,130.42217,-1145,55318,30.9067,16773,603
2.51832,130.69467,-1144,55319,31.056,16773,603
1.38452,131.84956,-1143,55320,31.3049,16773,603
1.3637,133.37884,-1142,55321,31.1556,16773,603
2.62948,134.53372,-1141,55322,31.3049,16773,603
1.97739,135.09362,-1140,55323,31.056,16768,603
1.71664,135.4304,-1139,55324,31.1058,16768,603
1.89865,134.56479,-1138,55325,31.056,16768,603
2.58559,133.80298,-1137,55326,31.1058,16768,603
1.09183,134.16172,-1136,55327,31.1556,16768,603
2.4974,133.61241,-1135,55328,30.9067,16768,603
2.25034,130.65157,-1134,55329,31.056,16768,603
1.17594,126.23428,-1133,55330,31.056,16768,603
2.22262,122.14634,-1132,55331,30.8569,16768,603
2.66012,119.54773,-1131,55332,31.056,16768,603
2.05543,118.44696,-1130,55333,31.1058,16772,598
1.04268,117.832,-1129,55334,31.1058,16772,598
2.11263,115.97149,-1128,55335,31.1058,16772,598
1.08306,113.48476,-1127,55336,31.056,16772,598
2.59663,110.33279,-1126,55337,31.1556,16772,598
1.53168,106.70356,-1125,55338,31.2551,16772,598
2.09222,103.89102,-1124,55339,31.1058,16772,598
1.10916,101.68464,-1123,55340,31.056,16772,598
2.37809,98.531993,-1122,55341,31.3049,16772,598
1.88858,94.9153,-1121,55342,31.2551,16772,598
1.91615,90.315534,-1120,55343,31.056,16771,600
1.7551,85.492891,-1119,55344,31.1058,16771,600
2.27352,81.769617,-1118,55345,31.1058,16771,600
2.28816,78.99317,-1117,55346,31.2551,16771,600
1.62239,75.738505,-1116,55347,31.1058,16771,600
2.65115,72.896728,-1115,55348,31.056,16771,600
2.29856,71.68355,-1114,55349,31.2551,16771,600
1.5034,70.971999,-1113,55350,31.1058,16771,600
2.02975,69.947674,-1112,55351,30.9067,16771,600
2.12388,67.789152,-1111,55352,31.1058,16771,600
2.23972,65.715224,-1110,55353,31.056,16768,595
1.88858,65.411921,-1109,55354,31.056,16768,595
1.78473,66.518912,-1108,55355,31.3049,16768,595
1.3029,67.708761,-1107,55356,31.4045,16768,595
1.52856,69.117888,-1106,55357,31.1058,16768,595
1.94824,71.039573,-1105,55358,31.3049,16768,595
1.73323,73.766333,-1104,55359,31.1058,16768,595
1.49385,75.833277,-1103,55360,31.3049,16768,595
2.15066,77.057797,-1102,55361,31.2551,16768,595
1.60168,77.895304,-1101,55362,31.056,16768,595
1.86827,78.659991,-1100,55363,31.056,16767,602
2.85884,79.739202,-1099,55364,31.056,16767,602
2.27352,81.581974,-1098,55365,31.056,16767,602
1.39481,85.016605,-1097,55366,31.056,16767,602
1.61945,89.003239,-1096,55367,31.1058,16767,602
1.9942,92.763639,-1095,55368,30.9564,16767,602
2.32946,95.831027,-1094,55369,31.056,16767,602
2.16832,98.142178,-1093,55370,31.056,16767,602
1.09619,100.71467,-1092,55371,31.056,16767,602
1.20399,104.16497,-1091,55372,31.3049,16767,602
1.77132,108.77205,-1090,55373,31.1058,16767,603
2.16832,113.92149,-1089,55374,31.056,16767,603
2.23545,118.37453,-1088,55375,31.2551,16767,603
0.845728,122.21019,-1087,55376,31.1556,16767,603
1.70829,125.44535,-1086,55377,31.1058,16767,603
1.21188,128.83069,-1085,55378,31.1058,16767,603
1.28817,133.13999,-1084,55379,31.056,16767,603
1.88099,138.6621,-1083,55380,31.1058,16767,603
1.71108,143.64087,-1082,55381,31.2551,16767,603
1.81388,147.37183,-1081,55382,31.1556,16767,603
1.57466,149.37207,-1080,55383,31.056,16768,603
2.0693,151.88392,-1079,55384,31.056,16768,603
1.59273,155.66286,-1078,55385,31.056,16768,603
1.79273,160.20728,-1077,55386,31.056,16768,603
1.4118,165.00624,-1076,55387,31.1058,16768,603
1.33185,169.43825,-1075,55388,30.9067,16768,603
1.47781,172.83648,-1074,55389,31.1058,16768,603
1.96287,174.2929,-1073,55390,31.1058,16768,603
1.34255,174.19908,-1072,55391,31.1556,16768,603
1.28817,172.80556,-1071,55392,30.8569,16768,603
1.52856,171.04939,-1070,55393,31.1058,16769,607
2.43554,168.80148,-1069,55394,31.056,16769,607
0.737289,164.11154,-1068,55395,30.9564,16769,607
0.862477,158.20642,-1067,55396,31.4045,16769,607
0.710948,150.71433,-1066,55397,31.1058,16769,607
1.94824,144.42166,-1065,55398,31.1556,16769,607
1.66589,141.7424,-1064,55399,31.1556,16769,607
0.85693,142.98816,-1063,55400,31.2551,16769,607
2.08994,144.16463,-1062,55401,30.9564,16769,607
1.15135,142.01668,-1061,55402,31.056,16769,607
0.905627,134.94894,-1060,55403,31.1556,16777,608
0.697405,122.47911,-1059,55404,31.2551,16777,608
0.845728,106.61072,-1058,55405,31.3049,16777,608
0.632885,89.670013,-1057,55406,31.056,16777,608
2.55777,76.726508,-1056,55407,31.056,16777,608
1.94088,69.419595,-1055,55408,30.9564,16777,608
1.88099,65.225996,-1054,55409,31.1058,16777,608
1.21188,61.851234,-1053,55410,31.3049,16777,608
1.09619,58.970069,-1052,55411,31.056,16777,608
1.53789,60.267017,-1051,55412,31.1058,16777,608
1.42525,65.546757,-1050,55413,30.9564,16778,610
1.40163,71.474539,-1049,55414,31.056,16778,610
0.811194,75.2486,-1048,55415,30.8569,16778,610
2.94592,77.898173,-1047,55416,31.2551,16778,610
1.5034,78.750585,-1046,55417,30.9067,16778,610
1.73047,77.751123,-1045,55418,31.1556,16778,610
1.63702,75.163897,-1044,55419,31.3049,16778,610
1.74966,71.365316,-1043,55420,31.056,16778,610
2.47824,67.649975,-1042,55421,31.1556,16778,610
2.75695,65.939893,-1041,55422,31.056,16778,610
2.39606,67.596098,-1040,55423,31.1556,16783,615
1.53168,73.9074,-1039,55424,31.056,16783,615
2.73612,80.373267,-1038,55425,31.2551,16783,615
1.94824,82.637274,-1037,55426,31.3049,16783,615
1.43857,85.528528,-1036,55427,31.056,16783,615
1.02423,89.741275,-1035,55428,31.1058,16783,615
0.926449,89.853701,-1034,55429,31.1556,16783,615
1.09183,90.630857,-1033,55430,31.056,16783,615
1.28817,94.847062,-1032,55431,31.1556,16783,615
2.31097,96.459108,-1031,55432,31.1058,16783,615
2.26301,96.199616,-1030,55433,31.2551,16786,612
1.79804,98.337771,-1029,55434,31.056,16786,612
2.20539,100.38626,-1028,55435,31.1058,16786,612
2.16392,102.99914,-1027,55436,31.056,16786,612
1.02423,107.08072,-1026,55437,31.1556,16786,612
1.34255,109.64367,-1025,55438,30.9067,16786,612
1.49066,109.36941,-1024,55439,31.2551,16786,612
2.0716,105.37638,-1023,55440,31.1058,16786,612
1.23912,101.52559,-1022,55441,31.1058,16786,612
1.96529,100.5128,-1021,55442,31.2551,16786,612
1.05631,101.389,-1020,55443,31.056,16792,606
1.47781,103.69914,-1019,55444,31.1058,16792,606
1.47134,106.04039,-1018,55445,31.2551,16792,606
2.15287,109.20116,-1017,55446,31.056,16792,606
1.25442,112.48393,-1016,55447,30.9564,16792,606
1.54408,114.88976,-1015,55448,31.1058,16792,606
1.05179,114.87005,-1014,55449,31.1058,16792,606
1.58673,113.91489,-1013,55450,31.4045,16792,606
1.70829,116.63472,-1012,55451,31.056,16792,606
1.39822,119.84719,-1011,55452,31.056,16792,606
1.09619,120.83117,-1010,55453,31.1556,16792,606
0.768946,120.30492,-1009,55454,31.1556,16792,606
1.33185,120.40694,-1008,55455,31.2551,16792,606
1.84257,121.67,-1007,55456,31.056,16792,606
2.33968,123.89469,-1006,55457,30.9067,16792,606
1.65728,125.37578,-1005,55458,31.1058,16792,606
1.71664,127.85261,-1004,55459,31.3049,16792,606
1.40163,132.24182,-1003,55460,31.1058,16792,606
1.32827,134.71149,-1002,55461,31.056,16792,606
2.13508,133.71514,-1001,55462,31.056,16792,606
1.56859,130.85584,-1000,55463,31.056,16787,605
1.37415,128.55169,-999,55464,31.056,16787,605
1.72772,127.84778,-998,55465,31.056,16787,605
2.22905,128.3824,-997,55466,31.056,16787,605
0.931581,128.11359,-996,55467,30.9564,16787,605
2.14399,125.57743,-995,55468,31.056,16787,605
1.05631,128.54242,-994,55469,31.056,16787,605
1.09619,136.53956,-993,55470,31.1058,16787,605
1.43857,140.71642,-992,55471,31.3049,16787,605
1.90116,140.20821,-991,55472,31.3049,16787,605
1.27328,136.32002,-990,55473,31.1058,16799,602
1.67161,132.70188,-989,55474,31.056,16799,602
1.73323,134.18987,-988,55475,31.1058,16799,602
0.905627,136.49546,-987,55476,31.1556,16799,602
1.58973,138.19384,-986,55477,31.1058,16799,602
2.01087,141.50793,-985,55478,31.3049,16799,602
1.70549,144.51233,-984,55479,31.056,16799,602
1.91615,149.34788,-983,55480,31.056,16799,602
2.10585,154.84642,-982,55481,31.1556,16799,602
1.7551,159.74494,-981,55482,30.9067,16799,602
1.53168,163.14016,-980,55483,31.3049,16808,598
1.55332,166.92404,-979,55484,31.056,16808,598
2.0156,172.95507,-978,55485,31.3049,16808,598
1.57163,179.07016,-977,55486,31.1058,16808,598
2.25034,183.41401,-976,55487,30.9067,16808,598
2.05543,188.05002,-975,55488,31.056,16808,598
1.8606,194.65408,-974,55489,31.1556,16808,598
1.87592,200.51148,-973,55490,31.1556,16808,598
1.36019,204.22772,-972,55491,31.3049,16808,598
2.32332,207.59154,-971,55492,30.9067,16808,598
2.06237,211.9986,-970,55493,30.8569,16812,594
2.39407,216.2388,-969,55494,31.056,16812,594
1.69427,220.24066,-968,55495,31.1556,16812,594
2.67443,222.55069,-967,55496,30.9067,16812,594
2.48976,223.38884,-966,55497,31.056,16812,594
2.3027,223.83778,-965,55498,31.1058,16812,594
1.73323,223.51078,-964,55499,31.4045,16812,594
2.18584,221.30176,-963,55500,31.056,16812,594
2.59295,217.16336,-962,55501,31.1058,16812,594
2.17052,212.58173,-961,55502,31.1058,16812,594
2.12388,208.61149,-960,55503,31.056,16827,590
2.05078,201.88086,-959,55504,31.056,16827,590
1.71664,190.82011,-958,55505,31.1058,16827,590
1.62239,179.49376,-957,55506,31.1058,16827,590
2.32742,174.11626,-956,55507,31.1058,16827,590
1.34255,172.30219,-955,55508,31.1556,16827,590
2.05078,168.93305,-954,55509,31.3049,16827,590
1.59273,160.9428,-953,55510,31.056,16827,590
2.09677,150.19759,-952,55511,31.4045,16827,590
1.80334,139.59577,-951,55512,31.1556,16827,590
1.43857,130.91192,-950,55513,31.056,16817,586
2.72564,124.34657,-949,55514,31.3049,16817,586
2.28607,119.66689,-948,55515,31.4045,16817,586
2.29856,115.28079,-947,55516,31.1058,16817,586
2.915,110.48901,-946,55517,31.3049,16817,586
2.50313,104.00813,-945,55518,31.1556,16817,586
1.25061,96.31572,-944,55519,31.2551,16817,586
0.966748,88.931972,-943,55520,31.056,16817,586
2.15066,83.508675,-942,55521,31.056,16817,586
1.88099,79.512389,-941,55522,31.1556,16817,586
1.56859,76.132446,-940,55523,30.9564,16803,583
2.19672,72.303762,-939,55524,30.9564,16803,583
1.3029,68.910827,-938,55525,31.056,16803,583
2.08994,69.206655,-937,55526,31.2551,16803,583
2.63129,70.971684,-936,55527,31.056,16803,583
1.61355,72.500003,-935,55528,31.056,16803,583
0.905627,72.597874,-934,55529,31.056,16803,583
2.2944,74.006228,-933,55530,31.2551,16803,583
1.23912,78.833136,-932,55531,30.9564,16803,583
2.17052,83.9369,-931,55532,31.2551,16803,583
2.17052,87.388959,-930,55533,31.3049,16801,581
1.63702,88.480096,-929,55534,31.1058,16801,581
1.62826,88.406048,-928,55535,31.056,16801,581
2.13284,87.768045,-927,55536,30.9067,16801,581
2.09904,88.374269,-926,55537,31.1556,16801,581
2.16832,88.579151,-925,55538,31.1058,16801,581
2.04845,88.162574,-924,55539,30.9564,16801,581
2.15951,88.019891,-923,55540,31.056,16801,581
1.68863,88.33995,-922,55541,30.8569,16801,581
1.62532,87.894779,-921,55542,31.1058,16801,581
2.25668,88.118871,-920,55543,31.3049,16800,584
2.8705,90.079703,-919,55544,31.1058,16800,584
1.9918,91.424308,-918,55545,31.1058,16800,584
1.8606,92.831644,-917,55546,31.1058,16800,584
1.66589,93.81173,-916,55547,31.1556,16800,584
1.79804,95.121994,-915,55548,31.056,16800,584
1.61355,96.437092,-914,55549,31.056,16800,584
2.22691,95.585965,-913,55550,31.1058,16800,584
1.21188,94.216537,-912,55551,30.9067,16800,584
2.22905,94.568888,-911,55552,31.1556,16800,584
2.13508,97.064015,-910,55553,31.1058,16791,583
2.84882,100.15719,-909,55554,31.056,16791,583
1.70829,104.24833,-908,55555,30.9067,16791,583
1.97739,107.92327,-907,55556,31.1058,16791,583
1.80334,110.36743,-906,55557,30.9564,16791,583
2.8705,111.43442,-905,55558,31.2551,16791,583
2.20323,111.58515,-904,55559,30.9564,16791,583
0.921287,111.83999,-903,55560,31.056,16791,583
1.88858,112.17784,-902,55561,31.2551,16791,583
1.83479,111.41282,-901,55562,31.3049,16791,583
1.87846,109.52435,-900,55563,31.056,16789,585
1.9942,106.66242,-899,55564,31.1058,16789,585
1.86572,104.10909,-898,55565,31.056,16789,585
1.45176,101.84827,-897,55566,31.1058,16789,585
0.931581,98.06836,-896,55567,31.056,16789,585
1.47134,90.663734,-895,55568,31.1058,16789,585
2.12613,80.038293,-894,55569,31.056,16789,585
1.78473,67.510953,-893,55570,31.3049,16789,585
1.85547,55.016888,-892,55571,31.056,16789,585
1.8606,43.740878,-891,55572,31.1058,16789,585
1.24296,33.856636,-890,55573,31.1556,16790,591
2.16832,27.83792,-889,55574,31.056,16790,591
1.49704,27.082008,-888,55575,31.2551,16790,591
1.56859,33.117746,-887,55576,31.056,16790,591
1.87592,41.819016,-886,55577,31.1556,16790,591
1.4118,50.376157,-885,55578,31.056,16790,591
1.86572,59.200074,-884,55579,31.1058,16790,591
1.87846,70.212929,-883,55580,31.056,16790,591
2.16832,83.339075,-882,55581,31.3049,16790,591
1.9942,95.886133,-881,55582,31.056,16790,591
1.51603,105.11353,-880,55583,30.9067,16790,589
2.03444,111.01193,-879,55584,31.056,16790,589
1.27702,115.98517,-878,55585,31.1058,16790,589
2.08079,121.28673,-877,55586,31.1058,16790,589
1.80598,128.8892,-876,55587,31.1058,16790,589
1.47781,138.71388,-875,55588,30.9564,16790,589
1.28447,149.93564,-874,55589,31.056,16790,589
1.55332,160.80219,-873,55590,31.056,16790,589
2.30684,171.05396,-872,55591,31.056,16790,589
1.72772,179.20038,-871,55592,31.1556,16790,589
2.34578,186.89057,-870,55593,31.3049,16782,592
1.84516,192.02048,-869,55594,30.9067,16782,592
2.13508,195.00884,-868,55595,31.1058,16782,592
1.83479,197.77127,-867,55596,31.2551,16782,592
2.01324,202.32391,-866,55597,31.2551,16782,592
1.57769,209.4644,-865,55598,31.1556,16782,592
1.48103,217.50953,-864,55599,31.1058,16782,592
1.68298,223.64631,-863,55600,31.2551,16782,592
1.55638,227.02308,-862,55601,30.9067,16782,592
1.62239,228.99223,-861,55602,30.9564,16782,592
2.19672,232.39168,-860,55603,31.056,16775,598
1.71664,235.77953,-859,55604,31.1058,16775,598
2.25034,236.77201,-858,55605,31.1058,16775,598
2.05543,236.77012,-857,55606,31.3049,16775,598
1.7551,238.84893,-856,55607,31.1556,16775,598
1.94824,243.13958,-855,55608,31.1058,16775,598
2.51263,247.50363,-854,55609,31.1058,16775,598
2.26301,250.12422,-853,55610,31.2551,16775,598
2.05078,250.25408,-852,55611,31.1556,16775,598
2.31303,248.05105,-851,55612,31.3049,16775,598
2.10585,244.95108,-850,55613,31.2551,16765,601
1.77132,241.57283,-849,55614,31.056,16765,601
2.46086,237.31856,-848,55615,31.4045,16765,601
1.59273,232.3666,-847,55616,31.056,16765,601
1.80334,227.2508,-846,55617,31.056,16765,601
2.02504,223.20976,-845,55618,31.1556,16765,601
1.958,219.43778,-844,55619,31.2551,16765,601
1.96529,214.63262,-843,55620,31.1556,16765,601
2.9717,210.4187,-842,55621,31.1556,16765,601
1.94088,208.18493,-841,55622,31.1058,16765,601
1.55638,208.44649,-840,55623,31.1058,16762,613
2.85384,209.25835,-839,55624,31.056,16762,613
3.40259,207.84087,-838,55625,31.056,16762,613
2.26301,203.74241,-837,55626,31.1058,16762,613
2.09222,197.54835,-836,55627,31.056,16762,613
2.32946,190.60153,-835,55628,31.1556,16762,613
2.93294,184.09033,-834,55629,31.1058,16762,613
1.96044,178.96569,-833,55630,31.1058,16762,613
4.11896,173.81895,-832,55631,30.9564,16762,613
2.12613,168.24695,-831,55632,31.056,16762,613
1.85804,163.05569,-830,55633,31.056,16753,617
3.76198,158.76393,-829,55634,30.8569,16753,617
3.2987,156.48771,-828,55635,31.2551,16753,617
3.01472,157.22855,-827,55636,31.4045,16753,617
2.80666,160.63011,-826,55637,31.056,16753,617
2.99727,163.97565,-825,55638,31.1058,16753,617
2.53718,166.2357,-824,55639,31.3049,16753,617
2.04845,167.48381,-823,55640,31.056,16753,617
3.34321,167.3214,-822,55641,31.056,16753,617
2.79474,168.07508,-821,55642,31.056,16753,617
1.8606,170.85261,-820,55643,31.3049,16751,618
2.09677,174.47525,-819,55644,30.9067,16751,618
2.41983,179.00711,-818,55645,31.1058,16751,618
2.29024,184.44711,-817,55646,31.056,16751,618
2.13508,190.76825,-816,55647,31.2551,16751,618
3.17646,198.29942,-815,55648,30.9067,16751,618
2.77247,206.36863,-814,55649,31.056,16751,618
2.88706,215.11522,-813,55650,31.056,16751,618
1.79273,224.01782,-812,55651,31.3049,16751,618
3.33893,233.4414,-811,55652,31.2551,16751,618
2.11488,242.49061,-810,55653,30.9067,16754,611
1.98461,250.03734,-809,55654,31.056,16754,611
2.65833,256.12475,-808,55655,31.1556,16754,611
1.67446,263.05872,-807,55656,31.2551,16754,611
2.15951,272.21609,-806,55657,31.056,16754,611
2.21402,279.43422,-805,55658,31.2551,16754,611
1.98461,284.45152,-804,55659,31.056,16754,611
2.8354,289.63481,-803,55660,31.1058,16754,611
2.44531,295.6169,-802,55661,31.056,16754,611
2.03209,299.76388,-801,55662,31.1058,16754,611
2.53718,301.78403,-800,55663,31.3049,16763,596
2.84044,302.07887,-799,55664,31.1058,16763,596
2.34782,302.65583,-798,55665,31.056,16763,596
1.94333,303.3772,-797,55666,31.056,16763,596
2.15287,303.05567,-796,55667,31.056,16763,596
2.26722,301.87208,-795,55668,31.1058,16763,596
1.56859,301.64318,-794,55669,31.4045,16763,596
1.14304,304.18053,-793,55670,31.056,16763,596
2.00612,308.88329,-792,55671,30.8569,16763,596
2.15066,314.95593,-791,55672,31.1556,16763,596
2.09222,318.64715,-790,55673,31.4045,16773,584
1.958,316.64168,-789,55674,31.056,16773,584
2.17052,310.09591,-788,55675,31.1556,16773,584
2.21832,303.43731,-787,55676,31.1556,16773,584
1.70829,300.87816,-786,55677,31.056,16773,584
2.15951,303.08033,-785,55678,31.1058,16773,584
1.8606,305.18877,-784,55679,31.3049,16773,584
1.90116,305.61172,-783,55680,31.1556,16773,584
2.22047,304.90198,-782,55681,31.056,16773,584
1.47134,296.24797,-781,55682,31.3049,16773,584
1.92608,279.98678,-780,55683,31.1058,16786,578
3.28276,295.80491,-779,55684,31.056,16786,578
2.01324,445.44875,-778,55685,31.2551,16786,578
2.43162,654.31429,-777,55686,31.1058,16786,578
1.98701,761.73954,-776,55687,31.1058,16786,578
2.2819,666.82154,-775,55688,31.2551,16786,578
2.73786,346.15223,-774,55689,31.056,16786,578
2.10358,166.13491,-773,55690,31.1556,16786,578
0.966748,538.79756,-772,55691,31.056,16786,578
0.845728,724.44466,-771,55692,31.056,16786,578
1.71664,760.53118,-770,55693,30.9564,16800,578
2.21617,675.71769,-769,55694,30.9564,16800,578
3.47881,493.02919,-768,55695,31.1058,16800,578
3.17345,278.81912,-767,55696,31.056,16800,578
2.93294,149.82946,-766,55697,31.1058,16800,578
2.31921,175.34541,-765,55698,31.1058,16800,578
2.33968,226.11037,-764,55699,31.056,16800,578
3.05244,271.7006,-763,55700,31.056,16800,578
3.0163,310.22099,-762,55701,31.1556,16800,578
2.0693,329.02752,-761,55702,31.056,16800,578
3.31744,328.10359,-760,55703,31.1058,16806,579
2.14844,321.03826,-759,55704,30.9067,16806,579
2.6003,316.65023,-758,55705,31.2551,16806,579
2.60213,311.87178,-757,55706,30.9067,16806,579
2.81175,301.40011,-756,55707,31.1058,16806,579
1.40163,289.95942,-755,55708,31.056,16806,579
1.45176,289.17924,-754,55709,31.1058,16806,579
2.11488,299.32191,-753,55710,31.056,16806,579
1.92112,309.13455,-752,55711,31.3049,16806,579
1.80334,307.47694,-751,55712,31.2551,16806,579
1.79539,291.69395,-750,55713,31.056,16806,579
1.76323,266.88588,-749,55714,31.056,16806,579
1.31745,242.67259,-748,55715,31.056,16806,579
0.811194,225.81665,-747,55716,31.1556,16806,579
1.5034,216.29519,-746,55717,31.056,16806,579
0.995902,212.08964,-745,55718,31.056,16806,579
1.48103,210.14435,-744,55719,30.8569,16806,579
1.75238,209.12045,-743,55720,31.1058,16806,579
1.21581,207.97772,-742,55721,31.056,16806,579
1.68014,207.2393,-741,55722,30.9564,16806,579
1.3029,207.01588,-740,55723,31.056,16817,582
1.83479,205.17234,-739,55724,31.3049,16817,582
1.44518,200.58741,-738,55725,31.1058,16817,582
0.478416,192.63392,-737,55726,31.056,16817,582
0.365396,181.50251,-736,55727,30.9067,16817,582
0.525895,168.20541,-735,55728,31.1058,16817,582
1.14304,154.66434,-734,55729,31.3049,16817,582
1.63993,141.94022,-733,55730,31.1556,16817,582
2.15951,127.5362,-732,55731,31.1058,16817,582
0.239208,112.80268,-731,55732,31.1058,16817,582
1.0381,98.748319,-730,55733,30.9067,16842,582
0.793363,89.829568,-729,55734,31.1556,16842,582
0.323889,89.72633,-728,55735,31.1058,16842,582
0.447517,93.083076,-727,55736,31.056,16842,582
1.22363,93.666198,-726,55737,31.1058,16842,582
0.534885,90.135681,-725,55738,31.1058,16842,582
0.497951,87.329429,-724,55739,31.1058,16842,582
1.27328,83.046938,-723,55740,31.1556,16842,582
1.02423,79.879141,-722,55741,31.056,16842,582
1.38452,76.968502,-721,55742,31.056,16842,582
2.0156,74.651361,-720,55743,31.2551,16851,579
1.4118,73.866762,-719,55744,31.056,16851,579
1.30655,75.045449,-718,55745,31.2551,16851,579
1.94088,78.512091,-717,55746,31.1058,16851,579
0.971667,84.6912,-716,55747,30.9067,16851,579
0.884315,96.573743,-715,55748,31.1058,16851,579
0.352105,101.31255,-714,55749,31.056,16851,579
1.57769,85.530531,-713,55750,31.3049,16851,579
1.23526,64.787259,-712,55751,31.056,16851,579
0.995902,66.295531,-711,55752,31.056,16851,579
0.878906,92.655307,-710,55753,31.1556,16855,580
0.730792,119.28218,-709,55754,31.1058,16855,580
1.40163,129.88614,-708,55755,31.056,16855,580
1.01956,129.00089,-707,55756,31.2551,16855,580
2.80496,128.96588,-706,55757,31.4045,16855,580
2.05078,140.44708,-705,55758,31.1556,16855,580
1.98461,159.78384,-704,55759,31.056,16855,580
0.98628,175.56754,-703,55760,31.1556,16855,580
2.25457,177.06517,-702,55761,31.1556,16855,580
0.895034,161.53828,-701,55762,31.1058,16855,580
1.60168,138.03977,-700,55763,30.9067,16856,581
2.82022,119.32284,-699,55764,31.1058,16856,581
0.768946,112.56048,-698,55765,31.1058,16856,581
1.19205,115.85399,-697,55766,31.1058,16856,581
1.23912,122.86848,-696,55767,30.9067,16856,581
1.45505,126.16833,-695,55768,31.3049,16856,581
1.57769,122.90838,-694,55769,31.056,16856,581
1.02423,115.99693,-693,55770,31.1556,16856,581
1.34255,106.78564,-692,55771,31.1058,16856,581
1.67446,101.7253,-691,55772,31.056,16856,581
1.49704,107.03318,-690,55773,30.9067,16854,580
0.878906,122.00963,-689,55774,31.056,16854,580
1.50657,143.07167,-688,55775,31.056,16854,580
2.22905,149.18855,-687,55776,31.056,16854,580
1.72495,141.17831,-686,55777,31.056,16854,580
1.87592,131.08953,-685,55778,31.1058,16854,580
1.97498,125.12022,-684,55779,31.1058,16854,580
1.66303,128.33271,-683,55780,31.056,16854,580
1.4118,138.25895,-682,55781,31.1556,16854,580
2.57079,148.13593,-681,55782,31.056,16854,580
1.97739,152.73255,-680,55783,30.9564,16852,576
1.88099,151.87161,-679,55784,31.056,16852,576
1.66589,143.58904,-678,55785,31.056,16852,576
1.19604,133.64653,-677,55786,31.1556,16852,576
1.70549,128.39128,-676,55787,31.2551,16852,576
1.68298,130.27419,-675,55788,31.1556,16852,576
2.03444,134.08683,-674,55789,31.056,16852,576
2.6655,134.15749,-673,55790,31.1058,16852,576
2.27981,130.2882,-672,55791,31.056,16852,576
2.51073,124.70072,-671,55792,31.1556,16852,576
1.76052,119.87441,-670,55793,31.2551,16853,576
2.50693,118.75584,-669,55794,31.1058,16853,576
2.43554,119.97376,-668,55795,30.9067,16853,576
2.11714,120.31291,-667,55796,31.056,16853,576
2.05311,119.91437,-666,55797,31.1058,16853,576
3.25211,116.78429,-665,55798,31.1058,16853,576
2.23332,108.58702,-664,55799,31.056,16853,576
2.21832,97.410121,-663,55800,31.1556,16853,576
2.60213,89.918189,-662,55801,31.056,16853,576
2.45698,88.946716,-661,55802,31.1556,16853,576
1.94824,93.791476,-660,55803,31.2551,16867,571
2.14399,98.827962,-659,55804,31.1556,16867,571
2.45115,99.805527,-658,55805,31.1058,16867,571
1.69708,95.315655,-657,55806,31.1556,16867,571
1.98461,85.444074,-656,55807,31.3049,16867,571
1.62239,73.217973,-655,55808,31.056,16867,571
2.89201,61.136391,-654,55809,31.4543,16867,571
2.51073,50.471166,-653,55810,31.056,16867,571
2.47246,40.429791,-652,55811,31.056,16867,571
2.96367,33.284928,-651,55812,30.9564,16867,571
1.17998,31.100392,-650,55813,31.1058,16882,564
1.98701,35.999361,-649,55814,31.3049,16882,564
2.7028,42.572448,-648,55815,31.2551,16882,564
2.60213,45.710076,-647,55816,31.056,16882,564
2.0716,43.177703,-646,55817,31.1058,16882,564
3.39136,39.825241,-645,55818,31.056,16882,564
2.01324,40.260817,-644,55819,31.056,16882,564
1.76052,44.685738,-643,55820,31.2551,16882,564
2.97651,48.394991,-642,55821,31.3049,16882,564
3.73782,52.628729,-641,55822,31.056,16882,564
2.10811,58.257729,-640,55823,31.056,16892,562
1.66303,63.989765,-639,55824,31.056,16892,562
1.69708,69.787182,-638,55825,31.1058,16892,562
2.57079,74.318066,-637,55826,31.1058,16892,562
2.39407,78.814137,-636,55827,31.2551,16892,562
3.34178,84.190205,-635,55828,31.1058,16892,562
2.46086,88.414391,-634,55829,31.4045,16892,562
1.82698,93.259881,-633,55830,31.056,16892,562
3.14477,98.900234,-632,55831,31.056,16892,562
3.14022,103.46537,-631,55832,31.2551,16892,562
2.15287,108.5214,-630,55833,31.056,16919,559
2.32946,113.86674,-629,55834,31.056,16919,559
1.76323,119.37422,-628,55835,31.1556,16919,559
2.31715,122.4552,-627,55836,31.1058,16919,559
1.94824,123.45492,-626,55837,31.1058,16919,559
1.73323,123.95235,-625,55838,31.056,16919,559
2.26091,126.11246,-624,55839,31.1058,16919,559
1.74146,130.47215,-623,55840,31.1058,16919,559
1.60466,135.20818,-622,55841,31.056,16919,559
2.44336,138.40028,-621,55842,31.1058,16919,559
2.75176,140.666,-620,55843,31.056,16942,556
2.06006,143.45983,-619,55844,31.1058,16942,556
2.15287,146.44276,-618,55845,31.1058,16942,556
2.11714,150.66246,-617,55846,30.8569,16942,556
2.05078,155.60192,-616,55847,31.2551,16942,556
1.83739,160.58724,-615,55848,31.056,16942,556
2.03209,164.28261,-614,55849,30.8569,16942,556
2.03912,166.99531,-613,55850,31.2551,16942,556
1.89865,168.68585,-612,55851,31.1556,16942,556
1.89362,169.45074,-611,55852,31.1058,16942,556
1.17998,170.4356,-610,55853,31.1556,16967,556
2.56522,169.91705,-609,55854,31.056,16967,556
1.9942,169.38953,-608,55855,31.056,16967,556
1.63702,170.94678,-607,55856,31.056,16967,556
1.50022,173.56085,-606,55857,31.2551,16967,556
1.54099,175.76239,-605,55858,31.1058,16967,556
2.32946,176.79777,-604,55859,31.2551,16967,556
2.09222,174.50309,-603,55860,31.1058,16967,556
2.47246,170.95898,-602,55861,30.9067,16967,556
1.68863,169.50842,-601,55862,31.1058,16967,556
1.65152,168.60358,-600,55863,31.056,16996,560
1.73047,169.88776,-599,55864,31.2551,16996,560
2.45698,171.1781,-598,55865,31.056,16996,560
1.11773,170.12875,-597,55866,31.2551,16996,560
1.04268,168.33974,-596,55867,31.1058,16996,560
1.32827,167.28448,-595,55868,31.056,16996,560
2.21402,165.61923,-594,55869,31.056,16996,560
1.87846,163.37282,-593,55870,31.1058,16996,560
2.36401,159.73244,-592,55871,31.056,16996,560
2.12613,156.88111,-591,55872,31.056,16996,560
1.31383,153.3346,-590,55873,31.056,17019,562
1.40163,149.55731,-589,55874,31.056,17019,562
2.33151,148.56318,-588,55875,31.056,17019,562
2.1771,148.06993,-587,55876,31.056,17019,562
1.78473,147.53903,-586,55877,31.1058,17019,562
2.0762,147.2043,-585,55878,31.1058,17019,562
1.98461,146.5428,-584,55879,31.056,17019,562
1.91864,146.13937,-583,55880,30.8569,17019,562
1.82437,145.66595,-582,55881,31.056,17019,562
2.42966,145.29106,-581,55882,31.1058,17019,562
2.13284,144.71769,-580,55883,31.3049,17046,565
2.05543,142.64907,-579,55884,31.2551,17046,565
1.66303,138.15372,-578,55885,31.056,17046,565
2.11714,131.26175,-577,55886,31.4045,17046,565
2.41391,125.08872,-576,55887,31.056,17046,565
1.45176,120.29371,-575,55888,31.2551,17046,565
2.75349,113.28513,-574,55889,31.056,17046,565
1.82437,102.79806,-573,55890,31.056,17046,565
1.0381,92.312521,-572,55891,31.1058,17046,565
1.56859,83.134902,-571,55892,31.056,17046,565
1.76323,77.032848,-570,55893,31.1058,17110,564
1.58673,73.229369,-569,55894,30.9564,17110,564
2.52021,68.397185,-568,55895,31.1556,17110,564
0.662337,61.864844,-567,55896,31.2551,17110,564
1.86316,56.380629,-566,55897,31.056,17110,564
1.93596,54.977059,-565,55898,30.9067,17110,564
2.41786,56.399787,-564,55899,31.1058,17110,564
1.8529,55.856206,-563,55900,31.3049,17110,564
2.4277,52.247948,-562,55901,31.056,17110,564
1.42859,49.297518,-561,55902,31.056,17110,564
2.11037,48.67239,-560,55903,31.1058,17265,570
2.11037,47.743227,-559,55904,31.056,17265,570
1.68581,43.764037,-558,55905,31.056,17265,570
2.32946,39.625686,-557,55906,31.3049,17265,570
2.47246,37.78367,-556,55907,31.056,17265,570
1.28447,35.875175,-555,55908,31.2551,17265,570
1.06082,32.035492,-554,55909,31.1058,17265,570
1.97739,27.135876,-553,55910,31.056,17265,570
2.12837,23.438136,-552,55911,31.2551,17265,570
1.33543,20.955246,-551,55912,31.1058,17265,570
1.25061,19.823933,-550,55913,31.3049,17364,568
2.75176,17.936445,-549,55914,31.056,17364,568
0.926449,14.528419,-548,55915,31.1556,17364,568
1.27328,11.913587,-547,55916,31.056,17364,568
2.74308,11.974096,-546,55917,31.1058,17364,568
1.30655,13.374918,-545,55918,31.1058,17364,568
1.24296,16.699112,-544,55919,30.9067,17364,568
2.18802,18.411586,-543,55920,31.2551,17364,568
1.45505,17.463309,-542,55921,31.4045,17364,568
1.77401,15.275869,-541,55922,31.1058,17364,568
2.25668,12.188096,-540,55923,31.1058,17450,559
1.00543,9.9926313,-539,55924,31.1556,17450,559
2.90024,11.62235,-538,55925,31.3049,17450,559
2.46086,16.7539,-537,55926,31.056,17450,559
2.0739,21.864902,-536,55927,31.2551,17450,559
1.99897,25.736579,-535,55928,31.1058,17450,559
1.73047,29.67514,-534,55929,31.2551,17450,559
2.17052,34.883287,-533,55930,30.9564,17450,559
1.71664,40.077005,-532,55931,31.1058,17450,559
1.50022,45.053538,-531,55932,31.056,17450,559
2.36401,48.447306,-530,55933,31.2551,17572,558
1.65152,50.256957,-529,55934,30.9564,17572,558
0.889691,49.297971,-528,55935,31.1058,17572,558
2.00612,46.917737,-527,55936,31.1058,17572,558
1.45176,44.767363,-526,55937,31.1058,17572,558
1.97256,41.583893,-525,55938,31.056,17572,558
1.9335,37.10295,-524,55939,31.2551,17572,558
1.63993,31.924596,-523,55940,31.1556,17572,558
1.09619,28.960522,-522,55941,31.056,17572,558
2.48976,29.179401,-521,55942,31.1058,17572,558
1.27328,31.636,-520,55943,31.056,17741,552
2.50503,33.42632,-519,55944,31.056,17741,552
1.56859,33.399339,-518,55945,31.2551,17741,552
0.239208,32.755812,-517,55946,31.056,17741,552
2.20323,31.950957,-516,55947,31.056,17741,552
1.94088,32.218701,-515,55948,31.056,17741,552
2.25668,32.293539,-514,55949,31.1556,17741,552
1.94333,32.589116,-513,55950,31.3049,17741,552
2.64033,34.998434,-512,55951,30.8569,17741,552
1.18402,39.92763,-511,55952,31.1058,17741,552
1.38452,45.941596,-510,55953,30.9067,17875,550
1.85804,49.324111,-509,55954,31.1058,17875,550
1.80334,47.616498,-508,55955,31.056,17875,550
1.66303,44.25213,-507,55956,31.3049,17875,550
2.41983,42.721819,-506,55957,31.056,17875,550
2.38409,41.109432,-505,55958,31.1556,17875,550
1.47781,36.801719,-504,55959,31.1556,17875,550
2.11037,28.893298,-503,55960,31.3049,17875,550
2.09677,22.722463,-502,55961,31.2551,17875,550
1.42859,20.782807,-501,55962,31.056,17875,550
1.5807,23.2338,-500,55963,31.1556,17958,545
2.23759,25.532546,-499,55964,31.056,17958,545
1.49066,23.506698,-498,55965,31.2551,17958,545
2.21187,22.829759,-497,55966,31.4045,17958,545
1.73323,23.799955,-496,55967,31.1058,17958,545
1.4118,29.29128,-495,55968,31.056,17958,545
1.79007,36.710909,-494,55969,31.3049,17958,545
2.12837,41.554319,-493,55970,31.1058,17958,545
2.85884,41.019076,-492,55971,31.056,17958,545
1.76323,36.295755,-491,55972,31.1058,17958,545
2.72914,31.144441,-490,55973,31.1058,17958,545
1.70829,29.622871,-489,55974,31.056,17958,545
2.62221,30.247831,-488,55975,31.056,17958,545
2.10358,29.676395,-487,55976,31.3049,17958,545
1.86572,31.801601,-486,55977,31.056,17958,545
1.80598,38.039938,-485,55978,31.056,17958,545
1.36019,43.4229,-484,55979,31.1058,17958,545
2.08994,45.416883,-483,55980,31.056,17958,545
1.58973,43.657846,-482,55981,31.2551,17958,545
1.78206,45.324429,-481,55982,31.3049,17958,545
1.5034,55.555405,-480,55983,30.9564,18068,545
1.70549,66.510735,-479,55984,31.1058,18068,545
2.03209,70.850749,-478,55985,31.1058,18068,545
2.40995,69.808958,-477,55986,30.9067,18068,545
1.76323,68.462403,-476,55987,31.056,18068,545
0.878906,74.771031,-475,55988,30.9564,18068,545
1.74966,87.630246,-474,55989,31.1058,18068,545
1.39139,98.923962,-473,55990,31.1556,18068,545
2.49167,103.41913,-472,55991,31.056,18068,545
1.77132,103.23548,-471,55992,31.1058,18068,545
2.27981,103.23786,-470,55993,30.9067,18135,539
1.06977,110.17554,-469,55994,31.3049,18135,539
1.80334,119.71096,-468,55995,31.056,18135,539
1.67161,134.13572,-467,55996,31.1556,18135,539
1.76323,156.60708,-466,55997,31.056,18135,539
2.17052,179.52758,-465,55998,31.1058,18135,539
2.38009,230.27137,-464,55999,31.056,18135,539
2.23545,256.72246,-463,56000,31.056,18135,539
1.74966,244.86675,-462,56001,31.056,18135,539
0.889691,209.09843,-461,56002,31.056,18135,539
1.16371,170.50221,-460,56003,31.056,18182,539
2.31097,186.70585,-459,56004,30.9564,18182,539
2.47439,223.77643,-458,56005,30.9564,18182,539
1.83479,233.27563,-457,56006,31.1556,18182,539
2.1771,228.42758,-456,56007,31.1058,18182,539
3.39557,224.4247,-455,56008,31.056,18182,539
2.36804,217.03182,-454,56009,31.2551,18182,539
1.49385,216.67879,-453,56010,31.3049,18182,539
2.63129,240.15925,-452,56011,31.1058,18182,539
2.23759,272.91881,-451,56012,31.1058,18182,539
1.20794,288.12659,-450,56013,31.1556,18052,536
3.35176,283.7153,-449,56014,31.056,18052,536
3.5224,272.15485,-448,56015,31.1058,18052,536
2.28816,277.07692,-447,56016,30.9067,18052,536
3.75183,298.74416,-446,56017,31.3049,18052,536
2.50693,328.9912,-445,56018,30.9067,18052,536
2.65115,350.4955,-444,56019,31.056,18052,536
2.25034,349.65099,-443,56020,31.1556,18052,536
2.91991,340.92263,-442,56021,31.1058,18052,536
1.61355,346.07194,-441,56022,31.056,18052,536
1.60466,324.73062,-440,56023,31.1058,17823,532
22.1888,246.95081,-439,56024,31.1058,17823,532
2.84044,280.77942,-438,56025,31.3049,17823,532
3.054,366.17401,-437,56026,31.2551,17823,532
2.26301,471.75981,-436,56027,31.1556,17823,532
1.74966,394.52013,-435,56028,30.9067,17823,532
1.82698,280.58867,-434,56029,31.056,17823,532
2.8986,304.00755,-433,56030,31.1058,17823,532
1.78206,380.0162,-432,56031,31.3049,17823,532
1.55638,424.05591,-431,56032,31.056,17823,532
1.76052,432.9983,-430,56033,31.056,18110,528
1.94088,416.79833,-429,56034,31.3049,18110,528
0.750112,390.29401,-428,56035,30.9067,18110,528
1.42525,376.43654,-427,56036,31.2551,18110,528
2.9717,375.82168,-426,56037,31.1058,18110,528
1.09619,369.96123,-425,56038,31.056,18110,528
1.83739,359.70627,-424,56039,31.3049,18110,528
1.73323,349.49813,-423,56040,31.3049,18110,528
2.0739,335.51509,-422,56041,31.056,18110,528
1.28447,316.12275,-421,56042,30.9564,18110,528
1.9942,296.77241,-420,56043,31.056,18179,523
1.23912,282.09498,-419,56044,30.8569,18179,523
5.48007,214.00113,-418,56045,30.9067,18179,523
1.42859,233.65154,-417,56046,31.3049,18179,523
0.534885,228.16509,-416,56047,31.3049,18179,523
2.37005,288.43861,-415,56048,31.056,18179,523
2.46086,291.97101,-414,56049,31.1556,18179,523
2.34375,219.5462,-413,56050,30.9067,18179,523
1.81651,216.62735,-412,56051,31.2551,18179,523
1.96772,246.61276,-411,56052,31.2551,18179,523
1.37415,245.882,-410,56053,31.056,18456,528
2.28399,227.77054,-409,56054,31.056,18456,528
2.9248,204.02189,-408,56055,31.1058,18456,528
2.08079,185.75452,-407,56056,31.1556,18456,528
1.91864,192.18973,-406,56057,31.056,18456,528
1.19205,208.39447,-405,56058,31.056,18456,528
1.09619,205.83828,-404,56059,30.8569,18456,528
1.48103,182.09675,-403,56060,31.1058,18456,528
1.51603,152.19725,-402,56061,31.3049,18456,528
1.66589,129.45181,-401,56062,30.8569,18456,528
1.78473,118.13934,-400,56063,30.9067,17814,529
2.03444,118.06799,-399,56064,31.2551,17814,529
1.7551,122.33943,-398,56065,31.1058,17814,529
1.01016,122.17799,-397,56066,31.1556,17814,529
1.13045,114.88029,-396,56067,31.3049,17814,529
1.44518,102.99248,-395,56068,31.056,17814,529
1.83739,91.224101,-394,56069,31.1556,17814,529
2.40797,82.283088,-393,56070,31.1556,17814,529
1.31745,77.573162,-392,56071,31.056,17814,529
1.12623,73.402433,-391,56072,31.3049,17814,529
1.19205,67.86813,-390,56073,31.2551,17728,529
0.966748,62.157048,-389,56074,31.056,17728,529
1.64863,58.147127,-388,56075,31.1058,17728,529
1.99897,55.432558,-387,56076,31.3049,17728,529
1.90617,58.503909,-386,56077,31.056,17728,529
1.56555,89.821605,-385,56078,31.1058,17728,529
1.45176,91.651477,-384,56079,31.1058,17728,529
1.01016,79.581044,-383,56080,30.9564,17728,529
2.0716,79.233601,-382,56081,31.056,17728,529
2.08994,69.42464,-381,56082,31.056,17728,529
1.8529,62.837405,-380,56083,31.2551,17716,528
1.88858,71.744639,-379,56084,31.4045,17716,528
1.81388,78.748598,-378,56085,31.1556,17716,528
1.54408,75.991784,-377,56086,31.056,17716,528
0.889691,71.508722,-376,56087,31.1058,17716,528
2.59479,67.37839,-375,56088,31.1058,17716,528
1.92856,66.546796,-374,56089,31.1058,17716,528
1.79273,67.779919,-373,56090,30.9067,17716,528
1.58673,73.170029,-372,56091,31.3049,17716,528
1.74966,74.180593,-371,56092,30.9067,17716,528
1.51917,71.917339,-370,56093,31.1058,17732,527
0.889691,71.413741,-369,56094,31.1058,17732,527
1.18402,78.154463,-368,56095,31.1058,17732,527
1.83479,91.583735,-367,56096,31.056,17732,527
1.98701,101.91789,-366,56097,31.4045,17732,527
1.1472,94.632446,-365,56098,31.056,17732,527
0.921287,78.979021,-364,56099,31.2551,17732,527
1.85547,73.026314,-363,56100,31.3049,17732,527
2.83876,101.48522,-362,56101,31.1058,17732,527
3.66048,149.68762,-361,56102,30.9564,17732,527
2.65115,165.88893,-360,56103,31.1058,17779,532
2.26722,149.94667,-359,56104,31.056,17779,532
1.1596,132.35513,-358,56105,31.1058,17779,532
2.1771,133.74016,-357,56106,30.9067,17779,532
2.35997,147.42026,-356,56107,31.1556,17779,532
1.82698,160.00033,-355,56108,31.2551,17779,532
1.74693,167.04117,-354,56109,31.056,17779,532
2.32742,165.89302,-353,56110,31.1556,17779,532
1.48746,155.82915,-352,56111,31.056,17779,532
1.5034,145.20852,-351,56112,31.056,17779,532
2.78449,136.70725,-350,56113,31.2551,17842,530
2.41588,127.75771,-349,56114,31.056,17842,530
2.13284,125.02432,-348,56115,31.056,17842,530
1.36019,127.40182,-347,56116,31.056,17842,530
1.91864,135.13167,-346,56117,31.2551,17842,530
1.52856,144.83909,-345,56118,31.056,17842,530
2.72914,155.16083,-344,56119,31.1058,17842,530
2.37005,165.37252,-343,56120,31.1058,17842,530
1.09619,176.30119,-342,56121,31.1058,17842,530
0.41432,187.61294,-341,56122,31.1556,17842,530
1.25442,194.05621,-340,56123,31.056,17856,531
1.72772,193.84005,-339,56124,31.1058,17856,531
1.63993,192.33649,-338,56125,31.1556,17856,531
1.9942,192.15279,-337,56126,31.1556,17856,531
1.958,190.44052,-336,56127,31.1058,17856,531
1.74966,188.42615,-335,56128,31.1556,17856,531
2.85384,188.49692,-334,56129,31.056,17856,531
1.42859,190.66089,-333,56130,31.056,17856,531
2.45504,192.12118,-332,56131,31.1058,17856,531
1.96772,191.71884,-331,56132,31.056,17856,531
1.82698,188.12631,-330,56133,31.1058,17904,534
1.17188,184.14322,-329,56134,31.2551,17904,534
1.36019,186.04585,-328,56135,30.9564,17904,534
1.49066,197.49815,-327,56136,31.056,17904,534
1.68863,209.60056,-326,56137,31.3049,17904,534
2.27143,214.94554,-325,56138,31.1556,17904,534
1.33185,209.6136,-324,56139,31.1556,17904,534
1.92608,194.7354,-323,56140,31.3049,17904,534
1.60466,175.77218,-322,56141,31.2551,17904,534
2.06237,151.62725,-321,56142,31.056,17904,534
1.15135,120.25586,-320,56143,31.056,17874,536
0.793363,85.640307,-319,56144,31.056,17874,536
1.62826,54.814464,-318,56145,30.9564,17874,536
1.32827,40.125683,-317,56146,30.9067,17874,536
1.74966,40.873508,-316,56147,30.9564,17874,536
1.20794,42.158286,-315,56148,31.3049,17874,536
2.04146,47.602414,-314,56149,31.1556,17874,536
2.74482,85.760281,-313,56150,31.1058,17874,536
2.65474,181.44449,-312,56151,31.056,17874,536
1.82698,179.32756,-311,56152,31.056,17874,536
2.22905,93.325049,-310,56153,31.2551,17854,538
2.54094,32.808086,-309,56154,31.056,17854,538
1.45176,88.766607,-308,56155,31.3049,17854,538
1.96287,109.80555,-307,56156,31.3049,17854,538
2.71512,86.976618,-306,56157,31.2551,17854,538
1.50022,48.963131,-305,56158,31.2551,17854,538
1.60466,38.464741,-304,56159,31.056,17854,538
2.14399,38.259648,-303,56160,31.056,17854,538
1.29556,29.288227,-302,56161,31.056,17854,538
1.60168,68.620673,-301,56162,31.1058,17854,538
1.60466,102.66759,-300,56163,31.1058,18220,535
1.60466,101.92937,-299,56164,31.056,18220,535
1.73872,83.433072,-298,56165,31.1058,18220,535
2.30684,62.615407,-297,56166,31.056,18220,535
1.84257,44.787829,-296,56167,31.4045,18220,535
1.13886,39.7509,-295,56168,31.2551,18220,535
1.36019,53.118543,-294,56169,31.1058,18220,535
1.66589,85.327585,-293,56170,31.1058,18220,535
0.85693,109.92633,-292,56171,31.056,18220,535
0.926449,101.93924,-291,56172,30.9564,18220,535
1.22752,79.131227,-290,56173,31.2551,17907,539
1.63993,61.745018,-289,56174,31.056,17907,539
1.32467,60.17435,-288,56175,31.1058,17907,539
1.96529,72.09686,-287,56176,30.9067,17907,539
2.27981,87.204181,-286,56177,31.056,17907,539
1.84516,94.688565,-285,56178,31.056,17907,539
1.70829,94.620636,-284,56179,31.1058,17907,539
2.39407,97.324954,-283,56180,31.1556,17907,539
2.42376,98.932547,-282,56181,31.4045,17907,539
1.73872,91.920566,-281,56182,31.3049,17907,539
1.31745,78.66037,-280,56183,31.056,17627,539
1.92608,67.709091,-279,56184,31.1058,17627,539
1.7551,66.048274,-278,56185,31.056,17627,539
1.33185,71.760526,-277,56186,31.2551,17627,539
1.66875,79.111923,-276,56187,31.056,17627,539
1.64283,84.29492,-275,56188,31.3049,17627,539
1.17594,86.522711,-274,56189,31.056,17627,539
1.93842,89.515501,-273,56190,31.1058,17627,539
0.926449,95.189487,-272,56191,30.9067,17627,539
1.6165,100.74078,-271,56192,31.2551,17627,539
1.20399,102.49866,-270,56193,31.4045,17550,536
1.39139,99.570847,-269,56194,31.1556,17550,536
1.28817,94.815399,-268,56195,31.2551,17550,536
1.86572,91.958816,-267,56196,31.056,17550,536
1.49385,91.722418,-266,56197,31.056,17550,536
0.793363,91.801907,-265,56198,31.1058,17550,536
2.32946,90.467938,-264,56199,31.1058,17550,536
1.66589,86.818771,-263,56200,30.9067,17550,536
1.38452,89.876418,-262,56201,31.1058,17550,536
1.06977,100.81271,-261,56202,31.056,17550,536
1.48103,108.11992,-260,56203,31.056,17541,536
1.74966,109.46005,-259,56204,31.2551,17541,536
1.83479,109.94897,-258,56205,31.1058,17541,536
1.37415,113.2456,-257,56206,30.9564,17541,536
2.23972,118.16167,-256,56207,31.1556,17541,536
1.24296,120.79078,-255,56208,30.9067,17541,536
2.46473,118.02634,-254,56209,31.1058,17541,536
1.41854,112.42417,-253,56210,31.1058,17541,536
0.737289,107.45696,-252,56211,31.1556,17541,536
1.9335,104.77025,-251,56212,31.056,17541,536
1.19205,103.65624,-250,56213,31.056,17554,540
1.74966,103.61347,-249,56214,31.1058,17554,540
2.30684,103.98385,-248,56215,30.9564,17554,540
1.13045,103.56492,-247,56216,31.056,17554,540
0.956832,101.17538,-246,56217,31.1058,17554,540
2.15066,97.867584,-245,56218,31.4045,17554,540
1.65152,94.986784,-244,56219,31.2551,17554,540
1.57769,93.168842,-243,56220,31.1058,17554,540
1.33185,92.547734,-242,56221,31.2551,17554,540
0.793363,93.771614,-241,56222,31.2551,17554,540
1.98701,95.87471,-240,56223,31.2551,17594,537
1.81651,97.512865,-239,56224,31.1058,17594,537
2.33968,99.229049,-238,56225,30.9067,17594,537
1.68298,102.86508,-237,56226,31.2551,17594,537
1.83479,104.00083,-236,56227,31.1058,17594,537
1.88858,101.06537,-235,56228,31.056,17594,537
1.81125,106.43131,-234,56229,30.9067,17594,537
2.02504,121.5528,-233,56230,31.1058,17594,537
1.36019,89.254854,-232,56231,30.9067,17594,537
1.47781,90.905181,-231,56232,30.9564,17594,537
1.68581,106.15065,-230,56233,31.4045,17594,537
1.82437,105.70845,-229,56234,31.056,17594,537
2.39407,105.50858,-228,56235,31.2551,17594,537
1.78206,112.07484,-227,56236,31.1058,17594,537
1.8606,122.04107,-226,56237,31.2551,17594,537
1.90617,128.52491,-225,56238,31.2551,17594,537
1.45505,131.82203,-224,56239,31.3049,17594,537
3.16442,131.38112,-223,56240,31.056,17594,537
1.48103,126.48858,-222,56241,31.1058,17594,537
2.57079,119.3229,-221,56242,31.056,17594,537
2.14177,114.07103,-220,56243,31.1556,17675,539
1.24296,113.21743,-219,56244,31.4045,17675,539
1.66589,115.55553,-218,56245,31.056,17675,539
1.31745,118.15435,-217,56246,31.2551,17675,539
1.30655,119.48289,-216,56247,31.056,17675,539
1.82698,118.2935,-215,56248,30.8569,17675,539
1.22752,115.15249,-214,56249,31.2551,17675,539
1.10916,111.74749,-213,56250,31.056,17675,539
2.0739,107.89227,-212,56251,31.056,17675,539
1.73323,103.79071,-211,56252,31.1556,17675,539
1.51603,98.638931,-210,56253,31.2551,18155,539
1.73323,94.393508,-209,56254,31.1556,18155,539
1.80334,91.67196,-208,56255,31.1556,18155,539
1.47458,90.329474,-207,56256,31.056,18155,539
1.10916,89.77813,-206,56257,31.056,18155,539
2.15287,90.64705,-205,56258,31.056,18155,539
1.76323,92.356498,-204,56259,31.1058,18155,539
0.926449,95.096534,-203,56260,31.1556,18155,539
1.4118,97.058489,-202,56261,31.2551,18155,539
0.905627,97.68211,-201,56262,31.3049,18155,539
2.25668,97.368044,-200,56263,30.9067,18327,541
1.91864,98.669064,-199,56264,31.056,18327,541
1.71386,101.68721,-198,56265,30.9067,18327,541
1.69427,102.55926,-197,56266,31.056,18327,541
1.83479,94.221044,-196,56267,31.056,18327,541
2.58005,78.510573,-195,56268,31.2551,18327,541
2.04146,64.592961,-194,56269,31.2551,18327,541
1.47781,63.426893,-193,56270,31.056,18327,541
2.08994,63.053659,-192,56271,31.3049,18327,541
1.76323,14.332739,-191,56272,31.056,18327,541
6.17092,199.05106,-190,56273,31.1556,18438,544
4.594,682.41742,-189,56274,31.2551,18438,544
2.03678,637.3659,-188,56275,30.9564,18438,544
1.59572,324.66047,-187,56276,31.1058,18438,544
1.44188,86.835933,-186,56277,30.9067,18438,544
1.71386,294.33567,-185,56278,31.3049,18438,544
2.09449,560.11146,-184,56279,31.1556,18438,544
1.31383,774.69643,-183,56280,30.9067,18438,544
0.76272,787.80821,-182,56281,31.3049,18438,544
1.81651,617.6939,-181,56282,30.9564,18438,544
2.02504,353.32982,-180,56283,31.2551,18585,545
1.958,121.65861,-179,56284,31.1058,18585,545
1.68863,165.32773,-178,56285,31.4543,18585,545
1.26953,257.81909,-177,56286,30.9564,18585,545
2.56336,296.90356,-176,56287,31.1058,18585,545
1.73047,294.66737,-175,56288,31.056,18585,545
4.78715,221.82886,-174,56289,30.9067,18585,545
2.32946,196.35293,-173,56290,30.9564,18585,545
1.67446,258.94512,-172,56291,31.2551,18585,545
1.40163,364.09439,-171,56292,31.1058,18585,545
0.921287,397.29073,-170,56293,31.056,19083,540
1.4681,366.68219,-169,56294,31.2551,19083,540
1.25061,354.49425,-168,56295,31.2551,19083,540
0.478416,383.52763,-167,56296,30.9067,19083,540
1.37415,420.75592,-166,56297,31.2551,19083,540
1.28447,445.17599,-165,56298,31.056,19083,540
1.28447,465.89377,-164,56299,31.056,19083,540
2.71688,480.16096,-163,56300,31.056,19083,540
1.89865,503.33655,-162,56301,31.1556,19083,540
1.95556,550.05617,-161,56302,31.2551,19083,540
3.08816,521.42855,-160,56303,31.1556,18669,541
2.34782,480.67616,-159,56304,31.1058,18669,541
1.0381,502.04054,-158,56305,31.056,18669,541
0.737289,563.08594,-157,56306,31.1058,18669,541
1.31745,597.78126,-156,56307,31.3049,18669,541
1.19205,546.26514,-155,56308,31.4045,18669,541
0.662337,505.98529,-154,56309,31.056,18669,541
1.54099,531.01494,-153,56310,31.056,18669,541
2.37809,592.00208,-152,56311,31.1556,18669,541
1.78206,648.464,-151,56312,31.056,18669,541
1.08306,646.77568,-150,56313,31.056,19147,546
1.94824,631.69349,-149,56314,30.9564,19147,546
0.98628,649.5332,-148,56315,30.9067,19147,546
1.42859,711.78324,-147,56316,31.1556,19147,546
1.11773,772.10504,-146,56317,31.1058,19147,546
2.47824,792.08454,-145,56318,31.056,19147,546
1.49385,781.64561,-144,56319,31.2551,19147,546
1.73872,768.45197,-143,56320,31.3049,19147,546
2.14177,770.97052,-142,56321,31.056,19147,546
1.87592,786.91388,-141,56322,31.1058,19147,546
2.95723,799.05923,-140,56323,31.1058,19223,546
3.95236,798.96199,-139,56324,30.9067,19223,546
3.962,788.56125,-138,56325,30.9564,19223,546
4.52392,772.46381,-137,56326,31.056,19223,546
4.93913,751.15693,-136,56327,31.1058,19223,546
5.48007,726.25324,-135,56328,31.1556,19223,546
4.62812,699.77268,-134,56329,30.9067,19223,546
4.72398,676.03179,-133,56330,31.1556,19223,546
4.7401,658.46879,-132,56331,30.9564,19223,546
5.04326,646.76317,-131,56332,31.056,19223,546
4.80107,637.55978,-130,56333,31.4045,20253,533
4.13629,630.66484,-129,56334,31.056,20253,533
5.59716,623.03011,-128,56335,31.056,20253,533
3.69935,619.58086,-127,56336,31.056,20253,533
3.95236,623.53173,-126,56337,31.056,20253,533
4.811,635.31217,-125,56338,31.1058,20253,533
3.53861,652.98173,-124,56339,31.056,20253,533
3.89892,669.71973,-123,56340,30.9067,20253,533
3.73016,682.21096,-122,56341,30.9564,20253,533
2.62221,693.18868,-121,56342,31.1058,20253,533
2.61128,705.8706,-120,56343,31.1556,19270,521
2.60945,721.1155,-119,56344,30.8569,19270,521
2.54844,737.15185,-118,56345,31.056,19270,521
2.30063,752.55523,-117,56346,30.8569,19270,521
2.15951,763.4936,-116,56347,31.056,19270,521
2.97651,770.88776,-115,56348,31.056,19270,521
2.34578,776.40607,-114,56349,31.056,19270,521
2.0739,780.42893,-113,56350,31.056,19270,521
2.53718,782.42512,-112,56351,30.9564,19270,521
1.83479,781.38399,-111,56352,30.9564,19270,521
2.42573,779.48373,-110,56353,31.3049,18258,512
1.94824,771.91437,-109,56354,31.3049,18258,512
1.83739,758.8004,-108,56355,31.4543,18258,512
2.65294,743.41078,-107,56356,31.056,18258,512
2.84044,723.66079,-106,56357,31.1556,18258,512
2.95077,700.19483,-105,56358,31.4045,18258,512
2.87547,673.45674,-104,56359,30.8569,18258,512
2.02269,647.03992,-103,56360,31.1556,18258,512
2.25668,624.04691,-102,56361,31.2551,18258,512
2.27981,603.79888,-101,56362,31.056,18258,512
2.58743,586.90605,-100,56363,31.3049,17657,508
2.66729,571.43901,-99,56364,31.1556,17657,508
2.47246,554.88596,-98,56365,30.9067,17657,508
2.5353,535.49118,-97,56366,31.1556,17657,508
3.1143,518.92223,-96,56367,31.056,17657,508
2.73786,504.27471,-95,56368,31.1556,17657,508
2.91991,489.7155,-94,56369,31.1058,17657,508
2.78449,474.77352,-93,56370,31.3049,17657,508
2.67443,473.60291,-92,56371,31.056,17657,508
3.49522,482.91951,-91,56372,31.2551,17657,508
3.43467,488.83137,-90,56373,31.3049,17324,509
3.06491,495.56238,-89,56374,31.056,17324,509
3.32749,492.8273,-88,56375,31.2551,17324,509
2.75176,480.651,-87,56376,31.2551,17324,509
3.53726,464.0264,-86,56377,31.056,17324,509
3.11277,451.60822,-85,56378,31.2551,17324,509
3.86329,440.3932,-84,56379,31.3049,17324,509
4.11317,426.6238,-83,56380,30.9067,17324,509
2.91827,401.82497,-82,56381,31.056,17324,509
2.92643,369.36228,-81,56382,31.3049,17324,509
3.47881,327.32969,-80,56383,30.9564,17153,507
3.95116,271.68316,-79,56384,30.9067,17153,507
2.48784,202.98663,-78,56385,31.1058,17153,507
4.61987,140.51263,-77,56386,31.1556,17153,507
3.84473,112.37101,-76,56387,31.1556,17153,507
2.77247,114.39245,-75,56388,31.056,17153,507
3.87438,130.8239,-74,56389,31.1556,17153,507
2.93781,150.46234,-73,56390,31.3049,17153,507
3.45129,160.67129,-72,56391,31.1556,17153,507
1.94824,159.36381,-71,56392,31.2551,17153,507
2.81175,149.17821,-70,56393,31.056,17075,516
2.0156,133.60332,-69,56394,31.3049,17075,516
2.57079,122.54419,-68,56395,31.056,17075,516
2.47824,118.18985,-67,56396,31.2551,17075,516
3.08971,119.80335,-66,56397,30.9067,17075,516
0.98628,115.42586,-65,56398,31.3049,17075,516
2.69751,103.31657,-64,56399,31.1058,17075,516
1.92112,132.55206,-63,56400,31.056,17075,516
1.88858,169.45738,-62,56401,31.3049,17075,516
1.61945,194.01677,-61,56402,31.1058,17075,516
2.47246,213.68331,-60,56403,31.2551,17021,520
1.66875,210.98783,-59,56404,31.056,17021,520
2.11488,198.15862,-58,56405,31.056,17021,520
2.36199,208.51718,-57,56406,31.056,17021,520
1.96287,251.84931,-56,56407,30.9564,17021,520
2.9443,300.99626,-55,56408,31.056,17021,520
2.18584,338.42411,-54,56409,31.3049,17021,520
2.13284,368.62946,-53,56410,31.056,17021,520
2.83203,405.46993,-52,56411,31.056,17021,520
1.76323,446.73523,-51,56412,31.3049,17021,520
2.44921,482.81718,-50,56413,30.9564,16981,525
1.96772,504.10962,-49,56414,31.2551,16981,525
2.01324,498.61038,-48,56415,31.2551,16981,525
1.81388,466.23525,-47,56416,31.1058,16981,525
1.89614,417.71186,-46,56417,31.1556,16981,525
3.17646,365.25702,-45,56418,31.3049,16981,525
3.12653,323.29522,-44,56419,31.1556,16981,525
2.49167,301.53702,-43,56420,30.9067,16981,525
1.67446,308.17675,-42,56421,30.9067,16981,525
1.81651,346.90557,-41,56422,31.056,16981,525
1.68014,410.0552,-40,56423,31.056,16948,533
2.80496,481.1117,-39,56424,31.2551,16948,533
1.78473,535.66797,-38,56425,31.1058,16948,533
1.49066,565.31394,-37,56426,31.056,16948,533
2.06237,572.418,-36,56427,31.056,16948,533
1.52856,578.58233,-35,56428,31.2551,16948,533
2.09677,599.4925,-34,56429,30.9564,16948,533
1.13886,633.54489,-33,56430,31.1058,16948,533
1.1596,660.66242,-32,56431,31.056,16948,533
1.46158,664.05741,-31,56432,31.056,16948,533
1.82437,645.67268,-30,56433,31.2551,16913,536
2.12164,618.66224,-29,56434,31.1556,16913,536
2.50122,591.59381,-28,56435,31.1058,16913,536
2.49549,593.64619,-27,56436,31.2551,16913,536
2.51832,634.39124,-26,56437,30.9067,16913,536
1.73323,692.61897,-25,56438,31.056,16913,536
2.63672,743.39058,-24,56439,31.056,16913,536
2.44336,781.42619,-23,56440,31.056,16913,536
2.84882,821.53146,-22,56441,30.9564,16913,536
1.81913,843.52996,-21,56442,31.4045,16913,536
2.97972,867.86392,-20,56443,31.056,16892,540
4.83965,944.26516,-19,56444,31.1556,16892,540
5.69261,1129.2456,-18,56445,31.056,16892,540
6.04128,1533.6739,-17,56446,31.056,16892,540
4.95359,1972.0814,-16,56447,31.2551,16892,540
3.07113,2057.8723,-15,56448,30.9564,16892,540
2.80496,1927.3305,-14,56449,31.2551,16892,540
5.28969,1965.5634,-13,56450,31.1058,16892,540
5.77247,2452.9201,-12,56451,31.056,16892,540
5.09874,3424.7955,-11,56452,31.4045,16892,540
4.31128,3566.9763,-10,56453,31.1058,16884,536
8.20429,2520.6194,-9,56454,31.056,16884,536
7.54612,1660.8822,-8,56455,30.9564,16884,536
6.39555,1714.431,-7,56456,31.3049,16884,536
5.25351,2409.9791,-6,56457,31.2551,16884,536
2.4974,3620.9744,-5,56458,31.1556,16884,536
1.92608,4626.4465,-4,56459,30.8569,16884,536
2.7028,5051.7303,-3,56460,31.056,16884,536
5.63537,4897.4551,-2,56461,31.056,16884,536
8.69634,4259.2189,-1,56462,31.4045,16884,536
10.934,3289.5371,0,56463,31.3049,16841,561
10.775,2254.9248,1,56464,31.4543,16841,561
10.4364,1454.507,2,56465,31.4045,16841,561
9.87536,1077.3198,3,56466,31.3049,16841,561
9.39025,1046.8965,4,56467,31.056,16841,561
9.63091,1195.3062,5,56468,30.8569,16841,561
8.10312,1453.2778,6,56469,31.056,16841,561
8.24314,1686.7139,7,56470,31.056,16841,561
7.83383,1806.4298,8,56471,31.056,16841,561
6.21404,1830.621,9,56472,31.1058,16841,561
6.29712,1794.8941,10,56473,30.9067,16832,571
5.53548,1701.7733,11,56474,31.1058,16832,571
4.67732,1542.8468,12,56475,31.1058,16832,571
5.31397,1343.7609,13,56476,30.9564,16832,571
3.69807,1169.9037,14,56477,31.056,16832,571
4.07122,1080.0481,15,56478,31.1058,16832,571
3.66178,1094.5481,16,56479,31.1556,16832,571
3.95598,1163.4473,17,56480,31.3049,16832,571
2.60762,1220.4032,18,56481,31.2551,16832,571
3.03521,1231.7965,19,56482,31.2551,16832,571
4.1673,1204.9934,20,56483,31.2551,16833,582
3.08353,1165.4508,21,56484,31.1556,16833,582
4.49325,1140.7732,22,56485,31.1058,16833,582
4.27239,1147.1785,23,56486,30.9564,16833,582
3.5828,1182.0166,24,56487,31.3049,16833,582
4.20035,1233.3975,25,56488,31.1556,16833,582
2.75695,1289.93,26,56489,30.7573,16833,582
2.28399,1344.5032,27,56490,31.1058,16833,582
3.16442,1391.4199,28,56491,31.056,16833,582
2.16392,1430.6018,29,56492,31.1556,16833,582
3.01472,1455.6093,30,56493,31.1556,16833,582
2.0156,1471.2004,31,56494,31.2551,16833,582
2.18802,1473.8592,32,56495,31.056,16833,582
1.53168,1464.0873,33,56496,31.056,16833,582
1.87592,1447.4003,34,56497,31.2551,16833,582
2.73089,1422.6884,35,56498,31.056,16833,582
1.90617,1389.8598,36,56499,31.1058,16833,582
1.75238,1351.401,37,56500,31.1556,16833,582
2.0156,1310.3993,38,56501,31.2551,16833,582
2.23332,1269.0251,39,56502,30.9564,16833,582
1.85547,1228.1423,40,56503,31.056,16850,586
2.98451,1185.2926,41,56504,31.1058,16850,586
3.66178,1143.5402,42,56505,31.056,16850,586
2.43162,1103.3531,43,56506,31.2551,16850,586
2.68865,1062.6156,44,56507,31.056,16850,586
2.65474,1025.0603,45,56508,31.056,16850,586
2.77075,994.79929,46,56509,31.2551,16850,586
3.05244,969.85254,47,56510,31.2551,16850,586
2.70104,943.98867,48,56511,31.1058,16850,586
1.95556,912.32443,49,56512,31.1058,16850,586
2.27981,875.82995,50,56513,31.1058,16981,589
2.59663,839.27239,51,56514,30.8569,16981,589
3.18096,806.91063,52,56515,31.3049,16981,589
2.47439,781.42666,53,56516,31.1058,16981,589
3.14477,762.40264,54,56517,30.9067,16981,589
2.99249,739.63063,55,56518,31.056,16981,589
10.5582,677.29296,56,56519,31.3049,16981,589
27.7753,2358.0363,57,56520,31.1058,16981,589
28.2353,3319.5252,58,56521,31.3049,16981,589
16.8982,2503.7427,59,56522,31.1058,16981,589
8.67438,992.35216,60,56523,31.4045,17560,603
5.73601,335.38705,61,56524,31.056,17560,603
6.97747,1055.9935,62,56525,31.1058,17560,603
3.66048,1923.7529,63,56526,31.2551,17560,603
1.67161,2346.2106,64,56527,31.1058,17560,603
1.56859,1956.8257,65,56528,31.2551,17560,603
1.57769,964.14453,66,56529,31.1058,17560,603
1.79273,566.69178,67,56530,31.2551,17560,603
1.41854,1382.8106,68,56531,31.056,17560,603
2.6131,1780.3869,69,56532,31.3049,17560,603
2.44141,1685.1835,70,56533,31.4045,17899,610
3.9233,1301.226,71,56534,31.056,17899,610
2.9717,929.74106,72,56535,31.056,17899,610
2.43358,838.65903,73,56536,30.9067,17899,610
1.53168,906.25855,74,56537,31.4045,17899,610
1.52231,887.43054,75,56538,31.056,17899,610
0.488281,789.99973,76,56539,31.2551,17899,610
1.80334,771.06472,77,56540,31.056,17899,610
1.26577,883.9434,78,56541,30.8569,17899,610
1.74146,1005.4663,79,56542,30.9564,17899,610
0.41432,1041.058,80,56543,31.056,17237,615
1.3029,984.1736,81,56544,31.056,17237,615
2.17052,878.65191,82,56545,31.1058,17237,615
0.85693,775.92475,83,56546,30.9067,17237,615
1.18402,713.48286,84,56547,31.1556,17237,615
1.0381,701.52111,85,56548,30.9564,17237,615
0.926449,734.76121,86,56549,31.3049,17237,615
0.971667,795.66869,87,56550,31.1058,17237,615
1.60466,855.50775,88,56551,31.1058,17237,615
0.941763,890.57368,89,56552,30.9067,17237,615
1.54717,893.91954,90,56553,31.2551,16970,602
0.458048,874.79852,91,56554,31.1058,16970,602
0.710948,847.63232,92,56555,31.1058,16970,602
1.84257,824.78163,93,56556,31.1556,16970,602
1.90617,815.10323,94,56557,31.056,16970,602
2.46473,818.4502,95,56558,31.1058,16970,602
0.926449,829.25347,96,56559,30.9564,16970,602
1.89865,843.75934,97,56560,31.2551,16970,602
2.27981,855.31411,98,56561,30.9067,16970,602
1.80334,860.99181,99,56562,30.9564,16970,602
2.40995,859.0487,100,56563,31.3049,16858,591
