Linear acceleration,Rotational velocity,Time values,Absolute time values,Temperature,Ambient light,Reflected light
1.61945,1.768967,-2000,90383,22.6926,19118,252
1.6165,1.768967,-1999,90384,22.3939,19118,252
1.92608,1.730645,-1998,90385,22.5432,19118,252
0.697405,1.843221,-1997,90386,22.3441,19118,252
0.878906,1.700243,-1996,90387,22.6926,19118,252
1.26953,1.628621,-1995,90388,22.7424,19118,252
2.48208,1.519763,-1994,90389,22.3441,19118,252
1.69708,1.708984,-1993,90390,22.4935,19118,252
1.4681,1.806476,-1992,90391,22.5432,19118,252
1.4118,1.922365,-1991,90392,22.6926,19118,252
0.662337,1.851288,-1990,90393,22.5432,19122,252
2.33151,1.843221,-1989,90394,22.5432,19122,252
1.59273,1.914598,-1988,90395,22.5432,19122,252
1.91615,1.739234,-1987,90396,22.6428,19122,252
2.30477,1.739234,-1986,90397,22.5432,19122,252
1.43525,1.586914,-1985,90398,22.5432,19122,252
0.946812,1.700243,-1984,90399,22.5432,19122,252
1.89614,1.586914,-1983,90400,22.5432,19122,252
2.27352,1.509926,-1982,90401,22.5432,19122,252
1.9942,1.660336,-1981,90402,22.3441,19122,252
1.69427,1.768967,-1980,90403,22.6926,19121,253
1.62826,1.806476,-1979,90404,22.5432,19121,253
0.730792,1.926237,-1978,90405,22.5432,19121,253
2.24822,1.867317,-1977,90406,22.6926,19121,253
1.10916,1.768967,-1976,90407,22.5432,19121,253
1.69708,1.990907,-1975,90408,22.3939,19121,253
1.88858,1.879249,-1974,90409,22.3939,19121,253
2.3539,1.660336,-1973,90410,22.6428,19121,253
2.0156,1.509926,-1972,90411,22.6926,19121,253
1.56555,1.596276,-1971,90412,22.6428,19121,253
1.41854,1.879249,-1970,90413,22.8419,19119,252
2.35593,1.956936,-1969,90414,22.4935,19119,252
1.55638,1.814706,-1968,90415,22.4935,19119,252
0.956832,1.814706,-1967,90416,22.6428,19119,252
2.5819,1.814706,-1966,90417,22.3939,19119,252
1.5807,1.678189,-1965,90418,22.5432,19119,252
1.74966,1.768967,-1964,90419,22.4935,19119,252
1.32827,2.110793,-1963,90420,22.6926,19119,252
1.47781,1.956936,-1962,90421,22.5432,19119,252
1.32827,1.717682,-1961,90422,22.6428,19119,252
2.20323,1.664817,-1960,90423,22.4935,19123,255
2.50503,1.76475,-1959,90424,22.4935,19123,255
1.73047,1.777371,-1958,90425,22.5432,19123,255
1.53789,1.76475,-1957,90426,22.3939,19123,255
1.46484,1.717682,-1956,90427,22.6428,19123,255
1.57769,1.509926,-1955,90428,22.5432,19123,255
1.20399,1.509926,-1954,90429,22.3939,19123,255
1.04268,1.628621,-1953,90430,22.5432,19123,255
1.66303,1.739234,-1952,90431,22.5432,19123,255
1.07865,1.895041,-1951,90432,22.5432,19123,255
1.6165,1.785735,-1950,90433,22.6428,19120,253
1.82698,1.700243,-1949,90434,22.4935,19120,253
1.20794,1.413066,-1948,90435,22.4935,19120,253
1.17998,1.553701,-1947,90436,22.3939,19120,253
1.24296,1.814706,-1946,90437,22.6428,19120,253
1.3102,1.768967,-1945,90438,22.4935,19120,253
1.44518,1.669286,-1944,90439,22.6428,19120,253
1.10916,1.781558,-1943,90440,22.4935,19120,253
2.47246,1.700243,-1942,90441,22.5432,19120,253
2.0716,1.586914,-1941,90442,22.4935,19120,253
0.768946,1.586914,-1940,90443,22.3939,19120,253
1.37067,1.586914,-1939,90444,22.6926,19120,253
2.06237,1.730645,-1938,90445,22.3939,19120,253
1.57163,1.956936,-1937,90446,22.3939,19120,253
1.39822,1.700243,-1936,90447,22.4935,19120,253
2.0716,1.553701,-1935,90448,22.7424,19120,253
1.71108,1.678189,-1934,90449,22.5432,19120,253
1.92608,1.700243,-1933,90450,22.6428,19120,253
2.04845,1.785735,-1932,90451,22.6428,19120,253
1.45505,1.768967,-1931,90452,22.5432,19120,253
1.47781,1.814706,-1930,90453,22.4935,19108,256
2.11488,1.879249,-1929,90454,22.5432,19108,256
0.995902,1.879249,-1928,90455,22.3939,19108,256
1.95556,1.843221,-1927,90456,22.5432,19108,256
1.54717,1.700243,-1926,90457,22.6926,19108,256
1.81913,1.739234,-1925,90458,22.3441,19108,256
1.04268,1.739234,-1924,90459,22.6926,19108,256
1.92608,1.605584,-1923,90460,22.6428,19108,256
1.36019,1.646819,-1922,90461,22.6926,19108,256
1.60466,1.768967,-1921,90462,22.5432,19108,256
1.93842,1.739234,-1920,90463,22.6428,19124,254
1.38452,1.730645,-1919,90464,22.6926,19124,254
1.45505,1.843221,-1918,90465,22.3939,19124,254
1.43525,1.851288,-1917,90466,22.6428,19124,254
1.25061,1.768967,-1916,90467,22.5432,19124,254
1.86572,1.619446,-1915,90468,22.5432,19124,254
1.04268,1.529537,-1914,90469,22.8419,19124,254
1.21188,1.669286,-1913,90470,22.3939,19124,254
0.981433,1.619446,-1912,90471,22.6428,19124,254
0.569429,1.739234,-1911,90472,22.6926,19124,254
0.662337,1.669286,-1910,90473,22.6428,19121,253
1.43857,1.814706,-1909,90474,22.6428,19121,253
1.76863,1.930101,-1908,90475,22.6428,19121,253
1.73047,1.879249,-1907,90476,22.3441,19121,253
0.697405,1.628621,-1906,90477,22.3939,19121,253
1.25061,1.586914,-1905,90478,22.3939,19121,253
1.36019,1.586914,-1904,90479,22.6926,19121,253
1.54717,1.730645,-1903,90480,22.4935,19121,253
0.647778,1.739234,-1902,90481,22.4935,19121,253
1.34255,1.739234,-1901,90482,22.6428,19121,253
1.1596,1.730645,-1900,90483,22.2943,19122,253
1.68863,1.586914,-1899,90484,22.6428,19122,253
1.82698,1.474981,-1898,90485,22.5432,19122,253
1.92608,1.586914,-1897,90486,22.6926,19122,253
0.525895,1.628621,-1896,90487,22.5432,19122,253
1.55638,1.768967,-1895,90488,22.5432,19122,253
1.11773,1.628621,-1894,90489,22.5432,19122,253
1.35668,1.739234,-1893,90490,22.6428,19122,253
1.71942,1.717682,-1892,90491,22.5432,19122,253
1.46158,1.739234,-1891,90492,22.6428,19122,253
0.647778,1.700243,-1890,90493,22.6428,19119,253
1.21581,1.660336,-1889,90494,22.5432,19119,253
1.32467,1.730645,-1888,90495,22.4935,19119,253
2.01087,1.628621,-1887,90496,22.6428,19119,253
1.80598,1.76475,-1886,90497,22.4935,19119,253
1.70829,1.768967,-1885,90498,22.6428,19119,253
2.09904,1.814706,-1884,90499,22.5432,19119,253
1.55638,1.586914,-1883,90500,22.3939,19119,253
1.66589,1.619446,-1882,90501,22.3441,19119,253
1.98701,1.922365,-1881,90502,22.5432,19119,253
2.27352,1.851288,-1880,90503,22.3939,19124,251
0.976562,1.700243,-1879,90504,22.4935,19124,251
1.88858,1.700243,-1878,90505,22.4935,19124,251
1.20399,1.646819,-1877,90506,22.4935,19124,251
1.08306,1.669286,-1876,90507,22.3939,19124,251
2.14177,1.700243,-1875,90508,22.6428,19124,251
1.24296,1.700243,-1874,90509,22.6428,19124,251
1.68298,1.700243,-1873,90510,22.6428,19124,251
1.54099,1.739234,-1872,90511,22.3939,19124,251
1.98461,1.739234,-1871,90512,22.4935,19124,251
1.17188,1.605584,-1870,90513,22.3939,19120,252
1.04268,1.628621,-1869,90514,22.4935,19120,252
1.71108,1.669286,-1868,90515,22.4935,19120,252
0.916097,1.752039,-1867,90516,22.6428,19120,252
2.4277,1.700243,-1866,90517,22.6428,19120,252
1.35668,1.660336,-1865,90518,22.4935,19120,252
1.88858,1.553701,-1864,90519,22.3939,19120,252
2.04379,1.439188,-1863,90520,22.6428,19120,252
0.793363,1.610218,-1862,90521,22.4935,19120,252
1.32467,1.76475,-1861,90522,22.4935,19120,252
1.25821,1.700243,-1860,90523,22.4935,19125,252
1.93842,1.553701,-1859,90524,22.6428,19125,252
1.83739,1.768967,-1858,90525,22.3939,19125,252
2.33151,1.768967,-1857,90526,22.3441,19125,252
1.25061,1.660336,-1856,90527,22.6428,19125,252
1.94579,1.730645,-1855,90528,22.4935,19125,252
0.41432,1.678189,-1854,90529,22.3939,19125,252
1.33185,1.529537,-1853,90530,22.5432,19125,252
1.68298,1.529537,-1852,90531,22.8419,19125,252
1.76323,1.669286,-1851,90532,22.5432,19125,252
1.64863,1.678189,-1850,90533,22.7424,19117,254
1.01016,1.785735,-1849,90534,22.2943,19117,254
2.5819,1.553701,-1848,90535,22.5432,19117,254
2.02269,1.553701,-1847,90536,22.6428,19117,254
1.4681,1.660336,-1846,90537,22.6428,19117,254
0.697405,1.619446,-1845,90538,22.5432,19117,254
1.45505,1.700243,-1844,90539,22.3939,19117,254
2.32946,1.739234,-1843,90540,22.4935,19117,254
2.28399,1.586914,-1842,90541,22.6428,19117,254
1.87592,1.700243,-1841,90542,22.6428,19117,254
1.49704,1.814706,-1840,90543,22.4935,19119,253
1.57769,2.135358,-1839,90544,22.4935,19119,253
2.10358,1.898968,-1838,90545,22.6428,19119,253
1.68298,1.669286,-1837,90546,22.5432,19119,253
1.74146,1.563263,-1836,90547,22.6428,19119,253
1.74146,1.548899,-1835,90548,22.4935,19119,253
1.27702,1.646819,-1834,90549,22.3939,19119,253
1.42525,1.646819,-1833,90550,22.6428,19119,253
1.76052,1.529537,-1832,90551,22.7424,19119,253
1.73047,1.563263,-1831,90552,22.5432,19119,253
0.995902,1.519763,-1830,90553,22.3939,19119,253
1.25821,1.605584,-1829,90554,22.8419,19119,253
1.81388,1.586914,-1828,90555,22.6926,19119,253
0.76272,1.831055,-1827,90556,22.5432,19119,253
1.89865,1.79406,-1826,90557,22.6428,19119,253
1.82698,1.785735,-1825,90558,22.4935,19119,253
0.704209,1.76475,-1824,90559,22.3441,19119,253
1.64863,1.563263,-1823,90560,22.5432,19119,253
0.840071,1.449505,-1822,90561,22.3939,19119,253
1.31383,1.730645,-1821,90562,22.3441,19119,253
1.49066,1.700243,-1820,90563,22.5432,19120,253
1.49385,1.633189,-1819,90564,22.6428,19120,253
0.828641,1.529537,-1818,90565,22.4935,19120,253
1.16371,1.586914,-1817,90566,22.5432,19120,253
1.04268,1.586914,-1816,90567,22.6428,19120,253
0.85693,1.548899,-1815,90568,22.3939,19120,253
1.3102,1.700243,-1814,90569,22.3939,19120,253
1.9942,1.814706,-1813,90570,22.5432,19120,253
0.85693,1.730645,-1812,90571,22.4935,19120,253
1.60168,1.586914,-1811,90572,22.6926,19120,253
1.3102,1.474981,-1810,90573,22.3939,19115,255
0.737289,1.553701,-1809,90574,22.2943,19115,255
1.85804,1.519763,-1808,90575,22.5432,19115,255
1.04268,1.480024,-1807,90576,22.4935,19115,255
1.56859,1.337213,-1806,90577,22.4935,19115,255
1.59273,1.386452,-1805,90578,22.5432,19115,255
0.845728,1.664817,-1804,90579,22.5432,19115,255
1.41854,1.646819,-1803,90580,22.5432,19115,255
1.67161,1.509926,-1802,90581,22.6428,19115,255
1.40163,1.439188,-1801,90582,22.4935,19115,255
1.56859,1.504984,-1800,90583,22.5432,19113,252
1.84516,1.646819,-1799,90584,22.5432,19113,252
1.49385,1.678189,-1798,90585,22.3441,19113,252
1.59572,1.669286,-1797,90586,22.6428,19113,252
0.840071,1.413066,-1796,90587,22.3939,19113,252
1.65152,1.529537,-1795,90588,22.5432,19113,252
1.73323,1.529537,-1794,90589,22.5432,19113,252
1.88099,1.529537,-1793,90590,22.3939,19113,252
1.87592,1.504984,-1792,90591,22.6428,19113,252
1.48103,1.563263,-1791,90592,22.6926,19113,252
1.79539,1.529537,-1790,90593,22.6926,19120,253
1.41517,1.413066,-1789,90594,22.3939,19120,253
1.88858,1.529537,-1788,90595,22.6428,19120,253
0.632885,1.586914,-1787,90596,22.6428,19120,253
1.75238,1.669286,-1786,90597,22.5432,19120,253
2.01797,1.529537,-1785,90598,22.3441,19120,253
1.14304,1.646819,-1784,90599,22.4935,19120,253
1.13045,1.610218,-1783,90600,22.6428,19120,253
1.96529,1.504984,-1782,90601,22.6428,19120,253
1.5034,1.504984,-1781,90602,22.4935,19120,253
1.17594,1.669286,-1780,90603,22.6428,19126,254
1.31745,1.529537,-1779,90604,22.8419,19126,254
1.19604,1.529537,-1778,90605,22.6428,19126,254
2.14177,1.752039,-1777,90606,22.5432,19126,254
1.94824,1.514853,-1776,90607,22.5432,19126,254
1.25821,1.434001,-1775,90608,22.5432,19126,254
1.88858,1.563263,-1774,90609,22.6428,19126,254
1.31383,1.785735,-1773,90610,22.6926,19126,254
2.03209,1.814706,-1772,90611,22.6428,19126,254
0.905627,1.79406,-1771,90612,22.5432,19126,254
1.59572,1.514853,-1770,90613,22.5432,19119,254
1.33185,1.370236,-1769,90614,22.5432,19119,254
1.6341,1.529537,-1768,90615,22.6428,19119,254
1.10916,1.717682,-1767,90616,22.6926,19119,254
1.37415,1.474981,-1766,90617,22.5432,19119,254
1.05631,1.413066,-1765,90618,22.6428,19119,254
1.10916,1.529537,-1764,90619,22.4935,19119,254
1.74966,1.62404,-1763,90620,22.5432,19119,254
1.58673,1.62404,-1762,90621,22.5432,19119,254
1.46484,1.678189,-1761,90622,22.4935,19119,254
1.48103,1.529537,-1760,90623,22.4935,19118,251
1.28447,1.514853,-1759,90624,22.6926,19118,251
2.63853,1.563263,-1758,90625,22.3939,19118,251
2.31921,1.439188,-1757,90626,22.3939,19118,251
1.0381,1.553701,-1756,90627,22.3939,19118,251
2.38809,1.633189,-1755,90628,22.6428,19118,251
2.44921,1.529537,-1754,90629,22.6926,19118,251
1.16371,1.62404,-1753,90630,22.5432,19118,251
1.67161,1.646819,-1752,90631,22.4935,19118,251
1.96772,1.669286,-1751,90632,22.8419,19118,251
1.67161,1.678189,-1750,90633,22.6926,19118,254
1.40163,1.490058,-1749,90634,22.2943,19118,254
1.96529,1.490058,-1748,90635,22.6428,19118,254
1.22752,1.370236,-1747,90636,22.5432,19118,254
0.625305,1.529537,-1746,90637,22.3939,19118,254
1.81913,1.646819,-1745,90638,22.6926,19118,254
1.76863,1.62404,-1744,90639,22.5432,19118,254
1.80334,1.490058,-1743,90640,22.3939,19118,254
1.11773,1.664817,-1742,90641,22.4935,19118,254
1.30655,1.586914,-1741,90642,22.3441,19118,254
0.905627,1.548899,-1740,90643,22.6926,19125,252
1.80334,1.743513,-1739,90644,22.3441,19125,252
1.64863,1.930101,-1738,90645,22.6926,19125,252
1.97739,1.700243,-1737,90646,22.3939,19125,252
1.91864,1.490058,-1736,90647,22.4935,19125,252
0.750112,1.348311,-1735,90648,22.3939,19125,252
1.43525,1.370236,-1734,90649,22.3441,19125,252
1.67446,1.490058,-1733,90650,22.8419,19125,252
2.33764,1.610218,-1732,90651,22.3939,19125,252
1.94333,1.485049,-1731,90652,22.8917,19125,252
0.98628,1.633189,-1730,90653,22.4935,19117,251
1.49385,1.490058,-1729,90654,22.5432,19117,251
0.921287,1.485049,-1728,90655,22.5432,19117,251
0.655098,1.490058,-1727,90656,22.6926,19117,251
1.49385,1.490058,-1726,90657,22.5432,19117,251
1.66016,1.544081,-1725,90658,22.5432,19117,251
1.09619,1.563263,-1724,90659,22.6926,19117,251
1.17998,1.514853,-1723,90660,22.3441,19117,251
1.09183,1.490058,-1722,90661,22.6926,19117,251
1.31383,1.504984,-1721,90662,22.4935,19117,251
1.05179,1.610218,-1720,90663,22.6926,19121,254
2.04845,1.514853,-1719,90664,22.3939,19121,254
1.34255,1.504984,-1718,90665,22.3939,19121,254
1.33185,1.529537,-1717,90666,22.3441,19121,254
1.1472,1.529537,-1716,90667,22.3939,19121,254
0.730792,1.514853,-1715,90668,22.5432,19121,254
1.28447,1.490058,-1714,90669,22.6926,19121,254
0.889691,1.490058,-1713,90670,22.6428,19121,254
1.13045,1.529537,-1712,90671,22.3939,19121,254
0.946812,1.297625,-1711,90672,22.6926,19121,254
1.28447,1.370236,-1710,90673,22.6428,19122,252
1.51917,1.370236,-1709,90674,22.2943,19122,252
2.44921,1.529537,-1708,90675,22.3939,19122,252
0.971667,1.490058,-1707,90676,22.3441,19122,252
1.42525,1.469921,-1706,90677,22.4935,19122,252
1.87846,1.591602,-1705,90678,22.6926,19122,252
1.22752,1.490058,-1704,90679,22.3939,19122,252
1.5807,1.297625,-1703,90680,22.5432,19122,252
0.900346,1.386452,-1702,90681,22.6428,19122,252
1.74966,1.250848,-1701,90682,22.6428,19122,252
2.10585,1.646819,-1700,90683,22.5432,19121,254
1.25061,1.62404,-1699,90684,22.6428,19121,254
2.65115,1.529537,-1698,90685,22.5432,19121,254
1.34255,1.62404,-1697,90686,22.4935,19121,254
1.31383,1.509926,-1696,90687,22.6428,19121,254
1.90617,1.469921,-1695,90688,22.6428,19121,254
2.34985,1.509926,-1694,90689,22.6428,19121,254
1.07865,1.664817,-1693,90690,22.3939,19121,254
1.6165,1.490058,-1692,90691,22.6428,19121,254
0.941763,1.469921,-1691,90692,22.4935,19121,254
2.45115,1.342773,-1690,90693,22.5432,19121,254
1.68298,1.633189,-1689,90694,22.5432,19121,254
1.49385,1.633189,-1688,90695,22.4935,19121,254
1.64863,1.391816,-1687,90696,22.6428,19121,254
1.25442,1.250848,-1686,90697,22.4935,19121,254
1.25821,1.474981,-1685,90698,22.5432,19121,254
1.76863,1.610218,-1684,90699,22.6428,19121,254
1.06082,1.646819,-1683,90700,22.3441,19121,254
1.66303,1.529537,-1682,90701,22.6428,19121,254
0.768946,1.370236,-1681,90702,22.6926,19121,254
1.73047,1.353825,-1680,90703,22.5432,19112,257
0.845728,1.610218,-1679,90704,22.3939,19112,257
1.07422,1.386452,-1678,90705,22.3939,19112,257
1.53168,1.23285,-1677,90706,22.6428,19112,257
1.65728,1.342773,-1676,90707,22.6428,19112,257
1.92856,1.610218,-1675,90708,22.6926,19112,257
1.42859,1.633189,-1674,90709,22.6428,19112,257
1.3637,1.397159,-1673,90710,22.6926,19112,257
1.57466,1.370236,-1672,90711,22.6926,19112,257
1.05631,1.504984,-1671,90712,22.3939,19112,257
1.91864,1.752039,-1670,90713,22.3939,19121,255
0.601994,1.610218,-1669,90714,22.3441,19121,255
2.08537,1.244878,-1668,90715,22.3939,19121,255
1.85804,1.244878,-1667,90716,22.6926,19121,255
1.92608,1.370236,-1666,90717,22.6428,19121,255
2.93294,1.370236,-1665,90718,22.3939,19121,255
1.73047,1.413066,-1664,90719,22.5432,19121,255
2.67264,1.413066,-1663,90720,22.6926,19121,255
1.6165,1.386452,-1662,90721,22.3939,19121,255
2.76903,1.244878,-1661,90722,22.6428,19121,255
1.94824,1.23285,-1660,90723,22.5432,19115,252
2.01324,1.250848,-1659,90724,22.4935,19115,252
2.00374,1.125433,-1658,90725,22.5432,19115,252
1.5807,1.348311,-1657,90726,22.6428,19115,252
1.08306,1.490058,-1656,90727,22.5432,19115,252
1.17594,1.370236,-1655,90728,22.5432,19115,252
2.0716,1.514853,-1654,90729,22.5432,19115,252
1.43857,1.529537,-1653,90730,22.2943,19115,252
1.21581,1.386452,-1652,90731,22.3441,19115,252
1.83479,1.474981,-1651,90732,22.5432,19115,252
2.33764,1.490058,-1650,90733,22.3939,19125,252
2.09449,1.548899,-1649,90734,22.5432,19125,252
1.41517,1.397159,-1648,90735,22.4935,19125,252
1.59572,1.364788,-1647,90736,22.6428,19125,252
1.45176,1.386452,-1646,90737,22.6428,19125,252
2.21832,1.504984,-1645,90738,22.6428,19125,252
1.67446,1.370236,-1644,90739,22.3939,19125,252
1.4118,1.297625,-1643,90740,22.6428,19125,252
1.17998,1.268592,-1642,90741,22.3939,19125,252
1.09619,1.485049,-1641,90742,22.7424,19125,252
1.57163,1.586914,-1640,90743,22.6926,19119,252
1.85547,1.490058,-1639,90744,22.6428,19119,252
1.28447,1.391816,-1638,90745,22.6428,19119,252
1.91366,1.23285,-1637,90746,22.5432,19119,252
1.4681,1.469921,-1636,90747,22.5432,19119,252
0.905627,1.370236,-1635,90748,22.4935,19119,252
1.32827,1.485049,-1634,90749,22.4935,19119,252
1.34255,1.610218,-1633,90750,22.4935,19119,252
1.05179,1.628621,-1632,90751,22.6428,19119,252
1.53789,1.591602,-1631,90752,22.4935,19119,252
0.889691,1.469921,-1630,90753,22.3939,19122,251
1.17998,1.353825,-1629,90754,22.7424,19122,251
1.88858,1.364788,-1628,90755,22.3441,19122,251
2.06237,1.364788,-1627,90756,22.6428,19122,251
0.85693,1.413066,-1626,90757,22.6428,19122,251
1.06082,1.529537,-1625,90758,22.3939,19122,251
1.86572,1.391816,-1624,90759,22.3939,19122,251
0.85693,1.485049,-1623,90760,22.4935,19122,251
1.13045,1.610218,-1622,90761,22.5432,19122,251
1.25442,1.628621,-1621,90762,22.6926,19122,251
1.23912,1.509926,-1620,90763,22.5432,19123,258
1.10916,1.469921,-1619,90764,22.6428,19123,258
2.31303,1.348311,-1618,90765,22.6428,19123,258
0.793363,1.250848,-1617,90766,22.4935,19123,258
0.811194,1.250848,-1616,90767,22.3939,19123,258
1.20794,1.397159,-1615,90768,22.5432,19123,258
1.09183,1.633189,-1614,90769,22.4935,19123,258
1.55638,1.605584,-1613,90770,22.6428,19123,258
1.60466,1.474981,-1612,90771,22.2943,19123,258
2.05311,1.386452,-1611,90772,22.4935,19123,258
0.78733,1.413066,-1610,90773,22.3939,19118,251
1.25821,1.529537,-1609,90774,22.6428,19118,251
1.27702,1.660336,-1608,90775,22.6926,19118,251
1.36019,1.370236,-1607,90776,22.7424,19118,251
0.811194,1.132034,-1606,90777,22.6428,19118,251
1.39822,1.183516,-1605,90778,22.3441,19118,251
1.90617,1.250848,-1604,90779,22.5432,19118,251
1.42525,1.370236,-1603,90780,22.3939,19118,251
1.54099,1.353825,-1602,90781,22.5432,19118,251
1.0381,1.474981,-1601,90782,22.1948,19118,251
1.13886,1.490058,-1600,90783,22.8917,19117,254
1.52856,1.370236,-1599,90784,22.5432,19117,254
1.59273,1.244878,-1598,90785,22.5432,19117,254
1.69146,1.250848,-1597,90786,22.3441,19117,254
1.31383,1.342773,-1596,90787,22.3939,19117,254
1.56555,1.469921,-1595,90788,22.7424,19117,254
1.40163,1.469921,-1594,90789,22.6428,19117,254
1.54099,1.464844,-1593,90790,22.4935,19117,254
1.71386,1.504984,-1592,90791,22.3939,19117,254
1.80598,1.469921,-1591,90792,22.3939,19117,254
1.39139,1.474981,-1590,90793,22.5432,19118,251
1.21581,1.353825,-1589,90794,22.6428,19118,251
1.36019,1.348311,-1588,90795,22.4935,19118,251
1.70269,1.469921,-1587,90796,22.5432,19118,251
1.3029,1.353825,-1586,90797,22.5432,19118,251
1.09183,1.244878,-1585,90798,22.6428,19118,251
0.862477,1.105394,-1584,90799,22.3939,19118,251
1.82437,1.464844,-1583,90800,22.5432,19118,251
1.40163,1.464844,-1582,90801,22.5432,19118,251
1.27702,1.348311,-1581,90802,22.3939,19118,251
1.22752,1.353825,-1580,90803,22.6428,19120,254
1.09183,1.268592,-1579,90804,22.5432,19120,254
2.06237,1.226791,-1578,90805,22.5432,19120,254
0.683594,1.348311,-1577,90806,22.6926,19120,254
0.921287,1.370236,-1576,90807,22.6428,19120,254
0.884315,1.268592,-1575,90808,22.4935,19120,254
1.25061,1.370236,-1574,90809,22.6428,19120,254
1.79539,1.274451,-1573,90810,22.3939,19120,254
1.27328,1.280284,-1572,90811,22.5432,19120,254
1.96772,1.348311,-1571,90812,22.5432,19120,254
2.65115,1.490058,-1570,90813,22.5432,19118,250
0.697405,1.469921,-1569,90814,22.6926,19118,250
2.17052,1.353825,-1568,90815,22.6428,19118,250
3.07113,1.250848,-1567,90816,22.4935,19118,250
1.74146,1.370236,-1566,90817,22.6428,19118,250
0.78733,1.474981,-1565,90818,22.6428,19118,250
1.17594,1.485049,-1564,90819,22.4935,19118,250
2.42966,1.226791,-1563,90820,22.5432,19118,250
1.82698,1.105394,-1562,90821,22.5432,19118,250
0.85693,1.220703,-1561,90822,22.6428,19118,250
1.74146,1.353825,-1560,90823,22.6926,19119,256
1.46158,1.348311,-1559,90824,22.3939,19119,256
0.878906,1.348311,-1558,90825,22.6926,19119,256
0.737289,1.23285,-1557,90826,22.4935,19119,256
1.68014,1.244878,-1556,90827,22.6428,19119,256
1.07865,1.244878,-1555,90828,22.4935,19119,256
1.60466,1.244878,-1554,90829,22.3939,19119,256
1.44518,1.370236,-1553,90830,22.6926,19119,256
1.52856,1.250848,-1552,90831,22.5432,19119,256
1.83479,1.23285,-1551,90832,22.6428,19119,256
1.12198,1.23285,-1550,90833,22.5432,19119,253
0.436732,1.353825,-1549,90834,22.6926,19119,253
2.30684,1.353825,-1548,90835,22.5432,19119,253
1.958,1.23285,-1547,90836,22.3441,19119,253
1.28817,1.226791,-1546,90837,22.5432,19119,253
1.56859,1.158061,-1545,90838,22.6428,19119,253
1.92856,1.337213,-1544,90839,22.3939,19119,253
1.98701,1.274451,-1543,90840,22.2943,19119,253
1.74146,1.23285,-1542,90841,22.6428,19119,253
1.66303,1.23285,-1541,90842,22.5432,19119,253
1.28817,1.353825,-1540,90843,22.5432,19118,253
2.03209,1.474981,-1539,90844,22.6428,19118,253
1.4118,1.474981,-1538,90845,22.5432,19118,253
1.40163,1.469921,-1537,90846,22.6926,19118,253
1.23912,1.485049,-1536,90847,22.6926,19118,253
0.845728,1.485049,-1535,90848,22.3939,19118,253
1.1472,1.370236,-1534,90849,22.3939,19118,253
0.845728,1.353825,-1533,90850,22.4935,19118,253
2.18584,1.105394,-1532,90851,22.6428,19118,253
1.90617,1.125433,-1531,90852,22.4935,19118,253
0.862477,1.250848,-1530,90853,22.6926,19116,253
1.4118,1.370236,-1529,90854,22.6428,19116,253
1.27702,1.514853,-1528,90855,22.6926,19116,253
1.77132,1.364788,-1527,90856,22.5432,19116,253
1.3637,1.23285,-1526,90857,22.5432,19116,253
0.921287,1.250848,-1525,90858,22.6428,19116,253
1.33185,1.280284,-1524,90859,22.6926,19116,253
1.05631,1.353825,-1523,90860,22.3441,19116,253
1.87592,1.353825,-1522,90861,22.7424,19116,253
1.81913,1.132034,-1521,90862,22.6428,19116,253
1.60168,1.125433,-1520,90863,22.5432,19121,251
1.5034,1.370236,-1519,90864,22.5432,19121,251
1.07865,1.391816,-1518,90865,22.5432,19121,251
0.884315,1.353825,-1517,90866,22.3939,19121,251
1.20794,1.348311,-1516,90867,22.6428,19121,251
1.10916,1.250848,-1515,90868,22.7424,19121,251
1.76323,1.112113,-1514,90869,22.4935,19121,251
1.46484,1.098633,-1513,90870,22.5432,19121,251
2.45115,1.105394,-1512,90871,22.6428,19121,251
0.946812,1.342773,-1511,90872,22.4935,19121,251
2.44921,1.348311,-1510,90873,22.5432,19120,254
1.51917,1.297625,-1509,90874,22.5432,19120,254
0.601994,1.112113,-1508,90875,22.5432,19120,254
1.31383,1.342773,-1507,90876,22.6428,19120,254
2.26722,1.348311,-1506,90877,22.7424,19120,254
1.82698,1.370236,-1505,90878,22.3939,19120,254
1.42859,1.370236,-1504,90879,22.5432,19120,254
2.2819,1.353825,-1503,90880,22.5432,19120,254
1.88858,1.244878,-1502,90881,22.6428,19120,254
1.36019,1.226791,-1501,90882,22.6926,19120,254
2.1771,1.220703,-1500,90883,22.5432,19119,253
1.26953,1.364788,-1499,90884,22.6428,19119,253
1.91864,1.23285,-1498,90885,22.2943,19119,253
2.0785,1.098633,-1497,90886,22.4935,19119,253
1.37415,1.098633,-1496,90887,22.5432,19119,253
2.19672,1.23285,-1495,90888,22.3939,19119,253
1.00543,1.250848,-1494,90889,22.4935,19119,253
1.53168,1.125433,-1493,90890,22.5432,19119,253
1.61355,1.105394,-1492,90891,22.6926,19119,253
0.85693,1.250848,-1491,90892,22.6926,19119,253
1.95556,1.250848,-1490,90893,22.5432,19114,251
1.85804,1.125433,-1489,90894,22.3939,19114,251
0.292969,1.23285,-1488,90895,22.6428,19114,251
1.43525,1.268592,-1487,90896,22.6926,19114,251
1.21188,1.250848,-1486,90897,22.4935,19114,251
1.98701,1.370236,-1485,90898,22.6428,19114,251
1.93596,1.353825,-1484,90899,22.3939,19114,251
1.28817,1.226791,-1483,90900,22.6428,19114,251
1.47134,1.23285,-1482,90901,22.5432,19114,251
2.51832,1.280284,-1481,90902,22.6428,19114,251
1.57769,1.364788,-1480,90903,22.4935,19120,250
2.10585,1.105394,-1479,90904,22.6926,19120,250
1.32827,1.105394,-1478,90905,22.4935,19120,250
2.22262,1.23285,-1477,90906,22.6428,19120,250
2.04146,1.23285,-1476,90907,22.4935,19120,250
1.81913,1.250848,-1475,90908,22.5432,19120,250
1.1472,1.353825,-1474,90909,22.5432,19120,250
2.22047,1.250848,-1473,90910,22.5432,19120,250
1.28075,1.125433,-1472,90911,22.6428,19120,250
1.64863,1.244878,-1471,90912,22.6926,19120,250
1.56555,1.244878,-1470,90913,22.6926,19120,253
0.971667,1.364788,-1469,90914,22.6428,19120,253
1.50657,1.348311,-1468,90915,22.4935,19120,253
2.24822,1.280284,-1467,90916,22.5432,19120,253
1.57466,1.132034,-1466,90917,22.6428,19120,253
2.04845,1.23285,-1465,90918,22.5432,19120,253
1.67446,1.105394,-1464,90919,22.7424,19120,253
1.28075,1.250848,-1463,90920,22.3939,19120,253
1.09619,1.397159,-1462,90921,22.6428,19120,253
1.21188,1.397159,-1461,90922,22.6926,19120,253
1.82437,1.348311,-1460,90923,22.6428,19122,253
1.85804,1.226791,-1459,90924,22.6428,19122,253
1.00068,1.226791,-1458,90925,22.5432,19122,253
0.98628,1.132034,-1457,90926,22.3441,19122,253
0.971667,1.183516,-1456,90927,22.5432,19122,253
1.68863,1.071163,-1455,90928,22.6428,19122,253
1.64283,1.013992,-1454,90929,22.6926,19122,253
0.799351,1.220703,-1453,90930,22.2943,19122,253
1.33185,1.098633,-1452,90931,22.3441,19122,253
1.75781,1.23285,-1451,90932,22.3939,19122,253
1.49385,1.226791,-1450,90933,22.6428,19114,252
1.26577,1.244878,-1449,90934,22.6428,19114,252
1.00068,1.274451,-1448,90935,22.4935,19114,252
1.43857,1.280284,-1447,90936,22.7424,19114,252
1.37415,1.250848,-1446,90937,22.2943,19114,252
1.54717,1.208434,-1445,90938,22.3939,19114,252
1.69708,1.125433,-1444,90939,22.6428,19114,252
1.74146,1.105394,-1443,90940,22.5432,19114,252
1.05179,1.268592,-1442,90941,22.5432,19114,252
1.76323,1.348311,-1441,90942,22.3939,19114,252
1.37067,1.348311,-1440,90943,22.5432,19114,252
1.37415,1.105394,-1439,90944,22.5432,19114,252
1.89362,1.220703,-1438,90945,22.5432,19114,252
1.89865,1.112113,-1437,90946,22.5432,19114,252
1.78206,1.132034,-1436,90947,22.5432,19114,252
1.88858,1.125433,-1435,90948,22.3939,19114,252
1.49066,1.226791,-1434,90949,22.5432,19114,252
1.50022,1.244878,-1433,90950,22.6428,19114,252
1.1472,1.348311,-1432,90951,22.4935,19114,252
1.49385,1.353825,-1431,90952,22.6428,19114,252
1.60168,1.105394,-1430,90953,22.4935,19101,250
1.97739,1.013992,-1429,90954,22.4935,19101,250
1.81125,1.013992,-1428,90955,22.6428,19101,250
0.921287,1.105394,-1427,90956,22.5432,19101,250
1.77401,1.105394,-1426,90957,22.5432,19101,250
1.09183,1.23285,-1425,90958,22.6926,19101,250
1.54099,1.250848,-1424,90959,22.5432,19101,250
1.90867,1.132034,-1423,90960,22.4935,19101,250
2.1573,1.013992,-1422,90961,22.5432,19101,250
1.80334,1.274451,-1421,90962,22.6428,19101,250
1.58973,1.364788,-1420,90963,22.3939,19126,255
1.60466,1.226791,-1419,90964,22.5432,19126,255
1.21581,1.364788,-1418,90965,22.6926,19126,255
1.91864,1.397159,-1417,90966,22.2943,19126,255
0.625305,1.250848,-1416,90967,22.4935,19126,255
1.31383,1.112113,-1415,90968,22.5432,19126,255
2.2819,1.112113,-1414,90969,22.4935,19126,255
1.60466,1.105394,-1413,90970,22.6428,19126,255
1.65152,1.105394,-1412,90971,22.6926,19126,255
1.19205,1.226791,-1411,90972,22.6926,19126,255
2.2819,1.348311,-1410,90973,22.6428,19121,254
1.3029,1.244878,-1409,90974,22.6428,19121,254
1.52231,1.244878,-1408,90975,22.3939,19121,254
1.14304,1.158061,-1407,90976,22.6926,19121,254
1.09619,1.125433,-1406,90977,22.6428,19121,254
2.2944,1.23285,-1405,90978,22.3939,19121,254
0.926449,1.342773,-1404,90979,22.7424,19121,254
1.25821,1.105394,-1403,90980,22.6428,19121,254
1.80334,1.132034,-1402,90981,22.6926,19121,254
1.3461,1.274451,-1401,90982,22.6428,19121,254
1.71108,1.386452,-1400,90983,22.8419,19117,251
1.34255,1.370236,-1399,90984,22.6926,19117,251
1.3637,0.9841623,-1398,90985,22.5432,19117,251
1.23912,1.105394,-1397,90986,22.4935,19117,251
0.981433,1.274451,-1396,90987,22.3939,19117,251
1.4681,1.164477,-1395,90988,22.5432,19117,251
1.81913,1.250848,-1394,90989,22.6428,19117,251
2.31715,1.226791,-1393,90990,22.6926,19117,251
1.90617,1.23285,-1392,90991,22.3939,19117,251
1.49385,1.250848,-1391,90992,22.4935,19117,251
2.0156,1.250848,-1390,90993,22.1948,19125,253
1.86827,1.244878,-1389,90994,22.5432,19125,253
1.28447,1.226791,-1388,90995,22.6926,19125,253
1.71108,1.226791,-1387,90996,22.3939,19125,253
1.82698,1.353825,-1386,90997,22.6428,19125,253
1.20794,1.244878,-1385,90998,22.5432,19125,253
1.94824,1.013992,-1384,90999,22.4935,19125,253
1.76323,1.013992,-1383,91000,22.6428,19125,253
1.99897,1.105394,-1382,91001,22.5432,19125,253
1.23912,1.105394,-1381,91002,22.4935,19125,253
1.04268,1.158061,-1380,91003,22.6926,19117,251
0.85693,1.274451,-1379,91004,22.6428,19117,251
1.68863,1.274451,-1378,91005,22.5432,19117,251
1.48103,1.244878,-1377,91006,22.6428,19117,251
1.73047,1.125433,-1376,91007,22.3939,19117,251
2.2819,1.132034,-1375,91008,22.6926,19117,251
0.799351,1.132034,-1374,91009,22.6926,19117,251
1.89865,0.9841623,-1373,91010,22.5432,19117,251
1.5807,1.013992,-1372,91011,22.6428,19117,251
1.11773,0.9841623,-1371,91012,22.3939,19117,251
1.83219,1.105394,-1370,91013,22.6926,19120,256
1.5034,1.105394,-1369,91014,22.4935,19120,256
1.34255,1.226791,-1368,91015,22.6926,19120,256
2.56336,1.364788,-1367,91016,22.6926,19120,256
1.31745,1.250848,-1366,91017,22.6428,19120,256
1.12623,1.098633,-1365,91018,22.6428,19120,256
1.09619,1.164477,-1364,91019,22.6428,19120,256
2.19238,1.391816,-1363,91020,22.3939,19120,256
1.05631,1.226791,-1362,91021,22.4935,19120,256
0.793363,1.013992,-1361,91022,22.5432,19120,256
1.57769,1.158061,-1360,91023,22.4935,19119,255
2.15287,1.391816,-1359,91024,22.6428,19119,255
1.68581,1.244878,-1358,91025,22.6428,19119,255
1.86572,1.226791,-1357,91026,22.4935,19119,255
1.20399,1.23285,-1356,91027,22.5432,19119,255
0.41432,1.105394,-1355,91028,22.5432,19119,255
1.09619,1.098633,-1354,91029,22.6926,19119,255
1.07422,1.226791,-1353,91030,22.6428,19119,255
1.00068,1.434001,-1352,91031,22.3939,19119,255
1.38107,1.434001,-1351,91032,22.6926,19119,255
1.80334,1.244878,-1350,91033,22.7424,19120,255
2.15066,1.474981,-1349,91034,22.5432,19120,255
1.79804,1.348311,-1348,91035,22.5432,19120,255
1.56555,1.105394,-1347,91036,22.4935,19120,255
1.92856,0.9765625,-1346,91037,22.5432,19120,255
1.01487,1.132034,-1345,91038,22.6926,19120,255
1.66016,1.125433,-1344,91039,22.5432,19120,255
1.53168,1.105394,-1343,91040,22.6428,19120,255
2.0716,1.125433,-1342,91041,22.4935,19120,255
2.10585,1.226791,-1341,91042,22.8419,19120,255
1.80334,1.364788,-1340,91043,22.3939,19121,254
1.42859,1.226791,-1339,91044,22.6428,19121,254
1.39139,1.132034,-1338,91045,22.3939,19121,254
1.57163,1.071163,-1337,91046,22.6428,19121,254
1.9798,0.9376399,-1336,91047,22.5432,19121,254
1.92856,0.9216106,-1335,91048,22.6428,19121,254
1.27702,1.013992,-1334,91049,22.4935,19121,254
1.95556,1.250848,-1333,91050,22.3939,19121,254
2.43358,1.250848,-1332,91051,22.6428,19121,254
1.17998,1.105394,-1331,91052,22.6926,19121,254
1.6165,0.8631675,-1330,91053,22.3939,19120,250
2.02033,1.013992,-1329,91054,22.5432,19120,250
1.83479,1.042969,-1328,91055,22.5432,19120,250
1.30655,1.132034,-1327,91056,22.6926,19120,250
1.62826,1.297625,-1326,91057,22.6926,19120,250
1.41854,1.326023,-1325,91058,22.6428,19120,250
1.00068,1.158061,-1324,91059,22.1948,19120,250
1.36719,1.132034,-1323,91060,22.5432,19120,250
2.56336,1.125433,-1322,91061,22.5432,19120,250
1.87592,1.132034,-1321,91062,22.5432,19120,250
0.966748,0.9841623,-1320,91063,22.3939,19122,255
1.13045,1.013992,-1319,91064,22.5432,19122,255
1.86572,1.132034,-1318,91065,22.6428,19122,255
2.09222,0.9841623,-1317,91066,22.5432,19122,255
2.36199,0.9841623,-1316,91067,22.5432,19122,255
0.946812,0.9841623,-1315,91068,22.3441,19122,255
1.36019,1.098633,-1314,91069,22.5432,19122,255
2.0716,1.125433,-1313,91070,22.3939,19122,255
1.01016,1.158061,-1312,91071,22.5432,19122,255
1.77132,1.132034,-1311,91072,22.5432,19122,255
1.44518,1.042969,-1310,91073,22.6428,19120,248
1.77132,1.042969,-1309,91074,22.6428,19120,248
2.38009,1.006618,-1308,91075,22.3939,19120,248
1.21581,1.164477,-1307,91076,22.5432,19120,248
2.50883,1.105394,-1306,91077,22.6926,19120,248
1.42859,0.9765625,-1305,91078,22.5432,19120,248
1.29556,1.226791,-1304,91079,22.6428,19120,248
1.74966,1.23285,-1303,91080,22.6428,19120,248
1.70549,1.132034,-1302,91081,22.6428,19120,248
1.68298,1.132034,-1301,91082,22.3939,19120,248
2.88871,1.151609,-1300,91083,22.6926,19120,253
1.80334,1.280284,-1299,91084,22.6428,19120,253
1.85804,1.202253,-1298,91085,22.5432,19120,253
2.38409,1.006618,-1297,91086,22.6428,19120,253
1.29923,1.105394,-1296,91087,22.6926,19120,253
2.31715,1.220703,-1295,91088,22.6428,19120,253
2.22905,1.006618,-1294,91089,22.5432,19120,253
2.93944,1.013992,-1293,91090,22.3441,19120,253
1.79539,1.035801,-1292,91091,22.6926,19120,253
2.77075,1.132034,-1291,91092,22.4935,19120,253
1.4681,1.013992,-1290,91093,22.4935,19122,253
1.40163,0.8970299,-1289,91094,22.5432,19122,253
1.28817,0.8970299,-1288,91095,22.5432,19122,253
1.31745,1.013992,-1287,91096,22.5432,19122,253
1.40163,1.013992,-1286,91097,22.4935,19122,253
2.0762,1.132034,-1285,91098,22.5432,19122,253
1.51603,1.105394,-1284,91099,22.6428,19122,253
2.06006,1.132034,-1283,91100,22.6428,19122,253
1.54099,1.013992,-1282,91101,22.6428,19122,253
1.62826,1.071163,-1281,91102,22.7424,19122,253
2.83371,1.132034,-1280,91103,22.6428,19116,256
1.30655,1.125433,-1279,91104,22.4935,19116,256
1.27702,1.23285,-1278,91105,22.6926,19116,256
1.60168,1.370236,-1277,91106,22.6926,19116,256
1.74146,1.208434,-1276,91107,22.4935,19116,256
1.34255,1.098633,-1275,91108,22.6926,19116,256
1.69708,1.098633,-1274,91109,22.6428,19116,256
1.10916,1.125433,-1273,91110,22.4935,19116,256
1.25061,1.105394,-1272,91111,22.3939,19116,256
1.46484,1.151609,-1271,91112,22.5432,19116,256
1.75238,1.132034,-1270,91113,22.5432,19119,255
1.55638,1.125433,-1269,91114,22.3939,19119,255
1.66875,1.125433,-1268,91115,22.2943,19119,255
1.19604,1.105394,-1267,91116,22.6428,19119,255
2.41983,1.132034,-1266,91117,22.4935,19119,255
2.41983,1.042969,-1265,91118,22.6428,19119,255
1.63702,1.202253,-1264,91119,22.6428,19119,255
1.40163,1.202253,-1263,91120,22.5432,19119,255
1.96287,1.105394,-1262,91121,22.5432,19119,255
1.92608,1.268592,-1261,91122,22.3939,19119,255
1.20399,1.132034,-1260,91123,22.5432,19117,253
1.32827,1.105394,-1259,91124,22.3939,19117,253
1.00068,1.112113,-1258,91125,22.4935,19117,253
1.76323,1.125433,-1257,91126,22.5432,19117,253
2.95239,1.105394,-1256,91127,22.5432,19117,253
1.27328,1.132034,-1255,91128,22.6428,19117,253
2.24822,1.250848,-1254,91129,22.5432,19117,253
1.34255,1.280284,-1253,91130,22.3939,19117,253
1.40163,1.314738,-1252,91131,22.6428,19117,253
1.11773,1.208434,-1251,91132,22.3939,19117,253
1.96529,1.132034,-1250,91133,22.3441,19119,252
1.50657,1.151609,-1249,91134,22.4935,19119,252
1.4219,1.164477,-1248,91135,22.5432,19119,252
0.85693,1.151609,-1247,91136,22.6926,19119,252
1.56859,1.244878,-1246,91137,22.5432,19119,252
1.46484,1.125433,-1245,91138,22.4935,19119,252
1.1596,0.9841623,-1244,91139,22.5432,19119,252
1.42859,1.042969,-1243,91140,22.6428,19119,252
1.39822,1.006618,-1242,91141,22.3939,19119,252
1.80598,1.042969,-1241,91142,22.3939,19119,252
1.72772,1.132034,-1240,91143,22.5432,19118,254
0.981433,1.132034,-1239,91144,22.6926,19118,254
1.60466,1.125433,-1238,91145,22.4935,19118,254
1.1596,1.035801,-1237,91146,22.4935,19118,254
0.585938,1.013992,-1236,91147,22.6428,19118,254
1.46484,1.244878,-1235,91148,22.6428,19118,254
1.64283,1.132034,-1234,91149,22.4935,19118,254
1.61945,1.006618,-1233,91150,22.6428,19118,254
1.07865,1.125433,-1232,91151,22.3441,19118,254
1.53789,1.132034,-1231,91152,22.5432,19118,254
2.37809,1.158061,-1230,91153,22.6428,19119,254
1.94333,1.006618,-1229,91154,22.6428,19119,254
1.36019,1.013992,-1228,91155,22.5432,19119,254
0.76272,1.280284,-1227,91156,22.3939,19119,254
1.3102,1.202253,-1226,91157,22.3441,19119,254
1.28817,1.262705,-1225,91158,22.6428,19119,254
1.84257,1.013992,-1224,91159,22.5432,19119,254
1.23912,1.006618,-1223,91160,22.4935,19119,254
1.63702,1.006618,-1222,91161,22.4935,19119,254
0.845728,0.9917039,-1221,91162,22.5432,19119,254
1.36719,1.125433,-1220,91163,22.5432,19124,252
1.28817,1.158061,-1219,91164,22.5432,19124,252
1.62826,1.132034,-1218,91165,22.4935,19124,252
1.99897,1.158061,-1217,91166,22.3939,19124,252
1.73323,1.208434,-1216,91167,22.5432,19124,252
1.31745,1.09183,-1215,91168,22.3441,19124,252
1.83739,1.202253,-1214,91169,22.3939,19124,252
0.834375,1.280284,-1213,91170,22.6428,19124,252
1.28817,1.132034,-1212,91171,22.6428,19124,252
1.61355,1.006618,-1211,91172,22.5432,19124,252
2.00612,1.006618,-1210,91173,22.6428,19119,252
1.73872,1.042969,-1209,91174,22.6428,19119,252
2.09904,1.132034,-1208,91175,22.6428,19119,252
1.36019,1.112113,-1207,91176,22.6428,19119,252
1.06082,0.9917039,-1206,91177,22.6428,19119,252
2.19672,0.9841623,-1205,91178,22.6428,19119,252
0.662337,1.013992,-1204,91179,22.4935,19119,252
2.54094,1.035801,-1203,91180,22.7424,19119,252
1.27328,0.9841623,-1202,91181,22.3939,19119,252
1.80334,1.132034,-1201,91182,22.6428,19119,252
2.06006,0.9917039,-1200,91183,22.4935,19123,254
1.91864,1.013992,-1199,91184,22.6428,19123,254
1.81125,1.013992,-1198,91185,22.4935,19123,254
1.09183,1.112113,-1197,91186,22.5432,19123,254
2.12837,1.353825,-1196,91187,22.5432,19123,254
1.97739,1.348311,-1195,91188,22.5432,19123,254
1.43525,0.9917039,-1194,91189,22.4935,19123,254
1.48103,1.132034,-1193,91190,22.6428,19123,254
1.78473,1.164477,-1192,91191,22.6428,19123,254
1.13045,1.132034,-1191,91192,22.5432,19123,254
1.45505,1.006618,-1190,91193,22.5432,19123,254
0.921287,1.098633,-1189,91194,22.6428,19123,254
1.36019,1.208434,-1188,91195,22.6428,19123,254
1.45505,1.250848,-1187,91196,22.4935,19123,254
1.42525,1.353825,-1186,91197,22.8419,19123,254
2.24822,1.013992,-1185,91198,22.6428,19123,254
2.03444,0.9841623,-1184,91199,22.5432,19123,254
1.36019,0.9841623,-1183,91200,22.6428,19123,254
1.80069,0.9917039,-1182,91201,22.3939,19123,254
1.47134,1.013992,-1181,91202,22.3939,19123,254
1.17594,1.006618,-1180,91203,22.4935,19113,249
0.569429,1.23285,-1179,91204,22.3939,19113,249
1.33185,1.105394,-1178,91205,22.5432,19113,249
0.845728,1.013992,-1177,91206,22.5432,19113,249
1.79539,0.9841623,-1176,91207,22.6428,19113,249
1.64863,0.9917039,-1175,91208,22.4935,19113,249
1.45176,0.9841623,-1174,91209,22.6428,19113,249
0.717624,0.9917039,-1173,91210,22.4935,19113,249
0.218366,1.132034,-1172,91211,22.6428,19113,249
1.05631,1.035801,-1171,91212,22.4935,19113,249
1.13886,1.050089,-1170,91213,22.3939,19118,255
1.62239,1.112113,-1169,91214,22.6428,19118,255
1.85547,0.9917039,-1168,91215,22.3441,19118,255
1.43857,1.050089,-1167,91216,22.5432,19118,255
1.93596,1.050089,-1166,91217,22.5432,19118,255
1.69427,1.125433,-1165,91218,22.6428,19118,255
1.61945,1.125433,-1164,91219,22.5432,19118,255
1.60466,1.006618,-1163,91220,22.5432,19118,255
2.24397,0.8886853,-1162,91221,22.3939,19118,255
1.66589,0.9841623,-1161,91222,22.6428,19118,255
1.32467,1.105394,-1160,91223,22.3939,19120,252
0.625305,1.244878,-1159,91224,22.5432,19120,252
1.1472,1.132034,-1158,91225,22.8419,19120,252
1.23912,0.8970299,-1157,91226,22.5432,19120,252
2.12613,0.7816314,-1156,91227,22.6428,19120,252
2.03444,0.7816314,-1155,91228,22.2943,19120,252
1.02423,0.9611826,-1154,91229,22.5432,19120,252
1.41517,0.9376399,-1153,91230,22.6428,19120,252
1.58673,0.9841623,-1152,91231,22.6428,19120,252
1.3637,1.105394,-1151,91232,22.3441,19120,252
1.99659,1.125433,-1150,91233,22.6428,19124,251
2.0156,1.125433,-1149,91234,22.8419,19124,251
1.68863,1.112113,-1148,91235,22.3939,19124,251
2.93781,0.9765625,-1147,91236,22.3939,19124,251
1.28817,0.9841623,-1146,91237,22.5432,19124,251
1.71664,0.9765625,-1145,91238,22.6428,19124,251
1.7551,1.125433,-1144,91239,22.8419,19124,251
0.497951,1.164477,-1143,91240,22.6428,19124,251
1.59273,1.013992,-1142,91241,22.8419,19124,251
1.74966,1.013992,-1141,91242,22.5432,19124,251
1.81125,1.013992,-1140,91243,22.5432,19122,253
1.91864,0.9917039,-1139,91244,22.4935,19122,253
2.31303,1.105394,-1138,91245,22.6428,19122,253
1.59273,1.112113,-1137,91246,22.5432,19122,253
1.81125,1.035801,-1136,91247,22.6428,19122,253
1.13045,0.9611826,-1135,91248,22.5432,19122,253
2.09677,0.8970299,-1134,91249,22.5432,19122,253
1.38796,1.042969,-1133,91250,22.6428,19122,253
1.60466,1.280284,-1132,91251,22.4935,19122,253
1.57769,1.23285,-1131,91252,22.5432,19122,253
0.966748,1.125433,-1130,91253,22.5432,19118,254
2.03444,0.8717564,-1129,91254,22.3939,19118,254
0.710948,0.9917039,-1128,91255,22.4935,19118,254
0.534885,1.006618,-1127,91256,22.5432,19118,254
1.79804,1.105394,-1126,91257,22.4935,19118,254
1.66589,1.013992,-1125,91258,22.6926,19118,254
1.81125,1.151609,-1124,91259,22.5432,19118,254
0.981433,1.035801,-1123,91260,22.6428,19118,254
1.44518,0.9917039,-1122,91261,22.6926,19118,254
2.43554,1.125433,-1121,91262,22.7424,19118,254
0.690534,0.9611826,-1120,91263,22.5432,19113,253
1.4118,0.8802615,-1119,91264,22.6926,19113,253
1.86572,0.9917039,-1118,91265,22.3441,19113,253
1.25061,1.125433,-1117,91266,22.6428,19113,253
1.49385,1.105394,-1116,91267,22.6428,19113,253
1.15135,0.9841623,-1115,91268,22.6428,19113,253
1.64863,1.013992,-1114,91269,22.6428,19113,253
1.92112,1.132034,-1113,91270,22.3441,19113,253
1.38107,0.9841623,-1112,91271,22.3939,19113,253
2.57264,1.125433,-1111,91272,22.8419,19113,253
2.03444,1.112113,-1110,91273,22.4935,19119,252
2.18148,0.9841623,-1109,91274,22.7424,19119,252
1.97256,0.8631675,-1108,91275,22.2943,19119,252
0.78733,0.9917039,-1107,91276,22.6428,19119,252
1.4681,0.9917039,-1106,91277,22.6428,19119,252
1.25821,0.9841623,-1105,91278,22.4935,19119,252
0.662337,0.9917039,-1104,91279,22.3939,19119,252
2.11037,1.006618,-1103,91280,22.5432,19119,252
1.38107,1.050089,-1102,91281,22.7424,19119,252
1.70549,0.9296598,-1101,91282,22.4935,19119,252
1.96529,0.8970299,-1100,91283,22.7424,19119,252
0.690534,0.8886853,-1099,91284,22.4935,19119,252
1.22752,0.8631675,-1098,91285,22.4935,19119,252
1.21581,0.9841623,-1097,91286,22.5432,19119,252
0.799351,1.013992,-1096,91287,22.3939,19119,252
1.47134,1.105394,-1095,91288,22.6926,19119,252
1.4118,1.226791,-1094,91289,22.5432,19119,252
2.09449,1.244878,-1093,91290,22.6428,19119,252
1.16371,1.042969,-1092,91291,22.6428,19119,252
0.805294,1.006618,-1091,91292,22.6428,19119,252
1.37067,1.105394,-1090,91293,22.6428,19119,253
1.85804,1.226791,-1089,91294,22.6926,19119,253
1.65152,1.244878,-1088,91295,22.5432,19119,253
1.81388,1.105394,-1087,91296,22.6428,19119,253
1.18402,1.098633,-1086,91297,22.3939,19119,253
1.68581,0.9841623,-1085,91298,22.5432,19119,253
1.36019,0.8631675,-1084,91299,22.6428,19119,253
0.905627,0.9216106,-1083,91300,22.5432,19119,253
0.683594,0.9917039,-1082,91301,22.6926,19119,253
1.3637,1.098633,-1081,91302,22.4935,19119,253
0.507437,0.9841623,-1080,91303,22.5432,19123,251
0.78733,0.7816314,-1079,91304,22.4935,19123,251
1.8529,0.8188726,-1078,91305,22.3939,19123,251
1.24296,0.8886853,-1077,91306,22.6428,19123,251
1.80334,0.7524919,-1076,91307,22.6428,19123,251
1.11773,1.125433,-1075,91308,22.6428,19123,251
0.560992,1.250848,-1074,91309,22.5432,19123,251
1.05631,1.105394,-1073,91310,22.6926,19123,251
2.09222,1.098633,-1072,91311,22.6926,19123,251
1.67446,0.9841623,-1071,91312,22.8419,19123,251
1.27328,0.9917039,-1070,91313,22.4935,19122,252
1.57769,1.132034,-1069,91314,22.4935,19122,252
2.39208,1.320392,-1068,91315,22.2943,19122,252
0.805294,1.183516,-1067,91316,22.5432,19122,252
1.46484,0.8717564,-1066,91317,22.5432,19122,252
1.81388,0.7720404,-1065,91318,22.3939,19122,252
1.79804,0.8717564,-1064,91319,22.5432,19122,252
0.338291,0.8970299,-1063,91320,22.6428,19122,252
0.921287,0.9376399,-1062,91321,22.6926,19122,252
1.68863,1.164477,-1061,91322,22.8419,19122,252
1.74146,1.125433,-1060,91323,22.6926,19121,252
2.29856,0.8717564,-1059,91324,22.6428,19121,252
0.851347,0.7816314,-1058,91325,22.4935,19121,252
1.3637,0.7816314,-1057,91326,22.6428,19121,252
1.83739,1.112113,-1056,91327,22.5432,19121,252
1.80598,1.220703,-1055,91328,22.2943,19121,252
1.72495,1.006618,-1054,91329,22.3939,19121,252
1.92856,0.8717564,-1053,91330,22.4935,19121,252
1.70549,0.8631675,-1052,91331,22.7424,19121,252
1.36019,0.9765625,-1051,91332,22.7424,19121,252
2.74134,1.132034,-1050,91333,22.6926,19117,251
1.60466,1.035801,-1049,91334,22.6428,19117,251
1.5034,1.013992,-1048,91335,22.6428,19117,251
1.57466,0.9917039,-1047,91336,22.3939,19117,251
2.75176,0.8717564,-1046,91337,22.5432,19117,251
2.04845,0.7425247,-1045,91338,22.6428,19117,251
1.66016,0.8717564,-1044,91339,22.5432,19117,251
1.13045,0.9917039,-1043,91340,22.5432,19117,251
1.87592,0.8717564,-1042,91341,22.3939,19117,251
1.3461,0.9841623,-1041,91342,22.6926,19117,251
2.18584,0.9841623,-1040,91343,22.5432,19118,252
1.53789,0.9765625,-1039,91344,22.6428,19118,252
1.52856,1.098633,-1038,91345,22.6428,19118,252
1.73872,1.112113,-1037,91346,22.5432,19118,252
1.59572,1.112113,-1036,91347,22.5432,19118,252
1.66016,1.013992,-1035,91348,22.6428,19118,252
1.08306,0.9841623,-1034,91349,22.6428,19118,252
1.09619,1.105394,-1033,91350,22.4935,19118,252
1.21188,1.132034,-1032,91351,22.6428,19118,252
0.683594,1.105394,-1031,91352,22.6428,19118,252
1.65152,1.105394,-1030,91353,22.5432,19118,253
0.647778,1.105394,-1029,91354,22.4935,19118,253
0.710948,0.9917039,-1028,91355,22.6428,19118,253
1.84257,0.8970299,-1027,91356,22.5432,19118,253
0.862477,1.050089,-1026,91357,22.5432,19118,253
1.44188,0.8970299,-1025,91358,22.4935,19118,253
1.25821,0.9841623,-1024,91359,22.3939,19118,253
1.39822,1.112113,-1023,91360,22.6926,19118,253
2.77935,1.23285,-1022,91361,22.4935,19118,253
3.21673,1.125433,-1021,91362,22.5432,19118,253
1.14304,0.8886853,-1020,91363,22.6428,19116,255
2.41391,0.8886853,-1019,91364,22.3939,19116,255
2.14399,0.8717564,-1018,91365,22.6926,19116,255
1.23912,0.8631675,-1017,91366,22.6428,19116,255
1.24679,0.8717564,-1016,91367,22.6428,19116,255
2.11263,1.112113,-1015,91368,22.4935,19116,255
2.12613,1.105394,-1014,91369,22.3939,19116,255
2.43358,0.9841623,-1013,91370,22.4935,19116,255
1.77401,0.8544922,-1012,91371,22.5432,19116,255
1.36019,0.8717564,-1011,91372,22.5432,19116,255
1.34255,1.013992,-1010,91373,22.4935,19119,250
2.04379,1.112113,-1009,91374,22.6428,19119,250
1.25442,0.8970299,-1008,91375,22.6428,19119,250
1.47781,0.8970299,-1007,91376,22.5432,19119,250
1.55638,0.8886853,-1006,91377,22.5432,19119,250
2.05543,0.8631675,-1005,91378,22.4935,19119,250
1.22752,0.9841623,-1004,91379,22.6428,19119,250
1.35316,1.013992,-1003,91380,22.3939,19119,250
1.47781,0.8886853,-1002,91381,22.6926,19119,250
1.80598,0.8717564,-1001,91382,22.5432,19119,250
1.09619,0.9917039,-1000,91383,22.5432,19115,258
1.37415,0.8631675,-999,91384,22.4935,19115,258
1.23912,0.8970299,-998,91385,22.8419,19115,258
1.20399,0.7816314,-997,91386,22.5432,19115,258
1.73872,0.8717564,-996,91387,22.6428,19115,258
0.85693,0.9841623,-995,91388,22.6428,19115,258
1.9942,0.7524919,-994,91389,22.6428,19115,258
1.4219,0.7524919,-993,91390,22.8419,19115,258
1.43525,1.013992,-992,91391,22.3939,19115,258
1.54717,1.035801,-991,91392,22.4935,19115,258
0.905627,1.013992,-990,91393,22.6926,19121,252
0.697405,1.105394,-989,91394,22.3939,19121,252
1.01487,1.112113,-988,91395,22.6428,19121,252
1.54408,0.9841623,-987,91396,22.3939,19121,252
1.66303,0.9765625,-986,91397,22.8419,19121,252
0.478416,0.8631675,-985,91398,22.6428,19121,252
1.23912,0.9917039,-984,91399,22.6428,19121,252
1.86572,1.250848,-983,91400,22.3441,19121,252
1.49385,0.9841623,-982,91401,22.6428,19121,252
1.58673,0.7524919,-981,91402,22.3939,19121,252
1.19604,0.9841623,-980,91403,22.5432,19119,255
1.00068,1.013992,-979,91404,22.5432,19119,255
1.45505,0.8631675,-978,91405,22.3441,19119,255
1.11345,0.9841623,-977,91406,22.6428,19119,255
1.54717,1.006618,-976,91407,22.3441,19119,255
1.00543,1.105394,-975,91408,22.4935,19119,255
1.74966,1.112113,-974,91409,22.6428,19119,255
1.42525,0.9841623,-973,91410,22.6926,19119,255
2.60213,1.112113,-972,91411,22.5432,19119,255
1.4118,1.042969,-971,91412,22.5432,19119,255
2.21617,1.098633,-970,91413,22.6428,19121,254
2.34985,1.132034,-969,91414,22.3441,19121,254
1.36019,1.226791,-968,91415,22.5432,19121,254
1.88099,0.9917039,-967,91416,22.6428,19121,254
1.26953,0.8631675,-966,91417,22.4935,19121,254
2.09222,0.8970299,-965,91418,22.8419,19121,254
1.68863,0.8544922,-964,91419,22.1948,19121,254
1.23912,0.8631675,-963,91420,22.8419,19121,254
1.20794,0.9841623,-962,91421,22.5432,19121,254
1.73872,0.9765625,-961,91422,22.6926,19121,254
1.51917,1.105394,-960,91423,22.5432,19117,254
1.57769,0.9765625,-959,91424,22.6926,19117,254
0.710948,1.105394,-958,91425,22.3441,19117,254
1.57163,1.112113,-957,91426,22.3939,19117,254
1.87592,1.132034,-956,91427,22.4935,19117,254
0.946812,1.105394,-955,91428,22.3939,19117,254
2.50693,1.112113,-954,91429,22.4935,19117,254
1.40163,0.9841623,-953,91430,22.6428,19117,254
1.4118,1.112113,-952,91431,22.5432,19117,254
1.60466,1.23285,-951,91432,22.5432,19117,254
2.03678,0.9917039,-950,91433,22.6428,19118,255
2.03678,0.9841623,-949,91434,22.6428,19118,255
1.86572,0.9841623,-948,91435,22.3939,19118,255
2.03444,1.013992,-947,91436,22.5432,19118,255
2.69397,1.071163,-946,91437,22.8419,19118,255
1.57466,1.071163,-945,91438,22.4935,19118,255
0.905627,0.9841623,-944,91439,22.6926,19118,255
1.81913,1.006618,-943,91440,22.5432,19118,255
1.77132,1.013992,-942,91441,22.5432,19118,255
1.17594,0.9765625,-941,91442,22.4935,19118,255
2.32332,1.112113,-940,91443,22.6428,19118,255
0.840071,1.042969,-939,91444,22.3939,19118,255
1.95556,1.006618,-938,91445,22.4935,19118,255
1.45505,0.9765625,-937,91446,22.6428,19118,255
1.95556,1.112113,-936,91447,22.4935,19118,255
0.793363,1.112113,-935,91448,22.3939,19118,255
1.97498,1.013992,-934,91449,22.4935,19118,255
2.21187,1.23285,-933,91450,22.4935,19118,255
1.05631,1.220703,-932,91451,22.6926,19118,255
1.83739,1.013992,-931,91452,22.6428,19118,255
1.48103,0.9216106,-930,91453,22.3441,19115,248
1.64863,1.050089,-929,91454,22.1948,19115,248
1.18402,1.035801,-928,91455,22.6926,19115,248
1.98461,1.013992,-927,91456,22.5432,19115,248
1.73047,1.006618,-926,91457,22.3939,19115,248
1.95556,1.132034,-925,91458,22.6428,19115,248
2.16392,1.250848,-924,91459,22.6428,19115,248
1.62532,1.220703,-923,91460,22.4935,19115,248
1.79804,0.9841623,-922,91461,22.2943,19115,248
1.8529,1.042969,-921,91462,22.3441,19115,248
1.33185,1.035801,-920,91463,22.6428,19118,251
1.54717,1.244878,-919,91464,22.6428,19118,251
0.981433,1.151609,-918,91465,22.4935,19118,251
0.811194,1.151609,-917,91466,22.5432,19118,251
1.66303,1.013992,-916,91467,22.5432,19118,251
1.5034,0.8717564,-915,91468,22.6428,19118,251
1.00068,0.7524919,-914,91469,22.4935,19118,251
1.64863,1.132034,-913,91470,22.6926,19118,251
1.70269,1.125433,-912,91471,22.4935,19118,251
1.13886,1.112113,-911,91472,22.6926,19118,251
1.24679,1.105394,-910,91473,22.6428,19119,251
2.37809,1.220703,-909,91474,22.3441,19119,251
2.81345,1.226791,-908,91475,22.6428,19119,251
1.87592,1.250848,-907,91476,22.5432,19119,251
1.01956,1.274451,-906,91477,22.6926,19119,251
1.85804,1.042969,-905,91478,22.5432,19119,251
1.23912,0.9917039,-904,91479,22.3939,19119,251
1.28817,1.013992,-903,91480,22.5432,19119,251
2.2819,0.9917039,-902,91481,22.4935,19119,251
0.926449,1.125433,-901,91482,22.5432,19119,251
1.15548,1.274451,-900,91483,22.6926,19117,254
1.64863,1.280284,-899,91484,22.6926,19117,254
1.32827,1.105394,-898,91485,22.6926,19117,254
2.21832,0.9917039,-897,91486,22.4935,19117,254
1.38452,1.013992,-896,91487,22.6428,19117,254
1.01016,0.9841623,-895,91488,22.5432,19117,254
0.862477,0.8717564,-894,91489,22.6428,19117,254
1.88858,0.8970299,-893,91490,22.4935,19117,254
1.28447,1.132034,-892,91491,22.3939,19117,254
1.55332,1.105394,-891,91492,22.5432,19117,254
0.768946,0.8631675,-890,91493,22.6428,19118,251
1.86572,0.9917039,-889,91494,22.6428,19118,251
1.4219,1.132034,-888,91495,22.5432,19118,251
1.46484,1.125433,-887,91496,22.6428,19118,251
2.63129,0.9841623,-886,91497,22.5432,19118,251
1.96287,1.112113,-885,91498,22.3939,19118,251
1.64863,0.9917039,-884,91499,22.4935,19118,251
1.59273,1.151609,-883,91500,22.5432,19118,251
1.67446,1.226791,-882,91501,22.4935,19118,251
1.3102,1.164477,-881,91502,22.4935,19118,251
1.09183,0.8631675,-880,91503,22.5432,19122,254
1.28817,0.8717564,-879,91504,22.6926,19122,254
0.710948,1.006618,-878,91505,22.4935,19122,254
1.51917,1.268592,-877,91506,22.5432,19122,254
2.41391,1.112113,-876,91507,22.5432,19122,254
1.45176,1.112113,-875,91508,22.3939,19122,254
0.655098,1.132034,-874,91509,22.5432,19122,254
1.98701,1.035801,-873,91510,22.5432,19122,254
1.46484,1.050089,-872,91511,22.6428,19122,254
1.60168,1.158061,-871,91512,22.6428,19122,254
1.96772,1.164477,-870,91513,22.5432,19118,253
2.74829,1.164477,-869,91514,22.6926,19118,253
1.60168,1.125433,-868,91515,22.3939,19118,253
1.68298,1.132034,-867,91516,22.6926,19118,253
2.7028,1.183516,-866,91517,22.6428,19118,253
1.60168,1.132034,-865,91518,22.3441,19118,253
0.971667,1.006618,-864,91519,22.5432,19118,253
1.94824,1.013992,-863,91520,22.6926,19118,253
1.28817,1.105394,-862,91521,22.4935,19118,253
1.22363,1.112113,-861,91522,22.6428,19118,253
2.14844,0.9841623,-860,91523,22.6926,19122,252
1.41517,0.9841623,-859,91524,22.6428,19122,252
1.77132,0.9841623,-858,91525,22.3939,19122,252
1.52856,1.112113,-857,91526,22.4935,19122,252
1.66303,1.250848,-856,91527,22.4935,19122,252
1.74146,1.006618,-855,91528,22.5432,19122,252
2.45698,0.9296598,-854,91529,22.4935,19122,252
0.981433,0.8970299,-853,91530,22.3441,19122,252
1.65728,1.035801,-852,91531,22.3939,19122,252
1.78206,1.132034,-851,91532,22.3441,19122,252
1.79539,1.250848,-850,91533,22.6926,19119,252
1.09183,1.151609,-849,91534,22.5432,19119,252
1.67446,1.013992,-848,91535,22.5432,19119,252
1.05631,0.9841623,-847,91536,22.5432,19119,252
1.48103,0.8631675,-846,91537,22.6428,19119,252
0.799351,0.9765625,-845,91538,22.4935,19119,252
0.76272,1.105394,-844,91539,22.3939,19119,252
1.13045,1.250848,-843,91540,22.6428,19119,252
1.9335,1.164477,-842,91541,22.6428,19119,252
1.90617,1.013992,-841,91542,22.4935,19119,252
1.84516,1.035801,-840,91543,22.7424,19118,252
1.3029,1.202253,-839,91544,22.6428,19118,252
1.73323,1.042969,-838,91545,22.4935,19118,252
1.54717,0.8970299,-837,91546,22.6428,19118,252
1.74966,1.006618,-836,91547,22.5432,19118,252
1.73047,1.125433,-835,91548,22.2943,19118,252
2.38009,0.9917039,-834,91549,22.3939,19118,252
1.90617,1.112113,-833,91550,22.5432,19118,252
2.26301,1.112113,-832,91551,22.6428,19118,252
1.39139,1.164477,-831,91552,22.4935,19118,252
1.00543,1.297625,-830,91553,22.6428,19117,253
0.900346,1.151609,-829,91554,22.3939,19117,253
1.5034,1.006618,-828,91555,22.6428,19117,253
1.09183,0.9841623,-827,91556,22.6926,19117,253
2.48016,1.013992,-826,91557,22.8419,19117,253
0.926449,1.226791,-825,91558,22.7424,19117,253
1.58673,1.132034,-824,91559,22.6428,19117,253
1.76323,1.013992,-823,91560,22.6926,19117,253
0.683594,1.006618,-822,91561,22.7424,19117,253
1.53789,1.006618,-821,91562,22.6926,19117,253
1.73872,1.013992,-820,91563,22.3441,19116,253
1.04268,1.013992,-819,91564,22.7424,19116,253
1.13045,1.132034,-818,91565,22.4935,19116,253
1.27328,1.112113,-817,91566,22.5432,19116,253
1.87592,1.226791,-816,91567,22.3441,19116,253
2.03678,1.112113,-815,91568,22.4935,19116,253
0.85693,1.250848,-814,91569,22.4935,19116,253
1.31745,1.151609,-813,91570,22.3441,19116,253
0.525895,1.132034,-812,91571,22.6926,19116,253
0.85693,1.125433,-811,91572,22.8917,19116,253
2.14399,0.9376399,-810,91573,22.5432,19120,256
1.65152,1.006618,-809,91574,22.6428,19120,256
1.61945,1.050089,-808,91575,22.6428,19120,256
0.884315,1.183516,-807,91576,22.6428,19120,256
0.710948,1.164477,-806,91577,22.1948,19120,256
1.06082,1.250848,-805,91578,22.6428,19120,256
1.73047,1.151609,-804,91579,22.5432,19120,256
1.52544,1.118793,-803,91580,22.6428,19120,256
1.6165,1.164477,-802,91581,22.6428,19120,256
1.70829,1.214584,-801,91582,22.3939,19120,256
2.34375,1.370236,-800,91583,22.5432,19118,251
1.53168,1.444355,-799,91584,22.4935,19118,251
0.488281,1.320392,-798,91585,22.5432,19118,251
1.38796,1.125433,-797,91586,22.4935,19118,251
1.50022,1.250848,-796,91587,22.4935,19118,251
2.03444,1.158061,-795,91588,22.6428,19118,251
1.97498,1.132034,-794,91589,22.3939,19118,251
1.32467,1.256791,-793,91590,22.5432,19118,251
1.48103,1.214584,-792,91591,22.3441,19118,251
1.48103,1.183516,-791,91592,22.5432,19118,251
1.94088,1.280284,-790,91593,22.4935,19119,254
0.218366,1.132034,-789,91594,22.5432,19119,254
1.43857,1.151609,-788,91595,22.6428,19119,254
1.3461,1.214584,-787,91596,22.3939,19119,254
0.946812,1.214584,-786,91597,22.5432,19119,254
2.03444,1.326023,-785,91598,22.6428,19119,254
1.4681,1.132034,-784,91599,22.3939,19119,254
1.82698,0.8970299,-783,91600,22.5432,19119,254
1.01956,1.035801,-782,91601,22.4935,19119,254
0.884315,1.050089,-781,91602,22.6926,19119,254
1.97498,1.226791,-780,91603,22.4935,19124,253
1.39139,1.226791,-779,91604,22.4935,19124,253
1.11773,1.268592,-778,91605,22.5432,19124,253
2.4277,1.151609,-777,91606,22.5432,19124,253
1.38452,1.151609,-776,91607,22.4935,19124,253
0.840071,1.132034,-775,91608,22.6428,19124,253
1.53168,1.132034,-774,91609,22.5432,19124,253
1.60168,1.118793,-773,91610,22.5432,19124,253
0.995902,1.214584,-772,91611,22.5432,19124,253
1.11773,1.214584,-771,91612,22.4935,19124,253
1.77132,1.158061,-770,91613,22.3939,19119,253
0.995902,1.320392,-769,91614,22.6428,19119,253
1.55638,1.386452,-768,91615,22.6926,19119,253
1.31383,1.151609,-767,91616,22.6428,19119,253
1.33185,1.183516,-766,91617,22.6428,19119,253
1.60168,1.226791,-765,91618,22.5432,19119,253
1.86572,1.164477,-764,91619,22.5432,19119,253
1.38796,1.132034,-763,91620,22.8419,19119,253
1.44188,1.280284,-762,91621,22.6428,19119,253
1.20794,1.183516,-761,91622,22.3939,19119,253
1.68014,1.183516,-760,91623,22.6926,19119,252
1.57769,1.297625,-759,91624,22.6428,19119,252
1.83479,1.320392,-758,91625,22.4935,19119,252
2.06237,1.370236,-757,91626,22.6428,19119,252
1.16371,1.386452,-756,91627,22.6926,19119,252
1.28447,1.326023,-755,91628,22.6428,19119,252
2.4974,1.164477,-754,91629,22.6926,19119,252
0.625305,1.035801,-753,91630,22.6926,19119,252
2.64394,1.280284,-752,91631,22.6428,19119,252
2.0762,1.413066,-751,91632,22.6926,19119,252
1.57769,1.364788,-750,91633,22.6428,19117,255
2.10585,1.183516,-749,91634,22.6428,19117,255
1.25821,1.132034,-748,91635,22.8419,19117,255
1.25821,1.297625,-747,91636,22.4935,19117,255
1.1596,1.364788,-746,91637,22.3939,19117,255
1.13886,1.214584,-745,91638,22.6926,19117,255
0.817051,1.353825,-744,91639,22.6428,19117,255
2.31715,1.244878,-743,91640,22.3939,19117,255
1.38796,1.035801,-742,91641,22.7424,19117,255
2.09677,1.071163,-741,91642,22.6428,19117,255
2.17052,1.208434,-740,91643,22.5432,19120,250
2.11263,1.49505,-739,91644,22.6926,19120,250
1.33185,1.509926,-738,91645,22.3939,19120,250
2.08079,1.297625,-737,91646,22.4935,19120,250
1.62239,1.386452,-736,91647,22.6428,19120,250
1.1596,1.125433,-735,91648,22.6428,19120,250
1.40163,1.132034,-734,91649,22.3939,19120,250
1.27328,1.071163,-733,91650,22.8419,19120,250
1.85804,1.071163,-732,91651,22.5432,19120,250
1.21581,1.183516,-731,91652,22.6428,19120,250
0.941763,1.214584,-730,91653,22.5432,19118,253
1.34255,1.183516,-729,91654,22.6428,19118,253
1.36019,1.035801,-728,91655,22.3441,19118,253
1.67446,1.035801,-727,91656,22.4935,19118,253
1.13045,1.183516,-726,91657,22.6926,19118,253
1.91864,1.214584,-725,91658,22.5432,19118,253
1.62826,1.256791,-724,91659,22.4935,19118,253
1.57769,1.280284,-723,91660,22.6428,19118,253
1.47781,1.320392,-722,91661,22.5432,19118,253
1.73872,1.364788,-721,91662,22.3939,19118,253
1.20794,1.444355,-720,91663,22.4935,19116,254
1.1596,1.320392,-719,91664,22.4935,19116,254
1.11773,1.164477,-718,91665,22.5432,19116,254
0.625305,1.164477,-717,91666,22.3939,19116,254
1.64283,1.297625,-716,91667,22.5432,19116,254
1.46484,1.364788,-715,91668,22.5432,19116,254
1.4118,1.474981,-714,91669,22.6428,19116,254
1.9335,1.337213,-713,91670,22.4935,19116,254
0.905627,1.326023,-712,91671,22.4935,19116,254
0.41432,1.364788,-711,91672,22.6926,19116,254
0.793363,1.548899,-710,91673,22.3939,19120,252
1.87592,1.250848,-709,91674,22.5432,19120,252
1.71664,1.250848,-708,91675,22.3441,19120,252
0.905627,1.474981,-707,91676,22.3939,19120,252
2.04146,1.49505,-706,91677,22.4935,19120,252
1.40163,1.214584,-705,91678,22.5432,19120,252
1.84516,1.297625,-704,91679,22.3939,19120,252
1.57769,1.297625,-703,91680,22.6926,19120,252
1.9335,1.364788,-702,91681,22.6428,19120,252
1.89614,1.449505,-701,91682,22.5432,19120,252
1.20794,1.256791,-700,91683,22.5432,19121,254
1.31745,1.226791,-699,91684,22.6926,19121,254
2.1573,1.208434,-698,91685,22.2943,19121,254
1.49385,1.439188,-697,91686,22.4935,19121,254
0.905627,1.439188,-696,91687,22.4935,19121,254
0.981433,1.164477,-695,91688,22.5432,19121,254
0.971667,1.105394,-694,91689,22.4935,19121,254
2.40203,1.214584,-693,91690,22.6926,19121,254
1.75238,1.337213,-692,91691,22.6428,19121,254
1.47781,1.297625,-691,91692,22.4935,19121,254
2.28399,1.297625,-690,91693,22.3939,19121,254
1.72772,1.386452,-689,91694,22.6926,19121,254
1.37067,1.386452,-688,91695,22.4935,19121,254
2.55777,1.370236,-687,91696,22.5432,19121,254
1.60466,1.297625,-686,91697,22.4935,19121,254
1.88099,1.164477,-685,91698,22.6428,19121,254
1.98461,1.151609,-684,91699,22.6428,19121,254
1.90867,1.208434,-683,91700,22.3939,19121,254
1.31383,1.326023,-682,91701,22.5432,19121,254
1.60168,1.586914,-681,91702,22.4935,19121,254
1.80334,1.509926,-680,91703,22.3939,19117,253
0.926449,1.402481,-679,91704,22.6428,19117,253
2.58559,1.413066,-678,91705,22.6428,19117,253
1.73323,1.297625,-677,91706,22.5432,19117,253
1.78206,1.297625,-676,91707,22.4935,19117,253
1.58673,1.348311,-675,91708,22.3939,19117,253
1.5034,1.297625,-674,91709,22.3441,19117,253
1.76052,1.364788,-673,91710,22.6428,19117,253
2.16832,1.297625,-672,91711,22.6926,19117,253
1.51917,1.214584,-671,91712,22.5432,19117,253
1.42859,1.297625,-670,91713,22.5432,19119,251
1.6165,1.364788,-669,91714,22.5432,19119,251
1.27702,1.364788,-668,91715,22.5432,19119,251
1.63702,1.386452,-667,91716,22.3441,19119,251
1.7767,1.164477,-666,91717,22.5432,19119,251
1.77401,1.183516,-665,91718,22.6428,19119,251
1.30655,1.326023,-664,91719,22.6428,19119,251
1.19604,1.364788,-663,91720,22.6926,19119,251
2.06006,1.364788,-662,91721,22.4935,19119,251
1.36019,1.297625,-661,91722,22.4935,19119,251
0.971667,1.297625,-660,91723,22.8419,19116,255
0.834375,1.364788,-659,91724,22.6428,19116,255
1.10916,1.402481,-658,91725,22.5432,19116,255
1.46158,1.449505,-657,91726,22.6428,19116,255
1.6341,1.449505,-656,91727,22.3939,19116,255
2.45698,1.386452,-655,91728,22.3939,19116,255
1.64863,1.397159,-654,91729,22.6428,19116,255
1.68581,1.386452,-653,91730,22.5432,19116,255
2.09904,1.297625,-652,91731,22.6926,19116,255
2.01324,1.397159,-651,91732,22.6428,19116,255
2.08994,1.364788,-650,91733,22.3939,19119,254
1.71664,1.519763,-649,91734,22.5432,19119,254
1.23912,1.402481,-648,91735,22.5432,19119,254
1.40163,1.49505,-647,91736,22.4935,19119,254
1.30655,1.563263,-646,91737,22.5432,19119,254
1.56555,1.474981,-645,91738,22.5432,19119,254
0.895034,1.364788,-644,91739,22.5432,19119,254
1.80598,1.364788,-643,91740,22.4935,19119,254
1.74966,1.348311,-642,91741,22.4935,19119,254
1.14304,1.214584,-641,91742,22.3939,19119,254
0.845728,1.035801,-640,91743,22.4935,19124,251
1.62826,1.183516,-639,91744,22.4935,19124,251
1.40163,1.413066,-638,91745,22.6428,19124,251
2.21187,1.600937,-637,91746,22.6428,19124,251
1.57163,1.49505,-636,91747,22.5432,19124,251
1.5807,1.326023,-635,91748,22.6428,19124,251
1.39822,1.151609,-634,91749,22.5432,19124,251
1.62239,1.183516,-633,91750,22.6428,19124,251
1.8529,1.364788,-632,91751,22.3939,19124,251
0.507437,1.413066,-631,91752,22.5432,19124,251
1.51917,1.474981,-630,91753,22.5432,19121,252
1.47134,1.586914,-629,91754,22.6428,19121,252
1.8529,1.413066,-628,91755,22.7424,19121,252
1.85804,1.226791,-627,91756,22.3939,19121,252
2.11263,1.402481,-626,91757,22.6428,19121,252
1.74966,1.596276,-625,91758,22.5432,19121,252
2.19889,1.509926,-624,91759,22.6428,19121,252
1.09183,1.474981,-623,91760,22.8419,19121,252
2.23759,1.449505,-622,91761,22.5432,19121,252
1.25442,1.509926,-621,91762,22.6428,19121,252
0.971667,1.553701,-620,91763,22.6926,19114,252
1.44188,1.449505,-619,91764,22.3939,19114,252
1.27328,1.449505,-618,91765,22.5432,19114,252
1.61945,1.386452,-617,91766,22.5432,19114,252
2.22262,1.386452,-616,91767,22.6926,19114,252
2.05543,1.364788,-615,91768,22.4935,19114,252
0.811194,1.553701,-614,91769,22.3441,19114,252
1.38452,1.509926,-613,91770,22.5432,19114,252
1.3102,1.605584,-612,91771,22.5432,19114,252
0.884315,1.806476,-611,91772,22.6926,19114,252
2.15951,1.509926,-610,91773,22.3939,19119,252
2.08537,1.326023,-609,91774,22.2943,19119,252
2.60945,1.256791,-608,91775,22.6428,19119,252
1.86572,1.449505,-607,91776,22.5432,19119,252
1.7767,1.449505,-606,91777,22.6926,19119,252
1.66589,1.413066,-605,91778,22.3441,19119,252
1.66589,1.348311,-604,91779,22.5432,19119,252
2.04146,1.449505,-603,91780,22.4935,19119,252
1.17998,1.504984,-602,91781,22.3939,19119,252
1.92608,1.548899,-601,91782,22.6926,19119,252
1.06082,1.553701,-600,91783,22.5432,19118,255
1.04268,1.469921,-599,91784,22.6926,19118,255
1.04268,1.553701,-598,91785,22.5432,19118,255
1.25821,1.553701,-597,91786,22.6428,19118,255
0.632885,1.660336,-596,91787,22.6428,19118,255
1.28817,1.553701,-595,91788,22.3441,19118,255
1.66016,1.474981,-594,91789,22.3939,19118,255
1.96529,1.364788,-593,91790,22.3939,19118,255
2.64033,1.413066,-592,91791,22.5432,19118,255
1.33185,1.509926,-591,91792,22.5432,19118,255
2.1771,1.364788,-590,91793,22.3939,19115,252
1.78206,1.364788,-589,91794,22.5432,19115,252
1.73872,1.553701,-588,91795,22.6926,19115,252
1.80334,1.553701,-587,91796,22.6428,19115,252
1.9918,1.364788,-586,91797,22.5432,19115,252
1.60466,1.449505,-585,91798,22.6926,19115,252
1.28075,1.553701,-584,91799,22.6428,19115,252
1.71664,1.605584,-583,91800,22.6428,19115,252
1.63993,1.553701,-582,91801,22.6428,19115,252
1.71386,1.386452,-581,91802,22.5432,19115,252
1.37067,1.474981,-580,91803,22.4935,19122,251
2.25457,1.474981,-579,91804,22.6428,19122,251
1.52856,1.474981,-578,91805,22.7424,19122,251
1.20794,1.509926,-577,91806,22.3939,19122,251
1.77938,1.364788,-576,91807,22.6926,19122,251
1.13045,1.402481,-575,91808,22.3939,19122,251
2.00374,1.509926,-574,91809,22.7424,19122,251
1.32827,1.519763,-573,91810,22.6428,19122,251
1.96287,1.553701,-572,91811,22.5432,19122,251
1.94333,1.5344,-571,91812,22.5432,19122,251
1.44188,1.449505,-570,91813,22.6428,19117,254
1.82698,1.596276,-569,91814,22.6428,19117,254
1.94579,1.553701,-568,91815,22.6926,19117,254
2.02504,1.646819,-567,91816,22.4935,19117,254
1.17594,1.628621,-566,91817,22.3939,19117,254
1.7551,1.628621,-565,91818,22.3939,19117,254
1.38796,1.660336,-564,91819,22.6428,19117,254
1.44518,1.509926,-563,91820,22.3939,19117,254
1.28817,1.553701,-562,91821,22.6926,19117,254
1.21581,1.49505,-561,91822,22.6926,19117,254
0.873464,1.49505,-560,91823,22.6428,19119,250
0.655098,1.553701,-559,91824,22.6926,19119,250
0.921287,1.439188,-558,91825,22.5432,19119,250
1.25821,1.326023,-557,91826,22.3939,19119,250
1.23912,1.449505,-556,91827,22.5432,19119,250
2.58005,1.553701,-555,91828,22.6428,19119,250
1.15548,1.413066,-554,91829,22.6926,19119,250
1.39139,1.563263,-553,91830,22.5432,19119,250
1.54717,1.563263,-552,91831,22.6926,19119,250
2.29024,1.413066,-551,91832,22.4935,19119,250
1.37067,1.449505,-550,91833,22.3939,19114,254
1.13045,1.413066,-549,91834,22.7424,19114,254
1.72772,1.439188,-548,91835,22.4935,19114,254
1.18402,1.449505,-547,91836,22.6428,19114,254
1.958,1.509926,-546,91837,22.6428,19114,254
1.59273,1.553701,-545,91838,22.4935,19114,254
1.34255,1.519763,-544,91839,22.6428,19114,254
2.48016,1.402481,-543,91840,22.7424,19114,254
1.45176,1.413066,-542,91841,22.4935,19114,254
1.14304,1.364788,-541,91842,22.6428,19114,254
1.92608,1.474981,-540,91843,22.6428,19121,253
1.94824,1.49505,-539,91844,22.6428,19121,253
2.11037,1.605584,-538,91845,22.6926,19121,253
0.845728,1.704619,-537,91846,22.6926,19121,253
1.91864,1.863322,-536,91847,22.3939,19121,253
1.05179,1.902888,-535,91848,22.6428,19121,253
0.995902,1.596276,-534,91849,22.4935,19121,253
1.15548,1.519763,-533,91850,22.6428,19121,253
1.46158,1.413066,-532,91851,22.5432,19121,253
1.4118,1.402481,-531,91852,22.5432,19121,253
0.884315,1.628621,-530,91853,22.3441,19120,254
1.37415,1.519763,-529,91854,22.3441,19120,254
1.70829,1.309058,-528,91855,22.5432,19120,254
1.77401,1.553701,-527,91856,22.5432,19120,254
1.59572,1.895041,-526,91857,22.5432,19120,254
2.72914,1.956936,-525,91858,22.5432,19120,254
1.06977,1.902888,-524,91859,22.4935,19120,254
1.958,1.708984,-523,91860,22.3939,19120,254
2.41983,1.610218,-522,91861,22.3939,19120,254
1.20399,1.469921,-521,91862,22.5432,19120,254
1.67161,1.5344,-520,91863,22.5432,19117,250
2.12837,1.902888,-519,91864,22.4935,19117,250
1.64863,1.863322,-518,91865,22.6428,19117,250
1.02423,1.633189,-517,91866,22.6428,19117,250
1.33543,1.548899,-516,91867,22.4935,19117,250
0.710948,1.605584,-515,91868,22.6926,19117,250
2.0716,1.49505,-514,91869,22.5432,19117,250
1.7551,1.747781,-513,91870,22.6926,19117,250
1.45176,1.700243,-512,91871,22.6926,19117,250
1.79804,1.660336,-511,91872,22.6428,19117,250
1.27328,1.664817,-510,91873,22.6428,19121,254
1.32827,1.826981,-509,91874,22.6428,19121,254
1.22363,1.660336,-508,91875,22.3939,19121,254
1.69146,1.449505,-507,91876,22.3939,19121,254
2.08079,1.519763,-506,91877,22.4935,19121,254
1.33543,1.708984,-505,91878,22.5432,19121,254
1.25821,1.660336,-504,91879,22.4935,19121,254
0.851347,1.660336,-503,91880,22.6428,19121,254
1.57466,1.708984,-502,91881,22.6428,19121,254
0.840071,1.655842,-501,91882,22.6428,19121,254
1.27328,1.628621,-500,91883,22.3441,19121,252
0.931581,1.605584,-499,91884,22.5432,19121,252
1.42859,1.704619,-498,91885,22.4935,19121,252
1.4118,1.664817,-497,91886,22.6926,19121,252
1.92608,1.596276,-496,91887,22.6428,19121,252
1.62826,1.596276,-495,91888,22.6428,19121,252
1.66303,1.747781,-494,91889,22.5432,19121,252
2.03444,1.708984,-493,91890,22.4935,19121,252
1.17998,1.704619,-492,91891,22.6428,19121,252
0.921287,1.637745,-491,91892,22.6428,19121,252
2.2819,1.605584,-490,91893,22.4935,19121,253
1.53789,1.660336,-489,91894,22.6428,19121,253
1.68298,1.730645,-488,91895,22.4935,19121,253
2.22262,1.814706,-487,91896,22.6428,19121,253
1.27328,1.76475,-486,91897,22.5432,19121,253
0.365396,1.739234,-485,91898,22.4935,19121,253
1.1596,1.806476,-484,91899,22.6428,19121,253
1.59273,1.700243,-483,91900,22.6428,19121,253
0.905627,1.605584,-482,91901,22.8419,19121,253
2.77591,1.637745,-481,91902,22.6428,19121,253
1.49385,1.839175,-480,91903,22.3939,19121,254
1.77132,1.752039,-479,91904,22.3939,19121,254
1.79539,1.605584,-478,91905,22.5432,19121,254
2.14177,1.700243,-477,91906,22.3939,19121,254
0.85693,1.747781,-476,91907,22.4935,19121,254
1.92856,1.646819,-475,91908,22.6428,19121,254
2.15287,1.76475,-474,91909,22.5432,19121,254
1.94824,1.633189,-473,91910,22.7424,19121,254
1.60466,1.708984,-472,91911,22.5432,19121,254
1.36719,1.747781,-471,91912,22.5432,19121,254
1.41854,1.747781,-470,91913,22.6926,19123,254
0.632885,1.646819,-469,91914,22.6926,19123,254
1.5034,1.553701,-468,91915,22.4935,19123,254
1.25821,1.734945,-467,91916,22.6428,19123,254
0.78733,1.76475,-466,91917,22.4935,19123,254
1.74146,1.553701,-465,91918,22.3441,19123,254
1.77132,1.596276,-464,91919,22.5432,19123,254
1.54408,1.895041,-463,91920,22.4935,19123,254
2.37809,1.704619,-462,91921,22.4935,19123,254
2.21402,1.695855,-461,91922,22.6428,19123,254
1.05631,1.700243,-460,91923,22.4935,19120,253
1.19604,1.700243,-459,91924,22.3939,19120,253
1.79539,1.660336,-458,91925,22.4935,19120,253
1.96772,1.596276,-457,91926,22.3441,19120,253
1.02423,1.596276,-456,91927,22.5432,19120,253
1.43525,1.700243,-455,91928,22.5432,19120,253
0.840071,1.802347,-454,91929,22.5432,19120,253
1.05631,1.906799,-453,91930,22.5432,19120,253
1.25442,1.752039,-452,91931,22.6428,19120,253
1.34255,1.646819,-451,91932,22.6428,19120,253
0.926449,1.596276,-450,91933,22.6428,19114,251
1.38452,1.678189,-449,91934,22.6428,19114,251
2.0693,1.76475,-448,91935,22.4935,19114,251
2.08994,1.785735,-447,91936,22.6428,19114,251
1.57769,1.867317,-446,91937,22.6926,19114,251
1.57769,1.814706,-445,91938,22.3939,19114,251
2.2819,1.851288,-444,91939,22.3939,19114,251
2.39407,1.79406,-443,91940,22.6428,19114,251
1.42859,1.695855,-442,91941,22.5432,19114,251
1.10916,1.704619,-441,91942,22.6428,19114,251
2.09677,1.802347,-440,91943,22.6428,19112,251
3.07888,1.945481,-439,91944,22.6926,19112,251
1.20794,1.802347,-438,91945,22.3939,19112,251
1.72772,1.902888,-437,91946,22.6428,19112,251
2.69397,1.814706,-436,91947,22.5432,19112,251
1.53168,1.708984,-435,91948,22.6428,19112,251
1.73872,1.802347,-434,91949,22.5432,19112,251
2.0693,1.76475,-433,91950,22.6428,19112,251
1.12198,1.646819,-432,91951,22.1948,19112,251
2.10585,1.747781,-431,91952,22.8419,19112,251
1.09183,1.814706,-430,91953,22.5432,19112,245
1.1472,1.814706,-429,91954,22.3939,19112,245
1.74966,1.806476,-428,91955,22.6428,19112,245
2.38009,1.596276,-427,91956,22.3939,19112,245
1.76052,1.660336,-426,91957,22.4935,19112,245
1.48103,1.879249,-425,91958,22.8419,19112,245
0.717624,1.768967,-424,91959,22.3441,19112,245
1.09619,1.747781,-423,91960,22.4935,19112,245
1.32467,1.747781,-422,91961,22.3939,19112,245
1.80598,1.96074,-421,91962,22.4935,19112,245
1.73047,1.863322,-420,91963,22.6428,19122,252
2.17052,1.768967,-419,91964,22.4935,19122,252
1.19604,1.847259,-418,91965,22.4935,19122,252
2.0693,1.895041,-417,91966,22.4935,19122,252
1.25442,1.646819,-416,91967,22.4935,19122,252
0.921287,1.747781,-415,91968,22.5432,19122,252
0.41432,1.646819,-414,91969,22.3939,19122,252
1.48103,1.752039,-413,91970,22.3441,19122,252
1.68581,1.851288,-412,91971,22.3939,19122,252
1.40163,1.708984,-411,91972,22.6428,19122,252
1.70549,1.902888,-410,91973,22.6428,19120,254
2.15951,1.802347,-409,91974,22.3441,19120,254
1.58973,1.678189,-408,91975,22.6428,19120,254
1.38107,1.826981,-407,91976,22.6926,19120,254
0.717624,1.664817,-406,91977,22.5432,19120,254
2.48016,1.768967,-405,91978,22.6926,19120,254
2.01324,1.902888,-404,91979,22.6428,19120,254
1.41517,1.79406,-403,91980,22.5432,19120,254
1.65152,1.747781,-402,91981,22.5432,19120,254
1.4118,1.660336,-401,91982,22.6428,19120,254
1.1472,1.847259,-400,91983,22.4935,19116,254
1.67446,2.002102,-399,91984,22.6428,19116,254
1.44518,1.96074,-398,91985,22.6428,19116,254
1.31383,1.902888,-397,91986,22.5432,19116,254
1.05631,1.76475,-396,91987,22.3441,19116,254
1.99897,1.664817,-395,91988,22.6428,19116,254
1.33543,1.633189,-394,91989,22.6428,19116,254
1.3029,1.664817,-393,91990,22.6428,19116,254
1.69708,1.863322,-392,91991,22.5432,19116,254
1.36019,1.906799,-391,91992,22.5432,19116,254
1.21188,1.847259,-390,91993,22.4935,19114,254
1.98461,2.00582,-389,91994,22.5432,19114,254
1.27328,2.00582,-388,91995,22.3441,19114,254
1.71108,1.902888,-387,91996,22.4935,19114,254
1.78473,1.660336,-386,91997,22.4935,19114,254
1.60168,1.610218,-385,91998,22.6428,19114,254
0.905627,1.704619,-384,91999,22.5432,19114,254
0.889691,1.863322,-383,92000,22.5432,19114,254
1.67161,1.863322,-382,92001,22.6428,19114,254
1.60168,1.826981,-381,92002,22.4935,19114,254
1.32827,1.802347,-380,92003,22.6428,19112,250
2.02504,1.747781,-379,92004,22.6428,19112,250
1.85804,1.596276,-378,92005,22.5432,19112,250
0.961803,1.646819,-377,92006,22.4935,19112,250
1.73323,1.945481,-376,92007,22.3939,19112,250
2.19672,2.002102,-375,92008,22.6926,19112,250
0.690534,1.847259,-374,92009,22.6428,19112,250
1.41517,1.79406,-373,92010,22.3441,19112,250
2.0716,1.695855,-372,92011,22.4935,19112,250
1.68863,1.79406,-371,92012,22.4935,19112,250
2.11714,1.851288,-370,92013,22.6428,19115,254
2.18584,1.851288,-369,92014,22.6428,19115,254
2.03678,1.814706,-368,92015,22.5432,19115,254
1.69708,1.704619,-367,92016,22.4935,19115,254
1.84257,1.646819,-366,92017,22.3441,19115,254
1.22752,1.747781,-365,92018,22.6428,19115,254
1.07865,1.851288,-364,92019,22.6926,19115,254
1.39139,1.895041,-363,92020,22.4935,19115,254
1.42525,1.851288,-362,92021,22.6428,19115,254
1.59273,1.956936,-361,92022,22.6428,19115,254
0.292969,1.851288,-360,92023,22.6428,19117,253
1.19205,1.96074,-359,92024,22.5432,19117,253
1.43857,1.802347,-358,92025,22.6926,19117,253
1.98461,1.847259,-357,92026,22.3441,19117,253
2.39606,1.895041,-356,92027,22.6428,19117,253
0.946812,1.851288,-355,92028,22.5432,19117,253
1.22752,1.972106,-354,92029,22.3441,19117,253
1.40163,1.867317,-353,92030,22.4935,19117,253
1.51917,1.704619,-352,92031,22.4935,19117,253
1.54717,1.814706,-351,92032,22.6428,19117,253
1.00543,1.898968,-350,92033,22.6428,19114,250
1.10916,1.847259,-349,92034,22.5432,19114,250
1.76323,1.906799,-348,92035,22.3939,19114,250
1.47134,1.863322,-347,92036,22.3939,19114,250
1.38452,1.902888,-346,92037,22.4935,19114,250
2.19672,1.851288,-345,92038,22.3441,19114,250
1.87592,1.895041,-344,92039,22.7424,19114,250
2.93131,1.847259,-343,92040,22.3939,19114,250
2.15066,1.768967,-342,92041,22.5432,19114,250
1.9798,1.814706,-341,92042,22.5432,19114,250
1.36019,1.922365,-340,92043,22.6926,19116,253
1.47781,1.851288,-339,92044,22.6428,19116,253
1.53168,1.747781,-338,92045,22.4935,19116,253
1.50657,1.79406,-337,92046,22.6428,19116,253
1.7767,1.802347,-336,92047,22.4935,19116,253
1.34255,1.802347,-335,92048,22.6428,19116,253
1.60168,1.704619,-334,92049,22.6428,19116,253
1.32827,1.926237,-333,92050,22.6428,19116,253
1.61355,2.00582,-332,92051,22.6428,19116,253
1.81913,2.046271,-331,92052,22.3939,19116,253
0.981433,1.956936,-330,92053,22.6428,19119,254
1.63702,1.79406,-329,92054,22.3441,19119,254
1.38796,1.700243,-328,92055,22.5432,19119,254
1.36019,1.867317,-327,92056,22.3939,19119,254
1.56555,1.704619,-326,92057,22.4935,19119,254
1.67446,1.708984,-325,92058,22.3939,19119,254
1.23912,1.628621,-324,92059,22.6428,19119,254
1.50657,1.785735,-323,92060,22.4935,19119,254
0.625305,2.00582,-322,92061,22.4935,19119,254
0.78733,1.851288,-321,92062,22.8419,19119,254
1.27702,1.802347,-320,92063,22.3939,19125,256
1.68581,1.802347,-319,92064,22.6428,19125,256
1.62239,2.027984,-318,92065,22.6428,19125,256
1.25442,2.110793,-317,92066,22.6428,19125,256
1.88099,2.046271,-316,92067,22.4935,19125,256
1.40163,1.79406,-315,92068,22.6926,19125,256
0.862477,1.79406,-314,92069,22.6428,19125,256
1.49066,2.00582,-313,92070,22.4935,19125,256
0.878906,1.902888,-312,92071,22.6428,19125,256
1.15135,1.730645,-311,92072,22.5432,19125,256
1.40163,1.906799,-310,92073,22.3441,19120,251
1.41854,2.046271,-309,92074,22.6428,19120,251
1.54717,2.027984,-308,92075,22.4935,19120,251
1.49385,1.695855,-307,92076,22.5432,19120,251
1.02423,1.660336,-306,92077,22.6926,19120,251
1.5034,1.956936,-305,92078,22.5432,19120,251
2.34985,1.902888,-304,92079,22.5432,19120,251
1.52544,1.802347,-303,92080,22.3441,19120,251
1.69427,1.734945,-302,92081,22.5432,19120,251
1.81125,1.814706,-301,92082,22.3939,19120,251
1.49385,1.747781,-300,92083,22.3939,19115,253
1.82698,1.902888,-299,92084,22.3939,19115,253
2.02269,1.902888,-298,92085,22.6428,19115,253
1.45176,1.902888,-297,92086,22.5432,19115,253
0.690534,1.96074,-296,92087,22.3441,19115,253
1.10916,2.024307,-295,92088,22.6428,19115,253
1.70829,2.163091,-294,92089,22.5432,19115,253
1.26953,2.060784,-293,92090,22.6428,19115,253
1.58973,1.96074,-292,92091,22.3939,19115,253
1.85547,1.956936,-291,92092,22.3441,19115,253
1.37067,2.049909,-290,92093,22.6428,19119,253
1.23912,2.110793,-289,92094,22.6428,19119,253
2.16171,1.895041,-288,92095,22.3939,19119,253
0.995902,1.708984,-287,92096,22.6428,19119,253
2.14177,1.902888,-286,92097,22.6926,19119,253
1.25442,2.09307,-285,92098,22.6926,19119,253
1.41517,2.049909,-284,92099,22.6428,19119,253
1.63702,1.863322,-283,92100,22.4935,19119,253
1.87592,1.734945,-282,92101,22.5432,19119,253
1.89614,1.867317,-281,92102,22.5432,19119,253
1.3637,1.972106,-280,92103,22.4935,19118,251
1.99897,2.046271,-279,92104,22.6428,19118,251
1.17998,1.847259,-278,92105,22.6428,19118,251
1.06977,1.76475,-277,92106,22.4935,19118,251
0.851347,1.777371,-276,92107,22.3939,19118,251
1.80334,1.926237,-275,92108,22.4935,19118,251
1.40163,2.220875,-274,92109,22.6428,19118,251
1.3102,2.200654,-273,92110,22.6428,19118,251
1.82698,2.046271,-272,92111,22.5432,19118,251
1.80334,1.785735,-271,92112,22.8917,19118,251
1.4118,1.945481,-270,92113,22.6428,19115,250
1.13045,1.972106,-269,92114,22.6428,19115,250
1.28447,2.060784,-268,92115,22.6926,19115,250
1.54408,2.002102,-267,92116,22.5432,19115,250
2.13284,1.847259,-266,92117,22.4935,19115,250
1.73047,2.060784,-265,92118,22.6428,19115,250
1.94579,2.00582,-264,92119,22.5432,19115,250
1.15548,2.204037,-263,92120,22.6428,19115,250
1.0381,2.049909,-262,92121,22.5432,19115,250
1.45505,1.945481,-261,92122,22.5432,19115,250
1.02423,1.972106,-260,92123,22.3939,19116,252
1.85547,1.851288,-259,92124,22.6926,19116,252
0.926449,1.945481,-258,92125,22.6428,19116,252
1.35668,2.09307,-257,92126,22.4935,19116,252
2.30477,2.064396,-256,92127,22.6428,19116,252
1.59572,2.00582,-255,92128,22.5432,19116,252
3.08043,1.902888,-254,92129,22.6926,19116,252
2.64033,2.064396,-253,92130,22.6428,19116,252
1.10916,2.060784,-252,92131,22.3939,19116,252
1.4681,1.972106,-251,92132,22.6926,19116,252
2.20323,2.027984,-250,92133,22.6428,19117,252
2.20323,1.96074,-249,92134,22.3939,19117,252
1.42525,1.96074,-248,92135,22.6926,19117,252
1.25442,2.159644,-247,92136,22.4935,19117,252
1.34255,2.060784,-246,92137,22.3939,19117,252
1.80334,2.131866,-245,92138,22.5432,19117,252
1.92856,1.902888,-244,92139,22.6428,19117,252
1.94088,1.851288,-243,92140,22.3441,19117,252
1.57163,1.926237,-242,92141,22.4935,19117,252
1.74966,1.902888,-241,92142,22.6428,19117,252
1.07865,1.956936,-240,92143,22.3939,19119,256
1.23912,1.972106,-239,92144,22.6428,19119,256
1.20794,2.14927,-238,92145,22.6428,19119,256
1.82698,2.193872,-237,92146,22.6428,19119,256
1.07865,2.159644,-236,92147,22.6428,19119,256
1.89865,2.060784,-235,92148,22.6428,19119,256
2.75176,2.00582,-234,92149,22.4935,19119,256
0.793363,2.046271,-233,92150,22.4935,19119,256
1.10916,1.895041,-232,92151,22.6428,19119,256
1.11773,1.847259,-231,92152,22.5432,19119,256
2.65294,1.863322,-230,92153,22.6428,19117,252
1.27328,1.902888,-229,92154,22.6428,19117,252
2.0156,1.806476,-228,92155,22.3939,19117,252
1.14304,1.902888,-227,92156,22.6428,19117,252
1.58673,2.046271,-226,92157,22.6428,19117,252
1.79804,2.046271,-225,92158,22.3939,19117,252
1.18402,2.060784,-224,92159,22.6428,19117,252
2.44921,2.121356,-223,92160,22.5432,19117,252
2.11488,1.96074,-222,92161,22.5432,19117,252
0.730792,1.945481,-221,92162,22.3939,19117,252
1.15135,1.747781,-220,92163,22.6428,19117,253
1.93596,1.847259,-219,92164,22.6428,19117,253
1.59273,2.002102,-218,92165,22.6428,19117,253
1.5987,2.159644,-217,92166,22.3441,19117,253
1.8529,2.049909,-216,92167,22.5432,19117,253
1.61945,1.945481,-215,92168,22.3441,19117,253
1.05631,1.851288,-214,92169,22.6926,19117,253
2.03444,1.972106,-213,92170,22.3939,19117,253
1.83998,2.060784,-212,92171,22.1948,19117,253
1.04268,1.994645,-211,92172,22.6428,19117,253
1.73047,1.994645,-210,92173,22.5432,19121,250
1.74966,2.14927,-209,92174,22.4935,19121,250
1.60466,2.046271,-208,92175,22.4935,19121,250
0.834375,1.802347,-207,92176,22.6428,19121,250
1.67161,1.704619,-206,92177,22.3441,19121,250
2.10585,1.802347,-205,92178,22.4935,19121,250
0.750112,2.121356,-204,92179,22.5432,19121,250
0.569429,2.089507,-203,92180,22.6428,19121,250
1.11345,1.902888,-202,92181,22.4935,19121,250
1.68298,2.00582,-201,92182,22.4935,19121,250
1.85804,2.00582,-200,92183,22.5432,19119,255
1.38452,1.851288,-199,92184,22.5432,19119,255
0.946812,1.851288,-198,92185,22.6926,19119,255
1.77132,1.851288,-197,92186,22.6428,19119,255
1.25821,2.064396,-196,92187,22.7424,19119,255
1.60466,2.163091,-195,92188,22.6428,19119,255
1.83479,2.131866,-194,92189,22.6428,19119,255
1.53168,1.867317,-193,92190,22.3939,19119,255
2.0693,1.802347,-192,92191,22.5432,19119,255
1.92608,2.002102,-191,92192,22.5432,19119,255
1.80598,2.046271,-190,92193,22.3939,19119,255
1.66303,2.046271,-189,92194,22.4935,19119,255
1.84257,1.956936,-188,92195,22.3939,19119,255
1.63702,1.867317,-187,92196,22.5432,19119,255
1.59273,2.00582,-186,92197,22.6926,19119,255
2.41193,2.060784,-185,92198,22.5432,19119,255
1.84257,2.1458,-184,92199,22.6428,19119,255
2.01797,2.1458,-183,92200,22.4935,19119,255
1.90617,1.945481,-182,92201,22.6428,19119,255
2.24609,1.79406,-181,92202,22.3939,19119,255
1.88099,1.79406,-180,92203,22.6428,19115,253
2.3539,1.902888,-179,92204,22.5432,19115,253
1.83479,2.00582,-178,92205,22.6428,19115,253
1.79804,2.064396,-177,92206,22.6428,19115,253
2.08765,1.914598,-176,92207,22.6926,19115,253
0.793363,1.945481,-175,92208,22.4935,19115,253
1.88099,2.049909,-174,92209,22.4935,19115,253
1.69146,2.060784,-173,92210,22.4935,19115,253
0.697405,1.867317,-172,92211,22.7424,19115,253
0.507437,1.785735,-171,92212,22.6428,19115,253
2.33151,2.027984,-170,92213,22.4935,19118,256
1.44518,2.060784,-169,92214,22.5432,19118,256
1.4219,1.902888,-168,92215,22.4935,19118,256
1.59273,1.902888,-167,92216,22.6428,19118,256
1.1472,2.00582,-166,92217,22.5432,19118,256
1.22752,2.163091,-165,92218,22.4935,19118,256
1.56555,2.187069,-164,92219,22.3939,19118,256
1.25821,2.121356,-163,92220,22.5432,19118,256
1.36719,2.110793,-162,92221,22.8419,19118,256
1.83479,2.078783,-161,92222,22.3939,19118,256
1.39139,1.768967,-160,92223,22.6428,19118,254
0.768946,1.806476,-159,92224,22.3939,19118,254
1.37067,1.902888,-158,92225,22.6428,19118,254
1.01956,2.220875,-157,92226,22.4935,19118,254
1.4118,2.110793,-156,92227,22.5432,19118,254
1.19604,1.998377,-155,92228,22.5432,19118,254
1.28447,1.895041,-154,92229,22.4935,19118,254
1.5987,2.031655,-153,92230,22.3441,19118,254
1.00068,1.867317,-152,92231,22.6428,19118,254
2.09222,1.902888,-151,92232,22.5432,19118,254
1.87592,1.998377,-150,92233,22.5432,19118,252
0.98628,2.110793,-149,92234,22.3441,19118,252
0.931581,2.267355,-148,92235,22.4935,19118,252
1.86827,2.00582,-147,92236,22.6428,19118,252
1.68298,1.972106,-146,92237,22.5432,19118,252
2.65474,2.027984,-145,92238,22.5432,19118,252
1.09619,2.254173,-144,92239,22.5432,19118,252
1.73323,2.060784,-143,92240,22.6926,19118,252
1.6165,1.945481,-142,92241,22.6926,19118,252
1.65152,1.998377,-141,92242,22.5432,19118,252
1.70829,2.031655,-140,92243,22.3939,19123,256
0.926449,1.945481,-139,92244,22.4935,19123,256
1.13045,1.956936,-138,92245,22.5432,19123,256
2.11714,1.956936,-137,92246,22.6428,19123,256
1.99897,1.922365,-136,92247,22.5432,19123,256
1.69708,1.76475,-135,92248,22.4935,19123,256
1.89614,1.914598,-134,92249,22.5432,19123,256
2.32126,1.933957,-133,92250,22.6926,19123,256
0.655098,6.401421,-132,92251,22.6428,19123,256
0.507437,19.11716,-131,92252,22.5432,19123,256
0.560992,27.43732,-130,92253,22.8419,19118,249
0.662337,28.82126,-129,92254,22.4935,19118,249
0.662337,23.44608,-128,92255,22.3939,19118,249
1.01016,17.98747,-127,92256,22.6428,19118,249
0.710948,16.30724,-126,92257,22.6926,19118,249
0.85693,14.76849,-125,92258,22.5432,19118,249
0.750112,14.2697,-124,92259,22.5432,19118,249
0.625305,14.11272,-123,92260,22.4935,19118,249
0.85693,13.44603,-122,92261,22.6428,19118,249
0.292969,11.35844,-121,92262,22.6926,19118,249
0.569429,9.339775,-120,92263,22.3939,19121,252
1.19205,7.829647,-119,92264,22.6428,19121,252
0.365396,6.245898,-118,92265,22.6428,19121,252
0.218366,3.848604,-117,92266,22.3939,19121,252
0.365396,2.135358,-116,92267,22.6926,19121,252
1.00543,1.851288,-115,92268,22.3939,19121,252
1.09183,2.657659,-114,92269,22.6428,19121,252
0.365396,2.944907,-113,92270,22.3939,19121,252
0.436732,2.914389,-112,92271,22.6428,19121,252
0.750112,2.41995,-111,92272,22.6428,19121,252
0.577742,1.504984,-110,92273,22.5432,19115,254
1.17998,1.280284,-109,92274,22.3939,19115,254
0.811194,1.734945,-108,92275,22.6428,19115,254
0.683594,2.247553,-107,92276,22.5432,19115,254
0.717624,2.841906,-106,92277,22.6428,19115,254
0.961803,3.680374,-105,92278,22.4935,19115,254
0.585938,4.146799,-104,92279,22.6428,19115,254
0.750112,4.450128,-103,92280,22.6428,19115,254
0.981433,4.754478,-102,92281,22.7424,19115,254
0.59402,5.012321,-101,92282,22.6428,19115,254
0.365396,5.220558,-100,92283,22.3939,19119,254
0.569429,5.491808,-99,92284,22.6428,19119,254
0.793363,5.609924,-98,92285,22.8917,19119,254
1.27702,5.759339,-97,92286,22.6926,19119,254
1.09619,5.846646,-96,92287,22.8419,19119,254
1.13886,5.875882,-95,92288,22.3441,19119,254
0.632885,5.678566,-94,92289,22.3939,19119,254
0.811194,5.266029,-93,92290,22.4935,19119,254
1.21581,4.940456,-92,92291,22.6428,19119,254
0.323889,4.711977,-91,92292,22.5432,19119,254
1.3637,4.531424,-90,92293,22.6428,19119,249
0.683594,4.189698,-89,92294,22.4935,19119,249
0.525895,4.121568,-88,92295,22.6428,19119,249
1.22752,4.087077,-87,92296,22.3939,19119,249
1.05631,4.030169,-86,92297,22.6428,19119,249
1.19205,4.134203,-85,92298,22.4935,19119,249
1.28447,4.689788,-84,92299,22.6926,19119,249
0.534885,4.904128,-83,92300,22.4935,19119,249
0.625305,5.204835,-82,92301,22.4935,19119,249
1.09619,5.66543,-81,92302,22.8419,19119,249
0.239208,6.169081,-80,92303,22.5432,19118,254
0.717624,6.364068,-79,92304,22.6428,19118,254
0.497951,6.626743,-78,92305,22.4935,19118,254
0.577742,6.626743,-77,92306,22.6428,19118,254
0.534885,6.512197,-76,92307,22.2943,19118,254
0.834375,6.687181,-75,92308,22.4935,19118,254
0.704209,6.811917,-74,92309,22.3939,19118,254
0.921287,6.692749,-73,92310,22.5432,19118,254
0.690534,6.597446,-72,92311,22.6926,19118,254
0.525895,6.60309,-71,92312,22.6428,19118,254
1.07422,6.96229,-70,92313,22.3441,19115,256
1.19604,7.21042,-69,92314,22.5432,19115,256
0.41432,7.310983,-68,92315,22.6926,19115,256
0.534885,7.193868,-67,92316,22.6428,19115,256
0.239208,7.278298,-66,92317,22.6428,19115,256
0.793363,7.442286,-65,92318,22.6428,19115,256
0.76272,7.671029,-64,92319,22.6428,19115,256
0.488281,7.862882,-63,92320,22.6428,19115,256
0.436732,7.722334,-62,92321,22.6428,19115,256
0.488281,7.850554,-61,92322,22.3939,19115,256
0.41432,8.011198,-60,92323,22.5432,19117,257
1.09183,8.160471,-59,92324,22.6926,19117,257
0.218366,8.265702,-58,92325,22.3939,19117,257
0.497951,8.365157,-57,92326,22.5432,19117,257
0.552427,8.49069,-56,92327,22.6926,19117,257
0.768946,8.640302,-55,92328,22.6926,19117,257
0.981433,8.790758,-54,92329,22.3939,19117,257
0.59402,9.058736,-53,92330,22.6428,19117,257
0.811194,9.103041,-52,92331,22.5432,19117,257
0.239208,9.210446,-51,92332,22.3441,19117,257
0.851347,9.29259,-50,92333,22.4935,19115,255
0.632885,9.377193,-49,92334,22.3441,19115,255
1.11773,9.409713,-48,92335,22.5432,19115,255
0.78733,9.560529,-47,92336,22.4935,19115,255
0.365396,9.670558,-46,92337,22.5432,19115,255
0.905627,9.899744,-45,92338,22.7424,19115,255
0.507437,10.17293,-44,92339,22.5432,19115,255
1.32467,9.997104,-43,92340,22.5432,19115,255
1.17998,9.997104,-42,92341,22.5432,19115,255
1.34255,10.40752,-41,92342,22.6428,19115,255
0.497951,10.44112,-40,92343,22.7424,19117,250
0.323889,10.61099,-39,92344,22.6926,19117,250
1.36019,10.76021,-38,92345,22.3939,19117,250
1.00543,10.76021,-37,92346,22.4935,19117,250
0.793363,10.96528,-36,92347,22.6428,19117,250
1.11773,10.9714,-35,92348,22.5432,19117,250
0.78733,11.23776,-34,92349,22.6428,19117,250
1.25061,11.34991,-33,92350,22.3939,19117,250
1.77132,11.49861,-32,92351,22.5432,19117,250
0.365396,11.64796,-31,92352,22.5432,19117,250
0.900346,11.76127,-30,92353,22.5432,19116,254
0.697405,11.90608,-29,92354,22.6926,19116,254
0.817051,12.02501,-28,92355,22.4935,19116,254
0.981433,12.2934,-27,92356,22.3939,19116,254
0.365396,12.3948,-26,92357,22.3939,19116,254
0.966748,12.51384,-25,92358,22.6428,19116,254
0.425674,12.56316,-24,92359,22.4935,19116,254
0.905627,12.77313,-23,92360,22.6428,19116,254
0.878906,13.19602,-22,92361,22.3441,19116,254
1.0381,13.19602,-21,92362,22.3939,19116,254
0.525895,13.24561,-20,92363,22.6428,19113,251
0.617632,13.4183,-19,92364,22.4935,19113,251
0.497951,13.6293,-18,92365,22.4935,19113,251
0.793363,13.67514,-17,92366,22.4935,19113,251
0.169146,13.91494,-16,92367,22.6428,19113,251
0.352105,14.17751,-15,92368,22.4935,19113,251
0.447517,14.41722,-14,92369,22.5432,19113,251
1.41854,14.56018,-13,92370,22.4935,19113,251
0.497951,14.53457,-12,92371,22.6428,19113,251
0.862477,14.63521,-11,92372,22.2943,19113,251
0.921287,15.04291,-10,92373,22.6428,19119,253
1.11773,15.3338,-9,92374,22.4935,19119,253
1.18402,15.2827,-8,92375,22.5432,19119,253
0.447517,15.35662,-7,92376,22.6428,19119,253
1.19205,13.35764,-6,92377,22.5432,19119,253
2.94592,14.61789,-5,92378,22.6428,19119,253
6.55462,44.02577,-4,92379,22.5432,19119,253
10.144,71.79094,-3,92380,22.6428,19119,253
14.4128,107.992,-2,92381,22.6428,19119,253
20.2598,120.237,-1,92382,22.3441,19119,253
24.4823,153.4131,0,92383,22.5432,19118,253
23.8719,204.3441,1,92384,22.6428,19118,253
22.9444,218.6655,2,92385,22.6428,19118,253
18.7513,191.6217,3,92386,22.6428,19118,253
14.6057,151.7929,4,92387,22.8419,19118,253
11.5276,128.6318,5,92388,22.5432,19118,253
10.748,128.7037,6,92389,22.4935,19118,253
9.55785,149.5019,7,92390,22.5432,19118,253
7.97798,165.7455,8,92391,22.5432,19118,253
6.26296,164.5237,9,92392,22.6428,19118,253
6.11893,153.1333,10,92393,22.8419,19124,251
5.4905,125.4641,11,92394,22.2943,19124,251
2.84044,87.89156,12,92395,22.6428,19124,251
1.90867,69.03764,13,92396,22.5432,19124,251
1.46484,74.6797,14,92397,22.4935,19124,251
1.75238,82.41048,15,92398,22.6428,19124,251
1.19604,90.49429,16,92399,22.6428,19124,251
0.884315,89.60418,17,92400,22.4935,19124,251
1.34255,82.00091,18,92401,22.4935,19124,251
1.37067,75.5699,19,92402,22.6926,19124,251
0.98628,60.51118,20,92403,22.4935,19120,252
0.946812,39.80765,21,92404,22.4935,19120,252
1.04725,29.41109,22,92405,22.6428,19120,252
0.710948,33.00574,23,92406,22.5432,19120,252
1.46158,39.31763,24,92407,22.6428,19120,252
0.873464,45.23887,25,92408,22.3939,19120,252
1.24296,52.4131,26,92409,22.5432,19120,252
0.905627,58.83954,27,92410,22.4935,19120,252
1.00068,60.65777,28,92411,22.3441,19120,252
0.662337,55.27022,29,92412,22.6428,19120,252
0.292969,45.55333,30,92413,22.5432,19115,249
0.525895,38.2238,31,92414,22.5432,19115,249
1.1472,36.23063,32,92415,22.2943,19115,249
1.15135,38.29624,33,92416,22.6428,19115,249
1.05631,42.97378,34,92417,22.5432,19115,249
0.76272,48.73664,35,92418,22.5432,19115,249
0.655098,52.56952,36,92419,22.5432,19115,249
0.921287,54.86921,37,92420,22.6926,19115,249
0.768946,57.10621,38,92421,22.3441,19115,249
1.17594,58.90952,39,92422,22.3441,19115,249
0.601994,60.17522,40,92423,22.3939,19117,254
1.1472,60.9126,41,92424,22.5432,19117,254
0.507437,62.01713,42,92425,22.3939,19117,254
0.926449,63.81838,43,92426,22.6428,19117,254
0.560992,65.54414,44,92427,22.6428,19117,254
0.655098,67.00204,45,92428,22.6428,19117,254
1.44518,66.13587,46,92429,22.6428,19117,254
0.655098,64.66709,47,92430,22.5432,19117,254
0.845728,63.03676,48,92431,22.4935,19117,254
0.98628,61.02466,49,92432,22.6428,19117,254
1.37415,58.20412,50,92433,22.3441,19121,254
1.54099,55.08091,51,92434,22.5432,19121,254
0.525895,51.88563,52,92435,22.6428,19121,254
1.02423,48.40284,53,92436,22.6926,19121,254
0.961803,45.22635,54,92437,22.6428,19121,254
1.17594,42.16323,55,92438,22.4935,19121,254
1.02423,39.589,56,92439,22.5432,19121,254
1.45176,37.4368,57,92440,22.5432,19121,254
0.478416,36.20553,58,92441,22.5432,19121,254
0.478416,35.7843,59,92442,22.4935,19121,254
0.365396,35.85336,60,92443,22.5432,19117,254
0.292969,36.18185,61,92444,22.4935,19117,254
0.497951,36.79666,62,92445,22.6428,19117,254
0.793363,37.41888,63,92446,22.5432,19117,254
0.632885,37.81146,64,92447,22.6926,19117,254
0.981433,38.61804,65,92448,22.5432,19117,254
1.11773,39.73009,66,92449,22.3939,19117,254
1.07865,40.83357,67,92450,22.6926,19117,254
1.57163,41.88204,68,92451,22.6926,19117,254
1.31745,42.71728,69,92452,22.7424,19117,254
0.840071,43.55619,70,92453,22.6428,19117,251
0.981433,44.51434,71,92454,22.5432,19117,251
0.971667,44.90645,72,92455,22.5432,19117,251
0.717624,45.24513,73,92456,22.6428,19117,251
0.308816,45.54564,74,92457,22.6926,19117,251
1.25061,45.5651,75,92458,22.6428,19117,251
0.683594,45.3019,76,92459,22.4935,19117,251
1.01956,45.18861,77,92460,22.6428,19117,251
0.497951,44.92403,78,92461,22.4935,19117,251
0.585938,44.73523,79,92462,22.5432,19117,251
0.577742,44.62517,80,92463,22.4935,19114,255
0.507437,44.1763,81,92464,22.5432,19114,255
0.981433,44.04743,82,92465,22.3939,19114,255
0.560992,43.66826,83,92466,22.5432,19114,255
0.632885,43.51528,84,92467,22.6428,19114,255
0.921287,43.17822,85,92468,22.4935,19114,255
0.85693,42.57402,86,92469,22.4935,19114,255
0.834375,42.30753,87,92470,22.6926,19114,255
1.10916,42.10152,88,92471,22.4935,19114,255
1.02423,41.9897,89,92472,22.8419,19114,255
0.768946,41.74376,90,92473,22.6428,19117,253
0.458048,41.66838,91,92474,22.3441,19117,253
0.662337,41.59195,92,92475,22.4935,19117,253
0.138107,41.77927,93,92476,22.5432,19117,253
1.18402,41.74359,94,92477,22.3441,19117,253
0.632885,42.08364,95,92478,22.4935,19117,253
0.647778,42.19503,96,92479,22.5432,19117,253
0.308816,42.17719,97,92480,22.4935,19117,253
0.478416,42.27142,98,92481,22.4935,19117,253
0.625305,42.18002,99,92482,22.6926,19117,253
0.981433,42.2238,100,92483,22.4935,19122,253
