Linear acceleration,Rotational velocity,Time values,Absolute time values,Temperature,Ambient light,Reflected light
1.59572,27.25013,-2000,8620,36.084,9347,1843
2.86051,27.01562,-1999,8621,35.7853,9347,1843
1.49066,26.91976,-1998,8622,36.0342,9347,1843
1.9335,26.469,-1997,8623,35.9844,9353,1847
1.54099,25.68413,-1996,8624,35.8849,9353,1847
2.31303,24.93165,-1995,8625,36.0342,9353,1847
1.77132,24.62162,-1994,8626,35.8849,9353,1847
0.828641,24.27389,-1993,8627,35.8849,9353,1847
2.43358,23.73758,-1992,8628,35.9844,9353,1847
1.4118,23.11259,-1991,8629,36.0342,9353,1847
1.69427,22.76832,-1990,8630,35.8849,9353,1847
0.828641,22.42442,-1989,8631,35.9844,9353,1847
1.89865,22.48845,-1988,8632,35.8849,9353,1847
2.04845,22.69096,-1987,8633,36.084,9351,1847
1.07865,23.48228,-1986,8634,36.084,9351,1847
1.65728,24.29475,-1985,8635,35.8351,9351,1847
1.15548,24.74447,-1984,8636,35.9844,9351,1847
1.54717,25.30391,-1983,8637,36.0342,9351,1847
1.90617,26.04993,-1982,8638,36.084,9351,1847
0.921287,27.10868,-1981,8639,35.9844,9351,1847
0.878906,28.72182,-1980,8640,36.084,9351,1847
0.805294,30.66784,-1979,8641,35.7853,9351,1847
2.08994,32.35784,-1978,8642,35.8849,9351,1847
0.552427,33.41807,-1977,8643,36.1836,9333,1857
1.95556,33.85686,-1976,8644,36.0342,9333,1857
1.71664,33.8366,-1975,8645,35.9844,9333,1857
1.70269,33.91996,-1974,8646,35.9844,9333,1857
1.4219,34.15919,-1973,8647,35.8351,9333,1857
1.10916,34.72702,-1972,8648,36.2334,9333,1857
1.67446,35.45843,-1971,8649,35.9844,9333,1857
1.39139,35.74993,-1970,8650,36.1836,9333,1857
3.23447,35.74743,-1969,8651,36.0342,9333,1857
2.21832,36.13982,-1968,8652,35.8351,9333,1857
1.02423,37.07925,-1967,8653,35.9844,9345,1870
1.37415,38.52474,-1966,8654,36.0342,9345,1870
1.3102,40.29504,-1965,8655,36.0342,9345,1870
1.07422,42.00425,-1964,8656,36.0342,9345,1870
1.09619,43.64129,-1963,8657,35.9844,9345,1870
1.84516,44.88869,-1962,8658,35.9844,9345,1870
1.43525,44.86794,-1961,8659,35.8351,9345,1870
2.0762,44.13884,-1960,8660,35.9844,9345,1870
5.50525,43.83463,-1959,8661,35.8849,9345,1870
2.72564,44.25903,-1958,8662,36.0342,9345,1870
1.44518,45.63193,-1957,8663,35.9844,9352,1873
2.4974,47.09035,-1956,8664,36.084,9352,1873
1.56859,47.79376,-1955,8665,35.9844,9352,1873
2.27981,47.89203,-1954,8666,36.084,9352,1873
1.6165,47.49037,-1953,8667,35.8849,9352,1873
0.98628,46.85242,-1952,8668,35.9844,9352,1873
1.53789,47.02687,-1951,8669,36.084,9352,1873
1.52544,47.12641,-1950,8670,35.9844,9352,1873
1.63993,47.19735,-1949,8671,36.084,9352,1873
1.70829,46.87087,-1948,8672,35.9844,9352,1873
1.40163,46.53585,-1947,8673,36.1836,9354,1867
0.961803,46.20486,-1946,8674,36.0342,9354,1867
1.80334,45.85703,-1945,8675,35.8849,9354,1867
1.17998,45.47983,-1944,8676,35.9844,9354,1867
1.87592,44.95255,-1943,8677,36.0342,9354,1867
0.534885,44.70408,-1942,8678,35.8849,9354,1867
1.86572,44.38293,-1941,8679,36.0342,9354,1867
1.92856,44.3485,-1940,8680,35.9844,9354,1867
1.82698,44.27199,-1939,8681,35.9844,9354,1867
1.98461,44.30278,-1938,8682,36.0342,9354,1867
1.9918,43.91648,-1937,8683,35.9844,9336,1873
0.640375,43.42925,-1936,8684,36.0342,9336,1873
1.48103,43.17581,-1935,8685,36.084,9336,1873
1.20399,42.97291,-1934,8686,35.9844,9336,1873
1.46484,42.54811,-1933,8687,36.0342,9336,1873
2.19455,42.10612,-1932,8688,35.8849,9336,1873
1.34255,41.69948,-1931,8689,36.0342,9336,1873
0.921287,41.18639,-1930,8690,35.9844,9336,1873
1.14304,40.67745,-1929,8691,35.8849,9336,1873
5.15455,39.96642,-1928,8692,35.9844,9336,1873
2.56522,39.16517,-1927,8693,35.9844,9337,1881
1.73047,38.34368,-1926,8694,35.9844,9337,1881
1.70549,37.62024,-1925,8695,35.9844,9337,1881
1.77132,36.92682,-1924,8696,35.8849,9337,1881
1.42525,36.22775,-1923,8697,35.8849,9337,1881
0.878906,35.66229,-1922,8698,35.8849,9337,1881
1.50022,35.1768,-1921,8699,35.8849,9337,1881
1.82698,34.82514,-1920,8700,36.084,9337,1881
1.84516,34.49064,-1919,8701,36.084,9337,1881
1.68863,34.08495,-1918,8702,35.9844,9337,1881
1.57769,33.85267,-1917,8703,35.9844,9354,1888
1.3029,33.55557,-1916,8704,36.0342,9354,1888
2.25668,33.45172,-1915,8705,35.8849,9354,1888
2.41193,33.1517,-1914,8706,35.9844,9354,1888
1.02423,32.98994,-1913,8707,35.8351,9354,1888
0.905627,32.92732,-1912,8708,35.7853,9354,1888
1.66303,32.5946,-1911,8709,36.0342,9354,1888
1.33185,32.39834,-1910,8710,35.9844,9354,1888
1.00068,32.47093,-1909,8711,35.9844,9354,1888
1.18402,32.45165,-1908,8712,36.0342,9354,1888
1.6165,32.45372,-1907,8713,35.9844,9354,1893
1.63702,32.63504,-1906,8714,35.9844,9354,1893
1.4118,32.86504,-1905,8715,36.0342,9354,1893
1.89865,33.13799,-1904,8716,35.9844,9354,1893
2.05543,33.94455,-1903,8717,35.8849,9354,1893
1.42525,35.20242,-1902,8718,35.8351,9354,1893
1.92856,36.3749,-1901,8719,36.084,9354,1893
2.3539,37.51672,-1900,8720,36.084,9354,1893
1.41517,38.8851,-1899,8721,36.0342,9354,1893
1.17594,40.47933,-1898,8722,36.084,9354,1893
0.169146,42.11709,-1897,8723,35.9844,9317,1890
1.83739,43.6645,-1896,8724,35.9844,9317,1890
1.67161,45.16948,-1895,8725,35.9844,9317,1890
0.750112,46.62223,-1894,8726,36.0342,9317,1890
1.61355,48.24373,-1893,8727,35.9844,9317,1890
1.95556,49.78883,-1892,8728,36.0342,9317,1890
1.25061,51.16872,-1891,8729,35.9844,9317,1890
1.34255,52.63496,-1890,8730,35.7853,9317,1890
1.88858,54.29989,-1889,8731,35.9844,9317,1890
1.68581,55.57753,-1888,8732,36.0342,9317,1890
2.24822,57.29313,-1887,8733,35.8849,9319,1893
1.84257,58.75489,-1886,8734,36.0342,9319,1893
1.92608,60.19577,-1885,8735,35.9844,9319,1893
1.92112,61.51278,-1884,8736,36.084,9319,1893
1.05631,62.70126,-1883,8737,36.0342,9319,1893
2.15287,63.65578,-1882,8738,35.9844,9319,1893
2.79986,64.8029,-1881,8739,36.084,9319,1893
1.53168,66.2203,-1880,8740,35.7853,9319,1893
1.98461,67.6557,-1879,8741,35.9844,9319,1893
2.1771,68.88985,-1878,8742,36.084,9319,1893
1.6341,70.18555,-1877,8743,36.1836,9350,1893
0.921287,71.32563,-1876,8744,35.9844,9350,1893
1.0381,72.08115,-1875,8745,35.9844,9350,1893
1.41854,72.82412,-1874,8746,35.9844,9350,1893
1.06977,73.33876,-1873,8747,36.1836,9350,1893
1.09619,73.69449,-1872,8748,36.084,9350,1893
1.77132,73.56506,-1871,8749,35.7853,9350,1893
1.17998,73.41309,-1870,8750,35.9844,9350,1893
2.06237,72.94393,-1869,8751,35.9844,9350,1893
2.39407,72.47657,-1868,8752,35.9844,9350,1893
2.09677,71.59463,-1867,8753,35.7853,9354,1890
1.49385,70.44673,-1866,8754,36.1836,9354,1890
2.08079,69.67756,-1865,8755,36.0342,9354,1890
1.31383,68.89136,-1864,8756,35.8351,9354,1890
2.0156,67.70777,-1863,8757,35.8849,9354,1890
1.82437,66.38583,-1862,8758,35.9844,9354,1890
1.96287,65.08008,-1861,8759,36.0342,9354,1890
3.32605,64.32596,-1860,8760,36.084,9354,1890
1.32467,63.23784,-1859,8761,35.8849,9354,1890
2.05543,62.30682,-1858,8762,36.0342,9354,1890
1.31745,61.88772,-1857,8763,35.8849,9349,1886
5.34618,61.71183,-1856,8764,36.084,9349,1886
1.67446,62.84357,-1855,8765,36.0342,9349,1886
1.76323,64.1845,-1854,8766,35.9844,9349,1886
1.95556,65.01066,-1853,8767,36.0342,9349,1886
2.20323,65.62491,-1852,8768,36.1836,9349,1886
2.84547,65.36623,-1851,8769,36.0342,9349,1886
1.93842,64.7914,-1850,8770,36.084,9349,1886
1.13045,64.68863,-1849,8771,35.8849,9349,1886
2.40203,65.18338,-1848,8772,36.0342,9349,1886
2.32332,65.47715,-1847,8773,35.9844,9328,1887
4.36076,64.78772,-1846,8774,35.8849,9328,1887
1.42525,64.47867,-1845,8775,36.084,9328,1887
2.79815,64.44029,-1844,8776,35.9844,9328,1887
1.79804,63.68246,-1843,8777,35.9844,9328,1887
1.11773,62.39226,-1842,8778,35.9844,9328,1887
2.25668,60.89535,-1841,8779,36.1836,9328,1887
1.19205,59.71846,-1840,8780,36.0342,9328,1887
2.13284,59.53253,-1839,8781,35.9844,9328,1887
1.46484,60.26986,-1838,8782,35.9844,9328,1887
0.737289,61.48007,-1837,8783,35.6857,9328,1887
2.83203,62.14626,-1836,8784,35.9844,9328,1887
2.51263,62.28912,-1835,8785,35.9844,9328,1887
1.73323,62.24557,-1834,8786,35.7853,9328,1887
2.1771,63.0325,-1833,8787,35.9844,9328,1887
2.76386,64.7937,-1832,8788,35.8351,9328,1887
2.54282,67.13212,-1831,8789,35.9844,9328,1887
1.35668,69.46863,-1830,8790,36.084,9328,1887
2.23759,71.55257,-1829,8791,35.9844,9328,1887
1.4681,73.81803,-1828,8792,35.9844,9328,1887
1.84516,76.44887,-1827,8793,36.084,9327,1882
2.60945,79.66965,-1826,8794,35.9844,9327,1882
2.00374,82.6882,-1825,8795,36.0342,9327,1882
1.38452,85.97373,-1824,8796,35.9844,9327,1882
1.28447,89.10247,-1823,8797,36.2334,9327,1882
1.57769,92.13551,-1822,8798,35.9844,9327,1882
1.11773,95.24504,-1821,8799,36.0342,9327,1882
0.921287,98.12342,-1820,8800,36.0342,9327,1882
2.32332,100.8245,-1819,8801,36.084,9327,1882
1.67446,103.52,-1818,8802,35.9844,9327,1882
0.717624,105.8676,-1817,8803,35.9844,9339,1888
1.94088,108.0242,-1816,8804,35.9844,9339,1888
4.68445,110.4142,-1815,8805,35.8849,9339,1888
1.22752,113.0001,-1814,8806,36.0342,9339,1888
0.862477,115.332,-1813,8807,36.0342,9339,1888
1.57769,117.701,-1812,8808,35.9844,9339,1888
1.21188,119.545,-1811,8809,35.8849,9339,1888
1.85547,121.0217,-1810,8810,36.0342,9339,1888
2.22262,122.493,-1809,8811,36.0342,9339,1888
1.61355,123.9376,-1808,8812,35.9844,9339,1888
1.53168,125.2739,-1807,8813,35.8351,9352,1881
1.49704,126.8633,-1806,8814,36.1836,9352,1881
1.98701,127.8352,-1805,8815,36.0342,9352,1881
1.32467,128.2574,-1804,8816,35.7853,9352,1881
1.63702,128.6481,-1803,8817,36.084,9352,1881
1.79273,128.9591,-1802,8818,35.9844,9352,1881
1.02423,129.0111,-1801,8819,35.8849,9352,1881
1.81388,129.198,-1800,8820,36.2334,9352,1881
1.70829,129.1257,-1799,8821,35.8351,9352,1881
1.05179,128.999,-1798,8822,35.9844,9352,1881
1.86572,128.5621,-1797,8823,35.9844,9340,1882
2.0716,128.1332,-1796,8824,36.0342,9340,1882
1.37415,127.2331,-1795,8825,35.9844,9340,1882
1.60466,126.5393,-1794,8826,35.9844,9340,1882
1.82698,125.5186,-1793,8827,36.0342,9340,1882
1.54408,124.4382,-1792,8828,36.0342,9340,1882
2.8986,123.0764,-1791,8829,35.7853,9340,1882
0.78733,121.6759,-1790,8830,35.9844,9340,1882
2.30063,120.0463,-1789,8831,36.084,9340,1882
1.11773,118.236,-1788,8832,36.1836,9340,1882
1.96529,115.9578,-1787,8833,35.9844,9342,1876
1.54099,114.0563,-1786,8834,36.084,9342,1876
1.36719,111.7139,-1785,8835,35.9844,9342,1876
0.926449,109.3522,-1784,8836,35.9844,9342,1876
1.66016,106.9945,-1783,8837,36.0342,9342,1876
1.43857,103.9421,-1782,8838,36.0342,9342,1876
2.09677,100.9593,-1781,8839,35.9844,9342,1876
1.80598,98.07451,-1780,8840,35.8849,9342,1876
2.38609,95.65111,-1779,8841,36.0342,9342,1876
1.32827,92.10575,-1778,8842,36.084,9342,1876
1.05631,87.52884,-1777,8843,35.9844,9354,1871
1.71664,82.32111,-1776,8844,35.9844,9354,1871
1.1596,77.56471,-1775,8845,35.9844,9354,1871
1.96529,73.30706,-1774,8846,36.084,9354,1871
0.276214,70.28431,-1773,8847,35.9844,9354,1871
2.21187,68.02033,-1772,8848,35.8849,9354,1871
2.32946,64.78185,-1771,8849,36.084,9354,1871
1.55332,60.00398,-1770,8850,35.9844,9354,1871
1.90116,53.86013,-1769,8851,36.0342,9354,1871
0.828641,48.36173,-1768,8852,36.084,9354,1871
1.68298,45.34267,-1767,8853,35.9844,9355,1867
1.07422,46.81026,-1766,8854,36.084,9355,1867
1.01487,52.23939,-1765,8855,36.0342,9355,1867
3.1143,58.18351,-1764,8856,35.9844,9355,1867
0.534885,61.62919,-1763,8857,35.8849,9355,1867
1.75781,61.5692,-1762,8858,36.0342,9355,1867
1.09183,59.6829,-1761,8859,35.9844,9355,1867
1.47458,58.3514,-1760,8860,35.9844,9355,1867
1.5807,58.68383,-1759,8861,35.8351,9355,1867
1.70549,61.49146,-1758,8862,35.9844,9355,1867
1.68581,65.77891,-1757,8863,35.8849,9329,1857
2.32332,70.47602,-1756,8864,35.8849,9329,1857
2.0693,75.04952,-1755,8865,35.9844,9329,1857
1.4118,79.6734,-1754,8866,35.9844,9329,1857
1.37415,82.98429,-1753,8867,36.084,9329,1857
1.88606,85.68449,-1752,8868,36.0342,9329,1857
0.577742,88.41734,-1751,8869,36.1836,9329,1857
1.3637,90.64927,-1750,8870,35.9844,9329,1857
1.09183,92.04636,-1749,8871,35.8849,9329,1857
2.01324,93.33623,-1748,8872,36.084,9329,1857
1.4219,94.75684,-1747,8873,35.9844,9329,1863
0.793363,95.9756,-1746,8874,35.8849,9329,1863
1.77401,96.2014,-1745,8875,35.9844,9329,1863
3.98481,95.13672,-1744,8876,35.9844,9329,1863
2.05078,93.48586,-1743,8877,35.9844,9329,1863
1.07865,92.74541,-1742,8878,35.8849,9329,1863
1.17998,92.95292,-1741,8879,35.9844,9329,1863
1.17998,94.42137,-1740,8880,35.8849,9329,1863
1.07865,96.36823,-1739,8881,35.9844,9329,1863
1.07865,98.49297,-1738,8882,35.9844,9329,1863
1.98461,100.2831,-1737,8883,36.0342,9354,1864
0.78733,101.6333,-1736,8884,36.1836,9354,1864
1.55638,103.2337,-1735,8885,36.084,9354,1864
1.78206,105.0198,-1734,8886,35.9844,9354,1864
3.36595,106.6999,-1733,8887,35.9844,9354,1864
1.47781,108.3195,-1732,8888,36.084,9354,1864
1.85547,109.4925,-1731,8889,35.9844,9354,1864
2.20539,111.0392,-1730,8890,35.9844,9354,1864
1.70829,113.5079,-1729,8891,36.084,9354,1864
1.57769,116.8392,-1728,8892,36.2334,9354,1864
0.534885,120.0431,-1727,8893,35.8849,9357,1866
1.57769,123.3136,-1726,8894,36.2334,9357,1866
1.7767,125.874,-1725,8895,35.9844,9357,1866
1.80334,128.0245,-1724,8896,35.9844,9357,1866
2.14177,129.9021,-1723,8897,35.9844,9357,1866
2.04379,131.8255,-1722,8898,36.084,9357,1866
1.25442,134.5464,-1721,8899,35.7853,9357,1866
1.66589,138.0971,-1720,8900,35.8849,9357,1866
3.08507,141.9624,-1719,8901,35.9844,9357,1866
1.49385,145.1234,-1718,8902,35.7853,9357,1866
2.1771,148.2185,-1717,8903,36.0342,9343,1865
2.59479,151.2231,-1716,8904,36.0342,9343,1865
1.14304,154.1074,-1715,8905,36.0342,9343,1865
2.32332,156.8919,-1714,8906,35.6857,9343,1865
2.1573,159.1664,-1713,8907,36.084,9343,1865
1.97739,160.9606,-1712,8908,36.1836,9343,1865
1.10916,162.5175,-1711,8909,35.9844,9343,1865
0.793363,163.9655,-1710,8910,35.9844,9343,1865
1.28817,165.2447,-1709,8911,35.8849,9343,1865
0.768946,166.3323,-1708,8912,35.7853,9343,1865
2.56522,167.2473,-1707,8913,35.9844,9336,1865
1.84516,167.7235,-1706,8914,35.9844,9336,1865
1.4118,167.9571,-1705,8915,36.084,9336,1865
1.62826,167.6518,-1704,8916,35.9844,9336,1865
3.58679,167.0558,-1703,8917,36.1836,9336,1865
1.27328,166.069,-1702,8918,36.0342,9336,1865
2.16392,164.5863,-1701,8919,35.9844,9336,1865
2.55777,162.8896,-1700,8920,36.084,9336,1865
2.30684,160.9705,-1699,8921,36.0342,9336,1865
1.80334,158.7344,-1698,8922,35.9844,9336,1865
1.64863,156.0799,-1697,8923,35.9844,9351,1858
1.89362,154.0128,-1696,8924,35.9844,9351,1858
1.24296,151.8295,-1695,8925,35.9844,9351,1858
1.44518,149.174,-1694,8926,35.7853,9351,1858
0.926449,146.6426,-1693,8927,35.8351,9351,1858
1.62532,144.1138,-1692,8928,35.8849,9351,1858
1.62826,141.0045,-1691,8929,36.084,9351,1858
2.41391,138.0825,-1690,8930,35.8849,9351,1858
0.402647,135.5293,-1689,8931,35.9844,9351,1858
2.954,132.7843,-1688,8932,35.7853,9351,1858
1.28447,129.7437,-1687,8933,35.9844,9358,1855
1.6165,127.4004,-1686,8934,35.8849,9358,1855
1.80334,125.042,-1685,8935,35.9844,9358,1855
1.83739,122.4043,-1684,8936,35.9844,9358,1855
0.169146,119.417,-1683,8937,35.8849,9358,1855
1.92856,117.609,-1682,8938,35.9844,9358,1855
1.74966,118.1898,-1681,8939,35.9844,9358,1855
1.02423,117.9027,-1680,8940,35.8849,9358,1855
1.6341,114.0222,-1679,8941,36.0342,9358,1855
1.80598,108.6182,-1678,8942,35.9844,9358,1855
1.28817,105.6879,-1677,8943,36.0342,9358,1853
1.99897,104.5089,-1676,8944,35.6857,9358,1853
1.4118,103.5384,-1675,8945,35.8849,9358,1853
2.08994,102.4051,-1674,8946,35.9844,9358,1853
2.02269,101.0507,-1673,8947,35.9844,9358,1853
1.20794,100.0157,-1672,8948,36.0342,9358,1853
1.42859,98.01554,-1671,8949,35.9844,9358,1853
2.08079,96.17762,-1670,8950,36.0342,9358,1853
2.22905,95.70001,-1669,8951,36.0342,9358,1853
1.25442,95.8988,-1668,8952,35.9844,9358,1853
1.28447,96.37998,-1667,8953,35.7853,9342,1850
1.58973,97.4245,-1666,8954,36.0342,9342,1850
1.96529,98.70176,-1665,8955,35.9844,9342,1850
2.37206,100.0689,-1664,8956,36.1836,9342,1850
1.89865,101.9622,-1663,8957,36.1836,9342,1850
3.21228,104.7919,-1662,8958,35.8849,9342,1850
0.966748,107.8199,-1661,8959,35.8351,9342,1850
0.981433,110.5676,-1660,8960,35.9844,9342,1850
1.51603,113.768,-1659,8961,35.9844,9342,1850
1.5807,116.8488,-1658,8962,36.0342,9342,1850
1.88099,119.3991,-1657,8963,36.1836,9347,1857
1.10916,121.7655,-1656,8964,35.9844,9347,1857
2.12164,124.377,-1655,8965,35.9844,9347,1857
1.42859,126.9903,-1654,8966,36.0342,9347,1857
0.878906,130.2783,-1653,8967,35.7853,9347,1857
3.5224,133.8341,-1652,8968,35.8849,9347,1857
2.58559,136.9954,-1651,8969,36.0342,9347,1857
1.87592,140.003,-1650,8970,35.9844,9347,1857
0.884315,143.2058,-1649,8971,36.1836,9347,1857
1.23912,146.0568,-1648,8972,35.9844,9347,1857
0.905627,149.0453,-1647,8973,35.8849,9358,1853
1.24296,152.1277,-1646,8974,35.8849,9358,1853
1.96287,155.6155,-1645,8975,36.084,9358,1853
1.80334,159.4889,-1644,8976,36.0342,9358,1853
2.06237,163.0654,-1643,8977,35.7853,9358,1853
0.840071,166.6416,-1642,8978,36.084,9358,1853
1.19604,170.0971,-1641,8979,36.0342,9358,1853
0.710948,173.2821,-1640,8980,35.9844,9358,1853
1.83739,176.5166,-1639,8981,36.1836,9358,1853
1.56859,180.1045,-1638,8982,36.084,9358,1853
2.47824,184.5613,-1637,8983,36.084,9359,1851
2.21187,188.4592,-1636,8984,36.1836,9359,1851
2.26091,191.4581,-1635,8985,36.1836,9359,1851
1.89865,194.059,-1634,8986,36.2334,9359,1851
1.70829,196.8042,-1633,8987,36.0342,9359,1851
1.57769,199.8716,-1632,8988,36.084,9359,1851
3.56278,203.4448,-1631,8989,36.1836,9359,1851
0.971667,206.6026,-1630,8990,36.0342,9359,1851
0.926449,209.6551,-1629,8991,36.0342,9359,1851
2.06006,212.5836,-1628,8992,35.7853,9359,1851
0.995902,216.6223,-1627,8993,36.1836,9331,1842
0.878906,221.7785,-1626,8994,35.8849,9331,1842
1.9942,224.3961,-1625,8995,35.9844,9331,1842
1.3029,222.8915,-1624,8996,36.0342,9331,1842
1.69708,221.1668,-1623,8997,36.0342,9331,1842
1.89362,222.544,-1622,8998,35.8849,9331,1842
4.34104,224.3319,-1621,8999,35.8849,9331,1842
2.56893,222.9651,-1620,9000,36.1836,9331,1842
0.676582,220.0635,-1619,9001,36.084,9331,1842
1.52856,219.6897,-1618,9002,35.7853,9331,1842
1.27702,221.4557,-1617,9003,36.0342,9336,1835
1.06082,222.0545,-1616,9004,35.9844,9336,1835
1.15135,221.7435,-1615,9005,36.0342,9336,1835
0.926449,221.2287,-1614,9006,36.0342,9336,1835
1.77938,219.9192,-1613,9007,36.084,9336,1835
1.38452,218.7592,-1612,9008,35.9844,9336,1835
2.3539,218.4559,-1611,9009,36.084,9336,1835
1.95556,217.3965,-1610,9010,36.0342,9336,1835
0.862477,217.4391,-1609,9011,35.8849,9336,1835
0.889691,219.6858,-1608,9012,36.084,9336,1835
1.57163,222.8658,-1607,9013,35.9844,9354,1820
1.76323,225.2617,-1606,9014,35.7853,9354,1820
2.15951,231.4391,-1605,9015,35.9844,9354,1820
2.17052,235.5721,-1604,9016,36.0342,9354,1820
1.98701,234.9982,-1603,9017,35.8351,9354,1820
0.793363,230.8955,-1602,9018,36.0342,9354,1820
1.68863,227.0541,-1601,9019,36.0342,9354,1820
1.45505,229.1993,-1600,9020,35.7853,9354,1820
1.6165,231.6185,-1599,9021,36.0342,9354,1820
1.17594,226.6246,-1598,9022,35.9844,9354,1820
1.43525,231.1052,-1597,9023,35.8849,9357,1821
2.0739,242.4697,-1596,9024,35.9844,9357,1821
1.73323,245.755,-1595,9025,36.0342,9357,1821
2.34985,236.975,-1594,9026,36.0342,9357,1821
2.0716,232.168,-1593,9027,36.2334,9357,1821
1.69708,249.67,-1592,9028,35.8351,9357,1821
1.73323,266.8958,-1591,9029,36.1836,9357,1821
4.54075,269.5931,-1590,9030,36.0342,9357,1821
1.92361,275.4322,-1589,9031,36.0342,9357,1821
2.06237,294.8111,-1588,9032,35.9844,9357,1821
2.24609,314.634,-1587,9033,36.084,9298,1819
2.05543,321.4478,-1586,9034,35.7853,9298,1819
2.18584,319.4009,-1585,9035,36.0342,9298,1819
2.48976,325.4232,-1584,9036,36.0342,9298,1819
2.08994,340.7093,-1583,9037,35.9844,9298,1819
2.00136,359.0982,-1582,9038,35.8849,9298,1819
1.59273,375.4329,-1581,9039,36.0342,9298,1819
1.89865,381.8745,-1580,9040,36.2334,9298,1819
2.24822,383.7549,-1579,9041,36.0342,9298,1819
1.57769,391.6246,-1578,9042,35.9844,9298,1819
1.68298,409.0383,-1577,9043,36.0342,9330,1820
2.01324,426.2037,-1576,9044,35.8351,9330,1820
2.69397,437.8107,-1575,9045,35.9844,9330,1820
2.50122,446.6453,-1574,9046,35.9844,9330,1820
1.97739,457.4694,-1573,9047,35.7853,9330,1820
2.09222,470.4441,-1572,9048,36.1836,9330,1820
1.70829,484.2144,-1571,9049,35.9844,9330,1820
2.45892,494.7018,-1570,9050,35.7853,9330,1820
1.74966,503.2439,-1569,9051,36.0342,9330,1820
2.18584,513.8371,-1568,9052,35.9844,9330,1820
2.62221,526.5896,-1567,9053,35.9844,9382,1847
2.14177,538.4773,-1566,9054,36.1836,9382,1847
1.85547,549.7097,-1565,9055,35.9844,9382,1847
1.31745,562.1503,-1564,9056,35.9844,9382,1847
2.75695,569.6193,-1563,9057,35.6857,9382,1847
2.28607,578.1225,-1562,9058,35.9844,9382,1847
2.13508,591.3362,-1561,9059,36.084,9382,1847
1.09183,601.7235,-1560,9060,36.084,9382,1847
1.49066,608.2137,-1559,9061,35.9844,9382,1847
2.85884,613.1787,-1558,9062,35.8849,9382,1847
0.292969,620.5159,-1557,9063,35.7853,9354,1905
2.19672,633.1633,-1556,9064,35.9844,9354,1905
1.82698,643.6425,-1555,9065,35.8849,9354,1905
1.33185,647.5289,-1554,9066,36.0342,9354,1905
2.20323,647.4705,-1553,9067,35.9844,9354,1905
1.80598,647.5848,-1552,9068,36.0342,9354,1905
1.79273,649.8235,-1551,9069,36.2334,9354,1905
1.73047,652.1517,-1550,9070,35.9844,9354,1905
2.04146,653.1433,-1549,9071,35.7853,9354,1905
1.65152,653.3125,-1548,9072,35.9844,9354,1905
1.37067,653.5616,-1547,9073,35.7853,9353,1911
1.60466,654.3018,-1546,9074,35.9844,9353,1911
2.70809,654.5843,-1545,9075,36.0342,9353,1911
2.48784,653.6013,-1544,9076,35.9844,9353,1911
1.53168,651.2161,-1543,9077,36.084,9353,1911
1.60168,648.7106,-1542,9078,36.0342,9353,1911
2.60579,646.9075,-1541,9079,35.9844,9353,1911
1.28447,644.6098,-1540,9080,35.9844,9353,1911
3.0068,641.0095,-1539,9081,36.084,9353,1911
2.01797,636.8402,-1538,9082,35.9844,9353,1911
2.01324,633.5247,-1537,9083,36.084,9334,1859
2.09677,631.0749,-1536,9084,36.084,9334,1859
2.03444,629.132,-1535,9085,35.9844,9334,1859
1.27328,626.4558,-1534,9086,36.0342,9334,1859
1.88858,632.9224,-1533,9087,36.084,9334,1859
1.97498,678.3152,-1532,9088,35.9844,9334,1859
1.60168,701.452,-1531,9089,35.8849,9334,1859
1.67161,672.6964,-1530,9090,36.2334,9334,1859
1.96287,651.1852,-1529,9091,36.084,9334,1859
1.77132,641.8661,-1528,9092,36.0342,9334,1859
1.85804,623.6233,-1527,9093,35.9844,9344,1866
1.62239,599.1408,-1526,9094,35.9844,9344,1866
1.97739,570.3322,-1525,9095,36.0342,9344,1866
1.15548,546.8454,-1524,9096,35.9844,9344,1866
2.43358,535.6919,-1523,9097,36.0342,9344,1866
2.31303,529.9348,-1522,9098,36.0342,9344,1866
2.41588,514.6205,-1521,9099,36.0342,9344,1866
2.27981,491.5312,-1520,9100,36.0342,9344,1866
1.04725,468.0061,-1519,9101,35.9844,9344,1866
2.98771,451.6199,-1518,9102,36.084,9344,1866
1.96287,442.4968,-1517,9103,35.8849,9358,1720
2.33764,431.8717,-1516,9104,36.0342,9358,1720
1.75238,420.1378,-1515,9105,35.8849,9358,1720
2.12837,405.9091,-1514,9106,35.8849,9358,1720
2.38609,386.4121,-1513,9107,35.9844,9358,1720
1.94333,366.0707,-1512,9108,36.084,9358,1720
2.12613,346.448,-1511,9109,35.9844,9358,1720
2.0156,328.1777,-1510,9110,35.9844,9358,1720
2.28816,314.097,-1509,9111,36.2334,9358,1720
2.72039,298.004,-1508,9112,36.0342,9358,1720
1.62826,279.3113,-1507,9113,35.9844,9363,1664
2.41391,261.2458,-1506,9114,35.8849,9363,1664
1.54408,244.3824,-1505,9115,36.084,9363,1664
2.66907,232.7531,-1504,9116,36.084,9363,1664
2.1771,219.7026,-1503,9117,36.2334,9363,1664
2.55777,199.5987,-1502,9118,36.1836,9363,1664
1.99897,179.5183,-1501,9119,35.9844,9363,1664
3.1097,167.2972,-1500,9120,35.9844,9363,1664
1.43525,157.2844,-1499,9121,35.8849,9363,1664
0.690534,142.8643,-1498,9122,35.9844,9363,1664
2.79986,126.2975,-1497,9123,35.9844,9341,1628
1.99897,112.1309,-1496,9124,35.8849,9341,1628
2.03444,101.8067,-1495,9125,35.9844,9341,1628
1.72772,94.61662,-1494,9126,35.9844,9341,1628
1.13886,87.49002,-1493,9127,36.084,9341,1628
1.80334,79.94049,-1492,9128,35.8849,9341,1628
0.560992,74.83109,-1491,9129,35.8849,9341,1628
1.33185,73.85294,-1490,9130,35.9844,9341,1628
2.40401,76.85158,-1489,9131,36.084,9341,1628
2.24822,80.7506,-1488,9132,36.084,9341,1628
2.37206,83.77804,-1487,9133,35.7853,9348,1638
1.99897,86.39543,-1486,9134,35.8849,9348,1638
1.60466,89.88562,-1485,9135,35.7853,9348,1638
1.89614,96.11811,-1484,9136,35.9844,9348,1638
1.84516,103.8436,-1483,9137,35.8351,9348,1638
1.10916,110.3476,-1482,9138,36.0342,9348,1638
1.10916,113.5143,-1481,9139,36.0342,9348,1638
2.20323,117.9836,-1480,9140,35.8849,9348,1638
1.85804,122.8565,-1479,9141,35.9844,9348,1638
4.66915,125.3831,-1478,9142,35.9844,9348,1638
4.75717,124.5534,-1477,9143,35.8849,9365,1661
0.946812,124.6039,-1476,9144,35.9844,9365,1661
1.47458,133.4057,-1475,9145,35.8849,9365,1661
1.54408,147.4695,-1474,9146,35.9844,9365,1661
0.625305,157.4569,-1473,9147,35.8849,9365,1661
1.48103,158.7405,-1472,9148,35.9844,9365,1661
0.793363,158.0597,-1471,9149,35.9844,9365,1661
1.54408,160.6633,-1470,9150,35.8849,9365,1661
1.61059,170.6823,-1469,9151,35.8849,9365,1661
1.23912,187.9486,-1468,9152,36.0342,9365,1661
2.77763,206.5831,-1467,9153,35.9844,9367,1689
1.48103,219.9452,-1466,9154,36.2334,9367,1689
0.41432,228.2354,-1465,9155,36.0342,9367,1689
0.811194,233.7935,-1464,9156,35.9844,9367,1689
1.3461,236.2037,-1463,9157,35.8849,9367,1689
1.17594,240.3975,-1462,9158,35.9844,9367,1689
0.793363,249.7681,-1461,9159,35.9844,9367,1689
1.66303,259.7216,-1460,9160,35.8849,9367,1689
1.52856,267.7768,-1459,9161,36.0342,9367,1689
1.23912,276.4867,-1458,9162,35.8849,9367,1689
2.38209,284.0222,-1457,9163,35.8849,9346,1728
1.28447,285.9599,-1456,9164,36.0342,9346,1728
1.66875,283.9873,-1455,9165,36.0342,9346,1728
1.57769,281.1035,-1454,9166,36.084,9346,1728
2.40203,277.0576,-1453,9167,35.9844,9346,1728
1.87846,283.2807,-1452,9168,35.9844,9346,1728
1.4219,299.8139,-1451,9169,36.084,9346,1728
2.93781,307.7377,-1450,9170,35.8849,9346,1728
2.91337,302.2022,-1449,9171,35.9844,9346,1728
2.0156,293.3084,-1448,9172,35.8849,9346,1728
1.96287,289.8239,-1447,9173,35.8351,9341,1774
1.22363,293.1418,-1446,9174,36.084,9341,1774
1.83739,296.0009,-1445,9175,35.8849,9341,1774
2.0716,299.5117,-1444,9176,36.1836,9341,1774
1.22363,304.9486,-1443,9177,35.9844,9341,1774
1.89614,309.9481,-1442,9178,36.084,9341,1774
2.85384,313.7589,-1441,9179,36.0342,9341,1774
1.22752,317.287,-1440,9180,36.0342,9341,1774
1.78473,321.1764,-1439,9181,35.9844,9341,1774
2.09449,324.9262,-1438,9182,35.9844,9341,1774
3.0163,333.6786,-1437,9183,35.8849,9360,1833
2.65115,341.4349,-1436,9184,36.0342,9360,1833
1.9918,343.8292,-1435,9185,35.9844,9360,1833
2.56893,345.704,-1434,9186,36.0342,9360,1833
1.96529,351.0601,-1433,9187,36.0342,9360,1833
2.40995,357.8341,-1432,9188,36.084,9360,1833
2.72914,360.8736,-1431,9189,36.084,9360,1833
0.811194,366.4867,-1430,9190,36.3329,9360,1833
1.80334,374.3835,-1429,9191,36.084,9360,1833
1.49385,381.954,-1428,9192,35.7853,9360,1833
1.54717,388.5827,-1427,9193,36.084,9375,1881
3.37868,394.7074,-1426,9194,36.0342,9375,1881
2.33764,400.5362,-1425,9195,35.8849,9375,1881
1.53789,407.0553,-1424,9196,36.0342,9375,1881
1.75238,414.554,-1423,9197,35.8849,9375,1881
1.19604,421.1609,-1422,9198,35.9844,9375,1881
0.78733,426.5825,-1421,9199,36.0342,9375,1881
1.19205,430.4215,-1420,9200,35.9844,9375,1881
0.710948,434.9785,-1419,9201,35.9844,9375,1881
1.44188,440.019,-1418,9202,35.9844,9375,1881
1.96529,443.3051,-1417,9203,35.9844,9374,1939
1.18804,445.7687,-1416,9204,35.9844,9374,1939
1.4118,448.7016,-1415,9205,36.084,9374,1939
1.68863,450.9415,-1414,9206,36.084,9374,1939
1.08306,452.7586,-1413,9207,35.7853,9374,1939
0.895034,454.7962,-1412,9208,35.9844,9374,1939
0.662337,456.3472,-1411,9209,35.8849,9374,1939
1.52544,455.6117,-1410,9210,36.084,9374,1939
0.995902,452.5949,-1409,9211,35.8849,9374,1939
0.926449,447.3922,-1408,9212,36.0342,9374,1939
0.845728,441.9178,-1407,9213,35.9844,9353,1995
3.10203,436.8794,-1406,9214,35.8849,9353,1995
0.743728,429.5575,-1405,9215,35.7853,9353,1995
0.811194,420.9991,-1404,9216,35.9844,9353,1995
0.402647,412.9788,-1403,9217,35.9844,9353,1995
0.497951,402.8013,-1402,9218,36.0342,9353,1995
0.447517,389.6352,-1401,9219,35.9844,9353,1995
0.525895,376.6143,-1400,9220,35.9844,9353,1995
0.560992,365.8135,-1399,9221,35.9844,9353,1995
0.239208,354.853,-1398,9222,35.9844,9353,1995
1.20794,342.3063,-1397,9223,35.8849,9353,1995
0.878906,328.1241,-1396,9224,36.0342,9353,1995
1.77132,312.6559,-1395,9225,35.8351,9353,1995
1.25061,297.5584,-1394,9226,35.8351,9353,1995
1.26953,283.1637,-1393,9227,35.9844,9353,1995
1.19205,269.5165,-1392,9228,36.0342,9353,1995
0.323889,256.1138,-1391,9229,36.1836,9353,1995
0.447517,242.3847,-1390,9230,36.084,9353,1995
0.76272,227.7448,-1389,9231,36.2334,9353,1995
0.78733,211.264,-1388,9232,35.9844,9353,1995
1.15548,195.5297,-1387,9233,35.9844,9353,2032
0.534885,182.4958,-1386,9234,36.084,9353,2032
1.59273,171.152,-1385,9235,35.9844,9353,2032
1.08306,158.5439,-1384,9236,36.084,9353,2032
1.07865,143.0473,-1383,9237,35.9844,9353,2032
1.56859,128.0951,-1382,9238,36.0342,9353,2032
1.15548,117.7488,-1381,9239,35.9844,9353,2032
0.805294,112.4502,-1380,9240,36.3329,9353,2032
0.981433,108.9202,-1379,9241,35.9844,9353,2032
0.981433,105.8691,-1378,9242,35.8849,9353,2032
0.845728,103.4985,-1377,9243,35.9844,9358,2045
0.926449,103.7295,-1376,9244,36.0342,9358,2045
1.6165,108.3077,-1375,9245,36.2334,9358,2045
1.19604,116.7172,-1374,9246,36.0342,9358,2045
0.625305,127.5772,-1373,9247,36.084,9358,2045
1.14304,138.6418,-1372,9248,35.9844,9358,2045
0.710948,148.3516,-1371,9249,35.8351,9358,2045
0.966748,156.4028,-1370,9250,36.3329,9358,2045
1.09183,164.0937,-1369,9251,36.0342,9358,2045
0.690534,170.6202,-1368,9252,35.9844,9358,2045
0.710948,175.8857,-1367,9253,36.084,9368,2043
1.08306,180.3117,-1366,9254,35.8849,9368,2043
4.72902,184.6493,-1365,9255,35.8849,9368,2043
0.569429,188.9159,-1364,9256,36.2334,9368,2043
1.10916,193.0801,-1363,9257,36.0342,9368,2043
1.1472,196.6433,-1362,9258,36.084,9368,2043
0.941763,199.5716,-1361,9259,35.8849,9368,2043
1.34255,202.1564,-1360,9260,35.9844,9368,2043
0.981433,205.0559,-1359,9261,35.8849,9368,2043
0.905627,208.532,-1358,9262,35.9844,9368,2043
1.0381,212.4365,-1357,9263,35.8849,9356,2050
0.78733,217.069,-1356,9264,36.0342,9356,2050
2.47631,223.0559,-1355,9265,36.0342,9356,2050
2.18366,231.3191,-1354,9266,35.7853,9356,2050
1.31745,243.9587,-1353,9267,35.9844,9356,2050
1.23912,260.2221,-1352,9268,36.084,9356,2050
0.946812,278.1936,-1351,9269,36.084,9356,2050
1.29556,312.9565,-1350,9270,35.8849,9356,2050
1.50022,363.8047,-1349,9271,35.9844,9356,2050
2.27981,294.2395,-1348,9272,36.084,9356,2050
2.14177,257.1354,-1347,9273,35.9844,9358,2049
2.10811,369.3841,-1346,9274,36.2334,9358,2049
1.70829,497.2222,-1345,9275,35.9844,9358,2049
2.80326,553.0636,-1344,9276,35.9844,9358,2049
1.98461,475.2896,-1343,9277,36.0342,9358,2049
2.09677,358.6432,-1342,9278,36.2334,9358,2049
2.59295,344.2635,-1341,9279,35.8849,9358,2049
2.38009,407.0772,-1340,9280,36.1836,9358,2049
2.12164,488.6879,-1339,9281,36.2334,9358,2049
2.72039,521.8331,-1338,9282,36.084,9358,2049
2.24822,489.8317,-1337,9283,36.084,9378,2043
2.54094,447.9008,-1336,9284,35.8849,9378,2043
3.50612,438.6885,-1335,9285,36.1836,9378,2043
1.76052,455.83,-1334,9286,36.084,9378,2043
2.74308,480.7776,-1333,9287,35.8351,9378,2043
2.91173,496.899,-1332,9288,36.084,9378,2043
2.53342,500.9888,-1331,9289,35.9844,9378,2043
1.89362,500.1843,-1330,9290,35.9844,9378,2043
1.80598,504.0757,-1329,9291,35.9844,9378,2043
3.24183,515.0028,-1328,9292,35.8351,9378,2043
2.66907,525.4263,-1327,9293,35.9844,9375,2052
2.64394,526.5954,-1326,9294,36.0342,9375,2052
2.09222,517.6586,-1325,9295,35.8849,9375,2052
2.03678,510.2708,-1324,9296,35.9844,9375,2052
1.96529,517.4125,-1323,9297,35.9844,9375,2052
1.94088,537.1603,-1322,9298,35.7853,9375,2052
2.27352,558.39,-1321,9299,35.8849,9375,2052
2.69397,572.0886,-1320,9300,35.9844,9375,2052
1.54717,576.767,-1319,9301,35.9844,9375,2052
2.2819,579.1385,-1318,9302,36.0342,9375,2052
2.67443,585.7744,-1317,9303,35.9844,9349,2037
1.89865,595.8893,-1316,9304,35.8351,9349,2037
1.4118,604.656,-1315,9305,36.0342,9349,2037
4.33884,610.1953,-1314,9306,35.9844,9349,2037
0.436732,615.0185,-1313,9307,35.8351,9349,2037
2.2819,620.7652,-1312,9308,36.1836,9349,2037
2.08994,624.5834,-1311,9309,35.9844,9349,2037
1.43857,625.6731,-1310,9310,35.9844,9349,2037
1.47134,624.5025,-1309,9311,35.9844,9349,2037
1.57163,623.227,-1308,9312,35.8849,9349,2037
1.48103,625.745,-1307,9313,35.9844,9340,2215
1.22363,627.9968,-1306,9314,35.8849,9340,2215
1.32827,624.1783,-1305,9315,35.9844,9340,2215
1.56555,614.704,-1304,9316,36.084,9340,2215
0.308816,602.777,-1303,9317,35.9844,9340,2215
0.946812,592.088,-1302,9318,36.0342,9340,2215
1.19604,583.7716,-1301,9319,35.9844,9340,2215
0.805294,575.0213,-1300,9320,36.0342,9340,2215
0.447517,563.8834,-1299,9321,35.9844,9340,2215
1.68863,549.0564,-1298,9322,35.9844,9340,2215
1.67161,533.0027,-1297,9323,35.9844,9362,2539
1.64863,517.2702,-1296,9324,36.0342,9362,2539
0.895034,500.899,-1295,9325,35.8849,9362,2539
1.01016,482.729,-1294,9326,35.9844,9362,2539
3.71736,462.9999,-1293,9327,35.9844,9362,2539
1.40163,443.1292,-1292,9328,35.9844,9362,2539
0.811194,423.2475,-1291,9329,35.9844,9362,2539
1.40163,404.3466,-1290,9330,36.2334,9362,2539
0.981433,385.1571,-1289,9331,35.7853,9362,2539
1.57769,363.6689,-1288,9332,35.9844,9362,2539
0.926449,340.4006,-1287,9333,35.9844,9364,2800
1.0381,317.7116,-1286,9334,35.9844,9364,2800
0.862477,297.7512,-1285,9335,36.084,9364,2800
2.47439,279.7931,-1284,9336,36.1836,9364,2800
3.86329,263.0247,-1283,9337,36.0342,9364,2800
0.889691,249.7227,-1282,9338,36.1836,9364,2800
0.840071,239.8122,-1281,9339,35.7853,9364,2800
1.20794,234.8218,-1280,9340,36.0342,9364,2800
1.09183,232.1544,-1279,9341,35.9844,9364,2800
1.36019,230.5909,-1278,9342,35.8849,9364,2800
1.25061,231.1886,-1277,9343,35.9844,9361,2880
1.41517,235.1608,-1276,9344,35.9844,9361,2880
0.811194,241.6818,-1275,9345,35.9844,9361,2880
1.78206,250.3372,-1274,9346,35.9844,9361,2880
2.48592,260.6207,-1273,9347,35.9844,9361,2880
0.811194,268.7036,-1272,9348,35.9844,9361,2880
1.04725,273.3645,-1271,9349,35.8849,9361,2880
0.625305,277.3135,-1270,9350,35.9844,9361,2880
1.54717,285.8006,-1269,9351,36.084,9361,2880
0.941763,298.9521,-1268,9352,35.9844,9361,2880
1.73047,311.4532,-1267,9353,35.9844,9342,2944
1.3461,316.1562,-1266,9354,36.0342,9342,2944
0.840071,312.6407,-1265,9355,35.8849,9342,2944
0.799351,305.9673,-1264,9356,36.0342,9342,2944
1.42525,302.2973,-1263,9357,36.0342,9342,2944
0.878906,304.2273,-1262,9358,35.9844,9342,2944
1.38452,308.665,-1261,9359,35.7853,9342,2944
0.365396,312.4569,-1260,9360,35.8351,9342,2944
0.239208,314.9196,-1259,9361,35.9844,9342,2944
0.577742,318.6241,-1258,9362,35.8849,9342,2944
0.585938,325.7191,-1257,9363,35.9844,9349,2967
0.625305,334.4785,-1256,9364,35.9844,9349,2967
0.737289,343.0573,-1255,9365,35.8849,9349,2967
1.00068,351.0155,-1254,9366,36.0342,9349,2967
1.47134,358.2213,-1253,9367,36.0342,9349,2967
2.87879,365.6991,-1252,9368,35.8351,9349,2967
1.00543,374.0258,-1251,9369,35.9844,9349,2967
1.17188,382.395,-1250,9370,35.9844,9349,2967
1.04725,391.0039,-1249,9371,35.9844,9349,2967
1.10916,400.4941,-1248,9372,36.0342,9349,2967
1.02423,410.6369,-1247,9373,35.9844,9364,2912
0.768946,421.0455,-1246,9374,35.8849,9364,2912
1.61355,431.2433,-1245,9375,36.0342,9364,2912
1.88858,440.6671,-1244,9376,36.084,9364,2912
0.76272,448.5901,-1243,9377,35.9844,9364,2912
6.38436,454.6196,-1242,9378,35.9844,9364,2912
0.805294,459.2673,-1241,9379,35.9844,9364,2912
1.64863,463.8415,-1240,9380,35.9844,9364,2912
2.0693,468.2764,-1239,9381,36.0342,9364,2912
1.57769,470.7627,-1238,9382,36.084,9364,2912
2.00136,469.7735,-1237,9383,36.1836,9368,2795
2.2819,464.8011,-1236,9384,36.1836,9368,2795
2.22262,455.7431,-1235,9385,35.8849,9368,2795
2.46667,443.2405,-1234,9386,35.7853,9368,2795
1.83998,428.8781,-1233,9387,35.7853,9368,2795
3.48976,414.5647,-1232,9388,35.9844,9368,2795
2.38809,399.9653,-1231,9389,36.2334,9368,2795
2.93944,384.8645,-1230,9390,36.2334,9368,2795
1.75238,367.498,-1229,9391,35.9844,9368,2795
2.10585,346.4459,-1228,9392,36.0342,9368,2795
2.4974,322.1591,-1227,9393,36.0342,9345,2753
2.46667,295.8109,-1226,9394,35.7853,9345,2753
2.64575,268.9727,-1225,9395,36.084,9345,2753
3.12195,243.6573,-1224,9396,35.9844,9345,2753
3.08043,220.5998,-1223,9397,35.8849,9345,2753
3.2987,200.0761,-1222,9398,35.9844,9345,2753
1.73047,181.5472,-1221,9399,35.8849,9345,2753
2.3539,165.5973,-1220,9400,35.9844,9345,2753
3.31024,153.6633,-1219,9401,35.8849,9345,2753
2.12613,147.5871,-1218,9402,35.8849,9345,2753
2.70985,148.1182,-1217,9403,36.2334,9342,2818
2.58005,154.1437,-1216,9404,36.084,9342,2818
3.10203,164.7646,-1215,9405,35.9844,9342,2818
3.07888,178.9848,-1214,9406,35.9844,9342,2818
1.85804,194.7277,-1213,9407,35.9844,9342,2818
2.35997,211.2523,-1212,9408,35.9844,9342,2818
0.805294,227.9181,-1211,9409,35.8849,9342,2818
2.4277,243.6185,-1210,9410,36.2334,9342,2818
1.37415,258.1566,-1209,9411,36.084,9342,2818
1.66589,271.2382,-1208,9412,35.8351,9342,2818
2.38009,282.6944,-1207,9413,35.8849,9377,2918
2.15066,292.1229,-1206,9414,35.8849,9377,2918
0.323889,300.1105,-1205,9415,36.1836,9377,2918
1.80334,306.1849,-1204,9416,36.0342,9377,2918
1.76323,311.3738,-1203,9417,36.0342,9377,2918
1.78473,315.5854,-1202,9418,35.9844,9377,2918
2.15287,318.7447,-1201,9419,35.9844,9377,2918
0.292969,317.7108,-1200,9420,35.9844,9377,2918
1.74966,313.0171,-1199,9421,35.7853,9377,2918
0.497951,308.5955,-1198,9422,36.3329,9377,2918
0.710948,309.1101,-1197,9423,35.8849,9373,2989
0.840071,310.3758,-1196,9424,35.9844,9373,2989
0.961803,310.2837,-1195,9425,35.9844,9373,2989
1.14304,309.5113,-1194,9426,35.8849,9373,2989
1.08306,307.1637,-1193,9427,36.0342,9373,2989
0.768946,301.4588,-1192,9428,36.084,9373,2989
3.01313,296.4692,-1191,9429,36.0342,9373,2989
1.17594,293.9761,-1190,9430,36.0342,9373,2989
0.730792,291.1927,-1189,9431,35.8849,9373,2989
0.447517,287.5981,-1188,9432,35.9844,9373,2989
0.655098,283.98,-1187,9433,35.9844,9367,3009
0.352105,279.5684,-1186,9434,36.2334,9367,3009
1.47781,274.1134,-1185,9435,35.9844,9367,3009
0.352105,266.6477,-1184,9436,35.9844,9367,3009
0.601994,260.1532,-1183,9437,35.9844,9367,3009
0.655098,255.1621,-1182,9438,36.0342,9367,3009
1.1596,250.7963,-1181,9439,35.9844,9367,3009
0.601994,246.8983,-1180,9440,35.9844,9367,3009
1.00068,243.1881,-1179,9441,35.9844,9367,3009
0.447517,238.5562,-1178,9442,35.8849,9367,3009
0.662337,232.4247,-1177,9443,36.084,9346,3015
0.981433,225.4486,-1176,9444,35.8351,9346,3015
1.11345,219.0445,-1175,9445,35.7853,9346,3015
0.276214,213.7704,-1174,9446,36.0342,9346,3015
0.41432,210.3112,-1173,9447,35.8849,9346,3015
0.76272,207.2647,-1172,9448,35.8351,9346,3015
3.33464,203.9077,-1171,9449,36.0342,9346,3015
0.900346,199.9372,-1170,9450,35.8849,9346,3015
0.697405,195.7339,-1169,9451,35.8849,9346,3015
0.743728,192.3435,-1168,9452,36.0342,9346,3015
0.323889,189.6538,-1167,9453,36.084,9363,2981
0.717624,186.7143,-1166,9454,35.9844,9363,2981
0.525895,181.8211,-1165,9455,36.0342,9363,2981
0.76272,176.0195,-1164,9456,36.0342,9363,2981
1.77132,172.202,-1163,9457,35.8849,9363,2981
0.647778,171.5566,-1162,9458,35.9844,9363,2981
0.76272,172.5075,-1161,9459,36.2334,9363,2981
2.41983,173.7913,-1160,9460,36.0342,9363,2981
0.793363,175.1216,-1159,9461,35.8849,9363,2981
1.05179,177.4163,-1158,9462,35.8849,9363,2981
1.41517,181.0542,-1157,9463,36.0342,9374,2920
1.17998,186.9843,-1156,9464,35.9844,9374,2920
0.900346,194.0287,-1155,9465,35.9844,9374,2920
1.07422,202.4303,-1154,9466,35.8849,9374,2920
1.09619,211.2122,-1153,9467,36.0342,9374,2920
0.737289,220.1884,-1152,9468,35.8849,9374,2920
2.25668,230.8829,-1151,9469,36.084,9374,2920
1.62826,241.0839,-1150,9470,35.7853,9374,2920
1.67446,250.9021,-1149,9471,35.9844,9374,2920
1.72772,260.6487,-1148,9472,35.9844,9374,2920
1.77938,269.8675,-1147,9473,36.084,9377,2830
1.98701,277.5059,-1146,9474,35.9844,9377,2830
1.14304,284.1835,-1145,9475,36.1836,9377,2830
1.89614,289.7749,-1144,9476,35.9844,9377,2830
1.19205,292.2873,-1143,9477,36.0342,9377,2830
2.33968,291.7638,-1142,9478,35.9844,9377,2830
1.66303,289.7126,-1141,9479,36.1836,9377,2830
3.27403,286.5653,-1140,9480,35.9844,9377,2830
3.57347,281.1964,-1139,9481,35.8849,9377,2830
1.60466,273.5652,-1138,9482,36.0342,9377,2830
2.14399,264.394,-1137,9483,35.8849,9359,2716
1.36019,253.8116,-1136,9484,35.9844,9359,2716
2.13284,241.9819,-1135,9485,35.8849,9359,2716
3.27403,229.1963,-1134,9486,35.9844,9359,2716
2.38009,215.1252,-1133,9487,36.084,9359,2716
2.14177,199.6209,-1132,9488,36.0342,9359,2716
1.77132,182.0949,-1131,9489,35.8849,9359,2716
5.71936,162.6529,-1130,9490,36.084,9359,2716
2.24609,141.9452,-1129,9491,35.9844,9359,2716
3.25211,120.8862,-1128,9492,36.0342,9359,2716
1.60466,99.78694,-1127,9493,36.1836,9357,2659
2.54844,79.49674,-1126,9494,36.084,9357,2659
3.01472,63.77657,-1125,9495,35.9844,9357,2659
1.75781,57.83428,-1124,9496,36.0342,9357,2659
1.69427,62.99065,-1123,9497,36.0342,9357,2659
2.44336,76.65675,-1122,9498,35.9844,9357,2659
2.22047,95.18143,-1121,9499,36.2334,9357,2659
6.45566,116.0532,-1120,9500,36.0342,9357,2659
2.76559,137.3011,-1119,9501,35.9844,9357,2659
2.27352,158.1117,-1118,9502,36.0342,9357,2659
2.06237,178.1414,-1117,9503,36.084,9380,2672
1.88099,197.1097,-1116,9504,36.1836,9380,2672
1.48103,214.5477,-1115,9505,36.084,9380,2672
1.52856,230.7091,-1114,9506,35.9844,9380,2672
0.98628,245.8923,-1113,9507,35.9844,9380,2672
2.39407,259.785,-1112,9508,36.1836,9380,2672
1.47134,272.0042,-1111,9509,36.084,9380,2672
1.49385,282.6555,-1110,9510,36.084,9380,2672
2.08537,292.2824,-1109,9511,36.084,9380,2672
1.00068,300.686,-1108,9512,36.0342,9380,2672
1.09183,306.6137,-1107,9513,36.2334,9379,2741
0.683594,309.5319,-1106,9514,36.084,9379,2741
0.768946,311.3608,-1105,9515,36.084,9379,2741
0.995902,313.4239,-1104,9516,35.8849,9379,2741
0.458048,313.8405,-1103,9517,36.084,9379,2741
0.292969,312.801,-1102,9518,35.9844,9379,2741
0.78733,309.0817,-1101,9519,35.9844,9379,2741
0.402647,303.8801,-1100,9520,35.9844,9379,2741
1.82698,298.1848,-1099,9521,35.9844,9379,2741
0.617632,291.4327,-1098,9522,35.8849,9379,2741
0.683594,283.9159,-1097,9523,36.0342,9357,2846
0.768946,275.7568,-1096,9524,35.8849,9357,2846
0.647778,265.6845,-1095,9525,36.0342,9357,2846
0.497951,252.9786,-1094,9526,35.9844,9357,2846
0.895034,238.7253,-1093,9527,35.8849,9357,2846
0.98628,225.1448,-1092,9528,36.0342,9357,2846
0.697405,213.6327,-1091,9529,36.084,9357,2846
0.534885,204.2024,-1090,9530,35.9844,9357,2846
0.921287,194.891,-1089,9531,36.084,9357,2846
0.218366,183.6293,-1088,9532,36.0342,9357,2846
1.25442,169.7052,-1087,9533,35.9844,9350,2929
1.43857,154.2025,-1086,9534,35.9844,9350,2929
1.05179,138.9377,-1085,9535,36.2334,9350,2929
0.601994,124.543,-1084,9536,35.8849,9350,2929
1.01956,111.4866,-1083,9537,36.0342,9350,2929
0.690534,99.2933,-1082,9538,35.9844,9350,2929
0.625305,87.04735,-1081,9539,36.1836,9350,2929
1.14304,74.32769,-1080,9540,36.0342,9350,2929
2.34782,61.6942,-1079,9541,35.8849,9350,2929
1.94824,50.20237,-1078,9542,35.9844,9350,2929
0.525895,40.71534,-1077,9543,35.8849,9369,2949
0.625305,34.27742,-1076,9544,36.0342,9369,2949
1.09183,32.46474,-1075,9545,35.9844,9369,2949
0.308816,35.08094,-1074,9546,35.9844,9369,2949
0.365396,40.73126,-1073,9547,36.0342,9369,2949
1.39481,48.45899,-1072,9548,35.8849,9369,2949
0.402647,57.4749,-1071,9549,35.8849,9369,2949
0.768946,66.71397,-1070,9550,36.0342,9369,2949
0.966748,75.98316,-1069,9551,35.9844,9369,2949
2.04845,85.46352,-1068,9552,35.9844,9369,2949
0.750112,94.32086,-1067,9553,36.084,9376,2922
1.17998,102.673,-1066,9554,35.8849,9376,2922
0.941763,110.5057,-1065,9555,35.9844,9376,2922
0.981433,117.4991,-1064,9556,35.9844,9376,2922
0.981433,124.1741,-1063,9557,35.9844,9376,2922
0.690534,130.0602,-1062,9558,35.9844,9376,2922
1.13045,135.2834,-1061,9559,35.9844,9376,2922
0.497951,139.6,-1060,9560,36.084,9376,2922
0.966748,143.282,-1059,9561,36.084,9376,2922
1.59273,145.7585,-1058,9562,35.9844,9376,2922
0.921287,147.6638,-1057,9563,35.9844,9379,2860
1.48103,148.6143,-1056,9564,35.9844,9379,2860
1.06082,148.0155,-1055,9565,35.9844,9379,2860
0.793363,146.508,-1054,9566,35.8849,9379,2860
1.77132,144.0998,-1053,9567,36.0342,9379,2860
1.09619,141.1199,-1052,9568,36.1836,9379,2860
0.768946,137.2509,-1051,9569,36.0342,9379,2860
1.55638,132.3733,-1050,9570,36.084,9379,2860
2.22905,126.7186,-1049,9571,36.0342,9379,2860
3.71736,120.8322,-1048,9572,36.1836,9379,2860
1.25442,115.6606,-1047,9573,35.8849,9361,2798
0.552427,110.9119,-1046,9574,35.9844,9361,2798
0.768946,106.5528,-1045,9575,35.9844,9361,2798
1.38452,102.6875,-1044,9576,35.9844,9361,2798
0.640375,99.44206,-1043,9577,35.8849,9361,2798
1.07865,96.74525,-1042,9578,36.1836,9361,2798
0.717624,94.57842,-1041,9579,36.1836,9361,2798
1.37067,93.28872,-1040,9580,36.0342,9361,2798
0.683594,92.61421,-1039,9581,35.9844,9361,2798
2.47246,92.95452,-1038,9582,35.9844,9361,2798
1.46158,88.71892,-1037,9583,36.0342,9368,2735
0.817051,80.1131,-1036,9584,36.0342,9368,2735
2.05311,71.01345,-1035,9585,35.9844,9368,2735
0.889691,68.26318,-1034,9586,36.084,9368,2735
1.52544,75.75336,-1033,9587,36.084,9368,2735
1.59273,82.64304,-1032,9588,35.7853,9368,2735
1.27702,89.02316,-1031,9589,36.084,9368,2735
0.845728,94.81697,-1030,9590,35.9844,9368,2735
1.09183,101.6521,-1029,9591,36.0342,9368,2735
0.889691,106.1019,-1028,9592,36.0342,9368,2735
1.21188,109.3066,-1027,9593,35.9844,9382,2682
0.710948,114.9476,-1026,9594,36.084,9382,2682
0.717624,123.0535,-1025,9595,35.9844,9382,2682
1.28817,124.8675,-1024,9596,35.9844,9382,2682
0.569429,122.5486,-1023,9597,35.8849,9382,2682
0.640375,125.5752,-1022,9598,35.9844,9382,2682
1.25061,136.0454,-1021,9599,35.8849,9382,2682
1.18402,144.882,-1020,9600,36.084,9382,2682
0.365396,156.1482,-1019,9601,35.8351,9382,2682
1.57163,167.009,-1018,9602,35.9844,9382,2682
1.38107,167.0003,-1017,9603,36.084,9389,2637
1.48103,160.2896,-1016,9604,35.8849,9389,2637
1.23912,160.2574,-1015,9605,35.8849,9389,2637
1.87592,164.9463,-1014,9606,36.0342,9389,2637
1.01016,166.1533,-1013,9607,35.9844,9389,2637
0.799351,168.6079,-1012,9608,36.1836,9389,2637
0.793363,177.1872,-1011,9609,36.084,9389,2637
0.737289,186.6198,-1010,9610,35.8849,9389,2637
0.478416,192.588,-1009,9611,35.9844,9389,2637
0.402647,202.5582,-1008,9612,36.0342,9389,2637
3.95839,220.0736,-1007,9613,35.9844,9374,2563
0.497951,241.1063,-1006,9614,35.8849,9374,2563
0.352105,253.152,-1005,9615,35.9844,9374,2563
1.00068,251.2777,-1004,9616,35.9844,9374,2563
0.601994,242.4105,-1003,9617,35.9844,9374,2563
1.10916,235.5177,-1002,9618,36.0342,9374,2563
0.560992,234.3238,-1001,9619,35.8849,9374,2563
0.560992,236.8169,-1000,9620,36.2334,9374,2563
0.905627,240.6576,-999,9621,35.8849,9374,2563
0.488281,244.9538,-998,9622,36.0342,9374,2563
7.16161,248.3278,-997,9623,36.2334,9376,2472
1.80334,251.2376,-996,9624,35.9844,9376,2472
0.941763,255.1271,-995,9625,36.1836,9376,2472
2.28816,260.1451,-994,9626,36.1836,9376,2472
0.768946,266.0202,-993,9627,36.1836,9376,2472
1.37067,272.6519,-992,9628,35.9844,9376,2472
0.292969,277.8867,-991,9629,35.9844,9376,2472
0.926449,281.852,-990,9630,35.8849,9376,2472
1.36719,289.7928,-989,9631,36.084,9376,2472
0.905627,297.0501,-988,9632,35.8849,9376,2472
1.37067,294.8737,-987,9633,35.9844,9423,2344
1.68863,297.3327,-986,9634,36.0342,9423,2344
1.89865,306.7741,-985,9635,35.9844,9423,2344
1.42859,313.2419,-984,9636,35.8849,9423,2344
1.62239,315.9742,-983,9637,35.8849,9423,2344
1.49066,319.6579,-982,9638,36.084,9423,2344
1.71386,321.5314,-981,9639,36.1836,9423,2344
1.09619,321.8178,-980,9640,35.8849,9423,2344
1.45176,335.7945,-979,9641,35.9844,9423,2344
1.41517,379.2344,-978,9642,36.0342,9423,2344
1.88858,405.7965,-977,9643,35.8849,9457,2193
1.26577,377.1002,-976,9644,35.8351,9457,2193
0.750112,328.8342,-975,9645,36.0342,9457,2193
1.25061,302.9353,-974,9646,36.0342,9457,2193
2.88706,335.7053,-973,9647,36.2334,9457,2193
1.70549,357.7967,-972,9648,35.9844,9457,2193
1.84516,345.7597,-971,9649,35.8849,9457,2193
1.3102,340.3605,-970,9650,35.9844,9457,2193
1.5034,339.934,-969,9651,36.1836,9457,2193
0.946812,334.2957,-968,9652,35.9844,9457,2193
1.25061,329.1862,-967,9653,36.1836,9513,2089
1.00068,321.5635,-966,9654,35.9844,9513,2089
2.0156,313.2906,-965,9655,36.1836,9513,2089
2.36401,313.3505,-964,9656,35.9844,9513,2089
2.12613,315.1633,-963,9657,36.084,9513,2089
1.63702,314.4822,-962,9658,36.0342,9513,2089
1.38107,312.1943,-961,9659,35.8849,9513,2089
2.1771,305.2026,-960,9660,35.8849,9513,2089
1.43525,297.0737,-959,9661,35.7853,9513,2089
2.21402,289.2969,-958,9662,36.084,9513,2089
1.59273,282.5825,-957,9663,36.084,9597,2058
3.30736,280.5283,-956,9664,35.9844,9597,2058
0.851347,276.9671,-955,9665,35.8849,9597,2058
1.36019,268.2616,-954,9666,35.9844,9597,2058
2.27981,252.485,-953,9667,36.0342,9597,2058
1.94088,238.1422,-952,9668,36.084,9597,2058
2.31921,229.4403,-951,9669,35.9844,9597,2058
2.45892,221.6648,-950,9670,35.8849,9597,2058
1.78206,211.5492,-949,9671,35.9844,9597,2058
1.47781,197.075,-948,9672,35.9844,9597,2058
2.09677,181.738,-947,9673,36.084,9597,2058
2.58005,167.1754,-946,9674,35.7853,9597,2058
1.9798,152.0861,-945,9675,36.084,9597,2058
2.38009,139.8593,-944,9676,35.9844,9597,2058
2.47439,135.6766,-943,9677,36.084,9597,2058
2.12613,133.3564,-942,9678,35.9844,9597,2058
1.45505,125.5507,-941,9679,35.9844,9597,2058
2.47246,113.3429,-940,9680,36.2334,9597,2058
2.0716,100.9141,-939,9681,35.9844,9597,2058
1.23912,89.91313,-938,9682,36.084,9597,2058
1.99897,80.59054,-937,9683,35.9844,9718,2043
1.06977,73.34191,-936,9684,35.8849,9718,2043
1.84257,68.25685,-935,9685,35.8849,9718,2043
2.37005,65.90327,-934,9686,35.6857,9718,2043
1.75781,65.49536,-933,9687,36.2334,9718,2043
2.10585,67.57548,-932,9688,36.0342,9718,2043
1.90116,72.53411,-931,9689,36.084,9718,2043
1.17188,80.28794,-930,9690,36.084,9718,2043
1.82437,89.54047,-929,9691,36.084,9718,2043
1.71942,99.10568,-928,9692,36.0342,9718,2043
2.53718,107.7765,-927,9693,36.2334,9798,2059
2.18584,115.9171,-926,9694,35.9844,9798,2059
3.48566,123.4993,-925,9695,35.8849,9798,2059
1.49066,131.1604,-924,9696,35.8849,9798,2059
2.59295,138.596,-923,9697,35.9844,9798,2059
1.74146,145.5131,-922,9698,36.2334,9798,2059
1.01956,151.4657,-921,9699,35.9844,9798,2059
1.60168,156.7414,-920,9700,35.8849,9798,2059
1.4118,161.5471,-919,9701,35.8849,9798,2059
1.51917,166.8298,-918,9702,35.9844,9798,2059
1.09183,172.3352,-917,9703,36.0342,9844,2065
2.0716,176.8504,-916,9704,36.084,9844,2065
3.94754,179.9413,-915,9705,35.9844,9844,2065
1.31383,181.6733,-914,9706,35.8351,9844,2065
1.37415,181.0789,-913,9707,35.9844,9844,2065
1.69146,178.0654,-912,9708,35.9844,9844,2065
1.4118,174.7566,-911,9709,36.084,9844,2065
0.941763,170.9445,-910,9710,35.9844,9844,2065
1.70549,166.1192,-909,9711,35.8849,9844,2065
1.02423,161.3634,-908,9712,36.0342,9844,2065
0.768946,155.8823,-907,9713,36.0342,9815,2084
1.33543,149.1838,-906,9714,35.9844,9815,2084
0.878906,143.6214,-905,9715,35.8849,9815,2084
1.24296,138.6915,-904,9716,35.9844,9815,2084
1.09619,132.7475,-903,9717,36.0342,9815,2084
0.625305,125.9322,-902,9718,36.0342,9815,2084
1.17998,118.6763,-901,9719,35.9844,9815,2084
0.840071,111.8519,-900,9720,36.0342,9815,2084
1.09619,106.6982,-899,9721,35.9844,9815,2084
0.697405,103.5441,-898,9722,36.0342,9815,2084
0.817051,102.0368,-897,9723,36.2334,9808,2128
1.45505,101.0189,-896,9724,35.9844,9808,2128
0.889691,100.52,-895,9725,35.9844,9808,2128
1.80069,100.3975,-894,9726,35.9844,9808,2128
0.560992,101.3914,-893,9727,36.1836,9808,2128
1.25061,102.7391,-892,9728,35.8849,9808,2128
0.601994,103.965,-891,9729,36.0342,9808,2128
1.43857,104.9718,-890,9730,35.9844,9808,2128
0.640375,104.9095,-889,9731,35.9844,9808,2128
0.525895,103.9267,-888,9732,36.1836,9808,2128
1.07865,101.971,-887,9733,36.0342,9837,2164
1.20794,99.52564,-886,9734,35.9844,9837,2164
1.01956,97.62779,-885,9735,35.9844,9837,2164
5.90235,96.53917,-884,9736,35.9844,9837,2164
0.834375,95.21062,-883,9737,35.7853,9837,2164
0.497951,92.37497,-882,9738,35.8351,9837,2164
0.640375,88.2895,-881,9739,35.9844,9837,2164
1.19604,84.1664,-880,9740,35.9844,9837,2164
0.76272,81.28031,-879,9741,36.1836,9837,2164
0.402647,79.37706,-878,9742,35.9844,9837,2164
0.981433,77.5355,-877,9743,36.0342,9877,2181
1.00068,75.33677,-876,9744,35.9844,9877,2181
1.01016,73.33876,-875,9745,36.084,9877,2181
1.41517,72.38471,-874,9746,36.084,9877,2181
0.601994,72.23108,-873,9747,35.9844,9877,2181
1.04268,72.94311,-872,9748,36.0342,9877,2181
1.66589,74.25428,-871,9749,35.9844,9877,2181
0.737289,76.18342,-870,9750,35.8849,9877,2181
1.21581,77.77105,-869,9751,36.2334,9877,2181
1.09619,79.21771,-868,9752,36.1836,9877,2181
1.11773,81.45777,-867,9753,36.3329,9938,2185
0.425674,84.69155,-866,9754,36.084,9938,2185
0.884315,88.79086,-865,9755,35.9844,9938,2185
1.74966,93.33742,-864,9756,36.2334,9938,2185
0.834375,97.95806,-863,9757,35.6857,9938,2185
0.601994,102.1887,-862,9758,36.1836,9938,2185
0.365396,106.2139,-861,9759,36.0342,9938,2185
0.921287,109.9291,-860,9760,35.9844,9938,2185
0.323889,113.8078,-859,9761,35.9844,9938,2185
1.5034,117.1535,-858,9762,36.2334,9938,2185
1.31745,120.5665,-857,9763,36.084,10055,2179
1.28817,123.7818,-856,9764,36.084,10055,2179
1.31745,127.0825,-855,9765,35.9844,10055,2179
1.01016,130.2292,-854,9766,36.084,10055,2179
0.218366,133.758,-853,9767,35.9844,10055,2179
1.48103,136.4248,-852,9768,36.084,10055,2179
0.585938,137.0059,-851,9769,36.084,10055,2179
0.921287,136.591,-850,9770,35.9844,10055,2179
1.33185,136.7977,-849,9771,36.0342,10055,2179
1.11773,137.9921,-848,9772,35.9844,10055,2179
0.793363,139.7492,-847,9773,35.8849,10269,2164
1.71664,141.3353,-846,9774,36.084,10269,2164
1.83219,143.0326,-845,9775,35.9844,10269,2164
1.61355,144.2378,-844,9776,35.8849,10269,2164
1.73047,144.9743,-843,9777,36.2334,10269,2164
1.25061,146.1598,-842,9778,36.0342,10269,2164
0.577742,146.6221,-841,9779,35.9844,10269,2164
0.683594,146.5977,-840,9780,35.9844,10269,2164
1.44518,145.736,-839,9781,36.084,10269,2164
0.640375,144.9421,-838,9782,36.084,10269,2164
1.05631,144.5028,-837,9783,36.0342,10546,2146
1.42525,144.0997,-836,9784,36.0342,10546,2146
1.13045,142.2959,-835,9785,35.7853,10546,2146
0.921287,139.0291,-834,9786,36.084,10546,2146
3.93301,136.1355,-833,9787,36.2334,10546,2146
2.26091,133.1684,-832,9788,35.8849,10546,2146
0.352105,129.1258,-831,9789,36.0342,10546,2146
1.21581,125.1437,-830,9790,35.8849,10546,2146
1.57769,121.4085,-829,9791,36.084,10546,2146
1.60466,116.8718,-828,9792,36.084,10546,2146
1.19205,111.6787,-827,9793,36.084,10840,2132
1.40163,107.0203,-826,9794,35.9844,10840,2132
0.425674,103.6368,-825,9795,36.2334,10840,2132
1.66303,99.65611,-824,9796,36.084,10840,2132
1.17998,94.47998,-823,9797,35.9844,10840,2132
1.26953,89.91703,-822,9798,36.084,10840,2132
1.958,87.39876,-821,9799,35.9844,10840,2132
2.32946,101.3435,-820,9800,35.8849,10840,2132
4.31238,192.2584,-819,9801,35.8351,10840,2132
3.85958,238.7211,-818,9802,35.8849,10840,2132
2.41588,155.4894,-817,9803,36.0342,11167,2137
1.98701,187.4169,-816,9804,36.2334,11167,2137
1.49385,205.6626,-815,9805,36.2334,11167,2137
0.817051,122.2838,-814,9806,36.084,11167,2137
1.4219,152.8224,-813,9807,36.1836,11167,2137
0.632885,195.5235,-812,9808,35.8351,11167,2137
0.811194,151.3839,-811,9809,36.0342,11167,2137
0.768946,102.9371,-810,9810,35.9844,11167,2137
0.717624,96.82,-809,9811,35.9844,11167,2137
0.878906,81.63438,-808,9812,35.8849,11167,2137
0.931581,72.42083,-807,9813,36.084,11354,2167
1.37415,79.53937,-806,9814,36.0342,11354,2167
1.15135,73.26436,-805,9815,36.084,11354,2167
1.36019,58.23355,-804,9816,36.084,11354,2167
3.12042,54.18561,-803,9817,35.8849,11354,2167
1.76323,69.20698,-802,9818,36.0342,11354,2167
2.89366,103.0349,-801,9819,35.8849,11354,2167
1.06082,100.6953,-800,9820,35.9844,11354,2167
0.425674,86.58228,-799,9821,35.9844,11354,2167
1.92361,107.019,-798,9822,35.7853,11354,2167
1.46484,97.71056,-797,9823,36.084,11459,2190
2.15066,70.90594,-796,9824,35.9844,11459,2190
1.55638,68.03227,-795,9825,35.9844,11459,2190
1.05631,65.04446,-794,9826,35.9844,11459,2190
0.768946,61.60501,-793,9827,35.9844,11459,2190
1.63702,67.57295,-792,9828,36.084,11459,2190
1.5034,70.59391,-791,9829,36.0342,11459,2190
0.497951,67.34797,-790,9830,36.0342,11459,2190
1.44188,64.5124,-789,9831,35.9844,11459,2190
1.8606,65.25466,-788,9832,35.7853,11459,2190
1.32827,69.45972,-787,9833,35.9844,11485,2202
0.966748,73.69267,-786,9834,36.1836,11485,2202
1.66303,75.88278,-785,9835,35.8849,11485,2202
1.70549,77.76291,-784,9836,36.0342,11485,2202
0.78733,81.0054,-783,9837,35.8351,11485,2202
0.873464,85.74621,-782,9838,36.084,11485,2202
1.9335,90.15725,-781,9839,35.9844,11485,2202
1.27328,92.89631,-780,9840,36.0342,11485,2202
0.840071,93.80418,-779,9841,35.8849,11485,2202
1.66303,93.95022,-778,9842,36.0342,11485,2202
1.37415,94.61119,-777,9843,36.084,11447,2197
1.68298,96.29205,-776,9844,36.084,11447,2197
1.00068,99.07004,-775,9845,35.9844,11447,2197
1.32827,101.9123,-774,9846,35.9844,11447,2197
1.91864,104.3688,-773,9847,36.0342,11447,2197
3.92937,105.9346,-772,9848,35.8849,11447,2197
1.47134,106.2036,-771,9849,36.084,11447,2197
0.845728,106.1551,-770,9850,35.7853,11447,2197
1.05179,106.2484,-769,9851,36.084,11447,2197
1.00543,106.7154,-768,9852,36.084,11447,2197
1.37415,107.4199,-767,9853,36.084,11406,2205
1.67161,108.7581,-766,9854,35.9844,11406,2205
1.32827,110.3259,-765,9855,36.0342,11406,2205
1.73047,111.5655,-764,9856,36.084,11406,2205
0.78733,110.9179,-763,9857,35.9844,11406,2205
5.99613,105.6713,-762,9858,36.084,11406,2205
1.86827,101.219,-761,9859,36.1836,11406,2205
2.11714,101.9837,-760,9860,36.084,11406,2205
1.77132,107.1665,-759,9861,36.1836,11406,2205
1.08306,111.0653,-758,9862,35.9844,11406,2205
1.1596,109.1941,-757,9863,36.0342,11316,2211
2.15066,102.9475,-756,9864,35.7853,11316,2211
1.45176,96.85993,-755,9865,35.9844,11316,2211
1.63702,92.72299,-754,9866,35.9844,11316,2211
0.768946,90.65847,-753,9867,35.7853,11316,2211
0.900346,89.34288,-752,9868,36.2334,11316,2211
1.80334,87.71523,-751,9869,36.084,11316,2211
0.697405,87.1234,-750,9870,35.9844,11316,2211
1.81125,87.05702,-749,9871,36.1836,11316,2211
1.04725,86.77774,-748,9872,35.9844,11316,2211
1.51917,85.89388,-747,9873,35.9844,11052,2223
1.73047,85.08187,-746,9874,35.9844,11052,2223
1.01956,84.3103,-745,9875,36.2334,11052,2223
1.54717,84.81682,-744,9876,35.8351,11052,2223
1.43857,87.26499,-743,9877,36.084,11052,2223
1.3029,88.09722,-742,9878,35.8849,11052,2223
2.06237,116.4018,-741,9879,35.9844,11052,2223
2.06237,213.893,-740,9880,36.2334,11052,2223
2.49167,160.232,-739,9881,35.6857,11052,2223
1.24679,162.0262,-738,9882,35.8849,11052,2223
0.845728,228.4961,-737,9883,36.1836,10719,2230
1.01016,253.4203,-736,9884,35.8849,10719,2230
0.921287,257.3352,-735,9885,35.9844,10719,2230
0.840071,178.3548,-734,9886,36.0342,10719,2230
1.98461,88.0237,-733,9887,36.0342,10719,2230
1.3029,142.7533,-732,9888,35.9844,10719,2230
0.828641,153.3851,-731,9889,35.9844,10719,2230
2.02033,121.8723,-730,9890,35.8849,10719,2230
2.46667,108.7894,-729,9891,35.8849,10719,2230
1.49066,96.12477,-728,9892,35.9844,10719,2230
0.85693,73.62935,-727,9893,35.9844,10477,2270
1.68863,68.98182,-726,9894,35.9844,10477,2270
0.926449,82.27657,-725,9895,36.2334,10477,2270
2.18802,79.83678,-724,9896,35.9844,10477,2270
0.276214,57.11064,-723,9897,35.9844,10477,2270
0.966748,29.36267,-722,9898,36.084,10477,2270
2.60762,18.01396,-721,9899,36.0342,10477,2270
1.04725,20.6501,-720,9900,35.9844,10477,2270
1.15135,24.58709,-719,9901,36.084,10477,2270
0.41432,26.35871,-718,9902,36.084,10477,2270
1.13886,27.14247,-717,9903,35.9844,10399,2309
0.488281,36.50066,-716,9904,36.0342,10399,2309
1.37067,52.51606,-715,9905,35.9844,10399,2309
1.19205,65.82669,-714,9906,35.9844,10399,2309
1.4219,75.76231,-713,9907,35.9844,10399,2309
1.01956,84.39739,-712,9908,36.084,10399,2309
0.834375,93.84865,-711,9909,36.3329,10399,2309
4.07591,106.9045,-710,9910,36.084,10399,2309
0.884315,121.5239,-709,9911,35.9844,10399,2309
2.23118,134.3829,-708,9912,36.0342,10399,2309
0.750112,146.0451,-707,9913,36.1836,10480,2312
1.57163,156.0336,-706,9914,35.8849,10480,2312
0.710948,163.9503,-705,9915,35.8849,10480,2312
0.497951,170.5296,-704,9916,35.9844,10480,2312
1.38452,178.6444,-703,9917,36.0342,10480,2312
1.14304,189.2716,-702,9918,35.9844,10480,2312
1.07422,199.7786,-701,9919,36.1836,10480,2312
1.55638,208.0395,-700,9920,35.9844,10480,2312
1.05179,215.4634,-699,9921,35.9844,10480,2312
1.38452,225.7095,-698,9922,36.2334,10480,2312
1.09619,235.1069,-697,9923,35.9844,10717,2292
1.7551,238.2232,-696,9924,36.0342,10717,2292
1.41517,235.3636,-695,9925,35.9844,10717,2292
1.69708,230.6154,-694,9926,36.1836,10717,2292
1.24296,226.7851,-693,9927,36.2334,10717,2292
0.961803,223.9418,-692,9928,36.084,10717,2292
2.36199,219.9919,-691,9929,35.9844,10717,2292
1.63993,214.5085,-690,9930,36.0342,10717,2292
1.69708,207.7272,-689,9931,36.0342,10717,2292
1.91864,199.7513,-688,9932,35.7853,10717,2292
1.80334,190.3366,-687,9933,36.084,10992,2257
3.27403,179.6811,-686,9934,36.084,10992,2257
1.6341,168.3786,-685,9935,36.0342,10992,2257
1.84257,157.0492,-684,9936,36.084,10992,2257
2.11714,145.2739,-683,9937,35.9844,10992,2257
2.44921,132.5305,-682,9938,35.9844,10992,2257
1.27702,118.6037,-681,9939,36.0342,10992,2257
3.40679,103.7539,-680,9940,35.9844,10992,2257
2.03678,89.61682,-679,9941,36.084,10992,2257
1.9798,76.74534,-678,9942,36.084,10992,2257
1.45505,67.90117,-677,9943,35.9844,11134,2234
2.29648,59.94249,-676,9944,35.8849,11134,2234
1.75781,43.8314,-675,9945,35.9844,11134,2234
2.52588,12.40621,-674,9946,35.9844,11134,2234
1.60466,29.29738,-673,9947,36.084,11134,2234
1.6165,70.56403,-672,9948,36.084,11134,2234
2.71161,113.1205,-671,9949,35.8849,11134,2234
1.73323,147.8487,-670,9950,35.9844,11134,2234
2.23118,154.913,-669,9951,36.084,11134,2234
1.44188,130.8668,-668,9952,36.0342,11134,2234
1.9798,115.4623,-667,9953,35.8849,10996,2236
1.53789,125.9359,-666,9954,36.084,10996,2236
1.3029,131.9873,-665,9955,36.084,10996,2236
1.18402,127.6803,-664,9956,35.8351,10996,2236
0.981433,92.37731,-663,9957,36.084,10996,2236
1.68298,85.62734,-662,9958,36.0342,10996,2236
2.44336,134.1468,-661,9959,36.2334,10996,2236
1.36719,208.0013,-660,9960,35.9844,10996,2236
1.54717,240.0485,-659,9961,35.8849,10996,2236
0.961803,235.0219,-658,9962,35.9844,10996,2236
2.11037,176.3828,-657,9963,36.084,10638,2254
1.3029,104.5806,-656,9964,35.9844,10638,2254
1.66589,158.0499,-655,9965,36.084,10638,2254
1.66303,217.1149,-654,9966,36.084,10638,2254
0.717624,203.8438,-653,9967,35.9844,10638,2254
1.15548,168.7838,-652,9968,35.9844,10638,2254
1.41854,153.1532,-651,9969,36.084,10638,2254
1.89865,154.88,-650,9970,35.8849,10638,2254
3.84101,169.3339,-649,9971,36.084,10638,2254
0.926449,175.5312,-648,9972,35.9844,10638,2254
0.961803,159.6908,-647,9973,36.084,10311,2272
0.690534,137.7352,-646,9974,36.0342,10311,2272
1.76323,125.1246,-645,9975,36.0342,10311,2272
1.1472,124.7421,-644,9976,35.9844,10311,2272
1.01016,126.5173,-643,9977,35.9844,10311,2272
1.4118,121.826,-642,9978,35.9844,10311,2272
0.793363,113.6303,-641,9979,35.9844,10311,2272
1.02423,110.5898,-640,9980,35.9844,10311,2272
5.69596,114.2284,-639,9981,35.9844,10311,2272
2.00612,118.2824,-638,9982,35.9844,10311,2272
0.981433,118.5883,-637,9983,36.1836,10093,2302
1.17998,115.0378,-636,9984,36.084,10093,2302
0.617632,107.758,-635,9985,36.084,10093,2302
1.63702,103.3552,-634,9986,36.1836,10093,2302
1.28817,103.5779,-633,9987,35.9844,10093,2302
1.06082,111.8303,-632,9988,35.9844,10093,2302
1.4681,122.4429,-631,9989,36.0342,10093,2302
0.497951,127.0116,-630,9990,35.9844,10093,2302
0.995902,127.1676,-629,9991,35.9844,10093,2302
1.48103,123.9747,-628,9992,36.084,10093,2302
0.601994,119.0927,-627,9993,35.9844,10019,2317
1.15135,116.8984,-626,9994,36.0342,10019,2317
1.28447,119.0391,-625,9995,36.0342,10019,2317
0.338291,124.5851,-624,9996,35.9844,10019,2317
1.25442,132.1131,-623,9997,35.8849,10019,2317
1.57163,138.7976,-622,9998,35.9844,10019,2317
1.69708,142.4904,-621,9999,35.9844,10019,2317
1.3637,142.4264,-620,10000,35.8849,10019,2317
2.05543,140.0427,-619,10001,35.9844,10019,2317
0.497951,136.1264,-618,10002,35.8849,10019,2317
1.28817,122.6899,-617,10003,36.3827,10022,2312
1.6341,127.4078,-616,10004,36.3329,10022,2312
0.625305,157.7378,-615,10005,36.084,10022,2312
1.44518,199.2273,-614,10006,35.8849,10022,2312
1.52856,237.1105,-613,10007,35.8849,10022,2312
1.96287,273.1144,-612,10008,35.9844,10022,2312
2.05078,257.2224,-611,10009,36.084,10022,2312
1.67161,202.834,-610,10010,36.0342,10022,2312
2.52021,161.3944,-609,10011,36.084,10022,2312
1.77401,137.6845,-608,10012,35.9844,10022,2312
0.921287,133.2393,-607,10013,35.9844,10070,2294
1.19205,150.6353,-606,10014,36.2334,10070,2294
1.36019,171.2126,-605,10015,36.084,10070,2294
1.62826,203.1033,-604,10016,36.084,10070,2294
0.218366,254.862,-603,10017,36.0342,10070,2294
1.54717,267.2923,-602,10018,36.0342,10070,2294
1.54099,210.6013,-601,10019,35.9844,10070,2294
0.840071,156.4613,-600,10020,35.8849,10070,2294
1.40163,138.377,-599,10021,36.084,10070,2294
2.75349,126.4053,-598,10022,36.084,10070,2294
0.768946,132.695,-597,10023,36.2334,10137,2279
0.895034,151.1041,-596,10024,35.9844,10137,2279
0.878906,157.689,-595,10025,35.9844,10137,2279
1.44518,149.8748,-594,10026,35.8849,10137,2279
1.40842,137.648,-593,10027,35.9844,10137,2279
1.76323,129.2625,-592,10028,35.9844,10137,2279
1.45505,128.1482,-591,10029,35.8351,10137,2279
1.59273,131.9618,-590,10030,35.8849,10137,2279
1.59572,136.5461,-589,10031,36.084,10137,2279
1.26577,137.6976,-588,10032,36.084,10137,2279
1.99659,135.7006,-587,10033,35.9844,10199,2307
1.958,131.9847,-586,10034,35.9844,10199,2307
2.47246,129.3398,-585,10035,35.9844,10199,2307
2.34578,129.0582,-584,10036,35.9844,10199,2307
0.655098,129.9068,-583,10037,36.2334,10199,2307
1.49385,129.7024,-582,10038,36.0342,10199,2307
1.88858,132.0642,-581,10039,35.9844,10199,2307
2.30477,139.0874,-580,10040,35.9844,10199,2307
2.57635,148.5359,-579,10041,35.8849,10199,2307
1.14304,157.9159,-578,10042,35.8849,10199,2307
2.25668,164.6936,-577,10043,35.9844,10142,2354
1.39139,169.325,-576,10044,35.9844,10142,2354
1.18402,173.8981,-575,10045,35.8351,10142,2354
1.3637,181.1029,-574,10046,36.2334,10142,2354
0.828641,190.0884,-573,10047,36.2334,10142,2354
2.32946,199.0075,-572,10048,36.2334,10142,2354
2.16392,207.3049,-571,10049,36.084,10142,2354
1.41854,215.0803,-570,10050,36.1836,10142,2354
0.737289,221.8181,-569,10051,36.0342,10142,2354
1.73047,227.3539,-568,10052,36.084,10142,2354
4.26457,231.5979,-567,10053,35.9844,9979,2433
1.54408,235.9052,-566,10054,36.084,9979,2433
0.640375,239.2692,-565,10055,35.9844,9979,2433
0.941763,241.1324,-564,10056,36.0342,9979,2433
2.44921,241.841,-563,10057,36.084,9979,2433
1.47134,242.0115,-562,10058,36.2334,9979,2433
1.61355,241.4249,-561,10059,35.6857,9979,2433
1.57163,240.5541,-560,10060,36.0342,9979,2433
0.710948,238.8255,-559,10061,36.2334,9979,2433
1.00068,234.5928,-558,10062,35.9844,9979,2433
3.10356,227.3384,-557,10063,35.9844,9805,2514
1.02423,217.5654,-556,10064,36.0342,9805,2514
1.67161,209.4666,-555,10065,36.084,9805,2514
0.956832,203.7153,-554,10066,35.8849,9805,2514
0.365396,198.2846,-553,10067,36.084,9805,2514
1.31745,191.9406,-552,10068,35.8849,9805,2514
0.507437,184.9099,-551,10069,36.0342,9805,2514
0.447517,177.4493,-550,10070,36.084,9805,2514
1.65728,169.1203,-549,10071,35.9844,9805,2514
0.697405,161.1704,-548,10072,36.0342,9805,2514
2.02504,155.9714,-547,10073,35.9844,9700,2558
1.4219,151.6519,-546,10074,35.9844,9700,2558
0.352105,145.7532,-545,10075,36.084,9700,2558
1.19604,137.2316,-544,10076,36.084,9700,2558
0.365396,127.2387,-543,10077,35.9844,9700,2558
0.730792,116.8337,-542,10078,35.8351,9700,2558
0.981433,107.1148,-541,10079,35.9844,9700,2558
0.447517,97.72931,-540,10080,36.0342,9700,2558
0.59402,88.65297,-539,10081,36.1836,9700,2558
0.921287,80.59757,-538,10082,35.7853,9700,2558
1.23912,74.88653,-537,10083,35.9844,9691,2562
1.56555,71.67627,-536,10084,36.0342,9691,2562
0.323889,70.40801,-535,10085,36.084,9691,2562
0.292969,70.897,-534,10086,35.9844,9691,2562
0.793363,73.32362,-533,10087,35.9844,9691,2562
1.04725,77.50417,-532,10088,36.084,9691,2562
0.352105,82.7958,-531,10089,35.9844,9691,2562
0.683594,88.68868,-530,10090,36.084,9691,2562
1.17594,95.19966,-529,10091,36.2334,9691,2562
0.811194,102.4234,-528,10092,35.9844,9691,2562
0.497951,111.5925,-527,10093,35.9844,9694,2546
4.60022,121.6904,-526,10094,35.8849,9694,2546
0.617632,130.9578,-525,10095,35.8849,9694,2546
0.534885,140.2688,-524,10096,36.0342,9694,2546
0.78733,150.2882,-523,10097,35.8849,9694,2546
0.569429,160.3669,-522,10098,35.9844,9694,2546
0.436732,170.3079,-521,10099,36.2334,9694,2546
0.352105,179.9651,-520,10100,36.0342,9694,2546
0.577742,189.1989,-519,10101,35.7853,9694,2546
0.338291,198.3968,-518,10102,36.0342,9694,2546
0.878906,207.0441,-517,10103,35.9844,9753,2499
5.66743,215.4967,-516,10104,35.9844,9753,2499
0.478416,223.0552,-515,10105,36.084,9753,2499
0.851347,229.6995,-514,10106,35.9844,9753,2499
1.09183,235.7829,-513,10107,36.1836,9753,2499
0.916097,242.3434,-512,10108,35.9844,9753,2499
0.966748,249.0508,-511,10109,36.0342,9753,2499
1.27702,255.4907,-510,10110,36.1836,9753,2499
0.690534,262.0686,-509,10111,35.9844,9753,2499
0.921287,268.7749,-508,10112,36.0342,9753,2499
0.889691,274.7672,-507,10113,35.9844,9864,2431
1.73047,280.4038,-506,10114,35.9844,9864,2431
1.39822,285.7576,-505,10115,36.084,9864,2431
1.56859,291.5372,-504,10116,36.084,9864,2431
0.239208,296.3807,-503,10117,36.0342,9864,2431
1.56555,301.013,-502,10118,35.8849,9864,2431
0.632885,305.046,-501,10119,35.8849,9864,2431
1.21188,308.2433,-500,10120,36.0342,9864,2431
1.21188,309.9847,-499,10121,35.9844,9864,2431
2.08537,311.6169,-498,10122,36.1836,9864,2431
1.27328,312.9058,-497,10123,36.0342,9998,2431
2.38409,312.0455,-496,10124,35.9844,9998,2431
1.67161,309.3143,-495,10125,36.2334,9998,2431
2.04146,305.7335,-494,10126,35.9844,9998,2431
1.83219,301.6519,-493,10127,36.2334,9998,2431
1.9942,295.319,-492,10128,36.0342,9998,2431
2.04379,287.0736,-491,10129,36.084,9998,2431
2.31097,278.738,-490,10130,36.084,9998,2431
0.768946,271.4747,-489,10131,36.2334,9998,2431
1.66016,263.3514,-488,10132,35.8849,9998,2431
0.921287,252.9675,-487,10133,35.9844,9998,2348
2.18584,241.4994,-486,10134,35.8849,9998,2348
0.218366,232.7065,-485,10135,35.7853,9998,2348
1.50657,223.5368,-484,10136,36.0342,9998,2348
1.1596,212.396,-483,10137,35.9844,9998,2348
1.77132,203.0484,-482,10138,35.9844,9998,2348
2.77247,196.5089,-481,10139,35.9844,9998,2348
1.71664,190.2734,-480,10140,35.8849,9998,2348
1.79804,181.7609,-479,10141,35.8351,9998,2348
1.48103,172.8142,-478,10142,35.9844,9998,2348
2.09677,164.6169,-477,10143,35.9844,10042,2288
2.06237,156.5544,-476,10144,35.8849,10042,2288
3.66178,146.8992,-475,10145,36.084,10042,2288
1.04268,139.4888,-474,10146,35.9844,10042,2288
2.05311,135.4185,-473,10147,35.9844,10042,2288
1.68014,131.6127,-472,10148,35.9844,10042,2288
2.21402,127.2555,-471,10149,36.1836,10042,2288
1.22752,122.0502,-470,10150,35.9844,10042,2288
1.89362,115.3105,-469,10151,35.9844,10042,2288
1.12198,107.6003,-468,10152,36.2334,10042,2288
2.38609,100.5081,-467,10153,36.084,10079,2218
0.900346,94.31415,-466,10154,36.0342,10079,2218
1.34255,88.22737,-465,10155,36.0342,10079,2218
1.36019,83.90041,-464,10156,36.084,10079,2218
1.40163,82.65621,-463,10157,36.2334,10079,2218
1.82437,80.94145,-462,10158,35.9844,10079,2218
1.81125,75.70111,-461,10159,35.9844,10079,2218
1.25442,67.95283,-460,10160,36.1836,10079,2218
1.56555,60.29594,-459,10161,35.9844,10079,2218
1.78473,54.46621,-458,10162,36.084,10079,2218
1.77401,51.50977,-457,10163,36.084,10055,2163
2.55591,51.25921,-456,10164,36.2334,10055,2163
1.34255,52.04778,-455,10165,35.9844,10055,2163
2.22262,52.96797,-454,10166,36.084,10055,2163
1.79804,53.58692,-453,10167,35.7853,10055,2163
2.30684,54.46115,-452,10168,36.0342,10055,2163
1.58673,56.32034,-451,10169,35.9844,10055,2163
0.690534,59.08834,-450,10170,35.9844,10055,2163
1.47134,62.5535,-449,10171,35.9844,10055,2163
2.12613,65.4421,-448,10172,35.8849,10055,2163
1.60466,67.57405,-447,10173,36.1836,10066,2153
1.13045,69.99016,-446,10174,35.8849,10066,2153
3.00204,73.74643,-445,10175,36.0342,10066,2153
1.20399,77.49773,-444,10176,36.0342,10066,2153
1.17998,80.20772,-443,10177,35.8849,10066,2153
0.828641,82.02598,-442,10178,35.9844,10066,2153
1.37415,84.01143,-441,10179,36.0342,10066,2153
1.51603,86.46284,-440,10180,36.2334,10066,2153
1.36019,89.79556,-439,10181,36.2334,10066,2153
2.11714,92.50812,-438,10182,36.1836,10066,2153
1.97498,93.87532,-437,10183,35.9844,10100,2165
0.710948,94.54848,-436,10184,35.8351,10100,2165
1.47134,94.95289,-435,10185,35.8849,10100,2165
4.1409,95.50807,-434,10186,36.084,10100,2165
1.51603,95.77394,-433,10187,36.0342,10100,2165
1.68298,95.05508,-432,10188,36.0342,10100,2165
0.840071,93.47821,-431,10189,35.8849,10100,2165
0.717624,91.32891,-430,10190,36.2334,10100,2165
1.26953,89.21344,-429,10191,36.1836,10100,2165
1.24296,87.34461,-428,10192,35.9844,10100,2165
0.292969,85.50901,-427,10193,36.084,10101,2193
1.36019,84.07455,-426,10194,36.0342,10101,2193
1.42525,84.14701,-425,10195,35.9844,10101,2193
1.11773,82.85266,-424,10196,35.9844,10101,2193
0.683594,79.06812,-423,10197,36.1836,10101,2193
0.617632,75.08475,-422,10198,36.084,10101,2193
2.43162,72.25738,-421,10199,36.0342,10101,2193
0.525895,70.1011,-420,10200,36.2334,10101,2193
1.06082,68.49896,-419,10201,35.9844,10101,2193
1.05179,67.70238,-418,10202,35.8849,10101,2193
1.79539,66.82165,-417,10203,36.1836,10102,2211
0.365396,65.77642,-416,10204,35.9844,10102,2211
1.36719,65.3807,-415,10205,35.8849,10102,2211
1.56555,66.27991,-414,10206,35.9844,10102,2211
0.655098,68.71778,-413,10207,35.9844,10102,2211
0.76272,72.27284,-412,10208,35.8849,10102,2211
0.926449,76.33934,-411,10209,36.2334,10102,2211
0.59402,81.21952,-410,10210,35.9844,10102,2211
1.59273,86.59544,-409,10211,36.0342,10102,2211
2.08537,92.47187,-408,10212,35.9844,10102,2211
1.38107,99.69296,-407,10213,35.9844,10074,2222
0.793363,106.7616,-406,10214,35.9844,10074,2222
1.21581,113.7076,-405,10215,36.084,10074,2222
5.77247,120.1763,-404,10216,35.8849,10074,2222
1.38107,126.7546,-403,10217,36.1836,10074,2222
0.710948,133.8232,-402,10218,36.1836,10074,2222
0.811194,141.0677,-401,10219,36.0342,10074,2222
0.76272,148.3003,-400,10220,35.9844,10074,2222
1.02423,155.1475,-399,10221,36.0342,10074,2222
1.89865,161.0311,-398,10222,35.9844,10074,2222
1.13045,165.8317,-397,10223,35.9844,10133,2234
1.39822,169.7231,-396,10224,36.2334,10133,2234
2.25457,172.7144,-395,10225,36.0342,10133,2234
1.59273,175.2727,-394,10226,35.9844,10133,2234
2.06237,177.8135,-393,10227,36.2334,10133,2234
1.70549,180.3478,-392,10228,35.9844,10133,2234
2.2819,180.8229,-391,10229,36.0342,10133,2234
2.33151,178.4981,-390,10230,36.0342,10133,2234
1.49385,172.8083,-389,10231,36.084,10133,2234
1.17998,164.8198,-388,10232,36.1836,10133,2234
2.11488,156.4278,-387,10233,35.9844,10186,2220
1.21581,151.7825,-386,10234,35.9844,10186,2220
1.80598,148.3338,-385,10235,35.9844,10186,2220
1.58973,147.3244,-384,10236,36.0342,10186,2220
2.7028,141.0177,-383,10237,36.084,10186,2220
2.08994,126.9475,-382,10238,35.9844,10186,2220
1.17594,113.3928,-381,10239,36.084,10186,2220
2.08079,102.3981,-380,10240,35.9844,10186,2220
1.48103,94.68888,-379,10241,36.0342,10186,2220
1.89614,88.96456,-378,10242,36.2334,10186,2220
1.7767,83.73356,-377,10243,35.9844,10134,2199
1.81651,78.51551,-376,10244,36.0342,10134,2199
1.67446,71.38296,-375,10245,36.2334,10134,2199
1.47134,86.53718,-374,10246,36.1836,10134,2199
2.05078,178.5902,-373,10247,35.8351,10134,2199
1.76323,155.9478,-372,10248,35.9844,10134,2199
1.83479,195.1041,-371,10249,36.0342,10134,2199
0.625305,157.0856,-370,10250,36.2334,10134,2199
1.69427,271.5376,-369,10251,36.084,10134,2199
2.32126,292.5564,-368,10252,36.0342,10134,2199
2.38409,176.4506,-367,10253,35.9844,9922,2213
1.11773,98.32065,-366,10254,35.8849,9922,2213
1.70549,128.4766,-365,10255,36.2334,9922,2213
2.22905,139.7197,-364,10256,36.0342,9922,2213
1.70829,138.5416,-363,10257,35.9844,9922,2213
1.17998,140.7688,-362,10258,36.2334,9922,2213
2.41983,146.9938,-361,10259,36.2334,9922,2213
2.51263,155.6094,-360,10260,35.8849,9922,2213
2.17052,159.1597,-359,10261,35.9844,9922,2213
1.79804,155.3369,-358,10262,36.084,9922,2213
1.47781,151.2128,-357,10263,36.0342,9717,2275
1.81388,148.6198,-356,10264,36.2334,9717,2275
1.28817,153.5274,-355,10265,36.084,9717,2275
1.89362,162.7415,-354,10266,35.9844,9717,2275
3.87192,169.4648,-353,10267,36.084,9717,2275
1.19205,172.3529,-352,10268,35.9844,9717,2275
1.38107,160.8906,-351,10269,36.0342,9717,2275
1.87846,173.475,-350,10270,36.0342,9717,2275
1.27328,219.7762,-349,10271,35.9844,9717,2275
0.811194,245.4192,-348,10272,36.1836,9717,2275
1.00068,203.8826,-347,10273,36.2334,9598,2333
1.54408,217.0832,-346,10274,36.1836,9598,2333
1.07865,186.3852,-345,10275,36.084,9598,2333
1.92608,152.7711,-344,10276,36.084,9598,2333
1.36019,160.6836,-343,10277,35.9844,9598,2333
0.921287,167.6993,-342,10278,35.9844,9598,2333
1.58673,165.1212,-341,10279,36.084,9598,2333
0.640375,155.0154,-340,10280,35.8849,9598,2333
1.09183,144.1719,-339,10281,36.0342,9598,2333
1.15548,134.3986,-338,10282,35.9844,9598,2333
1.59273,127.8278,-337,10283,36.0342,9537,2393
0.625305,123.196,-336,10284,35.9844,9537,2393
0.895034,118.7054,-335,10285,36.084,9537,2393
0.601994,113.0227,-334,10286,35.9844,9537,2393
0.195313,104.9544,-333,10287,35.9844,9537,2393
1.94088,98.19933,-332,10288,36.0342,9537,2393
1.01956,93.43874,-331,10289,36.0342,9537,2393
0.447517,87.20529,-330,10290,35.9844,9537,2393
0.425674,78.30913,-329,10291,36.2334,9537,2393
0.697405,65.62775,-328,10292,36.084,9537,2393
0.625305,54.08817,-327,10293,36.0342,9483,2450
0.402647,44.48353,-326,10294,36.2334,9483,2450
0.828641,38.45815,-325,10295,35.9844,9483,2450
0.292969,38.79378,-324,10296,35.9844,9483,2450
0.169146,41.90142,-323,10297,36.2334,9483,2450
2.97651,40.11733,-322,10298,36.084,9483,2450
0.560992,27.02142,-321,10299,35.8849,9483,2450
0.352105,12.34782,-320,10300,36.084,9483,2450
0.655098,18.16429,-319,10301,36.084,9483,2450
0.793363,40.33311,-318,10302,36.084,9483,2450
0.534885,53.35967,-317,10303,35.9844,9457,2465
1.25061,50.51263,-316,10304,35.9844,9457,2465
0.497951,46.74528,-315,10305,36.084,9457,2465
0.878906,51.93299,-314,10306,36.0342,9457,2465
0.352105,63.9469,-313,10307,35.8849,9457,2465
2.25034,78.09009,-312,10308,35.8849,9457,2465
1.958,88.70254,-311,10309,35.9844,9457,2465
1.0381,90.62469,-310,10310,35.8849,9457,2465
1.19205,93.41434,-309,10311,36.0342,9457,2465
0.497951,101.1937,-308,10312,36.2334,9457,2465
0.239208,105.4659,-307,10313,36.0342,9482,2459
0.889691,110.8766,-306,10314,35.9844,9482,2459
0.338291,118.1443,-305,10315,35.9844,9482,2459
0.447517,122.2958,-304,10316,36.084,9482,2459
1.11773,130.4289,-303,10317,36.2334,9482,2459
0.632885,139.1791,-302,10318,35.9844,9482,2459
1.13886,143.95,-301,10319,36.0342,9482,2459
0.632885,149.01,-300,10320,36.0342,9482,2459
0.828641,157.9521,-299,10321,35.9844,9482,2459
0.169146,168.9318,-298,10322,36.0342,9482,2459
0.690534,173.6079,-297,10323,36.0342,9499,2418
1.09183,176.8427,-296,10324,35.9844,9499,2418
0.768946,183.6672,-295,10325,35.8849,9499,2418
1.02423,191.4164,-294,10326,35.9844,9499,2418
1.28447,196.3468,-293,10327,35.9844,9499,2418
2.19672,198.4178,-292,10328,35.8849,9499,2418
3.23447,200.0704,-291,10329,35.9844,9499,2418
1.22752,200.952,-290,10330,36.2334,9499,2418
0.98628,202.0367,-289,10331,36.2334,9499,2418
1.29923,201.9403,-288,10332,36.2334,9499,2418
2.14177,200.1959,-287,10333,36.1836,9508,2351
1.37415,201.3452,-286,10334,35.9844,9508,2351
0.845728,203.6728,-285,10335,36.0342,9508,2351
1.47134,202.9961,-284,10336,36.2334,9508,2351
1.20399,201.2608,-283,10337,35.8849,9508,2351
1.59273,199.5259,-282,10338,36.084,9508,2351
6.10019,197.3911,-281,10339,36.084,9508,2351
1.36719,190.0276,-280,10340,35.9844,9508,2351
1.74146,170.7964,-279,10341,36.2334,9508,2351
2.09222,153.0507,-278,10342,36.0342,9508,2351
2.48208,198.7573,-277,10343,36.1836,9500,2273
2.23545,280.4703,-276,10344,35.9844,9500,2273
1.82437,245.6936,-275,10345,36.0342,9500,2273
1.68863,157.3973,-274,10346,36.2334,9500,2273
0.805294,174.2113,-273,10347,35.8849,9500,2273
1.19604,188.9503,-272,10348,36.0342,9500,2273
2.08994,173.4918,-271,10349,36.1836,9500,2273
2.65833,161.4486,-270,10350,35.9844,9500,2273
2.0156,168.1114,-269,10351,36.0342,9500,2273
1.96772,173.8304,-268,10352,36.1836,9500,2273
1.56859,161.1654,-267,10353,36.084,9511,2223
1.68014,145.4289,-266,10354,35.8849,9511,2223
1.92856,143.8337,-265,10355,35.8849,9511,2223
1.70549,146.9664,-264,10356,36.084,9511,2223
1.92112,146.4531,-263,10357,36.084,9511,2223
1.47458,142.9763,-262,10358,35.9844,9511,2223
1.26577,138.6602,-261,10359,36.084,9511,2223
1.69708,133.6159,-260,10360,35.9844,9511,2223
1.63702,129.9402,-259,10361,36.0342,9511,2223
1.47781,129.3764,-258,10362,36.084,9511,2223
1.3102,130.754,-257,10363,36.1836,9532,2185
2.13284,127.2555,-256,10364,36.0342,9532,2185
1.54717,120.5853,-255,10365,35.9844,9532,2185
1.84516,115.5497,-254,10366,36.084,9532,2185
1.3102,111.7306,-253,10367,35.9844,9532,2185
2.22905,107.0981,-252,10368,36.0342,9532,2185
1.26577,102.1924,-251,10369,36.1836,9532,2185
0.840071,98.62496,-250,10370,35.9844,9532,2185
0.995902,95.1245,-249,10371,36.0342,9532,2185
1.47781,92.21408,-248,10372,36.0342,9532,2185
1.36019,90.52664,-247,10373,36.084,9513,2161
0.365396,88.67583,-246,10374,35.9844,9513,2161
1.28447,85.19546,-245,10375,36.2334,9513,2161
1.53789,80.13068,-244,10376,35.8849,9513,2161
2.0739,74.19124,-243,10377,36.0342,9513,2161
1.9942,69.74649,-242,10378,36.0342,9513,2161
1.3461,66.63329,-241,10379,36.084,9513,2161
1.83479,64.65925,-240,10380,36.0342,9513,2161
1.66875,62.95006,-239,10381,36.0342,9513,2161
0.78733,61.4243,-238,10382,36.2334,9513,2161
2.10358,59.70037,-237,10383,36.1836,9475,2149
1.40163,58.55203,-236,10384,35.9844,9475,2149
1.28447,58.37438,-235,10385,36.0342,9475,2149
1.63993,59.56406,-234,10386,35.6857,9475,2149
0.85693,62.23252,-233,10387,35.9844,9475,2149
2.06237,66.30958,-232,10388,35.9844,9475,2149
1.34255,71.16992,-231,10389,35.8849,9475,2149
3.27695,75.96609,-230,10390,36.2334,9475,2149
0.436732,79.71752,-229,10391,36.2334,9475,2149
1.67161,82.27847,-228,10392,36.1836,9475,2149
1.13045,84.12797,-227,10393,36.0342,9460,2168
1.05179,85.06488,-226,10394,36.2334,9460,2168
1.17594,85.63639,-225,10395,35.9844,9460,2168
2.36401,86.96214,-224,10396,35.9844,9460,2168
2.42376,89.86473,-223,10397,35.9844,9460,2168
1.97498,93.27658,-222,10398,36.0342,9460,2168
0.683594,95.63981,-221,10399,35.9844,9460,2168
1.96529,96.883,-220,10400,35.9844,9460,2168
1.17998,97.92124,-219,10401,36.2334,9460,2168
1.6341,99.39095,-218,10402,36.2334,9460,2168
1.66303,101.4208,-217,10403,36.084,9482,2201
1.20794,103.3647,-216,10404,35.9844,9482,2201
1.3029,104.7791,-215,10405,36.0342,9482,2201
1.48103,105.1193,-214,10406,36.0342,9482,2201
2.00374,105.3153,-213,10407,35.8849,9482,2201
0.946812,105.7502,-212,10408,35.9844,9482,2201
0.817051,106.6706,-211,10409,36.0342,9482,2201
1.49066,107.1984,-210,10410,35.9844,9482,2201
2.95239,107.6886,-209,10411,35.8849,9482,2201
1.70829,108.8005,-208,10412,35.9844,9482,2201
0.851347,110.5672,-207,10413,35.8849,9484,2247
1.58673,112.9731,-206,10414,36.084,9484,2247
1.95556,115.8014,-205,10415,36.084,9484,2247
1.48746,118.0448,-204,10416,35.8849,9484,2247
1.21188,119.1533,-203,10417,35.9844,9484,2247
1.04268,119.4268,-202,10418,36.0342,9484,2247
1.45176,119.094,-201,10419,35.8849,9484,2247
1.18402,118.9058,-200,10420,35.9844,9484,2247
3.75183,118.729,-199,10421,35.9844,9484,2247
2.05078,118.2928,-198,10422,36.0342,9484,2247
1.52544,116.9762,-197,10423,36.0342,9475,2298
0.845728,115.0777,-196,10424,36.084,9475,2298
0.966748,112.6943,-195,10425,35.9844,9475,2298
1.46484,110.5526,-194,10426,35.9844,9475,2298
0.817051,108.6841,-193,10427,36.2334,9475,2298
1.16371,106.8879,-192,10428,36.0342,9475,2298
0.76272,104.1823,-191,10429,35.9844,9475,2298
0.768946,100.7488,-190,10430,35.9844,9475,2298
0.981433,96.83408,-189,10431,35.9844,9475,2298
1.06082,93.328,-188,10432,36.0342,9475,2298
1.5987,90.26379,-187,10433,36.1836,9442,2366
1.43857,86.67585,-186,10434,36.084,9442,2366
1.07422,83.08398,-185,10435,36.1836,9442,2366
0.840071,79.533,-184,10436,35.9844,9442,2366
1.66589,75.19561,-183,10437,36.084,9442,2366
0.85693,70.10142,-182,10438,36.084,9442,2366
0.85693,64.84967,-181,10439,36.3329,9442,2366
1.27702,60.54564,-180,10440,36.0342,9442,2366
1.54408,57.42821,-179,10441,36.1836,9442,2366
2.17052,55.01377,-178,10442,36.0342,9442,2366
0.601994,53.43362,-177,10443,35.8849,9447,2425
1.54717,51.61265,-176,10444,36.0342,9447,2425
1.54099,48.67897,-175,10445,36.084,9447,2425
0.717624,44.88637,-174,10446,36.084,9447,2425
1.27328,41.94479,-173,10447,36.0342,9447,2425
0.895034,40.40159,-172,10448,35.9844,9447,2425
0.59402,40.52551,-171,10449,35.9844,9447,2425
0.921287,41.79941,-170,10450,36.084,9447,2425
1.13045,44.48102,-169,10451,35.9844,9447,2425
3.53861,47.61853,-168,10452,35.9844,9447,2425
0.931581,50.18975,-167,10453,36.0342,9452,2454
1.00543,51.45014,-166,10454,35.9844,9452,2454
0.768946,51.79724,-165,10455,36.3329,9452,2454
1.13886,52.97542,-164,10456,35.9844,9452,2454
1.36019,55.064,-163,10457,35.9844,9452,2454
0.478416,56.96421,-162,10458,36.084,9452,2454
0.218366,57.72196,-161,10459,35.9844,9452,2454
0.525895,57.3972,-160,10460,35.9844,9452,2454
0.921287,56.59996,-159,10461,36.084,9452,2454
6.53714,55.83526,-158,10462,35.9844,9452,2454
0.239208,56.03027,-157,10463,36.084,9452,2458
1.76323,56.79734,-156,10464,35.9844,9452,2458
0.425674,57.01585,-155,10465,36.084,9452,2458
0.497951,57.02382,-154,10466,36.084,9452,2458
0.625305,56.97677,-153,10467,36.1836,9452,2458
0.85693,56.98762,-152,10468,35.7853,9452,2458
0.577742,57.29885,-151,10469,35.9844,9452,2458
1.10916,58.13957,-150,10470,36.084,9452,2458
1.17998,59.09754,-149,10471,36.0342,9452,2458
2.35997,59.64044,-148,10472,35.9844,9452,2458
1.28817,59.80212,-147,10473,35.7853,9429,2447
1.57769,59.76847,-146,10474,35.8849,9429,2447
1.28447,59.84596,-145,10475,35.9844,9429,2447
1.47781,59.86986,-144,10476,35.9844,9429,2447
0.625305,59.75039,-143,10477,35.9844,9429,2447
1.01016,59.81234,-142,10478,35.9844,9429,2447
1.97256,59.95442,-141,10479,35.9844,9429,2447
1.25442,60.50416,-140,10480,35.8849,9429,2447
1.17998,60.93485,-139,10481,36.2334,9429,2447
1.09619,61.25023,-138,10482,35.8849,9429,2447
1.36019,62.07752,-137,10483,36.1836,9430,2425
1.11773,62.8655,-136,10484,35.9844,9430,2425
1.25442,63.71836,-135,10485,35.9844,9430,2425
1.56859,64.82209,-134,10486,36.2334,9430,2425
1.69427,66.49875,-133,10487,36.1836,9430,2425
1.38452,68.63891,-132,10488,36.0342,9430,2425
1.04268,70.30582,-131,10489,35.8849,9430,2425
0.76272,71.75263,-130,10490,36.084,9430,2425
0.921287,74.33411,-129,10491,36.0342,9430,2425
1.24296,77.0694,-128,10492,36.084,9430,2425
0.478416,79.58741,-127,10493,35.9844,9467,2382
0.662337,82.49398,-126,10494,36.084,9467,2382
1.11773,85.56502,-125,10495,35.9844,9467,2382
0.905627,88.45668,-124,10496,36.2334,9467,2382
1.99659,90.90502,-123,10497,36.0342,9467,2382
1.77132,92.97792,-122,10498,35.8849,9467,2382
0.447517,94.69014,-121,10499,36.1836,9467,2382
0.873464,95.74438,-120,10500,36.084,9467,2382
1.29923,96.74132,-119,10501,36.1836,9467,2382
1.28447,97.78571,-118,10502,35.9844,9467,2382
4.0312,99.23656,-117,10503,35.9844,9485,2337
2.19238,100.8944,-116,10504,35.9844,9485,2337
1.33543,102.4179,-115,10505,36.1836,9485,2337
1.22752,104.1286,-114,10506,35.9844,9485,2337
1.80334,106.8394,-113,10507,35.9844,9485,2337
0.710948,109.9315,-112,10508,35.9844,9485,2337
1.21188,113.1182,-111,10509,36.2334,9485,2337
1.35668,116.3822,-110,10510,36.0342,9485,2337
1.67446,119.2312,-109,10511,36.0342,9485,2337
1.09183,121.8158,-108,10512,35.9844,9485,2337
1.44188,124.1421,-107,10513,36.084,9500,2276
1.31383,125.8408,-106,10514,35.8849,9500,2276
1.05179,127.1554,-105,10515,36.0342,9500,2276
1.49066,127.8749,-104,10516,36.084,9500,2276
0.640375,127.5935,-103,10517,36.1836,9500,2276
1.44518,126.2622,-102,10518,36.084,9500,2276
0.926449,124.064,-101,10519,35.9844,9500,2276
0.525895,121.2709,-100,10520,36.084,9500,2276
1.00543,118.7699,-99,10521,36.0342,9500,2276
1.66589,116.3881,-98,10522,35.9844,9500,2276
1.22363,113.5255,-97,10523,35.9844,9508,2247
1.09619,110.1599,-96,10524,36.2334,9508,2247
1.4118,106.902,-95,10525,36.0342,9508,2247
1.83998,104.7752,-94,10526,35.9844,9508,2247
1.97498,103.3332,-93,10527,36.084,9508,2247
2.18802,101.8892,-92,10528,35.8849,9508,2247
1.54099,100.1757,-91,10529,36.084,9508,2247
1.66303,98.30481,-90,10530,36.2334,9508,2247
0.617632,96.19334,-89,10531,35.9844,9508,2247
1.5034,94.85193,-88,10532,36.084,9508,2247
3.70708,94.53989,-87,10533,36.3329,9568,2242
0.840071,95.06809,-86,10534,35.9844,9568,2242
1.24679,95.86072,-85,10535,36.084,9568,2242
1.93596,95.73621,-84,10536,35.8849,9568,2242
1.43525,95.5908,-83,10537,36.2334,9568,2242
1.43857,97.64297,-82,10538,36.084,9568,2242
1.48103,100.0578,-81,10539,36.084,9568,2242
2.41588,100.6855,-80,10540,36.0342,9568,2242
2.11263,101.9693,-79,10541,36.084,9568,2242
2.1771,105.2284,-78,10542,35.8849,9568,2242
4.96609,108.6709,-77,10543,36.084,9613,2254
4.88086,112.5726,-76,10544,36.2334,9613,2254
2.11714,116.4579,-75,10545,36.084,9613,2254
2.0693,120.9867,-74,10546,35.9844,9613,2254
1.80334,126.0259,-73,10547,35.9844,9613,2254
2.6922,131.491,-72,10548,36.1836,9613,2254
1.45176,137.3823,-71,10549,36.2334,9613,2254
1.26953,143.69,-70,10550,35.9844,9613,2254
1.36019,150.0526,-69,10551,35.9844,9613,2254
2.41193,156.0254,-68,10552,35.8849,9613,2254
1.72772,162.0463,-67,10553,35.9844,9654,2274
1.28447,168.3187,-66,10554,36.084,9654,2274
2.5819,174.4782,-65,10555,35.9844,9654,2274
1.34255,180.5496,-64,10556,36.084,9654,2274
2.24822,186.5205,-63,10557,36.084,9654,2274
2.32946,192.4535,-62,10558,36.1836,9654,2274
1.77132,198.346,-61,10559,36.0342,9654,2274
2.69397,204.2622,-60,10560,36.084,9654,2274
1.68298,209.9694,-59,10561,36.084,9654,2274
1.61059,215.526,-58,10562,35.9844,9654,2274
1.9798,220.4701,-57,10563,35.9844,9679,2315
2.45115,224.9205,-56,10564,35.9844,9679,2315
1.42525,229.167,-55,10565,35.9844,9679,2315
0.710948,233.3209,-54,10566,35.9844,9679,2315
1.47134,236.8106,-53,10567,35.9844,9679,2315
2.50313,240.1266,-52,10568,36.1836,9679,2315
1.27702,243.2308,-51,10569,35.8849,9679,2315
1.90116,245.3051,-50,10570,36.084,9679,2315
0.697405,247.0945,-49,10571,35.9844,9679,2315
0.895034,248.8192,-48,10572,36.0342,9679,2315
1.88858,250.549,-47,10573,36.0342,9725,2315
5.50092,252.0547,-46,10574,36.084,9725,2315
1.80069,254.452,-45,10575,36.0342,9725,2315
1.56859,257.5077,-44,10576,35.8849,9725,2315
1.14304,260.7122,-43,10577,36.1836,9725,2315
1.07422,264.8522,-42,10578,36.0342,9725,2315
0.690534,269.5019,-41,10579,36.084,9725,2315
1.18402,272.814,-40,10580,35.8849,9725,2315
1.39822,276.1982,-39,10581,36.084,9725,2315
0.85693,281.8411,-38,10582,36.084,9725,2315
1.17998,288.8368,-37,10583,35.9844,9725,2362
1.25821,293.8428,-36,10584,35.8351,9725,2362
1.96529,296.7475,-35,10585,35.9844,9725,2362
1.0381,300.8838,-34,10586,35.9844,9725,2362
1.27702,305.5598,-33,10587,36.1836,9725,2362
1.23912,309.2537,-32,10588,35.9844,9725,2362
0.878906,314.1095,-31,10589,36.0342,9725,2362
0.365396,317.9725,-30,10590,36.0342,9725,2362
0.926449,320.1637,-29,10591,36.0342,9725,2362
0.632885,323.6488,-28,10592,35.8351,9725,2362
0.981433,330.6384,-27,10593,35.9844,9736,2409
0.365396,339.2589,-26,10594,36.0342,9736,2409
1.25061,345.0467,-25,10595,36.1836,9736,2409
1.07865,348.9222,-24,10596,36.0342,9736,2409
0.534885,355.4321,-23,10597,35.9844,9736,2409
0.352105,361.7317,-22,10598,35.9844,9736,2409
1.1472,365.682,-21,10599,35.9844,9736,2409
0.793363,370.1832,-20,10600,36.084,9736,2409
0.710948,373.7819,-19,10601,36.0342,9736,2409
0.41432,376.4409,-18,10602,35.9844,9736,2409
0.601994,378.7541,-17,10603,36.084,9818,2462
0.946812,382.8758,-16,10604,35.9844,9818,2462
1.52544,387.3721,-15,10605,36.084,9818,2462
0.717624,391.4361,-14,10606,35.8849,9818,2462
0.632885,395.403,-13,10607,35.9844,9818,2462
1.14304,398.0265,-12,10608,35.9844,9818,2462
0.525895,401.2225,-11,10609,36.0342,9818,2462
0.577742,403.5667,-10,10610,35.8849,9818,2462
0.632885,404.1898,-9,10611,36.2334,9818,2462
0.966748,404.6633,-8,10612,35.8849,9818,2462
0.292969,410.811,-7,10613,35.8849,9933,2504
0.76272,418.3283,-6,10614,35.9844,9933,2504
1.88606,428.1877,-5,10615,36.0342,9933,2504
1.48103,476.7969,-4,10616,35.9844,9933,2504
1.44518,473.8579,-3,10617,36.084,9933,2504
1.37415,418.1841,-2,10618,36.0342,9933,2504
0.905627,375.7651,-1,10619,36.0342,9933,2504
28.3568,325.4788,0,10620,36.2334,9933,2504
1.50657,369.2611,1,10621,36.0342,9933,2504
1.62826,327.2267,2,10622,36.084,9933,2504
1.51603,313.1693,3,10623,36.0342,10146,2540
1.1472,368.062,4,10624,36.084,10146,2540
4.10621,394.4517,5,10625,36.2334,10146,2540
1.02423,356.757,6,10626,36.084,10146,2540
0.905627,327.2293,7,10627,35.9844,10146,2540
1.0381,325.8403,8,10628,35.9844,10146,2540
0.941763,327.8002,9,10629,36.1836,10146,2540
0.601994,319.1123,10,10630,36.2334,10146,2540
1.64863,306.3919,11,10631,35.9844,10146,2540
1.47134,295.6837,12,10632,36.1836,10146,2540
0.365396,287.6912,13,10633,36.0342,10191,2614
1.01487,281.08,14,10634,36.2334,10191,2614
0.78733,274.8827,15,10635,36.084,10191,2614
1.37415,271.027,16,10636,35.8351,10191,2614
1.25442,270.591,17,10637,35.9844,10191,2614
1.09619,271.0218,18,10638,36.2334,10191,2614
19.563,309.3043,19,10639,36.0342,10191,2614
2.89366,468.0164,20,10640,35.9844,10191,2614
0.834375,437.4743,21,10641,36.0342,10191,2614
0.981433,348.1964,22,10642,36.1836,10191,2614
0.632885,276.0478,23,10643,36.0342,10153,2682
2.37809,223.8684,24,10644,35.9844,10153,2682
1.37415,214.1241,25,10645,35.8849,10153,2682
0.710948,230.1785,26,10646,36.0342,10153,2682
1.57163,244.4242,27,10647,35.9844,10153,2682
1.3102,241.4254,28,10648,35.8351,10153,2682
0.956832,239.1466,29,10649,36.1836,10153,2682
0.710948,244.3864,30,10650,35.9844,10153,2682
1.30655,252.6322,31,10651,36.1836,10153,2682
0.85693,248.755,32,10652,36.084,10153,2682
1.06082,236.9996,33,10653,36.084,10194,2678
1.38796,222.8735,34,10654,35.8849,10194,2678
1.23912,212.6008,35,10655,35.9844,10194,2678
4.08992,201.8659,36,10656,35.9844,10194,2678
0.447517,192.0047,37,10657,36.2334,10194,2678
1.32827,190.1843,38,10658,35.9844,10194,2678
0.78733,187.7031,39,10659,36.0342,10194,2678
0.647778,183.048,40,10660,36.2334,10194,2678
1.31745,183.0389,41,10661,35.8849,10194,2678
1.73323,186.1512,42,10662,35.9844,10194,2678
0.239208,184.7597,43,10663,36.084,10162,2696
0.811194,187.7574,44,10664,35.9844,10162,2696
0.534885,202.439,45,10665,36.084,10162,2696
2.25034,220.561,46,10666,35.9844,10162,2696
1.25061,245.0506,47,10667,36.0342,10162,2696
0.946812,257.132,48,10668,35.9844,10162,2696
0.525895,256.8119,49,10669,35.9844,10162,2696
0.625305,249.1644,50,10670,35.9844,10162,2696
0.365396,236.688,51,10671,35.9844,10162,2696
0.683594,234.4329,52,10672,36.1836,10162,2696
1.14304,238.9174,53,10673,36.084,10154,2728
0.402647,234.4441,54,10674,35.9844,10154,2728
1.16371,220.2496,55,10675,35.7853,10154,2728
1.17594,213.8594,56,10676,35.9844,10154,2728
0.338291,220.6933,57,10677,36.0342,10154,2728
1.51603,225.9684,58,10678,35.9844,10154,2728
0.534885,224.9235,59,10679,35.9844,10154,2728
1.24296,210.3429,60,10680,36.1836,10154,2728
0.625305,188.9167,61,10681,36.1836,10154,2728
1.01016,167.9555,62,10682,36.0342,10154,2728
1.13045,160.585,63,10683,35.8849,10163,2729
1.63993,164.3969,64,10684,36.1836,10163,2729
1.11773,168.0891,65,10685,36.0342,10163,2729
1.46484,172.4764,66,10686,35.9844,10163,2729
2.75349,181.2232,67,10687,35.7853,10163,2729
1.8606,193.5673,68,10688,35.9844,10163,2729
1.80598,207.8218,69,10689,35.9844,10163,2729
1.20794,215.3021,70,10690,36.3329,10163,2729
0.834375,217.7298,71,10691,36.084,10163,2729
0.743728,213.1696,72,10692,36.0342,10163,2729
1.57466,206.502,73,10693,36.084,10174,2739
1.11773,201.6343,74,10694,35.9844,10174,2739
0.569429,192.3469,75,10695,35.9844,10174,2739
1.41517,169.8891,76,10696,36.3329,10174,2739
5.40825,143.1409,77,10697,36.0342,10174,2739
0.690534,121.9771,78,10698,35.9844,10174,2739
0.828641,105.8302,79,10699,36.2334,10174,2739
1.45176,97.67105,80,10700,36.0342,10174,2739
1.33185,95.50151,81,10701,35.9844,10174,2739
0.352105,86.79628,82,10702,36.0342,10174,2739
1.0381,73.03652,83,10703,36.084,10173,2731
0.926449,70.10482,84,10704,35.9844,10173,2731
1.38796,72.05365,85,10705,35.8849,10173,2731
1.28447,86.64774,86,10706,35.8849,10173,2731
0.946812,108.2998,87,10707,36.2334,10173,2731
1.49066,117.7463,88,10708,36.0342,10173,2731
0.683594,118.1134,89,10709,36.1836,10173,2731
1.54408,122.4234,90,10710,35.9844,10173,2731
0.425674,115.1923,91,10711,36.0342,10173,2731
1.9942,103.9624,92,10712,36.2334,10173,2731
1.13886,93.25421,93,10713,36.084,10221,2747
1.26953,91.25815,94,10714,36.084,10221,2747
1.5034,89.64068,95,10715,36.2334,10221,2747
1.79273,89.11651,96,10716,35.9844,10221,2747
1.05631,88.646,97,10717,36.084,10221,2747
2.01324,85.0287,98,10718,36.0342,10221,2747
1.21581,86.43311,99,10719,36.084,10221,2747
1.05179,94.5447,100,10720,35.9844,10221,2747
