Linear acceleration,Rotational velocity,Time values,Absolute time values,Temperature,Ambient light,Reflected light
1.50657,131.53907,-2000,3247,21.7467,7047,469
0.768946,129.11398,-1999,3248,21.6472,7047,469
1.02423,127.6793,-1998,3249,21.6472,7047,469
1.28817,125.41101,-1997,3250,21.7467,7047,469
0.676582,123.24973,-1996,3251,21.7965,7047,469
1.09183,120.99213,-1995,3252,21.6472,7047,469
1.19205,116.639,-1994,3253,21.7467,7057,469
0.730792,113.36317,-1993,3254,21.6472,7057,469
1.53789,114.67933,-1992,3255,21.7467,7057,469
1.5034,118.48526,-1991,3256,21.6472,7057,469
1.3029,119.02575,-1990,3257,21.5476,7057,469
1.05631,114.01766,-1989,3258,21.5476,7057,469
0.805294,106.32612,-1988,3259,21.7965,7057,469
1.20794,100.95746,-1987,3260,21.7965,7057,469
1.21188,99.613339,-1986,3261,21.8463,7057,469
1.45176,97.433982,-1985,3262,21.7467,7057,469
1.71386,93.467366,-1984,3263,21.5974,7081,468
1.36719,90.713931,-1983,3264,21.7965,7081,468
1.09183,89.608423,-1982,3265,21.7467,7081,468
0.717624,89.232897,-1981,3266,21.6472,7081,468
2.68865,92.400937,-1980,3267,21.6472,7081,468
1.60168,95.211479,-1979,3268,21.5974,7081,468
0.577742,88.33995,-1978,3269,21.5974,7081,468
1.40163,78.491211,-1977,3270,21.6472,7081,468
1.22752,71.81408,-1976,3271,21.7467,7081,468
1.23912,68.89504,-1975,3272,21.7467,7081,468
1.25061,66.640329,-1974,3273,21.7467,7090,467
1.67446,63.797127,-1973,3274,21.7965,7090,467
2.15287,61.350868,-1972,3275,21.7965,7090,467
1.14304,59.571938,-1971,3276,21.7965,7090,467
1.21188,57.987639,-1970,3277,21.7965,7090,467
1.6165,56.694663,-1969,3278,21.6472,7090,467
0.926449,56.358952,-1968,3279,21.6472,7090,467
0.488281,57.46712,-1967,3280,21.7467,7090,467
1.21581,59.270385,-1966,3281,21.6472,7090,467
1.67161,66.114232,-1965,3282,21.6472,7090,467
1.18402,63.172537,-1964,3283,21.6472,7105,467
0.840071,53.733405,-1963,3284,21.7467,7105,467
1.17594,47.809972,-1962,3285,21.7467,7105,467
0.926449,46.870072,-1961,3286,21.7467,7105,467
1.80334,45.364193,-1960,3287,21.7467,7105,467
0.98628,41.691078,-1959,3288,21.7965,7105,467
0.926449,42.31088,-1958,3289,21.6472,7105,467
0.447517,47.412336,-1957,3290,21.5974,7105,467
1.14304,52.683771,-1956,3291,21.7467,7105,467
0.793363,56.310018,-1955,3292,21.9459,7105,467
0.697405,58.337478,-1954,3293,21.5974,7103,466
1.57769,61.346132,-1953,3294,21.7467,7103,466
1.39822,65.99817,-1952,3295,21.5974,7103,466
1.21188,79.357064,-1951,3296,21.6472,7103,466
0.845728,89.106479,-1950,3297,21.6472,7103,466
2.14622,87.623955,-1949,3298,21.8463,7103,466
1.05631,86.188902,-1948,3299,21.5476,7103,466
0.966748,94.287681,-1947,3300,21.7467,7103,466
1.17998,102.86704,-1946,3301,21.7965,7103,466
1.3029,105.24819,-1945,3302,21.7965,7103,466
0.717624,108.47718,-1944,3303,21.7467,7137,466
0.98628,118.90814,-1943,3304,21.6472,7137,466
0.647778,127.46771,-1942,3305,21.7467,7137,466
0.690534,130.11676,-1941,3306,21.7467,7137,466
0.507437,136.29756,-1940,3307,21.5476,7137,466
0.617632,147.09797,-1939,3308,21.7467,7137,466
1.88353,153.2103,-1938,3309,21.7467,7137,466
0.98628,151.92306,-1937,3310,21.6472,7137,466
1.27328,152.28079,-1936,3311,21.7467,7137,466
1.20794,157.62643,-1935,3312,21.7467,7137,466
0.878906,165.58621,-1934,3313,21.7467,7178,460
0.292969,169.31764,-1933,3314,21.9459,7178,460
0.647778,168.05859,-1932,3315,21.7467,7178,460
0.931581,164.69733,-1931,3316,21.7467,7178,460
0.365396,159.0801,-1930,3317,21.7467,7178,460
0.768946,159.30124,-1929,3318,21.7965,7178,460
0.76272,167.94404,-1928,3319,21.7467,7178,460
1.73872,172.31534,-1927,3320,21.7467,7178,460
0.601994,168.54485,-1926,3321,21.7467,7178,460
0.900346,161.1582,-1925,3322,21.7965,7178,460
0.497951,152.80829,-1924,3323,21.7467,7222,457
0.730792,156.0865,-1923,3324,21.5974,7222,457
0.507437,180.39419,-1922,3325,21.7467,7222,457
0.218366,193.98455,-1921,3326,21.7965,7222,457
0.365396,198.56353,-1920,3327,21.7467,7222,457
0.625305,192.91972,-1919,3328,21.6472,7222,457
0.59402,178.12108,-1918,3329,21.7467,7222,457
0.730792,156.94882,-1917,3330,21.7467,7222,457
0.889691,140.39116,-1916,3331,21.7467,7222,457
1.51603,140.98196,-1915,3332,21.7467,7222,457
1.05179,146.21089,-1914,3333,21.6472,7235,459
0.697405,149.65432,-1913,3334,21.7467,7235,459
0.569429,153.88569,-1912,3335,21.7965,7235,459
0.981433,157.35881,-1911,3336,21.7467,7235,459
0.76272,156.115,-1910,3337,21.7467,7235,459
0.828641,150.58005,-1909,3338,21.6472,7235,459
1.27702,143.79577,-1908,3339,21.8463,7235,459
1.34255,137.19079,-1907,3340,21.7467,7235,459
1.01956,132.86758,-1906,3341,21.7965,7235,459
1.5034,125.48531,-1905,3342,21.5974,7235,459
1.55332,122.50369,-1904,3343,21.7467,7240,463
1.02423,124.76756,-1903,3344,21.7965,7240,463
0.704209,129.54835,-1902,3345,21.7965,7240,463
0.647778,134.09889,-1901,3346,21.9459,7240,463
0.981433,135.34471,-1900,3347,21.7467,7240,463
1.07865,132.4064,-1899,3348,21.7467,7240,463
0.78733,126.75749,-1898,3349,21.7467,7240,463
0.862477,124.16201,-1897,3350,21.5974,7240,463
1.17594,122.24359,-1896,3351,21.9459,7240,463
0.730792,116.7312,-1895,3352,21.7467,7240,463
0.981433,111.20927,-1894,3353,21.8463,7236,464
1.19205,105.32794,-1893,3354,21.6472,7236,464
1.14304,100.96543,-1892,3355,21.7467,7236,464
1.40163,97.2309,-1891,3356,21.7965,7236,464
0.717624,92.58484,-1890,3357,21.6472,7236,464
1.23912,91.155796,-1889,3358,21.7965,7236,464
1.19205,90.995619,-1888,3359,21.6472,7236,464
1.92112,88.399811,-1887,3360,21.7467,7236,464
1.17998,83.086582,-1886,3361,21.7467,7236,464
2.34985,79.225326,-1885,3362,21.5476,7236,464
1.1596,79.960993,-1884,3363,21.7467,7256,463
1.33185,83.789511,-1883,3364,21.7467,7256,463
1.3102,87.12272,-1882,3365,21.6472,7256,463
0.921287,87.098772,-1881,3366,21.6472,7256,463
0.793363,87.741301,-1880,3367,21.7965,7256,463
1.14304,94.409135,-1879,3368,21.7965,7256,463
1.31745,99.787086,-1878,3369,21.5974,7256,463
1.70549,97.468692,-1877,3370,21.7467,7256,463
0.59402,91.332254,-1876,3371,21.7467,7256,463
1.83479,86.466634,-1875,3372,21.7965,7256,463
1.17188,88.558457,-1874,3373,21.7467,7264,462
1.69708,96.07616,-1873,3374,21.6472,7264,462
1.32467,99.024383,-1872,3375,21.7467,7264,462
1.23912,92.797929,-1871,3376,21.7467,7264,462
0.497951,84.368338,-1870,3377,21.7965,7264,462
1.22752,79.903016,-1869,3378,21.6472,7264,462
1.07865,78.803454,-1868,3379,21.8463,7264,462
0.690534,75.67493,-1867,3380,21.7467,7264,462
0.560992,68.90315,-1866,3381,21.7965,7264,462
1.23526,61.558547,-1865,3382,21.8463,7264,462
0.78733,57.818691,-1864,3383,21.7965,7299,465
0.884315,58.182097,-1863,3384,21.7965,7299,465
1.86572,59.891631,-1862,3385,21.7467,7299,465
1.50657,60.636516,-1861,3386,21.6472,7299,465
0.647778,59.573064,-1860,3387,21.6472,7299,465
0.971667,59.050496,-1859,3388,21.7965,7299,465
1.3102,61.598233,-1858,3389,21.7467,7299,465
1.19205,66.653185,-1857,3390,21.7467,7299,465
1.0381,71.825284,-1856,3391,21.6472,7299,465
1.99897,74.156585,-1855,3392,21.5974,7299,465
3.14022,74.473996,-1854,3393,21.5974,7324,458
1.21188,73.781482,-1853,3394,21.7467,7324,458
0.683594,74.103316,-1852,3395,21.6472,7324,458
1.13045,75.797997,-1851,3396,21.8463,7324,458
1.1472,77.543286,-1850,3397,21.7965,7324,458
1.91615,79.926417,-1849,3398,21.7965,7324,458
1.12198,82.65936,-1848,3399,21.6472,7324,458
1.11773,85.77722,-1847,3400,21.5974,7324,458
0.308816,88.903818,-1846,3401,21.9459,7324,458
0.577742,90.785276,-1845,3402,21.8463,7324,458
0.889691,91.359333,-1844,3403,21.6472,7367,461
1.82698,91.168301,-1843,3404,21.7965,7367,461
0.878906,90.476585,-1842,3405,21.6472,7367,461
0.655098,89.485616,-1841,3406,21.7467,7367,461
1.02423,88.736385,-1840,3407,21.7467,7367,461
1.79804,88.114221,-1839,3408,21.5476,7367,461
1.37067,88.283255,-1838,3409,21.7965,7367,461
1.73323,89.422649,-1837,3410,21.6472,7367,461
0.921287,90.65831,-1836,3411,21.6472,7367,461
1.89865,92.224909,-1835,3412,21.9459,7367,461
1.73872,94.137504,-1834,3413,21.7965,7380,461
0.995902,96.22099,-1833,3414,21.5476,7380,461
1.17998,98.074665,-1832,3415,21.5476,7380,461
1.19604,98.952804,-1831,3416,21.7965,7380,461
0.926449,99.650431,-1830,3417,21.7467,7380,461
0.710948,99.227923,-1829,3418,21.7467,7380,461
0.878906,98.759636,-1828,3419,21.7467,7380,461
1.53789,99.026865,-1827,3420,21.7467,7380,461
1.69708,98.972905,-1826,3421,21.6472,7380,461
0.768946,98.778494,-1825,3422,21.8463,7380,461
1.52544,99.716055,-1824,3423,21.7467,7380,459
1.23912,100.72051,-1823,3424,21.7467,7380,459
1.07865,102.05268,-1822,3425,21.5974,7380,459
0.981433,102.52606,-1821,3426,21.9459,7380,459
0.98628,103.55197,-1820,3427,21.7965,7380,459
0.625305,104.68979,-1819,3428,21.7965,7380,459
0.931581,105.3377,-1818,3429,21.8463,7380,459
1.25821,105.87219,-1817,3430,21.7467,7380,459
1.10916,105.5316,-1816,3431,21.6472,7380,459
0.76272,104.45375,-1815,3432,21.5974,7380,459
0.601994,102.24458,-1814,3433,21.8463,7420,457
0.478416,100.48737,-1813,3434,21.7467,7420,457
1.41517,99.355186,-1812,3435,21.7467,7420,457
0.981433,98.31519,-1811,3436,21.6472,7420,457
0.840071,98.920346,-1810,3437,21.5974,7420,457
0.905627,99.488503,-1809,3438,21.6472,7420,457
1.38796,98.284418,-1808,3439,21.6472,7420,457
1.54717,96.85262,-1807,3440,21.7467,7420,457
1.02423,96.707504,-1806,3441,21.7467,7420,457
0.981433,96.313167,-1805,3442,21.9956,7420,457
1.04268,93.183155,-1804,3443,21.6472,7425,462
1.66589,88.29777,-1803,3444,21.7467,7425,462
0.956832,84.264068,-1802,3445,21.6472,7425,462
1.97498,80.456561,-1801,3446,21.9459,7425,462
0.840071,77.376981,-1800,3447,21.7467,7425,462
1.40163,73.802382,-1799,3448,21.6472,7425,462
1.1596,69.981538,-1798,3449,21.7965,7425,462
0.632885,62.717417,-1797,3450,21.7965,7425,462
1.06977,47.155969,-1796,3451,21.6472,7425,462
1.15548,35.351107,-1795,3452,21.7467,7425,462
1.06977,30.5844,-1794,3453,21.7467,7458,460
0.931581,29.040422,-1793,3454,21.7467,7458,460
0.743728,27.065771,-1792,3455,21.7467,7458,460
0.78733,25.655393,-1791,3456,21.9459,7458,460
1.19604,24.273583,-1790,3457,21.8463,7458,460
1.19604,23.284732,-1789,3458,21.7467,7458,460
0.884315,24.259152,-1788,3459,21.7467,7458,460
0.946812,25.225764,-1787,3460,21.7467,7458,460
0.690534,24.137224,-1786,3461,21.7965,7458,460
1.59273,22.788275,-1785,3462,21.7965,7458,460
1.20794,22.693918,-1784,3463,21.7467,7443,455
1.31745,21.846835,-1783,3464,21.7965,7443,455
1.23912,20.289026,-1782,3465,21.7467,7443,455
0.971667,19.124176,-1781,3466,21.7467,7443,455
1.27328,18.153624,-1780,3467,21.7467,7443,455
1.10916,18.709839,-1779,3468,21.7467,7443,455
0.926449,18.630825,-1778,3469,21.7467,7443,455
0.961803,18.022225,-1777,3470,21.7467,7443,455
1.25061,19.314903,-1776,3471,21.7467,7443,455
0.862477,22.161058,-1775,3472,21.7965,7443,455
0.817051,22.109559,-1774,3473,21.6472,7458,458
1.40842,18.680747,-1773,3474,21.7965,7458,458
1.38452,15.881343,-1772,3475,21.7965,7458,458
2.01797,16.088293,-1771,3476,21.5974,7458,458
1.00068,17.41546,-1770,3477,21.7467,7458,458
1.22752,17.05231,-1769,3478,21.9459,7458,458
2.44921,15.951559,-1768,3479,21.7467,7458,458
1.46484,16.876193,-1767,3480,21.8463,7458,458
1.02423,18.794072,-1766,3481,21.6472,7458,458
1.18402,20.481638,-1765,3482,21.6472,7458,458
2.31921,19.656353,-1764,3483,21.7467,7447,457
0.625305,19.01517,-1763,3484,21.6472,7447,457
0.811194,18.812299,-1762,3485,21.6472,7447,457
1.3029,19.745227,-1761,3486,21.7467,7447,457
1.12623,20.327548,-1760,3487,21.7965,7447,457
1.54717,19.352284,-1759,3488,21.7965,7447,457
1.4118,20.357215,-1758,3489,21.7467,7447,457
1.12198,23.323417,-1757,3490,21.7467,7447,457
1.01956,24.735132,-1756,3491,21.8463,7447,457
1.92856,23.521907,-1755,3492,21.7467,7447,457
1.46484,22.564525,-1754,3493,21.7467,7477,454
1.00068,21.014538,-1753,3494,21.7965,7477,454
0.585938,17.817666,-1752,3495,21.7965,7477,454
0.895034,14.725546,-1751,3496,21.7965,7477,454
1.28447,13.267532,-1750,3497,21.7467,7477,454
2.11714,12.980271,-1749,3498,21.6472,7477,454
0.905627,13.26023,-1748,3499,21.8463,7477,454
1.06082,13.6446,-1747,3500,21.7467,7477,454
1.17998,16.026117,-1746,3501,21.6472,7477,454
0.817051,20.948133,-1745,3502,21.7965,7477,454
0.921287,26.33354,-1744,3503,21.7965,7476,454
1.07865,29.609034,-1743,3504,21.6472,7476,454
0.743728,33.006422,-1742,3505,21.7965,7476,454
0.690534,35.899673,-1741,3506,21.7965,7476,454
1.16371,38.503655,-1740,3507,21.7467,7476,454
1.09619,40.628147,-1739,3508,21.7467,7476,454
1.4681,43.097736,-1738,3509,21.7965,7476,454
1.4118,45.950515,-1737,3510,21.7467,7476,454
0.921287,47.385614,-1736,3511,21.7467,7476,454
1.12198,49.215535,-1735,3512,21.8463,7476,454
0.845728,51.577416,-1734,3513,21.5974,7498,453
1.19205,54.197707,-1733,3514,21.7467,7498,453
0.961803,55.215197,-1732,3515,21.7467,7498,453
0.862477,55.488846,-1731,3516,21.6472,7498,453
0.617632,57.019904,-1730,3517,21.7965,7498,453
1.77132,59.699747,-1729,3518,21.7467,7498,453
3.92209,60.825445,-1728,3519,21.5476,7498,453
1.60168,61.208007,-1727,3520,21.8463,7498,453
1.07865,61.575005,-1726,3521,21.8463,7498,453
0.534885,62.557313,-1725,3522,21.7965,7498,453
1.13045,63.059685,-1724,3523,21.7467,7480,455
1.11773,62.488793,-1723,3524,21.7467,7480,455
0.995902,61.403794,-1722,3525,21.8463,7480,455
1.09619,60.196014,-1721,3526,21.6472,7480,455
0.956832,59.249011,-1720,3527,21.7467,7480,455
1.94824,58.658183,-1719,3528,21.7965,7480,455
0.690534,58.544011,-1718,3529,21.5974,7480,455
2.13508,59.187613,-1717,3530,21.5974,7480,455
1.43857,59.179557,-1716,3531,21.5476,7480,455
1.76323,58.660088,-1715,3532,21.8463,7480,455
0.704209,57.575146,-1714,3533,21.5974,7502,457
1.42525,56.814781,-1713,3534,21.7965,7502,457
0.884315,56.608125,-1712,3535,21.7467,7502,457
1.43857,56.672449,-1711,3536,21.8463,7502,457
1.10916,57.121342,-1710,3537,21.7467,7502,457
1.57163,57.875877,-1709,3538,21.7965,7502,457
0.41432,59.116448,-1708,3539,21.7467,7502,457
0.921287,60.960526,-1707,3540,21.7467,7502,457
0.308816,60.860713,-1706,3541,21.7965,7502,457
1.09183,60.489381,-1705,3542,21.7467,7502,457
1.09183,60.128644,-1704,3543,21.6472,7489,456
1.53168,59.062103,-1703,3544,21.7467,7489,456
1.25821,57.275437,-1702,3545,21.6472,7489,456
1.00543,55.12039,-1701,3546,21.7467,7489,456
2.64394,52.716711,-1700,3547,21.7965,7489,456
1.21581,49.570468,-1699,3548,21.6472,7489,456
0.976563,46.3819,-1698,3549,21.7965,7489,456
1.29556,44.944094,-1697,3550,21.7467,7489,456
1.02423,40.69997,-1696,3551,21.7965,7489,456
0.905627,36.283026,-1695,3552,21.8463,7489,456
0.85693,33.394208,-1694,3553,21.7467,7508,458
1.59572,30.77189,-1693,3554,21.7467,7508,458
0.976563,28.380757,-1692,3555,21.7965,7508,458
0.966748,26.2973,-1691,3556,21.7965,7508,458
1.12198,23.289851,-1690,3557,21.7467,7508,458
0.828641,21.369279,-1689,3558,21.6472,7508,458
1.19205,22.142222,-1688,3559,21.7965,7508,458
1.00543,25.205377,-1687,3560,21.8463,7508,458
1.62239,29.598967,-1686,3561,21.7965,7508,458
0.292969,33.278884,-1685,3562,21.9459,7508,458
1.58673,35.41512,-1684,3563,21.7467,7500,458
0.873464,37.260451,-1683,3564,21.6472,7500,458
0.697405,39.72315,-1682,3565,21.7467,7500,458
0.276214,41.217489,-1681,3566,21.7467,7500,458
1.9335,41.412612,-1680,3567,21.6472,7500,458
1.02423,42.400768,-1679,3568,21.6472,7500,458
0.921287,43.334789,-1678,3569,21.8463,7500,458
1.70549,41.816878,-1677,3570,21.7467,7500,458
1.09183,41.169559,-1676,3571,21.7467,7500,458
1.25442,41.839321,-1675,3572,21.6472,7500,458
0.793363,43.701854,-1674,3573,21.7467,7516,463
1.13045,44.071609,-1673,3574,21.8463,7516,463
1.28817,41.338963,-1672,3575,21.7467,7516,463
1.07865,33.517805,-1671,3576,21.7965,7516,463
0.617632,26.763481,-1670,3577,21.7467,7516,463
0.900346,30.71421,-1669,3578,21.7965,7516,463
0.632885,35.283811,-1668,3579,21.6472,7516,463
1.17594,27.718564,-1667,3580,21.7965,7516,463
1.00543,12.72228,-1666,3581,21.8463,7516,463
1.59273,2.9118312,-1665,3582,21.8463,7516,463
1.70549,5.7787111,-1664,3583,21.7467,7495,459
0.655098,11.376796,-1663,3584,21.7467,7495,459
1.13886,14.256642,-1662,3585,21.5476,7495,459
0.768946,17.792978,-1661,3586,21.7467,7495,459
1.68298,22.128422,-1660,3587,21.7467,7495,459
1.14304,27.82266,-1659,3588,21.5974,7495,459
0.292969,34.563148,-1658,3589,21.6472,7495,459
1.14304,41.202302,-1657,3590,21.8463,7495,459
1.32467,45.418851,-1656,3591,21.7467,7495,459
1.0381,46.997863,-1655,3592,21.9956,7495,459
1.80598,47.391116,-1654,3593,21.8463,7511,462
1.3029,48.722573,-1653,3594,21.7467,7511,462
1.23912,51.242785,-1652,3595,21.6472,7511,462
1.44188,54.950219,-1651,3596,21.5476,7511,462
0.905627,64.388474,-1650,3597,21.7467,7511,462
1.67161,69.216343,-1649,3598,21.6472,7511,462
1.20399,59.793399,-1648,3599,21.7965,7511,462
0.862477,33.441696,-1647,3600,21.7467,7511,462
0.921287,41.521674,-1646,3601,21.7965,7511,462
1.25821,91.359578,-1645,3602,21.6472,7511,462
1.25821,116.36144,-1644,3603,21.7965,7484,458
1.52856,114.60186,-1643,3604,21.6472,7484,458
0.981433,108.15912,-1642,3605,21.6472,7484,458
2.00136,104.78789,-1641,3606,21.5476,7484,458
1.43525,106.10024,-1640,3607,21.7965,7484,458
1.32467,109.45624,-1639,3608,21.7965,7484,458
1.61059,104.97543,-1638,3609,21.6472,7484,458
1.11773,112.02178,-1637,3610,21.9459,7484,458
2.11714,133.78956,-1636,3611,21.7467,7484,458
4.91881,214.52801,-1635,3612,21.6472,7484,458
5.78072,591.00139,-1634,3613,21.7965,7452,456
6.44309,1061.1641,-1633,3614,21.6472,7452,456
2.52021,1384.4149,-1632,3615,21.7467,7452,456
5.00816,1161.856,-1631,3616,21.6472,7452,456
7.35086,576.04837,-1630,3617,21.7467,7452,456
7.00067,146.18647,-1629,3618,21.7467,7452,456
5.4905,180.03571,-1628,3619,21.7467,7452,456
3.84473,76.541688,-1627,3620,21.6472,7452,456
5.12486,183.42575,-1626,3621,21.7467,7452,456
4.02292,117.12085,-1625,3622,21.7467,7452,456
2.92806,46.308592,-1624,3623,21.7467,7074,464
1.73872,35.449605,-1623,3624,21.7467,7074,464
2.28816,36.118169,-1622,3625,21.7467,7074,464
1.74966,23.817792,-1621,3626,21.6472,7074,464
1.25821,21.275984,-1620,3627,21.7965,7074,464
1.38107,74.61023,-1619,3628,21.7467,7074,464
1.09183,121.80501,-1618,3629,21.7965,7074,464
0.402647,133.23599,-1617,3630,21.5974,7074,464
1.33185,120.67186,-1616,3631,21.8463,7074,464
1.13886,97.041599,-1615,3632,21.7467,7074,464
2.41391,77.026754,-1614,3633,21.6472,7074,464
1.49066,74.043167,-1613,3634,21.6472,7074,464
2.65654,94.091905,-1612,3635,21.9956,7074,464
1.01016,114.00674,-1611,3636,21.7965,7074,464
0.889691,114.74941,-1610,3637,21.7467,7074,464
0.239208,113.05016,-1609,3638,21.8463,7074,464
1.56555,120.30895,-1608,3639,21.6472,7074,464
2.02269,129.88195,-1607,3640,21.5974,7074,464
1.40163,137.2073,-1606,3641,21.7965,7074,464
1.81651,121.51178,-1605,3642,21.7965,7074,464
2.0785,95.968851,-1604,3643,21.5974,6843,479
1.80334,91.489317,-1603,3644,21.7467,6843,479
4.48475,115.40817,-1602,3645,21.7467,6843,479
1.25821,146.34209,-1601,3646,21.9459,6843,479
1.15548,156.20851,-1600,3647,21.6472,6843,479
2.05078,151.74872,-1599,3648,21.8463,6843,479
2.03209,144.4375,-1598,3649,21.8463,6843,479
0.961803,140.73675,-1597,3650,21.6472,6843,479
1.08306,144.50965,-1596,3651,22.145,6843,479
2.03678,146.38129,-1595,3652,21.8463,6843,479
2.03444,144.34514,-1594,3653,21.7965,6628,484
1.33185,139.59299,-1593,3654,21.7467,6628,484
1.66303,135.41389,-1592,3655,21.7467,6628,484
1.04268,135.45427,-1591,3656,21.7467,6628,484
1.88858,143.57654,-1590,3657,21.6472,6628,484
1.68298,154.36123,-1589,3658,21.7467,6628,484
1.20399,154.72762,-1588,3659,21.6472,6628,484
0.941763,149.76341,-1587,3660,21.6472,6628,484
1.51603,150.80408,-1586,3661,21.7467,6628,484
0.811194,150.42599,-1585,3662,21.5476,6628,484
2.20323,139.57228,-1584,3663,21.7467,6462,497
1.4681,127.99536,-1583,3664,21.7965,6462,497
1.17188,121.59943,-1582,3665,21.7965,6462,497
1.4681,108.02816,-1581,3666,21.7467,6462,497
1.88099,88.378316,-1580,3667,21.7467,6462,497
1.85804,74.506203,-1579,3668,21.6472,6462,497
1.28817,80.905547,-1578,3669,21.7467,6462,497
2.33151,115.07741,-1577,3670,21.7467,6462,497
0.926449,142.40762,-1576,3671,21.9459,6462,497
2.18584,145.09437,-1575,3672,21.8463,6462,497
1.13886,143.99041,-1574,3673,21.6472,6407,503
1.17998,162.61718,-1573,3674,21.6472,6407,503
1.11773,184.96851,-1572,3675,21.9459,6407,503
1.06082,193.12627,-1571,3676,21.7467,6407,503
1.05631,184.72869,-1570,3677,21.7965,6407,503
1.02423,193.34993,-1569,3678,21.7965,6407,503
1.3029,229.75261,-1568,3679,21.6472,6407,503
1.96287,261.46199,-1567,3680,21.6472,6407,503
1.38107,265.93549,-1566,3681,21.7965,6407,503
1.23912,265.23194,-1565,3682,21.7467,6407,503
1.90617,294.77643,-1564,3683,21.6472,6934,508
1.63702,352.82884,-1563,3684,21.7965,6934,508
1.97498,384.16385,-1562,3685,21.5974,6934,508
1.84774,393.83182,-1561,3686,21.5476,6934,508
5.23623,408.1043,-1560,3687,21.7965,6934,508
2.06237,411.27619,-1559,3688,21.6472,6934,508
2.19455,398.62554,-1558,3689,21.7467,6934,508
1.91864,389.01374,-1557,3690,21.9459,6934,508
0.717624,398.85357,-1556,3691,21.7965,6934,508
2.09222,416.9582,-1555,3692,21.7965,6934,508
2.14177,408.28105,-1554,3693,21.7467,9123,517
2.6131,367.39137,-1553,3694,21.6472,9123,517
2.77763,316.35581,-1552,3695,21.7467,9123,517
2.9909,259.8432,-1551,3696,21.8463,9123,517
3.82982,213.60177,-1550,3697,21.6472,9123,517
5.43639,191.49082,-1549,3698,21.6472,9123,517
4.29909,194.56357,-1548,3699,21.7965,9123,517
5.11555,269.08869,-1547,3700,21.448,9123,517
4.70476,371.69715,-1546,3701,21.9459,9123,517
4.82584,459.91352,-1545,3702,21.7467,9123,517
3.41797,544.9334,-1544,3703,21.6472,10753,551
2.2819,629.07391,-1543,3704,21.7467,10753,551
4.84556,684.88256,-1542,3705,21.7467,10753,551
4.93913,595.39898,-1541,3706,21.7467,10753,551
5.91929,375.17055,-1540,3707,21.6472,10753,551
5.96743,226.47231,-1539,3708,21.7965,10753,551
4.45916,213.26218,-1538,3709,21.5974,10753,551
2.94106,124.90967,-1537,3710,21.7467,10753,551
1.91864,128.37822,-1536,3711,21.6472,10753,551
1.3029,187.95836,-1535,3712,21.7467,10753,551
2.1771,254.45295,-1534,3713,21.7467,11885,514
2.19455,258.60621,-1533,3714,21.6472,11885,514
2.93781,225.47434,-1532,3715,21.8463,11885,514
2.03209,220.90008,-1531,3716,21.7965,11885,514
1.37415,241.86445,-1530,3717,21.8463,11885,514
1.81913,268.79664,-1529,3718,21.7467,11885,514
4.10969,281.91469,-1528,3719,21.7467,11885,514
0.690534,292.21677,-1527,3720,21.3983,11885,514
1.21581,302.71296,-1526,3721,21.6472,11885,514
0.425674,310.00702,-1525,3722,21.7467,11885,514
0.458048,317.59726,-1524,3723,21.7467,11414,534
0.750112,321.74581,-1523,3724,21.7965,11414,534
0.239208,318.88892,-1522,3725,21.7467,11414,534
0.704209,308.08627,-1521,3726,21.7467,11414,534
1.46484,307.79281,-1520,3727,21.7467,11414,534
1.49385,322.76919,-1519,3728,21.8463,11414,534
1.52856,324.60417,-1518,3729,21.6472,11414,534
1.77132,321.97963,-1517,3730,21.5974,11414,534
2.05543,324.75003,-1516,3731,21.7467,11414,534
2.21617,335.96946,-1515,3732,21.7467,11414,534
1.94088,339.0843,-1514,3733,21.8463,10341,589
1.77132,330.93532,-1513,3734,21.9459,10341,589
1.52544,316.69681,-1512,3735,21.8463,10341,589
2.01087,294.47949,-1511,3736,21.7965,10341,589
1.63993,263.25371,-1510,3737,21.3983,10341,589
1.60168,229.66919,-1509,3738,21.6472,10341,589
1.56555,197.27348,-1508,3739,21.5974,10341,589
1.92608,165.17999,-1507,3740,21.7965,10341,589
1.23912,138.21573,-1506,3741,21.7965,10341,589
1.04268,121.16541,-1505,3742,21.8463,10341,589
1.54099,103.84733,-1504,3743,21.5974,9279,653
2.10585,91.244762,-1503,3744,21.7965,9279,653
2.2819,86.126467,-1502,3745,21.7467,9279,653
1.69708,89.264203,-1501,3746,21.7965,9279,653
0.840071,100.94595,-1500,3747,21.9459,9279,653
1.5034,111.19232,-1499,3748,21.9459,9279,653
0.981433,112.38785,-1498,3749,21.7467,9279,653
2.05543,115.96281,-1497,3750,21.8463,9279,653
1.56555,120.11675,-1496,3751,21.7467,9279,653
1.11345,119.39881,-1495,3752,21.8463,9279,653
1.36019,110.24875,-1494,3753,21.8463,8925,679
2.33356,93.110366,-1493,3754,21.5974,8925,679
1.41517,77.56884,-1492,3755,21.7467,8925,679
1.07865,69.311648,-1491,3756,21.7467,8925,679
0.961803,66.863561,-1490,3757,21.6472,8925,679
0.447517,67.119693,-1489,3758,21.7467,8925,679
1.32827,67.31533,-1488,3759,21.5476,8925,679
1.70829,71.342239,-1487,3760,21.7467,8925,679
2.43358,88.665324,-1486,3761,21.6472,8925,679
0.878906,110.93828,-1485,3762,21.7965,8925,679
0.840071,104.62373,-1484,3763,21.6472,8923,701
0.828641,101.0389,-1483,3764,21.7467,8923,701
1.46484,115.77428,-1482,3765,21.7467,8923,701
1.17188,115.82511,-1481,3766,21.7467,8923,701
0.41432,97.696067,-1480,3767,21.7467,8923,701
1.28075,90.614496,-1479,3768,21.6472,8923,701
0.138107,100.41216,-1478,3769,21.7965,8923,701
1.15135,110.4853,-1477,3770,21.8463,8923,701
1.25061,111.72115,-1476,3771,21.7467,8923,701
1.54099,112.31298,-1475,3772,21.8463,8923,701
1.45176,119.51126,-1474,3773,21.7467,8804,741
0.878906,129.36009,-1473,3774,21.7467,8804,741
2.09222,136.02194,-1472,3775,21.8463,8804,741
1.4118,139.17375,-1471,3776,21.7467,8804,741
1.19604,142.30545,-1470,3777,21.7467,8804,741
1.49385,147.0769,-1469,3778,21.7965,8804,741
0.402647,153.95898,-1468,3779,21.7467,8804,741
0.981433,160.6084,-1467,3780,21.7467,8804,741
0.921287,166.9044,-1466,3781,21.9956,8804,741
0.710948,171.86503,-1465,3782,21.7965,8804,741
1.51917,175.2119,-1464,3783,21.7965,8196,831
0.497951,178.30863,-1463,3784,21.7467,8196,831
6.15312,331.67548,-1462,3785,21.5476,8196,831
2.48016,687.62133,-1461,3786,21.8463,8196,831
3.1143,164.08466,-1460,3787,21.6472,8196,831
2.14399,529.46492,-1459,3788,21.7467,8196,831
1.28817,295.55197,-1458,3789,21.7965,8196,831
2.16392,259.25752,-1457,3790,21.5974,8196,831
2.84714,292.12783,-1456,3791,21.6472,8196,831
1.08306,69.513121,-1455,3792,21.7467,8196,831
1.19205,156.07252,-1454,3793,21.5974,7650,902
1.69708,111.39215,-1453,3794,21.7467,7650,902
1.68298,165.62746,-1452,3795,21.7467,7650,902
1.82698,151.86675,-1451,3796,21.7467,7650,902
1.66303,154.23955,-1450,3797,21.7467,7650,902
1.66303,166.07118,-1449,3798,21.7467,7650,902
1.18402,164.79569,-1448,3799,21.7965,7650,902
0.577742,164.19841,-1447,3800,21.5974,7650,902
1.57769,168.57526,-1446,3801,21.6472,7650,902
4.49431,380.70445,-1445,3802,21.7965,7650,902
0.946812,292.68836,-1444,3803,21.8463,7305,941
1.57769,200.52289,-1443,3804,21.7965,7305,941
2.19455,160.16509,-1442,3805,21.8463,7305,941
1.25442,96.923598,-1441,3806,21.9459,7305,941
1.02423,78.675619,-1440,3807,21.7965,7305,941
1.13045,14.507891,-1439,3808,21.9459,7305,941
1.52231,31.175764,-1438,3809,21.9459,7305,941
1.02423,87.26448,-1437,3810,21.8463,7305,941
1.12623,77.323618,-1436,3811,21.6472,7305,941
0.78733,45.433285,-1435,3812,21.7467,7305,941
3.20038,45.741197,-1434,3813,21.7467,7112,953
1.51603,57.140643,-1433,3814,21.7467,7112,953
1.57163,65.805523,-1432,3815,21.7965,7112,953
0.878906,67.315995,-1431,3816,21.7467,7112,953
0.365396,75.049122,-1430,3817,21.7467,7112,953
2.0716,183.7185,-1429,3818,21.7467,7112,953
1.04268,239.46039,-1428,3819,21.7965,7112,953
1.25442,25.638834,-1427,3820,21.7965,7112,953
1.20399,120.90564,-1426,3821,21.7965,7112,953
1.09619,68.350001,-1425,3822,21.7467,7112,953
1.52856,160.36913,-1424,3823,21.7467,6982,970
1.81388,117.16315,-1423,3824,21.6472,6982,970
0.805294,110.08319,-1422,3825,21.7965,6982,970
0.730792,131.55193,-1421,3826,21.448,6982,970
1.70549,126.28408,-1420,3827,21.7467,6982,970
0.507437,107.23924,-1419,3828,21.8463,6982,970
1.79539,94.723259,-1418,3829,21.7467,6982,970
1.20794,90.334423,-1417,3830,21.7467,6982,970
1.67161,90.111458,-1416,3831,21.7965,6982,970
1.86572,88.523367,-1415,3832,21.9459,6982,970
0.737289,85.487401,-1414,3833,21.7467,6771,995
1.21188,74.023743,-1413,3834,21.7467,6771,995
1.25821,61.086526,-1412,3835,21.7467,6771,995
1.21581,71.723139,-1411,3836,21.5974,6771,995
1.66303,92.93039,-1410,3837,21.7467,6771,995
1.37067,96.38516,-1409,3838,21.7467,6771,995
0.625305,90.626664,-1408,3839,21.7965,6771,995
1.38796,60.374476,-1407,3840,21.7467,6771,995
1.09619,52.946582,-1406,3841,21.6472,6771,995
1.07865,127.13399,-1405,3842,21.7467,6771,995
1.12623,185.09523,-1404,3843,21.7467,6771,995
1.45505,137.0387,-1403,3844,21.8463,6771,995
2.88045,78.593092,-1402,3845,21.7965,6771,995
1.1596,84.543981,-1401,3846,21.7467,6771,995
1.05179,121.59949,-1400,3847,21.7965,6771,995
1.22752,148.29468,-1399,3848,21.7965,6771,995
1.09183,165.2369,-1398,3849,21.9459,6771,995
0.840071,180.09405,-1397,3850,21.7467,6771,995
1.09183,195.08383,-1396,3851,21.7965,6771,995
1.27328,208.77425,-1395,3852,21.6472,6771,995
0.85693,220.14321,-1394,3853,21.7965,6607,1015
0.828641,227.44913,-1393,3854,21.6472,6607,1015
2.52588,232.06738,-1392,3855,21.6472,6607,1015
1.15135,234.23095,-1391,3856,21.8463,6607,1015
0.308816,233.97303,-1390,3857,21.7467,6607,1015
1.06977,231.72547,-1389,3858,21.5974,6607,1015
1.28075,227.24398,-1388,3859,21.8463,6607,1015
0.834375,219.15762,-1387,3860,21.7467,6607,1015
1.54717,208.17187,-1386,3861,21.8463,6607,1015
1.38107,197.2229,-1385,3862,21.7467,6607,1015
0.676582,186.85568,-1384,3863,21.7467,6568,1022
1.79273,174.83721,-1383,3864,21.7467,6568,1022
1.86572,161.10123,-1382,3865,21.448,6568,1022
0.921287,148.14836,-1381,3866,21.6472,6568,1022
0.78733,137.80165,-1380,3867,21.7965,6568,1022
0.577742,129.46413,-1379,3868,21.7965,6568,1022
1.40163,121.37184,-1378,3869,21.7467,6568,1022
0.447517,113.4732,-1377,3870,21.5974,6568,1022
1.60466,108.3816,-1376,3871,21.9459,6568,1022
0.976563,106.66103,-1375,3872,21.8463,6568,1022
0.239208,106.24164,-1374,3873,21.7965,6559,1014
0.956832,107.19532,-1373,3874,21.6472,6559,1014
1.68863,109.10881,-1372,3875,21.7965,6559,1014
0.352105,111.41576,-1371,3876,21.6472,6559,1014
1.19205,113.00454,-1370,3877,21.8463,6559,1014
0.525895,113.4202,-1369,3878,21.8463,6559,1014
1.13045,112.88732,-1368,3879,21.8463,6559,1014
1.54717,111.94673,-1367,3880,21.8463,6559,1014
0.78733,110.36547,-1366,3881,21.8463,6559,1014
1.15548,108.21669,-1365,3882,21.8463,6559,1014
1.22363,105.65967,-1364,3883,21.7965,6545,1006
0.905627,102.80879,-1363,3884,21.8463,6545,1006
1.19604,99.699765,-1362,3885,21.9459,6545,1006
1.61059,96.365524,-1361,3886,21.6472,6545,1006
1.00068,92.565041,-1360,3887,21.7467,6545,1006
0.625305,87.879095,-1359,3888,21.7467,6545,1006
1.37067,83.557463,-1358,3889,21.7467,6545,1006
1.4118,79.756206,-1357,3890,21.7467,6545,1006
0.793363,76.304882,-1356,3891,21.7467,6545,1006
0.840071,72.799975,-1355,3892,21.7467,6545,1006
1.51917,69.434834,-1354,3893,21.7467,6528,1001
1.20399,66.981906,-1353,3894,21.6472,6528,1001
1.5987,65.747868,-1352,3895,21.8463,6528,1001
0.840071,65.695607,-1351,3896,21.8463,6528,1001
1.88858,66.442255,-1350,3897,21.7965,6528,1001
0.601994,67.210322,-1349,3898,21.7965,6528,1001
1.17998,67.881741,-1348,3899,21.7467,6528,1001
0.889691,68.940661,-1347,3900,21.7467,6528,1001
1.71942,70.32924,-1346,3901,21.7965,6528,1001
1.09183,71.602433,-1345,3902,21.7467,6528,1001
1.15548,73.574482,-1344,3903,21.7965,6552,992
0.138107,75.863336,-1343,3904,21.9956,6552,992
0.730792,77.97618,-1342,3905,21.7965,6552,992
0.577742,80.296753,-1341,3906,21.9956,6552,992
0.828641,82.552119,-1340,3907,21.6472,6552,992
1.85547,85.067857,-1339,3908,21.9956,6552,992
0.946812,87.887065,-1338,3909,21.7467,6552,992
1.24296,90.343743,-1337,3910,21.7467,6552,992
0.577742,92.186689,-1336,3911,21.5476,6552,992
1.17998,94.347796,-1335,3912,21.7965,6552,992
0.625305,96.127406,-1334,3913,21.7467,6562,980
2.0716,97.191506,-1333,3914,21.7467,6562,980
0.436732,97.97464,-1332,3915,21.7965,6562,980
0.365396,98.545829,-1331,3916,21.7467,6562,980
0.697405,98.518759,-1330,3917,21.7467,6562,980
1.95313,98.261142,-1329,3918,21.7965,6562,980
0.768946,97.928393,-1328,3919,21.6472,6562,980
0.577742,97.612142,-1327,3920,21.7467,6562,980
0.840071,96.999132,-1326,3921,21.7467,6562,980
1.29923,96.084613,-1325,3922,21.8463,6562,980
0.995902,94.8176,-1324,3923,21.9459,6578,969
0.601994,90.512976,-1323,3924,21.7965,6578,969
1.19205,82.784374,-1322,3925,21.7965,6578,969
1.31745,71.776306,-1321,3926,21.8463,6578,969
0.840071,68.462512,-1320,3927,21.7467,6578,969
2.06237,70.895533,-1319,3928,21.7467,6578,969
0.647778,71.162804,-1318,3929,21.7467,6578,969
1.10916,72.427517,-1317,3930,21.7467,6578,969
0.585938,74.971547,-1316,3931,21.8463,6578,969
1.10916,76.630313,-1315,3932,21.7467,6578,969
1.3102,77.160122,-1314,3933,21.7467,6617,959
1.25821,76.117178,-1313,3934,21.7467,6617,959
0.900346,74.480399,-1312,3935,21.7965,6617,959
1.13045,73.807834,-1311,3936,21.7467,6617,959
0.889691,74.513103,-1310,3937,21.7965,6617,959
0.817051,76.860979,-1309,3938,21.7467,6617,959
2.09677,79.176408,-1308,3939,21.7467,6617,959
1.43857,79.75303,-1307,3940,21.6472,6617,959
0.560992,80.196944,-1306,3941,21.9956,6617,959
0.750112,80.444799,-1305,3942,21.7467,6617,959
0.323889,80.854698,-1304,3943,21.7467,6695,947
1.07865,81.184559,-1303,3944,21.7467,6695,947
1.25442,79.887069,-1302,3945,21.7467,6695,947
1.56555,79.841263,-1301,3946,21.7965,6695,947
0.690534,80.953328,-1300,3947,21.7467,6695,947
0.76272,81.422363,-1299,3948,21.7467,6695,947
1.23912,82.427205,-1298,3949,21.7467,6695,947
1.00068,84.013734,-1297,3950,21.7467,6695,947
0.889691,85.232793,-1296,3951,21.6472,6695,947
0.845728,86.260276,-1295,3952,21.9459,6695,947
1.66016,87.48908,-1294,3953,21.6472,6790,936
0.889691,88.95551,-1293,3954,21.7965,6790,936
0.900346,90.243982,-1292,3955,21.7467,6790,936
0.365396,91.900868,-1291,3956,21.9459,6790,936
1.00543,93.604054,-1290,3957,21.7467,6790,936
1.13045,94.899207,-1289,3958,21.7965,6790,936
0.365396,95.793545,-1288,3959,21.8463,6790,936
1.44518,96.241972,-1287,3960,21.7467,6790,936
0.878906,96.542184,-1286,3961,21.7467,6790,936
0.577742,97.233429,-1285,3962,21.5476,6790,936
0.690534,98.346786,-1284,3963,21.6472,6847,925
0.507437,99.37798,-1283,3964,21.7467,6847,925
1.18804,100.28215,-1282,3965,21.7965,6847,925
0.750112,101.84879,-1281,3966,21.6472,6847,925
1.06082,102.83357,-1280,3967,21.8463,6847,925
0.697405,103.55981,-1279,3968,21.6472,6847,925
0.976563,104.06256,-1278,3969,21.6472,6847,925
4.96032,103.73204,-1277,3970,21.7467,6847,925
1.55638,102.74601,-1276,3971,21.8463,6847,925
1.17998,101.96357,-1275,3972,21.7467,6847,925
1.73047,101.53866,-1274,3973,21.7467,6912,907
1.0381,102.15542,-1273,3974,21.7467,6912,907
0.447517,102.67601,-1272,3975,21.8463,6912,907
1.01956,103.40797,-1271,3976,21.5974,6912,907
0.811194,104.11045,-1270,3977,21.9459,6912,907
1.57466,104.57073,-1269,3978,21.7467,6912,907
1.62826,103.82358,-1268,3979,21.6472,6912,907
1.01016,103.06697,-1267,3980,21.7467,6912,907
0.365396,102.73753,-1266,3981,21.8463,6912,907
0.365396,101.53623,-1265,3982,21.7467,6912,907
0.817051,100.32234,-1264,3983,22.0952,6925,896
1.19604,98.870171,-1263,3984,21.7467,6925,896
1.63702,97.065167,-1262,3985,21.7965,6925,896
1.71108,95.577079,-1261,3986,21.9459,6925,896
1.28447,94.946145,-1260,3987,21.8463,6925,896
1.05631,94.362404,-1259,3988,21.7965,6925,896
0.750112,93.720272,-1258,3989,21.8463,6925,896
0.817051,92.884279,-1257,3990,21.7467,6925,896
1.86827,92.964217,-1256,3991,21.6472,6925,896
1.73872,91.961895,-1255,3992,21.7965,6925,896
1.09619,89.613329,-1254,3993,21.7467,6898,891
1.10916,87.303575,-1253,3994,21.7965,6898,891
0.365396,84.044413,-1252,3995,21.7467,6898,891
1.28447,80.386985,-1251,3996,21.7467,6898,891
0.632885,77.824779,-1250,3997,21.7467,6898,891
1.24296,75.289679,-1249,3998,21.7965,6898,891
0.697405,72.855935,-1248,3999,21.8463,6898,891
0.840071,71.720958,-1247,4000,21.448,6898,891
1.84257,72.137048,-1246,4001,21.6472,6898,891
1.46158,73.674869,-1245,4002,21.8463,6898,891
1.42525,77.044163,-1244,4003,21.7467,6846,889
1.02423,84.968479,-1243,4004,21.8463,6846,889
0.402647,107.57941,-1242,4005,21.7965,6846,889
1.61945,179.35934,-1241,4006,21.8463,6846,889
1.76052,283.67008,-1240,4007,21.7467,6846,889
1.23912,331.80449,-1239,4008,21.8463,6846,889
1.20399,319.2576,-1238,4009,21.7467,6846,889
1.75781,244.20928,-1237,4010,21.7467,6846,889
1.98701,203.47858,-1236,4011,21.8463,6846,889
2.00374,189.7162,-1235,4012,21.7467,6846,889
1.40163,203.12405,-1234,4013,21.8463,6773,893
1.80334,205.94662,-1233,4014,21.7467,6773,893
1.72495,173.69953,-1232,4015,21.7467,6773,893
1.52856,140.41164,-1231,4016,21.5974,6773,893
1.958,121.47106,-1230,4017,21.7965,6773,893
1.22363,108.76307,-1229,4018,21.6472,6773,893
0.292969,92.032759,-1228,4019,21.7965,6773,893
1.15548,79.810276,-1227,4020,21.9459,6773,893
1.34255,79.809903,-1226,4021,21.7467,6773,893
1.51603,86.517286,-1225,4022,21.448,6773,893
1.1596,94.820978,-1224,4023,21.7467,6846,875
1.52856,102.36431,-1223,4024,21.7467,6846,875
1.00068,108.3587,-1222,4025,21.6472,6846,875
1.11345,112.00848,-1221,4026,21.7467,6846,875
1.52544,113.32412,-1220,4027,21.6472,6846,875
1.8529,112.85392,-1219,4028,21.7965,6846,875
1.32827,111.52625,-1218,4029,21.6472,6846,875
1.04725,110.26261,-1217,4030,21.7467,6846,875
0.402647,108.79424,-1216,4031,21.7467,6846,875
1.02423,107.31543,-1215,4032,21.6472,6846,875
0.730792,106.37102,-1214,4033,21.8463,6884,862
0.840071,105.63943,-1213,4034,21.8463,6884,862
0.85693,106.23161,-1212,4035,21.7467,6884,862
1.57466,107.19198,-1211,4036,21.9459,6884,862
1.72772,108.08249,-1210,4037,21.7467,6884,862
0.632885,108.84963,-1209,4038,21.7467,6884,862
1.10916,109.42118,-1208,4039,21.5974,6884,862
0.85693,110.08367,-1207,4040,21.6472,6884,862
2.03912,110.73399,-1206,4041,21.7467,6884,862
1.37415,111.91804,-1205,4042,21.6472,6884,862
1.48103,113.67997,-1204,4043,21.7965,6912,847
3.39136,115.75105,-1203,4044,21.7965,6912,847
0.560992,118.74342,-1202,4045,21.7965,6912,847
1.21188,121.85192,-1201,4046,21.7467,6912,847
1.11345,124.38653,-1200,4047,21.9459,6912,847
1.19604,126.43409,-1199,4048,21.7965,6912,847
1.28075,128.50363,-1198,4049,21.6472,6912,847
0.655098,130.87264,-1197,4050,21.7467,6912,847
0.845728,133.30184,-1196,4051,21.8463,6912,847
1.22752,135.46071,-1195,4052,21.7467,6912,847
1.4219,135.74636,-1194,4053,21.7467,6912,847
2.19455,137.21952,-1193,4054,21.9459,6912,847
2.64394,211.0864,-1192,4055,21.6472,6912,847
2.25034,218.37383,-1191,4056,21.7467,6912,847
2.66371,141.13107,-1190,4057,21.7965,6912,847
1.1472,121.00573,-1189,4058,21.7467,6912,847
2.0785,135.57127,-1188,4059,21.7467,6912,847
1.88099,141.28936,-1187,4060,21.8463,6912,847
2.46086,119.54037,-1186,4061,21.5974,6912,847
1.38452,119.06869,-1185,4062,21.8463,6912,847
0.85693,126.68182,-1184,4063,21.6472,6958,832
1.38796,118.57753,-1183,4064,21.6472,6958,832
1.25821,110.25119,-1182,4065,21.7965,6958,832
1.80069,113.58142,-1181,4066,21.7965,6958,832
1.25442,115.66785,-1180,4067,21.6472,6958,832
1.27328,110.64844,-1179,4068,21.7965,6958,832
1.97498,108.34075,-1178,4069,21.7467,6958,832
1.38107,108.54502,-1177,4070,21.7965,6958,832
1.48103,107.30265,-1176,4071,21.9956,6958,832
1.17594,105.39978,-1175,4072,21.8463,6958,832
1.15548,104.21474,-1174,4073,21.7467,7169,806
2.09222,102.61613,-1173,4074,22.0952,7169,806
1.44518,99.596883,-1172,4075,21.5974,7169,806
2.24822,96.861158,-1171,4076,21.6472,7169,806
1.25061,95.044184,-1170,4077,21.7467,7169,806
0.931581,92.513997,-1169,4078,21.7467,7169,806
0.941763,89.992731,-1168,4079,21.7467,7169,806
1.07865,87.785276,-1167,4080,21.8463,7169,806
0.78733,86.134079,-1166,4081,21.7965,7169,806
1.14304,85.103759,-1165,4082,22.0952,7169,806
0.828641,84.868457,-1164,4083,21.7965,7299,793
0.625305,85.188812,-1163,4084,21.9459,7299,793
1.4681,85.79954,-1162,4085,21.8463,7299,793
2.98132,86.666655,-1161,4086,21.7467,7299,793
0.730792,87.577516,-1160,4087,21.8463,7299,793
0.704209,88.529006,-1159,4088,21.7467,7299,793
0.730792,89.90551,-1158,4089,21.5476,7299,793
0.895034,91.183419,-1157,4090,21.9459,7299,793
1.13045,92.234845,-1156,4091,21.8463,7299,793
0.697405,93.386342,-1155,4092,21.7467,7299,793
0.402647,94.800547,-1154,4093,21.6472,7426,779
0.840071,95.847663,-1153,4094,21.7467,7426,779
1.28447,96.091436,-1152,4095,21.7467,7426,779
1.50022,96.605909,-1151,4096,21.7965,7426,779
1.36019,95.707952,-1150,4097,21.9459,7426,779
1.3029,93.312355,-1149,4098,21.9459,7426,779
1.4118,94.522867,-1148,4099,21.7467,7426,779
0.402647,96.00735,-1147,4100,21.7467,7426,779
0.560992,98.262962,-1146,4101,21.7467,7426,779
1.06082,100.48174,-1145,4102,21.7467,7426,779
0.921287,100.76518,-1144,4103,21.8463,7583,776
1.47134,100.73057,-1143,4104,21.7965,7583,776
0.497951,101.24163,-1142,4105,21.8463,7583,776
1.21188,102.56042,-1141,4106,21.8463,7583,776
0.655098,104.55214,-1140,4107,21.6472,7583,776
1.0381,106.69539,-1139,4108,21.448,7583,776
1.13886,110.0377,-1138,4109,21.7467,7583,776
0.710948,112.05888,-1137,4110,22.0952,7583,776
1.3637,114.17516,-1136,4111,21.7965,7583,776
1.28817,117.64216,-1135,4112,21.6472,7583,776
1.02423,121.50228,-1134,4113,21.8463,7641,770
0.76272,124.48658,-1133,4114,22.0952,7641,770
1.23912,127.82575,-1132,4115,21.7965,7641,770
1.83479,134.32467,-1131,4116,21.7467,7641,770
1.39822,142.45506,-1130,4117,21.7467,7641,770
2.26301,149.80539,-1129,4118,21.6472,7641,770
1.45176,157.64954,-1128,4119,21.8463,7641,770
1.41517,163.0466,-1127,4120,21.9459,7641,770
1.56555,166.31864,-1126,4121,21.7467,7641,770
0.946812,167.44408,-1125,4122,21.7467,7641,770
1.21188,165.98519,-1124,4123,21.6472,7645,776
1.26577,163.69902,-1123,4124,21.6472,7645,776
1.95313,161.00121,-1122,4125,21.6472,7645,776
0.585938,158.12498,-1121,4126,21.5974,7645,776
1.28817,155.99855,-1120,4127,21.8463,7645,776
1.02423,153.52379,-1119,4128,21.6472,7645,776
1.04268,149.73575,-1118,4129,22.0952,7645,776
1.34255,147.57493,-1117,4130,21.7467,7645,776
1.4219,146.87519,-1116,4131,21.7467,7645,776
1.00068,147.19321,-1115,4132,21.9459,7645,776
1.05179,146.79253,-1114,4133,21.7467,7584,783
1.25061,147.26967,-1113,4134,21.7467,7584,783
0.811194,148.63423,-1112,4135,21.7467,7584,783
0.625305,150.14921,-1111,4136,21.9459,7584,783
0.926449,151.37388,-1110,4137,21.7467,7584,783
2.93944,151.5402,-1109,4138,21.6472,7584,783
1.32827,152.20783,-1108,4139,21.7467,7584,783
0.900346,154.46719,-1107,4140,21.8463,7584,783
1.3102,156.16395,-1106,4141,21.7467,7584,783
0.905627,156.81266,-1105,4142,22.0952,7584,783
1.10916,157.94181,-1104,4143,21.6472,7554,780
0.577742,158.66516,-1103,4144,21.7467,7554,780
0.793363,159.92921,-1102,4145,21.7467,7554,780
0.941763,162.32038,-1101,4146,21.7467,7554,780
1.12198,164.12865,-1100,4147,21.8463,7554,780
1.51917,165.25336,-1099,4148,21.5974,7554,780
1.71664,166.20284,-1098,4149,21.5974,7554,780
1.26953,169.25871,-1097,4150,21.7965,7554,780
0.85693,171.41002,-1096,4151,21.7467,7554,780
1.96287,172.33687,-1095,4152,21.8463,7554,780
1.19205,174.27969,-1094,4153,21.7467,7480,789
1.41517,176.03741,-1093,4154,21.7467,7480,789
1.39822,177.65496,-1092,4155,21.7965,7480,789
1.23912,179.1635,-1091,4156,21.5476,7480,789
1.18402,179.86413,-1090,4157,21.7965,7480,789
2.1771,180.85045,-1089,4158,21.7965,7480,789
0.239208,182.60466,-1088,4159,21.6472,7480,789
0.750112,186.04597,-1087,4160,21.7965,7480,789
1.09183,193.29764,-1086,4161,21.7467,7480,789
1.49385,201.52163,-1085,4162,21.7467,7480,789
1.1596,206.26722,-1084,4163,21.6472,7388,792
1.00543,207.25152,-1083,4164,21.8463,7388,792
0.905627,208.77867,-1082,4165,21.5974,7388,792
1.25442,210.74463,-1081,4166,21.7965,7388,792
0.884315,213.31025,-1080,4167,21.8463,7388,792
1.35668,216.21271,-1079,4168,21.6472,7388,792
1.02423,220.38263,-1078,4169,21.7467,7388,792
3.45267,220.2073,-1077,4170,21.6472,7388,792
1.05179,219.29693,-1076,4171,21.7467,7388,792
1.25442,215.22173,-1075,4172,21.6472,7388,792
1.14304,215.39493,-1074,4173,21.8463,7142,800
1.10916,214.52051,-1073,4174,21.7965,7142,800
2.10585,212.19493,-1072,4175,21.6472,7142,800
1.6165,206.99731,-1071,4176,21.9459,7142,800
1.68298,200.47696,-1070,4177,21.7467,7142,800
2.69397,205.66587,-1069,4178,21.5974,7142,800
2.27352,216.93869,-1068,4179,21.7467,7142,800
1.79539,183.17296,-1067,4180,21.7467,7142,800
2.73612,158.73145,-1066,4181,21.6472,7142,800
1.42859,156.65793,-1065,4182,21.7467,7142,800
1.79539,163.97569,-1064,4183,21.7467,6814,820
1.80334,175.90091,-1063,4184,21.7965,6814,820
1.69708,181.97711,-1062,4185,21.7467,6814,820
1.83739,159.75884,-1061,4186,21.7467,6814,820
2.01324,132.35991,-1060,4187,21.9956,6814,820
1.67161,119.0399,-1059,4188,21.7467,6814,820
1.45176,123.94928,-1058,4189,21.7467,6814,820
1.64863,113.20993,-1057,4190,21.7965,6814,820
1.96772,98.991271,-1056,4191,21.7965,6814,820
2.0156,92.227494,-1055,4192,21.6472,6814,820
2.0693,71.627922,-1054,4193,21.7965,6671,831
1.55638,56.823173,-1053,4194,21.7467,6671,831
1.34255,41.841102,-1052,4195,21.7467,6671,831
1.7767,69.947141,-1051,4196,21.7467,6671,831
0.976563,86.695793,-1050,4197,21.8463,6671,831
1.60168,106.07552,-1049,4198,21.8463,6671,831
1.17188,130.76494,-1048,4199,21.9956,6671,831
2.95239,101.25201,-1047,4200,21.7467,6671,831
1.29923,51.152559,-1046,4201,21.7467,6671,831
1.76323,67.271818,-1045,4202,21.5974,6671,831
1.48746,65.360759,-1044,4203,21.5974,6405,848
1.60168,47.273058,-1043,4204,21.7467,6405,848
2.10585,33.206939,-1042,4205,21.8463,6405,848
2.30063,42.180901,-1041,4206,21.7467,6405,848
2.0156,57.765705,-1040,4207,21.7467,6405,848
1.19205,66.084588,-1039,4208,21.6472,6405,848
2.13284,63.58926,-1038,4209,21.7467,6405,848
1.88858,47.657788,-1037,4210,21.7965,6405,848
1.61945,41.467449,-1036,4211,22.0952,6405,848
2.45698,49.828767,-1035,4212,21.5974,6405,848
1.63702,56.587326,-1034,4213,21.7965,6067,888
1.98461,54.267909,-1033,4214,21.6472,6067,888
1.4681,55.267797,-1032,4215,21.8463,6067,888
2.65294,63.191994,-1031,4216,21.7965,6067,888
2.22905,69.288318,-1030,4217,21.5974,6067,888
1.91864,76.965114,-1029,4218,21.6472,6067,888
2.32332,83.117424,-1028,4219,21.7965,6067,888
2.33764,92.273691,-1027,4220,21.7467,6067,888
1.61355,104.11231,-1026,4221,21.7965,6067,888
2.08079,116.69449,-1025,4222,21.8463,6067,888
1.60168,127.26759,-1024,4223,22.0952,6039,903
1.31745,133.70857,-1023,4224,21.5974,6039,903
1.62239,138.25243,-1022,4225,21.7467,6039,903
1.27328,143.22188,-1021,4226,21.7965,6039,903
1.19205,148.95965,-1020,4227,21.7467,6039,903
0.931581,155.97672,-1019,4228,21.8463,6039,903
2.00136,163.34166,-1018,4229,22.145,6039,903
1.23912,168.84747,-1017,4230,21.8463,6039,903
1.23526,172.49671,-1016,4231,21.8463,6039,903
0.85693,179.04719,-1015,4232,21.7965,6039,903
0.961803,189.08672,-1014,4233,21.5974,6264,866
1.22752,196.36952,-1013,4234,21.7467,6264,866
0.276214,206.29218,-1012,4235,21.9459,6264,866
1.40163,218.88415,-1011,4236,21.8463,6264,866
1.22363,221.34687,-1010,4237,21.8463,6264,866
0.730792,218.85913,-1009,4238,21.7467,6264,866
0.560992,228.52987,-1008,4239,21.7467,6264,866
1.31745,239.41894,-1007,4240,21.8463,6264,866
1.57466,236.53491,-1006,4241,21.7467,6264,866
0.889691,241.10936,-1005,4242,21.7467,6264,866
1.16371,262.39251,-1004,4243,21.7467,6676,820
0.995902,265.70005,-1003,4244,21.7467,6676,820
0.76272,240.54196,-1002,4245,21.6472,6676,820
1.64283,241.52595,-1001,4246,21.7965,6676,820
0.625305,282.02776,-1000,4247,21.7467,6676,820
0.365396,292.55487,-999,4248,21.6472,6676,820
0.690534,259.02012,-998,4249,21.7965,6676,820
0.905627,260.09589,-997,4250,21.7467,6676,820
1.01487,312.50274,-996,4251,21.7965,6676,820
0.560992,306.03212,-995,4252,21.5974,6676,820
0.447517,244.72747,-994,4253,21.8463,6976,788
1.48103,269.18032,-993,4254,21.6472,6976,788
0.995902,335.08906,-992,4255,21.5476,6976,788
0.292969,303.99942,-991,4256,21.7467,6976,788
0.878906,254.50794,-990,4257,21.5476,6976,788
0.981433,298.66831,-989,4258,21.7467,6976,788
0.730792,330.74583,-988,4259,21.7965,6976,788
0.878906,283.62461,-987,4260,21.9459,6976,788
1.68581,292.67128,-986,4261,21.8463,6976,788
1.94088,355.77266,-985,4262,22.0952,6976,788
0.690534,331.09758,-984,4263,21.7467,6976,788
0.845728,300.7538,-983,4264,21.7965,6976,788
0.717624,347.82236,-982,4265,21.7467,6976,788
1.24296,360.65051,-981,4266,21.7467,6976,788
1.98701,333.32528,-980,4267,21.7965,6976,788
2.02269,355.94173,-979,4268,21.7467,6976,788
1.80334,373.78643,-978,4269,22.0952,6976,788
0.873464,330.84748,-977,4270,21.6472,6976,788
1.00068,304.22675,-976,4271,21.8463,6976,788
1.32467,314.28711,-975,4272,21.7965,6976,788
0.569429,307.11903,-974,4273,21.7965,6938,768
0.569429,296.64076,-973,4274,21.7467,6938,768
1.32467,327.03163,-972,4275,22.0952,6938,768
0.717624,364.56511,-971,4276,21.5476,6938,768
1.31383,373.88325,-970,4277,21.7965,6938,768
1.24679,372.53053,-969,4278,21.7965,6938,768
0.884315,359.69421,-968,4279,21.5974,6938,768
1.70829,343.1725,-967,4280,21.7965,6938,768
0.497951,343.7933,-966,4281,21.7965,6938,768
1.94824,352.1643,-965,4282,21.7467,6938,768
0.845728,343.86429,-964,4283,21.7467,6728,762
0.690534,322.82456,-963,4284,21.7965,6728,762
2.0693,309.0329,-962,4285,21.8463,6728,762
1.24296,306.19308,-961,4286,21.8463,6728,762
1.87846,309.36866,-960,4287,21.8463,6728,762
2.36199,307.37882,-959,4288,21.7467,6728,762
2.26091,307.51525,-958,4289,21.7965,6728,762
2.28816,312.50098,-957,4290,21.7467,6728,762
1.71664,319.43695,-956,4291,21.7467,6728,762
1.69146,329.55496,-955,4292,21.7467,6728,762
1.27702,335.61871,-954,4293,21.9956,6430,764
0.239208,354.84364,-953,4294,21.7965,6430,764
1.82437,467.42736,-952,4295,21.6472,6430,764
4.2444,458.90491,-951,4296,21.7467,6430,764
1.00543,480.90854,-950,4297,21.7467,6430,764
1.5034,449.59477,-949,4298,21.5476,6430,764
2.54094,406.45266,-948,4299,21.8463,6430,764
1.41854,384.95095,-947,4300,21.7467,6430,764
1.11773,414.83489,-946,4301,21.7965,6430,764
0.921287,412.00557,-945,4302,21.5476,6430,764
1.05631,417.51461,-944,4303,21.7965,6090,790
2.00136,461.10112,-943,4304,21.8463,6090,790
1.11773,491.9157,-942,4305,21.8463,6090,790
1.13886,526.16536,-941,4306,21.8463,6090,790
1.27328,558.66724,-940,4307,21.7965,6090,790
1.63702,567.10538,-939,4308,21.8463,6090,790
1.62826,559.87892,-938,4309,21.7965,6090,790
1.00068,567.22365,-937,4310,21.5974,6090,790
0.811194,573.35512,-936,4311,21.8463,6090,790
0.828641,572.22283,-935,4312,21.7467,6090,790
0.617632,577.58606,-934,4313,21.7965,5533,867
1.28817,584.27032,-933,4314,21.9459,5533,867
1.39822,583.22617,-932,4315,21.7467,5533,867
0.976563,582.50265,-931,4316,21.9459,5533,867
1.3102,588.36185,-930,4317,21.9459,5533,867
0.905627,593.80759,-929,4318,21.5476,5533,867
0.308816,600.02418,-928,4319,21.7467,5533,867
0.926449,611.41053,-927,4320,21.7467,5533,867
2.51263,622.92294,-926,4321,21.6472,5533,867
1.40842,627.38584,-925,4322,21.7467,5533,867
1.61945,624.56002,-924,4323,21.8463,4959,1157
1.58973,621.92343,-923,4324,21.8463,4959,1157
2.00136,621.39146,-922,4325,21.7467,4959,1157
1.47134,618.12362,-921,4326,21.9459,4959,1157
1.67446,616.63365,-920,4327,21.7467,4959,1157
2.19672,615.89015,-919,4328,21.7965,4959,1157
2.65115,559.71224,-918,4329,21.8463,4959,1157
3.63565,491.28803,-917,4330,21.6472,4959,1157
4.49643,458.5067,-916,4331,21.7467,4959,1157
6.58438,434.40286,-915,4332,21.7965,4959,1157
4.56484,500.19482,-914,4333,21.7467,4583,1267
4.44309,545.37913,-913,4334,21.7467,4583,1267
5.27796,508.93967,-912,4335,21.7467,4583,1267
6.0712,472.08078,-911,4336,21.7467,4583,1267
4.54495,447.70794,-910,4337,21.7467,4583,1267
6.0326,401.94983,-909,4338,21.7965,4583,1267
4.32122,331.2332,-908,4339,21.8463,4583,1267
4.66507,279.37084,-907,4340,21.8463,4583,1267
5.31038,258.09374,-906,4341,21.9459,4583,1267
4.39453,246.13341,-905,4342,21.6472,4583,1267
4.35967,231.74299,-904,4343,21.7467,4460,1255
3.75691,209.45605,-903,4344,21.8463,4460,1255
3.62777,188.3895,-902,4345,21.6472,4460,1255
4.4645,179.00095,-901,4346,21.6472,4460,1255
3.50884,179.76117,-900,4347,21.7467,4460,1255
3.08507,179.30056,-899,4348,21.7467,4460,1255
4.03357,181.23434,-898,4349,21.6472,4460,1255
2.55591,190.27786,-897,4350,21.7467,4460,1255
2.37005,208.49645,-896,4351,21.7965,4460,1255
1.61945,225.22796,-895,4352,21.7467,4460,1255
1.89865,235.13626,-894,4353,21.8463,4445,1232
1.21188,229.55416,-893,4354,21.7467,4445,1232
1.33185,217.45177,-892,4355,21.7467,4445,1232
1.91864,243.40003,-891,4356,21.8463,4445,1232
3.11736,264.42585,-890,4357,21.8463,4445,1232
2.89201,262.62261,-889,4358,21.8463,4445,1232
3.09125,263.7179,-888,4359,21.8463,4445,1232
3.22561,295.76599,-887,4360,21.7965,4445,1232
2.71512,339.73308,-886,4361,21.6472,4445,1232
0.840071,360.27344,-885,4362,21.9956,4445,1232
1.51603,373.26277,-884,4363,21.7965,4446,1230
1.77938,411.0721,-883,4364,21.9956,4446,1230
1.73047,474.28283,-882,4365,21.7467,4446,1230
2.86051,537.5292,-881,4366,21.8463,4446,1230
2.04845,588.7634,-880,4367,21.7965,4446,1230
1.60466,629.58943,-879,4368,21.7467,4446,1230
2.03678,641.69457,-878,4369,21.5974,4446,1230
1.40163,625.28786,-877,4370,21.6472,4446,1230
1.60168,595.8089,-876,4371,21.8463,4446,1230
1.67161,560.94624,-875,4372,21.8463,4446,1230
2.97812,531.63753,-874,4373,21.7467,4479,1184
1.81125,512.70376,-873,4374,21.7467,4479,1184
1.24296,495.72963,-872,4375,21.8463,4479,1184
1.76052,475.77657,-871,4376,21.9956,4479,1184
1.5807,465.48863,-870,4377,21.7467,4479,1184
1.61355,471.17724,-869,4378,21.8463,4479,1184
1.52856,485.30723,-868,4379,21.7467,4479,1184
1.66303,502.34329,-867,4380,21.7467,4479,1184
1.3029,518.50826,-866,4381,21.7965,4479,1184
1.958,532.24014,-865,4382,21.7965,4479,1184
1.0381,544.53279,-864,4383,21.7467,4525,1128
1.33185,553.14102,-863,4384,22.0952,4525,1128
1.1596,555.76546,-862,4385,21.7965,4525,1128
1.29923,557.00272,-861,4386,21.8463,4525,1128
1.10916,560.94714,-860,4387,22.145,4525,1128
1.29923,564.56935,-859,4388,21.7467,4525,1128
2.40203,564.69831,-858,4389,21.7467,4525,1128
1.68863,560.069,-857,4390,21.8463,4525,1128
1.22363,551.45166,-856,4391,21.9459,4525,1128
1.40842,541.94519,-855,4392,21.7965,4525,1128
1.24296,532.30611,-854,4393,21.6472,4587,1061
0.717624,520.32097,-853,4394,21.7467,4587,1061
1.00543,507.69931,-852,4395,21.7965,4587,1061
1.38452,497.81496,-851,4396,22.0952,4587,1061
0.717624,492.09515,-850,4397,21.9459,4587,1061
1.17998,492.41061,-849,4398,21.9956,4587,1061
0.632885,499.24504,-848,4399,21.7965,4587,1061
1.02423,513.52179,-847,4400,21.7965,4587,1061
1.23912,535.03681,-846,4401,21.7467,4587,1061
1.21581,561.70133,-845,4402,21.8463,4587,1061
0.601994,613.44347,-844,4403,21.7467,4605,1000
2.20323,689.38985,-843,4404,21.8463,4605,1000
2.84044,552.66839,-842,4405,21.7467,4605,1000
3.72376,323.1476,-841,4406,21.8463,4605,1000
3.33893,156.38613,-840,4407,21.7965,4605,1000
2.54656,127.00247,-839,4408,21.9459,4605,1000
1.41854,189.32854,-838,4409,21.8463,4605,1000
1.01016,351.25876,-837,4410,21.6472,4605,1000
2.8986,477.25404,-836,4411,21.7965,4605,1000
2.0693,574.6625,-835,4412,21.7965,4605,1000
1.63702,623.86544,-834,4413,21.9956,4601,960
1.56859,583.31451,-833,4414,21.7965,4601,960
1.98461,490.32747,-832,4415,21.6472,4601,960
2.65654,391.88316,-831,4416,21.8463,4601,960
1.61945,329.66095,-830,4417,21.8463,4601,960
2.03678,304.54295,-829,4418,21.7467,4601,960
1.76052,313.75433,-828,4419,21.8463,4601,960
1.74966,350.06492,-827,4420,21.7467,4601,960
1.9335,382.95014,-826,4421,21.8463,4601,960
5.36843,398.92513,-825,4422,21.7467,4601,960
3.28857,397.29336,-824,4423,21.8463,4576,901
2.25034,380.72963,-823,4424,21.8463,4576,901
2.39606,354.5276,-822,4425,21.7467,4576,901
2.46086,325.71038,-821,4426,21.8463,4576,901
2.35187,304.27891,-820,4427,21.7467,4576,901
3.04305,290.38708,-819,4428,21.6472,4576,901
2.74482,281.81388,-818,4429,21.7467,4576,901
2.41588,276.24045,-817,4430,21.9459,4576,901
2.25457,269.0595,-816,4431,21.6472,4576,901
2.03444,256.49552,-815,4432,21.8463,4576,901
2.36401,240.61684,-814,4433,21.7467,4573,861
1.47781,224.04406,-813,4434,21.7965,4573,861
2.79304,208.88613,-812,4435,21.7965,4573,861
1.17594,197.71977,-811,4436,21.8463,4573,861
2.58559,191.15439,-810,4437,21.7965,4573,861
3.00204,187.50072,-809,4438,21.7965,4573,861
2.85216,184.14524,-808,4439,21.7467,4573,861
2.8986,179.53721,-807,4440,21.6472,4573,861
1.47458,172.96541,-806,4441,21.7965,4573,861
0.834375,165.60474,-805,4442,21.7965,4573,861
1.81388,158.89588,-804,4443,21.7467,4584,839
2.15287,152.66321,-803,4444,21.7467,4584,839
2.50313,147.87089,-802,4445,21.8463,4584,839
1.95556,144.6834,-801,4446,21.6472,4584,839
1.87846,142.50212,-800,4447,21.8463,4584,839
1.28447,140.58902,-799,4448,21.7965,4584,839
2.03444,138.10517,-798,4449,21.8463,4584,839
1.77132,135.60012,-797,4450,21.6472,4584,839
2.14399,133.07394,-796,4451,21.7965,4584,839
1.76323,131.05839,-795,4452,21.7965,4584,839
1.56555,129.76459,-794,4453,21.7467,4608,828
1.35668,129.00152,-793,4454,21.8463,4608,828
1.8606,128.72654,-792,4455,21.7467,4608,828
1.68014,129.0722,-791,4456,21.7965,4608,828
1.13886,129.42591,-790,4457,21.7467,4608,828
1.49066,129.58452,-789,4458,21.7467,4608,828
0.926449,129.94532,-788,4459,21.8463,4608,828
1.22363,124.07563,-787,4460,21.9459,4608,828
2.18584,135.23986,-786,4461,21.7965,4608,828
1.11773,178.63976,-785,4462,21.5974,4608,828
0.138107,189.59622,-784,4463,21.7467,4631,818
4.00867,168.67732,-783,4464,21.7965,4631,818
1.69427,143.18686,-782,4465,21.9459,4631,818
1.38796,122.99509,-781,4466,21.7965,4631,818
1.80334,126.16763,-780,4467,21.7467,4631,818
1.88099,135.83316,-779,4468,21.9459,4631,818
1.27702,151.92517,-778,4469,21.6472,4631,818
1.54717,167.6269,-777,4470,21.6472,4631,818
1.11773,189.57901,-776,4471,21.8463,4631,818
0.793363,209.85144,-775,4472,21.9459,4631,818
2.16832,195.72638,-774,4473,21.8463,4631,818
2.3539,163.08726,-773,4474,21.8463,4631,818
1.89865,146.68779,-772,4475,21.7965,4631,818
2.02504,144.45581,-771,4476,21.7965,4631,818
1.88606,153.65176,-770,4477,21.9956,4631,818
2.03444,173.00361,-769,4478,21.8463,4631,818
2.66371,190.26192,-768,4479,21.7965,4631,818
1.79539,200.84332,-767,4480,22.145,4631,818
0.921287,208.81425,-766,4481,21.8463,4631,818
1.6165,207.86144,-765,4482,21.7467,4631,818
2.63672,192.68075,-764,4483,21.7965,4641,791
1.7551,177.97018,-763,4484,21.7965,4641,791
0.560992,177.59536,-762,4485,21.8463,4641,791
2.15066,187.32452,-761,4486,21.7467,4641,791
1.61355,203.75338,-760,4487,21.7965,4641,791
1.71664,225.74362,-759,4488,21.7965,4641,791
1.28075,228.79266,-758,4489,21.7467,4641,791
1.58673,227.97212,-757,4490,21.7467,4641,791
1.67161,205.97867,-756,4491,21.9956,4641,791
1.55638,192.91304,-755,4492,21.7965,4641,791
1.87846,223.30574,-754,4493,21.7467,4679,765
1.58673,254.40048,-753,4494,21.9956,4679,765
2.7396,273.24896,-752,4495,21.7467,4679,765
1.91864,288.97756,-751,4496,22.145,4679,765
1.83479,293.6857,-750,4497,21.8463,4679,765
1.54717,257.61501,-749,4498,21.9459,4679,765
1.15135,211.31094,-748,4499,21.7965,4679,765
1.70549,189.59708,-747,4500,21.7467,4679,765
2.2819,148.23684,-746,4501,21.7965,4679,765
3.18545,157.42835,-745,4502,21.7965,4679,765
2.0693,120.13412,-744,4503,21.7467,4712,733
1.91615,95.019723,-743,4504,21.7965,4712,733
0.845728,110.74691,-742,4505,21.8463,4712,733
3.48703,201.11213,-741,4506,21.7467,4712,733
1.32467,247.52958,-740,4507,21.6472,4712,733
1.76052,205.80323,-739,4508,21.7467,4712,733
2.26091,154.33217,-738,4509,21.7965,4712,733
1.54408,119.67399,-737,4510,21.6472,4712,733
1.12198,94.627486,-736,4511,21.7467,4712,733
0.352105,98.372389,-735,4512,21.7467,4712,733
0.697405,137.12822,-734,4513,21.7467,4762,708
0.239208,163.09416,-733,4514,21.9956,4762,708
1.61355,154.70557,-732,4515,21.7467,4762,708
2.48784,133.30777,-731,4516,21.6472,4762,708
1.33543,105.59879,-730,4517,21.7965,4762,708
1.98461,81.265188,-729,4518,21.9956,4762,708
1.69427,77.644108,-728,4519,21.7467,4762,708
0.966748,92.714793,-727,4520,22.145,4762,708
1.81651,107.75504,-726,4521,21.9956,4762,708
1.97498,113.18716,-725,4522,21.5974,4762,708
1.33543,105.97004,-724,4523,21.9459,4823,688
1.36019,87.944692,-723,4524,21.7467,4823,688
1.56859,73.214106,-722,4525,21.7467,4823,688
1.56555,71.415828,-721,4526,21.8463,4823,688
1.82698,79.219495,-720,4527,21.6472,4823,688
1.40163,90.011606,-719,4528,21.6472,4823,688
1.41854,96.776663,-718,4529,21.7467,4823,688
1.74146,95.930569,-717,4530,21.8463,4823,688
0.873464,86.161495,-716,4531,21.5476,4823,688
1.5807,77.709811,-715,4532,21.7467,4823,688
1.88858,77.804959,-714,4533,21.8463,4901,672
1.78206,83.005928,-713,4534,21.7467,4901,672
2.04146,90.855991,-712,4535,21.7467,4901,672
0.971667,94.016729,-711,4536,21.7965,4901,672
2.53906,91.379719,-710,4537,21.7467,4901,672
1.94824,87.384355,-709,4538,21.7467,4901,672
1.25821,83.70268,-708,4539,21.8463,4901,672
0.921287,84.022513,-707,4540,21.9956,4901,672
2.33968,89.02157,-706,4541,21.7467,4901,672
1.55638,95.861809,-705,4542,21.6472,4901,672
0.966748,98.905432,-704,4543,21.8463,5007,659
1.90617,98.486461,-703,4544,21.7965,5007,659
1.62826,97.12571,-702,4545,21.7467,5007,659
3.20634,95.058371,-701,4546,21.7467,5007,659
1.92608,94.758805,-700,4547,21.8463,5007,659
2.19238,97.966198,-699,4548,21.9459,5007,659
2.13284,101.54431,-698,4549,21.7965,5007,659
1.66303,100.92351,-697,4550,21.7467,5007,659
2.0156,100.84146,-696,4551,21.7467,5007,659
1.28447,99.313183,-695,4552,21.7965,5007,659
1.40163,93.550788,-694,4553,21.6472,5174,631
0.905627,94.18308,-693,4554,21.8463,5174,631
1.16371,97.701177,-692,4555,21.8463,5174,631
2.99249,95.149326,-691,4556,21.7467,5174,631
2.77247,91.97348,-690,4557,21.7965,5174,631
1.92856,95.526552,-689,4558,21.7467,5174,631
0.889691,91.551188,-688,4559,21.9956,5174,631
2.13284,82.599218,-687,4560,21.9459,5174,631
2.13284,88.111261,-686,4561,21.7965,5174,631
1.39822,92.199296,-685,4562,21.9459,5174,631
1.05179,79.320158,-684,4563,21.9459,5427,606
1.97498,74.922538,-683,4564,21.7467,5427,606
1.81913,81.787474,-682,4565,21.7467,5427,606
1.62239,77.31774,-681,4566,22.0952,5427,606
1.40163,74.466293,-680,4567,21.7467,5427,606
1.31383,75.595435,-679,4568,21.6472,5427,606
2.08765,67.132124,-678,4569,21.9459,5427,606
2.16832,65.599364,-677,4570,21.9956,5427,606
1.88606,72.576319,-676,4571,21.8463,5427,606
1.46158,70.62725,-675,4572,21.9459,5427,606
1.21581,64.299197,-674,4573,21.7467,5805,582
1.3461,68.094011,-673,4574,21.5974,5805,582
1.23912,72.103163,-672,4575,21.9459,5805,582
1.47134,73.112984,-671,4576,22.0952,5805,582
1.87846,72.621475,-670,4577,21.8463,5805,582
2.17052,65.435609,-669,4578,21.9956,5805,582
1.73323,55.073737,-668,4579,21.7467,5805,582
1.83479,71.282687,-667,4580,21.7467,5805,582
1.51603,83.407885,-666,4581,21.7965,5805,582
1.15548,82.407316,-665,4582,21.7965,5805,582
1.52856,74.163818,-664,4583,21.7467,6333,570
1.82437,75.375131,-663,4584,21.7467,6333,570
1.49385,73.230285,-662,4585,21.7965,6333,570
2.15287,74.407538,-661,4586,21.8463,6333,570
2.62403,84.878992,-660,4587,21.6472,6333,570
1.93596,92.15961,-659,4588,21.6472,6333,570
1.3637,103.3206,-658,4589,21.8463,6333,570
3.20038,104.00469,-657,4590,21.7965,6333,570
3.22561,127.37141,-656,4591,21.9956,6333,570
2.83035,112.91484,-655,4592,21.9459,6333,570
2.31715,88.477064,-654,4593,21.7965,6992,552
2.48976,96.823075,-653,4594,21.8463,6992,552
2.28816,97.161681,-652,4595,21.7467,6992,552
2.19889,74.915875,-651,4596,21.7467,6992,552
2.41193,73.036617,-650,4597,21.9459,6992,552
2.43358,86.496271,-649,4598,21.9459,6992,552
2.09677,103.01982,-648,4599,22.145,6992,552
2.915,116.48028,-647,4600,21.6472,6992,552
3.15839,117.71136,-646,4601,21.8463,6992,552
2.43554,115.73688,-645,4602,21.9459,6992,552
1.40163,114.78174,-644,4603,21.7965,7567,542
2.77763,137.18667,-643,4604,21.9459,7567,542
2.86551,172.57224,-642,4605,21.6472,7567,542
2.45504,219.87032,-641,4606,21.7965,7567,542
2.47439,250.35062,-640,4607,21.5974,7567,542
1.44188,238.81212,-639,4608,21.9459,7567,542
1.77132,210.59071,-638,4609,21.8463,7567,542
1.47134,193.80691,-637,4610,21.7467,7567,542
0.569429,195.56117,-636,4611,21.7965,7567,542
1.80334,206.51602,-635,4612,21.7965,7567,542
2.09677,230.56872,-634,4613,21.6472,7530,534
1.14304,252.71037,-633,4614,22.0952,7530,534
1.71386,265.74348,-632,4615,21.7467,7530,534
1.53168,270.05247,-631,4616,21.9459,7530,534
2.27352,269.42514,-630,4617,21.7965,7530,534
1.84257,290.63206,-629,4618,21.7467,7530,534
1.69708,285.16296,-628,4619,21.8463,7530,534
1.20794,258.74153,-627,4620,21.9459,7530,534
3.5828,261.44586,-626,4621,21.7467,7530,534
2.08765,266.0871,-625,4622,21.7467,7530,534
1.21188,261.51179,-624,4623,21.8463,7385,520
1.64283,295.94074,-623,4624,21.7965,7385,520
0.921287,345.82968,-622,4625,21.6472,7385,520
1.4219,356.29029,-621,4626,21.9956,7385,520
1.53168,329.24721,-620,4627,21.8463,7385,520
2.45504,284.90505,-619,4628,21.8463,7385,520
1.52544,248.79813,-618,4629,21.6472,7385,520
1.39481,251.66248,-617,4630,21.7467,7385,520
2.23332,281.28171,-616,4631,21.7965,7385,520
2.46667,304.48261,-615,4632,21.9956,7385,520
1.97739,306.73406,-614,4633,21.8463,7537,515
2.27981,294.57069,-613,4634,21.7965,7537,515
1.64863,279.2428,-612,4635,21.8463,7537,515
1.96772,269.72418,-611,4636,21.7965,7537,515
2.32946,272.11148,-610,4637,21.7467,7537,515
1.56859,281.09764,-609,4638,21.8463,7537,515
1.3029,292.81966,-608,4639,21.9459,7537,515
0.956832,301.81719,-607,4640,21.7467,7537,515
1.9918,303.24868,-606,4641,21.7965,7537,515
1.80334,297.72168,-605,4642,21.8463,7537,515
1.7551,292.63755,-604,4643,21.7467,8191,502
1.06082,288.73102,-603,4644,21.7467,8191,502
0.560992,285.92646,-602,4645,21.9459,8191,502
1.63702,285.67523,-601,4646,21.8463,8191,502
1.1472,286.12138,-600,4647,21.8463,8191,502
0.946812,277.56274,-599,4648,21.7467,8191,502
1.70829,261.31103,-598,4649,21.8463,8191,502
1.81388,242.33429,-597,4650,21.6472,8191,502
0.76272,224.58735,-596,4651,21.8463,8191,502
1.0381,213.88983,-595,4652,21.9459,8191,502
1.05631,210.44741,-594,4653,22.0952,9081,493
1.52856,208.28447,-593,4654,22.0952,9081,493
1.79804,207.15821,-592,4655,21.7467,9081,493
2.04146,200.4254,-591,4656,21.8463,9081,493
1.81651,191.67193,-590,4657,21.7467,9081,493
1.24296,183.00836,-589,4658,21.7467,9081,493
1.81125,173.55239,-588,4659,21.7965,9081,493
1.26577,172.41657,-587,4660,21.8463,9081,493
1.0381,181.59025,-586,4661,21.9459,9081,493
1.47781,194.28172,-585,4662,21.8463,9081,493
3.03364,198.2311,-584,4663,21.7965,9850,483
1.22363,187.78085,-583,4664,21.8463,9850,483
1.67161,176.68644,-582,4665,21.6472,9850,483
0.655098,177.04438,-581,4666,21.7965,9850,483
0.921287,181.70333,-580,4667,21.6472,9850,483
1.67161,187.18224,-579,4668,21.5974,9850,483
1.25821,182.85175,-578,4669,21.7467,9850,483
2.0739,181.32554,-577,4670,21.8463,9850,483
1.67446,182.10947,-576,4671,21.7467,9850,483
1.28447,178.50441,-575,4672,21.7965,9850,483
1.32827,171.37576,-574,4673,21.7467,10558,477
3.13414,162.44917,-573,4674,21.9459,10558,477
1.76052,157.70114,-572,4675,22.0952,10558,477
1.02423,156.18709,-571,4676,21.9956,10558,477
1.32827,155.79979,-570,4677,21.7467,10558,477
0.743728,153.99033,-569,4678,21.7467,10558,477
1.30655,150.83554,-568,4679,21.9459,10558,477
2.51263,148.33442,-567,4680,21.7965,10558,477
1.37415,142.03294,-566,4681,21.7965,10558,477
1.38452,134.6845,-565,4682,21.8463,10558,477
1.25821,130.42646,-564,4683,21.7965,10995,477
1.67161,126.26208,-563,4684,21.7965,10995,477
0.878906,119.93003,-562,4685,21.9459,10995,477
1.58973,113.81733,-561,4686,21.7467,10995,477
1.77938,105.52257,-560,4687,21.7965,10995,477
1.958,94.740876,-559,4688,21.8463,10995,477
1.68581,86.813965,-558,4689,21.8463,10995,477
1.09183,82.161029,-557,4690,21.9459,10995,477
1.78206,82.310972,-556,4691,21.8463,10995,477
2.41588,85.10621,-555,4692,21.7467,10995,477
1.79804,89.655305,-554,4693,21.9459,10995,479
1.80334,95.142043,-553,4694,21.7467,10995,479
1.49066,100.69025,-552,4695,21.7467,10995,479
1.74966,104.28035,-551,4696,21.8463,10995,479
1.86827,112.22173,-550,4697,21.8463,10995,479
1.7767,124.44432,-549,4698,21.8463,10995,479
0.905627,138.73945,-548,4699,21.9459,10995,479
2.09677,152.29709,-547,4700,21.6472,10995,479
2.25457,163.61566,-546,4701,21.7467,10995,479
1.89614,177.0541,-545,4702,21.7467,10995,479
2.22905,192.12743,-544,4703,21.5476,11051,481
1.1596,206.04843,-543,4704,21.8463,11051,481
1.66016,216.021,-542,4705,21.8463,11051,481
1.09183,220.44655,-541,4706,21.8463,11051,481
1.98461,217.44982,-540,4707,21.7467,11051,481
1.70549,213.18905,-539,4708,21.7467,11051,481
1.70549,212.9104,-538,4709,21.7467,11051,481
1.34255,214.11985,-537,4710,21.8463,11051,481
2.1771,219.45628,-536,4711,21.9459,11051,481
1.73872,231.98826,-535,4712,21.7467,11051,481
1.86572,247.68106,-534,4713,21.7467,11046,480
1.87592,271.62765,-533,4714,21.8463,11046,480
1.43857,297.66805,-532,4715,21.9956,11046,480
2.01087,318.68594,-531,4716,21.7965,11046,480
1.91615,335.19105,-530,4717,21.7467,11046,480
1.27328,343.38362,-529,4718,22.0952,11046,480
2.18366,350.90427,-528,4719,21.7965,11046,480
1.87846,351.6094,-527,4720,21.6472,11046,480
1.43857,344.53443,-526,4721,21.7965,11046,480
1.88099,331.14427,-525,4722,21.7965,11046,480
1.958,317.80764,-524,4723,21.7965,10768,487
1.7767,302.04424,-523,4724,21.5974,10768,487
1.0381,284.97403,-522,4725,21.9459,10768,487
2.12837,269.62107,-521,4726,21.7467,10768,487
2.71688,262.6495,-520,4727,22.0952,10768,487
1.01016,261.97134,-519,4728,21.8463,10768,487
1.90617,262.72869,-518,4729,21.7467,10768,487
1.09619,267.66401,-517,4730,21.9956,10768,487
1.80334,271.75752,-516,4731,21.7965,10768,487
2.00374,276.35088,-515,4732,21.8463,10768,487
2.03912,282.42808,-514,4733,21.7965,10667,489
1.31745,283.86965,-513,4734,21.7965,10667,489
2.0716,282.03391,-512,4735,21.8463,10667,489
1.59273,279.18121,-511,4736,21.7965,10667,489
1.61355,276.357,-510,4737,21.8463,10667,489
1.38452,278.52286,-509,4738,21.6472,10667,489
1.35668,281.00803,-508,4739,21.7965,10667,489
1.15135,277.71393,-507,4740,21.8463,10667,489
1.13045,275.4797,-506,4741,22.145,10667,489
1.1596,273.59399,-505,4742,21.7467,10667,489
1.28817,272.39103,-504,4743,21.7467,10723,500
1.31383,273.8664,-503,4744,21.7467,10723,500
0.617632,273.94566,-502,4745,21.7965,10723,500
1.31745,272.38772,-501,4746,21.8463,10723,500
2.59479,273.45028,-500,4747,22.0952,10723,500
1.7551,273.34032,-499,4748,21.7467,10723,500
1.09619,269.15366,-498,4749,21.7467,10723,500
0.585938,264.8647,-497,4750,21.6472,10723,500
1.80598,261.72951,-496,4751,21.7965,10723,500
2.23332,255.13122,-495,4752,21.8463,10723,500
1.34255,248.87251,-494,4753,21.9956,10833,513
1.20794,249.91231,-493,4754,21.7467,10833,513
1.10916,251.94396,-492,4755,21.7965,10833,513
1.67446,249.25975,-491,4756,21.9956,10833,513
1.45176,241.40962,-490,4757,21.7965,10833,513
0.560992,237.30224,-489,4758,21.7965,10833,513
1.01016,237.34581,-488,4759,21.8463,10833,513
0.878906,238.42395,-487,4760,21.8463,10833,513
1.17188,240.69953,-486,4761,21.9459,10833,513
0.768946,243.29887,-485,4762,21.7467,10833,513
2.18366,245.49099,-484,4763,21.7965,10846,525
2.19672,247.22409,-483,4764,21.8463,10846,525
1.04268,248.22373,-482,4765,21.5974,10846,525
1.86316,249.92575,-481,4766,21.7467,10846,525
1.66016,250.98232,-480,4767,21.7965,10846,525
1.79539,253.77822,-479,4768,21.8463,10846,525
1.68298,256.11666,-478,4769,21.7467,10846,525
1.91864,253.27948,-477,4770,21.8463,10846,525
0.946812,251.53822,-476,4771,21.7467,10846,525
1.19205,251.92148,-475,4772,21.9956,10846,525
1.79539,249.95863,-474,4773,21.9459,10869,539
1.50022,245.92754,-473,4774,21.7467,10869,539
0.851347,246.89284,-472,4775,21.7965,10869,539
0.710948,253.64707,-471,4776,21.7965,10869,539
0.905627,254.84545,-470,4777,21.9956,10869,539
0.921287,249.86723,-469,4778,21.7965,10869,539
2.08994,244.76486,-468,4779,21.7965,10869,539
2.04379,243.99596,-467,4780,21.9459,10869,539
1.82698,247.49204,-466,4781,21.7467,10869,539
0.966748,244.73009,-465,4782,21.9459,10869,539
1.88099,230.61382,-464,4783,22.0952,10942,542
2.18802,213.9606,-463,4784,21.9459,10942,542
2.25668,206.7625,-462,4785,21.8463,10942,542
0.717624,208.98616,-461,4786,21.9459,10942,542
1.54408,210.998,-460,4787,21.9459,10942,542
1.37067,208.2443,-459,4788,21.9459,10942,542
1.97256,205.32698,-458,4789,21.9459,10942,542
1.21188,205.45623,-457,4790,21.7467,10942,542
1.17998,208.16296,-456,4791,21.7965,10942,542
1.28447,210.62315,-455,4792,21.9956,10942,542
1.47134,212.22271,-454,4793,21.7965,10882,546
0.690534,213.55161,-453,4794,21.7467,10882,546
0.805294,214.58374,-452,4795,21.8463,10882,546
1.93596,214.08561,-451,4796,21.9459,10882,546
1.48746,210.20419,-450,4797,21.7965,10882,546
1.80334,206.25913,-449,4798,21.9459,10882,546
1.45176,204.32058,-448,4799,21.7467,10882,546
4.41726,204.66929,-447,4800,21.8463,10882,546
0.569429,203.44027,-446,4801,21.8463,10882,546
0.811194,199.26961,-445,4802,21.6472,10882,546
1.28075,195.54094,-444,4803,21.8463,10802,551
2.08994,195.39111,-443,4804,21.7467,10802,551
1.4118,197.13872,-442,4805,21.6472,10802,551
1.3637,199.47458,-441,4806,21.7965,10802,551
1.47458,202.25857,-440,4807,21.6472,10802,551
0.840071,202.90884,-439,4808,21.7467,10802,551
1.69146,201.78773,-438,4809,21.9459,10802,551
0.966748,201.07222,-437,4810,21.6472,10802,551
1.13045,200.6162,-436,4811,21.7467,10802,551
1.15135,199.2668,-435,4812,22.0952,10802,551
2.04146,199.59765,-434,4813,22.0952,10598,557
1.40163,201.98731,-433,4814,22.0952,10598,557
0.497951,204.8457,-432,4815,21.7467,10598,557
0.946812,207.29052,-431,4816,21.7467,10598,557
1.32827,208.97232,-430,4817,21.8463,10598,557
0.916097,210.28219,-429,4818,21.7467,10598,557
1.55638,214.19622,-428,4819,21.7965,10598,557
1.46158,220.32647,-427,4820,22.145,10598,557
2.21402,224.72057,-426,4821,21.7467,10598,557
1.02423,225.52109,-425,4822,21.9956,10598,557
0.878906,224.08894,-424,4823,21.7965,10278,564
0.941763,226.4095,-423,4824,21.8463,10278,564
1.28817,232.08276,-422,4825,21.7467,10278,564
1.82698,237.48703,-421,4826,21.7467,10278,564
1.10916,238.39913,-420,4827,21.6472,10278,564
1.45176,235.87526,-419,4828,21.7467,10278,564
0.921287,235.29517,-418,4829,21.8463,10278,564
1.95556,238.76432,-417,4830,21.9459,10278,564
1.85804,243.53171,-416,4831,22.0952,10278,564
1.78473,248.40553,-415,4832,21.8463,10278,564
1.76323,252.03204,-414,4833,21.8463,9882,580
0.577742,252.55404,-413,4834,21.7467,9882,580
1.38796,248.92989,-412,4835,21.7965,9882,580
1.95556,247.77294,-411,4836,21.9459,9882,580
1.57163,248.17798,-410,4837,21.7965,9882,580
0.655098,250.16961,-409,4838,21.9956,9882,580
0.76272,251.09736,-408,4839,21.8463,9882,580
1.25442,251.62861,-407,4840,21.7965,9882,580
1.40163,249.94236,-406,4841,21.8463,9882,580
1.74966,249.12733,-405,4842,21.6472,9882,580
1.17594,242.81829,-404,4843,21.7965,9570,575
1.27328,228.61726,-403,4844,21.8463,9570,575
0.85693,219.57796,-402,4845,21.7965,9570,575
1.68298,227.65534,-401,4846,21.7965,9570,575
1.48103,237.02022,-400,4847,21.6472,9570,575
0.402647,234.68487,-399,4848,21.7467,9570,575
0.817051,223.7372,-398,4849,21.7965,9570,575
0.730792,210.12485,-397,4850,21.7965,9570,575
0.534885,206.37011,-396,4851,21.7467,9570,575
2.12837,209.663,-395,4852,21.7467,9570,575
1.27702,215.46918,-394,4853,21.7467,9207,580
0.447517,216.52727,-393,4854,21.7965,9207,580
1.38452,212.8426,-392,4855,21.7467,9207,580
0.569429,210.54256,-391,4856,21.7467,9207,580
1.74966,211.92507,-390,4857,21.7965,9207,580
0.662337,213.38648,-389,4858,21.7467,9207,580
1.47781,208.72028,-388,4859,21.8463,9207,580
1.23912,200.11483,-387,4860,21.7965,9207,580
1.04268,195.04834,-386,4861,21.7965,9207,580
1.26577,195.66093,-385,4862,21.9956,9207,580
1.11773,195.99471,-384,4863,21.7965,9005,589
1.00543,193.29486,-383,4864,21.7467,9005,589
1.19604,200.50568,-382,4865,21.7965,9005,589
1.67161,215.89614,-381,4866,21.7965,9005,589
0.308816,220.49524,-380,4867,21.9956,9005,589
0.323889,224.17488,-379,4868,21.7467,9005,589
1.09183,232.92541,-378,4869,21.6472,9005,589
0.655098,234.34019,-377,4870,21.7965,9005,589
1.43525,221.01783,-376,4871,21.8463,9005,589
1.14304,199.18505,-375,4872,21.8463,9005,589
3.34606,176.53891,-374,4873,21.7965,8921,589
0.402647,157.08514,-373,4874,21.7965,8921,589
1.45176,140.6463,-372,4875,21.7965,8921,589
1.17188,127.93866,-371,4876,21.7467,8921,589
0.817051,120.00325,-370,4877,21.9956,8921,589
0.862477,116.32353,-369,4878,21.8463,8921,589
0.793363,117.10539,-368,4879,21.7467,8921,589
0.862477,120.77721,-367,4880,21.7965,8921,589
1.73872,124.53697,-366,4881,21.7467,8921,589
1.51917,126.3956,-365,4882,21.8463,8921,589
0.845728,126.2855,-364,4883,21.7965,8887,586
1.74966,124.31134,-363,4884,21.7965,8887,586
0.750112,121.92912,-362,4885,21.7965,8887,586
1.09619,120.12079,-361,4886,21.6472,8887,586
1.00068,119.7916,-360,4887,21.7965,8887,586
1.10916,121.96223,-359,4888,21.8463,8887,586
0.840071,127.55378,-358,4889,21.7965,8887,586
1.25061,135.11474,-357,4890,21.9459,8887,586
1.23912,142.89387,-356,4891,21.7965,8887,586
0,149.36045,-355,4892,21.9956,8887,586
0.926449,154.04369,-354,4893,21.7965,8847,586
1.36019,156.73087,-353,4894,21.7467,8847,586
0.710948,158.8261,-352,4895,21.7467,8847,586
1.00543,160.00038,-351,4896,21.8463,8847,586
1.31383,161.77909,-350,4897,21.7965,8847,586
1.38107,164.24673,-349,4898,21.9956,8847,586
1.01016,167.56946,-348,4899,21.8463,8847,586
0.365396,171.55105,-347,4900,22.145,8847,586
1.01956,174.9268,-346,4901,21.8463,8847,586
0.737289,178.74487,-345,4902,21.7965,8847,586
0.941763,182.8817,-344,4903,21.9956,8847,582
1.00543,187.20612,-343,4904,21.7965,8847,582
1.96287,191.34369,-342,4905,21.8463,8847,582
1.31383,194.5244,-341,4906,21.8463,8847,582
1.13045,196.24731,-340,4907,22.0952,8847,582
0.402647,197.2989,-339,4908,21.7965,8847,582
0.85693,198.87712,-338,4909,22.145,8847,582
0.569429,201.8087,-337,4910,21.7965,8847,582
0.577742,205.51892,-336,4911,21.7467,8847,582
0.981433,208.81164,-335,4912,21.8463,8847,582
1.33185,210.49701,-334,4913,21.7467,8883,579
1.38452,208.45821,-333,4914,22.0952,8883,579
1.96287,201.44431,-332,4915,21.7467,8883,579
1.37067,190.21775,-331,4916,21.7965,8883,579
1.49385,179.21273,-330,4917,21.7965,8883,579
0.884315,169.51136,-329,4918,21.8463,8883,579
0.840071,156.83347,-328,4919,21.7965,8883,579
0.730792,145.17666,-327,4920,21.5974,8883,579
1.49385,140.83412,-326,4921,21.7965,8883,579
0.730792,142.3734,-325,4922,21.9459,8883,579
0.640375,145.73242,-324,4923,21.7965,8924,572
1.02423,145.18292,-323,4924,21.7467,8924,572
1.4118,138.72532,-322,4925,21.7965,8924,572
3.24183,126.98493,-321,4926,21.7965,8924,572
1.25061,113.90841,-320,4927,21.7467,8924,572
1.86572,101.65738,-319,4928,21.9459,8924,572
1.21188,89.337206,-318,4929,21.8463,8924,572
1.00068,80.725034,-317,4930,21.9459,8924,572
1.13886,80.346936,-316,4931,21.9956,8924,572
1.0381,81.885344,-315,4932,21.8463,8924,572
0.981433,81.207499,-314,4933,21.7965,8971,565
2.11037,77.394985,-313,4934,21.7467,8971,565
0.750112,76.434538,-312,4935,21.7467,8971,565
1.76052,86.42673,-311,4936,21.8463,8971,565
0.834375,92.661981,-310,4937,21.9956,8971,565
0.697405,97.436734,-309,4938,21.9459,8971,565
0.916097,107.09442,-308,4939,21.8463,8971,565
1.88858,115.21608,-307,4940,21.9459,8971,565
0.966748,131.91148,-306,4941,21.7467,8971,565
0.873464,176.94263,-305,4942,21.8463,8971,565
2.75868,234.81636,-304,4943,21.7965,9048,558
1.19205,282.4372,-303,4944,21.7965,9048,558
0.750112,312.32144,-302,4945,21.9459,9048,558
1.02423,357.69087,-301,4946,21.8463,9048,558
1.44188,404.9422,-300,4947,21.7965,9048,558
0.737289,423.16934,-299,4948,21.9459,9048,558
1.54099,428.173,-298,4949,21.8463,9048,558
0.900346,427.07349,-297,4950,21.7965,9048,558
1.6341,417.52119,-296,4951,21.8463,9048,558
1.1472,404.64327,-295,4952,22.0952,9048,558
1.43857,390.00296,-294,4953,21.7467,9066,541
1.38796,370.74959,-293,4954,21.9459,9066,541
1.49704,344.48588,-292,4955,21.9459,9066,541
1.20794,319.39232,-291,4956,21.7965,9066,541
0.560992,301.74764,-290,4957,21.8463,9066,541
2.03209,289.33365,-289,4958,21.9956,9066,541
1.05179,277.59804,-288,4959,21.7467,9066,541
1.17998,268.41097,-287,4960,21.7965,9066,541
1.67161,261.7329,-286,4961,21.7965,9066,541
1.79273,258.88471,-285,4962,21.8463,9066,541
1.78206,261.57415,-284,4963,22.0952,8986,529
0.862477,262.23076,-283,4964,21.7467,8986,529
0.981433,267.74965,-282,4965,22.0952,8986,529
0.683594,276.95002,-281,4966,21.9459,8986,529
0.750112,284.471,-280,4967,21.7467,8986,529
1.52856,285.66889,-279,4968,21.9459,8986,529
0.981433,280.82824,-278,4969,21.9459,8986,529
0.971667,275.1666,-277,4970,21.7467,8986,529
1.37067,268.62462,-276,4971,21.7965,8986,529
1.08306,262.69631,-275,4972,21.7467,8986,529
0.793363,256.30877,-274,4973,21.7467,8923,523
1.01956,246.7574,-273,4974,21.7965,8923,523
0.889691,237.83216,-272,4975,21.7965,8923,523
1.00068,230.17875,-271,4976,21.7467,8923,523
1.60168,221.11749,-270,4977,21.8463,8923,523
2.47631,211.48628,-269,4978,21.8463,8923,523
1.56859,208.05086,-268,4979,21.6472,8923,523
0.793363,209.6565,-267,4980,21.7965,8923,523
0.878906,212.34376,-266,4981,21.8463,8923,523
1.11345,212.30498,-265,4982,21.448,8923,523
1.41517,211.1828,-264,4983,21.6472,8833,517
0.534885,210.79055,-263,4984,21.7467,8833,517
0.85693,211.74443,-262,4985,21.8463,8833,517
1.05179,213.56877,-261,4986,21.5974,8833,517
1.23912,213.09876,-260,4987,21.7965,8833,517
1.67446,209.68276,-259,4988,21.8463,8833,517
2.14399,206.28973,-258,4989,21.7467,8833,517
1.68298,204.67508,-257,4990,21.9459,8833,517
1.47134,203.64409,-256,4991,21.9459,8833,517
1.44188,203.94037,-255,4992,21.6472,8833,517
1.36019,201.84886,-254,4993,21.7467,8890,514
1.67446,199.95885,-253,4994,21.7467,8890,514
1.56859,197.39815,-252,4995,21.7965,8890,514
1.27702,194.84907,-251,4996,21.5974,8890,514
1.73047,193.76512,-250,4997,21.8463,8890,514
1.04725,193.35205,-249,4998,21.7467,8890,514
2.54094,194.794,-248,4999,21.6472,8890,514
1.07865,196.19301,-247,5000,21.7965,8890,514
1.01016,196.78045,-246,5001,21.7965,8890,514
1.81651,195.06832,-245,5002,22.145,8890,514
1.20794,189.61658,-244,5003,21.7965,9000,503
1.09183,180.35888,-243,5004,21.8463,9000,503
1.61945,169.28948,-242,5005,21.7467,9000,503
0.690534,162.89294,-241,5006,21.7965,9000,503
0.905627,159.64048,-240,5007,21.9956,9000,503
1.77938,159.35848,-239,5008,21.8463,9000,503
0.632885,159.1296,-238,5009,21.9459,9000,503
0.931581,157.99709,-237,5010,21.7467,9000,503
0.768946,155.22266,-236,5011,21.9956,9000,503
1.33185,151.67324,-235,5012,21.9459,9000,503
1.48103,149.2287,-234,5013,21.7467,9221,504
0.884315,147.77921,-233,5014,21.7467,9221,504
1.60168,144.92522,-232,5015,21.7467,9221,504
1.13045,141.97454,-231,5016,21.7965,9221,504
0.683594,141.02777,-230,5017,21.8463,9221,504
1.23526,140.61409,-229,5018,21.8463,9221,504
1.47134,138.91205,-228,5019,21.7965,9221,504
2.33764,136.53203,-227,5020,21.7467,9221,504
1.77132,133.51022,-226,5021,21.7467,9221,504
1.42859,130.68424,-225,5022,21.8463,9221,504
0.971667,128.49882,-224,5023,21.7467,9342,491
1.17998,126.72868,-223,5024,21.9956,9342,491
1.42859,124.63379,-222,5025,21.7467,9342,491
0.569429,121.63527,-221,5026,22.145,9342,491
0.78733,119.83488,-220,5027,21.8463,9342,491
0.497951,119.13081,-219,5028,21.9956,9342,491
1.12198,117.67293,-218,5029,21.7467,9342,491
1.41854,114.68504,-217,5030,21.7965,9342,491
1.63702,112.38619,-216,5031,22.0952,9342,491
0.981433,111.46871,-215,5032,21.6472,9342,491
0.862477,110.86249,-214,5033,21.7467,9510,496
1.33185,109.29929,-213,5034,21.8463,9510,496
0.750112,105.84819,-212,5035,21.7965,9510,496
0.59402,103.32089,-211,5036,21.8463,9510,496
0.873464,102.37173,-210,5037,21.8463,9510,496
1.25821,101.80108,-209,5038,21.7467,9510,496
0.966748,100.99708,-208,5039,21.8463,9510,496
1.71664,100.06445,-207,5040,21.9459,9510,496
0.352105,98.320722,-206,5041,21.7965,9510,496
0.497951,97.083127,-205,5042,21.9956,9510,496
1.17998,96.771505,-204,5043,21.7467,9603,493
1.78473,96.652094,-203,5044,21.7467,9603,493
0.98628,96.803759,-202,5045,21.9459,9603,493
0.941763,96.611307,-201,5046,21.7467,9603,493
0.946812,96.305508,-200,5047,21.9459,9603,493
0.905627,96.138567,-199,5048,21.7965,9603,493
0.717624,95.876886,-198,5049,21.6472,9603,493
1.28447,95.629917,-197,5050,21.6472,9603,493
0.41432,95.323471,-196,5051,21.7965,9603,493
3.95478,94.898971,-195,5052,21.7467,9603,493
0.447517,95.331834,-194,5053,21.7467,9683,494
0.625305,95.502604,-193,5054,21.7467,9683,494
1.13045,95.387698,-192,5055,21.7467,9683,494
1.27702,95.542461,-191,5056,21.7965,9683,494
0.961803,95.35895,-190,5057,21.8463,9683,494
2.06237,95.010705,-189,5058,21.7467,9683,494
1.05179,94.769183,-188,5059,21.7965,9683,494
0.683594,94.419158,-187,5060,21.8463,9683,494
1.13045,94.334134,-186,5061,21.7965,9683,494
3.40959,93.557478,-185,5062,22.0952,9683,494
0.525895,93.322894,-184,5063,21.9459,9709,495
0.851347,93.142128,-183,5064,21.7467,9709,495
0.323889,92.512064,-182,5065,21.7965,9709,495
1.56859,91.968214,-181,5066,21.8463,9709,495
1.01956,91.484431,-180,5067,21.7965,9709,495
1.17998,91.410127,-179,5068,21.7965,9709,495
1.19205,91.196001,-178,5069,21.7965,9709,495
1.6165,91.168383,-177,5070,21.8463,9709,495
1.13886,90.786179,-176,5071,21.8463,9709,495
1.74966,89.982382,-175,5072,21.9459,9709,495
1.13045,89.497188,-174,5073,21.6472,9783,498
0.690534,89.013451,-173,5074,21.8463,9783,498
1.88858,88.422564,-172,5075,21.7965,9783,498
1.32467,87.554714,-171,5076,21.8463,9783,498
1.26577,86.72853,-170,5077,21.7467,9783,498
1.22363,85.821854,-169,5078,21.8463,9783,498
1.15135,84.920325,-168,5079,21.7467,9783,498
0.655098,83.620659,-167,5080,21.9459,9783,498
1.66589,82.458654,-166,5081,22.145,9783,498
1.04268,81.795217,-165,5082,21.7467,9783,498
2.02033,81.914364,-164,5083,21.9459,9816,489
1.44188,81.574577,-163,5084,21.8463,9816,489
0.59402,80.703342,-162,5085,22.0952,9816,489
0.878906,80.074868,-161,5086,21.6472,9816,489
1.37415,79.632145,-160,5087,21.9459,9816,489
1.82437,79.052663,-159,5088,21.8463,9816,489
1.15135,78.713016,-158,5089,21.7467,9816,489
1.15135,78.861673,-157,5090,21.7965,9816,489
0.239208,79.012031,-156,5091,21.9956,9816,489
1.3637,79.03777,-155,5092,21.7467,9816,489
0.560992,79.238773,-154,5093,21.6472,9899,496
0.840071,79.061145,-153,5094,21.7965,9899,496
0.683594,78.697113,-152,5095,21.7965,9899,496
0.793363,78.635834,-151,5096,21.7467,9899,496
1.89614,78.920699,-150,5097,21.5974,9899,496
0.750112,80.067052,-149,5098,21.7965,9899,496
0.85693,81.50623,-148,5099,21.8463,9899,496
0.811194,82.753679,-147,5100,21.9956,9899,496
1.09183,83.784531,-146,5101,21.8463,9899,496
1.39822,84.277506,-145,5102,21.6472,9899,496
1.22752,84.540544,-144,5103,21.7467,9903,488
4.78914,84.183568,-143,5104,21.7467,9903,488
0.873464,84.272467,-142,5105,21.8463,9903,488
1.13045,84.594727,-141,5106,21.9956,9903,488
1.20794,84.571912,-140,5107,21.9459,9903,488
0.971667,84.460043,-139,5108,21.9459,9903,488
1.04268,84.302698,-138,5109,21.7965,9903,488
0.85693,84.387323,-137,5110,21.7965,9903,488
1.89614,84.714774,-136,5111,21.8463,9903,488
1.23912,85.108486,-135,5112,21.9459,9903,488
2.03209,85.602628,-134,5113,21.9459,9903,488
0.811194,86.062081,-133,5114,21.7965,9903,488
1.17594,87.488058,-132,5115,21.7467,9903,488
1.52856,89.761282,-131,5116,21.7965,9903,488
0.811194,91.917729,-130,5117,21.7965,9903,488
0.981433,93.748569,-129,5118,21.9459,9903,488
1.56859,95.271558,-128,5119,21.7965,9903,488
1.32827,96.647469,-127,5120,21.9956,9903,488
1.68298,97.791426,-126,5121,21.7467,9903,488
0.976563,98.78483,-125,5122,21.7965,9903,488
1.27328,100.29776,-124,5123,22.0952,9945,501
1.19205,103.52153,-123,5124,21.9459,9945,501
1.23912,101.62044,-122,5125,21.7965,9945,501
1.43525,98.463536,-121,5126,21.9459,9945,501
1.63702,97.863626,-120,5127,21.8463,9945,501
0.916097,97.711929,-119,5128,21.9459,9945,501
0.478416,97.554955,-118,5129,21.8463,9945,501
1.11773,95.705616,-117,5130,21.9459,9945,501
0.921287,93.504584,-116,5131,21.7965,9945,501
0.577742,92.853231,-115,5132,21.7467,9945,501
1.13886,90.752115,-114,5133,21.9459,10036,461
1.13045,88.854108,-113,5134,21.6472,10036,461
2.18366,87.892405,-112,5135,21.7965,10036,461
1.02423,86.956657,-111,5136,21.8463,10036,461
0.525895,86.136501,-110,5137,21.8463,10036,461
1.3637,84.90497,-109,5138,21.7467,10036,461
1.7767,84.099978,-108,5139,21.7965,10036,461
1.17594,83.186238,-107,5140,21.7965,10036,461
1.47134,82.057131,-106,5141,21.6472,10036,461
1.25061,81.017727,-105,5142,21.7467,10036,461
1.09183,79.951675,-104,5143,21.7965,10116,497
1.42525,79.468148,-103,5144,21.7467,10116,497
1.38107,78.443545,-102,5145,21.8463,10116,497
2.22047,76.161115,-101,5146,21.7467,10116,497
1.3102,75.428984,-100,5147,21.9459,10116,497
1.1596,75.683003,-99,5148,21.7965,10116,497
2.17929,75.421773,-98,5149,21.8463,10116,497
0.76272,74.71481,-97,5150,21.7467,10116,497
0.845728,74.243842,-96,5151,21.7467,10116,497
0.85693,74.091451,-95,5152,21.9459,10116,497
1.06977,74.270732,-94,5153,22.145,10064,473
0.690534,74.437472,-93,5154,21.8463,10064,473
1.17594,74.585361,-92,5155,21.8463,10064,473
1.28447,75.009699,-91,5156,21.8463,10064,473
1.86316,75.58755,-90,5157,21.7467,10064,473
2.30063,75.34557,-89,5158,21.9956,10064,473
0.730792,75.761324,-88,5159,21.8463,10064,473
0.845728,76.127847,-87,5160,21.7965,10064,473
0.662337,75.882779,-86,5161,21.7965,10064,473
1.3029,75.136335,-85,5162,21.6472,10064,473
0.926449,74.284274,-84,5163,21.9459,10018,502
0.981433,73.798546,-83,5164,21.9459,10018,502
1.4118,73.769464,-82,5165,21.7965,10018,502
1.0381,73.943179,-81,5166,21.9459,10018,502
0.811194,73.622264,-80,5167,21.7467,10018,502
1.20399,73.629044,-79,5168,21.8463,10018,502
1.74966,73.591392,-78,5169,21.8463,10018,502
0.710948,73.498291,-77,5170,21.7965,10018,502
1.23912,74.300119,-76,5171,21.9956,10018,502
0.811194,75.624603,-75,5172,21.9459,10018,502
0.704209,76.596957,-74,5173,21.9459,9929,488
1.59273,77.298369,-73,5174,21.7467,9929,488
0.895034,78.421317,-72,5175,21.7467,9929,488
0.811194,79.854607,-71,5176,21.9459,9929,488
1.41854,80.696048,-70,5177,21.7965,9929,488
2.15287,81.630911,-69,5178,21.9956,9929,488
1.06977,82.820277,-68,5179,22.145,9929,488
1.33185,83.864615,-67,5180,21.6472,9929,488
0.768946,85.202805,-66,5181,21.8463,9929,488
0.900346,86.684878,-65,5182,21.7965,9929,488
0.946812,88.382784,-64,5183,21.8463,9842,508
0.710948,90.500463,-63,5184,22.0952,9842,508
1.32827,92.674202,-62,5185,21.8463,9842,508
0.900346,95.115414,-61,5186,21.9459,9842,508
1.32827,97.866062,-60,5187,21.9459,9842,508
1.88099,100.82483,-59,5188,21.9956,9842,508
0.402647,102.78183,-58,5189,21.8463,9842,508
0.402647,105.16108,-57,5190,21.7965,9842,508
0.900346,108.93303,-56,5191,21.8463,9842,508
0.737289,112.06301,-55,5192,21.7467,9842,508
0.793363,114.54372,-54,5193,21.8463,9590,501
1.55638,116.78008,-53,5194,21.7965,9590,501
0.78733,119.21833,-52,5195,21.7467,9590,501
1.31383,121.21662,-51,5196,21.8463,9590,501
1.01956,123.23523,-50,5197,21.7965,9590,501
2.55777,125.15928,-49,5198,21.7965,9590,501
1.40163,126.92718,-48,5199,21.7965,9590,501
1.96529,129.167,-47,5200,21.9956,9590,501
1.10916,130.83438,-46,5201,21.7965,9590,501
1.83739,132.40263,-45,5202,21.7965,9590,501
0.683594,134.59064,-44,5203,21.9459,9209,518
1.54408,137.02739,-43,5204,21.7965,9209,518
1.65152,139.15919,-42,5205,21.9459,9209,518
1.30655,140.80005,-41,5206,21.7467,9209,518
1.94824,141.70444,-40,5207,21.9956,9209,518
1.56859,142.39119,-39,5208,21.7965,9209,518
2.48016,143.40311,-38,5209,21.9459,9209,518
1.57163,145.67838,-37,5210,21.9459,9209,518
1.51603,147.50464,-36,5211,21.8463,9209,518
1.58973,148.82073,-35,5212,21.7965,9209,518
0.956832,150.62339,-34,5213,21.8463,8632,501
1.23912,152.38512,-33,5214,21.9956,8632,501
0.76272,154.13082,-32,5215,21.8463,8632,501
1.36019,156.33204,-31,5216,21.8463,8632,501
1.86572,160.48997,-30,5217,21.9459,8632,501
1.32827,163.0466,-29,5218,21.9459,8632,501
1.21188,162.47485,-28,5219,21.7467,8632,501
0.743728,164.15802,-27,5220,21.7467,8632,501
1.38107,170.04872,-26,5221,21.8463,8632,501
0.717624,181.85482,-25,5222,21.7467,8632,501
0.730792,213.11397,-24,5223,21.7467,8052,533
7.2226,525.16439,-23,5224,21.8463,8052,533
5.19509,964.78506,-22,5225,21.7467,8052,533
2.95239,1222.1695,-21,5226,21.8463,8052,533
1.01956,1325.9651,-20,5227,21.7965,8052,533
0.577742,1403.1438,-19,5228,21.7965,8052,533
1.0381,1462.9198,-18,5229,21.7965,8052,533
4.24103,1417.6966,-17,5230,21.7965,8052,533
1.69708,1285.7513,-16,5231,21.7467,8052,533
2.67264,1089.0214,-15,5232,21.9956,8052,533
3.75945,827.89861,-14,5233,21.9459,7145,552
3.93907,524.6722,-13,5234,21.8463,7145,552
4.06654,238.22724,-12,5235,21.5974,7145,552
3.26966,138.16165,-11,5236,21.7467,7145,552
3.36312,277.34821,-10,5237,21.7965,7145,552
1.63702,378.76081,-9,5238,21.7467,7145,552
2.71161,410.27647,-8,5239,21.8463,7145,552
2.37005,381.48146,-7,5240,21.7467,7145,552
3.00838,324.42087,-6,5241,21.8463,7145,552
2.0156,287.17912,-5,5242,21.9459,7145,552
1.66303,311.00521,-4,5243,21.7467,6432,565
1.1596,382.05623,-3,5244,21.7965,6432,565
1.01016,444.03631,-2,5245,21.8463,6432,565
0.59402,463.31229,-1,5246,21.7467,6432,565
18.8251,545.39379,0,5247,21.9956,6432,565
9.08203,701.13568,1,5248,21.7965,6432,565
2.97651,483.70862,2,5249,21.7467,6432,565
1.57769,204.03325,3,5250,21.8463,6432,565
0.926449,173.55716,4,5251,21.9956,6432,565
2.84714,289.1084,5,5252,21.7467,6432,565
2.79304,338.40147,6,5253,21.8463,6464,559
1.64863,236.45413,7,5254,21.9459,6464,559
2.12613,99.543232,8,5255,21.7965,6464,559
1.97498,117.10736,9,5256,21.9459,6464,559
2.60945,98.365724,10,5257,21.8463,6464,559
1.94088,127.07097,11,5258,21.8463,6464,559
1.45176,169.2952,12,5259,21.9956,6464,559
0.717624,168.28543,13,5260,21.9956,6464,559
0.78733,159.3329,14,5261,21.7467,6464,559
1.60466,154.90304,15,5262,21.8463,6464,559
1.10916,142.2844,16,5263,21.8463,6298,557
0.921287,139.3943,17,5264,21.8463,6298,557
0.402647,153.21468,18,5265,21.7467,6298,557
1.87592,162.28122,19,5266,21.9459,6298,557
1.36719,158.35653,20,5267,21.8463,6298,557
1.17998,150.93331,21,5268,21.9459,6298,557
1.70549,146.2574,22,5269,21.8463,6298,557
1.10916,142.80296,23,5270,21.8463,6298,557
1.10916,140.48835,24,5271,21.8463,6298,557
1.90867,142.01615,25,5272,21.7467,6298,557
1.07865,144.31102,26,5273,21.7467,6248,557
0.805294,142.7774,27,5274,21.8463,6248,557
1.3029,137.50715,28,5275,21.7965,6248,557
0.525895,131.78653,29,5276,21.6472,6248,557
0.402647,127.07361,30,5277,22.145,6248,557
1.68014,123.90684,31,5278,21.8463,6248,557
0.737289,120.61443,32,5279,21.6472,6248,557
1.60466,116.22126,33,5280,21.7467,6248,557
0.966748,113.00817,34,5281,21.5974,6248,557
4.63636,112.82322,35,5282,21.7467,6248,557
1.25821,113.56201,36,5283,21.8463,6247,551
0.730792,113.4338,37,5284,21.7467,6247,551
0.704209,113.58129,38,5285,21.7467,6247,551
0.717624,114.2132,39,5286,22.0952,6247,551
1.10916,113.9604,40,5287,21.9459,6247,551
1.02423,115.31691,41,5288,21.8463,6247,551
0.905627,118.09601,42,5289,21.7965,6247,551
0.840071,120.35495,43,5290,21.8463,6247,551
0.76272,122.48155,44,5291,21.9459,6247,551
1.44188,124.21151,45,5292,21.7965,6247,551
1.47134,126.34702,46,5293,21.8463,6184,555
0.497951,128.86954,47,5294,21.7965,6184,555
0.793363,130.92614,48,5295,21.8463,6184,555
0.884315,133.94535,49,5296,21.7467,6184,555
1.11773,136.56013,50,5297,21.7965,6184,555
0.840071,138.79395,51,5298,21.8463,6184,555
1.00543,141.94263,52,5299,21.8463,6184,555
0.690534,144.78445,53,5300,21.9459,6184,555
0.840071,147.32203,54,5301,21.8463,6184,555
0.585938,150.70172,55,5302,21.7467,6184,555
0.690534,152.53212,56,5303,21.7965,6151,555
2.17929,153.52394,57,5304,21.7965,6151,555
0.750112,155.47422,58,5305,21.7965,6151,555
1.07865,157.99256,59,5306,21.7965,6151,555
1.55638,160.93669,60,5307,21.9956,6151,555
0.926449,163.7655,61,5308,21.9459,6151,555
0.425674,165.76312,62,5309,21.9956,6151,555
1.57769,166.21432,63,5310,21.8463,6151,555
0.981433,166.74885,64,5311,21.7965,6151,555
1.01016,167.68214,65,5312,21.7965,6151,555
0.497951,170.21443,66,5313,21.9459,6133,556
0.690534,172.18674,67,5314,21.7467,6133,556
1.31745,174.05313,68,5315,21.7965,6133,556
0.941763,176.0121,69,5316,21.7965,6133,556
0.710948,177.0817,70,5317,21.9459,6133,556
1.11345,179.80679,71,5318,21.9459,6133,556
1.12623,183.75722,72,5319,21.8463,6133,556
0.811194,186.94294,73,5320,21.6472,6133,556
0.704209,187.98503,74,5321,21.7467,6133,556
0.946812,188.75761,75,5322,21.7467,6133,556
0.218366,189.63386,76,5323,21.8463,6133,556
2.48976,189.88648,77,5324,21.7965,6133,556
0.966748,188.72453,78,5325,21.7965,6133,556
0.625305,186.82665,79,5326,21.8463,6133,556
1.0381,183.67591,80,5327,21.8463,6133,556
0.625305,179.11089,81,5328,21.7965,6133,556
0.617632,174.06139,82,5329,21.8463,6133,556
0.655098,170.01941,83,5330,21.9956,6133,556
0.895034,167.09486,84,5331,21.8463,6133,556
1.36019,164.74636,85,5332,21.9459,6133,556
0.683594,162.37173,86,5333,21.7467,6167,556
0.961803,159.13784,87,5334,21.9956,6167,556
2.15951,155.44953,88,5335,21.7467,6167,556
1.12198,151.11999,89,5336,21.7965,6167,556
0.946812,147.49706,90,5337,21.7467,6167,556
1.87592,146.56965,91,5338,21.9459,6167,556
1.21581,145.0241,92,5339,22.0952,6167,556
0.956832,143.72472,93,5340,22.0952,6167,556
0.41432,143.15647,94,5341,21.9459,6167,556
1.19205,141.51614,95,5342,21.8463,6167,556
0.617632,137.95787,96,5343,21.8463,6231,552
0.926449,134.11867,97,5344,21.9956,6231,552
0.840071,131.99244,98,5345,21.6472,6231,552
1.36019,130.54311,99,5346,21.8463,6231,552
0.534885,127.94885,100,5347,21.7965,6231,552
