Linear acceleration,Rotational velocity,Time values,Absolute time values,Temperature,Ambient light,Reflected light
1.40163,57.924904,-2000,83587,23.5887,4256,5939
0.931581,57.759513,-1999,83588,23.5887,4256,5939
1.61945,57.398624,-1998,83589,23.4891,4256,5939
1.48103,56.46923,-1997,83590,23.6385,4256,5939
2.24397,55.309707,-1996,83591,23.5887,4256,5939
0.793363,54.86609,-1995,83592,23.4393,4256,5939
0.717624,54.097949,-1994,83593,23.6385,4256,5980
1.11773,52.849679,-1993,83594,23.4891,4256,5980
2.65833,51.169015,-1992,83595,23.4891,4256,5980
1.47458,49.738972,-1991,83596,23.5887,4256,5980
1.60466,47.971769,-1990,83597,23.4891,4256,5980
1.06977,45.855725,-1989,83598,23.3895,4256,5980
0.905627,43.84228,-1988,83599,23.4891,4256,5980
1.49704,42.295205,-1987,83600,23.5887,4256,5980
0.655098,40.800347,-1986,83601,23.4891,4256,5980
2.24397,38.988042,-1985,83602,23.4891,4256,5980
2.19672,37.170761,-1984,83603,23.3895,4251,6015
1.6165,35.371545,-1983,83604,23.6385,4251,6015
1.37415,33.651356,-1982,83605,23.4891,4251,6015
1.01016,31.727951,-1981,83606,23.4891,4251,6015
1.47458,29.842634,-1980,83607,23.4891,4251,6015
1.09619,28.383907,-1979,83608,23.4891,4251,6015
1.76323,26.617767,-1978,83609,23.4891,4251,6015
1.25061,24.969571,-1977,83610,23.3895,4251,6015
1.08306,23.622735,-1976,83611,23.3895,4251,6015
2.33151,22.480169,-1975,83612,23.4891,4251,6015
2.38409,21.108636,-1974,83613,23.6385,4254,6026
1.44518,20.038875,-1973,83614,23.2402,4254,6026
1.21581,19.296764,-1972,83615,23.5887,4254,6026
1.95556,18.635224,-1971,83616,23.4891,4254,6026
2.50313,17.819339,-1970,83617,23.7878,4254,6026
2.45698,17.092023,-1969,83618,23.6385,4254,6026
0.889691,16.049345,-1968,83619,23.4891,4254,6026
1.73047,15.148527,-1967,83620,23.6385,4254,6026
1.53789,14.65454,-1966,83621,23.7878,4254,6026
1.39822,14.22787,-1965,83622,23.6385,4254,6026
1.80334,14.503782,-1964,83623,23.6385,4244,6011
1.24296,15.473586,-1963,83624,23.4891,4244,6011
1.9798,16.670533,-1962,83625,23.5887,4244,6011
1.23912,18.10513,-1961,83626,23.4891,4244,6011
1.11345,19.894465,-1960,83627,23.4393,4244,6011
0.834375,21.899292,-1959,83628,23.738,4244,6011
1.97498,23.986739,-1958,83629,23.3895,4244,6011
1.9918,25.558212,-1957,83630,23.5887,4244,6011
1.94333,26.885138,-1956,83631,23.4891,4244,6011
1.5807,28.113829,-1955,83632,23.4891,4244,6011
2.52021,29.655299,-1954,83633,23.738,4256,5990
1.63702,30.929351,-1953,83634,23.4891,4256,5990
1.63993,32.159446,-1952,83635,23.3895,4256,5990
1.10916,33.498238,-1951,83636,23.7878,4256,5990
1.61355,35.111505,-1950,83637,23.6385,4256,5990
1.56555,37.111182,-1949,83638,23.5887,4256,5990
1.25061,39.302281,-1948,83639,23.6385,4256,5990
0.625305,41.365989,-1947,83640,23.4393,4256,5990
1.04268,43.007227,-1946,83641,23.7878,4256,5990
0.98628,44.785001,-1945,83642,23.4891,4256,5990
4.02884,46.607526,-1944,83643,23.4891,4244,5978
1.43525,47.765226,-1943,83644,23.3895,4244,5978
1.30655,49.05298,-1942,83645,23.4891,4244,5978
2.17052,50.58397,-1941,83646,23.5887,4244,5978
1.28447,52.540883,-1940,83647,23.5887,4244,5978
1.68298,54.255963,-1939,83648,23.6385,4244,5978
1.5034,56.426201,-1938,83649,23.6385,4244,5978
2.28816,59.367476,-1937,83650,23.4393,4244,5978
1.87592,62.105603,-1936,83651,23.4393,4244,5978
2.02269,64.410687,-1935,83652,23.4393,4244,5978
1.28447,66.973118,-1934,83653,23.6385,4255,6005
2.20539,69.363226,-1933,83654,23.6385,4255,6005
2.2819,71.533307,-1932,83655,23.7878,4255,6005
1.96287,73.041922,-1931,83656,23.6385,4255,6005
1.8529,74.327189,-1930,83657,23.6385,4255,6005
1.66016,75.603319,-1929,83658,23.7878,4255,6005
1.67161,76.659962,-1928,83659,23.4891,4255,6005
1.63993,77.377847,-1927,83660,23.6385,4255,6005
0.632885,78.038549,-1926,83661,23.6385,4255,6005
1.1596,78.602381,-1925,83662,23.5887,4255,6005
1.07865,79.216861,-1924,83663,23.4393,4248,6054
1.09619,80.01297,-1923,83664,23.6385,4248,6054
1.57769,80.53061,-1922,83665,23.4891,4248,6054
1.41517,80.98857,-1921,83666,23.6385,4248,6054
1.88099,81.133517,-1920,83667,23.738,4248,6054
1.01016,81.03906,-1919,83668,23.738,4248,6054
1.88099,81.219976,-1918,83669,23.29,4248,6054
1.49385,81.154911,-1917,83670,23.5887,4248,6054
1.01956,81.00991,-1916,83671,23.3895,4248,6054
1.59273,80.763235,-1915,83672,23.6385,4248,6054
1.45176,80.538381,-1914,83673,23.738,4248,6054
1.61059,80.587211,-1913,83674,23.5887,4248,6054
1.9335,80.296753,-1912,83675,23.738,4248,6054
1.55638,79.725746,-1911,83676,23.4891,4248,6054
1.74966,79.242534,-1910,83677,23.6385,4248,6054
1.35668,78.349839,-1909,83678,23.6385,4248,6054
2.39805,77.245145,-1908,83679,23.4891,4248,6054
1.75238,76.389296,-1907,83680,23.7878,4248,6054
1.15548,75.732505,-1906,83681,23.6385,4248,6054
1.09183,74.819742,-1905,83682,23.4393,4248,6054
1.36019,73.70783,-1904,83683,23.5887,4248,6127
0.921287,72.477391,-1903,83684,23.3895,4248,6127
1.45505,70.526328,-1902,83685,23.7878,4248,6127
2.04845,69.363548,-1901,83686,23.3895,4248,6127
1.31745,68.486341,-1900,83687,23.6385,4248,6127
1.10916,66.859215,-1899,83688,23.4891,4248,6127
2.21832,65.010779,-1898,83689,23.5887,4248,6127
1.47458,63.120386,-1897,83690,23.6385,4248,6127
1.67161,61.494972,-1896,83691,23.6385,4248,6127
1.46484,59.80374,-1895,83692,23.6385,4248,6127
1.94088,58.488115,-1894,83693,23.4891,4243,6208
1.91864,57.323418,-1893,83694,23.6385,4243,6208
3.48566,55.888876,-1892,83695,23.6385,4243,6208
2.27352,54.629295,-1891,83696,23.4393,4243,6208
1.68298,53.453278,-1890,83697,23.6385,4243,6208
1.8529,52.211001,-1889,83698,23.6385,4243,6208
2.38609,50.90815,-1888,83699,23.6385,4243,6208
0.976563,49.640009,-1887,83700,23.6385,4243,6208
1.02423,48.254226,-1886,83701,23.4891,4243,6208
1.09183,46.949645,-1885,83702,23.5887,4243,6208
1.09183,45.861737,-1884,83703,23.4891,4251,6277
1.41517,45.0666,-1883,83704,23.5887,4251,6277
0.811194,44.414474,-1882,83705,23.5887,4251,6277
3.54265,43.584572,-1881,83706,23.6385,4251,6277
1.54099,43.108799,-1880,83707,23.6385,4251,6277
1.20794,42.601665,-1879,83708,23.4393,4251,6277
1.88606,42.378094,-1878,83709,23.5887,4251,6277
1.00068,42.469418,-1877,83710,23.6385,4251,6277
1.33185,42.748319,-1876,83711,23.4393,4251,6277
1.73872,42.910623,-1875,83712,23.738,4251,6277
2.55031,42.910623,-1874,83713,23.4393,4249,6319
0.878906,43.549685,-1873,83714,23.4393,4249,6319
1.31383,44.284949,-1872,83715,23.4891,4249,6319
3.986,44.778679,-1871,83716,23.6385,4249,6319
1.07422,45.46099,-1870,83717,23.3895,4249,6319
0.976563,46.592657,-1869,83718,23.6385,4249,6319
1.01016,47.469031,-1868,83719,23.7878,4249,6319
1.39139,48.535807,-1867,83720,23.6385,4249,6319
2.15066,49.410136,-1866,83721,23.4891,4249,6319
1.87846,50.731635,-1865,83722,23.6385,4249,6319
1.04725,51.889504,-1864,83723,23.4393,4251,6345
1.87846,52.962481,-1863,83724,23.4891,4251,6345
1.4118,53.892902,-1862,83725,23.4393,4251,6345
1.71664,55.122012,-1861,83726,23.3895,4251,6345
2.50503,57.199549,-1860,83727,23.5887,4251,6345
1.65152,58.468621,-1859,83728,23.6385,4251,6345
1.3637,59.373499,-1858,83729,23.6385,4251,6345
1.60168,60.50613,-1857,83730,23.4393,4251,6345
1.71942,62.022411,-1856,83731,23.6385,4251,6345
1.36719,63.514698,-1855,83732,23.4891,4251,6345
2.0785,64.913981,-1854,83733,23.3895,4251,6339
1.08306,66.171793,-1853,83734,23.738,4251,6339
1.74146,67.216973,-1852,83735,23.738,4251,6339
1.45176,68.354252,-1851,83736,23.4393,4251,6339
1.31745,69.371819,-1850,83737,23.4891,4251,6339
2.0156,70.635161,-1849,83738,23.5887,4251,6339
1.50022,72.19022,-1848,83739,23.7878,4251,6339
0.840071,73.508934,-1847,83740,23.5887,4251,6339
2.18802,74.42576,-1846,83741,23.4393,4251,6339
2.31303,75.370288,-1845,83742,23.738,4251,6339
2.27981,76.499333,-1844,83743,23.6385,4249,6323
1.68298,77.632976,-1843,83744,23.5887,4249,6323
2.01324,78.700142,-1842,83745,23.4393,4249,6323
1.958,79.502268,-1841,83746,23.4891,4249,6323
1.45505,79.936391,-1840,83747,23.6385,4249,6323
2.13508,80.49961,-1839,83748,23.4891,4249,6323
2.12837,81.317705,-1838,83749,23.4891,4249,6323
2.28816,82.082278,-1837,83750,23.5887,4249,6323
1.67161,82.231731,-1836,83751,23.6385,4249,6323
1.10916,82.578018,-1835,83752,23.7878,4249,6323
1.96287,82.740983,-1834,83753,23.6385,4250,6278
2.36602,83.030249,-1833,83754,23.6385,4250,6278
1.94333,83.059317,-1832,83755,23.4891,4250,6278
2.15287,83.201821,-1831,83756,23.6385,4250,6278
1.89614,83.039581,-1830,83757,23.5887,4250,6278
1.59572,83.339701,-1829,83758,23.5887,4250,6278
1.71664,83.034646,-1828,83759,23.4393,4250,6278
2.38809,82.268961,-1827,83760,23.4891,4250,6278
1.1596,81.619318,-1826,83761,23.4891,4250,6278
2.47439,81.165101,-1825,83762,23.3895,4250,6278
2.22047,80.724942,-1824,83763,23.4891,4240,6223
1.63702,79.936857,-1823,83764,23.4393,4240,6223
1.51917,79.342417,-1822,83765,23.6385,4240,6223
1.54717,78.415711,-1821,83766,23.6385,4240,6223
1.95556,77.604659,-1820,83767,23.6385,4240,6223
1.958,76.611449,-1819,83768,23.5887,4240,6223
1.63702,75.293242,-1818,83769,23.6385,4240,6223
0.704209,74.425159,-1817,83770,23.6385,4240,6223
2.22262,73.163308,-1816,83771,23.4393,4240,6223
2.12613,71.936709,-1815,83772,23.3895,4240,6223
1.31383,70.613113,-1814,83773,23.4891,4250,6171
1.32827,69.610803,-1813,83774,23.6385,4250,6171
1.90617,68.389668,-1812,83775,23.7878,4250,6171
2.06237,67.074832,-1811,83776,23.4891,4250,6171
1.32827,65.402353,-1810,83777,23.6385,4250,6171
1.34255,64.160811,-1809,83778,23.4891,4250,6171
3.30448,62.652164,-1808,83779,23.4393,4250,6171
1.89865,61.127494,-1807,83780,23.6385,4250,6171
1.81651,59.597072,-1806,83781,23.5887,4250,6171
1.86827,57.745709,-1805,83782,23.4891,4250,6171
2.33151,55.582891,-1804,83783,23.6385,4245,6124
2.22262,53.566061,-1803,83784,23.4891,4245,6124
1.63702,51.783861,-1802,83785,23.6385,4245,6124
1.47781,49.772664,-1801,83786,23.5887,4245,6124
1.40163,47.672169,-1800,83787,23.738,4245,6124
2.09222,45.633566,-1799,83788,23.3895,4245,6124
1.86827,44.034232,-1798,83789,23.6385,4245,6124
3.76832,42.573498,-1797,83790,23.6385,4245,6124
2.14399,40.679645,-1796,83791,23.6385,4245,6124
2.03678,38.993966,-1795,83792,23.4393,4245,6124
2.19238,37.632121,-1794,83793,23.3895,4251,6096
1.20794,35.926436,-1793,83794,23.6385,4251,6096
1.92856,34.704485,-1792,83795,23.4393,4251,6096
2.12613,33.591523,-1791,83796,23.7878,4251,6096
1.53168,32.824659,-1790,83797,23.6385,4251,6096
2.00136,32.238351,-1789,83798,23.4393,4251,6096
0.995902,31.800429,-1788,83799,23.4393,4251,6096
3.55876,31.650363,-1787,83800,23.5887,4251,6096
2.40203,31.635529,-1786,83801,23.6385,4251,6096
1.42525,32.145311,-1785,83802,23.4891,4251,6096
1.57163,33.070242,-1784,83803,23.6385,4247,6091
1.97498,34.553231,-1783,83804,23.5887,4247,6091
1.53168,35.971203,-1782,83805,23.4891,4247,6091
1.36019,37.356308,-1781,83806,23.6385,4247,6091
1.92608,38.669324,-1780,83807,23.6385,4247,6091
2.15287,40.176899,-1779,83808,23.4393,4247,6091
2.01087,41.186929,-1778,83809,23.6385,4247,6091
1.71942,42.135659,-1777,83810,23.6385,4247,6091
2.15066,42.544612,-1776,83811,23.29,4247,6091
1.43857,42.013119,-1775,83812,23.6385,4247,6091
1.00068,41.875633,-1774,83813,23.4393,4252,6107
2.09222,42.268245,-1773,83814,23.6385,4252,6107
1.65152,42.775848,-1772,83815,23.3895,4252,6107
2.30684,43.056572,-1771,83816,23.6385,4252,6107
1.50657,43.326192,-1770,83817,23.3895,4252,6107
2.30063,43.764207,-1769,83818,23.4393,4252,6107
1.55638,44.392829,-1768,83819,23.3895,4252,6107
2.03444,44.679235,-1767,83820,23.3895,4252,6107
1.45176,44.888857,-1766,83821,23.6385,4252,6107
1.74966,45.552022,-1765,83822,23.5887,4252,6107
1.17998,46.099446,-1764,83823,23.5887,4240,6138
1.22752,46.436323,-1763,83824,23.6385,4240,6138
1.87592,46.976298,-1762,83825,23.3895,4240,6138
1.39822,47.578304,-1761,83826,23.4393,4240,6138
1.41517,48.350169,-1760,83827,23.4393,4240,6138
1.02423,49.204785,-1759,83828,23.6385,4240,6138
1.25442,49.953314,-1758,83829,23.6385,4240,6138
1.09619,50.558924,-1757,83830,23.5887,4240,6138
1.44188,50.861882,-1756,83831,23.4891,4240,6138
1.95556,51.147315,-1755,83832,23.3895,4240,6138
1.33185,52.371579,-1754,83833,23.6385,4251,6161
1.52231,53.475297,-1753,83834,23.4891,4251,6161
1.33185,54.470996,-1752,83835,23.4393,4251,6161
1.54717,55.273729,-1751,83836,23.6385,4251,6161
1.09619,55.650944,-1750,83837,23.6385,4251,6161
1.78206,56.792221,-1749,83838,23.5887,4251,6161
1.38796,57.989951,-1748,83839,23.4891,4251,6161
2.51832,58.866502,-1747,83840,23.738,4251,6161
1.25821,59.582443,-1746,83841,23.4393,4251,6161
2.26512,60.796653,-1745,83842,23.4393,4251,6161
1.41517,61.648892,-1744,83843,23.4393,4244,6182
1.44188,62.484024,-1743,83844,23.4891,4244,6182
1.21188,62.990647,-1742,83845,23.3895,4244,6182
1.77401,63.186924,-1741,83846,23.4393,4244,6182
1.39139,63.347083,-1740,83847,23.6385,4244,6182
1.97256,63.483487,-1739,83848,23.3895,4244,6182
1.74966,63.295193,-1738,83849,23.7878,4244,6182
2.53718,62.863604,-1737,83850,23.5887,4244,6182
1.69708,62.445378,-1736,83851,23.5887,4244,6182
1.87846,62.841081,-1735,83852,23.6385,4244,6182
0.926449,62.900334,-1734,83853,23.4891,4252,6203
0.946812,62.04319,-1733,83854,23.738,4252,6203
2.11714,61.323902,-1732,83855,23.3895,4252,6203
1.73323,60.889475,-1731,83856,23.3895,4252,6203
2.04146,60.501204,-1730,83857,23.6385,4252,6203
0.946812,59.582818,-1729,83858,23.738,4252,6203
1.53789,58.5982,-1728,83859,23.3895,4252,6203
1.57769,58.492318,-1727,83860,23.6385,4252,6203
1.68863,58.505309,-1726,83861,23.6385,4252,6203
0.966748,57.569063,-1725,83862,23.3895,4252,6203
2.91173,55.757411,-1724,83863,23.4891,4254,6224
2.0739,55.895675,-1723,83864,23.3895,4254,6224
0.577742,56.518818,-1722,83865,23.738,4254,6224
1.17998,56.31703,-1721,83866,23.4393,4254,6224
2.0739,54.669377,-1720,83867,23.6385,4254,6224
2.0785,53.576492,-1719,83868,23.5887,4254,6224
1.96044,53.413539,-1718,83869,23.4393,4254,6224
1.77132,53.508864,-1717,83870,23.4891,4254,6224
1.51917,53.119104,-1716,83871,23.6385,4254,6224
2.98771,52.172172,-1715,83872,23.3895,4254,6224
1.71664,52.638497,-1714,83873,23.738,4250,6254
2.08537,53.653201,-1713,83874,23.4393,4250,6254
2.09222,53.927177,-1712,83875,23.3895,4250,6254
1.05631,53.205575,-1711,83876,23.5887,4250,6254
2.0156,53.138316,-1710,83877,23.738,4250,6254
1.52856,54.038557,-1709,83878,23.3895,4250,6254
1.8606,54.710111,-1708,83879,23.4891,4250,6254
2.21617,55.180642,-1707,83880,23.6385,4250,6254
1.71942,55.719315,-1706,83881,23.4393,4250,6254
1.79539,56.7518,-1705,83882,23.4891,4250,6254
1.67161,57.676253,-1704,83883,23.4393,4253,6296
2.87547,58.734597,-1703,83884,23.4891,4253,6296
1.98701,59.252407,-1702,83885,23.4393,4253,6296
1.54717,60.536784,-1701,83886,23.4393,4253,6296
1.87846,61.578877,-1700,83887,23.29,4253,6296
2.33151,62.093006,-1699,83888,23.6385,4253,6296
1.8606,62.150455,-1698,83889,23.3895,4253,6296
1.09183,62.152373,-1697,83890,23.4891,4253,6296
1.80334,61.774574,-1696,83891,23.4891,4253,6296
0.981433,61.170991,-1695,83892,23.5887,4253,6296
1.39139,60.810622,-1694,83893,23.4393,4244,6296
2.27981,60.237216,-1693,83894,23.7878,4244,6296
1.40163,60.250572,-1692,83895,23.6385,4244,6296
2.32946,60.651381,-1691,83896,23.4393,4244,6296
2.12164,60.783907,-1690,83897,23.4891,4244,6296
1.60466,60.680365,-1689,83898,23.5887,4244,6296
2.64575,60.433559,-1688,83899,23.3895,4244,6296
1.9798,59.778444,-1687,83900,23.4393,4244,6296
1.82437,58.702749,-1686,83901,23.6385,4244,6296
1.62826,57.600245,-1685,83902,23.4891,4244,6296
2.22047,56.615363,-1684,83903,23.5887,4244,6325
1.88099,55.370023,-1683,83904,23.4393,4244,6325
2.67264,54.083073,-1682,83905,23.5887,4244,6325
2.19672,53.298896,-1681,83906,23.6385,4244,6325
1.92361,52.662695,-1680,83907,23.4891,4244,6325
1.73047,52.018141,-1679,83908,23.6385,4244,6325
1.46484,52.050071,-1678,83909,23.3895,4244,6325
1.6165,52.269191,-1677,83910,23.4891,4244,6325
1.3637,52.323756,-1676,83911,23.4393,4244,6325
0.768946,52.083413,-1675,83912,23.7878,4244,6325
1.87846,51.780408,-1674,83913,23.4891,4251,6379
1.51603,51.687949,-1673,83914,23.6385,4251,6379
2.47246,51.268078,-1672,83915,23.738,4251,6379
1.49385,50.3766,-1671,83916,23.3895,4251,6379
1.34255,49.38706,-1670,83917,23.6385,4251,6379
1.97498,48.076025,-1669,83918,23.6385,4251,6379
1.50657,46.866893,-1668,83919,23.6385,4251,6379
1.40163,45.847276,-1667,83920,23.6385,4251,6379
1.78206,44.717906,-1666,83921,23.4393,4251,6379
1.73323,43.602518,-1665,83922,23.4891,4251,6379
1.45176,42.852765,-1664,83923,23.4393,4242,6412
1.52231,42.49064,-1663,83924,23.3895,4242,6412
2.00374,41.673918,-1662,83925,23.3895,4242,6412
1.4118,40.816414,-1661,83926,23.5887,4242,6412
2.03912,39.902244,-1660,83927,23.5887,4242,6412
1.66016,38.707647,-1659,83928,23.738,4242,6412
1.0381,38.006823,-1658,83929,23.3895,4242,6412
2.19238,37.155925,-1657,83930,23.4891,4242,6412
1.4681,36.458787,-1656,83931,23.3895,4242,6412
2.06237,35.86749,-1655,83932,23.3895,4242,6412
2.00612,35.506517,-1654,83933,23.5887,4252,6435
1.1596,35.095374,-1653,83934,23.7878,4252,6435
1.90617,34.604727,-1652,83935,23.4891,4252,6435
1.44188,34.329983,-1651,83936,23.6385,4252,6435
1.21188,34.346039,-1650,83937,23.4891,4252,6435
1.63702,34.33237,-1649,83938,23.3895,4252,6435
0.750112,34.398279,-1648,83939,23.6385,4252,6435
1.31745,34.014712,-1647,83940,23.6385,4252,6435
1.0381,33.59108,-1646,83941,23.6385,4252,6435
1.11773,33.400231,-1645,83942,23.29,4252,6435
2.04146,33.248422,-1644,83943,23.5887,4250,6446
1.12198,33.658219,-1643,83944,23.4891,4250,6446
2.13508,34.795178,-1642,83945,23.6385,4250,6446
4.3157,36.058917,-1641,83946,23.5887,4250,6446
1.83479,37.743422,-1640,83947,23.4891,4250,6446
1.0381,40.054318,-1639,83948,23.4891,4250,6446
1.64863,41.742693,-1638,83949,23.4393,4250,6446
1.70829,43.345963,-1637,83950,23.5887,4250,6446
1.65152,45.184322,-1636,83951,23.5887,4250,6446
1.04268,47.020052,-1635,83952,23.6385,4250,6446
0.447517,48.554685,-1634,83953,23.4891,4254,6435
2.10811,49.369708,-1633,83954,23.6385,4254,6435
2.17052,50.020536,-1632,83955,23.4393,4254,6435
1.40163,50.786532,-1631,83956,23.5887,4254,6435
0.840071,51.50644,-1630,83957,23.4891,4254,6435
0.323889,51.326756,-1629,83958,23.5887,4254,6435
1.49066,50.311187,-1628,83959,23.5887,4254,6435
0.98628,48.935124,-1627,83960,23.6385,4254,6435
1.14304,47.95173,-1626,83961,23.5887,4254,6435
1.83739,46.996595,-1625,83962,23.4891,4254,6435
2.26301,46.263843,-1624,83963,23.6385,4245,6394
1.95556,45.566577,-1623,83964,23.5887,4245,6394
1.40163,44.881056,-1622,83965,23.5887,4245,6394
2.09222,44.165336,-1621,83966,23.7878,4245,6394
1.57769,43.980224,-1620,83967,23.6385,4245,6394
1.97256,43.730997,-1619,83968,23.5887,4245,6394
1.59273,43.699296,-1618,83969,23.5887,4245,6394
1.54099,44.766864,-1617,83970,23.4891,4245,6394
1.60168,45.930405,-1616,83971,23.4393,4245,6394
2.62948,46.378687,-1615,83972,23.4891,4245,6394
0.447517,46.28075,-1614,83973,23.6385,4257,6330
1.42525,46.397158,-1613,83974,23.5887,4257,6330
2.40995,46.491164,-1612,83975,23.4891,4257,6330
1.24679,46.705097,-1611,83976,23.5887,4257,6330
1.01956,46.916308,-1610,83977,23.5887,4257,6330
2.40995,46.478823,-1609,83978,23.3895,4257,6330
1.5034,47.363439,-1608,83979,23.6385,4257,6330
2.6131,48.544403,-1607,83980,23.3895,4257,6330
2.54844,49.98701,-1606,83981,23.5887,4257,6330
1.48103,51.475619,-1605,83982,23.6385,4257,6330
1.74146,52.88463,-1604,83983,23.4393,4253,6259
1.21188,54.288498,-1603,83984,23.29,4253,6259
1.10916,55.20899,-1602,83985,23.7878,4253,6259
2.29648,55.496365,-1601,83986,23.4393,4253,6259
1.93596,55.278446,-1600,83987,23.4891,4253,6259
1.97498,54.427756,-1599,83988,23.6385,4253,6259
2.954,53.940301,-1598,83989,23.5887,4253,6259
1.46484,53.282258,-1597,83990,23.4393,4253,6259
2.02269,52.88632,-1596,83991,23.6385,4253,6259
1.00068,53.042185,-1595,83992,23.4891,4253,6259
1.80598,53.379772,-1594,83993,23.4891,4254,6180
1.19604,53.889999,-1593,83994,23.7878,4254,6180
1.84774,54.222995,-1592,83995,23.5887,4254,6180
1.71108,54.499849,-1591,83996,23.4393,4254,6180
0.169146,54.714741,-1590,83997,23.5887,4254,6180
1.40163,54.797471,-1589,83998,23.6385,4254,6180
2.62948,55.15228,-1588,83999,23.4393,4254,6180
1.6165,53.868289,-1587,84000,23.6385,4254,6180
1.83739,52.423479,-1586,84001,23.4393,4254,6180
1.88606,51.975297,-1585,84002,23.29,4254,6180
2.09449,52.348954,-1584,84003,23.6385,4251,6096
1.4118,53.076587,-1583,84004,23.4393,4251,6096
2.28816,52.983297,-1582,84005,23.4393,4251,6096
1.60466,52.346534,-1581,84006,23.29,4251,6096
2.36401,51.663727,-1580,84007,23.6385,4251,6096
1.65152,51.280429,-1579,84008,23.6385,4251,6096
2.55777,50.241537,-1578,84009,23.4393,4251,6096
1.98701,49.263803,-1577,84010,23.6385,4251,6096
1.73047,48.905274,-1576,84011,23.3895,4251,6096
1.09619,48.958566,-1575,84012,23.4393,4251,6096
1.80598,49.133566,-1574,84013,23.4393,4252,6025
2.24822,49.13766,-1573,84014,23.6385,4252,6025
1.43525,48.566652,-1572,84015,23.4891,4252,6025
2.09904,47.977205,-1571,84016,23.3895,4252,6025
1.06082,46.658014,-1570,84017,23.4393,4252,6025
1.52856,45.092879,-1569,84018,23.4891,4252,6025
1.09619,43.167694,-1568,84019,23.5887,4252,6025
1.9798,40.743881,-1567,84020,23.5887,4252,6025
1.06977,40.046505,-1566,84021,23.6385,4252,6025
1.73047,40.255265,-1565,84022,23.6385,4252,6025
1.94824,41.211885,-1564,84023,23.6385,4257,5980
1.34255,42.565447,-1563,84024,23.5887,4257,5980
2.45698,44.222487,-1562,84025,23.4891,4257,5980
1.94333,46.323874,-1561,84026,23.7878,4257,5980
1.58673,47.693263,-1560,84027,23.6385,4257,5980
2.37809,48.57923,-1559,84028,23.4891,4257,5980
1.28447,48.989145,-1558,84029,23.4393,4257,5980
4.60022,49.246408,-1557,84030,23.4393,4257,5980
1.84774,49.445107,-1556,84031,23.6385,4257,5980
1.49385,49.649014,-1555,84032,23.3895,4257,5980
1.45505,50.430997,-1554,84033,23.6385,4249,5954
1.96287,51.831175,-1553,84034,23.4891,4249,5954
2.29024,53.17672,-1552,84035,23.4891,4249,5954
1.98701,54.892293,-1551,84036,23.6385,4249,5954
1.75781,56.799436,-1550,84037,23.738,4249,5954
1.31745,58.460465,-1549,84038,23.4891,4249,5954
1.31383,60.18215,-1548,84039,23.4891,4249,5954
2.44336,61.727518,-1547,84040,23.3895,4249,5954
1.8606,63.089216,-1546,84041,23.3895,4249,5954
1.0381,64.0954,-1545,84042,23.3895,4249,5954
1.44518,65.263794,-1544,84043,23.6385,4258,5976
0.976563,66.48844,-1543,84044,23.3895,4258,5976
3.14022,67.8577,-1542,84045,23.4891,4258,5976
1.98701,69.188997,-1541,84046,23.6385,4258,5976
2.1771,70.177266,-1540,84047,23.3895,4258,5976
0.625305,71.292198,-1539,84048,23.4891,4258,5976
1.71664,72.08146,-1538,84049,23.4393,4258,5976
1.79539,72.69961,-1537,84050,23.6385,4258,5976
1.4118,72.975283,-1536,84051,23.738,4258,5976
2.34782,73.26192,-1535,84052,23.4891,4258,5976
1.38452,73.352578,-1534,84053,23.4891,4246,6019
1.37067,73.731277,-1533,84054,23.4891,4246,6019
1.73047,73.680128,-1532,84055,23.4393,4246,6019
1.25061,73.612042,-1531,84056,23.6385,4246,6019
1.21188,73.333581,-1530,84057,23.3895,4246,6019
1.17998,72.940255,-1529,84058,23.3895,4246,6019
1.34255,72.745099,-1528,84059,23.6385,4246,6019
1.11773,72.252943,-1527,84060,23.5887,4246,6019
1.28075,71.517995,-1526,84061,23.738,4246,6019
1.69427,70.776995,-1525,84062,23.5887,4246,6019
1.8529,70.762361,-1524,84063,23.3895,4256,6082
2.47246,70.377532,-1523,84064,23.6385,4256,6082
1.76052,70.09143,-1522,84065,23.6385,4256,6082
1.05631,69.403065,-1521,84066,23.4891,4256,6082
1.72495,68.502657,-1520,84067,23.4393,4256,6082
2.04845,67.681356,-1519,84068,23.4891,4256,6082
1.83998,66.74802,-1518,84069,23.4891,4256,6082
0.793363,65.621848,-1517,84070,23.4891,4256,6082
0.817051,64.025035,-1516,84071,23.4891,4256,6082
1.3102,62.579224,-1515,84072,23.6385,4256,6082
2.05078,60.961137,-1514,84073,23.4393,4251,6134
1.68014,59.003036,-1513,84074,23.4891,4251,6134
1.07865,57.177922,-1512,84075,23.5887,4251,6134
2.41983,55.2961,-1511,84076,23.6385,4251,6134
1.57769,53.703585,-1510,84077,23.5887,4251,6134
1.12198,52.290283,-1509,84078,23.6385,4251,6134
1.19205,50.554503,-1508,84079,23.4891,4251,6134
2.0693,48.981844,-1507,84080,23.6385,4251,6134
1.09619,47.48849,-1506,84081,23.4393,4251,6134
1.06977,46.25724,-1505,84082,23.6385,4251,6134
3.67219,44.620665,-1504,84083,23.4393,4256,6173
2.98291,43.554475,-1503,84084,23.3895,4256,6173
1.63702,42.475207,-1502,84085,23.738,4256,6173
1.09183,41.345811,-1501,84086,23.738,4256,6173
1.19604,39.767952,-1500,84087,23.5887,4256,6173
1.60168,38.259648,-1499,84088,23.6385,4256,6173
1.84516,36.787545,-1498,84089,23.4393,4256,6173
1.88099,35.148196,-1497,84090,23.4393,4256,6173
0.840071,33.135963,-1496,84091,23.5887,4256,6173
1.19205,31.460293,-1495,84092,23.4393,4256,6173
4.25898,30.191619,-1494,84093,23.4891,4249,6199
1.79804,29.723808,-1493,84094,23.6385,4249,6199
1.99897,29.149256,-1492,84095,23.4393,4249,6199
1.95556,28.788673,-1491,84096,23.6385,4249,6199
1.74146,28.451812,-1490,84097,23.4891,4249,6199
1.39139,28.216996,-1489,84098,23.6385,4249,6199
1.28447,28.272127,-1488,84099,23.6385,4249,6199
1.62826,28.112239,-1487,84100,23.738,4249,6199
1.9335,28.497601,-1486,84101,23.4891,4249,6199
0.793363,28.970811,-1485,84102,23.738,4249,6199
3.42772,29.481939,-1484,84103,23.4891,4257,6206
1.51917,30.210368,-1483,84104,23.6385,4257,6206
1.73872,30.905011,-1482,84105,23.4891,4257,6206
0.683594,31.393912,-1481,84106,23.6385,4257,6206
1.4118,31.913625,-1480,84107,23.4393,4257,6206
2.14399,32.347712,-1479,84108,23.4393,4257,6206
1.77132,32.786277,-1478,84109,23.5887,4257,6206
1.20794,33.136638,-1477,84110,23.5887,4257,6206
1.24296,33.573775,-1476,84111,23.3895,4257,6206
2.18802,34.243714,-1475,84112,23.5887,4257,6206
1.22752,34.681935,-1474,84113,23.6385,4251,6195
3.15083,35.151375,-1473,84114,23.3895,4251,6195
2.32332,35.500851,-1472,84115,23.738,4251,6195
1.91615,36.175059,-1471,84116,23.4393,4251,6195
1.69708,36.420757,-1470,84117,23.3895,4251,6195
2.88375,36.463283,-1469,84118,23.7878,4251,6195
2.60213,36.391492,-1468,84119,23.6385,4251,6195
1.95556,36.675172,-1467,84120,23.4891,4251,6195
2.66907,36.879379,-1466,84121,23.4891,4251,6195
2.22905,36.6642,-1465,84122,23.6385,4251,6195
2.15287,36.378387,-1464,84123,23.4393,4251,6195
2.48208,36.753099,-1463,84124,23.6385,4251,6195
2.47246,37.361094,-1462,84125,23.4891,4251,6195
1.67446,36.763233,-1461,84126,23.4891,4251,6195
2.82022,36.269471,-1460,84127,23.4393,4251,6195
1.33543,36.527387,-1459,84128,23.6385,4251,6195
2.25034,36.558785,-1458,84129,23.5887,4251,6195
2.0785,36.585676,-1457,84130,23.4891,4251,6195
1.70829,36.598911,-1456,84131,23.5887,4251,6195
1.79539,36.652818,-1455,84132,23.738,4251,6195
1.6165,38.17094,-1454,84133,23.3895,4242,6198
2.0739,40.229901,-1453,84134,23.4393,4242,6198
1.25821,40.692281,-1452,84135,23.6385,4242,6198
1.8529,41.223092,-1451,84136,23.3895,4242,6198
1.80334,43.290236,-1450,84137,23.3895,4242,6198
1.33185,45.78841,-1449,84138,23.4393,4242,6198
2.49167,46.052714,-1448,84139,23.7878,4242,6198
2.0785,45.469676,-1447,84140,23.4891,4242,6198
1.54099,46.868165,-1446,84141,23.3895,4242,6198
1.31745,50.287487,-1445,84142,23.4891,4242,6198
1.23912,53.268553,-1444,84143,23.6385,4256,6178
1.92112,54.301809,-1443,84144,23.5887,4256,6178
1.54717,57.076063,-1442,84145,23.6385,4256,6178
1.86827,61.47619,-1441,84146,23.3895,4256,6178
1.49385,65.324842,-1440,84147,23.6385,4256,6178
2.00612,66.970782,-1439,84148,23.7878,4256,6178
1.22752,68.525494,-1438,84149,23.6385,4256,6178
1.19205,70.614906,-1437,84150,23.4891,4256,6178
1.71386,71.84022,-1436,84151,23.4891,4256,6178
1.45176,72.685671,-1435,84152,23.3895,4256,6178
0.697405,74.958826,-1434,84153,23.3895,4256,6141
2.54094,78.037499,-1433,84154,23.5887,4256,6141
1.69146,80.072542,-1432,84155,23.6385,4256,6141
2.39606,80.57066,-1431,84156,23.6385,4256,6141
2.14399,81.779821,-1430,84157,23.6385,4256,6141
1.31383,84.020562,-1429,84158,23.738,4256,6141
1.70549,85.666924,-1428,84159,23.738,4256,6141
2.3539,86.617467,-1427,84160,23.5887,4256,6141
2.22047,88.04875,-1426,84161,23.3895,4256,6141
1.39139,90.057285,-1425,84162,23.4891,4256,6141
0.690534,90.652228,-1424,84163,23.4891,4260,6081
1.37067,91.119499,-1423,84164,23.738,4260,6081
2.41983,91.512442,-1422,84165,23.6385,4260,6081
1.96287,91.036058,-1421,84166,23.4393,4260,6081
2.23972,90.984483,-1420,84167,23.6385,4260,6081
1.70549,92.047491,-1419,84168,23.4393,4260,6081
1.63702,93.179637,-1418,84169,23.6385,4260,6081
1.37415,94.070998,-1417,84170,23.6385,4260,6081
1.13045,94.438725,-1416,84171,23.4891,4260,6081
1.92608,94.858451,-1415,84172,23.4393,4260,6081
1.82698,95.232996,-1414,84173,23.6385,4255,6007
1.40163,96.391112,-1413,84174,23.4891,4255,6007
1.05179,97.341641,-1412,84175,23.4393,4255,6007
1.79273,96.670593,-1411,84176,23.5887,4255,6007
1.35668,95.278205,-1410,84177,23.4891,4255,6007
1.98701,93.422796,-1409,84178,23.3895,4255,6007
1.42525,92.764603,-1408,84179,23.4891,4255,6007
1.64863,94.157525,-1407,84180,23.4393,4255,6007
1.8529,95.045046,-1406,84181,23.738,4255,6007
2.27352,92.992103,-1405,84182,23.6385,4255,6007
1.41517,91.46863,-1404,84183,23.4393,4263,5955
1.25061,93.717013,-1403,84184,23.4393,4263,5955
1.54099,97.110751,-1402,84185,23.738,4263,5955
1.9798,98.240895,-1401,84186,23.5887,4263,5955
1.76052,98.005129,-1400,84187,23.6385,4263,5955
2.24822,99.116734,-1399,84188,23.4393,4263,5955
2.04146,100.37224,-1398,84189,23.4891,4263,5955
1.97739,98.044653,-1397,84190,23.4891,4263,5955
1.57163,93.240865,-1396,84191,23.7878,4263,5955
1.71386,90.268995,-1395,84192,23.4393,4263,5955
1.32827,91.026319,-1394,84193,23.6385,4255,5912
2.34578,91.052507,-1393,84194,23.6385,4255,5912
1.73047,87.512155,-1392,84195,23.5887,4255,5912
1.86572,85.375334,-1391,84196,23.6385,4255,5912
1.76052,86.684449,-1390,84197,23.6385,4255,5912
2.45115,88.578478,-1389,84198,23.3895,4255,5912
1.70829,88.793378,-1388,84199,23.3895,4255,5912
2.31303,87.527904,-1387,84200,23.6385,4255,5912
1.86572,87.83118,-1386,84201,23.4393,4255,5912
1.38452,89.16875,-1385,84202,23.4393,4255,5912
1.67446,88.435624,-1384,84203,23.7878,4262,5888
1.21188,84.86837,-1383,84204,23.4891,4262,5888
1.4118,82.281277,-1382,84205,23.6385,4262,5888
1.71942,82.367073,-1381,84206,23.4891,4262,5888
1.17998,81.864869,-1380,84207,23.6385,4262,5888
1.96772,79.72098,-1379,84208,23.4891,4262,5888
1.01016,79.263874,-1378,84209,23.6385,4262,5888
0.878906,80.678965,-1377,84210,23.3895,4262,5888
1.22752,81.628172,-1376,84211,23.3895,4262,5888
1.79539,82.164293,-1375,84212,23.5887,4262,5888
0.931581,83.13777,-1374,84213,23.6385,4255,5880
1.04268,83.337287,-1373,84214,23.4393,4255,5880
1.958,82.28354,-1372,84215,23.6385,4255,5880
1.65152,79.622508,-1371,84216,23.4891,4255,5880
2.15287,77.467151,-1370,84217,23.4891,4255,5880
0.941763,75.703083,-1369,84218,23.4891,4255,5880
1.54717,72.997434,-1368,84219,23.4891,4255,5880
1.00543,70.508578,-1367,84220,23.6385,4255,5880
1.31383,71.139453,-1366,84221,23.4891,4255,5880
1.09183,72.36093,-1365,84222,23.4393,4255,5880
2.0156,72.821362,-1364,84223,23.4393,4263,5866
1.80598,73.667183,-1363,84224,23.6385,4263,5866
1.33185,75.617706,-1362,84225,23.4891,4263,5866
1.3461,76.743888,-1361,84226,23.4891,4263,5866
2.31303,75.691764,-1360,84227,23.3895,4263,5866
1.45176,73.296692,-1359,84228,23.5887,4263,5866
2.36199,71.890398,-1358,84229,23.4891,4263,5866
1.73323,71.761253,-1357,84230,23.5887,4263,5866
1.53789,70.715491,-1356,84231,23.4891,4263,5866
2.43554,70.41648,-1355,84232,23.4891,4263,5866
1.10916,72.517163,-1354,84233,23.6385,4255,5846
1.4219,75.582523,-1353,84234,23.4891,4255,5846
1.87592,78.200304,-1352,84235,23.4891,4255,5846
1.36019,79.874757,-1351,84236,23.6385,4255,5846
0.981433,80.701772,-1350,84237,23.4393,4255,5846
1.61355,80.112543,-1349,84238,23.5887,4255,5846
1.79804,78.747179,-1348,84239,23.4891,4255,5846
2.11714,76.008352,-1347,84240,23.5887,4255,5846
2.77935,73.282663,-1346,84241,23.3895,4255,5846
1.79539,73.485618,-1345,84242,23.6385,4255,5846
1.36019,75.952557,-1344,84243,23.6385,4262,5818
2.44921,78.686508,-1343,84244,23.3895,4262,5818
2.51263,81.415957,-1342,84245,23.738,4262,5818
1.17998,85.337364,-1341,84246,23.5887,4262,5818
2.11037,89.475707,-1340,84247,23.3895,4262,5818
2.93619,90.836308,-1339,84248,23.5887,4262,5818
1.75238,89.009684,-1338,84249,23.5887,4262,5818
5.41706,86.801349,-1337,84250,23.5887,4262,5818
1.07865,85.578951,-1336,84251,23.6385,4262,5818
0.85693,84.391561,-1335,84252,23.3895,4262,5818
1.62826,81.950284,-1334,84253,23.4891,4255,5755
1.67446,79.616612,-1333,84254,23.6385,4255,5755
1.92856,79.797486,-1332,84255,23.4891,4255,5755
1.95556,81.909816,-1331,84256,23.3895,4255,5755
1.53168,82.769793,-1330,84257,23.4891,4255,5755
1.06082,81.742368,-1329,84258,23.4891,4255,5755
2.09904,80.416824,-1328,84259,23.4891,4255,5755
2.00612,79.023346,-1327,84260,23.3895,4255,5755
2.46473,76.901003,-1326,84261,23.5887,4255,5755
1.77132,74.236617,-1325,84262,23.7878,4255,5755
1.17998,71.920136,-1324,84263,23.4891,4262,5681
0.569429,71.460778,-1323,84264,23.3895,4262,5681
2.3027,72.669678,-1322,84265,23.4393,4262,5681
2.4277,74.528999,-1321,84266,23.6385,4262,5681
1.80334,76.548696,-1320,84267,23.4393,4262,5681
1.46484,79.067458,-1319,84268,23.4891,4262,5681
2.24822,82.035065,-1318,84269,23.3895,4262,5681
1.84516,84.363658,-1317,84270,23.5887,4262,5681
1.17998,85.681273,-1316,84271,23.3895,4262,5681
1.26577,87.121181,-1315,84272,23.5887,4262,5681
1.18402,88.203889,-1314,84273,23.738,4264,5612
1.79804,88.615817,-1313,84274,23.6385,4264,5612
1.33185,88.824755,-1312,84275,23.6385,4264,5612
2.21402,89.09912,-1311,84276,23.6385,4264,5612
1.71108,89.785433,-1310,84277,23.738,4264,5612
2.60579,90.993163,-1309,84278,23.4393,4264,5612
1.0381,92.457605,-1308,84279,23.4393,4264,5612
1.94088,94.264289,-1307,84280,23.5887,4264,5612
1.66589,96.898996,-1306,84281,23.5887,4264,5612
1.45176,99.77148,-1305,84282,23.5887,4264,5612
1.32827,102.35783,-1304,84283,23.738,4262,5558
1.54717,105.25682,-1303,84284,23.4393,4262,5558
1.4118,107.67764,-1302,84285,23.4393,4262,5558
1.59273,109.96455,-1301,84286,23.5887,4262,5558
1.69146,112.13293,-1300,84287,23.4393,4262,5558
1.4118,114.56421,-1299,84288,23.6385,4262,5558
1.97498,116.47408,-1298,84289,23.4891,4262,5558
1.25442,117.59915,-1297,84290,23.4393,4262,5558
1.70549,118.75641,-1296,84291,23.4393,4262,5558
1.88606,119.69951,-1295,84292,23.5887,4262,5558
1.61945,121.11959,-1294,84293,23.6385,4266,5493
2.14399,122.59786,-1293,84294,23.5887,4266,5493
2.46667,123.97044,-1292,84295,23.4891,4266,5493
0.878906,125.65453,-1291,84296,23.6385,4266,5493
1.9335,127.6646,-1290,84297,23.4891,4266,5493
1.86572,129.64499,-1289,84298,23.4393,4266,5493
1.23912,131.58715,-1288,84299,23.4393,4266,5493
1.47781,133.49967,-1287,84300,23.7878,4266,5493
1.70829,134.89515,-1286,84301,23.4393,4266,5493
2.91009,135.68147,-1285,84302,23.5887,4266,5493
1.86827,136.86331,-1284,84303,23.5887,4257,5431
0.981433,138.07253,-1283,84304,23.5887,4257,5431
1.55332,139.20014,-1282,84305,23.4891,4257,5431
1.74966,139.79204,-1281,84306,23.4393,4257,5431
1.54717,140.63761,-1280,84307,23.738,4257,5431
1.91864,141.79932,-1279,84308,23.3895,4257,5431
1.68298,143.50044,-1278,84309,23.2402,4257,5431
0.905627,144.71079,-1277,84310,23.738,4257,5431
1.27702,159.84808,-1276,84311,23.6385,4257,5431
0.966748,196.728,-1275,84312,23.7878,4257,5431
2.22905,241.5352,-1274,84313,23.4393,4264,5370
0.98628,268.35758,-1273,84314,23.6385,4264,5370
1.32827,228.68778,-1272,84315,23.4891,4264,5370
0.878906,255.42215,-1271,84316,23.6385,4264,5370
2.25034,330.37849,-1270,84317,23.5887,4264,5370
3.20038,393.42493,-1269,84318,23.3895,4264,5370
4.16387,500.71399,-1268,84319,23.6385,4264,5370
4.77718,622.72021,-1267,84320,23.6385,4264,5370
5.55011,654.43412,-1266,84321,23.6385,4264,5370
5.45566,559.97438,-1265,84322,23.6385,4264,5370
6.89013,420.56064,-1264,84323,23.6385,4254,5241
5.72186,294.06802,-1263,84324,23.738,4254,5241
5.22164,170.51392,-1262,84325,23.4891,4254,5241
4.66098,36.690405,-1261,84326,23.5887,4254,5241
4.68139,126.55577,-1260,84327,23.3895,4254,5241
4.46237,245.06156,-1259,84328,23.738,4254,5241
4.12475,322.66901,-1258,84329,23.738,4254,5241
3.6146,373.64439,-1257,84330,23.3895,4254,5241
3.25211,413.30473,-1256,84331,23.4891,4254,5241
3.11736,441.52783,-1255,84332,23.738,4254,5241
1.74146,444.3194,-1254,84333,23.4891,4255,5385
3.79982,411.69488,-1253,84334,23.6385,4255,5385
2.14399,354.57969,-1252,84335,23.5887,4255,5385
2.82529,296.49228,-1251,84336,23.5887,4255,5385
3.16292,247.73998,-1250,84337,23.738,4255,5385
2.54282,209.51779,-1249,84338,23.4891,4255,5385
2.99568,193.21309,-1248,84339,23.4393,4255,5385
4.13052,210.17392,-1247,84340,23.6385,4255,5385
3.99078,267.96388,-1246,84341,23.5887,4255,5385
2.96689,358.53965,-1245,84342,23.4393,4255,5385
4.57006,457.93395,-1244,84343,23.7878,4245,5627
4.44845,552.13872,-1243,84344,23.6385,4245,5627
4.9023,632.18659,-1242,84345,23.3895,4245,5627
5.31577,676.72834,-1241,84346,23.5887,4245,5627
5.31666,642.21293,-1240,84347,23.6385,4245,5627
5.89992,466.70266,-1239,84348,23.6385,4245,5627
5.34529,235.00342,-1238,84349,23.3895,4245,5627
5.04893,179.10864,-1237,84350,23.6385,4245,5627
5.19509,208.42036,-1236,84351,23.6385,4245,5627
5.44603,262.53524,-1235,84352,23.6385,4245,5627
5.4197,289.60803,-1234,84353,23.3895,4245,5627
5.50785,319.58365,-1233,84354,23.5887,4245,5627
5.47398,358.58634,-1232,84355,23.4891,4245,5627
4.91202,393.31049,-1231,84356,23.5887,4245,5627
5.42058,416.60881,-1230,84357,23.6385,4245,5627
4.37059,439.59833,-1229,84358,23.5887,4245,5627
4.45916,468.9059,-1228,84359,23.7878,4245,5627
4.58984,503.58864,-1227,84360,23.4891,4245,5627
4.06888,537.23656,-1226,84361,23.5887,4245,5627
4.06184,564.69159,-1225,84362,23.4393,4245,5627
4.10853,594.35929,-1224,84363,23.4393,4257,5909
4.94492,627.86223,-1223,84364,23.6385,4257,5909
4.86618,659.40761,-1222,84365,23.4891,4257,5909
4.26569,692.76178,-1221,84366,23.6385,4257,5909
4.3967,732.36439,-1220,84367,23.29,4257,5909
3.73144,766.6953,-1219,84368,23.3895,4257,5909
4.6415,791.83184,-1218,84369,23.6385,4257,5909
4.2802,819.41669,-1217,84370,23.5887,4257,5909
4.42912,853.76981,-1216,84371,23.5887,4257,5909
4.91881,888.35642,-1215,84372,23.6385,4257,5909
3.96802,918.36652,-1214,84373,23.4891,4261,6187
4.0158,945.12863,-1213,84374,23.6385,4261,6187
3.9608,975.60761,-1212,84375,23.5887,4261,6187
4.70881,1002.9239,-1211,84376,23.4891,4261,6187
3.75183,1024.9882,-1210,84377,23.4891,4261,6187
4.27016,1050.452,-1209,84378,23.6385,4261,6187
3.84969,1081.6501,-1208,84379,23.5887,4261,6187
5.62181,1111.3093,-1207,84380,23.4891,4261,6187
5.49137,1134.9409,-1206,84381,23.6385,4261,6187
4.32122,1154.0788,-1205,84382,23.3895,4261,6187
5.3542,1177.4134,-1204,84383,23.4891,4275,6675
5.19968,1198.6035,-1203,84384,23.4891,4275,6675
4.37387,1214.3084,-1202,84385,23.4393,4275,6675
5.99533,1243.8497,-1201,84386,23.5887,4275,6675
4.61884,1283.1337,-1200,84387,23.5887,4275,6675
3.67219,1318.4238,-1199,84388,23.7878,4275,6675
4.2444,1339.3264,-1198,84389,23.6385,4275,6675
4.74613,1346.6785,-1197,84390,23.4891,4275,6675
4.42157,1345.688,-1196,84391,23.6385,4275,6675
2.95884,1342.1359,-1195,84392,23.6385,4275,6675
4.58673,1346.5054,-1194,84393,23.4393,4285,7306
3.80358,1356.2238,-1193,84394,23.6385,4285,7306
3.23742,1376.19,-1192,84395,23.6385,4285,7306
5.01767,1406.0856,-1191,84396,23.6385,4285,7306
3.26966,1436.8228,-1190,84397,23.5887,4285,7306
3.15083,1465.0135,-1189,84398,23.6385,4285,7306
3.5224,1493.0827,-1188,84399,23.3895,4285,7306
3.60271,1523.5742,-1187,84400,23.3895,4285,7306
4.31238,1562.3023,-1186,84401,23.4891,4285,7306
4.60126,1613.2254,-1185,84402,23.7878,4285,7306
3.82982,1668.6585,-1184,84403,23.4891,4315,7958
3.97522,1719.5019,-1183,84404,23.4891,4315,7958
4.33004,1746.8851,-1182,84405,23.5887,4315,7958
7.86178,1756.1538,-1181,84406,23.4891,4315,7958
9.89996,1794.8953,-1180,84407,23.4393,4315,7958
7.03803,1858.204,-1179,84408,23.7878,4315,7958
5.66154,1810.1567,-1178,84409,23.6385,4315,7958
5.55955,1595.192,-1177,84410,23.5887,4315,7958
5.66827,1428.1803,-1176,84411,23.29,4315,7958
5.20976,1404.7011,-1175,84412,23.738,4315,7958
5.61502,1459.0379,-1174,84413,23.4393,4347,8497
4.73406,1550.6346,-1173,84414,23.6385,4347,8497
4.07591,1642.7106,-1172,84415,23.4891,4347,8497
5.05082,1715.8685,-1171,84416,23.5887,4347,8497
4.0158,1743.765,-1170,84417,23.7878,4347,8497
3.26966,1716.9458,-1169,84418,23.5887,4347,8497
2.82529,1653.4466,-1168,84419,23.6385,4347,8497
2.78106,1579.6908,-1167,84420,23.5887,4347,8497
2.97972,1506.2198,-1166,84421,23.4891,4347,8497
3.34464,1431.1444,-1165,84422,23.4891,4347,8497
3.47744,1347.1851,-1164,84423,23.6385,4333,8474
1.40163,1255.8123,-1163,84424,23.6385,4333,8474
3.05868,1169.7476,-1162,84425,23.738,4333,8474
3.58679,1099.1495,-1161,84426,23.6385,4333,8474
1.92608,1054.8375,-1160,84427,23.3895,4333,8474
4.4388,1042.3501,-1159,84428,23.6385,4333,8474
4.02292,995.61051,-1158,84429,23.2402,4333,8474
2.3539,956.49821,-1157,84430,23.4891,4333,8474
3.56546,934.66738,-1156,84431,23.4891,4333,8474
3.0068,886.38362,-1155,84432,23.6385,4333,8474
2.59479,883.39379,-1154,84433,23.4393,4335,8020
2.71512,875.075,-1153,84434,23.7878,4335,8020
1.79539,806.24007,-1152,84435,23.4891,4335,8020
2.64033,753.86874,-1151,84436,23.4393,4335,8020
1.83739,745.98137,-1150,84437,23.4393,4335,8020
2.32946,757.9457,-1149,84438,23.4393,4335,8020
1.60466,746.597,-1148,84439,23.3895,4335,8020
1.07865,709.90525,-1147,84440,23.4891,4335,8020
0.793363,688.27086,-1146,84441,23.4393,4335,8020
1.24296,701.53172,-1145,84442,23.6385,4335,8020
1.40163,729.67792,-1144,84443,23.738,4337,7095
1.8606,761.17782,-1143,84444,23.4891,4337,7095
2.09222,814.63255,-1142,84445,23.4891,4337,7095
0.85693,889.04677,-1141,84446,23.29,4337,7095
1.22752,960.66656,-1140,84447,23.4891,4337,7095
2.49167,1023.8885,-1139,84448,23.4891,4337,7095
2.83371,1076.3863,-1138,84449,23.4891,4337,7095
2.16392,1105.8861,-1137,84450,23.4393,4337,7095
2.64575,1091.9619,-1136,84451,23.3895,4337,7095
2.83876,1044.6306,-1135,84452,23.5887,4337,7095
3.15386,1036.6094,-1134,84453,23.5887,4335,6706
3.54265,1097.9387,-1133,84454,23.4393,4335,6706
4.34214,1185.6442,-1132,84455,23.5887,4335,6706
4.97664,1241.7203,-1131,84456,23.4393,4335,6706
4.02765,1232.4939,-1130,84457,23.4393,4335,6706
4.73306,1148.9199,-1129,84458,23.4891,4335,6706
5.04326,1016.5603,-1128,84459,23.5887,4335,6706
5.14714,864.71277,-1127,84460,23.4891,4335,6706
4.55334,685.76111,-1126,84461,23.7878,4335,6706
4.9929,474.15054,-1125,84462,23.6385,4335,6706
5.07249,261.54811,-1124,84463,23.4891,4302,6953
4.38693,93.798784,-1123,84464,23.6385,4302,6953
5.4879,100.86295,-1122,84465,23.29,4302,6953
3.97522,203.86056,-1121,84466,23.6385,4302,6953
3.77716,301.17799,-1120,84467,23.5887,4302,6953
3.03992,397.48735,-1119,84468,23.4393,4302,6953
3.14326,475.08339,-1118,84469,23.6385,4302,6953
3.21673,503.17593,-1117,84470,23.4393,4302,6953
2.64033,490.00515,-1116,84471,23.6385,4302,6953
3.1051,470.91028,-1115,84472,23.4393,4302,6953
2.25457,472.20189,-1114,84473,23.6385,4327,6746
2.65294,487.6076,-1113,84474,23.4393,4327,6746
3.1311,500.89394,-1112,84475,23.3895,4327,6746
2.99568,509.83697,-1111,84476,23.6385,4327,6746
2.72564,524.65151,-1110,84477,23.6385,4327,6746
2.4974,550.97272,-1109,84478,23.3895,4327,6746
9.48925,605.82282,-1108,84479,23.3895,4327,6746
13.5503,719.93873,-1107,84480,23.5887,4327,6746
11.2969,703.05058,-1106,84481,23.5887,4327,6746
7.49412,579.29982,-1105,84482,23.4393,4327,6746
6.16164,663.57758,-1104,84483,23.6385,4427,6195
5.42849,860.96756,-1103,84484,23.5887,4427,6195
3.80484,1053.0874,-1102,84485,23.4393,4427,6195
6.08141,1210.3402,-1101,84486,23.3895,4427,6195
4.64971,1290.5724,-1100,84487,23.4393,4427,6195
2.37206,1212.7382,-1099,84488,23.4891,4427,6195
2.85884,930.28042,-1098,84489,23.29,4427,6195
3.28857,777.18556,-1097,84490,23.4393,4427,6195
1.35668,926.2317,-1096,84491,23.5887,4427,6195
2.54844,978.60618,-1095,84492,23.3895,4427,6195
2.65833,969.15187,-1094,84493,23.4393,4375,6348
3.42911,982.74015,-1093,84494,23.4891,4375,6348
2.41391,972.80752,-1092,84495,23.4393,4375,6348
2.4277,906.63515,-1091,84496,23.4891,4375,6348
2.84547,848.09293,-1090,84497,23.3895,4375,6348
2.915,848.59054,-1089,84498,23.6385,4375,6348
3.02734,885.46345,-1088,84499,23.3895,4375,6348
2.43358,920.10352,-1087,84500,23.4891,4375,6348
2.27352,939.49597,-1086,84501,23.4891,4375,6348
1.67161,949.74182,-1085,84502,23.4891,4375,6348
1.61355,964.04503,-1084,84503,23.4891,4339,6269
1.73047,994.13409,-1083,84504,23.6385,4339,6269
2.54094,1018.3002,-1082,84505,23.6385,4339,6269
2.74829,1021.2371,-1081,84506,23.4891,4339,6269
3.04775,1010.2046,-1080,84507,23.4393,4339,6269
3.28857,1000.5915,-1079,84508,23.3895,4339,6269
2.73786,1003.5704,-1078,84509,23.3895,4339,6269
4.2354,1015.3114,-1077,84510,23.6385,4339,6269
4.22187,1026.2333,-1076,84511,23.4891,4339,6269
3.2987,1034.1424,-1075,84512,23.3895,4339,6269
4.17416,1034.8675,-1074,84513,23.6385,4319,6513
4.5481,1022.1749,-1073,84514,23.4891,4319,6513
5.12393,994.4453,-1072,84515,23.4393,4319,6513
3.84473,956.73018,-1071,84516,23.5887,4319,6513
4.10156,917.08823,-1070,84517,23.4891,4319,6513
4.72297,884.19758,-1069,84518,23.4393,4319,6513
3.98002,860.91418,-1068,84519,23.4393,4319,6513
3.43606,845.68718,-1067,84520,23.4393,4319,6513
2.9248,829.22941,-1066,84521,23.4393,4319,6513
3.55206,806.01843,-1065,84522,23.4393,4319,6513
4.07239,784.19188,-1064,84523,23.6385,4311,6627
3.10356,773.45587,-1063,84524,23.4393,4311,6627
3.74929,765.76019,-1062,84525,23.4393,4311,6627
3.41936,750.50367,-1061,84526,23.6385,4311,6627
3.84473,731.14191,-1060,84527,23.4891,4311,6627
4.00867,713.80834,-1059,84528,23.4393,4311,6627
2.46667,701.46035,-1058,84529,23.4393,4311,6627
3.36879,688.29483,-1057,84530,23.3895,4311,6627
3.23742,669.2451,-1056,84531,23.5887,4311,6627
2.56522,647.45364,-1055,84532,23.6385,4311,6627
2.89366,627.69114,-1054,84533,23.7878,4307,6427
4.12244,609.45205,-1053,84534,23.3895,4307,6427
4.08058,592.14099,-1052,84535,23.4393,4307,6427
4.9159,577.32901,-1051,84536,23.4891,4307,6427
3.95236,565.25998,-1050,84537,23.4393,4307,6427
4.15929,557.51395,-1049,84538,23.5887,4307,6427
4.47411,553.5567,-1048,84539,23.6385,4307,6427
4.76819,552.02308,-1047,84540,23.738,4307,6427
4.4388,553.44996,-1046,84541,23.4891,4307,6427
4.94685,557.78207,-1045,84542,23.4393,4307,6427
4.70071,563.08692,-1044,84543,23.4891,4311,6041
4.0442,568.91935,-1043,84544,23.6385,4311,6041
3.55474,574.93461,-1042,84545,23.4891,4311,6041
3.96561,580.55502,-1041,84546,23.5887,4311,6041
4.35967,585.50146,-1040,84547,23.5887,4311,6041
4.32453,590.06765,-1039,84548,23.4393,4311,6041
4.12128,595.10234,-1038,84549,23.29,4311,6041
3.87438,600.09461,-1037,84550,23.6385,4311,6041
3.51969,603.18412,-1036,84551,23.6385,4311,6041
3.90381,605.37611,-1035,84552,23.6385,4311,6041
3.80107,607.83535,-1034,84553,23.5887,4319,5572
4.93043,610.11301,-1033,84554,23.6385,4319,5572
3.51834,612.47499,-1032,84555,23.4393,4319,5572
3.7212,614.64914,-1031,84556,23.4393,4319,5572
4.22074,617.21341,-1030,84557,23.6385,4319,5572
2.44336,620.77398,-1029,84558,23.6385,4319,5572
3.03521,624.01558,-1028,84559,23.4393,4319,5572
2.88871,626.68761,-1027,84560,23.4393,4319,5572
3.56679,629.65989,-1026,84561,23.4393,4319,5572
2.82022,633.51219,-1025,84562,23.29,4319,5572
3.40959,638.41374,-1024,84563,23.3895,4323,5144
3.61592,643.08242,-1023,84564,23.738,4323,5144
2.68865,646.14436,-1022,84565,23.4393,4323,5144
3.21377,648.48453,-1021,84566,23.29,4323,5144
3.23889,653.45146,-1020,84567,23.5887,4323,5144
3.56546,658.00934,-1019,84568,23.4393,4323,5144
1.97498,659.53139,-1018,84569,23.4891,4323,5144
2.46473,659.79389,-1017,84570,23.6385,4323,5144
2.77763,660.56727,-1016,84571,23.3895,4323,5144
2.89036,661.4974,-1015,84572,23.3895,4323,5144
3.37868,659.2679,-1014,84573,23.5887,4309,5144
2.24822,655.86197,-1013,84574,23.4393,4309,5144
3.86082,655.67502,-1012,84575,23.2402,4309,5144
2.86051,656.23283,-1011,84576,23.4891,4309,5144
2.60213,654.42677,-1010,84577,23.4393,4309,5144
2.69397,650.51674,-1009,84578,23.4393,4309,5144
2.72564,650.16613,-1008,84579,23.6385,4309,5144
2.68333,653.18954,-1007,84580,23.4891,4309,5144
2.75695,655.06015,-1006,84581,23.4393,4309,5144
2.68688,650.1063,-1005,84582,23.5887,4309,5144
2.3539,631.42856,-1004,84583,23.4891,4309,4886
2.85884,610.46662,-1003,84584,23.738,4309,4886
3.18844,598.93429,-1002,84585,23.4393,4309,4886
2.83876,588.5815,-1001,84586,23.738,4309,4886
2.9717,576.59786,-1000,84587,23.4393,4309,4886
2.71161,566.93935,-999,84588,23.6385,4309,4886
2.77763,557.30983,-998,84589,23.6385,4309,4886
2.62948,542.49488,-997,84590,23.6385,4309,4886
2.65115,529.88299,-996,84591,23.6385,4309,4886
2.46473,525.67343,-995,84592,23.3895,4309,4886
2.55777,527.93413,-994,84593,23.4891,4309,4842
2.84714,530.68901,-993,84594,23.4891,4309,4842
2.58559,522.72408,-992,84595,23.4393,4309,4842
2.71512,510.86993,-991,84596,23.4891,4309,4842
1.92361,501.3004,-990,84597,23.3895,4309,4842
2.39606,494.508,-989,84598,23.6385,4309,4842
2.08994,488.60068,-988,84599,23.4891,4309,4842
1.89865,482.93609,-987,84600,23.5887,4309,4842
2.64033,478.28459,-986,84601,23.4891,4309,4842
2.40995,475.37723,-985,84602,23.3895,4309,4842
1.94824,474.41862,-984,84603,23.29,4300,4865
1.81125,472.17965,-983,84604,23.4891,4300,4865
2.35997,467.57796,-982,84605,23.4891,4300,4865
3.25797,462.71864,-981,84606,23.6385,4300,4865
1.57466,458.17665,-980,84607,23.4393,4300,4865
1.48103,453.35783,-979,84608,23.3895,4300,4865
1.82437,451.16813,-978,84609,23.4393,4300,4865
1.49066,446.09491,-977,84610,23.5887,4300,4865
1.96287,442.60967,-976,84611,23.738,4300,4865
1.68863,438.87528,-975,84612,23.4393,4300,4865
2.21187,431.53865,-974,84613,23.4393,4317,4944
1.47781,422.90504,-973,84614,23.4393,4317,4944
3.05868,382.10911,-972,84615,23.6385,4317,4944
12.5442,364.621,-971,84616,23.6385,4317,4944
7.56757,454.22946,-970,84617,23.4891,4317,4944
5.21616,504.09826,-969,84618,23.4891,4317,4944
3.03364,393.52625,-968,84619,23.4891,4317,4944
3.03364,242.33211,-967,84620,23.3895,4317,4944
2.65474,181.88153,-966,84621,23.5887,4317,4944
2.61128,165.93972,-965,84622,23.5887,4317,4944
3.40819,165.62913,-964,84623,23.7878,4331,5187
2.68688,243.15705,-963,84624,23.738,4331,5187
2.12388,303.32174,-962,84625,23.6385,4331,5187
3.34178,314.5575,-961,84626,23.5887,4331,5187
1.40163,330.19255,-960,84627,23.3895,4331,5187
1.84516,366.83445,-959,84628,23.4393,4331,5187
1.56555,408.49589,-958,84629,23.4891,4331,5187
1.23912,438.07479,-957,84630,23.4891,4331,5187
0.76272,471.40346,-956,84631,23.6385,4331,5187
1.39139,524.25904,-955,84632,23.7878,4331,5187
1.55638,581.86136,-954,84633,23.6385,4315,5472
0.78733,594.41687,-953,84634,23.4393,4315,5472
1.67446,550.28925,-952,84635,23.4891,4315,5472
1.67446,487.06007,-951,84636,23.6385,4315,5472
1.4118,433.87933,-950,84637,23.4891,4315,5472
0.895034,395.0978,-949,84638,23.6385,4315,5472
2.42376,370.37867,-948,84639,23.5887,4315,5472
1.40163,362.53972,-947,84640,23.6385,4315,5472
1.62239,374.28585,-946,84641,23.4891,4315,5472
2.24397,397.04031,-945,84642,23.7878,4315,5472
2.48016,409.23841,-944,84643,23.5887,4303,5571
1.86572,394.3959,-943,84644,23.29,4303,5571
2.06237,368.42175,-942,84645,23.3895,4303,5571
2.90024,354.05073,-941,84646,23.3895,4303,5571
2.69574,350.67368,-940,84647,23.4393,4303,5571
3.52375,334.52536,-939,84648,23.6385,4303,5571
3.92937,293.68486,-938,84649,23.4393,4303,5571
3.36312,252.44332,-937,84650,23.4891,4303,5571
4.36186,229.13638,-936,84651,23.6385,4303,5571
4.06067,216.29995,-935,84652,23.6385,4303,5571
4.44524,208.39061,-934,84653,23.4393,4296,5550
4.5397,207.46994,-933,84654,23.3895,4296,5550
3.608,211.52682,-932,84655,23.6385,4296,5550
3.81985,222.82831,-931,84656,23.5887,4296,5550
2.59663,249.07699,-930,84657,23.3895,4296,5550
2.09677,288.42748,-929,84658,23.5887,4296,5550
1.54408,341.92681,-928,84659,23.4891,4296,5550
1.45176,407.49058,-927,84660,23.6385,4296,5550
1.71108,479.01473,-926,84661,23.29,4296,5550
1.45176,550.24322,-925,84662,23.29,4296,5550
0.862477,613.36534,-924,84663,23.6385,4292,5463
1.52856,661.00962,-923,84664,23.6385,4292,5463
0.292969,688.90905,-922,84665,23.6385,4292,5463
1.42525,693.35875,-921,84666,23.738,4292,5463
0.941763,674.4193,-920,84667,23.4891,4292,5463
0.239208,640.094,-919,84668,23.4891,4292,5463
0.585938,598.8168,-918,84669,23.5887,4292,5463
0.552427,554.66604,-917,84670,23.4891,4292,5463
1.05631,512.31028,-916,84671,23.6385,4292,5463
1.86827,475.62457,-915,84672,23.4891,4292,5463
1.74966,443.71135,-914,84673,23.4393,4298,5372
0.995902,414.57936,-913,84674,23.3895,4298,5372
1.73047,386.61774,-912,84675,23.738,4298,5372
2.73089,361.12886,-911,84676,23.3895,4298,5372
2.75695,340.70948,-910,84677,23.6385,4298,5372
2.22905,327.77179,-909,84678,23.7878,4298,5372
1.79007,321.43211,-908,84679,23.5887,4298,5372
1.41517,321.22306,-907,84680,23.4891,4298,5372
2.01324,324.05934,-906,84681,23.6385,4298,5372
1.71386,329.82081,-905,84682,23.4891,4298,5372
1.05631,330.64262,-904,84683,23.4393,4308,5291
1.85804,314.66606,-903,84684,23.6385,4308,5291
1.30655,281.42121,-902,84685,23.6385,4308,5291
1.22752,255.91091,-901,84686,23.6385,4308,5291
0.921287,265.10069,-900,84687,23.3895,4308,5291
9.24697,355.69643,-899,84688,23.3895,4308,5291
10.6068,495.76386,-898,84689,23.6385,4308,5291
3.23742,686.20661,-897,84690,23.4891,4308,5291
0.710948,656.56507,-896,84691,23.3895,4308,5291
0.921287,537.19038,-895,84692,23.6385,4308,5291
0.447517,530.28191,-894,84693,23.4393,4328,5149
1.02423,487.97815,-893,84694,23.4393,4328,5149
1.20399,462.25281,-892,84695,23.4393,4328,5149
1.17998,475.52755,-891,84696,23.6385,4328,5149
2.15951,503.58401,-890,84697,23.4393,4328,5149
0.926449,520.39984,-889,84698,23.3895,4328,5149
1.57769,525.34204,-888,84699,23.5887,4328,5149
1.80334,537.02038,-887,84700,23.4393,4328,5149
1.19205,543.752,-886,84701,23.5887,4328,5149
1.13045,542.45741,-885,84702,23.4891,4328,5149
2.0785,532.18879,-884,84703,23.6385,4311,5116
1.68863,518.74985,-883,84704,23.3895,4311,5116
1.64863,501.87115,-882,84705,23.3895,4311,5116
1.86827,493.42688,-881,84706,23.4891,4311,5116
1.4681,513.99301,-880,84707,23.5887,4311,5116
1.09619,583.84874,-879,84708,23.5887,4311,5116
1.92856,747.58449,-878,84709,23.4891,4311,5116
2.3539,957.0449,-877,84710,23.4891,4311,5116
0.926449,1070.2526,-876,84711,23.4891,4311,5116
0.737289,1029.7025,-875,84712,23.6385,4311,5116
0.239208,926.0434,-874,84713,23.4891,4298,5028
0.85693,838.24781,-873,84714,23.4891,4298,5028
0.338291,793.49242,-872,84715,23.7878,4298,5028
1.37067,826.76227,-871,84716,23.4393,4298,5028
0.900346,804.26115,-870,84717,23.4891,4298,5028
2.98132,705.22885,-869,84718,23.6385,4298,5028
2.76386,679.88848,-868,84719,23.6385,4298,5028
3.07268,708.664,-867,84720,23.5887,4298,5028
4.71792,731.27388,-866,84721,23.4393,4298,5028
4.74412,742.94446,-865,84722,23.5887,4298,5028
5.34261,738.41773,-864,84723,23.3895,4306,4706
5.49745,711.7601,-863,84724,23.6385,4306,4706
5.88536,683.35578,-862,84725,23.3895,4306,4706
4.70881,674.4911,-861,84726,23.5887,4306,4706
4.19012,681.05867,-860,84727,23.3895,4306,4706
5.25351,699.43823,-859,84728,23.4891,4306,4706
4.64458,724.08252,-858,84729,23.3895,4306,4706
4.38693,744.52337,-857,84730,23.4891,4306,4706
4.82485,749.85815,-856,84731,23.4393,4306,4706
4.56171,731.05676,-855,84732,23.29,4306,4706
4.32563,699.57504,-854,84733,23.5887,4306,4340
3.19442,673.40921,-853,84734,23.6385,4306,4340
3.09587,652.82004,-852,84735,23.6385,4306,4340
2.56893,630.87009,-851,84736,23.5887,4306,4340
2.66371,605.98177,-850,84737,23.6385,4306,4340
2.86551,577.44633,-849,84738,23.4891,4306,4340
2.9893,542.78998,-848,84739,23.6385,4306,4340
3.40679,500.57183,-847,84740,23.4891,4306,4340
2.96206,448.62356,-846,84741,23.5887,4306,4340
3.99437,385.11237,-845,84742,23.29,4306,4340
4.15355,313.22714,-844,84743,23.5887,4310,4019
4.00867,239.97164,-843,84744,23.29,4310,4019
4.90425,173.334,-842,84745,23.4891,4310,4019
4.34214,122.1209,-841,84746,23.6385,4310,4019
5.10528,101.46422,-840,84747,23.5887,4310,4019
4.08058,123.46988,-839,84748,23.4891,4310,4019
4.50808,169.21979,-838,84749,23.4891,4310,4019
4.45167,223.35512,-837,84750,23.5887,4310,4019
4.5334,280.32963,-836,84751,23.6385,4310,4019
4.60954,333.94897,-835,84752,23.4891,4310,4019
4.39562,386.5176,-834,84753,23.6385,4297,3921
4.29798,443.44811,-833,84754,23.6385,4297,3921
4.90036,508.28455,-832,84755,23.6385,4297,3921
4.85736,575.98075,-831,84756,23.6385,4297,3921
4.09109,639.18391,-830,84757,23.6385,4297,3921
4.30906,697.43105,-829,84758,23.6385,4297,3921
3.5828,747.61435,-828,84759,23.4393,4297,3921
3.95598,792.30365,-827,84760,23.3895,4297,3921
3.38714,832.70684,-826,84761,23.4891,4297,3921
4.23427,877.69487,-825,84762,23.3895,4297,3921
5.1323,917.64561,-824,84763,23.4393,4301,3972
4.32012,951.24617,-823,84764,23.4393,4301,3972
2.78106,984.33423,-822,84765,23.5887,4301,3972
3.76072,1022.0819,-821,84766,23.4393,4301,3972
3.90869,1058.7198,-820,84767,23.5887,4301,3972
3.7391,1091.7133,-819,84768,23.6385,4301,3972
3.96682,1123.5494,-818,84769,23.4393,4301,3972
2.99249,1153.0619,-817,84770,23.738,4301,3972
2.9248,1181.404,-816,84771,23.6385,4301,3972
3.62777,1208.6786,-815,84772,23.4393,4301,3972
4.9843,1230.6004,-814,84773,23.6385,4298,4212
3.72248,1244.0687,-813,84774,23.4891,4298,4212
3.06491,1252.7594,-812,84775,23.6385,4298,4212
3.57347,1262.978,-811,84776,23.3895,4298,4212
3.15688,1277.203,-810,84777,23.6385,4298,4212
3.82982,1291.0419,-809,84778,23.6385,4298,4212
3.58147,1301.5589,-808,84779,23.6385,4298,4212
3.96682,1307.6893,-807,84780,23.4891,4298,4212
4.55648,1310.8608,-806,84781,23.6385,4298,4212
4.3542,1313.2098,-805,84782,23.5887,4298,4212
2.59663,1311.4972,-804,84783,23.4891,4303,4555
4.19354,1308.502,-803,84784,23.4891,4303,4555
3.89402,1337.4529,-802,84785,23.3895,4303,4555
4.44845,1366.4437,-801,84786,23.738,4303,4555
3.48703,1415.1013,-800,84787,23.3895,4303,4555
4.17302,1462.6744,-799,84788,23.7878,4303,4555
4.9343,1473.3461,-798,84789,23.5887,4303,4555
4.25001,1452.7224,-797,84790,23.6385,4303,4555
4.43019,1406.1438,-796,84791,23.6385,4303,4555
4.89549,1354.7153,-795,84792,23.738,4303,4555
5.56298,1322.047,-794,84793,23.738,4347,5093
5.12114,1302.2403,-793,84794,23.6385,4347,5093
5.2969,1274.3198,-792,84795,23.4393,4347,5093
5.88293,1246.0715,-791,84796,23.4393,4347,5093
6.02389,1228.4628,-790,84797,23.5887,4347,5093
6.21174,1221.2389,-789,84798,23.4891,4347,5093
7.0617,1210.1652,-788,84799,23.4393,4347,5093
7.02447,1182.3913,-787,84800,23.6385,4347,5093
6.19252,1139.1005,-786,84801,23.4393,4347,5093
5.83164,1095.8478,-785,84802,23.4891,4347,5093
6.82267,1054.7539,-784,84803,23.6385,4416,5093
6.33563,1015.5991,-783,84804,23.6385,4416,5093
5.97701,985.89416,-782,84805,23.5887,4416,5093
5.64467,966.02892,-781,84806,23.5887,4416,5093
5.34618,949.46673,-780,84807,23.4393,4416,5093
4.93913,933.38979,-779,84808,23.4891,4416,5093
4.62812,916.52915,-778,84809,23.6385,4416,5093
4.594,904.63858,-777,84810,23.4393,4416,5093
4.38693,897.885,-776,84811,23.5887,4416,5093
5.10248,879.22338,-775,84812,23.4891,4416,5093
5.41002,843.78505,-774,84813,23.5887,4416,5636
4.1004,807.80733,-773,84814,23.3895,4416,5636
4.3002,779.82296,-772,84815,23.5887,4416,5636
5.06779,750.6312,-771,84816,23.738,4416,5636
5.11555,716.85285,-770,84817,23.4393,4416,5636
4.79312,691.18399,-769,84818,23.7878,4416,5636
3.99437,678.09849,-768,84819,23.4891,4416,5636
4.57423,670.84721,-767,84820,23.6385,4416,5636
4.66915,667.30503,-766,84821,23.3895,4416,5636
4.76919,666.0642,-765,84822,23.3895,4416,5636
4.06184,666.1752,-764,84823,23.6385,4498,6052
4.16272,668.60732,-763,84824,23.738,4498,6052
4.19012,672.23841,-762,84825,23.6385,4498,6052
3.60271,673.78907,-761,84826,23.6385,4498,6052
3.28276,672.57739,-760,84827,23.3895,4498,6052
4.45167,671.89675,-759,84828,23.4891,4498,6052
3.6146,672.36001,-758,84829,23.5887,4498,6052
3.25211,674.08151,-757,84830,23.6385,4498,6052
2.87879,677.07627,-756,84831,23.6385,4498,6052
3.16894,680.51047,-755,84832,23.3895,4498,6052
2.40995,686.36581,-754,84833,23.3895,4549,6062
3.58679,693.80434,-753,84834,23.3895,4549,6062
3.04305,697.47256,-752,84835,23.6385,4549,6062
4.08175,703.19012,-751,84836,23.6385,4549,6062
3.23005,685.88359,-750,84837,23.4891,4549,6062
14.1349,671.39499,-749,84838,23.29,4549,6062
10.5455,989.78675,-748,84839,23.6385,4549,6062
3.82982,765.88727,-747,84840,23.4393,4549,6062
3.7391,353.52823,-746,84841,23.4393,4549,6062
4.24664,450.30052,-745,84842,23.6385,4549,6062
5.25804,458.20022,-744,84843,23.5887,4629,5723
4.3967,723.26517,-743,84844,23.4393,4629,5723
4.80504,759.56341,-742,84845,23.7878,4629,5723
4.49961,826.3932,-741,84846,23.4393,4629,5723
5.37464,826.86388,-740,84847,23.4891,4629,5723
4.67732,782.64809,-739,84848,23.5887,4629,5723
4.1455,877.13313,-738,84849,23.3895,4629,5723
2.30477,855.79186,-737,84850,23.5887,4629,5723
2.72214,835.70121,-736,84851,23.4891,4629,5723
3.69807,875.72001,-735,84852,23.4891,4629,5723
1.89614,921.2646,-734,84853,23.3895,4559,5201
1.99897,940.74604,-733,84854,23.4891,4559,5201
1.47134,940.7527,-732,84855,23.4891,4559,5201
4.41294,942.9165,-731,84856,23.4891,4559,5201
2.37809,957.19273,-730,84857,23.4393,4559,5201
2.39407,976.75539,-729,84858,23.6385,4559,5201
2.79304,989.07251,-728,84859,23.4393,4559,5201
1.66589,991.7962,-727,84860,23.5887,4559,5201
2.52777,991.51433,-726,84861,23.4891,4559,5201
2.86218,992.24535,-725,84862,23.4891,4559,5201
3.03992,995.58749,-724,84863,23.4891,4410,4526
3.35744,999.42276,-723,84864,23.6385,4410,4526
3.18246,1001.5522,-722,84865,23.4393,4410,4526
3.43467,1000.7437,-721,84866,23.4891,4410,4526
3.68774,999.10975,-720,84867,23.4891,4410,4526
3.25211,998.83208,-719,84868,23.4891,4410,4526
3.66699,998.69874,-718,84869,23.4891,4410,4526
4.16158,996.90564,-717,84870,23.6385,4410,4526
3.92816,993.78245,-716,84871,23.738,4410,4526
5.2969,991.40332,-715,84872,23.6385,4410,4526
5.44953,987.87244,-714,84873,23.5887,4377,3885
4.57423,982.42972,-713,84874,23.6385,4377,3885
4.22074,975.0388,-712,84875,23.4891,4377,3885
4.08058,961.51639,-711,84876,23.4393,4377,3885
4.02765,946.38074,-710,84877,23.6385,4377,3885
5.17578,927.79774,-709,84878,23.4393,4377,3885
5.17302,906.83659,-708,84879,23.4891,4377,3885
5.14065,883.70814,-707,84880,23.6385,4377,3885
5.02052,856.99346,-706,84881,23.6385,4377,3885
4.89257,828.11968,-705,84882,23.6385,4377,3885
4.44738,800.74443,-704,84883,23.4393,4364,3495
4.78615,780.95728,-703,84884,23.6385,4364,3495
4.49961,760.64469,-702,84885,23.6385,4364,3495
4.33444,725.71533,-701,84886,23.6385,4364,3495
4.90036,689.78414,-700,84887,23.4891,4364,3495
5.61587,675.54413,-699,84888,23.3895,4364,3495
4.92269,678.46965,-698,84889,23.6385,4364,3495
4.88379,682.95483,-697,84890,23.6385,4364,3495
5.46177,680.82882,-696,84891,23.4393,4364,3495
5.88212,668.3556,-695,84892,23.738,4364,3495
6.15312,640.80432,-694,84893,23.5887,4340,3377
6.60101,590.62509,-693,84894,23.5887,4340,3377
5.83981,520.07917,-692,84895,23.5887,4340,3377
5.90881,447.8877,-691,84896,23.5887,4340,3377
6.14226,392.66993,-690,84897,23.5887,4340,3377
6.01756,358.11579,-689,84898,23.4393,4340,3377
5.25351,342.27194,-688,84899,23.4393,4340,3377
4.88477,348.97778,-687,84900,23.5887,4340,3377
5.00816,366.99873,-686,84901,23.4393,4340,3377
4.11665,382.31714,-685,84902,23.3895,4340,3377
4.55334,401.21986,-684,84903,23.3895,4347,3323
4.56902,440.81802,-683,84904,23.4891,4347,3323
3.66569,495.28055,-682,84905,23.3895,4347,3323
4.20035,549.76909,-681,84906,23.6385,4347,3323
4.23653,599.28797,-680,84907,23.4393,4347,3323
3.17946,637.84108,-679,84908,23.3895,4347,3323
5.2671,658.62595,-678,84909,23.6385,4347,3323
4.07122,669.2208,-677,84910,23.7878,4347,3323
3.7531,680.38415,-676,84911,23.5887,4347,3323
3.70965,693.60929,-675,84912,23.3895,4347,3323
3.78095,709.29798,-674,84913,23.4891,4362,3305
3.5828,727.52786,-673,84914,23.4891,4362,3305
2.55777,750.07475,-672,84915,23.4393,4362,3305
3.30303,774.40446,-671,84916,23.738,4362,3305
2.92317,796.46205,-670,84917,23.4393,4362,3305
2.23759,815.01697,-669,84918,23.4393,4362,3305
2.14177,830.38936,-668,84919,23.738,4362,3305
2.62766,844.38761,-667,84920,23.29,4362,3305
3.24918,855.86561,-666,84921,23.3895,4362,3305
1.87846,861.41931,-665,84922,23.5887,4362,3305
2.16171,864.60883,-664,84923,23.5887,4379,3349
3.68127,866.46025,-663,84924,23.4393,4379,3349
2.39407,867.25803,-662,84925,23.3895,4379,3349
2.26512,861.69848,-661,84926,23.6385,4379,3349
1.76863,850.66295,-660,84927,23.4891,4379,3349
2.31921,836.25548,-659,84928,23.7878,4379,3349
3.08198,818.3184,-658,84929,23.4393,4379,3349
3.90014,798.06356,-657,84930,23.4891,4379,3349
2.41786,778.22552,-656,84931,23.4891,4379,3349
2.72914,758.04866,-655,84932,23.6385,4379,3349
2.73786,735.11997,-654,84933,23.3895,4409,3474
3.32749,709.30622,-653,84934,23.6385,4409,3474
2.36804,683.36235,-652,84935,23.3895,4409,3474
2.87879,657.27678,-651,84936,23.5887,4409,3474
2.70985,630.70664,-650,84937,23.4891,4409,3474
3.38009,599.50305,-649,84938,23.5887,4409,3474
3.12957,564.33096,-648,84939,23.4891,4409,3474
2.69397,527.42682,-647,84940,23.3895,4409,3474
3.29725,490.74885,-646,84941,23.6385,4409,3474
2.56893,455.2045,-645,84942,23.6385,4409,3474
3.92695,420.63194,-644,84943,23.4393,4448,4229
3.74037,387.34991,-643,84944,23.3895,4448,4229
4.36514,353.41683,-642,84945,23.6385,4448,4229
3.1311,317.40716,-641,84946,23.9371,4448,4229
3.63958,282.59607,-640,84947,23.3895,4448,4229
3.8186,248.09748,-639,84948,23.5887,4448,4229
4.05597,212.75609,-638,84949,23.5887,4448,4229
4.34653,179.18562,-637,84950,23.4393,4448,4229
3.37727,151.99989,-636,84951,23.6385,4448,4229
3.50204,139.63339,-635,84952,23.4393,4448,4229
3.71736,148.623,-634,84953,23.5887,4495,4354
3.8928,180.4646,-633,84954,23.6385,4495,4354
4.13052,241.65378,-632,84955,23.4393,4495,4354
4.21056,338.66234,-631,84956,23.6385,4495,4354
4.41294,464.55456,-630,84957,23.5887,4495,4354
4.42589,607.12865,-629,84958,23.6385,4495,4354
4.82584,757.59606,-628,84959,23.6385,4495,4354
4.49006,899.71611,-627,84960,23.3895,4495,4354
3.86946,1024.8207,-626,84961,23.7878,4495,4354
4.30242,1121.8097,-625,84962,23.4393,4495,4354
4.51548,1172.8375,-624,84963,23.6385,4445,4136
4.20376,1168.9318,-623,84964,23.4891,4445,4136
4.12012,1118.9151,-622,84965,23.3895,4445,4136
4.08992,1048.0919,-621,84966,23.6385,4445,4136
4.51125,979.46502,-620,84967,23.6385,4445,4136
5.30769,932.00041,-619,84968,23.3895,4445,4136
4.64355,919.5046,-618,84969,23.3895,4445,4136
3.18545,935.49561,-617,84970,23.3895,4445,4136
2.87879,976.54145,-616,84971,23.6385,4445,4136
3.41238,1033.7695,-615,84972,23.6385,4445,4136
3.24771,1089.8405,-614,84973,23.6385,4482,3783
3.54937,1141.5181,-613,84974,23.4393,4482,3783
3.16442,1193.617,-612,84975,23.6385,4482,3783
3.37303,1247.3668,-611,84976,23.4891,4482,3783
3.15083,1299.0669,-610,84977,23.4393,4482,3783
2.36199,1344.3141,-609,84978,23.4891,4482,3783
3.59741,1382.5371,-608,84979,23.4891,4482,3783
3.69161,1414.5647,-607,84980,23.4891,4482,3783
3.45267,1444.0267,-606,84981,23.6385,4482,3783
4.22074,1470.575,-605,84982,23.4393,4482,3783
4.18215,1491.6508,-604,84983,23.6385,4370,2989
4.73306,1504.9754,-603,84984,23.5887,4370,2989
5.42234,1509.9409,-602,84985,23.2402,4370,2989
5.80459,1505.8934,-601,84986,23.5887,4370,2989
5.41002,1493.1379,-600,84987,23.4393,4370,2989
5.76503,1471.078,-599,84988,23.6385,4370,2989
5.60992,1440.3503,-598,84989,23.5887,4370,2989
5.64467,1403.5722,-597,84990,23.4891,4370,2989
6.41491,1363.1508,-596,84991,23.5887,4370,2989
6.15002,1319.7293,-595,84992,23.6385,4370,2989
7.58205,1275.3248,-594,84993,23.738,4342,2706
6.27817,1230.4447,-593,84994,23.3895,4342,2706
6.98362,1185.02,-592,84995,23.4891,4342,2706
6.50276,1136.5701,-591,84996,23.4393,4342,2706
5.84797,1083.9901,-590,84997,23.4891,4342,2706
6.55244,1031.2167,-589,84998,23.5887,4342,2706
6.13993,978.26765,-588,84999,23.3895,4342,2706
5.35331,922.10332,-587,85000,23.4393,4342,2706
7.24567,860.71047,-586,85001,23.3895,4342,2706
6.72695,795.96995,-585,85002,23.4891,4342,2706
3.98121,732.95513,-584,85003,23.4891,4307,2695
6.38436,670.43745,-583,85004,23.6385,4307,2695
6.40896,606.75618,-582,85005,23.3895,4307,2695
6.10254,544.49776,-581,85006,23.6385,4307,2695
6.48073,487.74097,-580,85007,23.7878,4307,2695
6.05232,428.43943,-579,85008,23.4891,4307,2695
6.50276,361.52258,-578,85009,23.7878,4307,2695
6.35366,302.95729,-577,85010,23.5887,4307,2695
6.53495,260.44979,-576,85011,23.6385,4307,2695
5.64382,236.63877,-575,85012,23.4891,4307,2695
5.39413,235.70428,-574,85013,23.4891,4299,2679
6.37464,256.7323,-573,85014,23.5887,4299,2679
5.14344,292.09056,-572,85015,23.4891,4299,2679
5.23077,337.41738,-571,85016,23.6385,4299,2679
5.71185,391.05798,-570,85017,23.6385,4299,2679
5.26801,449.61749,-569,85018,23.5887,4299,2679
5.64467,511.7649,-568,85019,23.4891,4299,2679
5.25351,576.02361,-567,85020,23.4393,4299,2679
4.99481,641.35887,-566,85021,23.4393,4299,2679
5.89588,706.17367,-565,85022,23.4393,4299,2679
5.80952,770.10716,-564,85023,23.4891,4307,2649
6.00328,832.753,-563,85024,23.4891,4307,2649
3.98121,895.34883,-562,85025,23.6385,4307,2649
4.63636,954.67222,-561,85026,23.4393,4307,2649
4.76619,1009.4008,-560,85027,23.6385,4307,2649
5.30139,1061.5471,-559,85028,23.5887,4307,2649
3.45129,1113.3646,-558,85029,23.6385,4307,2649
4.48581,1163.0491,-557,85030,23.3895,4307,2649
3.98481,1208.7084,-556,85031,23.4393,4307,2649
4.35967,1249.8033,-555,85032,23.4891,4307,2649
3.08971,1286.3364,-554,85033,23.3895,4307,2649
3.76958,1317.281,-553,85034,23.6385,4307,2649
4.71387,1342.2483,-552,85035,23.4393,4307,2649
4.41618,1359.8435,-551,85036,23.3895,4307,2649
4.05126,1369.3406,-550,85037,23.4891,4307,2649
4.31901,1371.901,-549,85038,23.7878,4307,2649
5.01482,1368.3022,-548,85039,23.4891,4307,2649
5.03853,1357.796,-547,85040,23.4891,4307,2649
5.54237,1340.4122,-546,85041,23.4891,4307,2649
4.57423,1317.9779,-545,85042,23.4891,4307,2649
5.46002,1292.7416,-544,85043,23.6385,4327,2751
5.63113,1265.7647,-543,85044,23.6385,4327,2751
5.16102,1238.4602,-542,85045,23.5887,4327,2751
6.16551,1210.6637,-541,85046,23.5887,4327,2751
5.31128,1183.6427,-540,85047,23.6385,4327,2751
5.40296,1157.5988,-539,85048,23.4393,4327,2751
5.50698,1133.0899,-538,85049,23.4891,4327,2751
4.95936,1109.701,-537,85050,23.4393,4327,2751
4.72095,1085.6567,-536,85051,23.4393,4327,2751
5.16471,1061.245,-535,85052,23.5887,4327,2751
4.80504,1036.6695,-534,85053,23.4393,4372,2869
3.90747,1013.4127,-533,85054,23.4891,4372,2869
4.71792,991.61079,-532,85055,23.4891,4372,2869
3.87069,969.07633,-531,85056,23.3895,4372,2869
3.39136,945.16995,-530,85057,23.4393,4372,2869
4.10969,921.93446,-529,85058,23.3895,4372,2869
2.79815,901.4242,-528,85059,23.5887,4372,2869
3.27258,878.39144,-527,85060,23.6385,4372,2869
4.05126,849.10208,-526,85061,23.4393,4372,2869
3.962,813.68009,-525,85062,23.3895,4372,2869
2.39407,780.03807,-524,85063,23.4393,4410,3150
3.06647,769.71199,-523,85064,23.3895,4410,3150
3.76325,752.68101,-522,85065,23.5887,4410,3150
3.48566,710.52979,-521,85066,23.3895,4410,3150
3.52781,668.38014,-520,85067,23.6385,4410,3150
4.10853,641.88561,-519,85068,23.5887,4410,3150
2.72214,615.85363,-518,85069,23.4393,4410,3150
3.67867,580.37579,-517,85070,23.6385,4410,3150
4.4205,538.41403,-516,85071,23.5887,4410,3150
4.41618,507.46357,-515,85072,23.5887,4410,3150
3.67219,501.71873,-514,85073,23.4891,4471,3554
3.68256,546.822,-513,85074,23.5887,4471,3554
3.21228,636.16594,-512,85075,23.7878,4471,3554
4.2891,468.18747,-511,85076,23.6385,4471,3554
4.88477,457.78966,-510,85077,23.4891,4471,3554
2.52588,576.59365,-509,85078,23.3895,4471,3554
3.72376,446.79971,-508,85079,23.4393,4471,3554
3.51291,308.09168,-507,85080,23.5887,4471,3554
4.13168,189.09275,-506,85081,23.4891,4471,3554
8.24661,346.98131,-505,85082,23.5887,4471,3554
15.7023,766.86916,-504,85083,23.738,4536,3750
4.55019,884.43487,-503,85084,23.4891,4536,3750
2.59663,714.00305,-502,85085,23.4393,4536,3750
3.65788,495.28105,-501,85086,23.6385,4536,3750
3.66178,361.3114,-500,85087,23.6385,4536,3750
4.17302,232.7313,-499,85088,23.3895,4536,3750
3.9318,222.69995,-498,85089,23.5887,4536,3750
3.25211,237.38734,-497,85090,23.738,4536,3750
3.14174,233.59838,-496,85091,23.4891,4536,3750
3.68644,271.17884,-495,85092,23.3895,4536,3750
2.4277,323.81253,-494,85093,23.3895,4545,3733
2.51073,363.78889,-493,85094,23.3895,4545,3733
2.61128,390.13108,-492,85095,23.4393,4545,3733
2.30684,413.46939,-491,85096,23.4393,4545,3733
1.96287,425.8052,-490,85097,23.4891,4545,3733
2.68865,423.19476,-489,85098,23.6385,4545,3733
2.44336,418.5032,-488,85099,23.4393,4545,3733
1.88606,424.87898,-487,85100,23.3895,4545,3733
2.12613,437.61875,-486,85101,23.6385,4545,3733
1.8606,451.21342,-485,85102,23.4393,4545,3733
2.06237,473.42806,-484,85103,23.4891,4493,3491
1.48103,498.0829,-483,85104,23.6385,4493,3491
2.09222,509.77536,-482,85105,23.6385,4493,3491
2.47824,520.30241,-481,85106,23.7878,4493,3491
2.46086,535.40259,-480,85107,23.4393,4493,3491
2.64033,552.18233,-479,85108,23.3895,4493,3491
2.23118,563.3491,-478,85109,23.5887,4493,3491
1.3029,570.47563,-477,85110,23.738,4493,3491
1.87592,581.98856,-476,85111,23.7878,4493,3491
2.4974,601.36238,-475,85112,23.4891,4493,3491
2.85884,613.84112,-474,85113,23.6385,4466,2996
1.60168,631.69184,-473,85114,23.5887,4466,2996
1.27328,652.61731,-472,85115,23.8376,4466,2996
0.78733,660.90821,-471,85116,23.4393,4466,2996
0.889691,693.69101,-470,85117,23.5887,4466,2996
0.905627,683.84192,-469,85118,23.7878,4466,2996
1.97739,659.67793,-468,85119,23.3895,4466,2996
1.41854,629.75795,-467,85120,23.3895,4466,2996
1.04725,609.97065,-466,85121,23.4393,4466,2996
1.99897,578.30719,-465,85122,23.4891,4466,2996
1.07422,544.11061,-464,85123,23.6385,4425,2792
1.70549,528.26087,-463,85124,23.4891,4425,2792
2.0693,520.50282,-462,85125,23.6385,4425,2792
1.1596,506.32123,-461,85126,23.3895,4425,2792
2.61675,494.87893,-460,85127,23.4393,4425,2792
2.63672,488.23164,-459,85128,23.6385,4425,2792
3.84225,486.15243,-458,85129,23.5887,4425,2792
3.43606,482.61072,-457,85130,23.5887,4425,2792
3.74292,479.249,-456,85131,23.3895,4425,2792
3.13718,470.79804,-455,85132,23.7878,4425,2792
3.5102,448.98946,-454,85133,23.6385,4408,2762
3.4747,419.67729,-453,85134,23.5887,4408,2762
2.83876,386.98857,-452,85135,23.738,4408,2762
3.08816,354.93217,-451,85136,23.4891,4408,2762
3.05712,326.27634,-450,85137,23.3895,4408,2762
3.09433,299.79997,-449,85138,23.4393,4408,2762
1.71664,274.72531,-448,85139,23.3895,4408,2762
3.054,249.89844,-447,85140,23.6385,4408,2762
3.25065,224.6313,-446,85141,23.4891,4408,2762
1.90867,197.56506,-445,85142,23.5887,4408,2762
3.1097,164.57709,-444,85143,23.6385,4394,2727
2.93131,132.15762,-443,85144,23.5887,4394,2727
3.48566,102.89434,-442,85145,23.4393,4394,2727
2.84044,74.536996,-441,85146,23.6385,4394,2727
2.64575,49.085169,-440,85147,23.5887,4394,2727
3.32175,29.435656,-439,85148,23.6385,4394,2727
2.31715,25.194141,-438,85149,23.6385,4394,2727
3.90259,43.2222,-437,85150,23.4393,4394,2727
2.11714,63.633885,-436,85151,23.4393,4394,2727
2.51832,80.787125,-435,85152,23.4891,4394,2727
3.03364,98.927426,-434,85153,23.5887,4420,2682
2.43358,119.47797,-433,85154,23.5887,4420,2682
3.33464,139.68498,-432,85155,23.6385,4420,2682
2.915,155.71814,-431,85156,23.4891,4420,2682
2.9443,172.56343,-430,85157,23.4891,4420,2682
3.22857,188.50316,-429,85158,23.4393,4420,2682
2.85216,205.06178,-428,85159,23.4393,4420,2682
4.1004,217.97445,-427,85160,23.5887,4420,2682
2.25034,228.48618,-426,85161,23.3895,4420,2682
2.59479,237.70434,-425,85162,23.4891,4420,2682
1.46158,247.87567,-424,85163,23.6385,4431,2637
1.83739,257.73033,-423,85164,23.6385,4431,2637
2.24822,264.00744,-422,85165,23.3895,4431,2637
1.99659,269.32202,-421,85166,23.4393,4431,2637
1.72772,278.87844,-420,85167,23.8376,4431,2637
0.845728,291.06603,-419,85168,23.6385,4431,2637
2.13954,302.43641,-418,85169,23.3895,4431,2637
1.43857,311.46682,-417,85170,23.6385,4431,2637
2.15066,316.37109,-416,85171,23.4393,4431,2637
1.3029,319.93513,-415,85172,23.4891,4431,2637
1.62826,324.35242,-414,85173,23.5887,4461,2613
1.66303,326.83949,-413,85174,23.4891,4461,2613
1.1472,327.22757,-412,85175,23.3895,4461,2613
1.42525,323.83466,-411,85176,23.4393,4461,2613
2.12164,319.39459,-410,85177,23.4891,4461,2613
1.49385,313.85863,-409,85178,23.3895,4461,2613
1.31745,306.68159,-408,85179,23.4393,4461,2613
2.23545,299.55396,-407,85180,23.6385,4461,2613
1.25061,293.31121,-406,85181,23.3895,4461,2613
2.30477,285.92594,-405,85182,23.4891,4461,2613
2.64575,274.62866,-404,85183,23.3895,4504,2657
1.91864,263.55243,-403,85184,23.3895,4504,2657
1.06082,254.38709,-402,85185,23.6385,4504,2657
1.39481,243.98045,-401,85186,23.6385,4504,2657
1.92112,231.37896,-400,85187,23.3895,4504,2657
1.7767,215.19379,-399,85188,23.5887,4504,2657
1.67446,198.89457,-398,85189,23.6385,4504,2657
2.0716,183.29625,-397,85190,23.4891,4504,2657
1.64863,167.17488,-396,85191,23.4393,4504,2657
2.34985,150.36769,-395,85192,23.7878,4504,2657
1.79539,132.77328,-394,85193,23.6385,4553,2760
2.79645,115.83469,-393,85194,23.4891,4553,2760
2.41193,104.05461,-392,85195,23.4393,4553,2760
1.92112,101.21109,-391,85196,23.6385,4553,2760
3.31168,104.39125,-390,85197,23.3895,4553,2760
2.44531,108.7578,-389,85198,23.6385,4553,2760
2.84044,118.21216,-388,85199,23.29,4553,2760
2.66371,134.30253,-387,85200,23.4393,4553,2760
2.10585,154.48981,-386,85201,23.4393,4553,2760
1.73323,175.68073,-385,85202,23.4393,4553,2760
2.33968,195.40731,-384,85203,23.6385,4584,2872
3.29581,216.2337,-383,85204,23.5887,4584,2872
1.57769,239.12266,-382,85205,23.4393,4584,2872
1.85804,260.79787,-381,85206,23.4393,4584,2872
2.15066,280.51598,-380,85207,23.4393,4584,2872
1.83739,298.07406,-379,85208,23.6385,4584,2872
1.31745,315.5855,-378,85209,23.4393,4584,2872
2.37005,332.30501,-377,85210,23.4393,4584,2872
1.66303,346.87213,-376,85211,23.5887,4584,2872
3.36595,359.83597,-375,85212,23.5887,4584,2872
2.43358,371.18991,-374,85213,23.738,4578,2924
1.92856,380.7473,-373,85214,23.5887,4578,2924
1.06082,388.013,-372,85215,23.5887,4578,2924
2.44921,393.5796,-371,85216,23.4891,4578,2924
1.25821,398.761,-370,85217,23.4891,4578,2924
2.09904,402.74755,-369,85218,23.6385,4578,2924
2.63672,405.1115,-368,85219,23.4393,4578,2924
2.21617,406.08362,-367,85220,23.6385,4578,2924
1.59572,405.67372,-366,85221,23.3895,4578,2924
2.1771,401.14847,-365,85222,23.5887,4578,2924
3.00997,395.66623,-364,85223,23.3895,4588,2917
2.02033,391.05996,-363,85224,23.3895,4588,2917
1.92608,383.13198,-362,85225,23.6385,4588,2917
1.63702,373.61992,-361,85226,23.6385,4588,2917
2.35593,364.61751,-360,85227,23.6385,4588,2917
1.97498,354.28689,-359,85228,23.4891,4588,2917
1.93842,340.21055,-358,85229,23.29,4588,2917
1.56555,324.88252,-357,85230,23.29,4588,2917
1.75781,308.69082,-356,85231,23.4891,4588,2917
2.38809,289.8086,-355,85232,23.4393,4588,2917
2.27352,272.72387,-354,85233,23.4393,4622,2915
1.31745,254.27788,-353,85234,23.4891,4622,2915
1.81125,230.38216,-352,85235,23.3895,4622,2915
1.76323,198.56976,-351,85236,23.3895,4622,2915
1.76323,162.19709,-350,85237,23.4891,4622,2915
1.98461,140.72701,-349,85238,23.6385,4622,2915
2.0762,166.32169,-348,85239,23.6385,4622,2915
1.67161,224.19698,-347,85240,23.6385,4622,2915
1.54408,281.19023,-346,85241,23.3895,4622,2915
1.94088,323.9538,-345,85242,23.4891,4622,2915
1.09183,354.35601,-344,85243,23.5887,4689,2983
1.87592,370.04596,-343,85244,23.5887,4689,2983
0.730792,376.9165,-342,85245,23.4891,4689,2983
1.48103,380.62349,-341,85246,23.6385,4689,2983
1.8529,383.38228,-340,85247,23.4393,4689,2983
1.28447,385.4401,-339,85248,23.3895,4689,2983
0.834375,386.43777,-338,85249,23.4393,4689,2983
1.30655,380.80452,-337,85250,23.4891,4689,2983
1.98701,365.28598,-336,85251,23.4891,4689,2983
1.64863,339.79014,-335,85252,23.4393,4689,2983
1.21581,311.04162,-334,85253,23.5887,4743,3213
2.09449,273.64576,-333,85254,23.6385,4743,3213
1.62239,224.63389,-332,85255,23.6385,4743,3213
0.98628,181.08138,-331,85256,23.4393,4743,3213
1.25061,154.38946,-330,85257,23.29,4743,3213
1.54408,145.15972,-329,85258,23.7878,4743,3213
1.83739,145.52389,-328,85259,23.6385,4743,3213
2.49167,150.01691,-327,85260,23.29,4743,3213
2.68688,162.08956,-326,85261,23.6385,4743,3213
1.40163,186.14442,-325,85262,23.4891,4743,3213
1.50022,220.78673,-324,85263,23.4393,4743,3213
1.90867,258.5325,-323,85264,23.4891,4743,3213
2.06006,292.50077,-322,85265,23.6385,4743,3213
1.80334,318.32467,-321,85266,23.738,4743,3213
1.00068,334.01192,-320,85267,23.4891,4743,3213
2.21187,339.18226,-319,85268,23.5887,4743,3213
2.01324,335.77021,-318,85269,23.5887,4743,3213
2.21832,327.49447,-317,85270,23.3895,4743,3213
1.87592,317.70543,-316,85271,23.6385,4743,3213
3.25065,308.40269,-315,85272,23.6385,4743,3213
2.44141,303.11042,-314,85273,23.6385,4726,3574
1.83479,305.78984,-313,85274,23.4393,4726,3574
2.10585,318.31315,-312,85275,23.4891,4726,3574
1.55332,340.84936,-311,85276,23.6385,4726,3574
2.53718,372.01156,-310,85277,23.3895,4726,3574
2.76731,409.14662,-309,85278,23.6385,4726,3574
2.23759,448.10489,-308,85279,23.7878,4726,3574
2.11488,485.22349,-307,85280,23.6385,4726,3574
2.62221,518.45971,-306,85281,23.4891,4726,3574
2.90517,544.02875,-305,85282,23.6385,4726,3574
1.7767,560.71499,-304,85283,23.4393,4608,3908
3.05868,569.78108,-303,85284,23.3895,4608,3908
2.44921,573.3433,-302,85285,23.6385,4608,3908
2.62221,571.52337,-301,85286,23.4891,4608,3908
3.21673,565.50277,-300,85287,23.3895,4608,3908
2.05078,559.36027,-299,85288,23.3895,4608,3908
3.16442,555.94838,-298,85289,23.5887,4608,3908
3.44991,557.07351,-297,85290,23.5887,4608,3908
3.9596,562.53821,-296,85291,23.3895,4608,3908
2.49549,572.23637,-295,85292,23.5887,4608,3908
2.32946,585.81884,-294,85293,23.3895,4492,4080
3.7276,602.99589,-293,85294,23.4393,4492,4080
2.41391,620.99154,-292,85295,23.5887,4492,4080
3.3375,637.35893,-291,85296,23.3895,4492,4080
3.08507,655.36895,-290,85297,23.4393,4492,4080
2.56336,673.5008,-289,85298,23.6385,4492,4080
3.7391,682.35108,-288,85299,23.4891,4492,4080
2.66907,681.99803,-287,85300,23.6385,4492,4080
2.47246,685.21898,-286,85301,23.3895,4492,4080
2.47246,701.14584,-285,85302,23.5887,4492,4080
2.77075,725.54769,-284,85303,23.4891,4428,4154
1.66016,750.19924,-283,85304,23.3895,4428,4154
1.57466,773.18147,-282,85305,23.5887,4428,4154
3.12653,795.06846,-281,85306,23.4891,4428,4154
0.971667,807.26021,-280,85307,23.3895,4428,4154
1.958,798.51515,-279,85308,23.5887,4428,4154
1.51603,769.71589,-278,85309,23.738,4428,4154
0.889691,732.98962,-277,85310,23.6385,4428,4154
1.73047,692.48099,-276,85311,23.4891,4428,4154
2.39606,649.46705,-275,85312,23.3895,4428,4154
2.30477,621.23056,-274,85313,23.4891,4395,4211
1.4681,621.72185,-273,85314,23.4393,4395,4211
2.46086,640.13054,-272,85315,23.4891,4395,4211
2.30477,657.10428,-271,85316,23.6385,4395,4211
3.35318,669.22323,-270,85317,23.3895,4395,4211
4.46877,682.08803,-269,85318,23.6385,4395,4211
3.95116,692.39033,-268,85319,23.7878,4395,4211
3.39838,702.03534,-267,85320,23.4891,4395,4211
4.90328,719.00479,-266,85321,23.4393,4395,4211
4.23653,747.0061,-265,85322,23.5887,4395,4211
3.21673,777.55183,-264,85323,23.6385,4370,4267
4.67732,800.07331,-263,85324,23.6385,4370,4267
4.72398,812.10848,-262,85325,23.4891,4370,4267
3.80985,820.22336,-261,85326,23.4891,4370,4267
5.02527,826.53359,-260,85327,23.6385,4370,4267
3.45129,825.43438,-259,85328,23.3895,4370,4267
4.33774,814.84144,-258,85329,23.29,4370,4267
3.59874,804.10555,-257,85330,23.3895,4370,4267
3.47332,800.0425,-256,85331,23.4891,4370,4267
3.52105,797.97185,-255,85332,23.6385,4370,4267
3.35602,793.80332,-254,85333,23.4393,4350,4268
3.28421,788.88973,-253,85334,23.6385,4350,4268
3.16442,787.49675,-252,85335,23.5887,4350,4268
3.11736,788.04707,-251,85336,23.4891,4350,4268
3.18994,787.47673,-250,85337,23.5887,4350,4268
2.4974,785.28823,-249,85338,23.6385,4350,4268
3.962,780.49467,-248,85339,23.4393,4350,4268
2.53718,763.47504,-247,85340,23.4891,4350,4268
2.26722,734.79425,-246,85341,23.4393,4350,4268
2.87879,710.99243,-245,85342,23.4891,4350,4268
3.68515,692.61664,-244,85343,23.5887,4342,4112
2.77247,671.76253,-243,85344,23.4891,4342,4112
2.41588,653.13104,-242,85345,23.4891,4342,4112
2.38809,636.91574,-241,85346,23.4393,4342,4112
2.94268,627.6515,-240,85347,23.6385,4342,4112
2.37809,624.41419,-239,85348,23.3895,4342,4112
2.91173,618.28764,-238,85349,23.6385,4342,4112
2.49167,602.22631,-237,85350,23.4393,4342,4112
2.86051,575.7943,-236,85351,23.4393,4342,4112
2.77935,544.30321,-235,85352,23.5887,4342,4112
2.31509,512.18942,-234,85353,23.5887,4334,3956
2.85884,481.38591,-233,85354,23.4891,4334,3956
2.4277,454.50248,-232,85355,23.3895,4334,3956
2.5819,433.49095,-231,85356,23.6385,4334,3956
2.70985,418.17644,-230,85357,23.4393,4334,3956
2.48016,406.085,-229,85358,23.4393,4334,3956
2.62403,393.948,-228,85359,23.4891,4334,3956
2.87382,379.83699,-227,85360,23.5887,4334,3956
2.0785,364.42625,-226,85361,23.5887,4334,3956
2.3539,349.05352,-225,85362,23.5887,4334,3956
2.79474,334.62748,-224,85363,23.6385,4326,3988
2.36199,322.50923,-223,85364,23.4891,4326,3988
2.77763,313.50808,-222,85365,23.6385,4326,3988
3.45405,307.91539,-221,85366,23.4891,4326,3988
3.53995,307.12107,-220,85367,23.6385,4326,3988
2.26722,310.83872,-219,85368,23.6385,4326,3988
1.97739,318.5827,-218,85369,23.4891,4326,3988
2.11263,329.32473,-217,85370,23.4891,4326,3988
2.32946,343.24598,-216,85371,23.4891,4326,3988
3.04462,360.98274,-215,85372,23.4891,4326,3988
3.26528,381.94903,-214,85373,23.3895,4303,4127
3.24624,406.83574,-213,85374,23.4891,4303,4127
2.24822,433.6815,-212,85375,23.3895,4303,4127
2.55404,461.68524,-211,85376,23.5887,4303,4127
2.31097,490.17516,-210,85377,23.3895,4303,4127
3.22561,520.59189,-209,85378,23.4393,4303,4127
3.72888,553.13884,-208,85379,23.6385,4303,4127
3.14022,587.64558,-207,85380,23.4891,4303,4127
3.12653,620.07737,-206,85381,23.3895,4303,4127
3.17946,649.35181,-205,85382,23.6385,4303,4127
2.40995,678.58936,-204,85383,23.3895,4301,4318
2.37206,709.1762,-203,85384,23.6385,4301,4318
3.36879,737.34984,-202,85385,23.4393,4301,4318
2.54282,762.45568,-201,85386,23.3895,4301,4318
2.73612,786.81417,-200,85387,23.4891,4301,4318
2.9717,810.1642,-199,85388,23.5887,4301,4318
3.13718,831.74086,-198,85389,23.6385,4301,4318
2.57079,850.37959,-197,85390,23.6385,4301,4318
2.90024,866.3937,-196,85391,23.4891,4301,4318
2.8986,880.34771,-195,85392,23.5887,4301,4318
2.28399,893.27297,-194,85393,23.6385,4289,4561
2.54282,906.86485,-193,85394,23.3895,4289,4561
2.56522,920.87425,-192,85395,23.6385,4289,4561
2.69397,931.67999,-191,85396,23.6385,4289,4561
3.4692,936.17413,-190,85397,23.6385,4289,4561
3.85464,939.07451,-189,85398,23.4891,4289,4561
3.58546,943.15304,-188,85399,23.5887,4289,4561
3.4747,943.84836,-187,85400,23.6385,4289,4561
2.74482,941.10617,-186,85401,23.4891,4289,4561
3.12653,939.17183,-185,85402,23.29,4289,4561
3.48018,938.91219,-184,85403,23.4891,4295,4868
2.54282,937.16086,-183,85404,23.6385,4295,4868
2.85884,930.50766,-182,85405,23.4393,4295,4868
3.69935,920.73724,-181,85406,23.5887,4295,4868
3.19293,912.34369,-180,85407,23.4393,4295,4868
3.86452,907.77363,-179,85408,23.4891,4295,4868
3.14174,901.55915,-178,85409,23.5887,4295,4868
2.72564,892.35373,-177,85410,23.738,4295,4868
3.10664,883.5934,-176,85411,23.6385,4295,4868
3.30592,878.60666,-175,85412,23.4891,4295,4868
3.19889,873.55543,-174,85413,23.5887,4300,5125
3.38855,867.79947,-173,85414,23.6385,4300,5125
4.20716,861.69842,-172,85415,23.4891,4300,5125
3.86329,855.56076,-171,85416,23.4891,4300,5125
3.24918,849.32348,-170,85417,23.5887,4300,5125
3.75945,844.06702,-169,85418,23.4393,4300,5125
3.68127,839.80607,-168,85419,23.6385,4300,5125
3.65005,836.07298,-167,85420,23.3895,4300,5125
3.54937,831.35149,-166,85421,23.4393,4300,5125
3.55474,825.31024,-165,85422,23.5887,4300,5125
4.41186,818.45277,-164,85423,23.4393,4320,5375
3.57614,811.10275,-163,85424,23.5887,4320,5375
4.10156,802.30172,-162,85425,23.7878,4320,5375
3.71736,792.51437,-161,85426,23.4393,4320,5375
2.94268,782.03176,-160,85427,23.4891,4320,5375
4.1004,771.41902,-159,85428,23.5887,4320,5375
2.68865,759.52374,-158,85429,23.4891,4320,5375
3.20038,746.694,-157,85430,23.3895,4320,5375
3.62382,734.19614,-156,85431,23.4393,4320,5375
5.12486,720.98649,-155,85432,23.4393,4320,5375
3.17946,694.49632,-154,85433,23.4891,4326,5641
3.1311,670.65695,-153,85434,23.5887,4326,5641
4.5355,651.20342,-152,85435,23.5887,4326,5641
3.21821,624.5479,-151,85436,23.5887,4326,5641
3.47881,594.61759,-150,85437,23.5887,4326,5641
1.9918,565.54522,-149,85438,23.4393,4326,5641
2.93294,545.18218,-148,85439,23.4393,4326,5641
2.80496,528.73434,-147,85440,23.4393,4326,5641
3.88053,514.1906,-146,85441,23.4393,4326,5641
3.71222,503.27887,-145,85442,23.5887,4326,5641
3.23742,496.7695,-144,85443,23.738,4329,5831
3.34606,492.53429,-143,85444,23.4393,4329,5831
2.64033,488.54639,-142,85445,23.3895,4329,5831
1.69708,484.13852,-141,85446,23.4891,4329,5831
2.5819,476.98776,-140,85447,23.4891,4329,5831
1.23912,465.46801,-139,85448,23.5887,4329,5831
2.38609,450.36152,-138,85449,23.4891,4329,5831
2.58005,430.93365,-137,85450,23.3895,4329,5831
2.43554,396.56181,-136,85451,23.6385,4329,5831
16.3439,192.93733,-135,85452,23.4393,4329,5831
10.1699,174.20789,-134,85453,23.4393,4361,5876
2.5353,301.4486,-133,85454,23.4891,4361,5876
1.02423,297.18436,-132,85455,23.3895,4361,5876
3.07113,226.05187,-131,85456,23.4393,4361,5876
3.65005,299.55659,-130,85457,23.6385,4361,5876
3.73399,380.13961,-129,85458,23.3895,4361,5876
1.51603,352.48405,-128,85459,23.4891,4361,5876
1.23912,287.47807,-127,85460,23.4891,4361,5876
1.98701,311.38732,-126,85461,23.4393,4361,5876
2.10811,380.84627,-125,85462,23.4891,4361,5876
2.52021,413.89962,-124,85463,23.4891,4325,5847
1.3637,400.6401,-123,85464,23.6385,4325,5847
1.13045,408.09856,-122,85465,23.4393,4325,5847
2.51073,447.65141,-121,85466,23.4891,4325,5847
0.85693,491.18542,-120,85467,23.6385,4325,5847
2.00374,528.77947,-119,85468,23.3895,4325,5847
2.27352,557.88258,-118,85469,23.3895,4325,5847
1.09619,583.60638,-117,85470,23.6385,4325,5847
1.73047,614.67409,-116,85471,23.4891,4325,5847
1.51603,650.78595,-115,85472,23.5887,4325,5847
2.32946,691.01793,-114,85473,23.6385,4309,5771
1.65152,735.21258,-113,85474,23.4393,4309,5771
1.79539,781.401,-112,85475,23.6385,4309,5771
2.89366,830.89067,-111,85476,23.5887,4309,5771
2.19672,886.46393,-110,85477,23.4891,4309,5771
1.54408,944.27078,-109,85478,23.5887,4309,5771
1.41517,999.24593,-108,85479,23.3895,4309,5771
2.18584,1049.9783,-107,85480,23.3895,4309,5771
1.86827,1092.6425,-106,85481,23.4891,4309,5771
2.43554,1126.6366,-105,85482,23.4891,4309,5771
2.22047,1151.7724,-104,85483,23.6385,4292,5771
2.37809,1167.4901,-103,85484,23.5887,4292,5771
2.91827,1175.0564,-102,85485,23.4393,4292,5771
2.26091,1177.5114,-101,85486,23.3895,4292,5771
3.19442,1176.9236,-100,85487,23.4891,4292,5771
4.01817,1160.6602,-99,85488,23.3895,4292,5771
4.18557,1060.4556,-98,85489,23.4891,4292,5771
4.37822,979.56855,-97,85490,23.4393,4292,5771
3.67997,1075.174,-96,85491,23.4891,4292,5771
3.94754,1115.3244,-95,85492,23.4393,4292,5771
4.37714,1021.3123,-94,85493,23.6385,4292,5670
3.90747,989.79672,-93,85494,23.6385,4292,5670
4.90717,1035.8202,-92,85495,23.5887,4292,5670
4.42589,1089.6274,-91,85496,23.5887,4292,5670
5.11368,1139.7515,-90,85497,23.5887,4292,5670
4.6343,1187.9048,-89,85498,23.4393,4292,5670
4.30796,1205.0163,-88,85499,23.3895,4292,5670
4.74111,1204.9007,-87,85500,23.5887,4292,5670
5.49398,1213.734,-86,85501,23.29,4292,5670
5.03853,1213.2169,-85,85502,23.4891,4292,5670
5.03759,1203.2033,-84,85503,23.5887,4288,5515
5.44953,1160.6699,-83,85504,23.6385,4288,5515
6.0657,1097.6415,-82,85505,23.6385,4288,5515
5.23441,1053.4583,-81,85506,23.5887,4288,5515
4.69665,1012.6191,-80,85507,23.3895,4288,5515
4.76919,954.97925,-79,85508,23.6385,4288,5515
2.91337,896.2341,-78,85509,23.4891,4288,5515
3.60668,838.09997,-77,85510,23.4891,4288,5515
3.47881,811.52628,-76,85511,23.6385,4288,5515
2.99249,806.78948,-75,85512,23.4891,4288,5515
3.81235,776.99001,-74,85513,23.6385,4283,5277
3.60668,708.46023,-73,85514,23.3895,4283,5277
4.21169,619.07451,-72,85515,23.6385,4283,5277
3.17646,521.8254,-71,85516,23.4393,4283,5277
3.50884,417.89625,-70,85517,23.4393,4283,5277
4.02884,319.8446,-69,85518,23.6385,4283,5277
4.21735,251.054,-68,85519,23.4393,4283,5277
4.28354,216.19772,-67,85520,23.4393,4283,5277
4.90328,196.78151,-66,85521,23.5887,4283,5277
4.63224,178.41577,-65,85522,23.3895,4283,5277
5.29329,158.71981,-64,85523,23.3895,4293,5112
5.26801,143.66452,-63,85524,23.738,4293,5112
5.64551,147.81404,-62,85525,23.3895,4293,5112
5.43025,175.09079,-61,85526,23.4393,4293,5112
5.53634,210.0646,-60,85527,23.4891,4293,5112
5.84226,244.72775,-59,85528,23.5887,4293,5112
5.37198,290.82098,-58,85529,23.3895,4293,5112
5.59546,341.92631,-57,85530,23.5887,4293,5112
5.96423,392.9056,-56,85531,23.5887,4293,5112
5.86832,428.07394,-55,85532,23.4393,4293,5112
4.73003,460.20704,-54,85533,23.4393,4285,5095
4.88379,517.8372,-53,85534,23.5887,4285,5095
5.02621,587.13624,-52,85535,23.4891,4285,5095
4.42589,654.60146,-51,85536,23.4393,4285,5095
4.76418,720.22632,-50,85537,23.4891,4285,5095
4.61574,772.4221,-49,85538,23.5887,4285,5095
5.0659,842.40073,-48,85539,23.3895,4285,5095
4.51442,928.39339,-47,85540,23.5887,4285,5095
4.33774,1015.8321,-46,85541,23.6385,4285,5095
5.22894,1096.5416,-45,85542,23.29,4285,5095
5.07906,1175.1033,-44,85543,23.5887,4284,5215
4.65586,1248.0595,-43,85544,23.4891,4284,5215
4.51865,1306.3667,-42,85545,23.4393,4284,5215
4.43342,1368.8632,-41,85546,23.738,4284,5215
5.1388,1434.1425,-40,85547,23.4393,4284,5215
4.25786,1479.6044,-39,85548,23.2402,4284,5215
5.16564,1516.2258,-38,85549,23.3895,4284,5215
4.73205,1568.8263,-37,85550,23.4891,4284,5215
4.63224,1636.7143,-36,85551,23.3895,4284,5215
4.92753,1693.135,-35,85552,23.6385,4284,5215
5.1905,1715.7974,-34,85553,23.738,4282,5630
6.02706,1734.4835,-33,85554,23.3895,4282,5630
5.4792,1768.254,-32,85555,23.4891,4282,5630
5.19785,1805.6105,-31,85556,23.4891,4282,5630
4.75015,1827.3686,-30,85557,23.738,4282,5630
5.83981,1835.7473,-29,85558,23.3895,4282,5630
6.35441,1842.5564,-28,85559,23.4393,4282,5630
5.58095,1856.2757,-27,85560,23.6385,4282,5630
5.91365,1866.9979,-26,85561,23.3895,4282,5630
6.38585,1864.895,-25,85562,23.4393,4282,5630
6.99726,1847.9411,-24,85563,23.4891,4303,6384
6.94733,1805.7794,-23,85564,23.4891,4303,6384
5.48442,1757.824,-22,85565,23.4393,4303,6384
5.24624,1727.6508,-21,85566,23.3895,4303,6384
6.38436,1709.971,-20,85567,23.4393,4303,6384
5.84879,1686.8279,-19,85568,23.4891,4303,6384
5.71769,1670.224,-18,85569,23.5887,4303,6384
5.56384,1670.1003,-17,85570,23.4393,4303,6384
5.30769,1695.7527,-16,85571,23.4393,4303,6384
4.9343,1707.1239,-15,85572,23.6385,4303,6384
5.46701,1707.4136,-14,85573,23.5887,4317,7507
4.85539,1698.3688,-13,85574,23.6385,4317,7507
6.27892,1672.4236,-12,85575,23.5887,4317,7507
5.8886,1625.5927,-11,85576,23.4393,4317,7507
6.32131,1565.4492,-10,85577,23.4393,4317,7507
5.28518,1505.4914,-9,85578,23.6385,4317,7507
5.41002,1463.6753,-8,85579,23.4393,4317,7507
5.6649,1429.6282,-7,85580,23.6385,4317,7507
5.37996,1399.7234,-6,85581,23.3895,4317,7507
6.16241,1377.4942,-5,85582,23.4891,4317,7507
5.72602,1373.3883,-4,85583,23.6385,4325,8940
5.73517,1388.164,-3,85584,23.4891,4325,8940
4.88379,1392.936,-2,85585,23.4891,4325,8940
14.7784,1327.9193,-1,85586,23.4891,4325,8940
32.205,957.40425,0,85587,23.4891,4325,8940
21.7388,783.27345,1,85588,23.3895,4325,8940
4.98812,1295.2172,2,85589,23.6385,4325,8940
11.2834,1356.9195,3,85590,23.4393,4325,8940
13.1477,666.99743,4,85591,23.3895,4325,8940
12.5369,1017.9473,5,85592,23.4891,4325,8940
9.69899,1164.7124,6,85593,23.6385,4328,10327
11.1572,874.17572,7,85594,23.4891,4328,10327
5.82182,542.94128,8,85595,23.6385,4328,10327
4.51865,314.84224,9,85596,23.5887,4328,10327
5.80788,197.66471,10,85597,23.6385,4328,10327
5.62436,189.63504,11,85598,23.5887,4328,10327
3.69807,230.18626,12,85599,23.738,4328,10327
2.6003,267.08153,13,85600,23.4891,4328,10327
3.35318,270.63134,14,85601,23.5887,4328,10327
3.65527,305.48941,15,85602,23.6385,4328,10327
4.12128,364.07532,16,85603,23.29,4317,10691
2.79815,376.29605,17,85604,23.5887,4317,10691
3.55206,329.16796,18,85605,23.4393,4317,10691
2.80326,293.57375,19,85606,23.4393,4317,10691
3.02261,323.33928,20,85607,23.738,4317,10691
1.45505,417.58393,21,85608,23.3895,4317,10691
1.52231,479.4615,22,85609,23.5887,4317,10691
1.79273,473.98904,23,85610,23.6385,4317,10691
0.895034,465.40332,24,85611,23.6385,4317,10691
0.981433,471.10478,25,85612,23.4393,4317,10691
1.93842,461.75082,26,85613,23.4393,4332,10435
1.70829,446.46279,27,85614,23.6385,4332,10435
1.57466,437.62256,28,85615,23.4891,4332,10435
1.66303,430.68846,29,85616,23.4393,4332,10435
1.69427,434.21083,30,85617,23.3895,4332,10435
1.25821,440.10243,31,85618,23.5887,4332,10435
1.89865,452.19001,32,85619,23.738,4332,10435
1.26577,462.35441,33,85620,23.4891,4332,10435
2.25457,460.47488,34,85621,23.4393,4332,10435
2.84044,455.60567,35,85622,23.3895,4332,10435
3.27549,456.80058,36,85623,23.3895,4327,10016
4.33774,478.63436,37,85624,23.6385,4327,10016
4.01342,526.32152,38,85625,23.4891,4327,10016
3.8136,559.03375,39,85626,23.4891,4327,10016
4.22751,576.9431,40,85627,23.5887,4327,10016
3.66178,606.66423,41,85628,23.5887,4327,10016
3.07268,650.32621,42,85629,23.4393,4327,10016
2.09222,675.79688,43,85630,23.6385,4327,10016
2.69397,666.44531,44,85631,23.5887,4327,10016
1.67161,658.20771,45,85632,23.4393,4327,10016
2.85718,669.45098,46,85633,23.4393,4336,9378
2.36199,681.19221,47,85634,23.4891,4336,9378
1.75238,680.29787,48,85635,23.5887,4336,9378
2.87879,680.65597,49,85636,23.6385,4336,9378
2.27143,690.04854,50,85637,23.5887,4336,9378
2.15287,700.90703,51,85638,23.6385,4336,9378
2.89366,705.70127,52,85639,23.3895,4336,9378
2.94268,703.66036,53,85640,23.4393,4336,9378
2.43358,703.9615,54,85641,23.738,4336,9378
3.13262,706.50912,55,85642,23.4891,4336,9378
2.63491,708.94145,56,85643,23.4891,4344,8481
3.18545,707.32993,57,85644,23.6385,4344,8481
2.17052,707.94924,58,85645,23.6385,4344,8481
3.06647,708.21051,59,85646,23.29,4344,8481
2.18584,706.01516,60,85647,23.4393,4344,8481
2.33151,702.83737,61,85648,23.4891,4344,8481
2.56893,695.56021,62,85649,23.4393,4344,8481
1.69708,684.75285,63,85650,23.6385,4344,8481
2.83876,669.47956,64,85651,23.6385,4344,8481
4.37714,651.87582,65,85652,23.4891,4344,8481
2.63129,632.62534,66,85653,23.6385,4368,7621
2.54094,609.14338,67,85654,23.4891,4368,7621
1.98461,583.09799,68,85655,23.4891,4368,7621
3.15235,557.48888,69,85656,23.4891,4368,7621
2.38409,533.33984,70,85657,23.5887,4368,7621
3.03364,508.2699,71,85658,23.3895,4368,7621
3.37303,481.36231,72,85659,23.6385,4368,7621
2.78449,455.15412,73,85660,23.3895,4368,7621
3.26966,429.68018,74,85661,23.6385,4368,7621
2.45115,406.28158,75,85662,23.4393,4368,7621
3.06336,381.60191,76,85663,23.4891,4386,7055
3.3617,354.71335,77,85664,23.4891,4386,7055
2.60579,330.57833,78,85665,23.5887,4386,7055
2.27981,308.52414,79,85666,23.3895,4386,7055
2.72389,286.95625,80,85667,23.6385,4386,7055
2.77591,264.29488,81,85668,23.4393,4386,7055
4.19012,243.91478,82,85669,23.4891,4386,7055
3.09741,228.1322,83,85670,23.3895,4386,7055
3.23595,213.19216,84,85671,23.5887,4386,7055
3.28131,200.88301,85,85672,23.738,4386,7055
3.43467,193.8402,86,85673,23.6385,4423,6782
2.24397,190.607,87,85674,23.4393,4423,6782
2.92969,191.34135,88,85675,23.3895,4423,6782
2.83371,198.33304,89,85676,23.4393,4423,6782
1.58973,210.52766,90,85677,23.6385,4423,6782
2.9248,226.81022,91,85678,23.4393,4423,6782
3.09125,246.22838,92,85679,23.4891,4423,6782
3.6304,266.84481,93,85680,23.4393,4423,6782
2.87879,288.39038,94,85681,23.7878,4423,6782
2.91009,310.93266,95,85682,23.4891,4423,6782
3.41657,334.77433,96,85683,23.6385,4461,6748
2.03912,356.30423,97,85684,23.5887,4461,6748
2.87382,378.26503,98,85685,23.4891,4461,6748
1.59273,400.21854,99,85686,23.738,4461,6748
2.60762,422.2314,100,85687,23.6385,4461,6748
