Linear acceleration,Rotational velocity,Time values,Absolute time values,Temperature,Ambient light,Reflected light
0.710948,202.11677,-2000,5455,21.8463,6020,552
1.02423,201.06151,-1999,5456,21.7467,6020,552
0.921287,201.8978,-1998,5457,21.9956,6020,552
0.655098,202.79737,-1997,5458,21.9459,6020,552
0.690534,204.49984,-1996,5459,22.0952,6020,552
0.41432,207.83398,-1995,5460,21.8463,6020,552
1.60466,212.44948,-1994,5461,21.7467,6020,552
0.900346,213.26679,-1993,5462,22.145,6020,552
0.750112,214.11874,-1992,5463,22.0952,6061,552
1.00068,212.42921,-1991,5464,21.7965,6061,552
1.38107,212.60377,-1990,5465,21.9956,6061,552
0.447517,213.48067,-1989,5466,21.7467,6061,552
0.905627,214.83647,-1988,5467,22.0952,6061,552
1.44188,214.8889,-1987,5468,22.145,6061,552
0.840071,215.35286,-1986,5469,21.8463,6061,552
1.23526,217.41744,-1985,5470,21.9956,6061,552
1.63702,219.14549,-1984,5471,21.9956,6061,552
0.525895,221.24725,-1983,5472,21.7965,6061,552
1.07422,220.89756,-1982,5473,21.8463,6113,553
0.793363,217.05794,-1981,5474,21.9459,6113,553
1.77401,213.92699,-1980,5475,21.7965,6113,553
1.40163,212.44156,-1979,5476,21.9459,6113,553
1.31745,213.12215,-1978,5477,21.7467,6113,553
1.40163,214.2744,-1977,5478,21.7467,6113,553
2.03444,212.95057,-1976,5479,21.8463,6113,553
1.02423,213.02529,-1975,5480,21.9459,6113,553
1.26953,211.93705,-1974,5481,22.0952,6113,553
2.91991,210.92863,-1973,5482,21.7467,6113,553
1.09183,208.13643,-1972,5483,21.5974,6143,553
0.840071,205.33533,-1971,5484,21.8463,6143,553
1.58973,200.88765,-1970,5485,21.7467,6143,553
1.12623,199.40095,-1969,5486,21.9956,6143,553
1.57163,195.31029,-1968,5487,21.7965,6143,553
0.805294,196.94451,-1967,5488,21.9459,6143,553
1.17188,196.4758,-1966,5489,21.6472,6143,553
1.4118,195.31864,-1965,5490,21.7965,6143,553
0.507437,196.92787,-1964,5491,21.9956,6143,553
1.98461,200.34252,-1963,5492,21.7965,6143,553
1.93842,203.37269,-1962,5493,21.5974,6212,558
1.80598,207.08436,-1961,5494,21.7965,6212,558
1.96529,212.13941,-1960,5495,21.8463,6212,558
1.12623,216.99202,-1959,5496,21.8463,6212,558
1.15548,219.32642,-1958,5497,21.7965,6212,558
1.22752,222.51141,-1957,5498,21.9459,6212,558
1.65152,226.54951,-1956,5499,21.7467,6212,558
1.37415,227.23168,-1955,5500,21.6472,6212,558
1.07865,226.4378,-1954,5501,21.7467,6212,558
1.06082,226.6968,-1953,5502,21.7965,6212,558
1.21188,226.11963,-1952,5503,21.7467,6357,560
1.31383,226.01189,-1951,5504,22.0952,6357,560
1.18402,226.78351,-1950,5505,21.9459,6357,560
0.41432,226.46096,-1949,5506,22.145,6357,560
1.19205,223.70999,-1948,5507,21.7965,6357,560
0.534885,221.32799,-1947,5508,21.9459,6357,560
1.4219,220.16047,-1946,5509,21.6472,6357,560
1.88099,220.21234,-1945,5510,21.7467,6357,560
0.921287,218.51677,-1944,5511,21.7467,6357,560
1.05179,214.84368,-1943,5512,21.9956,6357,560
1.4219,214.66529,-1942,5513,21.9459,6599,562
0.390625,214.58312,-1941,5514,21.9459,6599,562
0.941763,212.26988,-1940,5515,21.7965,6599,562
1.68298,210.52182,-1939,5516,22.0952,6599,562
1.4118,209.24643,-1938,5517,21.7467,6599,562
1.55638,207.61566,-1937,5518,21.8463,6599,562
1.3029,206.91653,-1936,5519,21.8463,6599,562
0.851347,207.34051,-1935,5520,21.7467,6599,562
0.365396,205.97176,-1934,5521,21.7467,6599,562
1.10916,202.70737,-1933,5522,21.7467,6599,562
0.840071,198.97483,-1932,5523,21.8463,6734,564
1.67161,197.75244,-1931,5524,21.8463,6734,564
0.478416,195.82848,-1930,5525,21.7467,6734,564
1.14304,192.63535,-1929,5526,21.7965,6734,564
1.1596,188.63786,-1928,5527,21.9459,6734,564
0.601994,184.02184,-1927,5528,21.7467,6734,564
0.905627,180.44623,-1926,5529,21.9956,6734,564
1.09183,174.94452,-1925,5530,21.8463,6734,564
0.655098,168.90584,-1924,5531,21.7467,6734,564
0.961803,162.77448,-1923,5532,21.9956,6734,564
0.828641,156.65184,-1922,5533,21.7965,6734,564
0.323889,150.42916,-1921,5534,21.9956,6734,564
1.30655,142.86853,-1920,5535,21.6472,6734,564
1.96529,135.47594,-1919,5536,21.8463,6734,564
1.45505,130.53318,-1918,5537,22.0952,6734,564
0.717624,125.57405,-1917,5538,21.7467,6734,564
1.00068,120.55814,-1916,5539,21.9459,6734,564
0.662337,116.20029,-1915,5540,21.9459,6734,564
0.365396,111.85358,-1914,5541,21.9459,6734,564
0.601994,108.21194,-1913,5542,21.8463,6734,564
0.552427,103.71983,-1912,5543,21.8463,6668,571
0.921287,99.599651,-1911,5544,21.7965,6668,571
1.42859,96.560781,-1910,5545,21.9956,6668,571
0.926449,93.996439,-1909,5546,21.7965,6668,571
0.811194,91.725586,-1908,5547,21.7965,6668,571
1.22752,90.184602,-1907,5548,21.7467,6668,571
1.05631,87.717946,-1906,5549,21.8463,6668,571
1.19205,84.720315,-1905,5550,21.9956,6668,571
0.921287,82.233815,-1904,5551,21.7965,6668,571
0.799351,81.114414,-1903,5552,21.9956,6668,571
0.750112,80.704819,-1902,5553,22.0952,6571,580
0.662337,80.547261,-1901,5554,21.9459,6571,580
1.27702,81.002644,-1900,5555,21.8463,6571,580
1.89614,81.593846,-1899,5556,21.7467,6571,580
1.92608,82.69883,-1898,5557,21.8463,6571,580
1.32467,82.820726,-1897,5558,21.7467,6571,580
1.54408,83.319136,-1896,5559,21.7965,6571,580
0.737289,85.646048,-1895,5560,21.6472,6571,580
1.16371,87.428339,-1894,5561,21.9459,6571,580
1.24296,88.068803,-1893,5562,21.8463,6571,580
0.884315,89.105726,-1892,5563,21.9459,6540,587
0.632885,90.349433,-1891,5564,21.8463,6540,587
0.704209,90.459126,-1890,5565,21.8463,6540,587
0.577742,91.38453,-1889,5566,21.7965,6540,587
0.85693,92.697675,-1888,5567,21.8463,6540,587
1.02423,94.695332,-1887,5568,21.7965,6540,587
0.632885,96.740087,-1886,5569,21.8463,6540,587
0.239208,98.547115,-1885,5570,21.7467,6540,587
0.323889,101.31402,-1884,5571,21.8463,6540,587
0.577742,103.65926,-1883,5572,21.7965,6540,587
0.239208,105.58017,-1882,5573,21.7965,6541,586
0.458048,107.45378,-1881,5574,21.7467,6541,586
0.625305,110.93855,-1880,5575,21.8463,6541,586
2.45892,118.02211,-1879,5576,21.7965,6541,586
1.73047,126.45524,-1878,5577,21.7965,6541,586
0.352105,133.65584,-1877,5578,21.7965,6541,586
1.17594,141.02635,-1876,5579,21.9459,6541,586
0.308816,149.37935,-1875,5580,21.8463,6541,586
0.218366,158.34298,-1874,5581,21.7467,6541,586
0.436732,169.07219,-1873,5582,21.8463,6541,586
0.78733,182.63428,-1872,5583,21.7965,6764,580
0.625305,196.9102,-1871,5584,21.8463,6764,580
0.534885,200.17276,-1870,5585,21.9459,6764,580
1.20399,202.88809,-1869,5586,21.9459,6764,580
0.662337,209.71346,-1868,5587,21.8463,6764,580
1.27328,226.32435,-1867,5588,21.8463,6764,580
1.36019,239.07947,-1866,5589,21.7467,6764,580
0.338291,245.97668,-1865,5590,21.8463,6764,580
0.834375,251.89593,-1864,5591,21.7965,6764,580
0.560992,259.79608,-1863,5592,21.9956,6764,580
0.717624,265.08422,-1862,5593,21.9459,7150,567
0.737289,262.75833,-1861,5594,21.7467,7150,567
0.76272,258.74613,-1860,5595,21.7467,7150,567
1.40163,258.9994,-1859,5596,21.9956,7150,567
0.458048,254.76893,-1858,5597,21.9459,7150,567
1.01956,255.78141,-1857,5598,21.8463,7150,567
1.01016,256.9166,-1856,5599,22.145,7150,567
0.805294,266.08083,-1855,5600,21.8463,7150,567
0.41432,272.43843,-1854,5601,21.7467,7150,567
1.33185,272.20059,-1853,5602,21.8463,7150,567
1.32827,265.28028,-1852,5603,21.9956,7752,559
1.73872,259.59445,-1851,5604,22.0952,7752,559
0.817051,262.91707,-1850,5605,21.8463,7752,559
1.00543,272.27495,-1849,5606,21.9956,7752,559
0.458048,275.6192,-1848,5607,21.9459,7752,559
4.08409,268.22237,-1847,5608,22.0952,7752,559
0.239208,265.66505,-1846,5609,21.7965,7752,559
0.966748,278.76821,-1845,5610,21.7965,7752,559
1.31383,294.55265,-1844,5611,21.8463,7752,559
0.276214,299.79825,-1843,5612,21.9459,7752,559
0.981433,289.18238,-1842,5613,21.7467,8639,547
0.425674,280.55694,-1841,5614,21.6472,8639,547
0.169146,283.4542,-1840,5615,21.9459,8639,547
0.308816,292.29297,-1839,5616,21.7965,8639,547
0.884315,305.35144,-1838,5617,21.7965,8639,547
3.30015,309.29635,-1837,5618,21.9956,8639,547
1.24679,307.23798,-1836,5619,21.7467,8639,547
1.42525,310.68796,-1835,5620,21.7467,8639,547
0.710948,325.17792,-1834,5621,21.7467,8639,547
1.21581,345.51887,-1833,5622,21.8463,8639,547
0.900346,351.38921,-1832,5623,21.7467,9747,530
1.77938,337.42038,-1831,5624,22.0952,9747,530
0.690534,327.72053,-1830,5625,21.8463,9747,530
1.33185,332.27934,-1829,5626,21.8463,9747,530
1.09183,312.887,-1828,5627,21.7965,9747,530
0.577742,296.67943,-1827,5628,21.9956,9747,530
0.577742,289.17656,-1826,5629,22.0952,9747,530
0.793363,268.17447,-1825,5630,21.9956,9747,530
0.905627,241.71531,-1824,5631,21.7467,9747,530
1.20794,228.3113,-1823,5632,21.9459,9747,530
1.40163,223.82403,-1822,5633,21.7467,10459,528
1.12623,216.97764,-1821,5634,21.7965,10459,528
0.601994,197.81862,-1820,5635,22.145,10459,528
1.09619,176.01345,-1819,5636,21.8463,10459,528
1.27702,162.62721,-1818,5637,21.6472,10459,528
1.32827,162.95043,-1817,5638,21.8463,10459,528
2.66729,172.04805,-1816,5639,21.7467,10459,528
1.13886,165.05734,-1815,5640,21.7467,10459,528
1.65152,145.67551,-1814,5641,21.8463,10459,528
1.59273,129.89916,-1813,5642,21.9956,10459,528
0.845728,125.75452,-1812,5643,21.9459,11160,526
0.895034,122.01299,-1811,5644,22.0952,11160,526
1.96287,117.10628,-1810,5645,21.8463,11160,526
1.25821,105.41484,-1809,5646,21.9956,11160,526
1.54099,88.712789,-1808,5647,22.0952,11160,526
1.74966,74.110052,-1807,5648,21.8463,11160,526
0.737289,73.64149,-1806,5649,21.9956,11160,526
2.65115,72.654708,-1805,5650,21.7965,11160,526
1.66303,54.464293,-1804,5651,21.9459,11160,526
1.24296,40.739492,-1803,5652,21.5974,11160,526
1.37067,36.641636,-1802,5653,21.9459,11787,523
1.68863,42.668245,-1801,5654,21.7467,11787,523
0.921287,59.659672,-1800,5655,21.7467,11787,523
1.17594,57.132297,-1799,5656,21.7965,11787,523
1.86827,44.680736,-1798,5657,21.7965,11787,523
1.33185,58.927855,-1797,5658,21.7467,11787,523
1.28447,70.908773,-1796,5659,22.0952,11787,523
4.50067,82.133819,-1795,5660,21.7467,11787,523
1.42525,98.891495,-1794,5661,21.9956,11787,523
0.956832,98.248706,-1793,5662,21.7467,11787,523
1.07422,131.76889,-1792,5663,21.8463,12191,524
2.24609,157.20571,-1791,5664,21.9459,12191,524
1.67446,140.37141,-1790,5665,21.8463,12191,524
1.32827,142.59871,-1789,5666,22.0952,12191,524
0.946812,171.76681,-1788,5667,21.8463,12191,524
0.981433,192.85989,-1787,5668,21.7467,12191,524
0.402647,195.81296,-1786,5669,21.7467,12191,524
0.569429,193.39471,-1785,5670,21.9459,12191,524
0.717624,197.66817,-1784,5671,21.8463,12191,524
1.36019,206.66334,-1783,5672,21.7467,12191,524
0.743728,213.03452,-1782,5673,21.7467,12259,519
1.23912,216.07287,-1781,5674,21.8463,12259,519
1.3461,217.91387,-1780,5675,21.7965,12259,519
0.966748,221.23701,-1779,5676,21.8463,12259,519
0.873464,225.32024,-1778,5677,21.8463,12259,519
1.04268,229.60783,-1777,5678,21.9459,12259,519
0.365396,232.61138,-1776,5679,21.9956,12259,519
0.845728,233.84011,-1775,5680,21.7965,12259,519
1.17998,235.70149,-1774,5681,21.9459,12259,519
0.878906,239.08227,-1773,5682,21.6472,12259,519
1.31745,242.17538,-1772,5683,21.8463,12225,517
0.878906,242.7559,-1771,5684,21.9459,12225,517
1.01956,242.04438,-1770,5685,21.7965,12225,517
1.3029,241.68581,-1769,5686,21.8463,12225,517
1.48103,241.82391,-1768,5687,21.9956,12225,517
0.78733,242.40088,-1767,5688,21.8463,12225,517
1.24296,239.78689,-1766,5689,21.7467,12225,517
1.17594,234.85998,-1765,5690,21.7965,12225,517
0.921287,230.23467,-1764,5691,22.145,12225,517
0.793363,225.57458,-1763,5692,21.7965,12225,517
1.26577,220.86038,-1762,5693,21.7965,12034,517
0.730792,214.75169,-1761,5694,21.8463,12034,517
0.276214,208.68737,-1760,5695,22.0952,12034,517
0.497951,202.66951,-1759,5696,21.6472,12034,517
0.560992,196.27137,-1758,5697,21.9459,12034,517
0.799351,188.50988,-1757,5698,21.7467,12034,517
0.793363,179.45959,-1756,5699,21.7467,12034,517
1.10485,169.80459,-1755,5700,21.7965,12034,517
0.697405,159.6864,-1754,5701,21.8463,12034,517
2.19238,149.73012,-1753,5702,21.8463,12034,517
1.27328,141.0255,-1752,5703,22.0952,11925,511
0.828641,133.67368,-1751,5704,21.7467,11925,511
0.690534,127.06581,-1750,5705,21.9459,11925,511
1.06082,120.79479,-1749,5706,21.7965,11925,511
0.690534,114.97578,-1748,5707,22.0952,11925,511
1.09183,110.20245,-1747,5708,21.7467,11925,511
0.793363,106.03843,-1746,5709,21.9459,11925,511
0.981433,101.71893,-1745,5710,21.7467,11925,511
1.09183,97.117732,-1744,5711,21.9956,11925,511
1.00068,93.285123,-1743,5712,22.145,11925,511
1.23912,91.341064,-1742,5713,21.8463,11947,501
1.24296,89.991738,-1741,5714,21.7965,11947,501
1.54099,88.092234,-1740,5715,21.8463,11947,501
0.76272,86.47077,-1739,5716,21.9956,11947,501
1.04268,86.265458,-1738,5717,21.8463,11947,501
0.811194,87.049144,-1737,5718,21.8463,11947,501
0.525895,88.285365,-1736,5719,21.9956,11947,501
0.834375,89.916449,-1735,5720,22.0952,11947,501
0.534885,92.30566,-1734,5721,21.8463,11947,501
0.840071,95.8063,-1733,5722,21.8463,11947,501
1.12198,103.1315,-1732,5723,22.0952,11901,501
0.41432,124.41672,-1731,5724,21.7467,11901,501
1.18402,146.74146,-1730,5725,21.8463,11901,501
1.25061,140.63618,-1729,5726,22.0952,11901,501
1.6165,119.77387,-1728,5727,21.8463,11901,501
0.458048,95.584251,-1727,5728,21.8463,11901,501
0.768946,82.955108,-1726,5729,21.7467,11901,501
1.1472,89.980477,-1725,5730,21.8463,11901,501
1.25061,105.26149,-1724,5731,22.0952,11901,501
1.23526,124.80966,-1723,5732,21.9459,11901,501
1.13045,137.53316,-1722,5733,21.9459,11779,495
1.25821,138.8599,-1721,5734,22.0952,11779,495
0.981433,133.29486,-1720,5735,21.7965,11779,495
1.30655,128.71219,-1719,5736,21.7467,11779,495
0.793363,126.19154,-1718,5737,21.7467,11779,495
1.20794,127.36643,-1717,5738,21.8463,11779,495
1.18402,129.82825,-1716,5739,21.7965,11779,495
0.78733,131.06578,-1715,5740,21.7965,11779,495
1.85547,130.22883,-1714,5741,21.9459,11779,495
0.525895,128.67589,-1713,5742,22.0952,11779,495
0.365396,126.8045,-1712,5743,21.9956,11779,495
0.768946,127.2163,-1711,5744,21.7467,11779,495
1.70549,129.51085,-1710,5745,21.7467,11779,495
0.811194,131.60844,-1709,5746,21.9459,11779,495
1.22752,132.92661,-1708,5747,21.7965,11779,495
1.25442,133.89199,-1707,5748,21.7965,11779,495
1.22752,135.20663,-1706,5749,21.6472,11779,495
1.39822,136.3692,-1705,5750,21.9956,11779,495
1.62826,136.90054,-1704,5751,22.0952,11779,495
0.41432,137.03305,-1703,5752,21.9956,11779,495
1.40163,137.5239,-1702,5753,22.0952,11655,489
1.76323,137.40634,-1701,5754,21.9459,11655,489
2.8705,137.40715,-1700,5755,21.7467,11655,489
0.497951,136.17566,-1699,5756,21.9459,11655,489
0.878906,135.37625,-1698,5757,22.0952,11655,489
0.730792,134.21685,-1697,5758,21.9956,11655,489
1.51917,132.71631,-1696,5759,21.7965,11655,489
0.840071,131.84193,-1695,5760,21.7467,11655,489
1.36019,131.4017,-1694,5761,21.9459,11655,489
0.78733,131.22422,-1693,5762,21.9956,11655,489
1.27328,130.73343,-1692,5763,22.0952,11554,492
1.01956,129.37962,-1691,5764,22.145,11554,492
1.11345,127.5817,-1690,5765,21.9459,11554,492
1.1596,124.70084,-1689,5766,21.9956,11554,492
0.956832,122.01787,-1688,5767,21.7467,11554,492
0.625305,120.32313,-1687,5768,21.7965,11554,492
1.4118,118.50167,-1686,5769,21.7965,11554,492
1.00068,116.58137,-1685,5770,22.0952,11554,492
0.995902,115.4991,-1684,5771,21.7467,11554,492
1.27328,114.004,-1683,5772,21.7467,11554,492
0.534885,110.62278,-1682,5773,21.9956,11381,491
0.625305,107.62352,-1681,5774,21.7965,11381,491
0.625305,105.83644,-1680,5775,21.7467,11381,491
0.966748,103.92056,-1679,5776,22.0952,11381,491
0.878906,101.62315,-1678,5777,21.9459,11381,491
0.845728,100.49976,-1677,5778,21.7965,11381,491
0.569429,100.10153,-1676,5779,21.8463,11381,491
0.488281,99.817843,-1675,5780,21.7467,11381,491
0.85693,99.394323,-1674,5781,21.7965,11381,491
1.07865,98.779022,-1673,5782,21.9459,11381,491
0.931581,98.61385,-1672,5783,21.7965,11197,494
1.84257,99.223868,-1671,5784,21.7467,11197,494
1.04268,100.07406,-1670,5785,21.8463,11197,494
3.00997,100.47002,-1669,5786,21.7467,11197,494
1.42525,101.41127,-1668,5787,21.7965,11197,494
1.33185,102.502,-1667,5788,21.9459,11197,494
0.921287,103.24825,-1666,5789,21.9956,11197,494
1.55638,104.95101,-1665,5790,21.8463,11197,494
1.19604,107.80537,-1664,5791,21.8463,11197,494
1.87846,110.14111,-1663,5792,21.8463,11197,494
1.00068,112.11014,-1662,5793,21.7965,10952,492
1.40163,115.50316,-1661,5794,21.9459,10952,492
0.916097,119.83339,-1660,5795,22.145,10952,492
0.690534,123.19459,-1659,5796,21.8463,10952,492
2.15287,125.83288,-1658,5797,21.9459,10952,492
1.09183,129.04535,-1657,5798,21.9956,10952,492
0.560992,133.19465,-1656,5799,21.7965,10952,492
0.697405,136.37101,-1655,5800,21.9459,10952,492
0.0976563,138.90856,-1654,5801,21.8463,10952,492
1.45176,141.48839,-1653,5802,21.9459,10952,492
0.525895,144.43544,-1652,5803,21.7965,10632,494
0.805294,149.2597,-1651,5804,21.8463,10632,494
0.436732,152.56548,-1650,5805,21.7467,10632,494
0.976563,152.43728,-1649,5806,22.0952,10632,494
1.17998,152.82467,-1648,5807,22.0952,10632,494
1.32827,154.34602,-1647,5808,21.7965,10632,494
0.569429,154.04296,-1646,5809,21.8463,10632,494
0.85693,151.88927,-1645,5810,21.7965,10632,494
0.717624,149.55008,-1644,5811,21.7467,10632,494
1.06082,147.33421,-1643,5812,21.8463,10632,494
0.683594,146.16323,-1642,5813,21.9459,10328,501
1.54099,145.89292,-1641,5814,21.7965,10328,501
1.15135,145.89226,-1640,5815,21.9956,10328,501
0.617632,145.88342,-1639,5816,21.8463,10328,501
0.323889,145.13364,-1638,5817,21.7965,10328,501
2.10585,145.4905,-1637,5818,21.9956,10328,501
1.59572,147.39387,-1636,5819,22.145,10328,501
1.00543,150.37358,-1635,5820,21.8463,10328,501
0.488281,152.49055,-1634,5821,21.7467,10328,501
1.06082,151.55554,-1633,5822,21.9956,10328,501
0.981433,149.84199,-1632,5823,21.7467,10200,496
1.25061,149.41496,-1631,5824,21.8463,10200,496
1.02423,147.45462,-1630,5825,21.7965,10200,496
1.17188,144.40753,-1629,5826,21.6472,10200,496
0.447517,140.77465,-1628,5827,21.7467,10200,496
1.73872,137.91466,-1627,5828,21.7467,10200,496
0.552427,137.9907,-1626,5829,21.7965,10200,496
1.38452,139.99134,-1625,5830,21.7467,10200,496
0.41432,141.34651,-1624,5831,21.8463,10200,496
1.01487,140.64269,-1623,5832,22.0952,10200,496
0.625305,138.61803,-1622,5833,21.8463,10098,495
0.98628,135.4832,-1621,5834,21.9956,10098,495
0.525895,130.10846,-1620,5835,22.0952,10098,495
1.20399,125.8192,-1619,5836,21.7965,10098,495
0.239208,124.15157,-1618,5837,21.9459,10098,495
0.840071,123.44429,-1617,5838,21.9459,10098,495
4.75717,120.47715,-1616,5839,21.7467,10098,495
1.38796,119.1572,-1615,5840,21.9956,10098,495
1.6341,117.75812,-1614,5841,21.8463,10098,495
0.488281,115.42056,-1613,5842,21.9956,10098,495
1.32467,113.51174,-1612,5843,21.9956,10010,495
1.30655,112.87069,-1611,5844,22.145,10010,495
0.478416,113.21941,-1610,5845,21.9956,10010,495
1.27328,113.86674,-1609,5846,21.8463,10010,495
1.19205,114.71142,-1608,5847,22.145,10010,495
1.04268,115.19486,-1607,5848,22.0952,10010,495
0.78733,115.1589,-1606,5849,21.9459,10010,495
0.828641,115.29184,-1605,5850,21.8463,10010,495
1.38107,115.15702,-1604,5851,21.7965,10010,495
1.57769,114.57266,-1603,5852,21.8463,10010,495
2.41193,113.92503,-1602,5853,21.7467,9898,499
1.15135,112.97995,-1601,5854,21.9956,9898,499
0.569429,112.322,-1600,5855,21.7965,9898,499
1.23526,111.92357,-1599,5856,21.8463,9898,499
1.66589,111.57233,-1598,5857,21.7467,9898,499
1.79539,111.97907,-1597,5858,21.8463,9898,499
1.43525,114.11394,-1596,5859,21.7965,9898,499
1.1596,114.83936,-1595,5860,21.7965,9898,499
2.16392,113.73534,-1594,5861,21.8463,9898,499
0.41432,112.96894,-1593,5862,21.7965,9898,499
1.44188,112.35218,-1592,5863,21.9956,9785,493
1.09619,111.52878,-1591,5864,21.7965,9785,493
0.683594,110.61578,-1590,5865,21.7467,9785,493
1.17594,110.61955,-1589,5866,21.7467,9785,493
1.37415,111.12838,-1588,5867,21.8463,9785,493
0.995902,110.14761,-1587,5868,21.7467,9785,493
1.13886,108.82053,-1586,5869,21.7467,9785,493
0.981433,109.60018,-1585,5870,21.8463,9785,493
1.13045,111.58595,-1584,5871,22.145,9785,493
1.31383,114.41902,-1583,5872,21.7965,9785,493
1.62826,117.34151,-1582,5873,21.7965,9674,491
0.976563,119.36617,-1581,5874,21.7965,9674,491
1.45176,120.67544,-1580,5875,21.8463,9674,491
1.73047,121.60709,-1579,5876,21.9956,9674,491
1.10916,123.52279,-1578,5877,21.8463,9674,491
1.60168,125.24878,-1577,5878,21.7467,9674,491
1.96529,126.26119,-1576,5879,21.9459,9674,491
1.17998,127.81397,-1575,5880,21.7467,9674,491
2.11037,128.47423,-1574,5881,21.8463,9674,491
1.41854,123.71295,-1573,5882,21.7965,9674,491
0.497951,118.01087,-1572,5883,21.9956,9560,491
1.17188,121.86836,-1571,5884,21.7965,9560,491
2.01087,124.3295,-1570,5885,21.9459,9560,491
1.38107,123.02786,-1569,5886,21.9956,9560,491
1.09183,126.04521,-1568,5887,21.9956,9560,491
0.931581,129.78095,-1567,5888,21.6472,9560,491
1.31383,128.55076,-1566,5889,22.0952,9560,491
1.13045,126.70422,-1565,5890,21.9956,9560,491
1.20794,127.3095,-1564,5891,21.9459,9560,491
1.19205,127.68496,-1563,5892,21.7467,9560,491
1.06977,125.58105,-1562,5893,21.7467,9353,489
1.23912,124.84553,-1561,5894,22.145,9353,489
1.79007,126.80097,-1560,5895,21.7467,9353,489
1.27702,128.58507,-1559,5896,21.9956,9353,489
1.76052,128.15877,-1558,5897,21.9459,9353,489
1.57163,125.74131,-1557,5898,21.7467,9353,489
1.34255,123.60142,-1556,5899,22.0952,9353,489
1.23912,121.82018,-1555,5900,21.8463,9353,489
0.640375,121.33605,-1554,5901,21.7467,9353,489
1.00068,120.7076,-1553,5902,21.8463,9353,489
0.640375,119.88411,-1552,5903,21.7965,9246,485
1.58973,119.57913,-1551,5904,21.7467,9246,485
1.07865,120.54973,-1550,5905,21.7965,9246,485
1.69708,121.04507,-1549,5906,21.8463,9246,485
1.00543,119.70069,-1548,5907,21.7965,9246,485
1.21188,118.50645,-1547,5908,21.7467,9246,485
1.72772,117.65438,-1546,5909,21.8463,9246,485
1.28817,117.72104,-1545,5910,21.7467,9246,485
0.889691,116.92966,-1544,5911,21.7467,9246,485
1.17594,113.06235,-1543,5912,21.9956,9246,485
0.961803,108.69887,-1542,5913,21.7965,9094,483
1.45505,105.37094,-1541,5914,21.9459,9094,483
1.57163,106.47625,-1540,5915,21.7467,9094,483
0.717624,108.3171,-1539,5916,21.7965,9094,483
1.67161,110.55858,-1538,5917,21.9459,9094,483
0.995902,111.57186,-1537,5918,21.7467,9094,483
1.27702,110.08746,-1536,5919,22.0952,9094,483
0.834375,106.31595,-1535,5920,21.9956,9094,483
0.507437,101.38658,-1534,5921,21.7965,9094,483
1.00068,95.620645,-1533,5922,22.0952,9094,483
0.710948,92.183698,-1532,5923,21.7467,9057,483
0.811194,96.356942,-1531,5924,21.9459,9057,483
0.560992,107.16001,-1530,5925,21.9459,9057,483
1.19604,114.22742,-1529,5926,21.8463,9057,483
0.981433,115.14751,-1528,5927,21.9956,9057,483
1.19205,113.5832,-1527,5928,21.7965,9057,483
0.793363,108.10372,-1526,5929,21.9956,9057,483
1.09619,100.4474,-1525,5930,22.145,9057,483
1.92608,88.595888,-1524,5931,21.9956,9057,483
1.39139,72.896728,-1523,5932,21.7467,9057,483
3.19293,63.689593,-1522,5933,21.8463,8975,482
0.697405,72.25418,-1521,5934,21.9459,8975,482
1.49385,87.639428,-1520,5935,21.7965,8975,482
0.525895,95.536847,-1519,5936,21.8463,8975,482
0.895034,107.81304,-1518,5937,21.9956,8975,482
1.21581,120.43157,-1517,5938,21.7965,8975,482
0.956832,116.30194,-1516,5939,22.0952,8975,482
1.23912,103.51721,-1515,5940,21.7467,8975,482
0.662337,91.650826,-1514,5941,21.8463,8975,482
1.51917,101.91124,-1513,5942,21.7965,8975,482
1.5807,144.66156,-1512,5943,21.7965,8893,479
1.38796,168.84866,-1511,5944,21.9459,8893,479
1.21188,156.62925,-1510,5945,22.0952,8893,479
0.507437,121.7587,-1509,5946,21.7965,8893,479
1.81388,122.34661,-1508,5947,21.8463,8893,479
2.68865,254.49192,-1507,5948,21.8463,8893,479
1.10916,117.67686,-1506,5949,21.9459,8893,479
1.30655,71.535807,-1505,5950,21.8463,8893,479
1.91864,89.571832,-1504,5951,21.7965,8893,479
0.488281,111.66518,-1503,5952,21.7965,8893,479
1.46484,117.80696,-1502,5953,21.7965,8839,479
1.02423,107.81704,-1501,5954,21.7965,8839,479
1.89614,93.666039,-1500,5955,21.7965,8839,479
1.17998,88.501818,-1499,5956,21.7467,8839,479
0.169146,83.669204,-1498,5957,21.7965,8839,479
1.44188,76.825395,-1497,5958,21.9956,8839,479
0.717624,62.361325,-1496,5959,21.7467,8839,479
0.497951,55.09078,-1495,5960,21.9956,8839,479
1.22363,51.737799,-1494,5961,22.0952,8839,479
0.717624,54.615245,-1493,5962,21.8463,8839,479
0.507437,59.730315,-1492,5963,21.9459,8839,479
1.44518,62.540637,-1491,5964,21.9459,8839,479
2.65833,64.68356,-1490,5965,21.9459,8839,479
0.560992,63.740928,-1489,5966,21.6472,8839,479
0.710948,59.566435,-1488,5967,21.9459,8839,479
0.577742,54.845581,-1487,5968,21.8463,8839,479
1.21188,51.503836,-1486,5969,21.8463,8839,479
0.799351,48.99462,-1485,5970,21.9459,8839,479
1.05179,47.548385,-1484,5971,21.8463,8839,479
1.34255,46.338669,-1483,5972,21.7965,8839,479
0.647778,45.337414,-1482,5973,21.9459,8860,476
1.4219,44.829896,-1481,5974,22.145,8860,476
1.22752,45.267352,-1480,5975,21.9956,8860,476
1.55638,45.470167,-1479,5976,21.8463,8860,476
0.811194,45.977099,-1478,5977,21.8463,8860,476
1.12198,47.995992,-1477,5978,22.0952,8860,476
1.18402,50.202371,-1476,5979,22.0952,8860,476
1.54717,51.364339,-1475,5980,21.7965,8860,476
1.45505,51.734343,-1474,5981,21.8463,8860,476
0.995902,52.422626,-1473,5982,21.7965,8860,476
1.10916,53.687351,-1472,5983,21.9956,8858,477
0.737289,54.340625,-1471,5984,21.8463,8858,477
1.87592,54.907221,-1470,5985,21.9956,8858,477
1.36019,56.508931,-1469,5986,21.7965,8858,477
1.25061,58.916601,-1468,5987,21.7965,8858,477
1.70829,61.645629,-1467,5988,21.9956,8858,477
0.862477,64.446767,-1466,5989,21.9459,8858,477
1.7767,67.621665,-1465,5990,21.7965,8858,477
1.63702,70.609947,-1464,5991,21.7467,8858,477
1.26577,74.048902,-1463,5992,21.9459,8858,477
1.07422,77.684112,-1462,5993,22.0952,8915,473
0.239208,81.360848,-1461,5994,22.0952,8915,473
1.23912,84.368515,-1460,5995,21.8463,8915,473
1.45505,87.050599,-1459,5996,21.9459,8915,473
1.54099,89.688457,-1458,5997,21.7467,8915,473
0.750112,92.16543,-1457,5998,21.9459,8915,473
0.710948,94.62725,-1456,5999,21.9956,8915,473
1.92112,97.467087,-1455,6000,21.7965,8915,473
1.1596,100.90549,-1454,6001,21.9956,8915,473
1.61945,104.47636,-1453,6002,21.9956,8915,473
0.828641,108.06615,-1452,6003,21.8463,8954,476
1.3637,111.48769,-1451,6004,21.8463,8954,476
1.8606,114.8149,-1450,6005,21.7467,8954,476
1.71386,118.71023,-1449,6006,22.0952,8954,476
1.55638,122.54315,-1448,6007,21.7467,8954,476
1.66589,125.98271,-1447,6008,21.9459,8954,476
2.16832,128.97051,-1446,6009,21.9459,8954,476
1.43857,131.74266,-1445,6010,21.8463,8954,476
1.43857,134.56191,-1444,6011,22.0952,8954,476
1.45176,137.74216,-1443,6012,21.8463,8954,476
1.08306,141.28287,-1442,6013,21.9956,9083,479
2.45115,144.6802,-1441,6014,22.0952,9083,479
1.17594,147.37133,-1440,6015,21.7467,9083,479
0.971667,150.00793,-1439,6016,21.8463,9083,479
3.64743,152.35324,-1438,6017,21.9956,9083,479
2.41588,154.3326,-1437,6018,21.7467,9083,479
1.40163,156.6351,-1436,6019,21.7965,9083,479
1.45505,158.81268,-1435,6020,21.7965,9083,479
0.995902,161.01856,-1434,6021,21.7467,9083,479
1.02423,163.37537,-1433,6022,21.9956,9083,479
1.17998,164.59537,-1432,6023,21.9459,9149,485
1.28075,164.82046,-1431,6024,22.0952,9149,485
1.56555,164.65806,-1430,6025,21.8463,9149,485
1.86827,164.70438,-1429,6026,21.9459,9149,485
1.25061,165.13393,-1428,6027,21.7965,9149,485
1.47781,168.22073,-1427,6028,22.0952,9149,485
1.26953,172.03887,-1426,6029,21.9459,9149,485
1.19604,171.04024,-1425,6030,22.0952,9149,485
1.33185,168.23313,-1424,6031,21.8463,9149,485
1.21188,168.63292,-1423,6032,21.7965,9149,485
1.82437,173.28078,-1422,6033,21.8463,9215,490
1.46484,178.63813,-1421,6034,21.9459,9215,490
1.28447,181.95967,-1420,6035,21.8463,9215,490
2.06006,182.21173,-1419,6036,21.9459,9215,490
1.3637,181.82433,-1418,6037,21.7467,9215,490
1.05179,182.92191,-1417,6038,21.9459,9215,490
1.17998,183.99503,-1416,6039,21.7467,9215,490
2.05543,185.68901,-1415,6040,21.8463,9215,490
1.54099,187.06259,-1414,6041,21.9956,9215,490
1.04268,186.96622,-1413,6042,21.9956,9215,490
1.07865,186.58015,-1412,6043,21.7965,9156,498
1.36719,185.42641,-1411,6044,21.9459,9156,498
1.41854,184.24992,-1410,6045,22.0952,9156,498
1.33185,183.36586,-1409,6046,21.7467,9156,498
1.25061,182.86618,-1408,6047,21.9459,9156,498
0.78733,178.03297,-1407,6048,21.7965,9156,498
0.458048,170.30003,-1406,6049,22.0952,9156,498
1.84257,164.94238,-1405,6050,21.9956,9156,498
0.569429,163.33432,-1404,6051,21.8463,9156,498
1.14304,163.79316,-1403,6052,21.8463,9156,498
1.16371,162.22965,-1402,6053,21.7467,9048,511
0.662337,161.05187,-1401,6054,21.7965,9048,511
0.525895,160.53147,-1400,6055,21.7965,9048,511
1.61945,156.93899,-1399,6056,21.9459,9048,511
1.34255,153.4552,-1398,6057,21.9956,9048,511
1.68014,149.43525,-1397,6058,21.9459,9048,511
2.70104,142.60477,-1396,6059,21.9459,9048,511
1.05631,137.54226,-1395,6060,21.7467,9048,511
0.793363,138.07367,-1394,6061,21.9956,9048,511
0.921287,135.59028,-1393,6062,21.9459,9048,511
1.15548,130.40686,-1392,6063,21.8463,8985,524
0.971667,126.96304,-1391,6064,21.9956,8985,524
1.00068,126.1381,-1390,6065,21.7965,8985,524
0.560992,128.40277,-1389,6066,21.9459,8985,524
0.976563,128.61705,-1388,6067,21.9459,8985,524
0.941763,126.86882,-1387,6068,21.9459,8985,524
1.3102,123.17034,-1386,6069,22.145,8985,524
1.22752,118.32436,-1385,6070,21.5974,8985,524
1.27328,107.40044,-1384,6071,21.7965,8985,524
1.8606,110.11994,-1383,6072,22.145,8985,524
2.08765,132.00509,-1382,6073,22.0952,9211,531
0.625305,158.75942,-1381,6074,21.9956,9211,531
1.31745,178.57835,-1380,6075,21.8463,9211,531
1.60168,145.53167,-1379,6076,21.7467,9211,531
0.497951,99.819336,-1378,6077,21.7965,9211,531
1.39481,107.44171,-1377,6078,22.0952,9211,531
0.569429,114.02792,-1376,6079,22.0952,9211,531
0.78733,128.80472,-1375,6080,21.8463,9211,531
0.676582,140.11471,-1374,6081,22.0952,9211,531
0.976563,127.13469,-1373,6082,21.8463,9211,531
1.4118,99.845084,-1372,6083,21.8463,9843,532
1.04268,83.952964,-1371,6084,21.8463,9843,532
0.625305,84.597897,-1370,6085,21.9956,9843,532
0.811194,89.901118,-1369,6086,21.9459,9843,532
0.365396,97.933414,-1368,6087,21.8463,9843,532
0.577742,94.670781,-1367,6088,22.145,9843,532
1.17998,88.375956,-1366,6089,22.145,9843,532
0.560992,90.110218,-1365,6090,21.7965,9843,532
1.23912,98.300715,-1364,6091,21.9956,9843,532
1.36019,101.60203,-1363,6092,21.9459,9843,532
0.793363,103.67126,-1362,6093,21.8463,10800,523
0.458048,103.24724,-1361,6094,21.9459,10800,523
0.78733,98.452185,-1360,6095,21.9956,10800,523
0.840071,90.503098,-1359,6096,21.9459,10800,523
0.811194,91.90857,-1358,6097,21.9956,10800,523
1.20399,94.705638,-1357,6098,21.7965,10800,523
0.478416,99.580723,-1356,6099,22.0952,10800,523
0.239208,97.903435,-1355,6100,21.7965,10800,523
1.19205,92.391503,-1354,6101,21.9459,10800,523
1.05631,99.826501,-1353,6102,21.9459,10800,523
1.19205,105.05028,-1352,6103,22.0952,11606,518
1.17998,113.00738,-1351,6104,21.9459,11606,518
0.905627,118.8627,-1350,6105,21.9956,11606,518
1.04268,121.18785,-1349,6106,21.7965,11606,518
0.730792,121.51742,-1348,6107,21.8463,11606,518
1.19604,121.27727,-1347,6108,21.8463,11606,518
0.768946,120.86083,-1346,6109,21.9459,11606,518
1.07865,118.94372,-1345,6110,21.9459,11606,518
1.35668,119.85173,-1344,6111,21.8463,11606,518
1.88099,131.28473,-1343,6112,21.7965,11606,518
0.921287,140.71425,-1342,6113,22.145,11361,501
1.87846,133.97994,-1341,6114,21.9459,11361,501
0.697405,111.95245,-1340,6115,21.9459,11361,501
1.96772,104.78732,-1339,6116,22.0952,11361,501
1.60466,153.21035,-1338,6117,22.145,11361,501
0.697405,155.08244,-1337,6118,21.7965,11361,501
0.834375,135.94803,-1336,6119,22.0952,11361,501
2.08994,128.52433,-1335,6120,21.8463,11361,501
0.683594,115.74133,-1334,6121,21.9956,11361,501
1.07865,130.06378,-1333,6122,21.8463,11361,501
0.41432,124.44013,-1332,6123,22.145,11469,491
0.961803,123.17844,-1331,6124,21.7965,11469,491
1.02423,177.49116,-1330,6125,22.0952,11469,491
0.717624,201.0959,-1329,6126,21.9956,11469,491
1.24296,158.36152,-1328,6127,21.9459,11469,491
0.878906,95.072635,-1327,6128,21.8463,11469,491
0.905627,97.94414,-1326,6129,21.7467,11469,491
2.13954,103.46998,-1325,6130,21.9459,11469,491
0.323889,97.400865,-1324,6131,21.9956,11469,491
1.52231,121.8395,-1323,6132,21.7965,11469,491
1.68581,127.49892,-1322,6133,21.7965,11701,481
1.36719,105.35488,-1321,6134,21.7467,11701,481
0.768946,93.137489,-1320,6135,22.1948,11701,481
0.632885,94.505288,-1319,6136,21.7965,11701,481
0.76272,101.67431,-1318,6137,22.145,11701,481
0.662337,113.63041,-1317,6138,21.7467,11701,481
0.768946,122.37888,-1316,6139,21.8463,11701,481
0.931581,124.39456,-1315,6140,21.7965,11701,481
1.32827,118.5011,-1314,6141,21.9459,11701,481
1.96287,113.4969,-1313,6142,21.7467,11701,481
2.47631,113.87623,-1312,6143,21.7467,12003,474
0.625305,116.38302,-1311,6144,21.8463,12003,474
0.817051,115.72665,-1310,6145,21.9956,12003,474
1.66589,112.96755,-1309,6146,21.8463,12003,474
0.488281,105.04142,-1308,6147,21.9956,12003,474
0.768946,97.235498,-1307,6148,21.8463,12003,474
0.352105,91.662857,-1306,6149,21.9459,12003,474
0.525895,88.266712,-1305,6150,21.9459,12003,474
1.11773,86.603359,-1304,6151,21.7467,12003,474
0.717624,83.587507,-1303,6152,21.9459,12003,474
0.884315,81.011473,-1302,6153,22.145,12348,465
1.25061,84.772537,-1301,6154,21.8463,12348,465
0.750112,92.751189,-1300,6155,21.9459,12348,465
0.78733,98.612339,-1299,6156,21.9956,12348,465
0.632885,105.32015,-1298,6157,21.8463,12348,465
0.946812,112.97652,-1297,6158,21.6472,12348,465
0.239208,113.90841,-1296,6159,21.8463,12348,465
0.926449,114.15833,-1295,6160,21.7467,12348,465
0.632885,115.75182,-1294,6161,21.8463,12348,465
0.292969,126.78405,-1293,6162,21.9459,12348,465
0.647778,149.03385,-1292,6163,21.9459,12616,453
1.01016,171.08049,-1291,6164,21.8463,12616,453
0.805294,172.2506,-1290,6165,22.1948,12616,453
1.05179,163.0461,-1289,6166,22.145,12616,453
1.33185,152.34869,-1288,6167,21.9459,12616,453
1.15135,146.26336,-1287,6168,22.145,12616,453
0.525895,143.29022,-1286,6169,21.9459,12616,453
1.67161,142.76477,-1285,6170,22.0952,12616,453
0.292969,143.14429,-1284,6171,22.145,12616,453
1.27702,143.08958,-1283,6172,22.0952,12616,453
1.47781,142.28315,-1282,6173,21.8463,12616,453
0.534885,141.6013,-1281,6174,21.7965,12616,453
1.09619,141.46833,-1280,6175,21.9956,12616,453
1.57769,144.75614,-1279,6176,21.8463,12616,453
1.23912,148.01653,-1278,6177,21.9956,12616,453
0.577742,148.55355,-1277,6178,21.7965,12616,453
1.50022,144.95684,-1276,6179,21.7467,12616,453
1.25821,138.66242,-1275,6180,21.9956,12616,453
1.22752,134.85643,-1274,6181,21.9956,12616,453
0.926449,134.76789,-1273,6182,21.9459,12616,453
1.25442,136.94902,-1272,6183,21.9956,12835,449
0.981433,138.78772,-1271,6184,21.9956,12835,449
1.19604,139.10377,-1270,6185,21.6472,12835,449
1.52856,140.03056,-1269,6186,21.8463,12835,449
0.601994,143.16646,-1268,6187,21.7965,12835,449
0.683594,149.68668,-1267,6188,21.7965,12835,449
1.45176,153.75171,-1266,6189,21.9459,12835,449
0.961803,152.29709,-1265,6190,22.0952,12835,449
0.218366,150.61424,-1264,6191,21.7965,12835,449
1.18402,149.07959,-1263,6192,21.9459,12835,449
0.697405,144.98161,-1262,6193,21.9956,12962,445
1.66303,140.78481,-1261,6194,21.9459,12962,445
1.25061,138.79008,-1260,6195,22.0952,12962,445
4.07591,141.12859,-1259,6196,21.9459,12962,445
1.51917,145.53147,-1258,6197,22.145,12962,445
0.425674,148.9889,-1257,6198,21.8463,12962,445
1.68863,149.22171,-1256,6199,22.145,12962,445
1.38107,148.92353,-1255,6200,21.7467,12962,445
0.585938,148.72984,-1254,6201,22.145,12962,445
0.768946,149.18985,-1253,6202,21.7965,12962,445
1.13886,151.64735,-1252,6203,21.9459,13052,443
0.889691,154.91641,-1251,6204,21.7467,13052,443
0.655098,158.05103,-1250,6205,21.8463,13052,443
2.83371,161.64548,-1249,6206,21.8463,13052,443
0.365396,165.83866,-1248,6207,21.8463,13052,443
1.45176,168.64945,-1247,6208,21.8463,13052,443
0.710948,166.45427,-1246,6209,21.9956,13052,443
1.29556,164.1183,-1245,6210,21.9956,13052,443
0.447517,164.85034,-1244,6211,21.8463,13052,443
0.690534,165.67222,-1243,6212,21.8463,13052,443
0.402647,168.481,-1242,6213,21.8463,13026,438
1.34255,168.89547,-1241,6214,21.8463,13026,438
0.900346,167.50796,-1240,6215,21.9459,13026,438
1.3029,165.16619,-1239,6216,21.8463,13026,438
1.17998,165.45049,-1238,6217,21.7965,13026,438
1.3637,166.03156,-1237,6218,21.7965,13026,438
0.690534,167.40398,-1236,6219,21.8463,13026,438
0.941763,168.40523,-1235,6220,21.9459,13026,438
0.981433,171.91119,-1234,6221,21.8463,13026,438
0.768946,174.95304,-1233,6222,21.7965,13026,438
0.655098,176.27181,-1232,6223,21.8463,12915,439
1.45176,180.07229,-1231,6224,22.0952,12915,439
1.24296,178.09791,-1230,6225,21.8463,12915,439
1.23912,175.20492,-1229,6226,21.9459,12915,439
0.447517,176.63697,-1228,6227,21.9459,12915,439
1.00068,179.60397,-1227,6228,21.8463,12915,439
0.966748,181.52726,-1226,6229,22.0952,12915,439
1.24296,179.80957,-1225,6230,21.9956,12915,439
1.43857,173.15492,-1224,6231,22.0952,12915,439
0.76272,144.92507,-1223,6232,21.7467,12915,439
1.69146,96.260627,-1222,6233,21.7965,12725,438
1.61059,59.984735,-1221,6234,21.9459,12725,438
1.4118,51.338222,-1220,6235,21.8463,12725,438
1.19205,63.983827,-1219,6236,21.9956,12725,438
1.52544,78.515602,-1218,6237,21.7965,12725,438
2.15951,82.125836,-1217,6238,21.9956,12725,438
1.32827,74.710522,-1216,6239,21.7965,12725,438
1.6165,64.629746,-1215,6240,22.0952,12725,438
1.3102,58.622607,-1214,6241,22.0952,12725,438
1.89865,58.187091,-1213,6242,21.7467,12725,438
1.44518,60.317312,-1212,6243,21.9459,12591,437
1.53789,62.81511,-1211,6244,21.7965,12591,437
2.05311,61.073474,-1210,6245,21.7965,12591,437
0.905627,56.733811,-1209,6246,21.9459,12591,437
1.36019,57.475028,-1208,6247,21.9459,12591,437
1.66875,61.889769,-1207,6248,21.9459,12591,437
1.02423,63.927909,-1206,6249,21.9459,12591,437
1.0381,63.253038,-1205,6250,22.0952,12591,437
1.4118,64.122363,-1204,6251,21.8463,12591,437
0.697405,65.313549,-1203,6252,21.7965,12591,437
1.17594,65.483413,-1202,6253,22.0952,12543,437
1.38107,66.946858,-1201,6254,21.9956,12543,437
0.402647,67.800911,-1200,6255,21.9956,12543,437
0.292969,65.665319,-1199,6256,22.145,12543,437
1.46158,61.870023,-1198,6257,21.7467,12543,437
1.33185,61.296924,-1197,6258,21.8463,12543,437
1.60168,62.324755,-1196,6259,21.5974,12543,437
1.02423,62.372793,-1195,6260,21.8463,12543,437
1.25442,62.450747,-1194,6261,21.7965,12543,437
1.76323,64.89481,-1193,6262,21.9956,12543,437
0.41432,67.858468,-1192,6263,21.7965,12533,433
1.02423,67.224621,-1191,6264,22.0952,12533,433
1.53789,64.995764,-1190,6265,21.7965,12533,433
0.697405,66.687828,-1189,6266,21.8463,12533,433
0.768946,69.513872,-1188,6267,21.9459,12533,433
1.07422,69.347219,-1187,6268,21.8463,12533,433
0.995902,65.631612,-1186,6269,21.8463,12533,433
1.04268,60.700744,-1185,6270,21.7965,12533,433
0.683594,56.297579,-1184,6271,22.0952,12533,433
1.13045,53.556046,-1183,6272,22.145,12533,433
1.53789,51.790767,-1182,6273,21.8463,12474,428
1.25442,49.600069,-1181,6274,21.8463,12474,428
0.98628,47.925464,-1180,6275,22.0952,12474,428
1.02423,46.976932,-1179,6276,21.7467,12474,428
1.49066,46.415782,-1178,6277,21.9956,12474,428
0.78733,45.671592,-1177,6278,21.8463,12474,428
1.06977,44.557169,-1176,6279,21.8463,12474,428
0.59402,42.910623,-1175,6280,21.9956,12474,428
1.45505,41.501932,-1174,6281,22.145,12474,428
1.20399,40.714064,-1173,6282,22.0952,12474,428
1.31383,40.42205,-1172,6283,21.9459,12446,431
0.78733,40.454661,-1171,6284,21.8463,12446,431
1.28447,40.716991,-1170,6285,21.9459,12446,431
1.19604,40.715345,-1169,6286,21.9956,12446,431
1.58673,40.952725,-1168,6287,21.9459,12446,431
1.31383,41.053028,-1167,6288,22.1948,12446,431
0.0976563,40.674517,-1166,6289,22.0952,12446,431
4.04655,40.768743,-1165,6290,21.9459,12446,431
1.70549,40.715345,-1164,6291,21.7965,12446,431
1.01016,40.185614,-1163,6292,21.7467,12446,431
1.42525,39.773385,-1162,6293,21.7467,12369,429
1.60466,39.587875,-1161,6294,21.7467,12369,429
1.44518,39.868433,-1160,6295,21.7965,12369,429
1.07865,40.070498,-1159,6296,21.7467,12369,429
0.239208,39.846188,-1158,6297,21.8463,12369,429
1.69708,39.830479,-1157,6298,21.7467,12369,429
0.834375,39.573004,-1156,6299,22.1948,12369,429
1.13886,39.304745,-1155,6300,21.9956,12369,429
1.96287,38.701872,-1154,6301,21.8463,12369,429
0.768946,37.427841,-1153,6302,21.8463,12369,429
0.710948,36.575085,-1152,6303,21.7467,12330,437
0.966748,36.190091,-1151,6304,21.9956,12330,437
0.730792,35.731797,-1150,6305,21.9459,12330,437
1.17998,34.706202,-1149,6306,21.7467,12330,437
1.22752,33.379033,-1148,6307,21.8463,12330,437
1.44518,32.493182,-1147,6308,21.6472,12330,437
1.46484,32.071289,-1146,6309,21.9459,12330,437
0.365396,31.76339,-1145,6310,21.7467,12330,437
0.78733,31.870639,-1144,6311,21.7467,12330,437
1.31383,30.731186,-1143,6312,21.9459,12330,437
1.73872,30.646456,-1142,6313,21.8463,12195,434
0.308816,33.76276,-1141,6314,21.8463,12195,434
0.447517,38.688009,-1140,6315,22.0952,12195,434
1.02423,47.871177,-1139,6316,22.145,12195,434
0.41432,62.382827,-1138,6317,21.7467,12195,434
1.15135,81.96292,-1137,6318,21.8463,12195,434
0.834375,86.880281,-1136,6319,22.145,12195,434
0.78733,67.317876,-1135,6320,21.7965,12195,434
3.22561,39.014787,-1134,6321,21.7965,12195,434
3.50067,16.645486,-1133,6322,21.9956,12195,434
1.60168,24.254238,-1132,6323,21.9459,12085,437
1.19205,38.495527,-1131,6324,21.9459,12085,437
1.09619,45.339879,-1130,6325,21.8463,12085,437
1.14304,41.467988,-1129,6326,21.9956,12085,437
0.436732,34.846959,-1128,6327,21.7467,12085,437
1.82698,36.61967,-1127,6328,21.7965,12085,437
1.75781,40.865122,-1126,6329,21.7965,12085,437
1.43857,41.02507,-1125,6330,21.7467,12085,437
1.4118,37.762762,-1124,6331,21.7965,12085,437
2.16171,33.315133,-1123,6332,22.145,12085,437
1.26953,30.001744,-1122,6333,21.9459,11997,446
1.64863,30.260391,-1121,6334,22.145,11997,446
1.50657,36.122501,-1120,6335,21.7467,11997,446
1.28817,45.250561,-1119,6336,21.8463,11997,446
1.07865,48.606369,-1118,6337,21.9956,11997,446
0.905627,46.776031,-1117,6338,21.8463,11997,446
1.29556,42.11868,-1116,6339,21.7467,11997,446
0.768946,47.700293,-1115,6340,21.7965,11997,446
1.33185,67.011821,-1114,6341,21.9459,11997,446
2.28816,91.367162,-1113,6342,21.9956,11997,446
0.768946,91.23186,-1112,6343,21.9956,11973,448
1.44518,91.89722,-1111,6344,21.8463,11973,448
0.730792,108.7417,-1110,6345,22.0952,11973,448
1.17998,132.23004,-1109,6346,21.7467,11973,448
1.93842,154.48899,-1108,6347,21.9956,11973,448
0.625305,165.69708,-1107,6348,21.7965,11973,448
0.878906,159.65196,-1106,6349,21.9956,11973,448
1.40163,140.84142,-1105,6350,21.9956,11973,448
0.845728,118.04477,-1104,6351,21.9459,11973,448
1.38107,98.071095,-1103,6352,22.145,11973,448
1.46484,84.767967,-1102,6353,22.0952,11906,463
0.971667,69.985051,-1101,6354,21.7965,11906,463
0.239208,57.341742,-1100,6355,21.8463,11906,463
1.28817,56.505502,-1099,6356,22.0952,11906,463
1.73872,54.990474,-1098,6357,22.0952,11906,463
0.981433,56.753244,-1097,6358,21.9956,11906,463
0.534885,61.269813,-1096,6359,21.9459,11906,463
1.00068,60.235731,-1095,6360,21.9459,11906,463
2.24609,62.736422,-1094,6361,21.5974,11906,463
0.690534,72.079289,-1093,6362,21.8463,11906,463
2.31509,82.154046,-1092,6363,21.9459,11808,471
1.09619,86.605768,-1091,6364,21.8463,11808,471
2.20323,86.493772,-1090,6365,21.9459,11808,471
0.78733,84.65706,-1089,6366,21.7467,11808,471
1.60466,82.500027,-1088,6367,21.7965,11808,471
1.20794,78.231167,-1087,6368,21.7965,11808,471
1.28817,70.58789,-1086,6369,22.0952,11808,471
1.96529,63.01016,-1085,6370,22.145,11808,471
1.73047,58.563352,-1084,6371,21.9459,11808,471
1.4118,56.53134,-1083,6372,21.7467,11808,471
1.5034,55.231117,-1082,6373,21.9956,11792,478
4.52497,53.615833,-1081,6374,21.8463,11792,478
1.12198,52.354504,-1080,6375,21.9956,11792,478
1.6165,52.704555,-1079,6376,21.7467,11792,478
1.11345,55.106871,-1078,6377,21.9956,11792,478
0.76272,58.910657,-1077,6378,21.8463,11792,478
1.51917,63.045387,-1076,6379,21.9956,11792,478
0.625305,66.085039,-1075,6380,21.9459,11792,478
0.577742,67.734505,-1074,6381,21.9956,11792,478
0.717624,68.086899,-1073,6382,21.7965,11792,478
1.14304,68.108999,-1072,6383,22.145,11792,478
2.53718,66.909788,-1071,6384,21.7965,11792,478
0.662337,64.004202,-1070,6385,22.0952,11792,478
0.690534,61.363618,-1069,6386,21.7965,11792,478
0.632885,60.884702,-1068,6387,21.9956,11792,478
0.966748,61.033813,-1067,6388,22.145,11792,478
1.77401,62.079565,-1066,6389,21.8463,11792,478
0.840071,63.935601,-1065,6390,21.9459,11792,478
1.5034,65.824881,-1064,6391,21.8463,11792,478
1.45505,67.161085,-1063,6392,21.9459,11792,478
1.42859,66.711174,-1062,6393,21.9459,11723,488
1.19205,64.285291,-1061,6394,21.9459,11723,488
1.06082,65.87195,-1060,6395,21.9956,11723,488
0.995902,68.775112,-1059,6396,21.8463,11723,488
0.41432,71.672844,-1058,6397,21.7965,11723,488
1.21581,77.084769,-1057,6398,21.7965,11723,488
0.697405,85.484176,-1056,6399,22.1948,11723,488
0.768946,92.580575,-1055,6400,22.145,11723,488
1.17998,97.043826,-1054,6401,21.9956,11723,488
1.35316,100.72465,-1053,6402,22.0952,11723,488
1.00068,105.09609,-1052,6403,21.9459,11654,489
1.1472,104.45318,-1051,6404,21.7467,11654,489
0.218366,102.59347,-1050,6405,21.9956,11654,489
0.737289,104.93518,-1049,6406,21.8463,11654,489
1.77401,106.30902,-1048,6407,21.9956,11654,489
1.66589,109.88288,-1047,6408,22.145,11654,489
0.717624,108.98555,-1046,6409,21.8463,11654,489
2.15066,61.425873,-1045,6410,21.8463,11654,489
0.946812,60.772629,-1044,6411,22.0952,11654,489
1.81388,28.820229,-1043,6412,21.8463,11654,489
1.79007,87.686004,-1042,6413,21.7965,11443,497
1.31745,111.82334,-1041,6414,21.8463,11443,497
1.10916,98.740698,-1040,6415,21.8463,11443,497
3.08971,112.73463,-1039,6416,22.0952,11443,497
2.31303,141.1184,-1038,6417,21.7965,11443,497
0.507437,158.77955,-1037,6418,21.9459,11443,497
0.697405,156.71774,-1036,6419,21.7965,11443,497
0.717624,129.57877,-1035,6420,21.5974,11443,497
1.48103,89.222376,-1034,6421,21.7467,11443,497
1.20794,56.98932,-1033,6422,21.8463,11443,497
1.39481,37.995255,-1032,6423,21.9459,11122,518
1.19205,23.400914,-1031,6424,21.9956,11122,518
0.697405,23.244701,-1030,6425,21.9956,11122,518
1.7551,22.32085,-1029,6426,21.9956,11122,518
2.05543,22.757521,-1028,6427,21.8463,11122,518
1.64863,44.242869,-1027,6428,21.9459,11122,518
1.4118,67.286436,-1026,6429,21.7965,11122,518
1.4219,91.635135,-1025,6430,21.7467,11122,518
1.25821,112.53969,-1024,6431,21.8463,11122,518
1.43857,124.8997,-1023,6432,21.9956,11122,518
0.625305,126.9344,-1022,6433,21.7965,10699,541
0.995902,119.8138,-1021,6434,22.145,10699,541
1.96529,109.46685,-1020,6435,21.9459,10699,541
1.08306,101.70054,-1019,6436,21.9459,10699,541
0.59402,87.821509,-1018,6437,21.9956,10699,541
1.39481,65.609244,-1017,6438,22.145,10699,541
1.28817,48.555759,-1016,6439,21.7965,10699,541
1.66303,43.668255,-1015,6440,21.7467,10699,541
1.08306,40.978915,-1014,6441,21.9956,10699,541
0.805294,34.071615,-1013,6442,21.7965,10699,541
1.52856,28.475108,-1012,6443,21.9956,9899,566
0.889691,25.723549,-1011,6444,22.0952,9899,566
0.308816,32.495704,-1010,6445,22.145,9899,566
1.4118,52.030314,-1009,6446,21.8463,9899,566
0.478416,64.838184,-1008,6447,21.8463,9899,566
0.507437,64.233927,-1007,6448,21.7467,9899,566
0.926449,59.132074,-1006,6449,21.9459,9899,566
1.01956,48.706514,-1005,6450,21.9459,9899,566
1.17594,24.570422,-1004,6451,22.145,9899,566
1.22363,8.8608249,-1003,6452,21.9459,9899,566
0.683594,37.804764,-1002,6453,21.7965,9059,588
0.851347,58.288414,-1001,6454,21.7965,9059,588
0.690534,66.648826,-1000,6455,21.7965,9059,588
0.601994,61.344553,-999,6456,21.9459,9059,588
0.98628,42.150509,-998,6457,22.0952,9059,588
0.981433,20.826855,-997,6458,21.9459,9059,588
0.697405,44.74056,-996,6459,21.7467,9059,588
0.323889,81.316147,-995,6460,22.1948,9059,588
0.497951,113.44621,-994,6461,21.9956,9059,588
1.01956,136.43175,-993,6462,21.8463,9059,588
0.447517,159.21811,-992,6463,21.7467,8187,619
0.730792,175.03504,-991,6464,21.8463,8187,619
0.138107,180.46084,-990,6465,22.0952,8187,619
1.23912,187.86272,-989,6466,21.8463,8187,619
0.323889,194.71504,-988,6467,21.9956,8187,619
2.67086,186.12184,-987,6468,21.8463,8187,619
0.78733,171.87959,-986,6469,21.9459,8187,619
0.845728,174.69042,-985,6470,21.7965,8187,619
0.78733,190.82717,-984,6471,21.9459,8187,619
0.710948,205.96355,-983,6472,21.8463,8187,619
1.30655,217.96423,-982,6473,21.9459,7153,660
1.29923,225.10487,-981,6474,21.9459,7153,660
1.04268,224.70973,-980,6475,21.7467,7153,660
1.40163,230.27991,-979,6476,21.9956,7153,660
1.49385,269.21633,-978,6477,21.9459,7153,660
1.3637,366.78473,-977,6478,21.7467,7153,660
1.85804,462.9365,-976,6479,21.9459,7153,660
1.21581,460.99254,-975,6480,21.9459,7153,660
1.66303,440.70123,-974,6481,22.1948,7153,660
0.921287,603.25684,-973,6482,22.0952,7153,660
1.07865,884.59236,-972,6483,22.0952,6231,711
2.4277,971.81214,-971,6484,22.1948,6231,711
3.62908,755.17721,-970,6485,21.7467,6231,711
4.21169,470.78155,-969,6486,21.8463,6231,711
1.77938,682.7441,-968,6487,21.9459,6231,711
3.94754,616.95249,-967,6488,22.0952,6231,711
3.24771,398.56987,-966,6489,22.0952,6231,711
3.00045,647.88153,-965,6490,22.0952,6231,711
2.17052,621.02735,-964,6491,21.9459,6231,711
2.74829,389.06472,-963,6492,21.9459,6231,711
2.79133,278.92695,-962,6493,21.9956,5551,748
2.1771,344.68965,-961,6494,21.8463,5551,748
2.02504,444.39425,-960,6495,22.145,5551,748
2.62403,532.04008,-959,6496,22.0952,5551,748
1.74693,578.91479,-958,6497,21.9956,5551,748
2.0156,529.03809,-957,6498,21.8463,5551,748
2.6655,431.28319,-956,6499,21.9956,5551,748
4.10389,407.99671,-955,6500,21.8463,5551,748
1.88858,463.71838,-954,6501,21.9459,5551,748
1.46484,422.12438,-953,6502,21.9459,5551,748
1.70829,251.01622,-952,6503,22.0952,5165,768
2.20323,172.26167,-951,6504,21.8463,5165,768
0.655098,216.31844,-950,6505,21.9459,5165,768
0.840071,267.60864,-949,6506,22.0952,5165,768
1.52231,266.71503,-948,6507,22.0952,5165,768
2.18584,252.94509,-947,6508,21.8463,5165,768
2.04146,240.06877,-946,6509,22.145,5165,768
3.8136,232.57903,-945,6510,21.9956,5165,768
0.425674,246.47888,-944,6511,21.9459,5165,768
2.23118,262.07476,-943,6512,22.145,5165,768
1.88858,263.983,-942,6513,21.9956,4948,808
2.25034,277.20496,-941,6514,21.9459,4948,808
1.71942,317.83352,-940,6515,22.145,4948,808
2.3539,358.27653,-939,6516,21.8463,4948,808
1.63993,368.34253,-938,6517,21.8463,4948,808
1.87846,361.16599,-937,6518,21.9459,4948,808
2.18802,362.36973,-936,6519,21.8463,4948,808
2.06237,373.12592,-935,6520,22.145,4948,808
1.96529,384.37315,-934,6521,21.7965,4948,808
1.32827,390.79321,-933,6522,21.9459,4948,808
0.78733,396.34947,-932,6523,21.7467,4742,819
1.73323,407.85158,-931,6524,21.7965,4742,819
1.22752,423.92629,-930,6525,21.9956,4742,819
1.21188,442.29337,-929,6526,22.0952,4742,819
2.00612,457.73226,-928,6527,22.0952,4742,819
1.84516,470.13056,-927,6528,21.9459,4742,819
0.921287,481.36867,-926,6529,21.9459,4742,819
1.48103,493.94857,-925,6530,22.0952,4742,819
1.86316,504.18345,-924,6531,21.7467,4742,819
1.62239,510.23711,-923,6532,22.145,4742,819
0.625305,513.57776,-922,6533,22.0952,4604,808
1.34255,511.85308,-921,6534,21.9459,4604,808
4.65995,310.13425,-920,6535,21.8463,4604,808
18.5405,313.50378,-919,6536,22.0952,4604,808
4.75416,403.83826,-918,6537,21.8463,4604,808
1.71942,742.96234,-917,6538,21.8463,4604,808
1.91615,502.3521,-916,6539,21.9459,4604,808
2.60762,118.42462,-915,6540,21.8463,4604,808
1.98701,165.62769,-914,6541,21.7965,4604,808
3.32749,497.99749,-913,6542,21.8463,4604,808
2.17052,633.12756,-912,6543,21.9956,4568,799
2.21187,419.0624,-911,6544,22.145,4568,799
1.13045,265.76605,-910,6545,21.7965,4568,799
1.83479,307.83437,-909,6546,22.0952,4568,799
0.447517,369.65029,-908,6547,21.7467,4568,799
6.7623,284.45482,-907,6548,21.8463,4568,799
4.02884,355.16621,-906,6549,21.9956,4568,799
2.09677,415.92358,-905,6550,21.7965,4568,799
1.23912,365.48824,-904,6551,21.9956,4568,799
5.2526,251.50469,-903,6552,21.7965,4568,799
1.25442,236.90794,-902,6553,21.7965,4568,791
2.76386,260.46996,-901,6554,21.7965,4568,791
1.3102,361.06597,-900,6555,22.1948,4568,791
2.69397,496.30896,-899,6556,21.9459,4568,791
0.601994,481.66919,-898,6557,22.0952,4568,791
1.37415,390.3666,-897,6558,21.7965,4568,791
0.995902,356.3389,-896,6559,22.0952,4568,791
1.67161,368.85605,-895,6560,22.0952,4568,791
0.981433,388.129,-894,6561,22.0952,4568,791
1.23912,456.89295,-893,6562,22.0952,4568,791
1.86572,514.30176,-892,6563,21.9956,4611,778
0.845728,502.53295,-891,6564,21.9459,4611,778
1.88858,496.23714,-890,6565,22.2943,4611,778
0.840071,508.64035,-889,6566,21.8463,4611,778
1.17594,508.59116,-888,6567,22.145,4611,778
0.662337,530.69238,-887,6568,21.7965,4611,778
0.59402,595.13559,-886,6569,21.9459,4611,778
0.840071,642.49456,-885,6570,21.8463,4611,778
1.17594,648.5027,-884,6571,21.9956,4611,778
1.36019,647.1954,-883,6572,21.8463,4611,778
0.683594,646.9008,-882,6573,21.9459,4716,752
0.862477,665.79017,-881,6574,21.9956,4716,752
1.80334,715.8677,-880,6575,21.9459,4716,752
0.534885,782.30875,-879,6576,21.8463,4716,752
0.76272,842.64738,-878,6577,21.9459,4716,752
1.10916,889.06126,-877,6578,21.8463,4716,752
1.64863,926.68091,-876,6579,21.7965,4716,752
1.47134,953.41527,-875,6580,21.8463,4716,752
1.88606,944.13641,-874,6581,21.8463,4716,752
1.62826,906.55764,-873,6582,21.9459,4716,752
0.878906,803.40575,-872,6583,22.0952,4956,695
1.17594,700.84144,-871,6584,22.0952,4956,695
0.690534,690.79495,-870,6585,21.9459,4956,695
1.76323,703.40935,-869,6586,21.9459,4956,695
1.28817,674.05625,-868,6587,21.8463,4956,695
1.92112,624.45662,-867,6588,22.1948,4956,695
1.92608,604.86472,-866,6589,22.0952,4956,695
2.18148,624.72587,-865,6590,21.8463,4956,695
1.9918,645.06787,-864,6591,21.8463,4956,695
2.38609,646.55188,-863,6592,21.9956,4956,695
2.40995,564.31335,-862,6593,22.145,4956,695
3.27403,486.98399,-861,6594,21.9956,4956,695
2.11037,597.84116,-860,6595,21.8463,4956,695
2.09677,768.31261,-859,6596,21.9459,4956,695
1.76323,850.06587,-858,6597,21.7965,4956,695
2.77763,834.0019,-857,6598,22.145,4956,695
1.62239,845.88615,-856,6599,21.8463,4956,695
2.0156,615.42828,-855,6600,21.9459,4956,695
3.24771,551.37901,-854,6601,21.7467,4956,695
3.58147,595.59326,-853,6602,21.8463,4956,695
6.07434,609.06731,-852,6603,21.9956,5235,660
8.1483,669.71763,-851,6604,22.145,5235,660
8.47586,478.05597,-850,6605,21.9459,5235,660
6.75454,342.52882,-849,6606,21.9459,5235,660
6.75101,336.88551,-848,6607,22.0952,5235,660
6.75595,475.17183,-847,6608,21.9956,5235,660
10.3589,674.40405,-846,6609,21.9459,5235,660
4.71286,663.16783,-845,6610,21.8463,5235,660
5.25623,466.96211,-844,6611,21.9956,5235,660
4.80107,302.64493,-843,6612,21.9459,5235,660
4.77418,279.314,-842,6613,22.145,5490,648
4.00986,455.28941,-841,6614,22.0952,5490,648
2.99568,634.40275,-840,6615,21.9956,5490,648
2.03444,539.39541,-839,6616,22.0952,5490,648
3.77843,432.47233,-838,6617,21.9956,5490,648
3.27258,421.41152,-837,6618,22.145,5490,648
2.38009,452.28532,-836,6619,21.9459,5490,648
2.53342,482.95417,-835,6620,21.8463,5490,648
2.66907,501.47431,-834,6621,21.7965,5490,648
1.70829,524.39095,-833,6622,22.0952,5490,648
1.65728,550.85858,-832,6623,21.9459,5324,663
1.48103,577.19197,-831,6624,21.9459,5324,663
1.48103,585.74685,-830,6625,21.9956,5324,663
2.14399,594.17356,-829,6626,21.9956,5324,663
1.55638,599.82363,-828,6627,21.8463,5324,663
1.02423,594.51853,-827,6628,21.7965,5324,663
1.24296,565.88991,-826,6629,21.9459,5324,663
1.38452,515.85756,-825,6630,22.1948,5324,663
0.981433,464.86768,-824,6631,22.145,5324,663
0.768946,424.52547,-823,6632,22.145,5324,663
1.71108,392.63107,-822,6633,21.8463,4998,686
1.92608,364.593,-821,6634,21.9459,4998,686
2.05543,340.77818,-820,6635,21.7965,4998,686
2.21187,324.2293,-819,6636,22.0952,4998,686
0.811194,315.40122,-818,6637,21.8463,4998,686
1.34255,310.77265,-817,6638,21.9459,4998,686
1.53789,306.35529,-816,6639,21.8463,4998,686
1.86316,300.13913,-815,6640,21.8463,4998,686
1.13886,285.55088,-814,6641,22.145,4998,686
8.87598,339.94916,-813,6642,22.0952,4998,686
1.20794,327.5571,-812,6643,21.7965,4773,698
3.63433,268.80997,-811,6644,22.0952,4773,698
2.37206,368.51054,-810,6645,21.9956,4773,698
1.30655,201.21143,-809,6646,22.0952,4773,698
1.12198,215.60486,-808,6647,22.145,4773,698
2.47631,203.64274,-807,6648,21.7467,4773,698
2.03444,320.72313,-806,6649,21.9459,4773,698
2.0716,355.27683,-805,6650,22.1948,4773,698
2.23972,318.83282,-804,6651,22.145,4773,698
2.75868,288.75151,-803,6652,21.8463,4773,698
7.15095,400.93379,-802,6653,21.9956,4633,711
3.38714,424.5788,-801,6654,21.9459,4633,711
1.09183,458.15842,-800,6655,21.8463,4633,711
2.51263,529.00708,-799,6656,21.9459,4633,711
2.59295,377.71362,-798,6657,21.7467,4633,711
1.98461,380.60883,-797,6658,22.0952,4633,711
2.84714,447.62271,-796,6659,22.0952,4633,711
2.39805,350.125,-795,6660,21.7467,4633,711
2.22905,301.26681,-794,6661,21.7467,4633,711
2.69397,303.6565,-793,6662,21.9459,4633,711
2.18366,315.10294,-792,6663,21.9459,4547,721
2.29856,344.04211,-791,6664,21.8463,4547,721
3.88053,350.68158,-790,6665,21.9459,4547,721
3.21228,385.75791,-789,6666,22.0952,4547,721
2.22047,417.53467,-788,6667,21.9956,4547,721
6.97542,389.45752,-787,6668,22.1948,4547,721
3.12653,567.75439,-786,6669,21.8463,4547,721
3.76452,526.59183,-785,6670,21.7965,4547,721
3.28857,543.04913,-784,6671,21.7965,4547,721
3.87069,557.06551,-783,6672,21.7467,4547,721
3.07113,426.96674,-782,6673,21.8463,4495,725
3.41936,524.98884,-781,6674,22.1948,4495,725
4.41294,491.5703,-780,6675,21.9459,4495,725
5.08751,393.25441,-779,6676,21.7467,4495,725
3.87192,435.1381,-778,6677,22.0952,4495,725
4.30574,446.41909,-777,6678,22.0952,4495,725
1.43525,394.32214,-776,6679,22.0952,4495,725
1.52231,322.27064,-775,6680,21.7965,4495,725
1.34255,265.05274,-774,6681,21.9459,4495,725
1.65728,251.04599,-773,6682,21.9956,4495,725
2.47246,248.27748,-772,6683,21.9459,4464,735
2.01324,230.2836,-771,6684,21.8463,4464,735
2.14844,208.27596,-770,6685,21.8463,4464,735
1.37415,188.02878,-769,6686,21.8463,4464,735
0.507437,182.42488,-768,6687,21.9459,4464,735
1.28817,194.55009,-767,6688,21.8463,4464,735
1.83739,208.99322,-766,6689,21.9459,4464,735
1.16371,218.6266,-765,6690,21.9956,4464,735
1.8606,234.08863,-764,6691,21.8463,4464,735
1.86316,239.45473,-763,6692,21.9956,4464,735
1.60168,216.70723,-762,6693,22.1948,4464,747
2.20323,179.36263,-761,6694,21.9956,4464,747
2.73089,150.57857,-760,6695,21.8463,4464,747
2.40203,138.50785,-759,6696,21.9459,4464,747
1.84516,134.44348,-758,6697,21.9459,4464,747
1.86827,147.01716,-757,6698,21.8463,4464,747
1.30655,163.3272,-756,6699,22.0952,4464,747
1.32827,201.9547,-755,6700,22.0952,4464,747
1.20794,250.43462,-754,6701,21.8463,4464,747
0.625305,271.60348,-753,6702,21.7467,4464,747
0.768946,278.18241,-752,6703,21.7467,4457,749
2.17052,275.27808,-751,6704,22.145,4457,749
0.534885,258.96247,-750,6705,21.9956,4457,749
1.05179,241.07332,-749,6706,22.145,4457,749
0.905627,228.60644,-748,6707,21.9459,4457,749
1.16371,200.63091,-747,6708,21.9956,4457,749
0.799351,170.94643,-746,6709,21.9459,4457,749
0.840071,158.40395,-745,6710,21.9956,4457,749
1.17998,151.80551,-744,6711,21.8463,4457,749
0.625305,147.5929,-743,6712,21.9956,4457,749
1.73047,131.50605,-742,6713,22.0952,4465,757
0.851347,132.80313,-741,6714,22.145,4465,757
1.38452,144.30616,-740,6715,22.145,4465,757
0.793363,146.40816,-739,6716,22.145,4465,757
1.74966,159.19944,-738,6717,21.9956,4465,757
1.25442,152.28221,-737,6718,22.1948,4465,757
1.24679,147.26097,-736,6719,21.9459,4465,757
2.72914,148.63318,-735,6720,21.9956,4465,757
1.91615,133.3185,-734,6721,21.9956,4465,757
2.26301,130.25589,-733,6722,21.9459,4465,757
2.44921,134.45423,-732,6723,21.9956,4473,756
1.63702,149.68309,-731,6724,21.7965,4473,756
1.69146,141.67673,-730,6725,21.9956,4473,756
1.51917,112.93965,-729,6726,22.145,4473,756
1.53789,96.60614,-728,6727,21.9459,4473,756
1.04268,129.00089,-727,6728,21.9459,4473,756
2.22905,170.06914,-726,6729,21.9956,4473,756
1.4681,177.54857,-725,6730,21.9956,4473,756
1.09619,187.62747,-724,6731,21.9956,4473,756
1.17998,205.15862,-723,6732,21.7467,4473,756
1.57466,209.11934,-722,6733,21.7965,4490,759
1.30655,193.89354,-721,6734,21.9956,4490,759
1.5034,165.46769,-720,6735,21.9956,4490,759
1.25821,144.29568,-719,6736,21.9459,4490,759
1.75238,151.373,-718,6737,21.9459,4490,759
1.10916,168.34948,-717,6738,21.9956,4490,759
1.07422,177.31019,-716,6739,21.9459,4490,759
2.4277,177.10392,-715,6740,21.8463,4490,759
1.21581,175.29786,-714,6741,21.7965,4490,759
1.3102,186.76842,-713,6742,21.9459,4490,759
1.29556,206.59209,-712,6743,21.8463,4504,761
1.16371,226.57835,-711,6744,21.9459,4504,761
1.32827,240.18118,-710,6745,22.0952,4504,761
1.5034,244.52719,-709,6746,21.9459,4504,761
1.53789,248.30314,-708,6747,21.7467,4504,761
1.77132,250.20963,-707,6748,21.7965,4504,761
2.01324,243.1108,-706,6749,21.7965,4504,761
1.68863,229.20648,-705,6750,21.7467,4504,761
1.55638,214.98232,-704,6751,21.9459,4504,761
4.37822,201.89533,-703,6752,21.9956,4504,761
3.63433,184.61059,-702,6753,21.7965,4524,766
1.76052,165.98802,-701,6754,21.9956,4524,766
1.87846,149.73833,-700,6755,21.9459,4524,766
2.00612,136.33948,-699,6756,21.8463,4524,766
2.32332,125.33037,-698,6757,21.7965,4524,766
2.6922,118.27782,-697,6758,21.8463,4524,766
2.02504,115.63281,-696,6759,22.0952,4524,766
1.59273,117.03742,-695,6760,21.8463,4524,766
1.54099,123.79892,-694,6761,21.9459,4524,766
2.06237,134.40695,-693,6762,21.7467,4524,766
0.625305,146.1512,-692,6763,22.145,4543,766
1.38107,158.26669,-691,6764,21.9956,4543,766
1.26953,170.84428,-690,6765,21.9459,4543,766
1.70829,183.89936,-689,6766,21.9459,4543,766
1.33185,197.41989,-688,6767,22.145,4543,766
0.840071,210.44008,-687,6768,22.1948,4543,766
1.27328,220.96767,-686,6769,21.8463,4543,766
2.23972,225.59816,-685,6770,21.9956,4543,766
1.18402,223.26767,-684,6771,22.0952,4543,766
1.40163,217.46359,-683,6772,21.9459,4543,766
1.54099,211.95533,-682,6773,22.0952,4574,767
1.49066,209.13637,-681,6774,21.9459,4574,767
1.23912,208.39905,-680,6775,22.145,4574,767
1.21188,208.3437,-679,6776,22.145,4574,767
0.878906,208.73584,-678,6777,21.8463,4574,767
0.811194,208.29506,-677,6778,21.9459,4574,767
1.55638,207.72318,-676,6779,21.8463,4574,767
1.68863,208.35543,-675,6780,22.0952,4574,767
1.23912,210.92821,-674,6781,21.7965,4574,767
1.19604,215.20736,-673,6782,21.8463,4574,767
1.83479,219.37136,-672,6783,21.8463,4606,772
0.710948,212.74768,-671,6784,22.0952,4606,772
0.601994,165.60061,-670,6785,21.8463,4606,772
0.85693,106.06569,-669,6786,21.8463,4606,772
0.365396,128.84381,-668,6787,21.7965,4606,772
2.31303,231.07833,-667,6788,22.145,4606,772
3.22266,269.99028,-666,6789,22.145,4606,772
2.17929,216.55824,-665,6790,21.9459,4606,772
1.09619,181.23557,-664,6791,22.0952,4606,772
2.21402,197.27359,-663,6792,21.8463,4606,772
1.42859,229.36463,-662,6793,21.9459,4650,775
0.845728,216.74216,-661,6794,21.8463,4650,775
1.69708,177.55663,-660,6795,22.1948,4650,775
1.51917,165.38586,-659,6796,21.9956,4650,775
2.77763,177.56246,-658,6797,22.0952,4650,775
2.20539,174.04217,-657,6798,22.0952,4650,775
1.08306,159.26003,-656,6799,22.145,4650,775
0.828641,158.89058,-655,6800,21.7965,4650,775
1.56859,176.14213,-654,6801,21.9459,4650,775
1.63702,189.05539,-653,6802,22.145,4650,775
1.66016,189.4746,-652,6803,22.145,4688,775
3.50884,189.21599,-651,6804,21.9459,4688,775
1.66589,195.56175,-650,6805,21.9956,4688,775
1.66589,202.35709,-649,6806,21.7965,4688,775
1.39481,204.86974,-648,6807,21.9459,4688,775
1.56859,201.64216,-647,6808,21.7467,4688,775
1.88099,197.11574,-646,6809,21.9459,4688,775
1.49385,194.04519,-645,6810,21.9459,4688,775
1.27702,189.29158,-644,6811,21.7467,4688,775
1.85547,183.78471,-643,6812,21.8463,4688,775
2.41193,179.39374,-642,6813,21.9459,4688,768
1.20794,177.59796,-641,6814,21.9956,4688,768
4.03475,177.36552,-640,6815,21.7467,4688,768
1.27702,172.56417,-639,6816,22.0952,4688,768
0.817051,163.77196,-638,6817,21.9459,4688,768
1.28447,159.00023,-637,6818,21.9459,4688,768
0.793363,161.14215,-636,6819,21.9956,4688,768
1.39822,164.38217,-635,6820,21.9956,4688,768
1.38107,162.7953,-634,6821,21.9956,4688,768
1.27702,158.77693,-633,6822,21.7467,4688,768
1.49704,159.65514,-632,6823,21.8463,4725,776
1.71664,164.45359,-631,6824,21.8463,4725,776
1.63702,165.65791,-630,6825,21.9956,4725,776
1.99659,164.04406,-629,6826,22.145,4725,776
1.73047,163.06757,-628,6827,22.0952,4725,776
1.77132,162.25225,-627,6828,21.8463,4725,776
2.22905,159.3236,-626,6829,22.0952,4725,776
1.40163,158.02981,-625,6830,21.9459,4725,776
1.23912,161.5487,-624,6831,22.145,4725,776
1.41517,164.97856,-623,6832,22.0952,4725,776
1.66589,165.55012,-622,6833,22.0952,4752,772
1.57466,165.36743,-621,6834,21.7965,4752,772
0.941763,166.75225,-620,6835,21.9956,4752,772
1.09619,169.0152,-619,6836,21.8463,4752,772
0.768946,170.88187,-618,6837,21.9459,4752,772
2.24822,173.34006,-617,6838,21.9459,4752,772
0.971667,174.14681,-616,6839,22.145,4752,772
0.195313,172.18242,-615,6840,21.9459,4752,772
1.52231,170.13339,-614,6841,21.7965,4752,772
1.70829,167.31419,-613,6842,22.0952,4752,772
1.05631,162.80995,-612,6843,22.145,4789,775
1.25442,154.50871,-611,6844,21.8463,4789,775
1.4681,144.56331,-610,6845,21.7965,4789,775
2.15951,135.42181,-609,6846,21.9459,4789,775
1.51603,129.1182,-608,6847,22.0952,4789,775
1.50022,125.69188,-607,6848,21.9459,4789,775
1.69708,121.77173,-606,6849,21.9956,4789,775
1.92608,117.43513,-605,6850,21.9459,4789,775
2.48016,114.27118,-604,6851,22.145,4789,775
1.94824,112.39309,-603,6852,21.7965,4789,775
1.80334,110.97434,-602,6853,21.7467,4824,774
1.80598,108.27637,-601,6854,21.9956,4824,774
0.905627,104.19672,-600,6855,22.145,4824,774
1.09619,99.436142,-599,6856,22.0952,4824,774
1.5034,98.13041,-598,6857,21.9956,4824,774
2.39407,99.475471,-597,6858,22.0952,4824,774
0.617632,100.68581,-596,6859,21.9459,4824,774
1.60168,97.216417,-595,6860,22.145,4824,774
1.94088,89.560851,-594,6861,21.9956,4824,774
2.38209,82.340566,-593,6862,21.9459,4824,774
1.77401,78.273156,-592,6863,22.0952,4873,776
1.53168,75.261075,-591,6864,21.8463,4873,776
1.55638,68.950171,-590,6865,21.8463,4873,776
1.1596,63.300843,-589,6866,21.8463,4873,776
1.43525,61.541963,-588,6867,22.0952,4873,776
1.84774,60.489504,-587,6868,21.7467,4873,776
1.06977,59.071185,-586,6869,22.0952,4873,776
1.06082,61.255705,-585,6870,21.9459,4873,776
1.33185,66.790869,-584,6871,21.9956,4873,776
1.88858,76.841201,-583,6872,21.7965,4873,776
1.26953,85.149534,-582,6873,21.7965,4912,776
1.24679,89.492193,-581,6874,22.0952,4912,776
1.49066,91.283132,-580,6875,22.145,4912,776
1.45505,94.47769,-579,6876,21.9956,4912,776
1.05631,100.76193,-578,6877,21.9459,4912,776
1.19604,109.88159,-577,6878,21.9956,4912,776
1.07422,120.99139,-576,6879,21.9956,4912,776
1.48103,133.53516,-575,6880,21.9459,4912,776
1.64863,147.44932,-574,6881,21.8463,4912,776
1.62239,161.93192,-573,6882,22.145,4912,776
1.6165,176.42543,-572,6883,22.3441,4957,779
1.79539,189.64219,-571,6884,21.9459,4957,779
1.07865,198.71618,-570,6885,22.145,4957,779
0.697405,202.38488,-569,6886,21.9459,4957,779
1.34255,200.61962,-568,6887,22.0952,4957,779
1.32827,193.9486,-567,6888,22.0952,4957,779
1.15548,186.79746,-566,6889,21.8463,4957,779
1.71942,183.58089,-565,6890,22.1948,4957,779
2.14844,181.88984,-564,6891,22.0952,4957,779
1.54717,185.6309,-563,6892,21.9956,4957,779
1.34255,190.5638,-562,6893,21.9956,4963,779
1.52231,194.30569,-561,6894,21.7467,4963,779
2.15287,198.91503,-560,6895,21.7467,4963,779
2.16832,206.20556,-559,6896,21.9956,4963,779
1.29923,215.08896,-558,6897,21.9956,4963,779
2.11037,221.8871,-557,6898,21.7965,4963,779
4.12128,230.11426,-556,6899,21.8463,4963,779
2.61493,231.81281,-555,6900,22.145,4963,779
5.86344,125.97455,-554,6901,21.7467,4963,779
5.13323,668.25158,-553,6902,21.8463,4963,779
2.50883,1289.9437,-552,6903,21.9956,4956,785
2.39606,1627.5721,-551,6904,21.7965,4956,785
4.58153,1385.8278,-550,6905,21.9956,4956,785
3.93665,893.10135,-549,6906,21.9956,4956,785
3.59741,608.31097,-548,6907,21.9956,4956,785
3.05712,639.25618,-547,6908,21.8463,4956,785
4.96897,794.39708,-546,6909,21.9459,4956,785
3.48976,759.57168,-545,6910,21.9956,4956,785
3.52646,633.78731,-544,6911,22.0952,4956,785
3.08971,603.57025,-543,6912,21.9459,4956,785
2.2819,646.27705,-542,6913,22.0952,4874,789
2.47824,695.5178,-541,6914,21.9956,4874,789
2.48976,710.83137,-540,6915,21.9956,4874,789
1.85804,704.52394,-539,6916,21.7965,4874,789
2.32946,704.817,-538,6917,22.145,4874,789
3.01313,715.49163,-537,6918,21.9459,4874,789
2.40401,728.86122,-536,6919,21.8463,4874,789
1.63993,736.57839,-535,6920,21.8463,4874,789
2.0156,732.807,-534,6921,22.0952,4874,789
2.73089,718.53938,-533,6922,21.9459,4874,789
2.67977,707.25128,-532,6923,21.9956,4768,835
3.01472,705.25314,-531,6924,21.9459,4768,835
2.75695,686.74579,-530,6925,21.9459,4768,835
2.45892,691.20102,-529,6926,22.0952,4768,835
2.16392,717.5305,-528,6927,21.8463,4768,835
1.99659,717.18594,-527,6928,21.9459,4768,835
1.29923,693.1533,-526,6929,21.9956,4768,835
2.75176,676.74505,-525,6930,21.9459,4768,835
1.79273,670.73186,-524,6931,21.9459,4768,835
2.36401,657.6454,-523,6932,22.145,4768,835
1.9942,641.61091,-522,6933,21.9459,4615,844
1.30655,653.79066,-521,6934,21.7965,4615,844
1.15548,670.38593,-520,6935,21.9956,4615,844
1.60168,671.61082,-519,6936,21.8463,4615,844
1.47134,651.11477,-518,6937,21.8463,4615,844
1.65728,611.04372,-517,6938,21.9459,4615,844
2.05543,561.77465,-516,6939,22.145,4615,844
1.39139,550.59646,-515,6940,21.9459,4615,844
3.92816,556.13092,-514,6941,21.8463,4615,844
1.45505,578.27535,-513,6942,21.9459,4615,844
2.68155,591.23674,-512,6943,22.145,4498,837
2.19672,583.44627,-511,6944,22.145,4498,837
1.92608,575.09727,-510,6945,21.9956,4498,837
2.64575,564.36733,-509,6946,21.7965,4498,837
1.98461,568.70202,-508,6947,21.9459,4498,837
2.04379,596.44651,-507,6948,21.9459,4498,837
2.41983,607.25534,-506,6949,21.9956,4498,837
2.81853,593.62688,-505,6950,21.7965,4498,837
3.47332,607.15993,-504,6951,21.9956,4498,837
2.62948,630.2166,-503,6952,22.0952,4498,837
4.44845,596.5936,-502,6953,22.0952,4416,836
3.33893,485.77397,-501,6954,22.0952,4416,836
3.33321,403.70426,-500,6955,22.145,4416,836
4.53234,370.81304,-499,6956,22.0952,4416,836
4.58257,329.37554,-498,6957,22.145,4416,836
4.18557,315.57794,-497,6958,22.0952,4416,836
4.61884,289.45826,-496,6959,21.8463,4416,836
4.02765,265.02128,-495,6960,21.7467,4416,836
3.86452,267.84544,-494,6961,21.8463,4416,836
3.67738,300.14759,-493,6962,22.0952,4416,836
4.08409,338.16204,-492,6963,21.9459,4404,841
3.87438,317.25933,-491,6964,22.145,4404,841
4.43772,228.25024,-490,6965,22.0952,4404,841
4.77019,192.72305,-489,6966,21.9956,4404,841
4.84064,211.98289,-488,6967,22.0952,4404,841
4.7078,276.61596,-487,6968,21.8463,4404,841
5.14344,316.53538,-486,6969,21.9956,4404,841
4.82584,309.16552,-485,6970,22.145,4404,841
4.98717,311.05954,-484,6971,21.7965,4404,841
6.10254,342.26907,-483,6972,21.9459,4404,841
4.59815,395.08009,-482,6973,21.9956,4405,842
5.87076,431.61123,-481,6974,21.7965,4405,842
4.49749,457.13094,-480,6975,22.0952,4405,842
4.99958,492.77318,-479,6976,21.8463,4405,842
4.98525,539.10088,-478,6977,22.145,4405,842
4.62606,594.64575,-477,6978,22.145,4405,842
4.8288,637.38176,-476,6979,21.9459,4405,842
4.52813,678.26504,-475,6980,21.8463,4405,842
4.50173,720.746,-474,6981,22.145,4405,842
4.45916,764.92761,-473,6982,22.145,4405,842
4.81,803.62924,-472,6983,22.0952,4513,844
4.68953,836.09699,-471,6984,21.9459,4513,844
5.07625,858.57102,-470,6985,21.7965,4513,844
4.42589,884.83392,-469,6986,21.8463,4513,844
4.14895,914.71086,-468,6987,22.0952,4513,844
4.67426,943.32034,-467,6988,22.145,4513,844
3.75056,966.19699,-466,6989,21.7467,4513,844
4.30353,990.77258,-465,6990,22.145,4513,844
3.42215,1022.3662,-464,6991,21.9956,4513,844
3.91357,1056.0352,-463,6992,21.8463,4513,844
4.56484,1081.0756,-462,6993,21.8463,4742,861
4.51548,1098.6405,-461,6994,21.7467,4742,861
3.39838,1119.1093,-460,6995,22.145,4742,861
4.46664,1144.0754,-459,6996,21.9956,4742,861
3.90381,1169.1818,-458,6997,21.9459,4742,861
3.53861,1187.8115,-457,6998,21.8463,4742,861
3.62908,1199.7595,-456,6999,21.9459,4742,861
2.92806,1210.5612,-455,7000,21.9459,4742,861
2.46473,1223.697,-454,7001,21.9459,4742,861
3.41238,1238.1386,-453,7002,22.0952,4742,861
2.76386,1247.5718,-452,7003,21.8463,5080,834
2.72214,1250.9906,-451,7004,22.145,5080,834
3.77085,1249.0551,-450,7005,21.7965,5080,834
3.11277,1243.0661,-449,7006,21.9459,5080,834
2.79304,1235.0226,-448,7007,22.145,5080,834
76.9798,1065.5752,-447,7008,21.9459,5080,834
29.1999,2368.0185,-446,7009,21.9459,5080,834
9.24852,1337.0615,-445,7010,22.145,5080,834
5.60822,1477.5642,-444,7011,22.145,5080,834
5.99931,1585.4702,-443,7012,21.9459,5080,834
6.81988,321.97389,-442,7013,22.0952,5395,834
9.10667,1437.8332,-441,7014,21.9956,5395,834
9.60066,1135.2086,-440,7015,21.9459,5395,834
8.44487,681.57771,-439,7016,21.7965,5395,834
7.86421,1587.6068,-438,7017,21.8463,5395,834
6.5488,1119.5708,-437,7018,21.7467,5395,834
5.44078,465.71557,-436,7019,21.9956,5395,834
4.1004,555.40349,-435,7020,22.0952,5395,834
14.637,95.306665,-434,7021,21.7467,5395,834
21.2868,488.32939,-433,7022,21.7467,5395,834
2.46086,433.19218,-432,7023,22.0952,5395,819
4.48581,443.72915,-431,7024,21.8463,5395,819
4.98908,406.74641,-430,7025,21.9459,5395,819
3.60403,438.89211,-429,7026,22.2943,5395,819
3.20336,463.71329,-428,7027,21.7965,5395,819
2.90024,440.94916,-427,7028,22.145,5395,819
2.08994,424.00975,-426,7029,22.0952,5395,819
2.18584,360.82056,-425,7030,21.9956,5395,819
1.92112,314.99122,-424,7031,21.9459,5395,819
1.09619,295.63971,-423,7032,22.145,5395,819
1.88099,291.82896,-422,7033,21.9459,5362,818
0.981433,294.94191,-421,7034,21.9459,5362,818
0.534885,286.73597,-420,7035,21.9956,5362,818
1.00068,271.8118,-419,7036,21.9459,5362,818
1.15135,271.88788,-418,7037,21.9459,5362,818
2.11037,288.27183,-417,7038,21.9956,5362,818
2.03444,307.46461,-416,7039,21.9459,5362,818
1.19604,320.18035,-415,7040,21.7467,5362,818
1.04725,335.21997,-414,7041,21.9459,5362,818
1.4118,355.50323,-413,7042,21.7965,5362,818
1.50022,373.52979,-412,7043,21.7965,5183,813
1.17594,384.97849,-411,7044,22.145,5183,813
0.971667,381.09931,-410,7045,22.1948,5183,813
1.11773,364.24887,-409,7046,21.7965,5183,813
3.03364,346.45243,-408,7047,22.0952,5183,813
2.36602,333.8642,-407,7048,21.9459,5183,813
2.25668,317.45419,-406,7049,21.8463,5183,813
2.53718,294.45386,-405,7050,21.8463,5183,813
3.51834,273.79468,-404,7051,22.0952,5183,813
2.13508,263.80369,-403,7052,21.9459,5183,813
2.41193,264.02319,-402,7053,22.145,5032,809
3.16442,260.47096,-401,7054,21.8463,5032,809
3.03049,247.35861,-400,7055,21.7965,5032,809
3.41378,241.03484,-399,7056,21.9956,5032,809
2.74308,245.76626,-398,7057,21.7965,5032,809
2.13508,247.9831,-397,7058,22.0952,5032,809
3.16894,248.17636,-396,7059,21.8463,5032,809
2.46667,248.08775,-395,7060,22.145,5032,809
1.1596,244.20879,-394,7061,21.9459,5032,809
1.38796,240.45847,-393,7062,21.9459,5032,809
1.50022,235.47692,-392,7063,21.7965,4889,805
2.86551,224.07195,-391,7064,22.145,4889,805
0.805294,206.04138,-390,7065,21.9459,4889,805
2.13954,184.92057,-389,7066,21.9956,4889,805
2.34985,167.55434,-388,7067,22.0952,4889,805
2.43554,165.14182,-387,7068,21.8463,4889,805
2.75349,181.82778,-386,7069,21.8463,4889,805
1.52856,207.68412,-385,7070,21.7965,4889,805
1.87592,234.48706,-384,7071,21.9459,4889,805
2.64935,257.24015,-383,7072,21.9956,4889,805
2.19889,271.57166,-382,7073,22.0952,4783,785
1.97256,275.223,-381,7074,21.9459,4783,785
2.20539,267.67314,-380,7075,21.9956,4783,785
2.78106,250.59025,-379,7076,21.9956,4783,785
2.09677,226.01763,-378,7077,21.7965,4783,785
1.27328,196.89098,-377,7078,22.145,4783,785
2.74308,166.1616,-376,7079,22.0952,4783,785
1.88858,137.26941,-375,7080,21.9956,4783,785
1.4118,112.54075,-374,7081,21.9459,4783,785
2.75868,92.297185,-373,7082,21.9956,4783,785
1.68298,78.243452,-372,7083,21.8463,4740,772
2.51643,71.5939,-371,7084,22.0952,4740,772
3.00997,72.301392,-370,7085,21.9956,4740,772
2.81853,80.585085,-369,7086,22.0952,4740,772
2.88706,95.417687,-368,7087,22.0952,4740,772
1.81651,113.45409,-367,7088,22.0952,4740,772
3.75818,131.2337,-366,7089,22.145,4740,772
2.32332,147.90535,-365,7090,22.0952,4740,772
2.40995,162.17646,-364,7091,21.7965,4740,772
3.22857,173.49906,-363,7092,21.8463,4740,772
1.80598,182.12866,-362,7093,22.145,4772,772
2.09677,188.18135,-361,7094,21.9459,4772,772
1.57163,193.34882,-360,7095,21.8463,4772,772
2.57635,198.19881,-359,7096,22.1948,4772,772
1.48103,205.16454,-358,7097,21.9956,4772,772
4.76118,214.70627,-357,7098,21.9956,4772,772
1.88858,227.13677,-356,7099,22.145,4772,772
2.09222,243.01787,-355,7100,21.8463,4772,772
2.57079,259.33449,-354,7101,21.9459,4772,772
1.79539,276.76632,-353,7102,22.145,4772,772
2.56522,295.24153,-352,7103,22.145,4854,768
0.793363,312.01805,-351,7104,21.9459,4854,768
2.19672,326.14423,-350,7105,22.0952,4854,768
1.94333,337.51015,-349,7106,22.145,4854,768
2.82529,345.72392,-348,7107,21.9459,4854,768
2.16171,350.28329,-347,7108,22.145,4854,768
4.52813,349.97371,-346,7109,21.9956,4854,768
2.1573,346.47275,-345,7110,21.9459,4854,768
2.32946,341.19054,-344,7111,22.0952,4854,768
2.11714,334.54202,-343,7112,21.9459,4854,768
1.98461,328.47778,-342,7113,21.8463,4992,773
2.15287,324.18575,-341,7114,21.8463,4992,773
2.60213,322.38642,-340,7115,21.7965,4992,773
2.21187,322.30194,-339,7116,21.7467,4992,773
2.19238,323.6482,-338,7117,21.9459,4992,773
1.25061,327.55823,-337,7118,21.9459,4992,773
2.02033,332.68765,-336,7119,21.9459,4992,773
1.77132,338.71256,-335,7120,21.9459,4992,773
1.78473,346.11293,-334,7121,21.9956,4992,773
1.30655,355.55543,-333,7122,21.9956,4992,773
1.26577,366.4245,-332,7123,21.9459,5093,780
2.0762,376.30561,-331,7124,22.0952,5093,780
1.27702,384.61539,-330,7125,22.0952,5093,780
1.64863,391.59745,-329,7126,22.145,5093,780
1.19205,396.45418,-328,7127,21.9956,5093,780
1.86827,399.91071,-327,7128,22.145,5093,780
0.889691,403.87095,-326,7129,22.145,5093,780
0.690534,407.45494,-325,7130,21.8463,5093,780
1.38452,408.19383,-324,7131,22.145,5093,780
0.447517,407.57495,-323,7132,22.145,5093,780
0.905627,408.83208,-322,7133,21.9956,5087,805
2.12837,375.07217,-321,7134,21.7965,5087,805
4.30131,438.46278,-320,7135,21.9956,5087,805
4.20035,544.48408,-319,7136,22.145,5087,805
2.0716,293.71601,-318,7137,21.9459,5087,805
1.82698,606.92607,-317,7138,22.145,5087,805
1.62239,527.85339,-316,7139,21.9459,5087,805
1.67161,318.26088,-315,7140,22.1948,5087,805
2.17929,355.08147,-314,7141,22.0952,5087,805
1.36019,584.70016,-313,7142,22.1948,5087,805
2.00374,833.94826,-312,7143,21.9459,5082,822
0.862477,739.98059,-311,7144,22.0952,5082,822
1.36019,538.40145,-310,7145,21.8463,5082,822
1.18402,468.99028,-309,7146,21.9459,5082,822
0.905627,513.99286,-308,7147,21.9956,5082,822
0.640375,530.34291,-307,7148,21.9459,5082,822
0.655098,426.41559,-306,7149,22.0952,5082,822
1.24679,318.82686,-305,7150,22.0952,5082,822
1.26577,293.15531,-304,7151,21.7467,5082,822
0.793363,317.92214,-303,7152,21.9459,5082,822
1.1596,336.05713,-302,7153,22.145,5055,827
1.51917,317.38988,-301,7154,22.0952,5055,827
0.878906,304.37701,-300,7155,22.145,5055,827
2.08765,323.51438,-299,7156,21.7467,5055,827
1.34255,360.63349,-298,7157,21.9956,5055,827
1.1596,375.68511,-297,7158,21.7965,5055,827
0.577742,362.30607,-296,7159,21.8463,5055,827
1.71664,357.30097,-295,7160,21.9956,5055,827
0.862477,365.54295,-294,7161,21.9459,5055,827
0.78733,363.88308,-293,7162,22.145,5055,827
1.12198,342.83831,-292,7163,21.9459,5009,816
0.971667,318.76703,-291,7164,21.8463,5009,816
0.458048,305.9179,-290,7165,22.0952,5009,816
1.74966,301.30151,-289,7166,21.9459,5009,816
1.20794,294.50993,-288,7167,22.0952,5009,816
0.921287,286.24221,-287,7168,21.8463,5009,816
1.66016,285.30895,-286,7169,22.0952,5009,816
1.63702,292.10028,-285,7170,22.0952,5009,816
1.95556,290.11987,-284,7171,22.0952,5009,816
1.14304,278.50625,-283,7172,22.145,5009,816
1.09619,303.26438,-282,7173,21.9459,5038,801
1.1472,341.72934,-281,7174,21.7467,5038,801
0.995902,356.66693,-280,7175,22.145,5038,801
2.04379,357.27599,-279,7176,21.9956,5038,801
1.55638,364.88252,-278,7177,21.9459,5038,801
2.00136,378.1663,-277,7178,22.145,5038,801
1.38452,386.07727,-276,7179,21.9956,5038,801
1.69427,387.05282,-275,7180,21.9956,5038,801
2.62766,380.14798,-274,7181,21.9459,5038,801
2.68333,364.53829,-273,7182,21.8463,5038,801
2.75695,345.65743,-272,7183,21.7965,5145,778
2.46086,331.23536,-271,7184,21.8463,5145,778
2.45115,323.60453,-270,7185,22.145,5145,778
1.9798,323.5719,-269,7186,21.8463,5145,778
2.43554,330.56665,-268,7187,21.9459,5145,778
3.15083,345.48154,-267,7188,21.9956,5145,778
3.80358,410.79673,-266,7189,22.0952,5145,778
4.33444,508.8767,-265,7190,22.145,5145,778
4.63224,585.22718,-264,7191,21.7467,5145,778
4.29465,597.8858,-263,7192,21.7965,5145,778
3.41238,536.69831,-262,7193,21.9459,5262,754
3.10203,431.41149,-261,7194,21.7965,5262,754
3.45129,354.14266,-260,7195,21.9459,5262,754
3.26528,339.71161,-259,7196,21.7965,5262,754
2.90517,388.48063,-258,7197,21.8463,5262,754
3.12653,440.46393,-257,7198,22.145,5262,754
3.12195,435.59121,-256,7199,22.1948,5262,754
3.4305,387.63591,-255,7200,21.9956,5262,754
3.8879,356.37144,-254,7201,22.145,5262,754
4.09109,368.17422,-253,7202,21.9459,5262,754
3.42911,393.81737,-252,7203,21.9459,5136,728
4.50279,411.23104,-251,7204,22.0952,5136,728
4.01342,429.55983,-250,7205,22.0952,5136,728
3.1311,457.94179,-249,7206,22.0952,5136,728
3.37868,494.08589,-248,7207,21.9459,5136,728
3.78977,535.8329,-247,7208,21.9459,5136,728
3.8136,577.5305,-246,7209,22.0952,5136,728
5.03853,615.41003,-245,7210,21.8463,5136,728
3.43606,649.13317,-244,7211,22.145,5136,728
3.28857,677.49958,-243,7212,22.0952,5136,728
2.44921,701.16925,-242,7213,21.7467,4931,768
3.054,718.91456,-241,7214,22.0952,4931,768
2.44141,731.89716,-240,7215,22.145,4931,768
2.25034,743.21901,-239,7216,21.9459,4931,768
2.65115,753.43712,-238,7217,21.8463,4931,768
2.47631,760.87772,-237,7218,22.1948,4931,768
2.14399,767.15397,-236,7219,21.9459,4931,768
2.65294,771.13017,-235,7220,22.0952,4931,768
2.01324,777.71698,-234,7221,21.9459,4931,768
4.0241,789.70595,-233,7222,21.7467,4931,768
3.07268,793.27998,-232,7223,22.145,5026,808
2.63491,796.08741,-231,7224,22.0952,5026,808
2.85384,796.69263,-230,7225,21.7965,5026,808
2.94106,787.7442,-229,7226,22.0952,5026,808
2.93944,768.60542,-228,7227,21.8463,5026,808
2.31715,749.89403,-227,7228,21.9459,5026,808
2.39407,724.94707,-226,7229,22.0952,5026,808
2.64935,703.30521,-225,7230,22.145,5026,808
3.03364,690.28357,-224,7231,21.8463,5026,808
3.50067,664.98293,-223,7232,21.9459,5026,808
3.50204,641.4017,-222,7233,22.145,5026,808
4.1455,620.54311,-221,7234,21.9459,5026,808
3.73272,587.93355,-220,7235,21.9459,5026,808
3.06336,555.85208,-219,7236,22.0952,5026,808
3.18695,529.25124,-218,7237,21.9459,5026,808
3.76958,507.41802,-217,7238,21.9956,5026,808
2.93781,488.55589,-216,7239,21.8463,5026,808
4.26457,495.08333,-215,7240,22.0952,5026,808
2.41391,576.54839,-214,7241,22.145,5026,808
2.62221,508.27409,-213,7242,21.9459,5026,808
3.80985,494.92292,-212,7243,22.145,5071,841
2.79986,538.82,-211,7244,21.7965,5071,841
5.51304,555.6436,-210,7245,22.145,5071,841
2.71512,528.52545,-209,7246,22.0952,5071,841
2.54656,498.98409,-208,7247,22.1948,5071,841
2.32126,469.62664,-207,7248,21.6472,5071,841
3.1097,431.82483,-206,7249,21.9459,5071,841
2.52021,397.76169,-205,7250,21.7965,5071,841
3.36312,367.67053,-204,7251,21.8463,5071,841
2.79815,348.44081,-203,7252,22.0952,5071,841
2.65115,336.04004,-202,7253,21.9459,5112,865
3.46645,327.68554,-201,7254,22.0952,5112,865
1.90617,327.45304,-200,7255,21.9459,5112,865
2.85884,332.82076,-199,7256,21.9459,5112,865
2.32332,336.81157,-198,7257,21.9459,5112,865
2.13508,340.68687,-197,7258,22.0952,5112,865
2.51263,347.71021,-196,7259,22.1948,5112,865
1.79804,356.00705,-195,7260,21.9459,5112,865
0.926449,362.91097,-194,7261,21.9459,5112,865
1.73323,369.02891,-193,7262,21.8463,5112,865
0.845728,374.3707,-192,7263,22.0952,5227,877
1.28817,377.36356,-191,7264,22.145,5227,877
1.1596,377.8914,-190,7265,22.0952,5227,877
0.697405,380.62757,-189,7266,22.145,5227,877
0.811194,383.70763,-188,7267,21.9956,5227,877
1.13045,384.8441,-187,7268,22.2943,5227,877
1.01487,384.62085,-186,7269,22.0952,5227,877
0.862477,384.58164,-185,7270,22.0952,5227,877
0.995902,383.24655,-184,7271,21.8463,5227,877
1.02423,382.93583,-183,7272,21.9459,5227,877
1.39139,385.35189,-182,7273,21.9459,5343,876
0.85693,387.39204,-181,7274,21.9956,5343,876
1.20794,388.45608,-180,7275,22.0952,5343,876
3.00045,390.9356,-179,7276,21.8463,5343,876
1.43525,393.77366,-178,7277,21.9956,5343,876
0.895034,392.71496,-177,7278,21.9459,5343,876
1.40163,391.94242,-176,7279,21.9956,5343,876
2.0785,391.55422,-175,7280,22.0952,5343,876
1.09619,387.32806,-174,7281,21.9956,5343,876
1.45176,384.89817,-173,7282,21.9956,5343,876
2.04845,386.08132,-172,7283,21.9459,5629,861
2.39407,387.34201,-171,7284,22.145,5629,861
2.29856,387.7117,-170,7285,21.9459,5629,861
1.52856,389.95521,-169,7286,21.8463,5629,861
2.00374,393.29132,-168,7287,22.1948,5629,861
2.28399,395.56692,-167,7288,21.9459,5629,861
1.41517,396.52778,-166,7289,21.9956,5629,861
1.13886,396.25227,-165,7290,22.145,5629,861
2.15951,395.56969,-164,7291,22.0952,5629,861
1.68014,393.68077,-163,7292,21.8463,5629,861
1.59572,390.04088,-162,7293,22.145,5902,840
2.44921,386.07422,-161,7294,22.0952,5902,840
1.95556,381.68328,-160,7295,22.145,5902,840
1.66589,377.65653,-159,7296,21.9956,5902,840
1.60168,372.32594,-158,7297,21.9459,5902,840
1.23912,362.99559,-157,7298,22.0952,5902,840
1.79539,349.78958,-156,7299,22.1948,5902,840
2.48208,335.88263,-155,7300,21.9956,5902,840
2.04146,323.10596,-154,7301,21.9459,5902,840
1.89614,312.32574,-153,7302,22.1948,5902,840
2.54094,300.25029,-152,7303,21.9956,5896,820
2.55031,285.07015,-151,7304,22.145,5896,820
3.07268,267.702,-150,7305,22.145,5896,820
2.56336,249.29941,-149,7306,22.0952,5896,820
2.77763,231.00871,-148,7307,21.9956,5896,820
2.80666,213.69481,-147,7308,22.0952,5896,820
2.37809,195.85233,-146,7309,21.8463,5896,820
3.26382,177.42646,-145,7310,21.9459,5896,820
3.26966,158.20374,-144,7311,21.9459,5896,820
3.13262,137.29676,-143,7312,21.9459,5896,820
3.79354,100.78189,-142,7313,21.9956,5823,810
3.48976,23.71371,-141,7314,21.9459,5823,810
3.15386,74.592952,-140,7315,21.9459,5823,810
2.76214,141.09068,-139,7316,22.0952,5823,810
3.67738,145.17609,-138,7317,21.9956,5823,810
2.88541,98.778193,-137,7318,21.9459,5823,810
1.91864,101.87804,-136,7319,22.0952,5823,810
2.66012,121.90987,-135,7320,21.9956,5823,810
2.56336,142.87588,-134,7321,21.9459,5823,810
2.85884,174.8983,-133,7322,22.145,5823,810
1.61945,191.80214,-132,7323,21.7965,5904,816
2.0693,197.87537,-131,7324,21.9459,5904,816
1.48103,205.15807,-130,7325,21.8463,5904,816
3.53321,216.07766,-129,7326,21.9956,5904,816
2.3539,227.82912,-128,7327,21.9459,5904,816
2.35593,238.66057,-127,7328,21.9956,5904,816
4.33774,251.27352,-126,7329,21.9956,5904,816
2.80666,262.46426,-125,7330,21.8463,5904,816
2.44336,271.47106,-124,7331,22.0952,5904,816
1.79007,278.52449,-123,7332,22.0952,5904,816
1.92608,285.07015,-122,7333,21.7965,6124,822
2.75695,287.271,-121,7334,22.0952,6124,822
0.717624,283.32951,-120,7335,22.145,6124,822
1.44188,277.28932,-119,7336,22.0952,6124,822
2.0739,274.23356,-118,7337,21.8463,6124,822
0.632885,271.95778,-117,7338,21.9956,6124,822
2.04146,266.52078,-116,7339,21.9956,6124,822
1.40163,259.13526,-115,7340,22.0952,6124,822
0.971667,256.55579,-114,7341,22.0952,6124,822
1.37415,256.66638,-113,7342,22.1948,6124,822
2.3539,255.45312,-112,7343,21.9459,6391,826
2.11488,255.01192,-111,7344,22.145,6391,826
1.70829,255.49445,-110,7345,21.7965,6391,826
2.06006,257.28281,-109,7346,21.9459,6391,826
0.805294,255.44988,-108,7347,21.8463,6391,826
1.92608,250.93043,-107,7348,21.8463,6391,826
0.966748,245.21753,-106,7349,21.9956,6391,826
3.26966,258.87536,-105,7350,22.145,6391,826
5.4109,326.69585,-104,7351,21.9956,6391,826
3.29291,324.02193,-103,7352,22.0952,6391,826
1.73047,241.57459,-102,7353,22.0952,6649,814
0.995902,251.734,-101,7354,22.1948,6649,814
1.73047,254.65871,-100,7355,21.8463,6649,814
1.1472,215.95546,-99,7356,22.1948,6649,814
1.31383,179.31713,-98,7357,21.9459,6649,814
0.683594,165.72946,-97,7358,21.9459,6649,814
0.569429,159.37082,-96,7359,21.9459,6649,814
2.51263,152.73455,-95,7360,21.8463,6649,814
1.22363,145.13801,-94,7361,21.9459,6649,814
0.873464,146.46327,-93,7362,22.0952,6649,814
1.04268,157.84225,-92,7363,21.7965,6676,799
0.946812,171.20682,-91,7364,21.9956,6676,799
0.218366,180.23552,-90,7365,21.8463,6676,799
0.323889,196.84007,-89,7366,22.145,6676,799
0.525895,223.58103,-88,7367,22.145,6676,799
0.683594,249.50103,-87,7368,22.0952,6676,799
0.845728,269.64953,-86,7369,21.9956,6676,799
7.2726,244.94746,-85,7370,22.0952,6676,799
8.62532,396.41272,-84,7371,21.9956,6676,799
4.58153,539.45502,-83,7372,21.8463,6676,799
2.00136,327.51353,-82,7373,21.8463,6955,780
1.5034,130.20514,-81,7374,22.0952,6955,780
2.41786,57.303008,-80,7375,22.1948,6955,780
3.18246,196.90426,-79,7376,22.145,6955,780
2.54844,300.06427,-78,7377,22.145,6955,780
1.84774,272.25864,-77,7378,21.9956,6955,780
2.29856,152.67976,-76,7379,21.8463,6955,780
2.3539,106.44433,-75,7380,21.9956,6955,780
1.37415,137.78451,-74,7381,22.145,6955,780
2.37608,177.93238,-73,7382,21.7965,6955,780
2.10811,181.45488,-72,7383,22.145,7023,776
1.51917,139.12407,-71,7384,22.145,7023,776
1.53789,158.03057,-70,7385,22.0952,7023,776
0.834375,181.52512,-69,7386,22.0952,7023,776
0.632885,203.95392,-68,7387,22.0952,7023,776
0.981433,200.41971,-67,7388,21.9459,7023,776
1.09183,182.24852,-66,7389,21.9956,7023,776
2.37809,171.72794,-65,7390,21.8463,7023,776
1.47134,168.82324,-64,7391,21.8463,7023,776
1.11773,173.68139,-63,7392,21.8463,7023,776
2.0693,177.05267,-62,7393,22.145,7114,772
2.05078,182.27191,-61,7394,21.9956,7114,772
0.905627,189.08597,-60,7395,21.9459,7114,772
2.0739,201.49668,-59,7396,22.0952,7114,772
1.69427,204.56045,-58,7397,22.0952,7114,772
0.889691,203.36566,-57,7398,22.0952,7114,772
1.77132,206.5847,-56,7399,21.8463,7114,772
2.41391,212.59785,-55,7400,22.145,7114,772
2.22905,211.53884,-54,7401,21.9459,7114,772
3.56546,193.74481,-53,7402,22.2943,7114,772
1.53168,174.24069,-52,7403,21.7467,7190,774
2.11037,162.85859,-51,7404,21.8463,7190,774
2.04146,152.71796,-50,7405,21.9956,7190,774
2.15287,137.38877,-49,7406,22.0952,7190,774
2.93781,120.22153,-48,7407,21.9459,7190,774
1.36019,101.86473,-47,7408,21.9459,7190,774
1.25061,88.203636,-46,7409,22.0952,7190,774
2.21832,82.052682,-45,7410,22.145,7190,774
2.64575,75.188674,-44,7411,21.7467,7190,774
1.55638,69.517301,-43,7412,22.145,7190,774
4.02292,62.899386,-42,7413,21.9956,7272,775
1.21188,49.414961,-41,7414,21.9956,7272,775
1.10485,57.825391,-40,7415,21.9956,7272,775
1.85804,102.45401,-39,7416,22.145,7272,775
1.15548,84.040512,-38,7417,21.9459,7272,775
1.51603,83.560406,-37,7418,21.9956,7272,775
1.94088,97.645339,-36,7419,22.0952,7272,775
2.86051,86.097395,-35,7420,21.9459,7272,775
1.08306,72.149235,-34,7421,21.9956,7272,775
1.47134,64.30893,-33,7422,22.1948,7272,775
2.14177,66.294295,-32,7423,21.9459,7419,775
1.96529,81.878702,-31,7424,21.8463,7419,775
2.19238,100.83599,-30,7425,21.8463,7419,775
1.4118,112.06786,-29,7426,21.8463,7419,775
1.48103,120.40521,-28,7427,22.0952,7419,775
1.86572,134.2552,-27,7428,22.1948,7419,775
1.81125,159.88238,-26,7429,22.145,7419,775
1.20399,186.66598,-25,7430,22.145,7419,775
0.793363,200.09182,-24,7431,22.145,7419,775
1.32827,223.05243,-23,7432,21.9459,7419,775
1.06082,248.6254,-22,7433,22.145,7505,767
1.17998,278.79098,-21,7434,21.8463,7505,767
1.57466,296.87244,-20,7435,21.8463,7505,767
2.60213,290.57742,-19,7436,22.0952,7505,767
0.941763,256.47554,-18,7437,22.0952,7505,767
1.06082,220.3828,-17,7438,22.0952,7505,767
1.09619,199.60109,-16,7439,21.8463,7505,767
0.750112,185.12063,-15,7440,21.8463,7505,767
1.1472,185.80874,-14,7441,21.9459,7505,767
1.39139,226.56875,-13,7442,21.9956,7505,767
1.42525,286.76068,-12,7443,21.8463,7505,767
3.12805,342.37487,-11,7444,22.0952,7505,767
1.73872,386.97858,-10,7445,22.145,7505,767
3.25211,430.12638,-9,7446,21.8463,7505,767
2.82698,465.99221,-8,7447,22.1948,7505,767
2.05078,477.40716,-7,7448,22.145,7505,767
1.88099,474.32031,-6,7449,21.9459,7505,767
1.61945,473.79358,-5,7450,21.9459,7505,767
3.8186,470.07493,-4,7451,22.0952,7505,767
3.14022,451.60652,-3,7452,22.0952,7505,767
3.90869,652.45561,-2,7453,21.9459,7806,775
7.38968,1165.0567,-1,7454,22.1948,7806,775
11.2237,553.86092,0,7455,21.9956,7806,775
6.46157,577.49846,1,7456,21.7467,7806,775
1.63993,482.73853,2,7457,22.0952,7806,775
1.52856,281.11372,3,7458,22.145,7806,775
1.10916,533.91502,4,7459,21.9459,7806,775
3.05868,280.41392,5,7460,22.145,7806,775
2.34985,548.83983,6,7461,21.9459,7806,775
1.22363,627.7721,7,7462,22.0952,7806,775
1.56555,384.97319,8,7463,21.8463,9472,773
2.05543,260.23596,9,7464,22.0952,9472,773
1.26953,191.64767,10,7465,21.8463,9472,773
3.18096,106.59437,11,7466,21.9956,9472,773
3.55071,21.768597,12,7467,21.8463,9472,773
3.02892,132.7116,13,7468,21.7965,9472,773
2.14622,211.37436,14,7469,21.7467,9472,773
2.39805,212.13327,15,7470,22.1948,9472,773
6.71489,182.59401,16,7471,22.1948,9472,773
5.16102,160.08343,17,7472,21.9956,9472,773
3.5413,44.594442,18,7473,21.9459,9644,771
1.81651,105.32857,19,7474,21.9956,9644,771
1.49385,166.41322,20,7475,21.9956,9644,771
1.93842,152.30217,21,7476,22.0952,9644,771
2.09677,135.88531,22,7477,21.9459,9644,771
2.70985,138.36065,23,7478,21.8463,9644,771
2.85718,155.57305,24,7479,22.1948,9644,771
1.68863,131.04059,25,7480,21.7467,9644,771
2.23759,64.54796,26,7481,21.9956,9644,771
2.03444,29.998019,27,7482,21.9956,9644,771
1.02423,40.3693,28,7483,21.7467,9983,766
2.1771,61.408162,29,7484,22.145,9983,766
2.34782,55.593747,30,7485,22.145,9983,766
2.32332,39.555867,31,7486,21.9956,9983,766
1.68014,42.753548,32,7487,22.3441,9983,766
1.23912,59.550923,33,7488,21.9459,9983,766
2.11263,64.742508,34,7489,21.9956,9983,766
1.68863,53.508725,35,7490,21.9459,9983,766
2.59295,47.262025,36,7491,22.145,9983,766
2.16832,50.56806,37,7492,22.0952,9983,766
1.46484,51.268078,38,7493,21.8463,10212,765
2.32332,45.649727,39,7494,22.0952,10212,765
1.65728,36.200383,40,7495,22.145,10212,765
2.0716,28.572016,41,7496,21.9956,10212,765
1.13045,26.314294,42,7497,21.9459,10212,765
1.70829,25.189409,43,7498,21.9956,10212,765
0.921287,25.006842,44,7499,21.9459,10212,765
1.98461,29.459692,45,7500,21.8463,10212,765
1.02423,34.363389,46,7501,22.0952,10212,765
1.92112,34.381814,47,7502,21.9459,10212,765
2.42376,33.28448,48,7503,21.7965,10336,762
1.4118,35.495604,49,7504,21.9956,10336,762
1.63993,41.383456,50,7505,21.9459,10336,762
2.28816,48.708655,51,7506,22.145,10336,762
1.83479,53.982689,52,7507,22.145,10336,762
1.89362,53.169574,53,7508,22.2943,10336,762
1.85547,51.837931,54,7509,21.9459,10336,762
1.68298,54.14503,55,7510,21.9956,10336,762
1.17594,59.065257,56,7511,22.0952,10336,762
2.20323,62.604935,57,7512,21.9459,10336,762
1.66303,66.122346,58,7513,22.0952,10405,765
1.8606,70.282612,59,7514,22.145,10405,765
1.09619,75.231172,60,7515,22.145,10405,765
2.0156,78.767613,61,7516,21.8463,10405,765
1.87592,78.303419,62,7517,22.0952,10405,765
1.51603,81.745741,63,7518,21.8463,10405,765
2.05543,88.653139,64,7519,22.145,10405,765
1.60168,95.328473,65,7520,21.9459,10405,765
1.39139,102.04414,66,7521,22.145,10405,765
0.889691,104.80566,67,7522,22.0952,10405,765
2.55777,104.13828,68,7523,22.145,10523,760
1.73323,102.38884,69,7524,22.0952,10523,760
1.49066,101.58106,70,7525,22.145,10523,760
1.01016,99.677119,71,7526,21.9459,10523,760
1.26577,96.024111,72,7527,21.9956,10523,760
2.41786,94.125156,73,7528,21.9459,10523,760
1.70829,93.471909,74,7529,21.8463,10523,760
2.09449,92.729096,75,7530,21.9459,10523,760
0.768946,92.715195,76,7531,21.9956,10523,760
2.2819,94.508047,77,7532,22.0952,10523,760
1.80334,99.208624,78,7533,22.0952,10646,766
1.21188,103.83169,79,7534,21.9459,10646,766
1.38452,108.39026,80,7535,21.7467,10646,766
1.48103,113.11763,81,7536,21.7965,10646,766
1.73872,115.62095,82,7537,22.145,10646,766
1.91864,115.31794,83,7538,21.8463,10646,766
3.8186,116.6013,84,7539,21.9956,10646,766
1.70549,121.98007,85,7540,22.0952,10646,766
1.3637,126.49924,86,7541,21.8463,10646,766
1.86316,127.91693,87,7542,21.9459,10646,766
1.74146,128.56606,88,7543,21.7965,10838,767
1.77132,130.24588,89,7544,21.9956,10838,767
2.16171,134.66552,90,7545,22.0952,10838,767
1.56859,140.29475,91,7546,21.8463,10838,767
2.09677,144.64529,92,7547,22.145,10838,767
2.21402,146.81212,93,7548,22.0952,10838,767
4.20489,149.67817,94,7549,21.9459,10838,767
0.961803,156.78034,95,7550,22.0952,10838,767
2.0156,159.85885,96,7551,22.0952,10838,767
1.21188,162.72142,97,7552,22.145,10838,767
1.76323,169.96615,98,7553,22.145,11042,772
1.98701,172.2371,99,7554,22.3441,11042,772
1.36719,170.90655,100,7555,22.145,11042,772
