Linear acceleration,Rotational velocity,Time values,Absolute time values,Temperature,Ambient light,Reflected light
1.3461,10.257539,-2000,30025,27.5713,12585,742
1.41517,10.226258,-1999,30026,27.5713,12585,742
1.57769,10.344334,-1998,30027,27.7704,12585,742
1.52856,10.191226,-1997,30028,27.5713,12585,742
1.80598,9.981441,-1996,30029,27.621,12585,742
1.92856,10.011254,-1995,30030,27.4219,12585,742
1.62532,10.044688,-1994,30031,27.621,12585,742
1.43857,10.07949,-1993,30032,27.621,12585,742
0.799351,10.28148,-1992,30033,27.6708,12585,742
1.73047,10.430406,-1991,30034,27.621,12585,742
1.3102,10.54761,-1990,30035,27.5713,12585,742
1.41854,10.546903,-1989,30036,27.6708,12585,742
1.25821,10.781649,-1988,30037,27.6708,12591,738
1.19205,10.89986,-1987,30038,27.8202,12591,738
1.84257,10.724139,-1986,30039,27.4717,12591,738
1.12198,10.602564,-1985,30040,27.4717,12591,738
1.64863,10.634139,-1984,30041,27.621,12591,738
2.46473,10.514358,-1983,30042,27.7704,12591,738
2.37005,10.549729,-1982,30043,28.1189,12591,738
1.36019,10.667018,-1981,30044,27.6708,12591,738
1.10916,10.516483,-1980,30045,27.4717,12591,738
0.811194,10.436119,-1979,30046,27.4717,12591,738
1.1472,10.359448,-1978,30047,27.5713,12591,745
1.54099,10.440402,-1977,30048,27.6708,12591,745
1.76323,10.70954,-1976,30049,27.6708,12591,745
1.69708,10.751893,-1975,30050,27.4219,12591,745
1.25821,10.546903,-1974,30051,27.6708,12591,745
1.07865,10.348654,-1973,30052,27.621,12591,745
0.632885,10.396779,-1972,30053,27.8202,12591,745
0.697405,10.57019,-1971,30054,27.5713,12591,745
1.09183,10.364481,-1970,30055,27.4717,12591,745
0.921287,10.396063,-1969,30056,27.6708,12591,745
1.4681,10.514358,-1968,30057,27.6708,12593,742
0.840071,10.749121,-1967,30058,27.7704,12593,742
0.981433,10.987684,-1966,30059,27.621,12593,742
1.07422,11.227151,-1965,30060,27.4717,12593,742
1.4681,11.141215,-1964,30061,27.4717,12593,742
0.921287,11.018832,-1963,30062,27.621,12593,742
1.40163,11.04652,-1962,30063,27.7704,12593,742
1.32467,10.905327,-1961,30064,27.5713,12593,742
1.62826,10.901911,-1960,30065,27.4717,12593,742
1.83998,10.935347,-1959,30066,27.5713,12593,742
2.01324,10.821655,-1958,30067,27.6708,12594,745
1.79539,10.818212,-1957,30068,27.5713,12594,745
1.26577,10.664922,-1956,30069,27.6708,12594,745
1.52231,10.430406,-1955,30070,27.621,12594,745
1.88858,10.582165,-1954,30071,27.7704,12594,745
1.54408,10.467485,-1953,30072,27.4717,12594,745
1.42525,10.387459,-1952,30073,27.5713,12594,745
1.66875,10.385307,-1951,30074,27.621,12594,745
1.39481,10.584277,-1950,30075,27.621,12594,745
0.873464,10.503723,-1949,30076,27.4717,12594,745
1.958,10.234269,-1948,30077,27.7704,12590,742
1.10916,10.348654,-1947,30078,27.621,12590,742
0.507437,10.38459,-1946,30079,27.621,12590,742
1.31745,10.350814,-1945,30080,27.621,12590,742
2.06237,10.081707,-1944,30081,27.621,12590,742
2.12388,10.232085,-1943,30082,27.6708,12590,742
2.25034,10.307535,-1942,30083,27.621,12590,742
1.06977,10.307535,-1941,30084,27.621,12590,742
1.51917,10.196343,-1940,30085,27.621,12590,742
1.23912,10.569485,-1939,30086,27.6708,12590,742
2.15066,10.925804,-1938,30087,27.4717,12595,744
2.0156,10.925804,-1937,30088,27.4717,12595,744
1.75781,10.662127,-1936,30089,27.621,12595,744
1.67161,10.688648,-1935,30090,27.6708,12595,744
1.21188,10.37023,-1934,30091,27.5713,12595,744
1.67161,10.606077,-1933,30092,27.5713,12595,744
2.20323,10.89986,-1932,30093,27.621,12595,744
1.41517,10.838854,-1931,30094,27.6708,12595,744
2.72214,10.817524,-1930,30095,27.6708,12595,744
1.60168,10.92785,-1929,30096,27.4717,12595,744
1.67161,10.690739,-1928,30097,27.5713,12596,743
1.54099,10.720665,-1927,30098,27.6708,12596,743
1.99659,10.699099,-1926,30099,27.621,12596,743
1.27702,10.546903,-1925,30100,27.621,12596,743
1.80334,10.867001,-1924,30101,27.5713,12596,743
2.23759,10.781649,-1923,30102,27.7704,12596,743
1.24679,10.514358,-1922,30103,27.7704,12596,743
1.90617,10.363762,-1921,30104,27.5713,12596,743
1.55638,10.24591,-1920,30105,27.621,12596,743
1.98701,10.513649,-1919,30106,27.5713,12596,743
1.79539,10.513649,-1918,30107,27.3223,12587,744
1.7551,10.24591,-1917,30108,27.4717,12587,744
0.878906,10.24591,-1916,30109,27.4219,12587,744
1.19205,10.313316,-1915,30110,27.8202,12587,744
1.09183,10.428978,-1914,30111,27.621,12587,744
2.20323,10.468197,-1913,30112,27.6708,12587,744
1.48103,10.313316,-1912,30113,27.6708,12587,744
1.05631,10.27133,-1911,30114,27.7704,12587,744
2.04845,10.231357,-1910,30115,27.621,12587,744
1.57466,10.429692,-1909,30116,27.5713,12587,744
1.68298,10.698403,-1908,30117,27.4717,12596,743
1.92112,10.699099,-1907,30118,27.621,12596,743
0.981433,10.54761,-1906,30119,27.4219,12596,743
2.12388,10.279306,-1905,30120,27.4717,12596,743
1.56555,10.396779,-1904,30121,27.8699,12596,743
1.85804,10.465349,-1903,30122,27.621,12596,743
2.08537,10.387459,-1902,30123,27.6708,12596,743
1.17998,10.153139,-1901,30124,27.5713,12596,743
0.497951,10.38459,-1900,30125,27.7704,12596,743
1.69146,10.618012,-1899,30126,27.5713,12596,743
0.971667,10.771279,-1898,30127,27.7704,12597,749
1.20794,10.770587,-1897,30128,27.5713,12597,749
1.48103,10.850533,-1896,30129,27.8202,12597,749
1.3637,10.699099,-1895,30130,27.6708,12597,749
1.58673,10.503723,-1894,30131,27.621,12597,749
2.31921,10.01051,-1893,30132,27.4219,12597,749
2.32946,10.324147,-1892,30133,27.621,12597,749
1.01016,10.59905,-1891,30134,27.6708,12597,749
1.36019,10.991752,-1890,30135,27.4717,12597,749
0.862477,11.041123,-1889,30136,27.6708,12597,749
1.76052,11.009362,-1888,30137,27.621,12593,744
1.11773,10.965285,-1887,30138,27.4717,12593,744
1.18402,11.019508,-1886,30139,27.4717,12593,744
1.66303,11.086915,-1885,30140,27.7704,12593,744
1.1472,10.89986,-1884,30141,27.4717,12593,744
1.73047,10.957128,-1883,30142,27.6708,12593,744
0.447517,10.580757,-1882,30143,27.4717,12593,744
1.83739,10.396779,-1881,30144,27.6708,12593,744
1.31745,10.396779,-1880,30145,27.621,12593,744
1.84257,10.78234,-1879,30146,27.8202,12593,744
1.17594,10.98565,-1878,30147,27.621,12593,748
1.32827,10.688648,-1877,30148,27.6708,12593,748
1.87846,10.428263,-1876,30149,27.621,12593,748
1.42859,10.433263,-1875,30150,27.8202,12593,748
1.39139,10.694223,-1874,30151,27.621,12593,748
1.36019,11.022212,-1873,30152,27.4717,12593,748
2.04146,11.141215,-1872,30153,27.6708,12593,748
1.60466,10.89986,-1871,30154,27.6708,12593,748
0.966748,10.662127,-1870,30155,27.8699,12593,748
1.40163,10.484554,-1869,30156,27.5713,12593,748
1.54099,10.252453,-1868,30157,27.5713,12584,745
1.46484,10.046913,-1867,30158,27.6708,12584,745
2.14399,9.8097757,-1866,30159,27.5713,12584,745
0.966748,9.9298028,-1865,30160,27.4717,12584,745
1.9798,10.290173,-1864,30161,27.621,12584,745
1.63702,10.524981,-1863,30162,27.621,12584,745
1.91615,10.840229,-1862,30163,27.4717,12584,745
1.88858,10.984293,-1861,30164,27.6708,12584,745
1.04268,10.784413,-1860,30165,27.5713,12584,745
1.74966,10.279306,-1859,30166,27.5713,12584,745
1.81388,9.9650057,-1858,30167,27.621,12597,745
1.81913,9.9612666,-1857,30168,27.6708,12597,745
1.18402,10.001575,-1856,30169,27.5713,12597,745
1.19205,9.9612666,-1855,30170,27.5713,12597,745
1.07422,9.9612666,-1854,30171,27.6708,12597,745
1.66589,10.15534,-1853,30172,27.6708,12597,745
2.09449,10.436119,-1852,30173,27.4219,12597,745
1.96772,10.901911,-1851,30174,27.621,12597,745
2.10585,10.631336,-1850,30175,27.4717,12597,745
1.38452,10.484554,-1849,30176,27.621,12597,745
1.9335,10.54761,-1848,30177,27.7704,12599,747
1.94088,10.582165,-1847,30178,27.4219,12599,747
1.67161,10.516483,-1846,30179,27.621,12599,747
1.79804,10.364481,-1845,30180,27.5713,12599,747
1.31383,10.482422,-1844,30181,27.5713,12599,747
1.93596,10.482422,-1843,30182,27.5713,12599,747
1.40163,10.451814,-1842,30183,27.5713,12599,747
1.36019,10.274956,-1841,30184,27.7704,12599,747
2.15287,10.422546,-1840,30185,27.5713,12599,747
1.34255,10.484554,-1839,30186,27.5713,12599,747
1.20794,10.600455,-1838,30187,27.4219,12589,748
1.10916,10.569485,-1837,30188,27.621,12589,748
1.85804,10.687951,-1836,30189,27.6708,12589,748
0.811194,10.482422,-1835,30190,27.4717,12589,748
1.81125,10.600455,-1834,30191,27.5713,12589,748
1.57769,10.600455,-1833,30192,27.5713,12589,748
1.59572,10.569485,-1832,30193,27.4717,12589,748
1.54717,10.57019,-1831,30194,27.621,12589,748
1.3029,10.453952,-1830,30195,27.4717,12589,748
1.88858,10.599753,-1829,30196,27.8202,12589,748
2.09904,10.516483,-1828,30197,27.621,12598,749
2.52021,10.315483,-1827,30198,27.6708,12598,749
1.83739,10.514358,-1826,30199,27.6708,12598,749
1.68298,10.631336,-1825,30200,27.3223,12598,749
1.94824,10.664223,-1824,30201,27.621,12598,749
2.56336,10.632037,-1823,30202,27.6708,12598,749
1.55638,10.54761,-1822,30203,27.4717,12598,749
1.19604,10.429692,-1821,30204,27.5713,12598,749
1.61355,10.54761,-1820,30205,27.621,12598,749
1.70829,10.513649,-1819,30206,27.6708,12598,749
1.6341,10.396779,-1818,30207,27.621,12598,751
1.70549,10.429692,-1817,30208,27.7704,12598,751
0.717624,10.514358,-1816,30209,27.4717,12598,751
1.59273,10.481711,-1815,30210,27.6708,12598,751
1.57163,10.482422,-1814,30211,27.7704,12598,751
1.26577,10.516483,-1813,30212,27.5713,12598,751
2.14399,10.467485,-1812,30213,27.621,12598,751
0.577742,10.398929,-1811,30214,27.6708,12598,751
3.12195,10.290173,-1810,30215,27.5713,12598,751
1.73323,10.243001,-1809,30216,27.7704,12598,751
1.33185,10.198534,-1808,30217,27.7704,12590,749
1.31383,10.278581,-1807,30218,27.5713,12590,749
0.662337,10.396779,-1806,30219,27.6708,12590,749
1.67161,10.634139,-1805,30220,27.5713,12590,749
1.68863,10.749814,-1804,30221,27.4717,12590,749
1.47134,10.991074,-1803,30222,27.4717,12590,749
0.971667,10.991074,-1802,30223,27.621,12590,749
1.01016,10.720665,-1801,30224,27.6708,12590,749
1.82698,10.720665,-1800,30225,27.7704,12590,749
0.845728,10.751893,-1799,30226,27.5713,12590,749
1.43525,10.749814,-1798,30227,27.5713,12599,753
0.895034,10.698403,-1797,30228,27.621,12599,753
2.0693,10.816146,-1796,30229,27.621,12599,753
1.04725,10.869743,-1795,30230,27.5713,12599,753
2.49358,10.987684,-1794,30231,27.621,12599,753
2.33764,10.634139,-1793,30232,27.5713,12599,753
1.0381,10.584277,-1792,30233,27.621,12599,753
1.81125,10.740107,-1791,30234,27.5713,12599,753
1.60168,10.893023,-1790,30235,27.4717,12599,753
1.34255,10.524981,-1789,30236,27.6708,12599,753
1.76323,10.798911,-1788,30237,27.8202,12591,747
1.32467,10.553259,-1787,30238,27.8202,12591,747
1.27328,10.701188,-1786,30239,27.4717,12591,747
1.20794,10.776811,-1785,30240,27.6708,12591,747
1.45505,10.715799,-1784,30241,27.4717,12591,747
1.44518,10.402511,-1783,30242,27.621,12591,747
1.55638,10.600455,-1782,30243,27.5713,12591,747
1.85804,10.632037,-1781,30244,27.4717,12591,747
1.53789,10.717885,-1780,30245,27.8202,12591,747
1.73323,10.873169,-1779,30246,27.6708,12591,747
1.53789,10.514358,-1778,30247,27.7704,12599,749
2.55591,10.514358,-1777,30248,27.8202,12599,749
1.3461,10.514358,-1776,30249,27.7704,12599,749
1.70829,10.599753,-1775,30250,27.6708,12599,749
1.48103,10.484554,-1774,30251,27.6708,12599,749
2.15066,10.37023,-1773,30252,27.621,12599,749
1.78473,10.407523,-1772,30253,27.5713,12599,749
1.4681,10.375258,-1771,30254,27.8202,12599,749
1.31745,10.285103,-1770,30255,27.621,12599,749
1.81651,10.432549,-1769,30256,27.4717,12599,749
1.51917,10.584277,-1768,30257,27.621,12597,755
1.51917,10.198534,-1767,30258,27.8202,12597,755
2.1771,10.279306,-1766,30259,27.7704,12597,755
1.20399,10.248819,-1765,30260,27.621,12597,755
1.25442,10.339291,-1764,30261,27.6708,12597,755
1.48103,10.398929,-1763,30262,27.621,12597,755
1.60466,10.198534,-1762,30263,27.7704,12597,755
1.47781,10.319094,-1761,30264,27.6708,12597,755
0.884315,10.319094,-1760,30265,27.5713,12597,755
0.292969,10.196343,-1759,30266,27.7704,12597,755
1.15548,10.623624,-1758,30267,27.6708,12597,751
1.17998,10.54761,-1757,30268,27.6708,12597,751
0.976563,10.484554,-1756,30269,27.621,12597,751
2.03444,10.57019,-1755,30270,27.8202,12597,751
0.507437,10.363762,-1754,30271,27.5713,12597,751
1.66303,10.513649,-1753,30272,27.621,12597,751
1.23912,10.546903,-1752,30273,27.6708,12597,751
1.52856,10.546903,-1751,30274,27.8202,12597,751
1.47781,10.78234,-1750,30275,27.621,12597,751
0.981433,10.784413,-1749,30276,27.7704,12597,751
1.59273,10.546903,-1748,30277,27.4717,12601,758
1.80334,10.312594,-1747,30278,27.621,12601,758
1.45176,10.513649,-1746,30279,27.5713,12601,758
1.3637,10.749121,-1745,30280,27.6708,12601,758
2.02504,10.867001,-1744,30281,27.5713,12601,758
1.07865,10.751893,-1743,30282,27.621,12601,758
1.71664,10.664922,-1742,30283,27.6708,12601,758
1.34255,10.815457,-1741,30284,27.5713,12601,758
1.75781,10.867001,-1740,30285,27.5713,12601,758
1.30655,10.720665,-1739,30286,27.7704,12601,758
1.0381,10.634139,-1738,30287,27.6708,12602,756
1.8529,10.252453,-1737,30288,27.8202,12602,756
2.00612,10.514358,-1736,30289,27.8202,12602,756
1.94088,10.664922,-1735,30290,27.621,12602,756
1.52856,10.599753,-1734,30291,27.5713,12602,756
1.41517,10.543371,-1733,30292,27.7704,12602,756
0.85693,10.688648,-1732,30293,27.6708,12602,756
1.23912,10.749121,-1731,30294,27.621,12602,756
2.36199,10.89986,-1730,30295,27.5713,12602,756
2.30684,10.867001,-1729,30296,27.621,12602,756
1.7767,10.720665,-1728,30297,27.6708,12593,756
1.81913,10.687951,-1727,30298,27.6708,12593,756
0.981433,10.749121,-1726,30299,27.6708,12593,756
2.12388,10.54761,-1725,30300,27.7704,12593,756
1.36019,10.634139,-1724,30301,27.8699,12593,756
1.87592,10.488106,-1723,30302,27.4717,12593,756
1.81913,10.366638,-1722,30303,27.5713,12593,756
1.90617,10.366638,-1721,30304,27.621,12593,756
1.71386,10.396779,-1720,30305,27.621,12593,756
0.85693,10.315483,-1719,30306,27.6708,12593,756
1.5807,10.315483,-1718,30307,27.621,12593,759
1.20399,10.5582,-1717,30308,27.4717,12593,759
1.76323,10.723444,-1716,30309,27.4717,12593,759
1.14304,10.172933,-1715,30310,27.621,12593,759
1.958,10.128894,-1714,30311,27.5713,12593,759
1.4118,10.078751,-1713,30312,27.7704,12593,759
1.84774,10.234269,-1712,30313,27.8202,12593,759
2.03444,10.285103,-1711,30314,27.5713,12593,759
1.60168,10.315483,-1710,30315,27.3223,12593,759
1.1472,10.347934,-1709,30316,27.5713,12593,759
1.96287,10.198534,-1708,30317,27.621,12602,755
1.27328,10.396779,-1707,30318,27.4717,12602,755
2.40995,10.315483,-1706,30319,27.621,12602,755
1.78206,10.354412,-1705,30320,27.6708,12602,755
2.36199,10.347934,-1704,30321,27.7704,12602,755
1.66303,10.398929,-1703,30322,27.8202,12602,755
1.66875,10.631336,-1702,30323,27.5713,12602,755
0.845728,10.664223,-1701,30324,27.4717,12602,755
1.4219,10.717885,-1700,30325,27.9695,12602,755
1.84516,10.778193,-1699,30326,27.621,12602,755
0.981433,10.807187,-1698,30327,27.6708,12598,759
2.41588,10.89781,-1697,30328,27.5713,12598,759
1.06082,10.780958,-1696,30329,27.6708,12598,759
1.88858,10.931258,-1695,30330,27.6708,12598,759
2.39606,11.078848,-1694,30331,27.6708,12598,759
0.926449,11.103702,-1693,30332,27.6708,12598,759
2.67264,10.98565,-1692,30333,27.7704,12598,759
0.710948,10.955088,-1691,30334,27.4717,12598,759
1.40163,10.957128,-1690,30335,27.621,12598,759
1.89865,11.221841,-1689,30336,27.4717,12598,759
1.48103,11.103702,-1688,30337,27.6708,12603,757
1.19205,10.955088,-1687,30338,27.6708,12603,757
1.80334,11.019508,-1686,30339,27.5713,12603,757
1.02423,10.94352,-1685,30340,27.6708,12603,757
2.50693,10.938753,-1684,30341,27.621,12603,757
1.54099,10.78234,-1683,30342,27.5713,12603,757
2.23545,10.701188,-1682,30343,27.7704,12603,757
1.5034,10.584277,-1681,30344,27.7704,12603,757
1.08306,10.584277,-1680,30345,27.621,12603,757
1.80598,10.402511,-1679,30346,27.7704,12603,757
1.88353,10.54761,-1678,30347,27.5713,12603,753
1.55638,10.500885,-1677,30348,27.621,12603,753
1.74966,10.117854,-1676,30349,27.621,12603,753
0.717624,10.512232,-1675,30350,27.5713,12603,753
1.31745,10.587797,-1674,30351,27.7704,12603,753
1.83739,10.467485,-1673,30352,27.5713,12603,753
1.69427,10.196343,-1672,30353,27.4717,12603,753
0.966748,10.315483,-1671,30354,27.621,12603,753
1.88606,10.407523,-1670,30355,27.621,12603,753
1.56859,10.375258,-1669,30356,27.621,12603,753
1.59273,10.432549,-1668,30357,27.8202,12602,759
1.63702,10.396779,-1667,30358,27.4219,12602,759
2.64575,10.398929,-1666,30359,27.7704,12602,759
1.14304,10.441116,-1665,30360,27.5713,12602,759
1.42525,10.675396,-1664,30361,27.4219,12602,759
1.37415,10.432549,-1663,30362,27.5713,12602,759
1.94088,10.319094,-1662,30363,27.5713,12602,759
0.941763,10.436119,-1661,30364,27.6708,12602,759
1.96287,10.488106,-1660,30365,27.8699,12602,759
0.768946,10.484554,-1659,30366,27.5713,12602,759
1.96287,10.161941,-1658,30367,27.6708,12601,752
1.56859,10.044688,-1657,30368,27.4219,12601,752
1.6341,10.315483,-1656,30369,27.7704,12601,752
1.85804,10.670509,-1655,30370,27.621,12601,752
1.13045,10.546903,-1654,30371,27.621,12601,752
1.0381,10.278581,-1653,30372,27.621,12601,752
2.24822,10.430406,-1652,30373,27.7704,12601,752
1.36019,10.664922,-1651,30374,27.621,12601,752
1.37067,10.664223,-1650,30375,27.4717,12601,752
1.80334,10.632037,-1649,30376,27.7704,12601,752
1.39139,10.451814,-1648,30377,27.621,12604,759
1.64863,10.836792,-1647,30378,27.5713,12604,759
1.47134,10.836792,-1646,30379,27.7704,12604,759
1.4681,10.807187,-1645,30380,27.8202,12604,759
2.32946,10.551847,-1644,30381,27.6708,12604,759
1.58673,10.84229,-1643,30382,27.4717,12604,759
1.24296,10.991074,-1642,30383,27.7704,12604,759
0.995902,10.955088,-1641,30384,27.6708,12604,759
1.60168,10.98565,-1640,30385,27.3223,12604,759
1.60466,11.103702,-1639,30386,27.621,12604,759
1.96287,11.193921,-1638,30387,27.621,12599,756
2.10585,11.105715,-1637,30388,27.5713,12599,756
1.23912,10.98565,-1636,30389,27.621,12599,756
1.92608,10.867001,-1635,30390,27.621,12599,756
1.86316,11.016803,-1634,30391,27.7704,12599,756
2.20323,11.016803,-1633,30392,27.621,12599,756
2.09222,10.869743,-1632,30393,27.4717,12599,756
0.497951,10.784413,-1631,30394,27.621,12599,756
0.41432,10.71858,-1630,30395,27.5713,12599,756
1.69427,10.688648,-1629,30396,27.6708,12599,756
1.17188,10.602564,-1628,30397,27.7704,12604,755
1.24679,10.396779,-1627,30398,27.7704,12604,755
2.05543,10.278581,-1626,30399,27.6708,12604,755
1.61945,10.429692,-1625,30400,27.8202,12604,755
1.55638,10.465349,-1624,30401,27.4717,12604,755
0.834375,10.66073,-1623,30402,27.5713,12604,755
0.768946,10.396063,-1622,30403,27.8202,12604,755
1.34255,10.319094,-1621,30404,27.4717,12604,755
1.54717,10.430406,-1620,30405,27.4717,12604,755
0.730792,10.430406,-1619,30406,27.5713,12604,755
1.12198,10.279306,-1618,30407,27.7704,12606,756
2.28607,10.482422,-1617,30408,27.5713,12606,756
1.23912,10.634139,-1616,30409,27.6708,12606,756
1.62826,10.553259,-1615,30410,27.7704,12606,756
2.03444,10.436119,-1614,30411,27.621,12606,756
1.52231,10.131101,-1613,30412,27.6708,12606,756
1.00068,10.248819,-1612,30413,27.6708,12606,756
1.69708,10.37023,-1611,30414,27.6708,12606,756
2.11263,10.520025,-1610,30415,27.621,12606,756
1.45176,10.436119,-1609,30416,27.5713,12606,756
0.921287,10.430406,-1608,30417,27.621,12605,756
0.768946,10.366638,-1607,30418,27.4219,12605,756
1.05179,10.516483,-1606,30419,27.621,12605,756
1.4681,10.634139,-1605,30420,27.621,12605,756
1.20399,10.482422,-1604,30421,27.8699,12605,756
1.06082,10.099428,-1603,30422,27.8202,12605,756
1.20399,10.248819,-1602,30423,27.6708,12605,756
0.601994,10.600455,-1601,30424,27.621,12605,756
1.61355,10.71858,-1600,30425,27.621,12605,756
1.25442,10.78234,-1599,30426,27.621,12605,756
2.52021,10.664223,-1598,30427,27.6708,12606,754
1.00543,10.807187,-1597,30428,27.621,12606,754
1.60168,10.925122,-1596,30429,27.4717,12606,754
1.40163,10.987684,-1595,30430,27.8699,12606,754
1.3029,10.867001,-1594,30431,27.621,12606,754
0.655098,11.075485,-1593,30432,27.6708,12606,754
1.06082,11.145227,-1592,30433,27.5713,12606,754
1.44188,10.85328,-1591,30434,27.5713,12606,754
1.51603,10.734555,-1590,30435,27.6708,12606,754
1.39139,10.781649,-1589,30436,27.4717,12606,754
1.74966,10.749814,-1588,30437,27.6708,12601,748
2.14399,10.899177,-1587,30438,27.621,12601,748
2.20323,10.899177,-1586,30439,27.8202,12601,748
0.497951,10.736637,-1585,30440,27.6708,12601,748
1.83479,10.582165,-1584,30441,27.621,12601,748
1.63993,10.546903,-1583,30442,27.4717,12601,748
1.28447,10.704669,-1582,30443,27.621,12601,748
1.27702,10.54125,-1581,30444,27.6708,12601,748
1.65152,10.234269,-1580,30445,27.621,12601,748
1.23912,10.198534,-1579,30446,27.621,12601,748
0.840071,10.01051,-1578,30447,27.5713,12606,750
1.86827,10.161941,-1577,30448,27.621,12606,750
2.06237,10.198534,-1576,30449,27.621,12606,750
1.10916,10.202187,-1575,30450,27.621,12606,750
1.11773,10.28148,-1574,30451,27.621,12606,750
1.4118,10.366638,-1573,30452,27.5713,12606,750
1.11345,10.303197,-1572,30453,27.621,12606,750
1.73047,10.184644,-1571,30454,27.5713,12606,750
1.60466,10.134777,-1570,30455,27.621,12606,750
1.49385,10.375258,-1569,30456,27.7704,12606,750
2.21402,10.252453,-1568,30457,27.4717,12608,752
1.91366,10.364481,-1567,30458,27.5713,12608,752
1.96529,10.453952,-1566,30459,27.5713,12608,752
1.22363,10.252453,-1565,30460,27.621,12608,752
1.67446,10.462501,-1564,30461,27.621,12608,752
2.22905,10.543371,-1563,30462,27.6708,12608,752
1.90867,10.540544,-1562,30463,27.5713,12608,752
1.81125,10.394629,-1561,30464,27.5713,12608,752
2.29856,10.451814,-1560,30465,27.7704,12608,752
2.13284,10.634139,-1559,30466,27.7704,12608,752
1.31383,10.549729,-1558,30467,27.621,12602,757
1.47134,10.54761,-1557,30468,27.6708,12602,757
1.60466,10.430406,-1556,30469,27.7704,12602,757
1.74966,10.396779,-1555,30470,27.8202,12602,757
1.67161,10.514358,-1554,30471,27.8202,12602,757
1.66589,10.749814,-1553,30472,27.7704,12602,757
1.31383,10.600455,-1552,30473,27.5713,12602,757
1.93596,10.453952,-1551,30474,27.621,12602,757
1.77401,10.484554,-1550,30475,27.621,12602,757
2.27981,10.396779,-1549,30476,27.8202,12602,757
2.1771,10.396063,-1548,30477,27.621,12610,751
1.74966,10.312594,-1547,30478,27.5713,12610,751
1.49066,10.54761,-1546,30479,27.5713,12610,751
1.88099,10.546903,-1545,30480,27.5713,12610,751
2.2819,10.546903,-1544,30481,27.621,12610,751
1.96772,10.631336,-1543,30482,27.8202,12610,751
0.683594,10.632037,-1542,30483,27.5713,12610,751
1.24679,10.784413,-1541,30484,27.5713,12610,751
1.45505,11.173268,-1540,30485,27.4717,12610,751
1.20794,11.019508,-1539,30486,27.5713,12610,751
1.3102,10.816146,-1538,30487,27.8202,12607,753
0.981433,10.781649,-1537,30488,27.7704,12607,753
1.00068,10.869743,-1536,30489,27.7704,12607,753
2.03444,11.016803,-1535,30490,27.7704,12607,753
1.60168,10.867686,-1534,30491,27.7704,12607,753
1.6165,10.784413,-1533,30492,27.5713,12607,753
1.02423,10.701188,-1532,30493,27.6708,12607,753
0.799351,10.749814,-1531,30494,27.621,12607,753
1.12623,11.084226,-1530,30495,27.6708,12607,753
1.28447,11.003946,-1529,30496,27.621,12607,753
2.0785,10.704669,-1528,30497,27.621,12604,751
1.92608,10.7927,-1527,30498,27.7704,12604,751
2.05078,10.787867,-1526,30499,27.6708,12604,751
1.31745,10.784413,-1525,30500,27.5713,12604,751
0.601994,10.584277,-1524,30501,27.3223,12604,751
1.73047,10.350814,-1523,30502,27.621,12604,751
1.53789,10.046913,-1522,30503,27.5713,12604,751
2.0716,10.081707,-1521,30504,27.621,12604,751
2.36602,9.9650057,-1520,30505,27.621,12604,751
1.45505,9.9275516,-1519,30506,27.6708,12604,751
0.926449,10.279306,-1518,30507,27.4717,12607,752
1.89865,10.28148,-1517,30508,27.621,12607,752
1.98461,10.366638,-1516,30509,27.621,12607,752
1.40163,10.57019,-1515,30510,27.5713,12607,752
1.07865,10.543371,-1514,30511,27.621,12607,752
1.11773,10.546903,-1513,30512,27.5713,12607,752
1.09183,10.699099,-1512,30513,27.5713,12607,752
0.961803,10.84229,-1511,30514,27.6708,12607,752
1.60168,10.690739,-1510,30515,27.6708,12607,752
0.845728,10.274956,-1509,30516,27.621,12607,752
1.78473,10.335687,-1508,30517,27.5713,12602,752
1.5034,10.252453,-1507,30518,27.621,12602,752
2.22262,10.290173,-1506,30519,27.621,12602,752
2.44921,10.572304,-1505,30520,27.621,12602,752
0.768946,10.482422,-1504,30521,27.5713,12602,752
1.40163,10.749814,-1503,30522,27.6708,12602,752
0.905627,10.54761,-1502,30523,27.4219,12602,752
2.50313,10.482422,-1501,30524,27.4717,12602,752
1.09183,10.482422,-1500,30525,27.621,12602,752
1.34255,10.514358,-1499,30526,27.621,12602,752
1.00068,10.248819,-1498,30527,27.7704,12606,751
1.68298,10.279306,-1497,30528,27.5713,12606,751
1.44188,10.396779,-1496,30529,27.4717,12606,751
0.834375,10.569485,-1495,30530,27.4717,12606,751
0.946812,10.98565,-1494,30531,27.7704,12606,751
1.42525,10.955088,-1493,30532,27.7704,12606,751
0.946812,10.807187,-1492,30533,27.6708,12606,751
2.10585,10.451814,-1491,30534,27.8699,12606,751
1.28817,10.363762,-1490,30535,27.5713,12606,751
1.01016,10.701188,-1489,30536,27.621,12606,751
1.13045,10.97004,-1488,30537,27.5713,12607,750
1.14304,10.71858,-1487,30538,27.5713,12607,750
1.4681,10.422546,-1486,30539,27.6708,12607,750
1.13045,10.248819,-1485,30540,27.7704,12607,750
1.66016,10.549729,-1484,30541,27.6708,12607,750
0.805294,10.749814,-1483,30542,27.621,12607,750
1.33185,10.632037,-1482,30543,27.7704,12607,750
2.04379,10.71858,-1481,30544,27.7704,12607,750
0.981433,10.899177,-1480,30545,27.6708,12607,750
1.4118,10.78234,-1479,30546,27.4717,12607,750
1.3637,10.784413,-1478,30547,27.7704,12604,745
1.0381,10.667018,-1477,30548,27.6708,12604,745
1.80334,10.546903,-1476,30549,27.7704,12604,745
1.37067,10.546903,-1475,30550,27.621,12604,745
2.2944,10.54761,-1474,30551,27.6708,12604,745
1.5807,10.514358,-1473,30552,27.4219,12604,745
0.662337,10.313316,-1472,30553,27.6708,12604,745
1.04268,10.347934,-1471,30554,27.6708,12604,745
1.51603,10.582165,-1470,30555,27.8202,12604,745
1.29923,10.429692,-1469,30556,27.6708,12604,745
2.19672,10.246638,-1468,30557,27.621,12609,749
0.840071,10.285103,-1467,30558,27.6708,12609,749
1.07865,10.232085,-1466,30559,27.7704,12609,749
1.87592,10.312594,-1465,30560,27.8202,12609,749
1.27328,10.513649,-1464,30561,27.621,12609,749
2.11488,10.482422,-1463,30562,27.5713,12609,749
1.04268,10.279306,-1462,30563,27.7704,12609,749
0.625305,10.279306,-1461,30564,27.621,12609,749
0.889691,10.54761,-1460,30565,27.621,12609,749
1.45505,10.581461,-1459,30566,27.7704,12609,749
1.59273,10.54761,-1458,30567,27.6708,12609,745
2.94915,10.128894,-1457,30568,27.4717,12609,745
1.13886,10.364481,-1456,30569,27.8202,12609,745
1.80334,10.781649,-1455,30570,27.6708,12609,745
1.28817,11.050566,-1454,30571,27.7704,12609,745
1.87592,10.968002,-1453,30572,27.8699,12609,745
1.98461,10.631336,-1452,30573,27.8699,12609,745
1.53168,10.514358,-1451,30574,27.7704,12609,745
1.10916,10.632037,-1450,30575,27.6708,12609,745
1.12623,10.749814,-1449,30576,27.621,12609,745
1.69427,10.54761,-1448,30577,27.6708,12602,745
1.82698,9.9903943,-1447,30578,27.621,12602,745
1.87592,9.8997443,-1446,30579,27.8202,12602,745
0.889691,10.396063,-1445,30580,27.8202,12602,745
1.02423,10.78234,-1444,30581,27.4717,12602,745
1.59273,10.632037,-1443,30582,27.6708,12602,745
1.28447,10.600455,-1442,30583,27.8202,12602,745
0.828641,10.599753,-1441,30584,27.7704,12602,745
1.32827,10.602564,-1440,30585,27.4717,12602,745
1.76863,10.364481,-1439,30586,27.4717,12602,745
1.48103,10.514358,-1438,30587,27.7704,12602,744
0.966748,10.632037,-1437,30588,27.5713,12602,744
1.34255,10.71858,-1436,30589,27.621,12602,744
1.49066,10.453952,-1435,30590,27.621,12602,744
1.47134,10.335687,-1434,30591,27.7704,12602,744
1.46484,10.600455,-1433,30592,27.621,12602,744
1.51917,10.54761,-1432,30593,27.621,12602,744
1.59273,10.514358,-1431,30594,27.6708,12602,744
1.80598,10.366638,-1430,30595,27.621,12602,744
1.44518,10.191226,-1429,30596,27.5713,12602,744
2.04146,10.335687,-1428,30597,27.8202,12605,747
1.54408,10.364481,-1427,30598,27.8202,12605,747
1.25442,10.856712,-1426,30599,27.621,12605,747
2.01324,10.771279,-1425,30600,27.5713,12605,747
1.63702,10.781649,-1424,30601,27.5713,12605,747
1.68298,10.57019,-1423,30602,27.6708,12605,747
1.3029,10.572304,-1422,30603,27.7704,12605,747
2.06237,10.71858,-1421,30604,27.8202,12605,747
1.74146,10.600455,-1420,30605,27.621,12605,747
1.34255,10.513649,-1419,30606,27.621,12605,747
1.71108,10.549729,-1418,30607,27.6708,12601,745
1.87592,10.514358,-1417,30608,27.621,12601,745
1.20794,10.364481,-1416,30609,27.6708,12601,745
1.68298,10.749814,-1415,30610,27.6708,12601,745
1.68863,10.71858,-1414,30611,27.6708,12601,745
1.45505,10.602564,-1413,30612,27.621,12601,745
1.8529,10.699099,-1412,30613,27.5713,12601,745
0.966748,10.85122,-1411,30614,27.5713,12601,745
1.4118,10.78234,-1410,30615,27.8699,12601,745
0.98628,10.631336,-1409,30616,27.4717,12601,745
1.70829,10.71858,-1408,30617,27.8202,12607,746
1.70269,10.71858,-1407,30618,27.5713,12607,746
1.10916,10.71858,-1406,30619,27.5713,12607,746
1.24679,10.499466,-1405,30620,27.6708,12607,746
1.17998,10.553259,-1404,30621,27.7704,12607,746
0.577742,10.773353,-1403,30622,27.4717,12607,746
1.64863,10.973435,-1402,30623,27.8202,12607,746
1.62826,10.869743,-1401,30624,27.8699,12607,746
1.84257,10.634139,-1400,30625,27.8699,12607,746
1.64863,10.701188,-1399,30626,27.8202,12607,746
1.57769,10.905327,-1398,30627,27.5713,12608,746
1.17998,10.642543,-1397,30628,27.8202,12608,746
1.46158,10.632037,-1396,30629,27.621,12608,746
1.25442,10.781649,-1395,30630,27.5713,12608,746
1.66589,10.698403,-1394,30631,27.6708,12608,746
1.04268,10.546903,-1393,30632,27.7704,12608,746
1.53168,10.513649,-1392,30633,27.621,12608,746
2.97812,10.396779,-1391,30634,27.8699,12608,746
1.85547,10.513649,-1390,30635,27.621,12608,746
1.26577,10.71858,-1389,30636,27.8202,12608,746
1.19604,10.836792,-1388,30637,27.8202,12605,739
1.11773,10.482422,-1387,30638,27.7704,12605,739
1.59273,10.484554,-1386,30639,27.6708,12605,739
1.84257,10.760206,-1385,30640,27.7704,12605,739
0.76272,10.7927,-1384,30641,27.7704,12605,739
1.28447,10.751893,-1383,30642,27.621,12605,739
1.39822,10.453952,-1382,30643,27.621,12605,739
0.768946,10.71858,-1381,30644,27.6708,12605,739
1.69146,10.600455,-1380,30645,27.8699,12605,739
0.662337,10.364481,-1379,30646,27.621,12605,739
1.73047,10.516483,-1378,30647,27.3223,12610,742
1.3461,10.482422,-1377,30648,27.621,12610,742
0.889691,10.248819,-1376,30649,27.8202,12610,742
2.26722,10.248819,-1375,30650,27.6708,12610,742
2.36602,10.304643,-1374,30651,27.8202,12610,742
1.31745,10.407523,-1373,30652,27.7704,12610,742
1.24296,10.279306,-1372,30653,27.621,12610,742
1.63702,10.279306,-1371,30654,27.621,12610,742
1.45505,10.396063,-1370,30655,27.5713,12610,742
0.921287,10.398929,-1369,30656,27.5713,12610,742
0.966748,10.396779,-1368,30657,27.6708,12609,740
1.76052,10.313316,-1367,30658,27.7704,12609,740
1.62826,10.632037,-1366,30659,27.8202,12609,740
1.68014,10.717885,-1365,30660,27.7704,12609,740
1.73323,10.396779,-1364,30661,27.7704,12609,740
1.54717,10.312594,-1363,30662,27.7704,12609,740
1.35668,10.54761,-1362,30663,27.621,12609,740
1.95556,10.749121,-1361,30664,27.7704,12609,740
1.61945,10.632037,-1360,30665,27.6708,12609,740
1.25061,10.632037,-1359,30666,27.621,12609,740
1.80334,10.632037,-1358,30667,27.7704,12605,738
2.32946,10.664922,-1357,30668,27.7704,12605,738
1.66016,10.664922,-1356,30669,27.4717,12605,738
1.02423,10.667018,-1355,30670,27.7704,12605,738
0.811194,10.363762,-1354,30671,27.4717,12605,738
1.25061,10.335687,-1353,30672,27.4717,12605,738
1.27328,10.514358,-1352,30673,27.5713,12605,738
1.63993,10.78234,-1351,30674,27.5713,12605,738
2.3539,10.634139,-1350,30675,27.7704,12605,738
1.52231,10.482422,-1349,30676,27.4717,12605,738
0.458048,10.364481,-1348,30677,27.4717,12611,736
1.1596,10.546903,-1347,30678,27.7704,12611,736
1.32827,10.664922,-1346,30679,27.5713,12611,736
1.25061,10.632037,-1345,30680,27.621,12611,736
2.15287,10.481711,-1344,30681,27.8202,12611,736
2.12837,10.580757,-1343,30682,27.621,12611,736
2.38809,10.84229,-1342,30683,27.4717,12611,736
1.53789,10.901911,-1341,30684,27.5713,12611,736
1.93596,11.01748,-1340,30685,27.8202,12611,736
1.34255,10.78234,-1339,30686,27.7704,12611,736
1.45176,10.631336,-1338,30687,27.621,12611,733
1.25442,10.89986,-1337,30688,27.7704,12611,733
1.74966,10.815457,-1336,30689,27.6708,12611,733
1.53168,10.54761,-1335,30690,27.8202,12611,733
1.98461,10.699099,-1334,30691,27.5713,12611,733
1.87592,10.899177,-1333,30692,27.5713,12611,733
1.06082,10.71858,-1332,30693,27.8202,12611,733
1.54717,10.516483,-1331,30694,27.621,12611,733
1.82698,10.430406,-1330,30695,27.4717,12611,733
1.22752,10.546903,-1329,30696,27.4717,12611,733
1.49704,10.546903,-1328,30697,27.7704,12611,737
1.79539,10.699099,-1327,30698,27.6708,12611,737
1.25442,10.815457,-1326,30699,27.621,12611,737
1.36019,10.78234,-1325,30700,27.621,12611,737
1.60168,10.549729,-1324,30701,27.7704,12611,737
1.83739,10.553259,-1323,30702,27.7704,12611,737
0.662337,10.973435,-1322,30703,27.6708,12611,737
1.90867,10.699099,-1321,30704,27.4717,12611,737
1.17998,10.348654,-1320,30705,27.5713,12611,737
1.12623,10.513649,-1319,30706,27.6708,12611,737
1.74966,10.599753,-1318,30707,27.621,12613,731
1.36019,10.632037,-1317,30708,27.6708,12613,731
1.94333,10.600455,-1316,30709,27.621,12613,731
1.70829,10.71858,-1315,30710,27.621,12613,731
0.834375,10.749814,-1314,30711,27.6708,12613,731
1.40163,10.430406,-1313,30712,27.7704,12613,731
1.45176,10.202187,-1312,30713,27.7704,12613,731
0.78733,10.315483,-1311,30714,27.7704,12613,731
2.44921,10.313316,-1310,30715,27.8202,12613,731
0.78733,10.38459,-1309,30716,27.621,12613,731
1.94824,10.347934,-1308,30717,27.621,12607,729
1.04268,10.279306,-1307,30718,27.7704,12607,729
1.4681,10.335687,-1306,30719,27.5713,12607,729
1.02423,10.432549,-1305,30720,27.621,12607,729
1.37067,10.582165,-1304,30721,27.5713,12607,729
1.80334,10.736637,-1303,30722,27.6708,12607,729
1.74966,10.514358,-1302,30723,27.621,12607,729
2.14399,10.421831,-1301,30724,27.6708,12607,729
1.33185,10.451101,-1300,30725,27.8202,12607,729
1.56555,10.464637,-1299,30726,27.5713,12607,729
1.49066,10.465349,-1298,30727,27.6708,12611,729
2.0716,10.279306,-1297,30728,27.8202,12611,729
0.817051,10.37023,-1296,30729,27.6708,12611,729
1.10916,10.580757,-1295,30730,27.8202,12611,729
0.905627,10.809256,-1294,30731,27.7704,12611,729
1.81125,10.89986,-1293,30732,27.621,12611,729
1.41517,10.781649,-1292,30733,27.8699,12611,729
1.33185,10.335687,-1291,30734,27.6708,12611,729
1.1472,10.451814,-1290,30735,27.621,12611,729
1.23912,10.543371,-1289,30736,27.6708,12611,729
1.4118,10.575827,-1288,30737,27.621,12612,728
1.27328,10.600455,-1287,30738,27.4219,12612,728
0.768946,10.717885,-1286,30739,27.5713,12612,728
1.4681,10.807187,-1285,30740,27.8202,12612,728
1.10916,10.602564,-1284,30741,27.7704,12612,728
0.845728,10.634139,-1283,30742,27.621,12612,728
1.40163,10.664922,-1282,30743,27.9695,12612,728
1.06082,10.932622,-1281,30744,27.7704,12612,728
0.946812,10.78234,-1280,30745,27.8202,12612,728
1.02423,10.398929,-1279,30746,27.7704,12612,728
0.640375,10.278581,-1278,30747,27.8202,12604,725
1.90617,10.429692,-1277,30748,27.6708,12604,725
2.09677,10.54761,-1276,30749,27.621,12604,725
2.0716,10.634139,-1275,30750,27.5713,12604,725
0.941763,10.631336,-1274,30751,27.5713,12604,725
1.36019,10.514358,-1273,30752,27.621,12604,725
1.4219,10.71858,-1272,30753,27.621,12604,725
1.9335,11.01748,-1271,30754,27.6708,12604,725
1.01016,10.932622,-1270,30755,27.621,12604,725
1.56859,10.516483,-1269,30756,27.8202,12604,725
1.42525,10.664922,-1268,30757,27.621,12614,725
1.19205,10.664223,-1267,30758,27.6708,12614,725
1.27702,10.513649,-1266,30759,27.621,12614,725
1.06977,10.631336,-1265,30760,27.7704,12614,725
0.921287,10.664922,-1264,30761,27.621,12614,725
1.54717,10.749814,-1263,30762,27.7704,12614,725
1.89865,10.632037,-1262,30763,27.7704,12614,725
1.39822,10.631336,-1261,30764,27.8202,12614,725
2.21402,10.398929,-1260,30765,27.4717,12614,725
1.89865,10.549729,-1259,30766,27.7704,12614,725
1.38452,10.631336,-1258,30767,27.621,12611,725
0.743728,10.664922,-1257,30768,27.621,12611,725
1.44518,10.430406,-1256,30769,27.621,12611,725
1.49385,10.432549,-1255,30770,27.8202,12611,725
1.56859,10.581461,-1254,30771,27.621,12611,725
1.25442,10.464637,-1253,30772,27.621,12611,725
2.15287,10.546903,-1252,30773,27.7704,12611,725
1.59273,10.54761,-1251,30774,27.6708,12611,725
0.697405,10.248819,-1250,30775,27.8699,12611,725
1.31745,10.246638,-1249,30776,27.8202,12611,725
1.60168,10.396779,-1248,30777,27.6708,12613,720
1.93842,10.347934,-1247,30778,27.621,12613,720
1.44188,10.313316,-1246,30779,27.4219,12613,720
1.00068,10.553259,-1245,30780,27.7704,12613,720
1.70549,10.587797,-1244,30781,27.8202,12613,720
2.19455,10.549729,-1243,30782,27.621,12613,720
1.76323,10.432549,-1242,30783,27.8202,12613,720
2.15951,10.398929,-1241,30784,27.5713,12613,720
1.82437,10.670509,-1240,30785,27.621,12613,720
2.05311,10.784413,-1239,30786,27.4717,12613,720
1.49066,10.749121,-1238,30787,27.5713,12613,718
1.01016,10.664223,-1237,30788,27.7704,12613,718
2.08994,10.546903,-1236,30789,27.5713,12613,718
1.17998,10.514358,-1235,30790,27.7704,12613,718
1.40163,10.429692,-1234,30791,27.8202,12613,718
1.45176,10.546903,-1233,30792,27.4717,12613,718
1.05631,10.513649,-1232,30793,27.8202,12613,718
1.01956,10.333524,-1231,30794,27.6708,12613,718
1.39139,10.24591,-1230,30795,27.6708,12613,718
1.90617,10.432549,-1229,30796,27.621,12613,718
0.981433,10.582165,-1228,30797,27.621,12602,718
1.68581,10.836792,-1227,30798,27.8202,12602,718
2.16392,10.451814,-1226,30799,27.8202,12602,718
1.9335,10.363762,-1225,30800,27.621,12602,718
1.4118,10.364481,-1224,30801,27.6708,12602,718
1.52856,10.364481,-1223,30802,27.8699,12602,718
1.1472,10.396063,-1222,30803,27.8202,12602,718
0.840071,10.396779,-1221,30804,27.8202,12602,718
1.88606,10.667018,-1220,30805,27.621,12602,718
2.18584,10.760206,-1219,30806,27.7704,12602,718
1.68581,10.766435,-1218,30807,27.5713,12612,716
1.19205,10.516483,-1217,30808,27.621,12612,716
0.793363,10.749814,-1216,30809,27.621,12612,716
1.38107,10.720665,-1215,30810,27.621,12612,716
1.4219,10.717885,-1214,30811,27.5713,12612,716
1.76323,10.724139,-1213,30812,27.5713,12612,716
1.26577,10.694223,-1212,30813,27.621,12612,716
1.52856,10.717885,-1211,30814,27.7704,12612,716
1.70269,10.632037,-1210,30815,27.621,12612,716
1.1596,10.600455,-1209,30816,27.6708,12612,716
1.43525,10.306089,-1208,30817,27.621,12612,714
1.5034,10.364481,-1207,30818,27.7704,12612,714
1.54099,10.514358,-1206,30819,27.621,12612,714
1.43857,10.634139,-1205,30820,27.621,12612,714
1.75238,10.634139,-1204,30821,27.6708,12612,714
1.75781,10.465349,-1203,30822,27.6708,12612,714
1.40163,10.581461,-1202,30823,27.5713,12612,714
1.88606,10.749121,-1201,30824,27.8699,12612,714
1.81388,10.54761,-1200,30825,27.5713,12612,714
1.92856,10.313316,-1199,30826,27.8202,12612,714
2.27143,10.467485,-1198,30827,27.6708,12609,711
2.00612,10.516483,-1197,30828,27.7704,12609,711
1.77132,10.836792,-1196,30829,27.8699,12609,711
1.39139,10.631336,-1195,30830,27.6708,12609,711
1.45505,10.698403,-1194,30831,27.7704,12609,711
1.85547,10.618012,-1193,30832,27.7704,12609,711
0.921287,10.581461,-1192,30833,27.621,12609,711
1.78473,10.664922,-1191,30834,27.7704,12609,711
1.52856,10.78234,-1190,30835,27.8202,12609,711
1.01016,10.867686,-1189,30836,27.621,12609,711
1.70549,10.938753,-1188,30837,27.7704,12615,709
1.19205,11.016803,-1187,30838,27.5713,12615,709
1.80334,10.664223,-1186,30839,27.621,12615,709
1.89865,10.582165,-1185,30840,27.5713,12615,709
1.09619,10.632037,-1184,30841,27.6708,12615,709
1.68014,10.54761,-1183,30842,27.8202,12615,709
1.45176,10.465349,-1182,30843,27.8202,12615,709
0.676582,10.501595,-1181,30844,27.4717,12615,709
1.71108,10.582165,-1180,30845,27.7704,12615,709
1.24679,10.54761,-1179,30846,27.621,12615,709
1.66589,10.484554,-1178,30847,27.3223,12615,708
1.80598,10.5582,-1177,30848,27.7704,12615,708
1.19205,10.670509,-1176,30849,27.6708,12615,708
1.20794,10.634139,-1175,30850,27.621,12615,708
1.75238,10.664922,-1174,30851,27.5713,12615,708
0.704209,10.664223,-1173,30852,27.8202,12615,708
0.946812,10.546903,-1172,30853,27.621,12615,708
0.921287,10.430406,-1171,30854,27.6708,12615,708
1.33543,10.432549,-1170,30855,27.7704,12615,708
2.41983,10.364481,-1169,30856,27.621,12615,708
2.17052,10.482422,-1168,30857,27.8202,12607,708
2.18366,10.366638,-1167,30858,27.6708,12607,708
1.06082,10.430406,-1166,30859,27.6708,12607,708
1.4118,10.584277,-1165,30860,27.6708,12607,708
1.72495,10.436119,-1164,30861,27.6708,12607,708
1.10916,10.312594,-1163,30862,27.621,12607,708
2.33151,10.279306,-1162,30863,27.8699,12607,708
1.88858,10.196343,-1161,30864,27.7704,12607,708
1.59273,10.28148,-1160,30865,27.4717,12607,708
1.38452,10.396063,-1159,30866,27.6708,12607,708
1.1472,10.429692,-1158,30867,27.7704,12607,703
1.39139,10.396779,-1157,30868,27.621,12607,703
1.06082,10.484554,-1156,30869,27.8202,12607,703
1.60168,10.602564,-1155,30870,27.4717,12607,703
1.40163,10.664223,-1154,30871,27.7704,12607,703
1.4681,10.816146,-1153,30872,27.5713,12607,703
1.98701,10.634139,-1152,30873,27.3223,12607,703
1.44188,10.37023,-1151,30874,27.4717,12607,703
1.33185,10.398929,-1150,30875,27.621,12607,703
1.34255,10.664922,-1149,30876,27.8202,12607,703
0.577742,10.631336,-1148,30877,27.7704,12614,708
1.4219,10.687951,-1147,30878,27.6708,12614,708
2.28607,11.193921,-1146,30879,27.621,12614,708
1.17594,10.955088,-1145,30880,27.6708,12614,708
1.21581,10.749121,-1144,30881,27.7704,12614,708
1.17594,10.749121,-1143,30882,27.6708,12614,708
1.72495,10.867001,-1142,30883,27.6708,12614,708
2.67264,10.78234,-1141,30884,27.8699,12614,708
1.19205,10.664922,-1140,30885,27.4717,12614,708
1.48103,10.664922,-1139,30886,27.7704,12614,708
1.45505,10.549729,-1138,30887,27.621,12608,705
2.19672,10.664922,-1137,30888,27.5713,12608,705
1.09619,10.667018,-1136,30889,27.7704,12608,705
1.81388,10.549729,-1135,30890,27.4717,12608,705
2.38409,10.546903,-1134,30891,27.8699,12608,705
1.58673,10.602564,-1133,30892,27.621,12608,705
0.817051,10.514358,-1132,30893,27.7704,12608,705
1.74966,10.631336,-1131,30894,27.4717,12608,705
1.79804,10.632037,-1130,30895,27.8202,12608,705
1.38107,10.467485,-1129,30896,27.7704,12608,705
1.54717,10.54761,-1128,30897,27.5713,12616,702
1.26953,10.429692,-1127,30898,27.5713,12616,702
1.54717,10.313316,-1126,30899,27.6708,12616,702
0.900346,10.430406,-1125,30900,27.6708,12616,702
1.89362,10.514358,-1124,30901,27.621,12616,702
1.88099,10.54761,-1123,30902,27.8202,12616,702
2.19889,10.514358,-1122,30903,27.8699,12616,702
1.19604,10.513649,-1121,30904,27.621,12616,702
1.58673,10.514358,-1120,30905,27.5713,12616,702
1.60168,10.514358,-1119,30906,27.8699,12616,702
1.45505,10.513649,-1118,30907,27.6708,12618,700
2.01324,10.54761,-1117,30908,27.4717,12618,700
1.61355,10.582165,-1116,30909,27.5713,12618,700
2.41193,10.396779,-1115,30910,27.7704,12618,700
1.66589,10.600455,-1114,30911,27.6708,12618,700
1.13045,10.396779,-1113,30912,27.5713,12618,700
2.03444,10.313316,-1112,30913,27.6708,12618,700
1.25061,10.432549,-1111,30914,27.621,12618,700
2.15951,10.600455,-1110,30915,27.621,12618,700
1.47781,10.749121,-1109,30916,27.7704,12618,700
1.4681,10.599753,-1108,30917,27.621,12614,701
1.55638,10.600455,-1107,30918,27.621,12614,701
1.5034,10.482422,-1106,30919,27.5713,12614,701
3.06336,10.546903,-1105,30920,27.4219,12614,701
2.21187,10.699099,-1104,30921,27.8202,12614,701
1.86827,10.430406,-1103,30922,27.7704,12614,701
1.88606,10.364481,-1102,30923,27.7704,12614,701
1.00068,10.717885,-1101,30924,27.621,12614,701
0.995902,10.867001,-1100,30925,27.621,12614,701
1.21188,10.599753,-1099,30926,27.8202,12614,701
1.39139,10.481711,-1098,30927,27.7704,12618,696
1.24296,10.569485,-1097,30928,27.621,12618,696
1.07865,10.451814,-1096,30929,27.621,12618,696
1.17188,10.363762,-1095,30930,27.4717,12618,696
1.91366,10.681675,-1094,30931,27.6708,12618,696
1.63993,10.755357,-1093,30932,27.5713,12618,696
1.52856,10.632037,-1092,30933,27.6708,12618,696
1.68014,10.482422,-1091,30934,27.8202,12618,696
1.66589,10.333524,-1090,30935,27.8699,12618,696
1.73323,10.599753,-1089,30936,27.5713,12618,696
1.12198,10.481711,-1088,30937,27.6708,12617,695
1.48103,10.364481,-1087,30938,27.7704,12617,695
0.895034,10.451101,-1086,30939,27.7704,12617,695
1.57769,10.451814,-1085,30940,27.8699,12617,695
1.60168,10.274956,-1084,30941,27.6708,12617,695
1.52856,10.215323,-1083,30942,27.621,12617,695
1.57769,10.516483,-1082,30943,27.7704,12617,695
1.80598,10.869743,-1081,30944,27.621,12617,695
1.4118,10.901911,-1080,30945,27.7704,12617,695
1.48103,10.664223,-1079,30946,27.7704,12617,695
0.525895,10.632037,-1078,30947,27.7704,12609,695
1.63702,10.569485,-1077,30948,27.621,12609,695
1.55332,10.688648,-1076,30949,27.5713,12609,695
2.22905,10.57019,-1075,30950,27.621,12609,695
1.54717,10.335687,-1074,30951,27.621,12609,695
2.13954,10.18757,-1073,30952,27.621,12609,695
1.69708,10.513649,-1072,30953,27.621,12609,695
1.44518,10.78234,-1071,30954,27.621,12609,695
1.09183,10.78234,-1070,30955,27.621,12609,695
0.834375,10.667018,-1069,30956,27.7704,12609,695
1.63702,10.514358,-1068,30957,27.6708,12620,694
1.52856,10.631336,-1067,30958,27.8699,12620,694
1.81913,10.749814,-1066,30959,27.4219,12620,694
2.19672,10.899177,-1065,30960,27.7704,12620,694
1.19205,10.733861,-1064,30961,27.621,12620,694
1.09619,10.618012,-1063,30962,27.621,12620,694
1.23912,10.313316,-1062,30963,27.621,12620,694
1.14304,10.363762,-1061,30964,27.6708,12620,694
1.73872,10.513649,-1060,30965,27.5713,12620,694
0.690534,10.664922,-1059,30966,27.621,12620,694
1.89865,10.54761,-1058,30967,27.6708,12617,695
1.34255,10.464637,-1057,30968,27.6708,12617,695
1.20794,10.617311,-1056,30969,27.7704,12617,695
1.89362,10.734555,-1055,30970,27.8202,12617,695
1.42859,10.581461,-1054,30971,27.8202,12617,695
1.5807,10.623624,-1053,30972,27.5713,12617,695
1.44188,10.66073,-1052,30973,27.8202,12617,695
1.79007,10.734555,-1051,30974,27.6708,12617,695
2.21832,10.465349,-1050,30975,27.8699,12617,695
0.793363,10.396779,-1049,30976,27.8699,12617,695
1.64863,10.54761,-1048,30977,27.6708,12615,690
1.62239,10.429692,-1047,30978,27.6708,12615,690
1.74966,10.546903,-1046,30979,27.6708,12615,690
1.96772,10.631336,-1045,30980,27.621,12615,690
1.23912,10.634139,-1044,30981,27.8699,12615,690
1.36019,10.364481,-1043,30982,27.5713,12615,690
0.931581,10.315483,-1042,30983,27.5713,12615,690
1.48103,10.441116,-1041,30984,27.4717,12615,690
0.884315,10.520025,-1040,30985,27.5713,12615,690
2.37005,10.398929,-1039,30986,27.8699,12615,690
1.76052,10.430406,-1038,30987,27.621,12616,692
1.10916,10.749814,-1037,30988,27.621,12616,692
1.32467,10.751893,-1036,30989,27.7704,12616,692
2.53718,10.366638,-1035,30990,28.0193,12616,692
1.21581,10.335687,-1034,30991,27.8202,12616,692
1.51917,10.634139,-1033,30992,27.7704,12616,692
2.12164,10.451814,-1032,30993,27.7704,12616,692
1.09183,10.451101,-1031,30994,27.7704,12616,692
1.9335,10.482422,-1030,30995,27.621,12616,692
1.38796,10.333524,-1029,30996,27.621,12616,692
0.926449,10.363762,-1028,30997,27.621,12613,690
1.94824,10.363762,-1027,30998,27.5713,12613,690
2.17052,10.396063,-1026,30999,27.5713,12613,690
1.88858,10.600455,-1025,31000,27.6708,12613,690
0.895034,10.482422,-1024,31001,27.5713,12613,690
1.76323,10.278581,-1023,31002,27.8202,12613,690
1.05631,10.387459,-1022,31003,27.7704,12613,690
1.19604,10.582165,-1021,31004,27.5713,12613,690
1.32827,10.513649,-1020,31005,27.5713,12613,690
1.77132,10.364481,-1019,31006,27.621,12613,690
1.83739,10.366638,-1018,31007,27.621,12620,686
2.45504,10.546903,-1017,31008,27.6708,12620,686
1.70829,10.549729,-1016,31009,27.6708,12620,686
1.36019,10.514358,-1015,31010,27.621,12620,686
1.25821,10.599753,-1014,31011,27.7704,12620,686
1.48103,10.632037,-1013,31012,27.8699,12620,686
1.75238,10.600455,-1012,31013,27.8202,12620,686
2.65115,10.877965,-1011,31014,27.7704,12620,686
1.49066,10.899177,-1010,31015,27.8699,12620,686
1.90617,10.699099,-1009,31016,27.621,12620,686
1.88606,10.749814,-1008,31017,27.4717,12619,682
0.931581,10.781649,-1007,31018,27.621,12619,682
1.21581,10.784413,-1006,31019,27.5713,12619,682
1.09619,10.634139,-1005,31020,27.8699,12619,682
1.19604,10.364481,-1004,31021,27.6708,12619,682
1.23912,10.717885,-1003,31022,27.5713,12619,682
0.961803,10.749814,-1002,31023,27.621,12619,682
1.87846,10.131101,-1001,31024,27.8699,12619,682
1.55638,10.134777,-1000,31025,27.8202,12619,682
1.4681,10.396779,-999,31026,27.6708,12619,682
1.36019,10.513649,-998,31027,27.621,12612,687
1.06977,10.451101,-997,31028,27.8202,12612,687
1.49066,10.482422,-996,31029,27.5713,12612,687
1.12623,10.664922,-995,31030,27.4717,12612,687
1.07422,10.664922,-994,31031,27.6708,12612,687
1.16371,10.664922,-993,31032,27.8202,12612,687
0.946812,10.664223,-992,31033,27.6708,12612,687
1.61355,10.546903,-991,31034,27.621,12612,687
1.02423,10.514358,-990,31035,27.6708,12612,687
1.53789,10.631336,-989,31036,27.8202,12612,687
1.6165,10.396063,-988,31037,27.6708,12621,690
1.46484,10.396779,-987,31038,27.6708,12621,690
1.81913,10.514358,-986,31039,27.6708,12621,690
1.80334,10.664223,-985,31040,27.621,12621,690
1.48103,10.664922,-984,31041,27.6708,12621,690
1.59572,10.699099,-983,31042,27.6708,12621,690
1.19205,10.54761,-982,31043,27.7704,12621,690
1.68863,10.396779,-981,31044,27.7704,12621,690
0.737289,10.816146,-980,31045,27.7704,12621,690
1.37415,10.816146,-979,31046,27.7704,12621,690
1.22363,10.667018,-978,31047,27.6708,12620,687
1.39822,10.514358,-977,31048,27.621,12620,687
1.3637,10.398929,-976,31049,27.7704,12620,687
1.3029,10.350814,-975,31050,27.7704,12620,687
1.64863,10.350814,-974,31051,27.6708,12620,687
1.81125,10.315483,-973,31052,27.7704,12620,687
1.19205,10.467485,-972,31053,27.7704,12620,687
0.921287,10.430406,-971,31054,27.7704,12620,687
1.68298,10.315483,-970,31055,27.4717,12620,687
1.37067,10.315483,-969,31056,27.7704,12620,687
0.895034,10.430406,-968,31057,27.621,12610,683
1.25821,10.516483,-967,31058,27.6708,12610,683
1.13045,10.407523,-966,31059,27.5713,12610,683
0.941763,10.436119,-965,31060,27.7704,12610,683
1.20399,10.465349,-964,31061,27.621,12610,683
1.36019,10.664223,-963,31062,27.621,12610,683
0.402647,10.482422,-962,31063,27.6708,12610,683
2.17052,10.572304,-961,31064,27.9695,12610,683
1.21581,10.54125,-960,31065,27.8202,12610,683
1.34255,10.482422,-959,31066,27.6708,12610,683
1.61945,10.396063,-958,31067,27.621,12619,683
1.21188,10.396063,-957,31068,27.5713,12619,683
1.66303,10.600455,-956,31069,27.621,12619,683
1.4219,10.631336,-955,31070,27.8202,12619,683
1.13045,10.664922,-954,31071,27.621,12619,683
1.55638,10.599753,-953,31072,27.8202,12619,683
1.94088,10.57019,-952,31073,27.7704,12619,683
1.49385,10.481711,-951,31074,27.621,12619,683
0.85693,10.513649,-950,31075,27.8202,12619,683
1.23912,10.933303,-949,31076,27.621,12619,683
1.09183,10.749121,-948,31077,27.5713,12609,681
0.76272,10.632037,-947,31078,27.621,12609,681
1.10916,10.664922,-946,31079,27.8699,12609,681
1.57769,10.781649,-945,31080,27.8202,12609,681
0.601994,10.78234,-944,31081,27.5713,12609,681
1.06082,10.664922,-943,31082,27.6708,12609,681
1.69427,10.513649,-942,31083,27.7704,12609,681
1.68863,10.631336,-941,31084,27.7704,12609,681
1.37415,10.516483,-940,31085,27.8202,12609,681
1.49385,10.698403,-939,31086,27.8202,12609,681
0.478416,10.704669,-938,31087,27.6708,12622,684
0.497951,10.784413,-937,31088,27.8202,12622,684
1.66303,10.749814,-936,31089,27.6708,12622,684
1.54408,10.514358,-935,31090,27.621,12622,684
1.22752,10.546903,-934,31091,27.4219,12622,684
1.49385,10.699099,-933,31092,27.8202,12622,684
1.63993,10.664922,-932,31093,27.621,12622,684
1.60466,10.699099,-931,31094,27.9695,12622,684
1.93596,10.430406,-930,31095,27.621,12622,684
1.33185,10.481711,-929,31096,27.6708,12622,684
2.06006,12.156879,-928,31097,27.7704,12620,682
1.47781,28.576188,-927,31098,27.5713,12620,682
1.67161,212.05981,-926,31099,27.621,12620,682
1.56859,615.7978,-925,31100,27.6708,12620,682
2.44921,893.69197,-924,31101,27.6708,12620,682
2.96528,760.35451,-923,31102,27.8202,12620,682
2.76559,699.14582,-922,31103,27.7704,12620,682
2.44141,1008.1368,-921,31104,27.5713,12620,682
1.83739,1162.8514,-920,31105,27.7704,12620,682
2.93781,1116.7344,-919,31106,27.8699,12620,682
1.71108,1008.6261,-918,31107,27.8202,12254,683
1.49385,924.09818,-917,31108,27.6708,12254,683
1.33543,820.15659,-916,31109,27.8202,12254,683
1.57769,655.46472,-915,31110,27.7704,12254,683
1.32467,454.91441,-914,31111,27.5713,12254,683
2.43358,377.0532,-913,31112,27.8202,12254,683
2.08994,451.43544,-912,31113,27.5713,12254,683
1.36019,475.86374,-911,31114,27.4717,12254,683
1.31383,398.43193,-910,31115,27.4717,12254,683
1.38107,302.24834,-909,31116,27.6708,12254,683
1.97498,258.97872,-908,31117,27.8699,12024,681
4.30574,273.06392,-907,31118,27.621,12024,681
3.19442,354.59384,-906,31119,27.6708,12024,681
0.507437,383.09704,-905,31120,27.4717,12024,681
0.895034,367.26673,-904,31121,27.6708,12024,681
1.48103,335.56798,-903,31122,27.5713,12024,681
2.59663,321.85636,-902,31123,27.7704,12024,681
1.45176,336.49445,-901,31124,27.7704,12024,681
0.710948,351.02528,-900,31125,27.7704,12024,681
1.958,349.05854,-899,31126,27.7704,12024,681
0.941763,331.29498,-898,31127,27.621,11880,664
1.17188,308.62335,-897,31128,27.621,11880,664
1.45505,291.27115,-896,31129,27.8202,11880,664
1.29556,274.17864,-895,31130,27.6708,11880,664
1.38452,261.44705,-894,31131,27.621,11880,664
1.21188,241.23608,-893,31132,27.7704,11880,664
1.4118,204.99531,-892,31133,27.621,11880,664
2.0156,171.39098,-891,31134,27.8202,11880,664
1.90867,143.17833,-890,31135,27.6708,11880,664
1.19205,130.56092,-889,31136,27.6708,11880,664
1.53789,129.92439,-888,31137,27.8202,11838,664
2.62221,119.22502,-887,31138,27.6708,11838,664
1.13045,100.80599,-886,31139,27.6708,11838,664
1.54717,97.817555,-885,31140,27.9695,11838,664
1.30655,108.84744,-884,31141,27.7704,11838,664
1.26577,122.22677,-883,31142,27.9695,11838,664
1.94824,140.36271,-882,31143,27.7704,11838,664
2.0785,163.01127,-881,31144,27.621,11838,664
1.89614,172.1732,-880,31145,27.621,11838,664
0.926449,161.58836,-879,31146,27.7704,11838,664
1.40163,138.38278,-878,31147,27.5713,11838,654
0.966748,134.68339,-877,31148,27.5713,11838,654
1.76323,141.57183,-876,31149,27.5713,11838,654
2.50313,120.65414,-875,31150,27.7704,11838,654
2.04146,97.786397,-874,31151,27.8202,11838,654
1.3637,85.402994,-873,31152,27.8699,11838,654
1.25061,71.608364,-872,31153,27.7704,11838,654
1.15135,62.625045,-871,31154,27.6708,11838,654
1.4681,68.4157,-870,31155,27.6708,11838,654
1.3461,69.376974,-869,31156,27.7704,11838,654
1.62239,63.80822,-868,31157,27.8699,11833,642
1.19604,61.611657,-867,31158,27.621,11833,642
1.25442,60.92018,-866,31159,27.7704,11833,642
1.27702,52.48995,-865,31160,27.7704,11833,642
1.00543,45.68513,-864,31161,27.621,11833,642
1.97739,57.648472,-863,31162,27.6708,11833,642
2.02269,71.606595,-862,31163,27.8202,11833,642
1.34255,73.526669,-861,31164,27.7704,11833,642
1.02423,68.225293,-860,31165,27.7704,11833,642
0.884315,62.503815,-859,31166,27.7704,11833,642
1.31383,77.409712,-858,31167,27.6708,11798,642
1.68298,90.46275,-857,31168,27.621,11798,642
1.57163,76.017566,-856,31169,27.6708,11798,642
1.39822,53.918887,-855,31170,27.621,11798,642
1.19205,49.132656,-854,31171,27.7704,11798,642
1.37067,53.161025,-853,31172,27.6708,11798,642
1.4681,52.780273,-852,31173,27.8699,11798,642
2.03912,48.30253,-851,31174,27.8202,11798,642
1.60168,43.664672,-850,31175,27.6708,11798,642
1.09619,41.247123,-849,31176,27.621,11798,642
2.24822,38.782643,-848,31177,27.6708,11779,637
1.66303,34.823432,-847,31178,27.621,11779,637
1.88858,29.8284,-846,31179,27.7704,11779,637
1.49385,25.715727,-845,31180,27.5713,11779,637
1.17594,21.010638,-844,31181,27.7704,11779,637
1.15548,16.065585,-843,31182,27.7704,11779,637
0.981433,12.804006,-842,31183,27.621,11779,637
1.81125,9.2427462,-841,31184,27.8699,11779,637
1.8529,5.2305384,-840,31185,27.621,11779,637
1.87592,6.4478089,-839,31186,27.7704,11779,637
1.66303,12.14707,-838,31187,27.5713,11766,639
1.25821,18.403896,-837,31188,27.6708,11766,639
0.971667,25.268555,-836,31189,27.7704,11766,639
1.3029,32.521602,-835,31190,27.6708,11766,639
1.17188,40.825905,-834,31191,27.5713,11766,639
1.3029,49.347065,-833,31192,27.8202,11766,639
1.52544,56.507876,-832,31193,27.621,11766,639
0.78733,61.434363,-831,31194,27.6708,11766,639
1.10916,65.221312,-830,31195,27.7704,11766,639
1.04268,68.755609,-829,31196,27.8202,11766,639
1.26953,75.419896,-828,31197,27.621,11764,641
1.79539,94.070285,-827,31198,27.7704,11764,641
1.54099,127.22052,-826,31199,27.8202,11764,641
2.22262,170.96417,-825,31200,27.7704,11764,641
1.12198,214.163,-824,31201,27.621,11764,641
2.09904,244.45628,-823,31202,27.4717,11764,641
0.676582,262.5233,-822,31203,27.7704,11764,641
1.52856,267.87884,-821,31204,27.4717,11764,641
1.62826,269.50103,-820,31205,27.8202,11764,641
1.78473,278.39871,-819,31206,27.4717,11764,641
1.73047,286.75574,-818,31207,27.7704,11797,637
1.38452,294.11608,-817,31208,27.6708,11797,637
0.655098,298.54311,-816,31209,27.6708,11797,637
0.717624,298.83204,-815,31210,27.6708,11797,637
0.78733,302.23609,-814,31211,27.7704,11797,637
1.44188,316.62251,-813,31212,27.6708,11797,637
1.27328,349.08816,-812,31213,27.621,11797,637
1.04268,387.69172,-811,31214,27.621,11797,637
0.323889,412.33474,-810,31215,27.7704,11797,637
0.931581,411.42804,-809,31216,27.8202,11797,637
0.552427,412.52778,-808,31217,27.621,11922,613
0.402647,460.38326,-807,31218,27.6708,11922,613
1.68863,537.53404,-806,31219,27.7704,11922,613
1.44188,619.68254,-805,31220,27.621,11922,613
0.845728,671.66416,-804,31221,27.7704,11922,613
1.51917,671.21265,-803,31222,27.8202,11922,613
2.34782,640.12478,-802,31223,27.6708,11922,613
2.31715,597.77534,-801,31224,27.621,11922,613
2.40203,547.9176,-800,31225,27.8202,11922,613
2.32126,511.48523,-799,31226,27.6708,11922,613
2.41983,476.28995,-798,31227,27.7704,12165,587
1.76052,433.71115,-797,31228,27.7704,12165,587
0.647778,390.22994,-796,31229,27.5713,12165,587
0.926449,350.60698,-795,31230,27.8699,12165,587
1.53789,281.69189,-794,31231,27.621,12165,587
2.25034,205.58217,-793,31232,27.7704,12165,587
3.45681,143.45002,-792,31233,27.6708,12165,587
2.00612,109.30202,-791,31234,28.0193,12165,587
1.82698,104.32213,-790,31235,27.621,12165,587
2.4277,98.57516,-789,31236,27.5713,12165,587
0.851347,65.962487,-788,31237,27.7704,12328,584
1.85804,45.167005,-787,31238,27.6708,12328,584
1.67161,81.744009,-786,31239,27.621,12328,584
1.95556,125.53375,-785,31240,27.6708,12328,584
1.89362,139.49256,-784,31241,27.7704,12328,584
0.601994,126.76877,-783,31242,27.6708,12328,584
1.85804,107.10799,-782,31243,27.6708,12328,584
1.70829,113.4864,-781,31244,27.621,12328,584
1.88099,149.66547,-780,31245,27.6708,12328,584
1.84516,194.6581,-779,31246,27.621,12328,584
1.6165,232.15543,-778,31247,27.621,12328,580
2.24609,260.4372,-777,31248,27.7704,12328,580
0.768946,281.60341,-776,31249,27.7704,12328,580
1.06082,291.09782,-775,31250,27.6708,12328,580
0.946812,284.77238,-774,31251,27.4717,12328,580
2.09222,268.33598,-773,31252,27.8202,12328,580
0.750112,253.26725,-772,31253,27.6708,12328,580
0.640375,249.0016,-771,31254,27.8699,12328,580
1.94824,251.58727,-770,31255,27.8699,12328,580
1.29923,253.03668,-769,31256,27.621,12328,580
2.21402,252.75766,-768,31257,27.8202,12262,580
0.900346,253.7143,-767,31258,27.8202,12262,580
1.89865,254.57295,-766,31259,27.621,12262,580
1.95556,250.39555,-765,31260,27.7704,12262,580
1.01016,237.84826,-764,31261,27.4717,12262,580
0.560992,220.30479,-763,31262,27.7704,12262,580
0.447517,199.76276,-762,31263,27.8699,12262,580
1.3029,175.2522,-761,31264,27.6708,12262,580
1.49385,162.02079,-760,31265,27.621,12262,580
0.845728,160.40875,-759,31266,27.7704,12262,580
0.926449,153.62659,-758,31267,27.7704,12205,574
1.27702,139.42648,-757,31268,27.7704,12205,574
1.53168,126.2934,-756,31269,27.5713,12205,574
1.45176,115.89867,-755,31270,27.8699,12205,574
1.98701,102.28443,-754,31271,27.8699,12205,574
1.00543,90.299116,-753,31272,27.6708,12205,574
1.62826,85.651355,-752,31273,27.8699,12205,574
1.25821,88.721943,-751,31274,27.9695,12205,574
1.68298,92.55023,-750,31275,27.8202,12205,574
1.23912,94.878792,-749,31276,27.8202,12205,574
0.799351,97.751571,-748,31277,27.7704,12212,571
1.17998,99.577431,-747,31278,27.8202,12212,571
1.56555,100.59409,-746,31279,27.5713,12212,571
1.13045,100.17779,-745,31280,27.7704,12212,571
0.569429,96.879925,-744,31281,27.621,12212,571
1.00068,93.200024,-743,31282,27.8202,12212,571
1.8529,87.406009,-742,31283,27.6708,12212,571
1.91615,82.169371,-741,31284,27.6708,12212,571
0.931581,78.543306,-740,31285,27.621,12212,571
0.981433,73.454283,-739,31286,27.6708,12212,571
0.737289,67.521988,-738,31287,27.8202,12237,562
1.17594,62.413513,-737,31288,27.7704,12237,562
1.30655,57.844715,-736,31289,27.8202,12237,562
1.3637,55.41804,-735,31290,27.8202,12237,562
0.845728,52.490376,-734,31291,27.621,12237,562
1.43525,51.109136,-733,31292,27.7704,12237,562
1.20399,50.319183,-732,31293,27.6708,12237,562
1.77132,50.316814,-731,31294,27.6708,12237,562
1.55332,50.944433,-730,31295,27.8202,12237,562
1.47781,50.959056,-729,31296,27.7704,12237,562
1.11773,45.668166,-728,31297,27.5713,12241,560
0.577742,40.47786,-727,31298,27.7704,12241,560
1.71386,38.822582,-726,31299,27.8699,12241,560
1.26577,39.621925,-725,31300,27.8202,12241,560
0.878906,37.149709,-724,31301,27.621,12241,560
1.62239,32.572651,-723,31302,27.8699,12241,560
1.93596,28.194279,-722,31303,27.7704,12241,560
0.926449,27.504855,-721,31304,28.0193,12241,560
1.25442,26.934421,-720,31305,27.6708,12241,560
0.840071,27.042638,-719,31306,27.7704,12241,560
1.10916,27.892198,-718,31307,27.8699,12236,557
1.00068,26.696027,-717,31308,27.621,12236,557
0.946812,19.233339,-716,31309,27.8699,12236,557
1.3029,13.957714,-715,31310,27.5713,12236,557
1.63993,12.644151,-714,31311,27.7704,12236,557
1.94824,15.377468,-713,31312,27.6708,12236,557
1.19205,29.566478,-712,31313,27.7704,12236,557
1.3102,65.059469,-711,31314,27.5713,12236,557
1.78473,124.30936,-710,31315,27.8202,12236,557
0.768946,194.93742,-709,31316,27.5713,12236,557
2.08765,261.3043,-708,31317,27.8202,12210,563
1.80334,293.53656,-707,31318,27.621,12210,563
1.28447,271.34254,-706,31319,27.8202,12210,563
1.39139,216.0568,-705,31320,27.7704,12210,563
1.63993,182.60915,-704,31321,27.621,12210,563
2.5819,173.82525,-703,31322,27.8699,12210,563
1.3637,175.53668,-702,31323,27.6708,12210,563
1.00068,168.02153,-701,31324,27.6708,12210,563
2.8986,159.96694,-700,31325,27.6708,12210,563
1.62239,162.72124,-699,31326,27.621,12210,563
1.34255,166.91784,-698,31327,27.7704,12117,578
0.845728,160.83606,-697,31328,27.4717,12117,578
1.23912,144.98752,-696,31329,27.8202,12117,578
1.42525,127.89555,-695,31330,27.5713,12117,578
1.19604,117.33878,-694,31331,27.621,12117,578
1.79539,110.95983,-693,31332,27.6708,12117,578
1.52544,101.53462,-692,31333,28.0193,12117,578
1.12198,92.206164,-691,31334,27.8202,12117,578
1.55638,84.019144,-690,31335,27.621,12117,578
1.45176,81.032348,-689,31336,27.5713,12117,578
1.75781,87.56067,-688,31337,27.5713,12078,586
1.92608,100.70216,-687,31338,27.6708,12078,586
0.905627,112.00901,-686,31339,27.6708,12078,586
1.57163,116.05292,-685,31340,27.7704,12078,586
0.78733,119.74494,-684,31341,27.6708,12078,586
1.98701,129.0954,-683,31342,27.7704,12078,586
1.68863,140.40495,-682,31343,27.5713,12078,586
1.93596,146.52511,-681,31344,27.6708,12078,586
1.43857,144.54321,-680,31345,27.621,12078,586
1.61355,143.23577,-679,31346,27.621,12078,586
2.04146,145.50689,-678,31347,27.8699,12125,589
2.09904,153.5201,-677,31348,27.621,12125,589
1.94824,163.24325,-676,31349,28.0193,12125,589
1.21188,169.74574,-675,31350,27.8699,12125,589
2.0785,175.35115,-674,31351,27.6708,12125,589
0.683594,182.54476,-673,31352,27.8202,12125,589
2.15951,192.55848,-672,31353,27.7704,12125,589
2.2819,200.46655,-671,31354,27.8202,12125,589
1.68298,208.93852,-670,31355,27.8202,12125,589
1.55638,219.31966,-669,31356,27.8699,12125,589
1.34255,224.60274,-668,31357,27.6708,12197,594
0.402647,226.23558,-667,31358,27.7704,12197,594
1.17998,228.88447,-666,31359,27.8202,12197,594
1.04268,235.67658,-665,31360,27.7704,12197,594
1.55638,243.92343,-664,31361,27.7704,12197,594
2.13954,247.83659,-663,31362,27.8202,12197,594
1.11773,248.91229,-662,31363,27.4219,12197,594
1.55638,252.70392,-661,31364,27.7704,12197,594
2.14177,258.14142,-660,31365,27.7704,12197,594
1.22363,263.71731,-659,31366,27.621,12197,594
2.0156,267.12401,-658,31367,27.621,12274,606
1.60466,271.13303,-657,31368,27.8202,12274,606
1.53789,279.11534,-656,31369,27.5713,12274,606
1.05179,293.92179,-655,31370,27.6708,12274,606
1.64283,305.6295,-654,31371,27.6708,12274,606
2.59295,309.69209,-653,31372,27.7704,12274,606
2.15066,314.89371,-652,31373,27.4717,12274,606
1.4681,326.8252,-651,31374,27.621,12274,606
2.13508,340.15593,-650,31375,27.7704,12274,606
1.76323,346.56202,-649,31376,27.8699,12274,606
1.23912,350.68882,-648,31377,27.5713,12261,622
1.58973,362.01675,-647,31378,27.621,12261,622
1.47134,373.31181,-646,31379,27.621,12261,622
1.5034,377.10979,-645,31380,27.621,12261,622
1.62826,378.76661,-644,31381,27.8202,12261,622
1.22363,380.64415,-643,31382,27.621,12261,622
1.25061,384.99622,-642,31383,27.6708,12261,622
1.17594,392.74324,-641,31384,27.8202,12261,622
1.84516,401.56645,-640,31385,27.8202,12261,622
0.895034,411.80857,-639,31386,27.7704,12261,622
1.83998,422.85419,-638,31387,27.6708,12100,651
1.53168,433.38692,-637,31388,27.7704,12100,651
1.98701,444.20394,-636,31389,27.621,12100,651
1.87592,455.8402,-635,31390,27.621,12100,651
2.06237,457.16186,-634,31391,27.7704,12100,651
2.56522,448.47101,-633,31392,27.621,12100,651
2.88871,434.62522,-632,31393,27.6708,12100,651
1.83479,422.13608,-631,31394,27.9695,12100,651
1.60168,427.5732,-630,31395,27.6708,12100,651
1.82437,450.39502,-629,31396,27.6708,12100,651
2.18802,479.64209,-628,31397,27.8699,12183,676
0.981433,504.26519,-627,31398,27.621,12183,676
1.24679,524.20048,-626,31399,27.7704,12183,676
0.931581,532.45982,-625,31400,27.7704,12183,676
0.905627,532.35054,-624,31401,27.621,12183,676
1.07865,534.42163,-623,31402,27.7704,12183,676
1.40163,533.70955,-622,31403,27.7704,12183,676
1.31745,523.73422,-621,31404,27.621,12183,676
2.03444,513.94823,-620,31405,27.8202,12183,676
1.17998,510.90862,-619,31406,27.8202,12183,676
0.76272,494.39239,-618,31407,27.7704,11757,693
1.94824,455.94667,-617,31408,27.6708,11757,693
1.59273,427.05438,-616,31409,27.8202,11757,693
0.905627,425.15569,-615,31410,27.5713,11757,693
1.50657,427.5181,-614,31411,27.8202,11757,693
1.05179,416.63125,-613,31412,27.9695,11757,693
1.98461,414.54706,-612,31413,27.6708,11757,693
1.36019,419.87079,-611,31414,27.7704,11757,693
1.69146,423.34269,-610,31415,27.7704,11757,693
1.65152,419.50629,-609,31416,27.8699,11757,693
1.62532,415.6495,-608,31417,27.7704,11894,720
2.05078,422.67127,-607,31418,27.7704,11894,720
1.30655,442.69739,-606,31419,27.9695,11894,720
2.88541,485.96792,-605,31420,27.5713,11894,720
1.62826,520.74029,-604,31421,27.8699,11894,720
1.61355,523.87841,-603,31422,27.7704,11894,720
1.96287,536.97494,-602,31423,27.7704,11894,720
1.25442,560.73542,-601,31424,27.621,11894,720
2.2819,585.9449,-600,31425,27.6708,11894,720
2.43162,606.77664,-599,31426,27.5713,11894,720
2.18584,626.37736,-598,31427,27.8202,11894,720
2.47824,644.62632,-597,31428,27.7704,11894,720
2.88045,670.46647,-596,31429,27.7704,11894,720
1.98701,696.36373,-595,31430,27.7704,11894,720
1.93596,702.61815,-594,31431,27.6708,11894,720
2.1771,707.95162,-593,31432,27.621,11894,720
1.99659,728.55114,-592,31433,27.621,11894,720
3.00997,747.99597,-591,31434,27.621,11894,720
2.45504,754.46273,-590,31435,27.4717,11894,720
2.76386,756.99462,-589,31436,27.4717,11894,720
3.04149,764.59716,-588,31437,27.6708,12140,743
2.10811,773.15952,-587,31438,27.8699,12140,743
2.32332,780.39616,-586,31439,27.6708,12140,743
3.03521,783.18446,-585,31440,27.8699,12140,743
2.9443,771.61591,-584,31441,27.8202,12140,743
4.0158,735.93043,-583,31442,27.8699,12140,743
3.15083,676.87979,-582,31443,27.7704,12140,743
1.73323,625.52075,-581,31444,27.621,12140,743
0.926449,631.20769,-580,31445,27.9695,12140,743
1.42525,641.61473,-579,31446,27.7704,12140,743
1.25061,678.75909,-578,31447,27.7704,11955,778
1.94579,719.33867,-577,31448,27.8202,11955,778
1.74146,717.07515,-576,31449,27.6708,11955,778
2.0156,728.60015,-575,31450,27.621,11955,778
1.65728,778.67899,-574,31451,27.6708,11955,778
2.67443,832.94998,-573,31452,27.7704,11955,778
2.22905,856.23943,-572,31453,27.8202,11955,778
2.14177,859.90031,-571,31454,27.9695,11955,778
2.99568,874.31428,-570,31455,27.8699,11955,778
3.16141,900.98311,-569,31456,27.8202,11955,778
3.06647,910.77783,-568,31457,27.6708,12301,837
3.30015,910.46385,-567,31458,27.8202,12301,837
3.57614,908.72375,-566,31459,27.5713,12301,837
4.71792,921.7186,-565,31460,27.5713,12301,837
3.69935,943.74545,-564,31461,27.6708,12301,837
3.76072,956.0398,-563,31462,27.6708,12301,837
4.3157,947.14576,-562,31463,27.621,12301,837
3.99914,917.89982,-561,31464,27.6708,12301,837
4.08058,898.2794,-560,31465,27.621,12301,837
4.19581,915.04936,-559,31466,27.8699,12301,837
4.43019,958.42672,-558,31467,27.5713,12167,901
4.47411,1006.5957,-557,31468,27.8202,12167,901
3.60271,1027.8685,-556,31469,27.7704,12167,901
3.31744,1019.2252,-555,31470,27.8202,12167,901
3.50612,1011.1668,-554,31471,27.7704,12167,901
2.72214,1020.8188,-553,31472,27.6708,12167,901
3.233,1043.7982,-552,31473,27.5713,12167,901
3.84473,1062.5037,-551,31474,27.7704,12167,901
2.74308,1083.3821,-550,31475,27.8699,12167,901
3.43606,1116.499,-549,31476,27.621,12167,901
2.42966,1160.3931,-548,31477,27.8699,11479,921
3.02892,1199.0198,-547,31478,27.7704,11479,921
3.03992,1226.5863,-546,31479,27.7704,11479,921
2.39407,1241.3461,-545,31480,27.7704,11479,921
2.75695,1260.912,-544,31481,27.5713,11479,921
3.18844,1292.5711,-543,31482,27.4717,11479,921
3.11583,1331.6201,-542,31483,27.6708,11479,921
2.96367,1365.3474,-541,31484,27.6708,11479,921
3.35318,1373.8325,-540,31485,27.7704,11479,921
3.45267,1355.8444,-539,31486,27.8699,11479,921
3.25211,1343.205,-538,31487,27.5713,10388,972
3.36879,1332.7137,-537,31488,27.7704,10388,972
3.0163,1316.078,-536,31489,27.5713,10388,972
3.65788,1283.384,-535,31490,27.8202,10388,972
3.88299,1248.2929,-534,31491,27.6708,10388,972
3.33893,1250.6297,-533,31492,27.621,10388,972
4.35858,1293.7355,-532,31493,27.7704,10388,972
3.99914,1370.7481,-531,31494,27.8202,10388,972
4.98812,1486.7111,-530,31495,27.5713,10388,972
4.87988,1611.9535,-529,31496,27.621,10388,972
4.4388,1704.6807,-528,31497,27.621,9632,1067
4.71994,1736.3647,-527,31498,27.8202,9632,1067
4.58153,1694.2171,-526,31499,27.6708,9632,1067
4.47411,1585.9175,-525,31500,27.8699,9632,1067
4.48475,1432.3159,-524,31501,27.6708,9632,1067
4.77818,1253.2206,-523,31502,27.6708,9632,1067
4.47411,1068.5804,-522,31503,27.8202,9632,1067
3.81485,899.39847,-521,31504,27.5713,9632,1067
3.95236,763.99861,-520,31505,27.621,9632,1067
4.20035,670.86328,-519,31506,27.6708,9632,1067
3.62382,617.37291,-518,31507,27.5713,9415,1243
3.24771,594.07467,-517,31508,27.8202,9415,1243
3.28131,593.03727,-516,31509,27.8699,9415,1243
2.77763,609.04343,-515,31510,27.621,9415,1243
4.01936,637.93517,-514,31511,27.7704,9415,1243
2.40203,674.52421,-513,31512,27.7704,9415,1243
3.13262,712.02769,-512,31513,27.6708,9415,1243
2.21187,744.691,-511,31514,27.5713,9415,1243
3.02892,769.32258,-510,31515,27.7704,9415,1243
2.66729,784.64392,-509,31516,27.7704,9415,1243
2.64575,791.58087,-508,31517,27.4717,9717,1982
2.22691,792.17776,-507,31518,27.621,9717,1982
2.41983,789.70992,-506,31519,27.7704,9717,1982
2.54094,787.28486,-505,31520,27.6708,9717,1982
2.03444,787.87831,-504,31521,27.8202,9717,1982
2.22905,792.51323,-503,31522,27.6708,9717,1982
1.83739,801.81093,-502,31523,27.9695,9717,1982
1.87592,814.87451,-501,31524,27.6708,9717,1982
2.08994,829.88915,-500,31525,27.8699,9717,1982
0.981433,845.78469,-499,31526,27.8202,9717,1982
1.27328,861.90993,-498,31527,27.6708,9143,2123
2.45892,877.65667,-497,31528,27.8202,9143,2123
1.44188,892.06155,-496,31529,27.7704,9143,2123
1.19604,904.90677,-495,31530,27.5713,9143,2123
1.24296,916.29477,-494,31531,27.621,9143,2123
2.04146,926.22575,-493,31532,27.8699,9143,2123
2.78449,934.32714,-492,31533,27.7704,9143,2123
2.38009,940.5518,-491,31534,27.6708,9143,2123
1.85804,945.74599,-490,31535,27.621,9143,2123
2.18584,949.31053,-489,31536,27.8202,9143,2123
3.00997,951.38392,-488,31537,27.6708,8973,2119
1.88858,951.33581,-487,31538,27.621,8973,2119
1.83739,949.10729,-486,31539,27.6708,8973,2119
2.52777,944.79196,-485,31540,27.6708,8973,2119
2.0693,938.89828,-484,31541,27.8202,8973,2119
1.84257,931.63011,-483,31542,27.8699,8973,2119
2.59663,921.55739,-482,31543,27.6708,8973,2119
2.88706,909.26767,-481,31544,27.5713,8973,2119
2.53718,895.20924,-480,31545,27.8699,8973,2119
2.79304,879.41081,-479,31546,27.8202,8973,2119
2.06237,862.11657,-478,31547,27.7704,8997,2089
1.95556,842.92213,-477,31548,27.6708,8997,2089
1.77132,818.32924,-476,31549,27.6708,8997,2089
2.30477,793.99592,-475,31550,27.8202,8997,2089
1.86572,767.74905,-474,31551,27.7704,8997,2089
1.33185,739.40354,-473,31552,27.8699,8997,2089
1.83998,709.72014,-472,31553,27.6708,8997,2089
1.89614,677.76254,-471,31554,27.7704,8997,2089
2.15066,644.95842,-470,31555,27.9695,8997,2089
2.49549,610.93227,-469,31556,27.5713,8997,2089
2.68333,575.2186,-468,31557,27.7704,9162,2060
1.68298,538.74334,-467,31558,27.7704,9162,2060
2.19238,502.84047,-466,31559,27.7704,9162,2060
1.33543,467.61633,-465,31560,27.6708,9162,2060
3.70708,431.70808,-464,31561,27.8202,9162,2060
1.98461,395.26386,-463,31562,27.8202,9162,2060
2.96689,359.02923,-462,31563,27.5713,9162,2060
3.00204,324.1775,-461,31564,27.8202,9162,2060
2.34985,290.73904,-460,31565,27.8699,9162,2060
3.08971,258.4831,-459,31566,27.8202,9162,2060
2.954,228.01891,-458,31567,27.4717,9388,2101
3.15235,200.28744,-457,31568,27.8699,9388,2101
2.39208,176.64198,-456,31569,27.7704,9388,2101
2.94592,158.43593,-455,31570,27.621,9388,2101
2.54094,148.01734,-454,31571,27.6708,9388,2101
2.78277,146.61051,-453,31572,27.6708,9388,2101
2.91827,153.81295,-452,31573,27.5713,9388,2101
3.18246,168.55917,-451,31574,27.7704,9388,2101
2.19238,188.75011,-450,31575,27.7704,9388,2101
2.7396,211.77803,-449,31576,27.7704,9388,2101
2.83371,236.60558,-448,31577,27.8699,9559,2175
2.75002,263.39611,-447,31578,27.8202,9559,2175
2.51073,291.32642,-446,31579,27.621,9559,2175
2.32946,319.38813,-445,31580,27.8202,9559,2175
3.22857,347.35544,-444,31581,27.8699,9559,2175
3.52375,375.2298,-443,31582,27.7704,9559,2175
2.79474,403.06142,-442,31583,28.0193,9559,2175
2.96367,431.01423,-441,31584,27.6708,9559,2175
3.52781,457.53702,-440,31585,27.8202,9559,2175
3.15235,483.69318,-439,31586,27.8202,9559,2175
2.72739,509.8813,-438,31587,27.8699,9614,2242
3.03207,536.18722,-437,31588,27.6708,9614,2242
3.09125,562.38302,-436,31589,27.6708,9614,2242
2.65115,587.60956,-435,31590,27.6708,9614,2242
2.75695,612.5227,-434,31591,27.7704,9614,2242
2.63672,637.32192,-433,31592,27.5713,9614,2242
2.83371,661.62249,-432,31593,27.7704,9614,2242
3.21377,685.47949,-431,31594,27.7704,9614,2242
2.84714,709.09604,-430,31595,27.7704,9614,2242
3.41936,732.41025,-429,31596,27.8202,9614,2242
3.34036,754.41574,-428,31597,27.8699,9576,2314
2.80496,775.63029,-427,31598,27.7704,9576,2314
2.76386,796.37483,-426,31599,27.7704,9576,2314
2.95561,816.75791,-425,31600,27.7704,9576,2314
2.84547,836.2376,-424,31601,27.6708,9576,2314
3.15235,854.21626,-423,31602,27.621,9576,2314
2.41983,871.42765,-422,31603,27.7704,9576,2314
2.5819,887.79799,-421,31604,27.6708,9576,2314
3.82359,903.13748,-420,31605,27.8202,9576,2314
2.60945,917.10271,-419,31606,27.8202,9576,2314
3.23447,930.06453,-418,31607,27.7704,9441,2435
2.27143,941.72453,-417,31608,27.7704,9441,2435
4.64766,952.57156,-416,31609,27.7704,9441,2435
3.44576,961.88222,-415,31610,27.6708,9441,2435
2.34782,970.00652,-414,31611,27.621,9441,2435
4.76619,976.68799,-413,31612,27.7704,9441,2435
3.74802,982.69783,-412,31613,27.8202,9441,2435
3.66178,987.56266,-411,31614,27.7704,9441,2435
3.44576,991.29859,-410,31615,27.7704,9441,2435
3.75945,993.64541,-409,31616,27.6708,9441,2435
2.90353,995.25492,-408,31617,27.8202,9140,2547
3.42354,995.89059,-407,31618,27.8202,9140,2547
3.52781,995.3123,-406,31619,27.7704,9140,2547
3.00997,993.89211,-405,31620,27.6708,9140,2547
3.28276,991.84104,-404,31621,27.7704,9140,2547
3.2987,989.08542,-403,31622,27.4717,9140,2547
3.38573,986.20317,-402,31623,27.7704,9140,2547
2.27352,983.51358,-401,31624,27.8699,9140,2547
2.47439,980.60235,-400,31625,27.6708,9140,2547
2.68865,977.7275,-399,31626,27.8699,9140,2547
2.67264,974.88027,-398,31627,27.6708,8955,2632
2.56336,972.4725,-397,31628,27.8202,8955,2632
2.57079,970.34081,-396,31629,27.8202,8955,2632
2.25668,968.2246,-395,31630,27.8202,8955,2632
3.48566,966.14572,-394,31631,27.8202,8955,2632
2.62948,963.49055,-393,31632,27.5713,8955,2632
1.44188,960.59588,-392,31633,27.621,8955,2632
2.56336,957.30455,-391,31634,27.8202,8955,2632
3.00204,953.12832,-390,31635,27.6708,8955,2632
2.1771,948.24248,-389,31636,27.7704,8955,2632
1.86572,942.83323,-388,31637,27.6708,8883,2611
1.54717,937.13879,-387,31638,27.8202,8883,2611
2.34985,930.53918,-386,31639,27.8202,8883,2611
2.4974,923.084,-385,31640,27.8699,8883,2611
2.65294,915.49755,-384,31641,27.621,8883,2611
1.54099,906.75577,-383,31642,27.9695,8883,2611
2.08079,897.71651,-382,31643,27.8699,8883,2611
2.51832,887.85312,-381,31644,27.8202,8883,2611
2.25668,877.70766,-380,31645,27.5713,8883,2611
1.92856,866.42623,-379,31646,27.7704,8883,2611
2.93131,854.16621,-378,31647,27.8699,8849,2504
2.29648,840.48226,-377,31648,27.7704,8849,2504
2.56522,825.34615,-376,31649,27.8202,8849,2504
1.89865,808.77043,-375,31650,27.7704,8849,2504
2.11037,791.01214,-374,31651,27.5713,8849,2504
2.36602,769.98649,-373,31652,27.7704,8849,2504
1.70829,750.97121,-372,31653,27.7704,8849,2504
2.0716,732.07971,-371,31654,27.7704,8849,2504
2.64033,714.08506,-370,31655,27.8699,8849,2504
3.36595,697.5472,-369,31656,27.7704,8849,2504
1.98461,682.65408,-368,31657,27.6708,8844,2378
2.0716,669.03527,-367,31658,27.5713,8844,2378
1.09619,656.27318,-366,31659,27.4717,8844,2378
2.13284,644.67043,-365,31660,27.8699,8844,2378
2.77935,633.81437,-364,31661,27.8202,8844,2378
2.34985,623.72111,-363,31662,27.6708,8844,2378
1.93842,613.76577,-362,31663,27.7704,8844,2378
1.84257,604.82864,-361,31664,27.7704,8844,2378
2.09449,597.00819,-360,31665,27.8202,8844,2378
3.07578,589.49959,-359,31666,27.5713,8844,2378
1.1472,581.3966,-358,31667,27.8202,8836,2310
2.71512,572.09997,-357,31668,27.7704,8836,2310
1.90617,561.97676,-356,31669,27.6708,8836,2310
0.647778,551.50439,-355,31670,27.7704,8836,2310
0.971667,540.72432,-354,31671,27.7704,8836,2310
1.0381,528.774,-353,31672,27.5713,8836,2310
0.710948,516.59621,-352,31673,27.6708,8836,2310
1.47134,504.80473,-351,31674,27.7704,8836,2310
1.4118,493.71273,-350,31675,27.6708,8836,2310
1.17998,482.30235,-349,31676,27.5713,8836,2310
1.18402,470.56883,-348,31677,27.7704,8834,2321
0.138107,459.04964,-347,31678,27.4717,8834,2321
1.22363,447.97416,-346,31679,27.7704,8834,2321
0.921287,437.10931,-345,31680,27.6708,8834,2321
1.44518,426.31478,-344,31681,27.4717,8834,2321
0.828641,415.62434,-343,31682,27.6708,8834,2321
1.09183,405.04898,-342,31683,27.621,8834,2321
1.07422,394.85206,-341,31684,27.7704,8834,2321
1.08306,385.24994,-340,31685,27.8699,8834,2321
1.19205,375.92599,-339,31686,27.5713,8834,2321
1.19604,366.90435,-338,31687,27.7704,8837,2363
0.292969,357.26602,-337,31688,27.4717,8837,2363
0.697405,347.07235,-336,31689,27.621,8837,2363
1.51603,337.29238,-335,31690,27.8202,8837,2363
0.976563,327.71916,-334,31691,27.7704,8837,2363
1.83998,318.27158,-333,31692,27.8699,8837,2363
0.717624,308.61893,-332,31693,27.8699,8837,2363
1.23526,297.96376,-331,31694,27.8202,8837,2363
0.710948,287.47634,-330,31695,27.8202,8837,2363
0.895034,277.1198,-329,31696,27.6708,8837,2363
1.23912,267.12089,-328,31697,27.8202,8830,2399
0.640375,256.54568,-327,31698,27.621,8830,2399
1.54408,245.78126,-326,31699,27.8202,8830,2399
0.625305,235.73791,-325,31700,27.6708,8830,2399
0.768946,226.33077,-324,31701,27.621,8830,2399
0.981433,217.03003,-323,31702,27.8202,8830,2399
0.926449,207.36171,-322,31703,27.7704,8830,2399
0.905627,197.76012,-321,31704,27.6708,8830,2399
0.534885,189.05239,-320,31705,27.7704,8830,2399
0.507437,181.06966,-319,31706,27.8202,8830,2399
1.17188,173.04155,-318,31707,27.5713,8830,2399
0.632885,164.14245,-317,31708,27.6708,8830,2399
0.497951,155.00363,-316,31709,27.7704,8830,2399
0.625305,147.36031,-315,31710,27.4717,8830,2399
0.41432,142.1354,-314,31711,27.5713,8830,2399
0.552427,139.22851,-313,31712,27.8699,8830,2399
1.57163,137.1739,-312,31713,27.621,8830,2399
1.05179,135.19997,-311,31714,27.8699,8830,2399
1.33185,133.441,-310,31715,27.8699,8830,2399
0.710948,132.88905,-309,31716,27.5713,8830,2399
0.805294,133.1814,-308,31717,27.621,8830,2426
1.10916,133.20875,-307,31718,27.6708,8830,2426
0.956832,132.67049,-306,31719,27.8699,8830,2426
0.534885,130.91106,-305,31720,27.8202,8830,2426
0.845728,128.17342,-304,31721,27.5713,8830,2426
0.569429,125.18494,-303,31722,27.7704,8830,2426
1.49385,122.15591,-302,31723,27.8202,8830,2426
0.895034,119.32496,-301,31724,27.8202,8830,2426
0.921287,116.26959,-300,31725,27.7704,8830,2426
0.436732,112.11087,-299,31726,27.8699,8830,2426
1.09619,108.05422,-298,31727,27.621,8833,2444
0.76272,105.72692,-297,31728,27.4717,8833,2444
1.94824,102.89014,-296,31729,27.7704,8833,2444
0.981433,106.33438,-295,31730,27.8202,8833,2444
1.12623,162.08685,-294,31731,27.621,8833,2444
0.690534,221.04291,-293,31732,27.8699,8833,2444
1.84257,230.37023,-292,31733,27.7704,8833,2444
0.878906,236.04759,-291,31734,27.8202,8833,2444
1.92608,273.20555,-290,31735,27.7704,8833,2444
1.3637,322.84909,-289,31736,27.7704,8833,2444
1.19205,367.06559,-288,31737,27.8202,8830,2464
1.34255,413.12841,-287,31738,27.621,8830,2464
1.68014,462.02452,-286,31739,27.621,8830,2464
1.17594,504.472,-285,31740,27.8202,8830,2464
1.09619,534.99487,-284,31741,27.8202,8830,2464
0.981433,550.85473,-283,31742,27.8202,8830,2464
1.19604,551.05677,-282,31743,27.621,8830,2464
1.18402,537.21709,-281,31744,27.5713,8830,2464
1.66589,511.62856,-280,31745,27.621,8830,2464
1.22752,476.63685,-279,31746,27.621,8830,2464
2.11714,435.82122,-278,31747,27.7704,8833,2478
2.27981,396.70667,-277,31748,27.8202,8833,2478
1.65152,366.32845,-276,31749,27.621,8833,2478
1.25821,348.35353,-275,31750,27.8202,8833,2478
1.13045,342.50909,-274,31751,27.8699,8833,2478
1.11773,346.307,-273,31752,27.6708,8833,2478
1.38452,353.94367,-272,31753,27.7704,8833,2478
1.59273,360.80239,-271,31754,27.6708,8833,2478
1.77132,367.46631,-270,31755,28.0193,8833,2478
1.88606,374.94878,-269,31756,27.621,8833,2478
2.08537,384.83709,-268,31757,27.6708,8829,2495
0.926449,395.85415,-267,31758,27.621,8829,2495
0.799351,407.18329,-266,31759,27.621,8829,2495
1.05179,417.64673,-265,31760,27.6708,8829,2495
0.905627,426.28297,-264,31761,27.7704,8829,2495
0.730792,433.01325,-263,31762,27.6708,8829,2495
0.85693,438.21156,-262,31763,27.8699,8829,2495
1.10916,442.65991,-261,31764,27.6708,8829,2495
0.921287,446.03692,-260,31765,27.8699,8829,2495
1.11773,448.65467,-259,31766,27.7704,8829,2495
0.85693,451.05068,-258,31767,27.8202,8828,2504
0.817051,453.96438,-257,31768,27.8202,8828,2504
1.73047,457.7185,-256,31769,27.8202,8828,2504
1.27702,462.19093,-255,31770,27.8699,8828,2504
1.37067,466.76735,-254,31771,27.621,8828,2504
0.926449,471.28328,-253,31772,27.8202,8828,2504
0.601994,474.96672,-252,31773,27.621,8828,2504
1.27702,478.30957,-251,31774,27.7704,8828,2504
1.73323,482.28602,-250,31775,27.5713,8828,2504
1.82698,486.80142,-249,31776,27.6708,8828,2504
1.4219,490.50633,-248,31777,27.5713,8831,2509
1.19604,493.5985,-247,31778,27.5713,8831,2509
1.07422,496.49122,-246,31779,28.1189,8831,2509
1.49385,498.66933,-245,31780,27.8202,8831,2509
1.28447,499.95652,-244,31781,27.8699,8831,2509
1.01956,500.47662,-243,31782,27.8202,8831,2509
1.47134,500.16088,-242,31783,27.6708,8831,2509
1.90867,499.27923,-241,31784,27.9695,8831,2509
0.717624,498.32185,-240,31785,27.6708,8831,2509
1.25821,497.51674,-239,31786,27.8202,8831,2509
0.971667,497.11111,-238,31787,27.8699,8830,2471
1.12623,496.87162,-237,31788,27.8202,8830,2471
1.38452,496.2613,-236,31789,27.6708,8830,2471
1.52856,495.54369,-235,31790,27.7704,8830,2471
1.66875,495.06561,-234,31791,27.5713,8830,2471
0.447517,494.561,-233,31792,27.8699,8830,2471
1.44518,494.78834,-232,31793,27.5713,8830,2471
1.33185,496.19502,-231,31794,27.7704,8830,2471
2.58559,497.3312,-230,31795,27.8699,8830,2471
1.09183,498.26174,-229,31796,27.7704,8830,2471
1.63702,500.18112,-228,31797,27.8699,8828,2426
1.09619,503.7549,-227,31798,27.5713,8828,2426
1.52856,507.13288,-226,31799,27.8699,8828,2426
0.276214,508.6547,-225,31800,27.8202,8828,2426
1.13045,509.00021,-224,31801,27.621,8828,2426
1.59273,509.79214,-223,31802,27.621,8828,2426
1.98461,511.45273,-222,31803,27.8699,8828,2426
0.552427,513.05788,-221,31804,27.8202,8828,2426
1.05631,514.07364,-220,31805,27.9695,8828,2426
0.828641,513.98174,-219,31806,27.9695,8828,2426
1.58973,511.72833,-218,31807,27.7704,8832,2388
1.90617,508.44542,-217,31808,27.4717,8832,2388
0.577742,505.72144,-216,31809,27.7704,8832,2388
0.525895,504.12176,-215,31810,27.4717,8832,2388
1.17594,503.13007,-214,31811,27.6708,8832,2388
0.805294,503.99153,-213,31812,27.8699,8832,2388
1.96044,505.95534,-212,31813,27.8202,8832,2388
1.40163,504.44035,-211,31814,27.8699,8832,2388
1.86827,497.31728,-210,31815,27.8202,8832,2388
0.59402,486.5023,-209,31816,27.6708,8832,2388
0.525895,475.93051,-208,31817,27.621,8832,2417
0.931581,465.81742,-207,31818,27.8202,8832,2417
0.895034,451.23576,-206,31819,27.7704,8832,2417
0.889691,451.36244,-205,31820,27.8202,8832,2417
0.402647,529.75768,-204,31821,27.8699,8832,2417
1.23912,557.62276,-203,31822,27.6708,8832,2417
0.768946,622.36197,-202,31823,27.7704,8832,2417
1.9335,772.34002,-201,31824,27.8699,8832,2417
2.17052,788.4297,-200,31825,27.9695,8832,2417
2.96206,688.42951,-199,31826,27.7704,8832,2417
2.93294,551.48242,-198,31827,27.8202,8837,2499
3.40679,432.9374,-197,31828,27.5713,8837,2499
2.14399,396.82041,-196,31829,27.6708,8837,2499
3.30448,452.92213,-195,31830,27.8699,8837,2499
1.56555,520.16568,-194,31831,27.5713,8837,2499
2.05543,537.40519,-193,31832,27.8699,8837,2499
1.80598,535.33895,-192,31833,27.621,8837,2499
1.61945,558.05147,-191,31834,27.621,8837,2499
1.53168,570.15459,-190,31835,27.9695,8837,2499
1.22363,512.74683,-189,31836,27.6708,8837,2499
1.15135,425.8947,-188,31837,27.8699,8838,2515
1.37067,409.69056,-187,31838,27.7704,8838,2515
2.09677,466.08213,-186,31839,27.9695,8838,2515
1.90617,512.87571,-185,31840,27.8699,8838,2515
2.0693,486.76539,-184,31841,27.6708,8838,2515
1.80598,407.54446,-183,31842,27.7704,8838,2515
1.23912,376.64646,-182,31843,27.7704,8838,2515
1.43525,426.01399,-181,31844,27.8699,8838,2515
0.981433,456.88679,-180,31845,27.6708,8838,2515
1.25821,400.98738,-179,31846,27.7704,8838,2515
1.29556,340.64201,-178,31847,27.8202,8835,2515
1.73047,344.50427,-177,31848,27.6708,8835,2515
0.617632,368.75453,-176,31849,27.7704,8835,2515
1.21188,367.68707,-175,31850,27.6708,8835,2515
1.23912,345.4053,-174,31851,27.6708,8835,2515
1.31383,331.8502,-173,31852,27.621,8835,2515
0.873464,341.1164,-172,31853,27.7704,8835,2515
1.54717,355.96268,-171,31854,27.8202,8835,2515
0.488281,350.54617,-170,31855,27.8699,8835,2515
0.793363,327.06792,-169,31856,27.621,8835,2515
0.458048,302.07117,-168,31857,27.7704,8838,2530
0.534885,272.91586,-167,31858,27.6708,8838,2530
1.33543,246.23885,-166,31859,27.6708,8838,2530
1.15548,232.56025,-165,31860,27.5713,8838,2530
0.497951,234.47025,-164,31861,27.8202,8838,2530
0.497951,246.93777,-163,31862,27.621,8838,2530
0.690534,263.82753,-162,31863,27.8699,8838,2530
1.13886,279.96541,-161,31864,27.7704,8838,2530
1.19205,284.55014,-160,31865,27.6708,8838,2530
0.560992,281.65359,-159,31866,27.621,8838,2530
1.25821,280.56968,-158,31867,27.8202,8838,2543
1.93596,283.4941,-157,31868,27.7704,8838,2543
1.23912,281.60457,-156,31869,27.6708,8838,2543
1.48103,279.4102,-155,31870,27.621,8838,2543
1.3029,282.03053,-154,31871,27.6708,8838,2543
1.57769,288.79875,-153,31872,27.7704,8838,2543
0.497951,298.37176,-152,31873,27.9695,8838,2543
1.17594,311.8772,-151,31874,27.8699,8838,2543
0.710948,326.6891,-150,31875,27.7704,8838,2543
0.717624,331.44718,-149,31876,27.6708,8838,2543
1.52231,325.63731,-148,31877,27.5713,8828,2555
1.51603,312.64042,-147,31878,27.7704,8828,2555
2.32946,299.69179,-146,31879,27.6708,8828,2555
1.63702,303.2032,-145,31880,27.8699,8828,2555
1.19205,314.44751,-144,31881,27.6708,8828,2555
0.905627,300.76277,-143,31882,27.8202,8828,2555
1.3102,272.96172,-142,31883,27.621,8828,2555
1.31383,273.67375,-141,31884,27.7704,8828,2555
1.97498,296.93799,-140,31885,27.6708,8828,2555
1.42859,303.40593,-139,31886,27.6708,8828,2555
1.67161,293.41432,-138,31887,27.7704,8832,2577
1.54717,292.0847,-137,31888,27.7704,8832,2577
1.00068,289.93675,-136,31889,27.5713,8832,2577
1.64863,311.99744,-135,31890,27.6708,8832,2577
2.05078,353.38462,-134,31891,27.6708,8832,2577
1.39822,396.27051,-133,31892,27.621,8832,2577
1.01956,409.14717,-132,31893,27.8202,8832,2577
1.71942,383.55318,-131,31894,27.8699,8832,2577
0.655098,364.62077,-130,31895,27.621,8832,2577
1.73047,339.14121,-129,31896,27.621,8832,2577
1.98701,313.22217,-128,31897,27.7704,8829,2616
2.23972,304.01108,-127,31898,27.7704,8829,2616
1.19205,311.55962,-126,31899,27.8699,8829,2616
2.06237,315.84669,-125,31900,27.7704,8829,2616
2.71161,326.34783,-124,31901,27.6708,8829,2616
1.56555,334.81506,-123,31902,27.6708,8829,2616
1.46484,333.8711,-122,31903,27.6708,8829,2616
0.971667,338.25217,-121,31904,27.8202,8829,2616
2.38009,355.25347,-120,31905,27.6708,8829,2616
1.44518,374.82021,-119,31906,27.621,8829,2616
1.09619,379.79201,-118,31907,27.6708,8826,2645
1.02423,373.07995,-117,31908,27.7704,8826,2645
1.1596,395.92433,-116,31909,27.8699,8826,2645
1.67446,455.11326,-115,31910,27.5713,8826,2645
1.33185,574.92915,-114,31911,27.7704,8826,2645
1.60168,712.2257,-113,31912,27.621,8826,2645
1.51917,805.35466,-112,31913,27.621,8826,2645
2.35187,842.058,-111,31914,27.8202,8826,2645
1.42859,830.29433,-110,31915,27.7704,8826,2645
2.0156,776.09015,-109,31916,27.7704,8826,2645
1.48103,694.33709,-108,31917,27.6708,8835,2650
1.84516,611.13189,-107,31918,27.8202,8835,2650
0.768946,545.75117,-106,31919,27.6708,8835,2650
1.04725,506.32773,-105,31920,27.7704,8835,2650
1.11773,481.9583,-104,31921,27.7704,8835,2650
1.91864,467.89372,-103,31922,27.6708,8835,2650
0.834375,462.49128,-102,31923,27.6708,8835,2650
1.45505,471.85548,-101,31924,27.5713,8835,2650
1.9942,495.69311,-100,31925,27.7704,8835,2650
1.20399,520.95175,-99,31926,27.6708,8835,2650
1.11345,537.05778,-98,31927,27.8699,8831,2628
2.15951,552.10998,-97,31928,27.7704,8831,2628
2.26722,582.96626,-96,31929,27.6708,8831,2628
2.72914,632.74079,-95,31930,27.6708,8831,2628
1.83219,677.2027,-94,31931,27.7704,8831,2628
1.97256,699.40943,-93,31932,27.8699,8831,2628
1.64863,706.56623,-92,31933,27.7704,8831,2628
1.8606,697.72204,-91,31934,27.7704,8831,2628
2.31921,667.85535,-90,31935,27.6708,8831,2628
2.915,620.08184,-89,31936,27.9695,8831,2628
1.958,569.22124,-88,31937,27.7704,8835,2630
2.12837,529.71472,-87,31938,27.6708,8835,2630
2.90681,488.62959,-86,31939,27.8202,8835,2630
2.48784,441.83201,-85,31940,27.8699,8835,2630
2.3539,406.35467,-84,31941,27.8202,8835,2630
2.29024,388.23353,-83,31942,27.8202,8835,2630
1.97739,378.17952,-82,31943,27.9695,8835,2630
2.08994,369.85423,-81,31944,27.7704,8835,2630
2.06006,361.04119,-80,31945,27.7704,8835,2630
2.43162,348.40589,-79,31946,27.621,8835,2630
2.11714,332.57881,-78,31947,27.8699,8838,2641
1.63702,318.52584,-77,31948,27.7704,8838,2641
2.38209,309.58314,-76,31949,27.621,8838,2641
2.06006,305.19067,-75,31950,27.8202,8838,2641
1.46484,303.36359,-74,31951,27.9695,8838,2641
2.83876,302.93398,-73,31952,27.9695,8838,2641
1.46484,302.78236,-72,31953,27.8202,8838,2641
1.62239,302.14861,-71,31954,27.8699,8838,2641
1.78206,301.59197,-70,31955,27.6708,8838,2641
1.80598,301.635,-69,31956,27.4717,8838,2641
2.22905,302.70115,-68,31957,27.8699,8835,2668
2.22905,304.17465,-67,31958,27.6708,8835,2668
1.85804,305.86027,-66,31959,27.621,8835,2668
1.43525,307.65945,-65,31960,27.7704,8835,2668
1.09619,309.90568,-64,31961,27.621,8835,2668
1.52544,311.50684,-63,31962,27.8202,8835,2668
1.37067,312.93079,-62,31963,27.6708,8835,2668
1.60168,314.42967,-61,31964,27.621,8835,2668
1.09619,315.93837,-60,31965,27.6708,8835,2668
1.17998,317.83429,-59,31966,27.8202,8835,2668
0.840071,319.81236,-58,31967,27.7704,8840,2704
0.845728,321.6864,-57,31968,27.9695,8840,2704
1.66303,323.57487,-56,31969,27.8202,8840,2704
0.534885,324.86646,-55,31970,27.621,8840,2704
0.78733,325.76338,-54,31971,27.6708,8840,2704
1.18804,326.81633,-53,31972,27.7704,8840,2704
1.07865,327.81432,-52,31973,27.8202,8840,2704
0.976563,329.30129,-51,31974,27.7704,8840,2704
1.25061,330.91434,-50,31975,27.8202,8840,2704
1.07865,332.3611,-49,31976,27.7704,8840,2704
0.365396,332.88095,-48,31977,27.7704,8836,2705
0.601994,332.99101,-47,31978,27.6708,8836,2705
1.09183,333.19708,-46,31979,27.6708,8836,2705
1.32467,333.2983,-45,31980,27.8202,8836,2705
0.840071,332.68949,-44,31981,27.6708,8836,2705
1.20794,331.13583,-43,31982,27.7704,8836,2705
0.239208,328.40694,-42,31983,27.8202,8836,2705
1.43857,324.76515,-41,31984,27.8699,8836,2705
1.23526,321.05922,-40,31985,27.621,8836,2705
0.436732,317.68468,-39,31986,27.621,8836,2705
0.811194,314.91796,-38,31987,28.0193,8838,2701
0.811194,313.3956,-37,31988,27.6708,8838,2701
0.926449,311.84376,-36,31989,27.7704,8838,2701
1.35668,313.26819,-35,31990,27.4717,8838,2701
1.4681,353.08645,-34,31991,27.8699,8838,2701
2.38609,354.60913,-33,31992,27.8202,8838,2701
1.79007,291.19993,-32,31993,27.9695,8838,2701
1.28817,240.18748,-31,31994,27.8202,8838,2701
1.00068,271.82902,-30,31995,27.6708,8838,2701
1.00068,342.42126,-29,31996,27.5713,8838,2701
1.54717,366.21006,-28,31997,27.6708,8838,2701
1.52231,332.77081,-27,31998,27.7704,8838,2701
0.750112,296.82154,-26,31999,27.6708,8838,2701
1.09183,297.63563,-25,32000,27.6708,8838,2701
0.625305,315.39125,-24,32001,27.8202,8838,2701
0.710948,326.60026,-23,32002,27.9695,8838,2701
0.834375,326.23195,-22,32003,27.8699,8838,2701
0.931581,319.09798,-21,32004,27.8699,8838,2701
0.78733,314.60352,-20,32005,27.8202,8838,2701
1.76323,317.74963,-19,32006,27.8202,8838,2701
0.497951,324.42146,-18,32007,28.1189,8829,2654
0.601994,332.14383,-17,32008,27.7704,8829,2654
1.59273,329.76142,-16,32009,27.7704,8829,2654
0.805294,313.72925,-15,32010,27.7704,8829,2654
1.19205,305.23557,-14,32011,27.7704,8829,2654
0.697405,311.76129,-13,32012,27.8699,8829,2654
1.18402,314.08087,-12,32013,27.621,8829,2654
0.632885,308.45477,-11,32014,27.621,8829,2654
1.3029,303.57672,-10,32015,27.6708,8829,2654
1.22752,300.82571,-9,32016,27.5713,8829,2654
2.0156,299.65311,-8,32017,27.8699,8846,2603
1.28447,302.64401,-7,32018,27.6708,8846,2603
2.57079,309.33708,-6,32019,27.7704,8846,2603
1.73047,318.08448,-5,32020,27.8202,8846,2603
0.926449,320.6433,-4,32021,27.7704,8846,2603
1.4681,311.32692,-3,32022,27.5713,8846,2603
1.83479,303.01112,-2,32023,27.621,8846,2603
0.662337,259.35245,-1,32024,27.621,8846,2603
28.1767,595.95234,0,32025,27.8202,8846,2603
5.21525,968.46486,1,32026,27.621,8846,2603
2.93294,891.98472,2,32027,27.8202,8851,2585
3.12195,1296.0679,3,32028,27.4717,8851,2585
4.34214,1271.8975,4,32029,27.7704,8851,2585
4.09109,893.57865,5,32030,27.8699,8851,2585
1.9942,513.03216,6,32031,27.7704,8851,2585
2.16832,481.43826,7,32032,27.8202,8851,2585
0.41432,472.27455,8,32033,27.8202,8851,2585
0.85693,518.04496,9,32034,27.6708,8851,2585
2.5353,643.56204,10,32035,27.7704,8851,2585
1.05631,726.6518,11,32036,27.9695,8851,2585
1.49066,749.67637,12,32037,27.7704,8851,2603
1.73323,668.38269,13,32038,27.8202,8851,2603
1.89362,572.79898,14,32039,27.7704,8851,2603
2.26722,558.45151,15,32040,27.8699,8851,2603
2.75176,595.4097,16,32041,27.7704,8851,2603
3.54803,619.03791,17,32042,27.8202,8851,2603
1.5807,554.10689,18,32043,27.7704,8851,2603
2.26722,573.96768,19,32044,27.7704,8851,2603
1.10485,622.84865,20,32045,27.8699,8851,2603
2.52021,671.79384,21,32046,27.6708,8851,2603
1.00543,740.24326,22,32047,27.8202,8852,2616
2.09904,738.32086,23,32048,27.7704,8852,2616
1.53168,688.27306,24,32049,27.8699,8852,2616
3.69807,650.51879,25,32050,27.7704,8852,2616
3.93301,630.68651,26,32051,27.8699,8852,2616
4.34104,610.60976,27,32052,27.8202,8852,2616
3.25358,585.87296,28,32053,27.6708,8852,2616
2.39606,549.96634,29,32054,27.8699,8852,2616
3.054,501.89629,30,32055,27.7704,8852,2616
3.83355,465.59534,31,32056,27.5713,8852,2616
13.3546,667.08076,32,32057,27.7704,8855,2591
1.36019,786.73025,33,32058,27.8699,8855,2591
3.00204,699.32797,34,32059,27.6708,8855,2591
3.6146,573.36951,35,32060,27.8202,8855,2591
3.43467,562.49139,36,32061,27.8202,8855,2591
1.70829,620.65691,37,32062,27.8202,8855,2591
1.40163,521.34221,38,32063,27.7704,8855,2591
1.70829,421.1344,39,32064,27.8699,8855,2591
1.23526,388.84317,40,32065,27.8699,8855,2591
1.92608,402.33773,41,32066,27.8202,8855,2591
1.00543,389.26402,42,32067,27.7704,8900,2497
1.3029,339.40225,43,32068,27.8202,8900,2497
0.601994,317.05141,44,32069,27.8202,8900,2497
1.63993,296.19757,45,32070,27.8699,8900,2497
0.840071,291.31166,46,32071,27.7704,8900,2497
1.31383,282.87379,47,32072,27.8699,8900,2497
1.56859,256.55341,48,32073,27.8699,8900,2497
1.49066,236.37093,49,32074,27.7704,8900,2497
1.54717,253.65177,50,32075,27.8699,8900,2497
2.26091,299.02216,51,32076,27.8202,8900,2497
0.966748,301.10973,52,32077,27.6708,8933,2424
1.53789,296.31283,53,32078,27.8699,8933,2424
1.48103,426.53811,54,32079,27.8202,8933,2424
1.12198,657.18606,55,32080,27.9695,8933,2424
1.66589,850.10803,56,32081,27.8202,8933,2424
1.92608,1019.2472,57,32082,27.8202,8933,2424
2.51073,1190.3762,58,32083,27.9695,8933,2424
1.81125,1258.999,59,32084,27.7704,8933,2424
1.4118,1239.5767,60,32085,27.7704,8933,2424
2.82529,1227.8833,61,32086,27.9695,8933,2424
2.18584,1158.8091,62,32087,27.621,8984,2383
2.75176,944.00137,63,32088,27.7704,8984,2383
3.4305,707.83294,64,32089,27.6708,8984,2383
2.64033,570.29377,65,32090,27.7704,8984,2383
2.67264,520.45277,66,32091,27.621,8984,2383
2.22905,385.92691,67,32092,27.8699,8984,2383
0.793363,299.30632,68,32093,27.8202,8984,2383
2.15287,282.09432,69,32094,27.8699,8984,2383
0.750112,440.14047,70,32095,27.621,8984,2383
1.01016,563.30489,71,32096,27.7704,8984,2383
0.981433,604.71406,72,32097,27.621,9037,2329
1.23912,658.8806,73,32098,27.5713,9037,2329
1.19205,664.60974,74,32099,27.621,9037,2329
1.88858,611.07942,75,32100,27.8699,9037,2329
1.88099,522.87752,76,32101,27.8699,9037,2329
1.09619,459.53197,77,32102,27.5713,9037,2329
1.47781,484.09708,78,32103,27.7704,9037,2329
0.552427,524.19633,79,32104,27.621,9037,2329
0.78733,507.53198,80,32105,27.8202,9037,2329
0.981433,423.47237,81,32106,27.8202,9037,2329
1.05179,349.82421,82,32107,27.7704,9079,2259
0.308816,351.01356,83,32108,27.6708,9079,2259
0.840071,401.34328,84,32109,27.7704,9079,2259
1.00543,398.29216,85,32110,27.8202,9079,2259
2.13284,327.84634,86,32111,27.7704,9079,2259
1.25442,268.70615,87,32112,27.8699,9079,2259
0.995902,255.25886,88,32113,27.7704,9079,2259
0.889691,264.45972,89,32114,27.6708,9079,2259
1.31745,305.9612,90,32115,27.8202,9079,2259
1.11773,344.80613,91,32116,27.7704,9079,2259
2.26722,363.72291,92,32117,27.8699,9118,2196
2.19238,390.57659,93,32118,27.7704,9118,2196
1.91864,457.45885,94,32119,27.6708,9118,2196
1.48103,481.29298,95,32120,27.7704,9118,2196
1.38107,425.4343,96,32121,27.8202,9118,2196
1.40163,347.03044,97,32122,27.621,9118,2196
1.18402,292.39881,98,32123,27.8699,9118,2196
1.1596,249.36634,99,32124,27.7704,9118,2196
0.805294,208.45925,100,32125,27.9695,9118,2196
