Linear acceleration,Rotational velocity,Time values,Absolute time values,Temperature,Ambient light,Reflected light
3.26966,421.65689,-2000,41829,28.5669,9393,2824
3.75945,450.97106,-1999,41830,28.5171,9393,2824
4.87206,404.18692,-1998,41831,28.4175,9393,2824
3.77464,368.39686,-1997,41832,28.6665,9393,2824
4.5481,363.78559,-1996,41833,28.5171,9393,2824
4.28576,370.09031,-1995,41834,28.4175,9393,2824
4.65278,342.92771,-1994,41835,28.6665,9393,2824
3.76958,339.98671,-1993,41836,28.6665,9393,2824
3.40119,438.90411,-1992,41837,28.4175,9475,2824
2.82529,584.32376,-1991,41838,28.5669,9475,2824
3.0068,741.35489,-1990,41839,28.4175,9475,2824
2.41983,923.98496,-1989,41840,28.3678,9475,2824
1.76863,1128.4033,-1988,41841,28.5171,9475,2824
1.54099,1257.116,-1987,41842,28.5669,9475,2824
1.76323,1228.8092,-1986,41843,28.4175,9475,2824
1.45176,1072.7562,-1985,41844,28.766,9475,2824
1.68863,861.42938,-1984,41845,28.5171,9475,2824
2.78449,632.88606,-1983,41846,28.6665,9475,2824
1.32827,399.76618,-1982,41847,28.5171,9475,2774
1.958,211.15479,-1981,41848,28.766,9475,2774
3.46645,291.72642,-1980,41849,28.5171,9475,2774
2.38609,513.83721,-1979,41850,28.6665,9475,2774
2.05543,693.83967,-1978,41851,28.5171,9475,2774
1.15135,788.25638,-1977,41852,28.5171,9475,2774
1.82698,803.31484,-1976,41853,28.6665,9475,2774
2.51832,761.98317,-1975,41854,28.6665,9475,2774
1.59572,671.40631,-1974,41855,28.5171,9475,2774
2.05078,559.40951,-1973,41856,28.5171,9475,2774
2.96528,419.64864,-1972,41857,28.5669,9591,2724
2.56336,260.37895,-1971,41858,28.318,9591,2724
0.85693,106.92481,-1970,41859,28.6665,9591,2724
2.87216,93.641616,-1969,41860,28.4175,9591,2724
1.6341,203.80822,-1968,41861,28.4175,9591,2724
2.47246,291.62046,-1967,41862,28.6665,9591,2724
1.98701,347.26026,-1966,41863,28.4175,9591,2724
1.54099,373.97579,-1965,41864,28.4175,9591,2724
1.85804,368.21392,-1964,41865,28.4175,9591,2724
2.00374,315.96315,-1963,41866,28.5171,9591,2724
1.36019,169.86824,-1962,41867,28.6665,9547,2722
0.981433,126.82166,-1961,41868,28.5669,9547,2722
1.67161,353.90036,-1960,41869,28.3678,9547,2722
1.28447,399.14795,-1959,41870,28.6665,9547,2722
1.23912,303.21199,-1958,41871,28.4175,9547,2722
1.54408,221.68113,-1957,41872,28.5669,9547,2722
1.85804,229.0473,-1956,41873,28.5171,9547,2722
1.10916,301.79371,-1955,41874,28.6665,9547,2722
1.21581,375.64516,-1954,41875,28.7162,9547,2722
1.66016,417.67525,-1953,41876,28.6665,9547,2722
1.77132,414.95937,-1952,41877,28.4175,9492,2800
1.88606,367.84355,-1951,41878,28.5171,9492,2800
1.36019,299.52403,-1950,41879,28.6665,9492,2800
1.90867,236.33282,-1949,41880,28.4175,9492,2800
1.83479,190.83088,-1948,41881,28.5669,9492,2800
1.44518,166.17164,-1947,41882,28.7162,9492,2800
0.717624,164.12557,-1946,41883,28.6665,9492,2800
1.49385,163.97215,-1945,41884,28.4175,9492,2800
1.19205,150.95567,-1944,41885,28.5171,9492,2800
0.717624,170.52733,-1943,41886,28.6665,9492,2800
1.49385,223.46177,-1942,41887,28.6665,9465,2946
1.00068,298.39703,-1941,41888,28.6665,9465,2946
0.941763,359.97142,-1940,41889,28.5171,9465,2946
2.17052,396.31614,-1939,41890,28.5171,9465,2946
1.10916,411.86938,-1938,41891,28.5669,9465,2946
1.48103,421.64155,-1937,41892,28.5669,9465,2946
0.365396,448.23328,-1936,41893,28.5669,9465,2946
1.67161,482.99391,-1935,41894,28.3678,9465,2946
1.96287,467.43319,-1934,41895,28.5171,9465,2946
2.22905,378.52036,-1933,41896,28.6665,9465,2946
1.72772,309.98111,-1932,41897,28.5669,9465,3067
2.19455,318.26638,-1931,41898,28.5171,9465,3067
2.11263,311.74688,-1930,41899,28.3678,9465,3067
1.88858,259.91877,-1929,41900,28.6665,9465,3067
1.23912,217.07057,-1928,41901,28.4175,9465,3067
0.662337,209.67949,-1927,41902,28.4175,9465,3067
1.27328,240.7203,-1926,41903,28.7162,9465,3067
1.17998,310.66002,-1925,41904,28.5171,9465,3067
1.39139,391.97652,-1924,41905,28.7162,9465,3067
1.60168,425.10705,-1923,41906,28.5171,9465,3067
2.04146,406.85967,-1922,41907,28.4175,9504,3182
1.27328,395.55786,-1921,41908,28.4175,9504,3182
1.27702,407.15654,-1920,41909,28.766,9504,3182
2.53906,401.52847,-1919,41910,28.5171,9504,3182
1.53168,358.76816,-1918,41911,28.5171,9504,3182
1.95556,305.63184,-1917,41912,28.5171,9504,3182
1.32827,276.7373,-1916,41913,28.6665,9504,3182
1.09183,272.90145,-1915,41914,28.6665,9504,3182
1.46484,279.72414,-1914,41915,28.6665,9504,3182
1.49066,286.48618,-1913,41916,28.5669,9504,3182
1.65728,295.62784,-1912,41917,28.5669,9595,3293
1.23912,313.85144,-1911,41918,28.6665,9595,3293
1.17998,340.3301,-1910,41919,28.5669,9595,3293
1.94088,367.36058,-1909,41920,28.5669,9595,3293
0.946812,387.6898,-1908,41921,28.4175,9595,3293
1.12198,398.92044,-1907,41922,28.5669,9595,3293
1.24296,402.91174,-1906,41923,28.4175,9595,3293
1.8606,404.46178,-1905,41924,28.5669,9595,3293
1.45176,419.08383,-1904,41925,28.4175,9595,3293
5.46962,605.82371,-1903,41926,28.5669,9595,3293
2.19672,891.54549,-1902,41927,28.7162,9809,3398
2.84882,698.10702,-1901,41928,28.6665,9809,3398
1.67446,476.48709,-1900,41929,28.6665,9809,3398
1.64283,451.16846,-1899,41930,28.5171,9809,3398
0.834375,508.95015,-1898,41931,28.6665,9809,3398
2.03912,552.16805,-1897,41932,28.5171,9809,3398
1.46484,477.55967,-1896,41933,28.5171,9809,3398
1.01487,486.32263,-1895,41934,28.6665,9809,3398
1.4681,475.55749,-1894,41935,28.6665,9809,3398
0.625305,481.31608,-1893,41936,28.4175,9809,3398
1.24679,528.41328,-1892,41937,28.6665,9859,3497
1.19205,532.32228,-1891,41938,28.6665,9859,3497
0.601994,517.90721,-1890,41939,28.6665,9859,3497
1.63702,519.73095,-1889,41940,28.9154,9859,3497
1.74966,543.21075,-1888,41941,28.4175,9859,3497
1.02423,563.56483,-1887,41942,28.6665,9859,3497
0.365396,559.10038,-1886,41943,28.766,9859,3497
0.425674,541.2069,-1885,41944,28.5171,9859,3497
0.834375,529.66573,-1884,41945,28.5171,9859,3497
1.0381,529.07672,-1883,41946,28.6665,9859,3497
1.49066,534.26522,-1882,41947,28.6665,9648,3548
0.647778,537.19439,-1881,41948,28.6665,9648,3548
1.32827,535.55866,-1880,41949,28.5669,9648,3548
1.30655,532.75002,-1879,41950,28.5669,9648,3548
1.38107,532.08765,-1878,41951,28.5669,9648,3548
1.33185,532.78478,-1877,41952,28.6665,9648,3548
0.601994,531.90434,-1876,41953,28.5669,9648,3548
0.817051,528.58857,-1875,41954,28.4175,9648,3548
0.926449,522.47516,-1874,41955,28.5171,9648,3548
1.21581,515.54646,-1873,41956,28.6665,9648,3548
0.710948,507.92262,-1872,41957,28.5171,9502,3597
0.966748,496.0924,-1871,41958,28.7162,9502,3597
1.86572,480.05246,-1870,41959,28.5669,9502,3597
0.811194,459.69809,-1869,41960,28.7162,9502,3597
0.884315,442.46319,-1868,41961,28.4175,9502,3597
1.17594,425.30213,-1867,41962,28.6665,9502,3597
1.67446,406.85046,-1866,41963,28.5171,9502,3597
1.31383,387.6164,-1865,41964,28.4175,9502,3597
1.23912,369.01009,-1864,41965,28.6665,9502,3597
1.79804,351.66834,-1863,41966,28.6665,9502,3597
1.95556,334.89476,-1862,41967,28.6665,9440,3598
2.09222,317.95103,-1861,41968,28.5171,9440,3598
1.96044,299.98627,-1860,41969,28.5171,9440,3598
0.585938,281.36278,-1859,41970,28.6665,9440,3598
1.26953,263.02459,-1858,41971,28.7162,9440,3598
1.22363,245.28859,-1857,41972,28.5171,9440,3598
1.89865,227.72157,-1856,41973,28.4175,9440,3598
1.80598,209.79057,-1855,41974,28.5171,9440,3598
1.80598,191.25742,-1854,41975,28.5171,9440,3598
1.09619,172.68497,-1853,41976,28.5669,9440,3598
0.946812,154.64266,-1852,41977,28.5171,9419,3571
1.80334,137.26718,-1851,41978,28.5171,9419,3571
1.36019,120.79146,-1850,41979,28.7162,9419,3571
1.88858,104.92858,-1849,41980,28.8656,9419,3571
1.83739,90.017565,-1848,41981,28.6665,9419,3571
2.09904,79.043332,-1847,41982,28.4175,9419,3571
2.35593,75.780106,-1846,41983,28.5171,9419,3571
1.48103,80.843547,-1845,41984,28.6665,9419,3571
1.09183,92.570515,-1844,41985,28.5171,9419,3571
1.54717,108.98042,-1843,41986,28.5171,9419,3571
1.68298,128.82612,-1842,41987,28.5171,9414,3553
2.18584,150.99353,-1841,41988,28.4175,9414,3553
2.00374,173.86181,-1840,41989,28.4175,9414,3553
1.87846,196.43575,-1839,41990,28.6665,9414,3553
2.44336,218.54589,-1838,41991,28.5669,9414,3553
1.21188,239.57293,-1837,41992,28.5171,9414,3553
2.50313,259.82803,-1836,41993,28.4175,9414,3553
1.68298,279.58837,-1835,41994,28.5171,9414,3553
1.9942,298.089,-1834,41995,28.6665,9414,3553
1.27328,315.32964,-1833,41996,28.6665,9414,3553
1.4118,331.36921,-1832,41997,28.5171,9422,3567
1.21581,347.43055,-1831,41998,28.6665,9422,3567
1.98701,362.64651,-1830,41999,28.6665,9422,3567
0.900346,376.93362,-1829,42000,28.5171,9422,3567
1.33185,389.9611,-1828,42001,28.4175,9422,3567
1.5807,402.63151,-1827,42002,28.5171,9422,3567
1.13045,414.62845,-1826,42003,28.5669,9422,3567
1.28447,426.29746,-1825,42004,28.318,9422,3567
0.768946,437.07945,-1824,42005,28.6665,9422,3567
1.61945,447.55701,-1823,42006,28.5171,9422,3567
1.17998,457.93755,-1822,42007,28.4175,9442,3604
1.1472,467.53081,-1821,42008,28.7162,9442,3604
1.04268,475.50737,-1820,42009,28.5669,9442,3604
1.3637,483.35024,-1819,42010,28.6665,9442,3604
1.71386,491.3998,-1818,42011,28.6665,9442,3604
1.40163,498.03184,-1817,42012,28.4175,9442,3604
1.70829,502.33619,-1816,42013,28.5171,9442,3604
0.811194,503.19613,-1815,42014,28.5669,9442,3604
1.28817,511.23509,-1814,42015,28.4175,9442,3604
1.39139,527.67019,-1813,42016,28.3678,9442,3604
2.10811,533.11852,-1812,42017,28.7162,9485,3657
1.00068,519.97702,-1811,42018,28.6665,9485,3657
1.87592,503.74212,-1810,42019,28.6665,9485,3657
1.86572,502.85379,-1809,42020,28.5171,9485,3657
2.25245,514.46249,-1808,42021,28.5171,9485,3657
1.43525,518.15824,-1807,42022,28.4175,9485,3657
2.0156,509.29347,-1806,42023,28.4175,9485,3657
0.690534,502.78653,-1805,42024,28.5171,9485,3657
2.0716,502.87698,-1804,42025,28.4175,9485,3657
2.10811,501.70252,-1803,42026,28.7162,9485,3657
1.81913,486.63351,-1802,42027,28.4175,9705,3705
33.96,800.25861,-1801,42028,28.5171,9705,3705
15.3743,2106.8201,-1800,42029,28.4175,9705,3705
6.16628,1663.5639,-1799,42030,28.4175,9705,3705
2.9443,668.75476,-1798,42031,28.5669,9705,3705
1.02423,1088.44,-1797,42032,28.7162,9705,3705
1.59273,444.25898,-1796,42033,28.4175,9705,3705
2.96206,780.18289,-1795,42034,28.4175,9705,3705
3.43606,886.45533,-1794,42035,28.6665,9705,3705
3.16894,284.02604,-1793,42036,28.6665,9705,3705
2.4974,900.95196,-1792,42037,28.6665,9920,3720
2.27981,1023.2196,-1791,42038,28.6665,9920,3720
1.49066,590.65682,-1790,42039,28.6665,9920,3720
2.09677,295.17056,-1789,42040,28.4175,9920,3720
5.3631,313.00585,-1788,42041,28.5669,9920,3720
3.23447,275.58789,-1787,42042,28.4175,9920,3720
3.05868,650.94335,-1786,42043,28.5171,9920,3720
2.83876,1401.6339,-1785,42044,28.5171,9920,3720
2.61128,1672.3729,-1784,42045,28.6665,9920,3720
2.21832,1336.2857,-1783,42046,28.5171,9920,3720
2.64033,1197.291,-1782,42047,28.5669,9853,3679
3.76452,1643.6904,-1781,42048,28.7162,9853,3679
4.90717,1633.5727,-1780,42049,28.6665,9853,3679
5.40561,1211.7686,-1779,42050,28.5171,9853,3679
5.96743,1038.3319,-1778,42051,28.5669,9853,3679
5.92734,929.90052,-1777,42052,28.5669,9853,3679
4.62812,808.5172,-1776,42053,28.6665,9853,3679
5.58863,700.90721,-1775,42054,28.4175,9853,3679
6.05784,516.68284,-1774,42055,28.5171,9853,3679
5.11741,639.27122,-1773,42056,28.6665,9853,3679
4.07239,759.77376,-1772,42057,28.3678,9596,3559
3.52781,634.9582,-1771,42058,28.4175,9596,3559
3.07268,489.3117,-1770,42059,28.6665,9596,3559
1.34255,501.35163,-1769,42060,28.6665,9596,3559
1.80598,594.99596,-1768,42061,28.5171,9596,3559
2.11263,711.21674,-1767,42062,28.5171,9596,3559
1.86827,853.57542,-1766,42063,28.6665,9596,3559
2.36199,1031.8366,-1765,42064,28.4175,9596,3559
2.12613,1232.3568,-1764,42065,28.4175,9596,3559
3.62645,1365.7689,-1763,42066,28.5171,9596,3559
3.47607,1446.2655,-1762,42067,28.6665,9490,3451
3.61328,1483.5338,-1761,42068,28.6665,9490,3451
3.31888,1482.4825,-1760,42069,28.7162,9490,3451
3.9233,1439.3631,-1759,42070,28.5171,9490,3451
4.39995,1347.9027,-1758,42071,28.5669,9490,3451
5.38262,1214.566,-1757,42072,28.6665,9490,3451
4.8288,1043.5882,-1756,42073,28.5171,9490,3451
5.95463,848.36887,-1755,42074,28.6665,9490,3451
6.14614,662.59564,-1754,42075,28.6665,9490,3451
5.24533,524.57228,-1753,42076,28.4175,9490,3451
5.09406,453.58473,-1752,42077,28.5171,9442,3248
5.3301,451.26837,-1751,42078,28.6665,9442,3248
5.37198,492.43783,-1750,42079,28.4175,9442,3248
4.42912,536.11318,-1749,42080,28.5669,9442,3248
4.45595,560.09576,-1748,42081,28.7162,9442,3248
4.44738,569.41671,-1747,42082,28.5171,9442,3248
4.32894,583.67413,-1746,42083,28.6665,9442,3248
3.85958,607.10064,-1745,42084,28.4175,9442,3248
4.88964,640.06332,-1744,42085,28.5669,9442,3248
4.62812,674.84468,-1743,42086,28.4175,9442,3248
3.59078,706.96854,-1742,42087,28.5171,9437,3395
4.4388,734.90185,-1741,42088,28.6665,9437,3395
3.70708,750.98254,-1740,42089,28.6665,9437,3395
4.62709,758.27568,-1739,42090,28.6665,9437,3395
5.16564,761.33946,-1738,42091,28.6665,9437,3395
4.12244,769.70366,-1737,42092,28.5669,9437,3395
4.86716,785.28064,-1736,42093,28.8656,9437,3395
5.15732,804.67883,-1735,42094,28.6665,9437,3395
3.73016,825.04785,-1734,42095,28.5669,9437,3395
3.81485,838.40936,-1733,42096,28.5171,9437,3395
4.96705,856.02914,-1732,42097,28.6665,9436,3751
4.00867,880.70128,-1731,42098,28.6665,9436,3751
4.13052,907.17023,-1730,42099,28.5669,9436,3751
3.65396,938.43434,-1729,42100,28.4175,9436,3751
3.15688,968.25596,-1728,42101,28.5171,9436,3751
3.48566,995.99385,-1727,42102,28.6665,9436,3751
3.29291,1026.0235,-1726,42103,28.4175,9436,3751
4.29132,1050.8832,-1725,42104,28.318,9436,3751
3.66569,1069.3117,-1724,42105,28.6665,9436,3751
3.32318,1081.9311,-1723,42106,28.6665,9436,3751
2.81853,1092.6603,-1722,42107,28.4175,9431,4152
2.87713,1112.6135,-1721,42108,28.7162,9431,4152
3.30303,1146.5608,-1720,42109,28.4175,9431,4152
2.72564,1184.0633,-1719,42110,28.318,9431,4152
2.65294,1213.5622,-1718,42111,28.7162,9431,4152
2.64033,1236.1879,-1717,42112,28.6665,9431,4152
3.55474,1249.4944,-1716,42113,28.318,9431,4152
2.55404,1252.2222,-1715,42114,28.5171,9431,4152
2.84044,1260.1698,-1714,42115,28.6665,9431,4152
2.79474,1276.0687,-1713,42116,28.5171,9431,4152
2.32946,1287.1897,-1712,42117,28.5669,9434,4760
3.16442,1297.9006,-1711,42118,28.5669,9434,4760
2.75176,1309.3812,-1710,42119,28.318,9434,4760
2.31921,1313.4204,-1709,42120,28.5669,9434,4760
2.00612,1308.1827,-1708,42121,28.318,9434,4760
3.4416,1303.6969,-1707,42122,28.4175,9434,4760
2.73089,1302.7332,-1706,42123,28.6665,9434,4760
2.84714,1301.888,-1705,42124,28.6665,9434,4760
2.62221,1297.8335,-1704,42125,28.6665,9434,4760
2.60213,1297.8196,-1703,42126,28.5171,9434,4760
3.16292,1304.7333,-1702,42127,28.6665,9439,5020
2.29856,1304.3471,-1701,42128,28.4175,9439,5020
2.76386,1297.0513,-1700,42129,28.6665,9439,5020
2.73612,1296.4505,-1699,42130,28.6665,9439,5020
1.66875,1303.9943,-1698,42131,28.5171,9439,5020
3.27985,1312.605,-1697,42132,28.6665,9439,5020
2.2944,1309.2527,-1696,42133,28.4175,9439,5020
2.70985,1296.3957,-1695,42134,28.6665,9439,5020
2.48976,1284.0558,-1694,42135,28.6665,9439,5020
3.42354,1278.6842,-1693,42136,28.5171,9439,5020
2.25668,1274.99,-1692,42137,28.6665,9426,5020
2.36602,1264.5083,-1691,42138,28.5171,9426,5020
3.2609,1255.0014,-1690,42139,28.6665,9426,5020
2.0739,1246.4383,-1689,42140,28.5171,9426,5020
3.38432,1236.706,-1688,42141,28.4175,9426,5020
2.31715,1227.9572,-1687,42142,28.4175,9426,5020
3.07268,1218.503,-1686,42143,28.4175,9426,5020
3.7391,1196.0481,-1685,42144,28.6665,9426,5020
3.24918,1162.773,-1684,42145,28.3678,9426,5020
3.97642,1137.3418,-1683,42146,28.5669,9426,5020
2.954,1128.0302,-1682,42147,28.4175,9426,5205
3.90014,1126.8929,-1681,42148,28.4175,9426,5205
4.29132,1122.9427,-1680,42149,28.4175,9426,5205
4.51865,1114.8091,-1679,42150,28.5171,9426,5205
4.33664,1109.5345,-1678,42151,28.4175,9426,5205
3.53456,1108.997,-1677,42152,28.6665,9426,5205
4.42912,1104.5295,-1676,42153,28.4175,9426,5205
3.4416,1093.4884,-1675,42154,28.5171,9426,5205
3.72888,1078.5805,-1674,42155,28.3678,9426,5205
3.62382,1061.9275,-1673,42156,28.5171,9426,5205
2.85384,1047.858,-1672,42157,28.4175,9422,5362
3.69678,1037.6014,-1671,42158,28.6665,9422,5362
3.65005,1031.3,-1670,42159,28.7162,9422,5362
3.42354,1026.0878,-1669,42160,28.4175,9422,5362
3.14326,1019.7238,-1668,42161,28.5171,9422,5362
2.98451,1015.5581,-1667,42162,28.4175,9422,5362
3.18096,1020.7023,-1666,42163,28.4175,9422,5362
2.7862,1028.7738,-1665,42164,28.4175,9422,5362
2.70985,1032.1568,-1664,42165,28.5669,9422,5362
3.31744,1029.3846,-1663,42166,28.6665,9422,5362
1.47458,1023.7582,-1662,42167,28.6665,9419,5216
1.91864,1019.7194,-1661,42168,28.766,9419,5216
2.08994,1017.1865,-1660,42169,28.5669,9419,5216
2.62766,1008.3576,-1659,42170,28.4175,9419,5216
2.77935,992.62778,-1658,42171,28.3678,9419,5216
2.22262,983.21299,-1657,42172,28.6665,9419,5216
1.9798,979.7075,-1656,42173,28.6665,9419,5216
2.38009,980.41879,-1655,42174,28.5171,9419,5216
2.2944,982.8345,-1654,42175,28.5171,9419,5216
2.98132,980.86082,-1653,42176,28.4175,9419,5216
1.88858,973.15868,-1652,42177,28.5669,9416,4978
2.72914,962.25644,-1651,42178,28.6665,9416,4978
2.95723,954.04722,-1650,42179,28.4175,9416,4978
2.38809,952.64588,-1649,42180,28.5669,9416,4978
3.02892,956.96546,-1648,42181,28.5171,9416,4978
3.97042,962.34594,-1647,42182,28.4175,9416,4978
2.90189,968.19439,-1646,42183,28.3678,9416,4978
2.88706,975.73515,-1645,42184,28.5171,9416,4978
3.04775,983.8774,-1644,42185,28.7162,9416,4978
3.63827,992.38551,-1643,42186,28.7162,9416,4978
3.22266,999.50601,-1642,42187,28.5669,9418,4741
2.20323,1004.5436,-1641,42188,28.6665,9418,4741
2.08994,1008.4724,-1640,42189,28.5171,9418,4741
3.05868,1010.0547,-1639,42190,28.5171,9418,4741
2.62221,1009.372,-1638,42191,28.6665,9418,4741
2.63672,1008.6143,-1637,42192,28.5669,9418,4741
3.04619,1008.7351,-1636,42193,28.5669,9418,4741
3.58812,1006.2518,-1635,42194,28.318,9418,4741
3.27403,1001.044,-1634,42195,28.5171,9418,4741
2.93294,995.90554,-1633,42196,28.6665,9418,4741
3.53321,996.35681,-1632,42197,28.4175,9419,4500
2.39208,998.2812,-1631,42198,28.6665,9419,4500
3.5921,993.40126,-1630,42199,28.6665,9419,4500
3.14629,978.1896,-1629,42200,28.4175,9419,4500
3.21228,959.57741,-1628,42201,28.5171,9419,4500
3.74037,949.64344,-1627,42202,28.4175,9419,4500
3.48976,947.3356,-1626,42203,28.6665,9419,4500
3.88667,941.57305,-1625,42204,28.5669,9419,4500
4.07941,929.46225,-1624,42205,28.6665,9419,4500
3.53456,918.56266,-1623,42206,28.5171,9419,4500
3.13262,909.50277,-1622,42207,28.4175,9419,4191
4.63533,897.0972,-1621,42208,28.6665,9419,4191
3.58147,876.9904,-1620,42209,28.5171,9419,4191
3.74802,856.3506,-1619,42210,28.5669,9419,4191
4.2444,843.37879,-1618,42211,28.6665,9419,4191
4.02529,835.82047,-1617,42212,28.6665,9419,4191
4.11781,824.35204,-1616,42213,28.5171,9419,4191
4.07941,806.5404,-1615,42214,28.5171,9419,4191
4.01817,789.2945,-1614,42215,28.6665,9419,4191
4.21395,775.27718,-1613,42216,28.5171,9419,4191
4.2802,760.75038,-1612,42217,28.5171,9424,3947
3.58679,742.21244,-1611,42218,28.5171,9424,3947
4.56902,720.2751,-1610,42219,28.5171,9424,3947
3.98002,698.05143,-1609,42220,28.4175,9424,3947
4.98812,678.74589,-1608,42221,28.6665,9424,3947
4.41726,661.57301,-1607,42222,28.766,9424,3947
4.44094,641.54617,-1606,42223,28.5669,9424,3947
3.91844,619.21661,-1605,42224,28.5669,9424,3947
3.5102,600.51311,-1604,42225,28.5171,9424,3947
4.39345,586.71094,-1603,42226,28.5669,9424,3947
4.64766,572.79263,-1602,42227,28.6665,9421,3768
3.61328,554.5401,-1601,42228,28.6665,9421,3768
4.09109,532.50045,-1600,42229,28.6665,9421,3768
3.96561,510.42031,-1599,42230,28.5171,9421,3768
3.38432,489.75079,-1598,42231,28.5669,9421,3768
4.41294,469.28142,-1597,42232,28.4175,9421,3768
4.38802,448.27604,-1596,42233,28.5669,9421,3768
4.60022,426.33836,-1595,42234,28.4175,9421,3768
4.25898,405.02648,-1594,42235,28.7162,9421,3768
2.94106,386.41737,-1593,42236,28.4175,9421,3768
4.54915,369.04704,-1592,42237,28.5171,9424,3641
4.4205,350.82662,-1591,42238,28.5669,9424,3641
3.77716,332.69896,-1590,42239,28.5171,9424,3641
3.93665,317.94471,-1589,42240,28.4175,9424,3641
3.20038,308.8603,-1588,42241,28.6665,9424,3641
4.37605,304.53059,-1587,42242,28.5171,9424,3641
3.94633,301.39212,-1586,42243,28.5171,9424,3641
4.85637,297.48275,-1585,42244,28.6665,9424,3641
4.41294,294.88613,-1584,42245,28.5171,9424,3641
4.12128,294.05147,-1583,42246,28.5171,9424,3641
3.83852,295.21165,-1582,42247,28.5171,9435,3570
2.93131,298.53752,-1581,42248,28.4175,9435,3570
3.51155,305.33909,-1580,42249,28.5669,9435,3570
3.41797,314.36421,-1579,42250,28.6665,9435,3570
3.14629,324.16198,-1578,42251,28.5171,9435,3570
3.72888,333.69464,-1577,42252,28.5171,9435,3570
3.76832,340.78282,-1576,42253,28.5669,9435,3570
3.14022,342.69816,-1575,42254,28.6665,9435,3570
2.88706,342.84407,-1574,42255,28.6665,9435,3570
2.8986,351.92401,-1573,42256,28.6665,9435,3570
3.17495,379.28399,-1572,42257,28.6665,9434,3571
3.21673,409.27758,-1571,42258,28.4175,9434,3571
3.29725,437.70984,-1570,42259,28.6665,9434,3571
3.52781,462.11959,-1569,42260,28.4175,9434,3571
2.954,478.48917,-1568,42261,28.5171,9434,3571
3.44714,483.2258,-1567,42262,28.4175,9434,3571
3.14477,475.86797,-1566,42263,28.5669,9434,3571
2.68333,462.68948,-1565,42264,28.6665,9434,3571
2.81175,449.88811,-1564,42265,28.5171,9434,3571
2.75868,441.2263,-1563,42266,28.4175,9434,3571
3.43606,434.68237,-1562,42267,28.6665,9444,3616
2.68865,428.18154,-1561,42268,28.6665,9444,3616
2.32332,422.91804,-1560,42269,28.4175,9444,3616
2.32332,422.21806,-1559,42270,28.6665,9444,3616
2.05543,426.9499,-1558,42271,28.8656,9444,3616
3.31744,434.70712,-1557,42272,28.5171,9444,3616
2.41588,442.90508,-1556,42273,28.7162,9444,3616
2.33356,448.92914,-1555,42274,28.6665,9444,3616
2.5353,454.23689,-1554,42275,28.766,9444,3616
2.85718,461.87803,-1553,42276,28.5171,9444,3616
2.22905,469.62869,-1552,42277,28.4175,9450,3690
1.88099,477.22338,-1551,42278,28.7162,9450,3690
1.59273,483.39304,-1550,42279,28.5171,9450,3690
2.46086,485.60577,-1549,42280,28.4175,9450,3690
1.80598,484.7931,-1548,42281,28.5171,9450,3690
1.4681,481.84989,-1547,42282,28.5171,9450,3690
1.13045,478.05119,-1546,42283,28.5171,9450,3690
0.805294,473.97207,-1545,42284,28.5171,9450,3690
1.62239,469.95783,-1544,42285,28.5171,9450,3690
1.80069,466.70627,-1543,42286,28.6665,9450,3690
0.905627,464.94622,-1542,42287,28.6665,9465,3738
1.09619,464.45181,-1541,42288,28.5669,9465,3738
0.981433,464.32962,-1540,42289,28.5171,9465,3738
0.617632,463.38035,-1539,42290,28.6665,9465,3738
0.966748,461.75959,-1538,42291,28.318,9465,3738
0.793363,460.28916,-1537,42292,28.4175,9465,3738
0.895034,459.27467,-1536,42293,28.5171,9465,3738
0.697405,457.09342,-1535,42294,28.4175,9465,3738
0.845728,453.81031,-1534,42295,28.5669,9465,3738
1.17188,449.32225,-1533,42296,28.6665,9465,3738
0.308816,443.08762,-1532,42297,28.5171,9493,3816
0.218366,434.56356,-1531,42298,28.5171,9493,3816
1.69427,424.48906,-1530,42299,28.7162,9493,3816
0.817051,413.18293,-1529,42300,28.9154,9493,3816
1.12623,400.55364,-1528,42301,28.8656,9493,3816
0.690534,386.86025,-1527,42302,28.5171,9493,3816
0.931581,371.98974,-1526,42303,28.3678,9493,3816
0.447517,356.25348,-1525,42304,28.5171,9493,3816
0.577742,341.52902,-1524,42305,28.5669,9493,3816
1.02423,327.73906,-1523,42306,28.5171,9493,3816
0.447517,314.26835,-1522,42307,28.6665,9524,3902
0.402647,300.99579,-1521,42308,28.6665,9524,3902
0.889691,287.79595,-1520,42309,28.5669,9524,3902
2.05078,274.73599,-1519,42310,28.5171,9524,3902
1.04268,262.06881,-1518,42311,28.7162,9524,3902
0.577742,250.24235,-1517,42312,28.6665,9524,3902
1.55638,238.9854,-1516,42313,28.4175,9524,3902
0.793363,227.50009,-1515,42314,28.5171,9524,3902
1.06977,216.16757,-1514,42315,28.5171,9524,3902
1.11773,204.94846,-1513,42316,28.4175,9524,3902
1.58973,194.24831,-1512,42317,28.6665,9522,3978
1.01956,184.19577,-1511,42318,28.5669,9522,3978
0.390625,174.15293,-1510,42319,28.5171,9522,3978
1.19205,163.38928,-1509,42320,28.5669,9522,3978
0.625305,152.26127,-1508,42321,28.5171,9522,3978
0.76272,140.84539,-1507,42322,28.5171,9522,3978
0.889691,128.76219,-1506,42323,28.5669,9522,3978
1.37415,116.05112,-1505,42324,28.5171,9522,3978
0.560992,103.21729,-1504,42325,28.4175,9522,3978
0.768946,90.993818,-1503,42326,28.6665,9522,3978
1.3637,79.017972,-1502,42327,28.6665,9504,4024
0.632885,64.523832,-1501,42328,28.6665,9504,4024
0.601994,43.908167,-1500,42329,28.5669,9504,4024
1.01016,17.386344,-1499,42330,28.5171,9504,4024
1.34255,5.8108546,-1498,42331,28.5171,9504,4024
0.458048,16.657567,-1497,42332,28.6665,9504,4024
1.21188,23.385945,-1496,42333,28.4175,9504,4024
0.436732,37.784854,-1495,42334,28.5171,9504,4024
0.98628,65.41306,-1494,42335,28.8656,9504,4024
1.37415,98.695263,-1493,42336,28.4175,9504,4024
0.365396,131.75487,-1492,42337,28.4175,9530,4037
1.3029,169.8935,-1491,42338,28.6665,9530,4037
0.840071,206.33422,-1490,42339,28.6665,9530,4037
1.02423,268.614,-1489,42340,28.318,9530,4037
1.57163,332.19928,-1488,42341,28.6665,9530,4037
1.59273,361.2869,-1487,42342,28.5171,9530,4037
1.0381,319.65015,-1486,42343,28.5171,9530,4037
0.926449,278.10966,-1485,42344,28.6665,9530,4037
0.59402,363.14295,-1484,42345,28.5171,9530,4037
0.889691,461.72732,-1483,42346,28.766,9530,4037
1.68014,488.49753,-1482,42347,28.7162,9640,3992
1.59273,457.24253,-1481,42348,28.6665,9640,3992
1.1472,413.29565,-1480,42349,28.7162,9640,3992
1.3029,388.60365,-1479,42350,28.5171,9640,3992
1.85547,385.50183,-1478,42351,28.7162,9640,3992
1.27702,402.52522,-1477,42352,28.5171,9640,3992
0.884315,437.0984,-1476,42353,28.5171,9640,3992
1.20794,485.7889,-1475,42354,28.6665,9640,3992
1.4681,543.94537,-1474,42355,28.6665,9640,3992
1.38452,600.48455,-1473,42356,28.7162,9640,3992
2.55031,645.96054,-1472,42357,28.5171,9691,3936
2.15287,673.23382,-1471,42358,28.4175,9691,3936
2.36804,678.32747,-1470,42359,28.6665,9691,3936
2.11488,661.28029,-1469,42360,28.5171,9691,3936
2.69397,629.21789,-1468,42361,28.5669,9691,3936
3.00362,590.83828,-1467,42362,28.766,9691,3936
3.13414,550.39633,-1466,42363,28.4175,9691,3936
2.64394,506.98555,-1465,42364,28.6665,9691,3936
3.06491,462.10556,-1464,42365,28.5171,9691,3936
2.81345,421.41524,-1463,42366,28.6665,9691,3936
3.90014,391.37566,-1462,42367,28.4175,9748,3880
1.77938,369.85645,-1461,42368,28.7162,9748,3880
2.79304,354.93969,-1460,42369,28.5669,9748,3880
1.95556,341.8712,-1459,42370,28.5171,9748,3880
1.4219,330.53354,-1458,42371,28.6665,9748,3880
3.35034,316.41393,-1457,42372,28.6665,9748,3880
1.85547,297.12358,-1456,42373,28.6665,9748,3880
1.94579,273.37891,-1455,42374,28.6665,9748,3880
2.6655,250.95605,-1454,42375,28.5171,9748,3880
2.4974,238.14357,-1453,42376,28.4175,9748,3880
1.54717,225.73785,-1452,42377,28.4175,9777,3837
2.04845,215.74798,-1451,42378,28.5669,9777,3837
2.28816,205.9383,-1450,42379,28.6665,9777,3837
2.26722,197.55054,-1449,42380,28.5669,9777,3837
2.37809,188.46664,-1448,42381,28.5669,9777,3837
1.9942,182.26218,-1447,42382,28.5669,9777,3837
1.87592,175.79316,-1446,42383,28.6665,9777,3837
1.51917,167.5088,-1445,42384,28.6665,9777,3837
2.6655,159.32135,-1444,42385,28.6665,9777,3837
2.18802,151.22477,-1443,42386,28.5171,9777,3837
2.41786,143.42976,-1442,42387,28.6665,9805,3826
2.68865,143.09817,-1441,42388,28.6665,9805,3826
2.22262,161.76035,-1440,42389,28.4175,9805,3826
2.95884,195.97247,-1439,42390,28.5669,9805,3826
2.46086,232.35294,-1438,42391,28.6665,9805,3826
2.10811,258.09131,-1437,42392,28.6665,9805,3826
2.24822,267.69978,-1436,42393,28.5171,9805,3826
2.51263,265.33366,-1435,42394,28.9652,9805,3826
1.98701,259.84363,-1434,42395,28.6665,9805,3826
2.0739,252.48919,-1433,42396,28.5171,9805,3826
2.88871,242.539,-1432,42397,28.5669,9819,3835
2.1771,230.34678,-1431,42398,28.5669,9819,3835
1.82698,222.29674,-1430,42399,28.5171,9819,3835
2.13508,223.35295,-1429,42400,28.5171,9819,3835
2.38409,231.52658,-1428,42401,28.6665,9819,3835
2.9443,239.52304,-1427,42402,28.4175,9819,3835
1.63702,248.15814,-1426,42403,28.4175,9819,3835
1.66303,258.24023,-1425,42404,28.4175,9819,3835
1.49066,265.95942,-1424,42405,28.4175,9819,3835
1.85804,274.16579,-1423,42406,28.4175,9819,3835
2.63672,283.30886,-1422,42407,28.4175,9824,3842
1.79273,292.5242,-1421,42408,28.5669,9824,3842
2.16612,298.64768,-1420,42409,28.6665,9824,3842
1.38107,300.22237,-1419,42410,28.6665,9824,3842
1.48103,301.06177,-1418,42411,28.7162,9824,3842
1.17998,304.66084,-1417,42412,28.6665,9824,3842
1.1472,307.60045,-1416,42413,28.5669,9824,3842
2.28816,310.01077,-1415,42414,28.5669,9824,3842
1.67446,312.20327,-1414,42415,28.4175,9824,3842
1.57769,313.10086,-1413,42416,28.5171,9824,3842
1.23912,313.50073,-1412,42417,28.5171,9839,3851
1.54717,318.49448,-1411,42418,28.6665,9839,3851
1.52856,327.91394,-1410,42419,28.5171,9839,3851
2.33151,335.0825,-1409,42420,28.5669,9839,3851
1.99897,336.94564,-1408,42421,28.5669,9839,3851
1.28447,337.12658,-1407,42422,28.6665,9839,3851
0.946812,340.06156,-1406,42423,28.6665,9839,3851
1.31383,347.02932,-1405,42424,28.5171,9839,3851
2.02269,353.13412,-1404,42425,28.4175,9839,3851
1.57769,352.91304,-1403,42426,28.5171,9839,3851
1.37415,349.48536,-1402,42427,28.5669,9846,3864
1.19205,341.8972,-1401,42428,28.6665,9846,3864
0.768946,332.22745,-1400,42429,28.6665,9846,3864
0.425674,323.99836,-1399,42430,28.7162,9846,3864
0.946812,316.66333,-1398,42431,28.5171,9846,3864
1.31383,311.42302,-1397,42432,28.5171,9846,3864
1.11773,308.53611,-1396,42433,28.5669,9846,3864
1.31745,306.26768,-1395,42434,28.5171,9846,3864
1.14304,305.36449,-1394,42435,28.5171,9846,3864
0.323889,306.59888,-1393,42436,28.5669,9846,3864
1.07865,311.11336,-1392,42437,28.6665,9844,3867
0.961803,318.30578,-1391,42438,28.6665,9844,3867
0.873464,324.49407,-1390,42439,28.5669,9844,3867
1.17594,325.68142,-1389,42440,28.6665,9844,3867
0.889691,319.50372,-1388,42441,28.5171,9844,3867
1.19205,307.08781,-1387,42442,28.6665,9844,3867
1.68863,299.74496,-1386,42443,28.6665,9844,3867
1.4118,305.89062,-1385,42444,28.6665,9844,3867
1.9798,318.51908,-1384,42445,28.318,9844,3867
1.22363,330.30986,-1383,42446,28.4175,9844,3867
1.5625,338.63697,-1382,42447,28.5171,9844,3867
1.64863,344.46819,-1381,42448,28.7162,9844,3867
2.38009,351.27371,-1380,42449,28.5669,9844,3867
1.64863,351.83896,-1379,42450,28.6665,9844,3867
2.55217,344.22283,-1378,42451,28.5171,9844,3867
2.18148,331.28839,-1377,42452,28.5171,9844,3867
2.0716,321.20965,-1376,42453,28.7162,9844,3867
2.66907,310.0131,-1375,42454,28.5669,9844,3867
2.57635,306.90958,-1374,42455,28.7162,9844,3867
2.31715,297.94573,-1373,42456,28.5171,9844,3867
2.1771,301.89442,-1372,42457,28.7162,9848,3880
2.64575,309.05315,-1371,42458,28.7162,9848,3880
2.37005,317.19002,-1370,42459,28.6665,9848,3880
1.69708,335.24864,-1369,42460,28.5669,9848,3880
1.19205,349.49449,-1368,42461,28.6665,9848,3880
1.27702,375.93816,-1367,42462,28.6665,9848,3880
1.02423,444.47432,-1366,42463,28.766,9848,3880
1.30655,517.77084,-1365,42464,28.6665,9848,3880
1.82698,518.95319,-1364,42465,28.5171,9848,3880
1.78473,456.34293,-1363,42466,28.7162,9848,3880
0.884315,454.02525,-1362,42467,28.4175,9854,3867
1.39139,465.96139,-1361,42468,28.5171,9854,3867
0.971667,448.50668,-1360,42469,28.6665,9854,3867
1.28817,437.27605,-1359,42470,28.5171,9854,3867
1.37067,425.33783,-1358,42471,28.3678,9854,3867
1.3637,377.26961,-1357,42472,28.6665,9854,3867
0.710948,265.9001,-1356,42473,28.5171,9854,3867
1.09183,177.22423,-1355,42474,28.5171,9854,3867
1.17594,195.74678,-1354,42475,28.5669,9854,3867
2.29856,221.49856,-1353,42476,28.4175,9854,3867
1.9798,313.84928,-1352,42477,28.766,9859,3757
2.19672,495.16987,-1351,42478,28.6665,9859,3757
3.88912,723.61487,-1350,42479,28.6665,9859,3757
2.51832,979.71283,-1349,42480,28.5171,9859,3757
2.84882,1222.0075,-1348,42481,28.5171,9859,3757
4.1673,1388.5257,-1347,42482,28.5171,9859,3757
3.53995,1443.6333,-1346,42483,28.6665,9859,3757
4.44309,1404.5284,-1345,42484,28.6665,9859,3757
3.99556,1305.9537,-1344,42485,28.5669,9859,3757
3.78473,1171.6408,-1343,42486,28.6665,9859,3757
3.51291,1005.8009,-1342,42487,28.5669,9891,3688
2.51263,883.60477,-1341,42488,28.5171,9891,3688
2.32946,820.87635,-1340,42489,28.5171,9891,3688
19.7799,756.2808,-1339,42490,28.766,9891,3688
29.2376,1879.8203,-1338,42491,28.5171,9891,3688
10.4838,2108.5091,-1337,42492,28.7162,9891,3688
5.85775,681.92184,-1336,42493,28.5669,9891,3688
5.08376,1342.1928,-1335,42494,28.5171,9891,3688
2.12388,797.21641,-1334,42495,28.6665,9891,3688
0.625305,549.6409,-1333,42496,28.5171,9891,3688
1.73872,1023.6348,-1332,42497,28.5171,10227,3608
2.52021,490.56125,-1331,42498,28.7162,10227,3608
4.74412,596.28119,-1330,42499,28.5669,10227,3608
8.49216,471.65114,-1329,42500,28.3678,10227,3608
1.68863,265.05724,-1328,42501,28.5171,10227,3608
1.21581,298.80651,-1327,42502,28.9154,10227,3608
2.64575,380.15596,-1326,42503,28.4175,10227,3608
2.03444,230.75325,-1325,42504,28.4175,10227,3608
0.697405,266.93252,-1324,42505,28.766,10227,3608
0.946812,274.54099,-1323,42506,28.6665,10227,3608
1.77132,282.67368,-1322,42507,28.4175,10199,3595
1.09183,264.10966,-1321,42508,28.4175,10199,3595
0.811194,272.68896,-1320,42509,28.5171,10199,3595
0.497951,336.73845,-1319,42510,28.7162,10199,3595
0.768946,407.85688,-1318,42511,28.5669,10199,3595
0.981433,437.28435,-1317,42512,28.6665,10199,3595
1.05179,455.46091,-1316,42513,28.766,10199,3595
0.840071,482.87848,-1315,42514,28.6665,10199,3595
1.05179,516.23714,-1314,42515,28.6665,10199,3595
0.78733,527.83862,-1313,42516,28.5171,10199,3595
1.92361,494.86633,-1312,42517,28.4175,10013,3554
1.66303,443.35504,-1311,42518,28.5171,10013,3554
2.55591,399.88271,-1310,42519,28.5669,10013,3554
1.77938,362.48191,-1309,42520,28.6665,10013,3554
2.49549,330.13306,-1308,42521,28.5171,10013,3554
2.0156,309.0355,-1307,42522,28.6665,10013,3554
2.24609,303.42351,-1306,42523,28.7162,10013,3554
1.77132,317.06767,-1305,42524,28.6665,10013,3554
1.21581,330.90634,-1304,42525,28.5669,10013,3554
1.63993,330.093,-1303,42526,28.4175,10013,3554
1.86572,331.53092,-1302,42527,28.4175,9919,3511
1.51917,346.79909,-1301,42528,28.6665,9919,3511
2.51832,365.38367,-1300,42529,28.5669,9919,3511
1.69708,382.73585,-1299,42530,28.5669,9919,3511
2.18584,398.90372,-1298,42531,28.5669,9919,3511
2.03444,400.92834,-1297,42532,28.766,9919,3511
1.4219,383.9259,-1296,42533,28.6665,9919,3511
1.94579,391.86475,-1295,42534,28.6665,9919,3511
2.38009,460.24887,-1294,42535,28.8656,9919,3511
2.13508,564.56422,-1293,42536,28.6665,9919,3511
2.99249,669.91726,-1292,42537,28.7162,9871,3522
3.41797,755.76947,-1291,42538,28.6665,9871,3522
2.2819,810.36723,-1290,42539,28.766,9871,3522
2.67443,826.44535,-1289,42540,28.5171,9871,3522
3.00362,803.69378,-1288,42541,28.5171,9871,3522
2.88706,746.02267,-1287,42542,28.6665,9871,3522
2.84044,661.80938,-1286,42543,28.5171,9871,3522
2.73786,562.12531,-1285,42544,28.5171,9871,3522
1.60466,459.76577,-1284,42545,28.6665,9871,3522
2.37809,368.96341,-1283,42546,28.6665,9871,3522
2.60945,305.17939,-1282,42547,28.6665,9864,3552
2.60945,271.45553,-1281,42548,28.5171,9864,3552
2.8236,257.0684,-1280,42549,28.7162,9864,3552
1.94824,253.03542,-1279,42550,28.7162,9864,3552
3.27549,260.09998,-1278,42551,28.6665,9864,3552
2.10811,273.32723,-1277,42552,28.5171,9864,3552
3.15083,283.42894,-1276,42553,28.5669,9864,3552
2.10585,288.69577,-1275,42554,28.766,9864,3552
3.06491,289.93313,-1274,42555,28.5669,9864,3552
2.35997,291.30624,-1273,42556,28.5171,9864,3552
2.17052,295.04639,-1272,42557,28.5171,9874,3527
2.55591,295.39374,-1271,42558,28.5669,9874,3527
2.34578,285.79624,-1270,42559,28.5171,9874,3527
2.09677,266.37502,-1269,42560,28.5669,9874,3527
1.38452,244.40126,-1268,42561,28.5669,9874,3527
1.84257,227.67609,-1267,42562,28.5669,9874,3527
1.74146,217.44156,-1266,42563,28.5669,9874,3527
1.06082,211.90457,-1265,42564,28.7162,9874,3527
1.73323,211.99934,-1264,42565,28.5669,9874,3527
1.98461,217.04949,-1263,42566,28.4175,9874,3527
1.22363,224.55795,-1262,42567,28.6665,9884,3468
1.56555,230.81663,-1261,42568,28.4175,9884,3468
0.750112,235.71003,-1260,42569,28.4175,9884,3468
1.25061,241.30426,-1259,42570,28.5171,9884,3468
1.92112,247.87071,-1258,42571,28.6665,9884,3468
2.16392,255.1106,-1257,42572,28.6665,9884,3468
2.67086,262.73632,-1256,42573,28.5669,9884,3468
2.62948,272.26469,-1255,42574,28.7162,9884,3468
1.13886,281.55157,-1254,42575,28.7162,9884,3468
2.68688,292.23595,-1253,42576,28.6665,9884,3468
1.77132,317.62107,-1252,42577,28.766,9905,3421
1.40163,357.54547,-1251,42578,28.6665,9905,3421
2.19672,402.78634,-1250,42579,28.5171,9905,3421
2.25245,435.05056,-1249,42580,28.6665,9905,3421
2.03209,438.80544,-1248,42581,28.6665,9905,3421
1.1596,423.76965,-1247,42582,28.6665,9905,3421
1.97256,400.94914,-1246,42583,28.7162,9905,3421
2.12613,371.31032,-1245,42584,28.6665,9905,3421
1.37067,331.58068,-1244,42585,28.6665,9905,3421
1.8606,294.2537,-1243,42586,28.5669,9905,3421
1.86827,258.72664,-1242,42587,28.7162,9944,3417
1.11345,229.06054,-1241,42588,28.5669,9944,3417
1.25821,225.8974,-1240,42589,28.7162,9944,3417
1.67446,230.99732,-1239,42590,28.6665,9944,3417
1.66303,237.46077,-1238,42591,28.5171,9944,3417
2.14399,246.01308,-1237,42592,28.5669,9944,3417
5.31577,166.84922,-1236,42593,28.6665,9944,3417
12.3043,172.63768,-1235,42594,28.5171,9944,3417
9.14273,398.82529,-1234,42595,28.9154,9944,3417
3.52916,420.21435,-1233,42596,28.5171,9944,3417
2.01324,294.94971,-1232,42597,28.318,10117,3410
1.66303,139.87037,-1231,42598,28.5669,10117,3410
1.48103,141.3599,-1230,42599,28.6665,10117,3410
1.3029,305.58503,-1229,42600,28.5669,10117,3410
1.94088,467.86385,-1228,42601,28.5171,10117,3410
1.23912,562.47376,-1227,42602,28.6665,10117,3410
2.09677,584.8512,-1226,42603,28.5171,10117,3410
3.02734,524.6997,-1225,42604,28.766,10117,3410
4.29465,377.47555,-1224,42605,28.6665,10117,3410
3.08507,309.45872,-1223,42606,28.6665,10117,3410
1.85804,372.25475,-1222,42607,28.766,10144,3405
1.1472,406.39099,-1221,42608,28.6665,10144,3405
2.88375,360.40835,-1220,42609,28.6665,10144,3405
1.79804,339.50991,-1219,42610,28.4175,10144,3405
1.82698,398.93835,-1218,42611,28.6665,10144,3405
1.98461,489.43187,-1217,42612,28.5171,10144,3405
1.73047,535.86093,-1216,42613,28.6665,10144,3405
1.68863,517.6907,-1215,42614,28.4175,10144,3405
2.92969,432.8121,-1214,42615,28.6665,10144,3405
3.42354,315.90217,-1213,42616,28.6665,10144,3405
1.81651,365.97677,-1212,42617,28.6665,10121,3424
1.61355,628.63069,-1211,42618,28.5669,10121,3424
0.138107,802.44856,-1210,42619,28.4175,10121,3424
0.981433,702.37019,-1209,42620,28.7162,10121,3424
1.70549,568.03351,-1208,42621,28.4175,10121,3424
0.834375,600.62184,-1207,42622,28.4175,10121,3424
1.08306,751.23904,-1206,42623,28.766,10121,3424
1.42525,844.25174,-1205,42624,28.6665,10121,3424
1.02423,791.69857,-1204,42625,28.5669,10121,3424
1.25442,682.80999,-1203,42626,28.6665,10121,3424
2.58005,627.41374,-1202,42627,28.6665,10110,3484
1.00543,630.42918,-1201,42628,28.5171,10110,3484
1.87592,641.78773,-1200,42629,28.5171,10110,3484
1.47134,630.63175,-1199,42630,28.4175,10110,3484
1.27328,608.89508,-1198,42631,28.4175,10110,3484
0.961803,604.13288,-1197,42632,28.6665,10110,3484
1.12623,621.00269,-1196,42633,28.6665,10110,3484
1.52544,650.69937,-1195,42634,28.5171,10110,3484
1.11345,680.60671,-1194,42635,28.8656,10110,3484
0.966748,704.99968,-1193,42636,28.4175,10110,3484
1.12198,727.37808,-1192,42637,28.5669,10073,3487
0.961803,751.20889,-1191,42638,28.7162,10073,3487
1.73323,775.58852,-1190,42639,28.6665,10073,3487
1.29923,794.3804,-1189,42640,28.6665,10073,3487
1.77132,805.54703,-1188,42641,28.5171,10073,3487
1.83479,818.18245,-1187,42642,28.6665,10073,3487
1.71386,828.24724,-1186,42643,28.5669,10073,3487
1.86572,826.91238,-1185,42644,28.6665,10073,3487
2.0739,820.23976,-1184,42645,28.5171,10073,3487
1.78206,817.27985,-1183,42646,28.5669,10073,3487
1.24296,813.80169,-1182,42647,28.4175,10053,3402
1.83739,807.48132,-1181,42648,28.6665,10053,3402
1.91864,797.56397,-1180,42649,28.6665,10053,3402
1.92608,784.37319,-1179,42650,28.6665,10053,3402
2.2819,776.65604,-1178,42651,28.6665,10053,3402
2.51263,772.4744,-1177,42652,28.5171,10053,3402
1.60168,768.29052,-1176,42653,28.6665,10053,3402
2.24609,769.56736,-1175,42654,28.766,10053,3402
2.65115,780.47398,-1174,42655,28.766,10053,3402
1.57466,799.81178,-1173,42656,28.5669,10053,3402
3.20485,814.49333,-1172,42657,28.4175,9965,3296
1.45505,819.79705,-1171,42658,28.6665,9965,3296
2.48208,831.1794,-1170,42659,28.318,9965,3296
2.54844,858.56911,-1169,42660,28.5171,9965,3296
1.91615,885.08807,-1168,42661,28.6665,9965,3296
2.84044,895.76917,-1167,42662,28.7162,9965,3296
1.96529,891.92466,-1166,42663,28.6665,9965,3296
2.0156,883.15166,-1165,42664,28.7162,9965,3296
2.81345,873.17272,-1164,42665,28.8656,9965,3296
2.23972,862.66,-1163,42666,28.7162,9965,3296
2.45115,854.00089,-1162,42667,28.7162,9908,3213
2.52777,847.19201,-1161,42668,28.7162,9908,3213
2.97972,834.35406,-1160,42669,28.766,9908,3213
3.29725,809.54708,-1159,42670,28.5669,9908,3213
3.03521,778.40258,-1158,42671,28.5669,9908,3213
2.9701,752.41378,-1157,42672,28.6665,9908,3213
2.97972,736.71027,-1156,42673,28.5669,9908,3213
3.15537,735.71187,-1155,42674,28.7162,9908,3213
2.57079,735.88956,-1154,42675,28.4175,9908,3213
2.63129,729.61084,-1153,42676,28.6665,9908,3213
3.09741,702.27836,-1152,42677,28.5171,9887,3180
2.99568,648.52547,-1151,42678,28.6665,9887,3180
2.64575,611.61834,-1150,42679,28.5669,9887,3180
1.92608,642.4279,-1149,42680,28.5171,9887,3180
2.43554,700.90181,-1148,42681,28.4175,9887,3180
2.82529,711.18487,-1147,42682,28.5669,9887,3180
2.2819,672.01756,-1146,42683,28.5171,9887,3180
1.61945,634.26843,-1145,42684,28.5171,9887,3180
1.71942,620.65683,-1144,42685,28.9154,9887,3180
1.9798,623.31442,-1143,42686,28.6665,9887,3180
1.76323,630.39243,-1142,42687,28.5669,9890,3122
2.14399,636.39636,-1141,42688,28.6665,9890,3122
2.0156,638.00305,-1140,42689,28.6665,9890,3122
2.72564,638.14322,-1139,42690,28.6665,9890,3122
2.64033,641.90296,-1138,42691,28.5171,9890,3122
2.54656,643.19617,-1137,42692,28.5669,9890,3122
2.88706,637.90321,-1136,42693,28.6665,9890,3122
3.70708,631.1442,-1135,42694,28.5171,9890,3122
3.03049,631.43556,-1134,42695,28.4175,9890,3122
3.75818,637.23952,-1133,42696,28.4175,9890,3122
4.1432,639.66667,-1132,42697,28.766,9886,3034
3.27112,635.38476,-1131,42698,28.7162,9886,3034
4.29465,632.92273,-1130,42699,28.6665,9886,3034
3.4305,638.439,-1129,42700,28.7162,9886,3034
2.94106,649.80564,-1128,42701,28.6665,9886,3034
3.41238,660.67273,-1127,42702,28.6665,9886,3034
2.54656,673.7162,-1126,42703,28.5669,9886,3034
4.04773,693.94882,-1125,42704,28.4175,9886,3034
2.85384,721.13681,-1124,42705,28.6665,9886,3034
3.24771,749.26,-1123,42706,28.5171,9886,3034
3.29291,782.34067,-1122,42707,28.766,9884,2927
2.95239,821.5254,-1121,42708,28.5171,9884,2927
3.03521,866.64919,-1120,42709,28.6665,9884,2927
3.02104,914.269,-1119,42710,28.7162,9884,2927
2.72039,960.37522,-1118,42711,28.6665,9884,2927
2.61493,1001.3372,-1117,42712,28.5171,9884,2927
3.39838,1037.4523,-1116,42713,28.6665,9884,2927
2.82022,1066.9887,-1115,42714,28.7162,9884,2927
3.41797,1087.1762,-1114,42715,28.5171,9884,2927
3.66569,1097.2849,-1113,42716,28.6665,9884,2927
2.72039,1098.8192,-1112,42717,28.6665,9890,2815
3.0068,1089.4351,-1111,42718,28.6665,9890,2815
2.71688,1067.351,-1110,42719,28.5171,9890,2815
4.60022,1032.8223,-1109,42720,28.5669,9890,2815
3.68903,986.08968,-1108,42721,28.6665,9890,2815
2.85216,927.77968,-1107,42722,28.5171,9890,2815
3.38995,857.16437,-1106,42723,28.5669,9890,2815
4.01936,732.06527,-1105,42724,28.6665,9890,2815
3.28857,562.52101,-1104,42725,28.5171,9890,2815
4.23089,488.21163,-1103,42726,28.4175,9890,2815
2.75176,503.57653,-1102,42727,28.5669,9894,2754
3.26966,468.72725,-1101,42728,28.6665,9894,2754
3.233,489.28037,-1100,42729,28.5669,9894,2754
3.36312,508.53997,-1099,42730,28.5669,9894,2754
3.43883,470.97058,-1098,42731,28.5669,9894,2754
3.07113,432.67686,-1097,42732,28.6665,9894,2754
3.59476,420.06218,-1096,42733,28.6665,9894,2754
3.6929,428.14515,-1095,42734,28.6665,9894,2754
4.13168,415.04425,-1094,42735,28.5669,9894,2754
4.02884,358.64409,-1093,42736,28.5669,9894,2754
2.85718,292.78785,-1092,42737,28.6665,9895,2754
4.02529,256.31103,-1091,42738,28.766,9895,2754
2.76731,246.83659,-1090,42739,28.5171,9895,2754
2.85884,238.35947,-1089,42740,28.5669,9895,2754
2.83876,230.5641,-1088,42741,28.6665,9895,2754
3.42215,236.60483,-1087,42742,28.6665,9895,2754
3.34606,265.89893,-1086,42743,28.7162,9895,2754
3.4305,312.32509,-1085,42744,28.6665,9895,2754
3.4305,351.98851,-1084,42745,28.6665,9895,2754
3.46508,383.56184,-1083,42746,28.6665,9895,2754
3.37444,415.11339,-1082,42747,28.6665,9895,2758
3.31744,446.85383,-1081,42748,28.5171,9895,2758
3.77211,475.66932,-1080,42749,28.7162,9895,2758
3.52375,499.62523,-1079,42750,28.5669,9895,2758
3.49795,522.02971,-1078,42751,28.6665,9895,2758
2.19889,547.69755,-1077,42752,28.5669,9895,2758
2.90517,574.95935,-1076,42753,28.6665,9895,2758
2.93131,601.63149,-1075,42754,28.6665,9895,2758
3.16442,624.73599,-1074,42755,28.6665,9895,2758
2.35187,648.35392,-1073,42756,28.5669,9895,2758
1.98461,671.29076,-1072,42757,28.7162,9897,2811
2.27772,691.51152,-1071,42758,28.6665,9897,2811
2.06237,707.0969,-1070,42759,28.6665,9897,2811
2.37809,722.0395,-1069,42760,28.5669,9897,2811
1.4118,736.40497,-1068,42761,28.6665,9897,2811
1.70269,746.86285,-1067,42762,28.9154,9897,2811
1.66303,749.71128,-1066,42763,28.5171,9897,2811
1.95556,749.60833,-1065,42764,28.4175,9897,2811
1.47458,749.58872,-1064,42765,28.6665,9897,2811
2.24822,748.77882,-1063,42766,28.7162,9897,2811
2.05543,744.2172,-1062,42767,28.8656,9904,2881
2.08994,738.25518,-1061,42768,28.6665,9904,2881
2.60579,730.67044,-1060,42769,28.5171,9904,2881
2.41983,725.81457,-1059,42770,28.3678,9904,2881
1.67161,723.95568,-1058,42771,28.6665,9904,2881
1.9335,720.53792,-1057,42772,28.5171,9904,2881
1.78473,714.98503,-1056,42773,28.5669,9904,2881
1.19604,707.99587,-1055,42774,28.766,9904,2881
1.86572,701.16564,-1054,42775,28.5669,9904,2881
1.73047,692.90311,-1053,42776,28.5669,9904,2881
1.77132,681.78079,-1052,42777,28.7162,9910,2962
1.76323,669.20161,-1051,42778,28.5171,9910,2962
1.52544,655.53642,-1050,42779,28.5171,9910,2962
2.19672,641.53138,-1049,42780,28.5669,9910,2962
2.12837,627.46489,-1048,42781,28.6665,9910,2962
0.941763,612.94306,-1047,42782,28.5171,9910,2962
0.845728,598.60646,-1046,42783,28.6665,9910,2962
1.4118,584.67384,-1045,42784,28.766,9910,2962
1.37415,571.71263,-1044,42785,28.6665,9910,2962
1.77132,560.51912,-1043,42786,28.5669,9910,2962
1.53789,551.39268,-1042,42787,28.766,9952,3047
1.81125,544.83661,-1041,42788,28.4175,9952,3047
1.6165,540.58771,-1040,42789,28.6665,9952,3047
1.80334,540.17862,-1039,42790,28.766,9952,3047
3.19889,550.47994,-1038,42791,28.7162,9952,3047
13.4156,501.25886,-1037,42792,28.9154,9952,3047
5.92573,516.33384,-1036,42793,28.766,9952,3047
0.697405,326.50845,-1035,42794,28.7162,9952,3047
0.926449,405.32318,-1034,42795,28.6665,9952,3047
0.690534,726.31402,-1033,42796,28.5171,9952,3047
1.07422,784.52265,-1032,42797,28.6665,10106,3138
1.09619,732.54367,-1031,42798,28.766,10106,3138
1.38452,667.20841,-1030,42799,28.766,10106,3138
1.97739,599.71338,-1029,42800,28.7162,10106,3138
0.98628,505.06975,-1028,42801,28.6665,10106,3138
1.19205,408.60871,-1027,42802,28.7162,10106,3138
1.38107,331.8767,-1026,42803,28.6665,10106,3138
1.69708,299.46301,-1025,42804,28.4175,10106,3138
1.66589,296.33028,-1024,42805,28.7162,10106,3138
2.14622,314.61974,-1023,42806,28.5171,10106,3138
2.53718,350.14409,-1022,42807,28.6665,10097,3186
1.73872,398.18576,-1021,42808,28.7162,10097,3186
3.18096,442.77383,-1020,42809,28.6665,10097,3186
1.9918,468.09559,-1019,42810,28.8656,10097,3186
1.5807,472.14383,-1018,42811,28.5669,10097,3186
1.95556,461.25706,-1017,42812,28.7162,10097,3186
1.7767,443.81492,-1016,42813,28.6665,10097,3186
0.905627,429.52942,-1015,42814,28.6665,10097,3186
1.3029,425.77196,-1014,42815,28.6665,10097,3186
1.49066,435.62674,-1013,42816,28.4175,10097,3186
1.36019,453.5102,-1012,42817,28.6665,10059,3210
0.436732,473.47351,-1011,42818,28.6665,10059,3210
1.4681,486.06427,-1010,42819,28.5171,10059,3210
1.27702,483.44863,-1009,42820,28.5669,10059,3210
1.86572,467.09426,-1008,42821,28.6665,10059,3210
1.63702,448.67976,-1007,42822,28.6665,10059,3210
0.655098,445.48,-1006,42823,28.5171,10059,3210
0.507437,452.05226,-1005,42824,28.6665,10059,3210
0.601994,455.22705,-1004,42825,28.5669,10059,3210
0.683594,463.754,-1003,42826,28.5171,10059,3210
1.11773,472.05456,-1002,42827,28.6665,10085,3179
2.32742,463.70302,-1001,42828,28.5669,10085,3179
1.11773,449.84383,-1000,42829,28.4175,10085,3179
1.97739,449.63176,-999,42830,28.6665,10085,3179
2.40797,458.49151,-998,42831,28.4175,10085,3179
0.569429,469.01115,-997,42832,28.766,10085,3179
2.2944,482.38427,-996,42833,28.6665,10085,3179
1.66303,493.0756,-995,42834,28.5669,10085,3179
1.80334,495.71896,-994,42835,28.5669,10085,3179
1.05631,495.1963,-993,42836,28.766,10085,3179
0.793363,497.51686,-992,42837,28.6665,10094,3096
1.05631,504.77286,-991,42838,28.5171,10094,3096
1.05631,511.26234,-990,42839,28.6665,10094,3096
1.02423,515.62121,-989,42840,28.5669,10094,3096
1.4118,521.73905,-988,42841,28.6665,10094,3096
0.845728,529.13352,-987,42842,28.5171,10094,3096
2.38409,534.77127,-986,42843,28.7162,10094,3096
1.56555,539.23101,-985,42844,28.9652,10094,3096
2.68333,542.92444,-984,42845,28.318,10094,3096
2.66907,546.18099,-983,42846,28.5669,10094,3096
1.97498,548.62068,-982,42847,28.5171,9981,2974
2.36602,552.15285,-981,42848,28.6665,9981,2974
3.22709,556.18242,-980,42849,28.7162,9981,2974
2.26301,558.36569,-979,42850,28.5171,9981,2974
2.63129,557.76225,-978,42851,28.4175,9981,2974
2.15287,557.32836,-977,42852,28.7162,9981,2974
3.31024,559.69972,-976,42853,28.5669,9981,2974
2.34985,562.12979,-975,42854,28.6665,9981,2974
3.29725,559.98506,-974,42855,28.6665,9981,2974
3.08971,555.94178,-973,42856,28.7162,9981,2974
2.01087,551.72019,-972,42857,28.766,9927,2854
1.53168,546.39742,-971,42858,28.6665,9927,2854
2.91009,539.44773,-970,42859,28.5669,9927,2854
2.5221,533.91619,-969,42860,28.5669,9927,2854
3.42354,527.76208,-968,42861,28.5171,9927,2854
2.65474,518.84989,-967,42862,28.6665,9927,2854
3.82359,507.65116,-966,42863,28.318,9927,2854
3.84845,498.04851,-965,42864,28.6665,9927,2854
3.87069,489.43925,-964,42865,28.7162,9927,2854
3.45267,481.07621,-963,42866,28.7162,9927,2854
4.23765,470.48195,-962,42867,28.6665,9919,2725
3.90869,460.87242,-961,42868,28.4175,9919,2725
3.30303,451.34382,-960,42869,28.6665,9919,2725
3.62514,441.70127,-959,42870,28.6665,9919,2725
3.91722,430.21061,-958,42871,28.7162,9919,2725
3.3617,420.79117,-957,42872,28.7162,9919,2725
3.95719,411.77315,-956,42873,28.4175,9919,2725
3.77337,399.53858,-955,42874,28.6665,9919,2725
3.55608,384.74961,-954,42875,28.8656,9919,2725
3.81485,369.5266,-953,42876,28.5669,9919,2725
3.61196,357.15886,-952,42877,28.5171,9920,2623
3.93301,348.29167,-951,42878,28.5669,9920,2623
4.14435,340.83465,-950,42879,28.5171,9920,2623
4.00867,331.55567,-949,42880,28.7162,9920,2623
3.38291,320.50136,-948,42881,28.6665,9920,2623
3.32749,306.68438,-947,42882,28.6665,9920,2623
3.94149,289.71843,-946,42883,28.6665,9920,2623
3.86822,269.76161,-945,42884,28.7162,9920,2623
3.63433,248.02495,-944,42885,28.7162,9920,2623
3.87315,225.358,-943,42886,28.9154,9920,2623
3.05244,202.36302,-942,42887,28.5669,9920,2569
3.78851,182.1028,-941,42888,28.318,9920,2569
2.84882,166.27092,-940,42889,28.7162,9920,2569
3.05244,154.57944,-939,42890,28.7162,9920,2569
3.47332,144.65765,-938,42891,28.6665,9920,2569
3.89402,136.10402,-937,42892,28.766,9920,2569
3.26528,131.00858,-936,42893,28.766,9920,2569
3.92087,132.37477,-935,42894,28.6665,9920,2569
3.20931,141.21098,-934,42895,28.6665,9920,2569
3.57214,155.81155,-933,42896,28.766,9920,2569
3.46645,173.64389,-932,42897,28.6665,9924,2554
2.63129,192.76344,-931,42898,28.5171,9924,2554
3.80484,211.31246,-930,42899,28.766,9924,2554
2.9443,230.23374,-929,42900,28.6665,9924,2554
3.45819,251.37861,-928,42901,28.7162,9924,2554
2.76386,273.31742,-927,42902,28.5171,9924,2554
3.50204,294.54302,-926,42903,28.766,9924,2554
3.42911,314.61595,-925,42904,28.6665,9924,2554
3.4692,335.6768,-924,42905,28.6665,9924,2554
2.90024,355.14939,-923,42906,28.7162,9924,2554
2.78277,371.94347,-922,42907,28.4175,9926,2591
2.97651,393.39787,-921,42908,28.7162,9926,2591
2.60213,413.3518,-920,42909,28.5669,9926,2591
2.60945,430.32112,-919,42910,28.5171,9926,2591
2.27981,445.13662,-918,42911,28.5669,9926,2591
2.15066,457.45266,-917,42912,28.6665,9926,2591
2.93131,469.86348,-916,42913,28.5669,9926,2591
2.48784,483.56401,-915,42914,28.6665,9926,2591
2.3539,496.69446,-914,42915,28.5669,9926,2591
2.38409,509.32528,-913,42916,28.6665,9926,2591
2.55031,520.16625,-912,42917,28.4175,9924,2662
2.58559,529.08441,-911,42918,28.6665,9924,2662
2.88375,537.80739,-910,42919,28.6665,9924,2662
1.82437,545.70716,-909,42920,28.5669,9924,2662
1.78206,549.72104,-908,42921,28.6665,9924,2662
2.49358,550.82027,-907,42922,28.5171,9924,2662
2.85384,555.10496,-906,42923,28.6665,9924,2662
1.88099,561.24936,-905,42924,28.6665,9924,2662
1.69427,566.76858,-904,42925,28.6665,9924,2662
1.3029,571.95246,-903,42926,28.4175,9924,2662
1.96772,575.4481,-902,42927,28.6665,9932,2769
1.28447,576.12817,-901,42928,28.6665,9932,2769
2.14399,575.74153,-900,42929,28.6665,9932,2769
1.50022,575.82756,-899,42930,28.766,9932,2769
0.683594,575.56477,-898,42931,28.5669,9932,2769
1.02423,573.79444,-897,42932,28.5669,9932,2769
1.81913,570.77966,-896,42933,28.5171,9932,2769
2.46473,565.4572,-895,42934,28.5669,9932,2769
1.67161,559.79314,-894,42935,28.6665,9932,2769
1.74966,555.36331,-893,42936,28.766,9932,2769
0.921287,550.2301,-892,42937,28.6665,9949,2885
1.58673,542.79732,-891,42938,28.6665,9949,2885
1.0381,534.08581,-890,42939,28.4175,9949,2885
2.76386,525.93842,-889,42940,28.5171,9949,2885
1.06082,517.79471,-888,42941,28.6665,9949,2885
1.70829,507.09915,-887,42942,28.6665,9949,2885
1.77132,494.38309,-886,42943,28.5171,9949,2885
0.308816,482.22469,-885,42944,28.6665,9949,2885
2.44921,469.99061,-884,42945,28.5171,9949,2885
1.20794,455.10604,-883,42946,28.766,9949,2885
1.06082,439.63363,-882,42947,28.7162,9970,3012
1.25061,424.67269,-881,42948,28.5171,9970,3012
1.10916,410.41464,-880,42949,28.5669,9970,3012
1.0381,394.90493,-879,42950,28.766,9970,3012
1.22363,377.21623,-878,42951,28.5171,9970,3012
1.21188,360.67597,-877,42952,28.6665,9970,3012
0.895034,344.91217,-876,42953,28.6665,9970,3012
0.690534,327.20462,-875,42954,28.5171,9970,3012
2.09677,309.36871,-874,42955,28.5171,9970,3012
2.18584,292.19018,-873,42956,28.766,9970,3012
0.845728,273.84267,-872,42957,28.6665,10034,3104
1.21581,253.90848,-871,42958,28.5669,10034,3104
0.845728,233.49859,-870,42959,28.9652,10034,3104
0.905627,214.84018,-869,42960,28.5669,10034,3104
1.76323,197.58735,-868,42961,28.6665,10034,3104
1.13045,180.04941,-867,42962,28.7162,10034,3104
1.86827,161.42095,-866,42963,28.6665,10034,3104
1.90617,141.31114,-865,42964,28.766,10034,3104
1.39139,120.87273,-864,42965,28.5171,10034,3104
2.03444,102.10319,-863,42966,28.766,10034,3104
1.59273,89.228055,-862,42967,28.766,10029,3152
1.31745,85.952237,-861,42968,28.6665,10029,3152
2.03444,91.511465,-860,42969,28.5669,10029,3152
1.40163,102.84734,-859,42970,28.766,10029,3152
1.45176,117.64292,-858,42971,28.6665,10029,3152
1.00543,132.67903,-857,42972,28.766,10029,3152
1.1472,145.72153,-856,42973,28.6665,10029,3152
1.45505,157.75202,-855,42974,28.766,10029,3152
1.57163,171.50935,-854,42975,28.5669,10029,3152
1.71664,187.41339,-853,42976,28.6665,10029,3152
1.41517,204.34709,-852,42977,28.5669,10027,3152
1.67161,221.55156,-851,42978,28.766,10027,3152
1.86572,237.8295,-850,42979,28.7162,10027,3152
1.54099,252.94692,-849,42980,28.3678,10027,3152
1.94333,267.56456,-848,42981,28.766,10027,3152
1.69708,281.05809,-847,42982,28.7162,10027,3152
2.02269,292.79714,-846,42983,28.5669,10027,3152
1.88858,303.83509,-845,42984,28.7162,10027,3152
2.0739,314.34968,-844,42985,28.5171,10027,3152
3.33464,323.74009,-843,42986,28.5669,10027,3152
2.04146,331.59222,-842,42987,28.5171,10022,3106
2.36199,337.51622,-841,42988,28.7162,10022,3106
1.70829,342.1402,-840,42989,28.6665,10022,3106
2.21402,347.04953,-839,42990,28.5171,10022,3106
2.75002,351.70804,-838,42991,28.7162,10022,3106
2.14622,355.41333,-837,42992,28.5171,10022,3106
1.63702,358.60813,-836,42993,28.5171,10022,3106
1.64863,361.33831,-835,42994,28.7162,10022,3106
2.24397,365.85654,-834,42995,28.6665,10022,3106
2.04845,370.81133,-833,42996,28.6665,10022,3106
2.41983,372.87903,-832,42997,28.5171,9986,3050
1.59273,372.20593,-831,42998,28.6665,9986,3050
1.89614,369.4128,-830,42999,28.5171,9986,3050
1.21581,365.5564,-829,43000,28.6665,9986,3050
1.77132,361.31113,-828,43001,28.6665,9986,3050
1.28447,356.45307,-827,43002,28.7162,9986,3050
2.14399,352.19073,-826,43003,28.5171,9986,3050
1.38452,349.19879,-825,43004,28.5171,9986,3050
1.98701,346.15152,-824,43005,28.5171,9986,3050
2.14399,344.18629,-823,43006,28.5171,9986,3050
1.37067,341.50424,-822,43007,28.6665,9964,3005
2.4277,339.05928,-821,43008,28.6665,9964,3005
2.15951,335.02955,-820,43009,28.6665,9964,3005
1.38452,327.41624,-819,43010,28.6665,9964,3005
1.54717,319.05756,-818,43011,28.5171,9964,3005
1.91615,310.96503,-817,43012,28.7162,9964,3005
2.14844,300.74471,-816,43013,28.766,9964,3005
1.86827,287.43466,-815,43014,28.6665,9964,3005
1.65728,276.12221,-814,43015,28.6665,9964,3005
1.98701,266.40343,-813,43016,28.6665,9964,3005
2.0156,257.9582,-812,43017,28.5171,9963,2978
1.68863,250.7225,-811,43018,28.766,9963,2978
2.12613,243.32903,-810,43019,28.4175,9963,2978
2.20323,235.0622,-809,43020,28.766,9963,2978
1.50657,227.58362,-808,43021,28.5171,9963,2978
2.32946,221.02717,-807,43022,28.5171,9963,2978
2.08079,214.70839,-806,43023,28.7162,9963,2978
1.4118,207.89911,-805,43024,28.5669,9963,2978
1.53168,201.17143,-804,43025,28.766,9963,2978
2.21402,195.84819,-803,43026,28.6665,9963,2978
2.26301,191.51852,-802,43027,28.6665,9954,2973
3.53995,187.88354,-801,43028,28.5669,9954,2973
2.15066,183.30596,-800,43029,28.7162,9954,2973
1.78473,179.95421,-799,43030,28.6665,9954,2973
2.2819,178.03582,-798,43031,28.766,9954,2973
1.9798,177.09289,-797,43032,28.5669,9954,2973
1.92856,176.09691,-796,43033,28.6665,9954,2973
2.15287,175.49725,-795,43034,28.5669,9954,2973
1.96772,173.53359,-794,43035,28.6665,9954,2973
1.38452,167.43998,-793,43036,28.4175,9954,2973
2.36602,163.36424,-792,43037,28.6665,9950,2973
2.25034,162.6688,-791,43038,28.5171,9950,2973
2.30063,165.03536,-790,43039,28.6665,9950,2973
1.84774,167.80282,-789,43040,28.7162,9950,2973
1.39139,167.41595,-788,43041,28.5171,9950,2973
2.8986,168.22166,-787,43042,28.6665,9950,2973
2.0156,175.37294,-786,43043,28.766,9950,2973
2.84379,185.20404,-785,43044,28.6665,9950,2973
2.05078,195.38916,-784,43045,28.766,9950,2973
2.50883,192.86294,-783,43046,28.6665,9950,2973
2.03912,179.96572,-782,43047,28.5171,9950,3003
2.14399,173.0889,-781,43048,28.5171,9950,3003
3.316,176.15275,-780,43049,28.6665,9950,3003
2.17929,183.16906,-779,43050,28.6665,9950,3003
1.22363,187.648,-778,43051,28.8656,9950,3003
1.55638,188.03029,-777,43052,28.7162,9950,3003
1.06977,188.68015,-776,43053,28.5171,9950,3003
2.09677,192.4961,-775,43054,28.5171,9950,3003
1.69146,198.56007,-774,43055,28.6665,9950,3003
1.71108,204.34603,-773,43056,28.6665,9950,3003
2.76731,207.08774,-772,43057,28.7162,9950,3072
0.956832,208.8892,-771,43058,28.6665,9950,3072
1.46484,211.07401,-770,43059,28.7162,9950,3072
1.17594,217.45691,-769,43060,28.6665,9950,3072
1.21581,226.54819,-768,43061,28.7162,9950,3072
1.57466,233.01227,-767,43062,28.6665,9950,3072
1.58973,237.4068,-766,43063,28.6665,9950,3072
1.61945,243.4277,-765,43064,28.6665,9950,3072
2.29856,250.40525,-764,43065,28.6665,9950,3072
1.65152,257.61374,-763,43066,28.7162,9950,3072
1.90617,263.3395,-762,43067,28.9154,9945,3153
2.12837,268.3088,-761,43068,28.766,9945,3153
2.84044,277.1987,-760,43069,28.4175,9945,3153
2.0156,289.74064,-759,43070,28.5171,9945,3153
1.61355,302.71011,-758,43071,28.766,9945,3153
1.20399,313.32522,-757,43072,28.5171,9945,3153
1.85804,322.6979,-756,43073,28.7162,9945,3153
0.601994,327.89431,-755,43074,28.6665,9945,3153
0.625305,328.42364,-754,43075,28.6665,9945,3153
1.20794,324.53584,-753,43076,28.5171,9945,3153
1.92112,320.18496,-752,43077,28.6665,9955,3209
1.67161,322.4072,-751,43078,28.6665,9955,3209
2.05543,333.61821,-750,43079,28.766,9955,3209
2.41391,351.66686,-749,43080,28.6665,9955,3209
1.74146,372.23888,-748,43081,28.7162,9955,3209
2.10585,388.28801,-747,43082,28.6665,9955,3209
1.92856,393.00002,-746,43083,28.7162,9955,3209
1.67446,386.19277,-745,43084,28.7162,9955,3209
1.21581,372.67627,-744,43085,28.6665,9955,3209
1.32827,358.10046,-743,43086,28.6665,9955,3209
1.31383,347.92525,-742,43087,28.6665,9967,3242
1.71386,344.73739,-741,43088,28.6665,9967,3242
1.36019,347.30497,-740,43089,28.6665,9967,3242
0.921287,354.495,-739,43090,28.766,9967,3242
1.22752,364.29289,-738,43091,28.6665,9967,3242
1.25442,372.97461,-737,43092,28.6665,9967,3242
1.21581,374.94407,-736,43093,28.6665,9967,3242
0.921287,368.1413,-735,43094,28.5171,9967,3242
1.11773,351.50515,-734,43095,28.5669,9967,3242
1.14304,324.80706,-733,43096,28.4175,9967,3242
0.840071,291.99803,-732,43097,28.4175,9984,3256
1.13045,260.31782,-731,43098,28.6665,9984,3256
1.39481,233.51949,-730,43099,28.6665,9984,3256
1.47458,213.27797,-729,43100,28.5171,9984,3256
1.84516,203.21096,-728,43101,28.7162,9984,3256
1.45505,203.65144,-727,43102,28.6665,9984,3256
1.68298,201.52419,-726,43103,28.4175,9984,3256
1.38107,178.69105,-725,43104,28.5669,9984,3256
0.966748,139.24606,-724,43105,28.8656,9984,3256
0.941763,108.54378,-723,43106,28.6665,9984,3256
0.768946,104.48541,-722,43107,28.5171,10035,3251
1.31383,120.67989,-721,43108,28.9154,10035,3251
1.51917,135.67038,-720,43109,28.9154,10035,3251
1.57163,134.53865,-719,43110,28.7162,10035,3251
1.77132,125.87989,-718,43111,28.6665,10035,3251
0.811194,125.37394,-717,43112,28.766,10035,3251
0.921287,136.52515,-716,43113,28.5171,10035,3251
0.793363,152.71513,-715,43114,28.5669,10035,3251
2.66729,164.36209,-714,43115,28.9652,10035,3251
1.25061,169.13973,-713,43116,28.6665,10035,3251
1.45505,172.15784,-712,43117,28.6665,10037,3233
1.36019,178.22692,-711,43118,28.7162,10037,3233
0.655098,187.80882,-710,43119,28.6665,10037,3233
0.966748,194.53389,-709,43120,28.6665,10037,3233
0.750112,197.89138,-708,43121,28.6665,10037,3233
0.436732,201.67885,-707,43122,28.766,10037,3233
0.889691,210.13935,-706,43123,28.7162,10037,3233
2.14399,215.97761,-705,43124,28.6665,10037,3233
1.66875,219.01217,-704,43125,28.6665,10037,3233
1.27328,224.92961,-703,43126,28.5669,10037,3233
0.577742,234.65026,-702,43127,28.766,9999,3193
1.12198,244.38797,-701,43128,28.766,9999,3193
2.40203,251.08905,-700,43129,28.7162,9999,3193
2.0693,256.35713,-699,43130,28.6665,9999,3193
1.98461,261.70674,-698,43131,28.5669,9999,3193
1.97739,267.48536,-697,43132,28.4175,9999,3193
1.61059,272.12137,-696,43133,28.6665,9999,3193
1.57163,270.40671,-695,43134,28.6665,9999,3193
2.24609,259.92103,-694,43135,28.6665,9999,3193
2.04146,247.33979,-693,43136,28.6665,9999,3193
2.33151,242.13058,-692,43137,28.6665,9975,3148
2.58005,245.93151,-691,43138,28.6665,9975,3148
1.95556,254.34957,-690,43139,28.6665,9975,3148
2.43358,259.68938,-689,43140,28.4175,9975,3148
2.02269,263.36839,-688,43141,28.766,9975,3148
2.3539,269.70606,-687,43142,28.5669,9975,3148
2.76903,276.52946,-686,43143,28.766,9975,3148
2.45115,275.68279,-685,43144,28.6665,9975,3148
1.63702,260.46352,-684,43145,28.6665,9975,3148
2.79133,235.89598,-683,43146,28.5171,9975,3148
2.25034,214.16735,-682,43147,28.7162,9959,3105
2.50313,202.36832,-681,43148,28.9154,9959,3105
2.14622,190.10851,-680,43149,28.766,9959,3105
2.65833,173.57716,-679,43150,28.766,9959,3105
1.91864,157.82615,-678,43151,28.6665,9959,3105
3.75056,143.36362,-677,43152,28.5669,9959,3105
2.95723,130.94549,-676,43153,28.7162,9959,3105
2.05078,120.78554,-675,43154,28.8656,9959,3105
2.49167,115.43231,-674,43155,28.5669,9959,3105
1.96287,116.65152,-673,43156,28.766,9959,3105
1.66016,116.01497,-672,43157,28.7162,9950,3070
2.0716,112.71116,-671,43158,28.5669,9950,3070
2.8236,112.31729,-670,43159,28.766,9950,3070
2.09677,114.63624,-669,43160,28.766,9950,3070
2.43358,117.02125,-668,43161,28.6665,9950,3070
1.21581,116.95495,-667,43162,28.5171,9950,3070
2.95561,113.78112,-666,43163,28.6665,9950,3070
2.09677,113.85247,-665,43164,28.6665,9950,3070
2.09677,120.77505,-664,43165,28.5171,9950,3070
2.04146,133.26171,-663,43166,28.5171,9950,3070
2.52588,147.72424,-662,43167,28.6665,9950,3048
1.98461,160.98714,-661,43168,28.7162,9950,3048
3.15839,171.2857,-660,43169,28.4175,9950,3048
1.82698,179.6693,-659,43170,28.6665,9950,3048
1.958,187.75374,-658,43171,28.7162,9950,3048
1.09619,195.63031,-657,43172,28.5669,9950,3048
2.21832,202.44838,-656,43173,28.6665,9950,3048
2.14177,208.62531,-655,43174,28.5669,9950,3048
2.09677,215.09988,-654,43175,28.5171,9950,3048
1.88099,222.18299,-653,43176,28.5669,9950,3048
1.99897,227.21204,-652,43177,28.5669,9910,3040
0.817051,231.72904,-651,43178,28.7162,9910,3040
1.73323,237.52101,-650,43179,28.9652,9910,3040
1.95556,244.92467,-649,43180,28.6665,9910,3040
2.59295,253.51347,-648,43181,28.5171,9910,3040
2.20323,260.97896,-647,43182,28.6665,9910,3040
1.66303,266.96389,-646,43183,28.5171,9910,3040
1.94824,272.13199,-645,43184,28.5669,9910,3040
2.11263,278.40663,-644,43185,28.7162,9910,3040
1.88858,285.48125,-643,43186,28.766,9910,3040
1.69708,292.5664,-642,43187,28.6665,9950,3047
1.19604,297.33938,-641,43188,28.6665,9950,3047
1.73872,305.93687,-640,43189,28.6665,9950,3047
1.89865,318.39003,-639,43190,28.6665,9950,3047
1.89865,329.30738,-638,43191,28.6665,9950,3047
1.4118,338.49878,-637,43192,28.7162,9950,3047
1.54408,347.78629,-636,43193,28.6665,9950,3047
1.68863,353.29616,-635,43194,28.6665,9950,3047
0.717624,354.28542,-634,43195,28.6665,9950,3047
0.768946,353.03142,-633,43196,28.5669,9950,3047
0.569429,348.76482,-632,43197,28.7162,9957,3163
1.15548,340.44579,-631,43198,28.6665,9957,3163
1.86572,330.70055,-630,43199,28.5669,9957,3163
2.23759,320.61616,-629,43200,28.7162,9957,3163
2.05078,313.97669,-628,43201,28.7162,9957,3163
1.47781,312.22658,-627,43202,28.766,9957,3163
1.04268,309.6131,-626,43203,28.6665,9957,3163
1.958,301.51995,-625,43204,28.5669,9957,3163
0.737289,291.73543,-624,43205,28.7162,9957,3163
1.48103,283.16919,-623,43206,28.5171,9957,3163
2.03678,273.48417,-622,43207,28.7162,9968,3093
0.478416,262.08337,-621,43208,28.5669,9968,3093
1.46484,249.77489,-620,43209,28.6665,9968,3093
1.45505,235.47506,-619,43210,28.9652,9968,3093
1.25061,220.18361,-618,43211,28.4175,9968,3093
1.29923,204.5752,-617,43212,28.6665,9968,3093
1.38452,189.67209,-616,43213,28.5171,9968,3093
1.01487,175.43135,-615,43214,28.7162,9968,3093
1.01956,161.23511,-614,43215,28.6665,9968,3093
1.56555,147.92283,-613,43216,28.5171,9968,3093
0.768946,137.29362,-612,43217,28.7162,9980,3099
2.08994,129.10065,-611,43218,28.5171,9980,3099
1.3637,122.32353,-610,43219,28.7162,9980,3099
0.956832,117.65533,-609,43220,28.6665,9980,3099
1.80334,115.09528,-608,43221,28.6665,9980,3099
1.77132,114.57591,-607,43222,28.766,9980,3099
0.889691,115.32919,-606,43223,28.6665,9980,3099
1.01016,116.29566,-605,43224,28.6665,9980,3099
1.45505,115.20469,-604,43225,28.7162,9980,3099
1.36019,113.02472,-603,43226,28.6665,9980,3099
1.36019,111.41543,-602,43227,28.4175,9998,3104
0.625305,109.1015,-601,43228,28.5171,9998,3104
1.31383,104.88575,-600,43229,28.6665,9998,3104
1.17998,100.64429,-599,43230,28.6665,9998,3104
1.53789,97.722451,-598,43231,28.6665,9998,3104
1.15548,98.03789,-597,43232,28.766,9998,3104
0.402647,103.47171,-596,43233,28.6665,9998,3104
1.05631,110.32516,-595,43234,28.6665,9998,3104
1.46158,116.34101,-594,43235,28.5171,9998,3104
1.25061,122.68315,-593,43236,28.766,9998,3104
1.11773,130.54271,-592,43237,28.6665,10002,3088
0.889691,139.73175,-591,43238,28.7162,10002,3088
1.68298,145.43493,-590,43239,28.7162,10002,3088
1.24296,148.21573,-589,43240,28.5669,10002,3088
2.29856,155.68186,-588,43241,28.5669,10002,3088
1.3029,170.01244,-587,43242,28.5171,10002,3088
0.662337,185.08066,-586,43243,28.9154,10002,3088
1.82437,194.62357,-585,43244,28.5171,10002,3088
1.3637,199.30527,-584,43245,28.7162,10002,3088
2.02269,203.27584,-583,43246,28.5171,10002,3088
1.27328,206.86204,-582,43247,28.766,9997,3069
1.31383,205.1357,-581,43248,28.6665,9997,3069
0.78733,202.43726,-580,43249,28.7162,9997,3069
1.49066,202.71561,-579,43250,28.5669,9997,3069
1.4118,207.73835,-578,43251,28.4175,9997,3069
1.90116,229.66614,-577,43252,28.766,9997,3069
0.577742,255.95598,-576,43253,28.6665,9997,3069
1.49385,256.91544,-575,43254,28.5171,9997,3069
1.57769,242.62601,-574,43255,28.7162,9997,3069
1.07865,237.16826,-573,43256,28.5669,9997,3069
1.86827,242.48932,-572,43257,28.766,9994,3042
2.0156,247.45245,-571,43258,28.6665,9994,3042
1.69146,246.20363,-570,43259,28.7162,9994,3042
1.92608,244.65565,-569,43260,28.6665,9994,3042
1.3102,249.36494,-568,43261,28.9154,9994,3042
0.946812,257.14667,-567,43262,28.766,9994,3042
1.15135,264.61141,-566,43263,28.5171,9994,3042
1.88858,271.62787,-565,43264,28.6665,9994,3042
1.37415,275.2901,-564,43265,28.7162,9994,3042
1.33185,275.50169,-563,43266,28.6665,9994,3042
1.30655,271.87659,-562,43267,28.8656,9982,3014
2.87879,260.84041,-561,43268,28.5171,9982,3014
1.54717,252.93929,-560,43269,28.6665,9982,3014
1.54717,255.42763,-559,43270,28.6665,9982,3014
1.54717,263.74482,-558,43271,28.9154,9982,3014
1.87592,267.61101,-557,43272,28.5669,9982,3014
1.48103,266.23877,-556,43273,28.5669,9982,3014
1.17998,263.89095,-555,43274,28.6665,9982,3014
2.9443,265.81749,-554,43275,28.5669,9982,3014
2.10358,269.52224,-553,43276,28.6665,9982,3014
0.710948,273.92654,-552,43277,28.5171,9966,2958
2.45504,277.57375,-551,43278,28.5669,9966,2958
2.08079,279.15324,-550,43279,28.6665,9966,2958
2.31715,279.85276,-549,43280,28.6665,9966,2958
2.03444,278.47331,-548,43281,28.766,9966,2958
1.60168,282.41483,-547,43282,28.5669,9966,2958
1.63702,299.43671,-546,43283,28.6665,9966,2958
1.54717,321.90849,-545,43284,28.6665,9966,2958
2.04146,334.53524,-544,43285,28.6665,9966,2958
1.47134,332.87222,-543,43286,28.6665,9966,2958
2.7028,323.66365,-542,43287,28.766,9963,2915
1.97498,307.3946,-541,43288,28.6665,9963,2915
1.64863,283.48464,-540,43289,28.6665,9963,2915
2.72214,257.88272,-539,43290,28.5171,9963,2915
2.93131,237.82947,-538,43291,28.6665,9963,2915
1.92608,231.85073,-537,43292,28.6665,9963,2915
1.27702,236.62999,-536,43293,28.766,9963,2915
1.48103,232.37016,-535,43294,28.5669,9963,2915
2.38409,214.20752,-534,43295,28.7162,9963,2915
2.19889,196.98363,-533,43296,28.9652,9963,2915
2.05078,184.79599,-532,43297,28.5669,9958,2897
2.96206,186.1824,-531,43298,28.5669,9958,2897
2.43358,205.72006,-530,43299,28.6665,9958,2897
1.96287,228.49153,-529,43300,28.6665,9958,2897
1.21188,239.49253,-528,43301,28.7162,9958,2897
2.34782,235.28393,-527,43302,28.5669,9958,2897
1.79804,212.50699,-526,43303,28.9154,9958,2897
2.61493,183.27373,-525,43304,28.6665,9958,2897
1.9335,171.80498,-524,43305,28.4175,9958,2897
1.81388,179.3809,-523,43306,28.766,9958,2897
1.57769,188.28854,-522,43307,28.766,9956,2893
1.62826,189.06682,-521,43308,28.6665,9956,2893
1.34255,189.06536,-520,43309,28.6665,9956,2893
1.88099,186.20349,-519,43310,28.9154,9956,2893
1.51603,166.31792,-518,43311,28.6665,9956,2893
2.26301,140.85803,-517,43312,28.7162,9956,2893
2.12837,128.10778,-516,43313,28.5669,9956,2893
2.02269,143.59667,-515,43314,28.6665,9956,2893
1.84257,180.90598,-514,43315,28.7162,9956,2893
2.22905,205.7088,-513,43316,28.766,9956,2893
2.51263,209.15899,-512,43317,28.6665,9959,2912
1.74966,199.29481,-511,43318,28.6665,9959,2912
1.92856,179.24969,-510,43319,28.766,9959,2912
1.30655,148.11214,-509,43320,28.7162,9959,2912
2.1771,124.14167,-508,43321,28.6665,9959,2912
2.27981,115.21304,-507,43322,28.6665,9959,2912
2.09677,119.71924,-506,43323,28.6665,9959,2912
1.5034,120.02305,-505,43324,28.6665,9959,2912
1.69708,99.419282,-504,43325,28.766,9959,2912
1.5034,78.979492,-503,43326,28.9154,9959,2912
1.63702,96.620561,-502,43327,28.6665,9954,2920
1.89865,141.69866,-501,43328,28.9154,9954,2920
1.82698,190.96234,-500,43329,28.6665,9954,2920
1.88858,231.04379,-499,43330,28.6665,9954,2920
1.69427,246.32014,-498,43331,28.6665,9954,2920
1.42859,242.02938,-497,43332,28.6665,9954,2920
1.83479,224.11571,-496,43333,28.7162,9954,2920
1.47781,195.72478,-495,43334,28.766,9954,2920
2.25668,159.90689,-494,43335,28.7162,9954,2920
1.55638,132.35045,-493,43336,28.6665,9954,2920
1.88858,128.98264,-492,43337,28.766,9964,2920
2.03444,145.49358,-491,43338,28.5669,9964,2920
2.30684,163.46765,-490,43339,28.6665,9964,2920
1.94824,172.46691,-489,43340,28.6665,9964,2920
1.84516,179.32665,-488,43341,28.7162,9964,2920
0.889691,188.62937,-487,43342,28.5171,9964,2920
1.41517,196.21329,-486,43343,28.6665,9964,2920
1.78206,199.67159,-485,43344,28.9652,9964,2920
1.45505,201.48843,-484,43345,28.6665,9964,2920
1.38107,203.11964,-483,43346,28.7162,9964,2920
1.79804,202.5706,-482,43347,28.766,9964,2929
2.06237,203.86579,-481,43348,28.7162,9964,2929
1.54717,208.06733,-480,43349,28.5171,9964,2929
1.31383,212.91481,-479,43350,28.7162,9964,2929
1.08306,218.59985,-478,43351,28.8656,9964,2929
1.88099,226.58121,-477,43352,28.766,9964,2929
1.83479,234.81626,-476,43353,28.7162,9964,2929
3.28276,240.39937,-475,43354,28.7162,9964,2929
2.32946,240.49035,-474,43355,28.6665,9964,2929
1.98701,238.98253,-473,43356,28.766,9964,2929
1.33185,240.04586,-472,43357,28.6665,9978,2958
1.28447,248.91765,-471,43358,28.6665,9978,2958
1.91615,266.63423,-470,43359,28.766,9978,2958
2.45115,282.61914,-469,43360,28.9154,9978,2958
2.30063,289.46032,-468,43361,28.7162,9978,2958
2.51263,289.11049,-467,43362,28.9154,9978,2958
2.75176,286.88669,-466,43363,28.7162,9978,2958
1.87846,284.10485,-465,43364,28.6665,9978,2958
1.56859,282.16333,-464,43365,28.7162,9978,2958
2.06237,281.96482,-463,43366,28.5669,9978,2958
1.92856,282.45171,-462,43367,28.6665,9997,2972
2.89366,283.04002,-461,43368,28.766,9997,2972
3.24771,282.87656,-460,43369,28.5669,9997,2972
1.0381,282.68,-459,43370,28.766,9997,2972
0.710948,285.46596,-458,43371,28.6665,9997,2972
1.90867,294.59636,-457,43372,28.766,9997,2972
1.67161,311.36387,-456,43373,28.7162,9997,2972
1.07865,334.4128,-455,43374,28.8656,9997,2972
1.47781,359.82891,-454,43375,28.7162,9997,2972
0.632885,382.58676,-453,43376,28.5171,9997,2972
0.308816,398.34465,-452,43377,28.5669,10013,2987
1.05631,407.26559,-451,43378,28.6665,10013,2987
0.690534,412.46433,-450,43379,28.8656,10013,2987
0.632885,415.09516,-449,43380,28.6665,10013,2987
1.02423,416.70217,-448,43381,28.5171,10013,2987
0.889691,420.49213,-447,43382,28.7162,10013,2987
1.54717,433.41133,-446,43383,28.7162,10013,2987
0.862477,448.52349,-445,43384,28.6665,10013,2987
2.55404,450.80436,-444,43385,28.766,10013,2987
2.30684,447.58353,-443,43386,28.766,10013,2987
0.811194,456.18037,-442,43387,28.6665,9987,2978
1.28447,476.59136,-441,43388,28.5171,9987,2978
1.73872,495.7389,-440,43389,28.5669,9987,2978
1.07422,505.44925,-439,43390,28.6665,9987,2978
2.36602,510.11754,-438,43391,28.6665,9987,2978
1.93596,514.02861,-437,43392,28.766,9987,2978
2.27981,515.84137,-436,43393,28.6665,9987,2978
2.4974,520.72159,-435,43394,28.7162,9987,2978
2.57264,527.93154,-434,43395,28.6665,9987,2978
2.67264,531.84465,-433,43396,28.6665,9987,2978
1.94824,525.58016,-432,43397,28.766,9966,2938
1.70549,507.83107,-431,43398,28.9652,9966,2938
1.99897,482.60831,-430,43399,28.6665,9966,2938
2.44336,459.46111,-429,43400,28.9154,9966,2938
3.03364,442.69822,-428,43401,28.6665,9966,2938
1.80598,432.25322,-427,43402,28.5669,9966,2938
2.13284,420.76686,-426,43403,28.6665,9966,2938
2.51073,396.26092,-425,43404,28.6665,9966,2938
2.79474,354.3296,-424,43405,28.6665,9966,2938
1.97739,305.09086,-423,43406,28.6665,9966,2938
2.3539,258.99146,-422,43407,28.6665,9964,2907
2.08079,221.45392,-421,43408,28.9154,9964,2907
3.03364,196.55784,-420,43409,28.7162,9964,2907
2.56336,186.32941,-419,43410,28.7162,9964,2907
2.50693,183.27165,-418,43411,28.6665,9964,2907
2.78277,176.97341,-417,43412,28.6665,9964,2907
2.57264,167.13927,-416,43413,28.5171,9964,2907
2.85884,166.47227,-415,43414,28.6665,9964,2907
2.86551,185.10923,-414,43415,28.6665,9964,2907
2.50313,227.24735,-413,43416,28.766,9964,2907
2.46473,285.12602,-412,43417,28.7162,9958,2850
2.0716,339.94794,-411,43418,28.766,9958,2850
2.9717,370.51557,-410,43419,28.6665,9958,2850
3.87438,371.23035,-409,43420,28.7162,9958,2850
2.87382,348.27623,-408,43421,28.7162,9958,2850
2.954,296.04512,-407,43422,28.766,9958,2850
2.64033,202.82617,-406,43423,28.6665,9958,2850
1.84257,112.10562,-405,43424,28.9652,9958,2850
3.28712,123.38308,-404,43425,28.6665,9958,2850
2.59479,184.88866,-403,43426,28.9652,9958,2850
2.0716,230.01332,-402,43427,28.6665,9960,2865
2.27352,249.05961,-401,43428,28.6665,9960,2865
3.06336,247.3137,-400,43429,28.6665,9960,2865
2.75868,234.28588,-399,43430,28.766,9960,2865
1.76863,236.07215,-398,43431,28.5669,9960,2865
1.80598,256.54737,-397,43432,28.6665,9960,2865
3.02892,265.64632,-396,43433,28.6665,9960,2865
1.51917,256.68281,-395,43434,28.9154,9960,2865
2.12613,249.14697,-394,43435,28.5669,9960,2865
1.92112,249.37594,-393,43436,28.6665,9960,2865
2.22047,252.99487,-392,43437,28.5171,9964,2919
2.5819,249.52611,-391,43438,28.766,9964,2919
2.5353,230.81162,-390,43439,28.6665,9964,2919
2.4277,194.21732,-389,43440,28.7162,9964,2919
3.18844,146.36862,-388,43441,28.766,9964,2919
3.93665,125.34999,-387,43442,28.766,9964,2919
3.99675,186.22717,-386,43443,28.7162,9964,2919
2.54094,291.94914,-385,43444,28.7162,9964,2919
3.48566,397.19862,-384,43445,28.5171,9964,2919
4.13975,482.77111,-383,43446,28.766,9964,2919
3.45129,543.94471,-382,43447,28.7162,9967,2991
2.71688,572.99048,-381,43448,28.9154,9967,2991
3.91844,560.58199,-380,43449,28.7162,9967,2991
3.71222,506.09948,-379,43450,28.5171,9967,2991
3.05244,420.87472,-378,43451,28.6665,9967,2991
2.09677,323.35338,-377,43452,28.6665,9967,2991
1.96529,241.56685,-376,43453,28.6665,9967,2991
1.02423,223.32282,-375,43454,28.6665,9967,2991
1.64863,277.80116,-374,43455,28.5669,9967,2991
1.63702,352.72658,-373,43456,28.766,9967,2991
1.41517,408.46764,-372,43457,28.8656,9972,3070
1.16371,429.63941,-371,43458,28.5669,9972,3070
1.09619,421.09074,-370,43459,28.6665,9972,3070
1.02423,397.81747,-369,43460,28.6665,9972,3070
1.76052,375.56673,-368,43461,28.766,9972,3070
1.05631,361.61376,-367,43462,28.9154,9972,3070
1.81388,345.92205,-366,43463,28.7162,9972,3070
1.80598,338.28514,-365,43464,28.5669,9972,3070
0.946812,363.52976,-364,43465,28.9154,9972,3070
1.0381,412.53326,-363,43466,28.6665,9972,3070
1.54408,445.10172,-362,43467,28.6665,9997,3145
1.85804,441.60978,-361,43468,28.5669,9997,3145
1.3637,415.6956,-360,43469,28.5669,9997,3145
1.40842,384.40376,-359,43470,28.6665,9997,3145
0.793363,353.00364,-358,43471,28.9652,9997,3145
1.13045,322.66437,-357,43472,28.6665,9997,3145
1.27328,302.58936,-356,43473,28.7162,9997,3145
1.09619,297.14143,-355,43474,28.6665,9997,3145
0.976563,301.54112,-354,43475,28.6665,9997,3145
1.1596,308.2091,-353,43476,28.7162,9997,3145
1.34255,314.55798,-352,43477,28.7162,10001,3272
1.62532,330.45297,-351,43478,28.5171,10001,3272
1.49385,365.88717,-350,43479,28.6665,10001,3272
1.57769,403.39634,-349,43480,28.9154,10001,3272
1.1596,403.50022,-348,43481,28.766,10001,3272
0.690534,370.79721,-347,43482,28.5669,10001,3272
1.55638,318.71161,-346,43483,28.6665,10001,3272
1.07422,310.48125,-345,43484,28.6665,10001,3272
1.66016,378.27337,-344,43485,28.6665,10001,3272
2.41193,415.09762,-343,43486,28.7162,10001,3272
3.47881,395.41124,-342,43487,28.5669,9982,3373
3.36737,370.58355,-341,43488,28.6665,9982,3373
3.85711,363.92665,-340,43489,28.6665,9982,3373
4.48581,349.62887,-339,43490,28.766,9982,3373
4.51865,310.22207,-338,43491,28.7162,9982,3373
5.33278,255.62369,-337,43492,28.7162,9982,3373
5.18407,201.96119,-336,43493,28.5669,9982,3373
5.30769,163.16039,-335,43494,28.6665,9982,3373
5.53807,139.24949,-334,43495,28.766,9982,3373
3.66699,121.54213,-333,43496,28.6665,9982,3373
4.88379,106.16195,-332,43497,28.7162,9974,3495
3.24771,109.06735,-331,43498,28.6665,9974,3495
3.21673,124.64174,-330,43499,28.5669,9974,3495
1.10916,136.23457,-329,43500,28.7162,9974,3495
1.62826,142.57839,-328,43501,28.5171,9974,3495
1.20794,154.73422,-327,43502,28.7162,9974,3495
1.99659,159.84169,-326,43503,28.7162,9974,3495
2.05078,143.71808,-325,43504,28.766,9974,3495
1.61059,122.33991,-324,43505,28.6665,9974,3495
1.43857,122.41796,-323,43506,28.6665,9974,3495
1.60168,123.79049,-322,43507,28.766,9982,3479
1.54099,108.14079,-321,43508,28.766,9982,3479
2.71161,83.891795,-320,43509,28.6665,9982,3479
1.52231,62.106563,-319,43510,28.766,9982,3479
1.94333,50.273114,-318,43511,28.6665,9982,3479
1.33543,63.430652,-317,43512,28.7162,9982,3479
1.17188,96.159412,-316,43513,28.766,9982,3479
1.88099,137.65494,-315,43514,28.7162,9982,3479
1.68298,177.01614,-314,43515,28.766,9982,3479
1.54099,195.52441,-313,43516,28.7162,9982,3479
2.29024,173.26783,-312,43517,28.6665,9983,3471
1.45176,126.58974,-311,43518,28.9652,9983,3471
1.77132,95.943538,-310,43519,28.6665,9983,3471
1.43525,106.72101,-309,43520,28.8656,9983,3471
3.27695,143.71513,-308,43521,28.7162,9983,3471
1.77132,187.6484,-307,43522,28.5171,9983,3471
1.83739,239.22128,-306,43523,28.9154,9983,3471
2.74134,292.80007,-305,43524,28.6665,9983,3471
2.76386,333.69491,-304,43525,28.9652,9983,3471
2.25457,351.83623,-303,43526,28.4175,9983,3471
1.62826,353.89723,-302,43527,28.6665,9982,3507
1.90617,348.45128,-301,43528,28.766,9982,3507
2.3539,339.37887,-300,43529,28.6665,9982,3507
2.08079,322.16842,-299,43530,28.6665,9982,3507
2.14399,290.26826,-298,43531,28.5669,9982,3507
2.4277,236.07104,-297,43532,28.6665,9982,3507
2.82529,159.31827,-296,43533,28.5171,9982,3507
2.8236,74.814663,-295,43534,28.6665,9982,3507
2.43358,99.277767,-294,43535,28.6665,9982,3507
2.9909,212.80318,-293,43536,28.4175,9982,3507
3.11277,320.95851,-292,43537,28.6665,9978,3496
2.15287,388.2287,-291,43538,28.6665,9978,3496
2.44921,389.77747,-290,43539,28.9652,9978,3496
2.18584,336.24597,-289,43540,28.766,9978,3496
2.46473,269.15997,-288,43541,28.7162,9978,3496
2.81345,235.06993,-287,43542,28.5171,9978,3496
2.20323,221.94924,-286,43543,28.6665,9978,3496
1.45505,250.87781,-285,43544,28.766,9978,3496
2.39606,333.25448,-284,43545,28.6665,9978,3496
1.49385,403.87261,-283,43546,28.6665,9978,3496
1.43525,433.28594,-282,43547,28.7162,9974,3528
1.54717,442.12131,-281,43548,28.6665,9974,3528
1.60168,440.2369,-280,43549,28.6665,9974,3528
2.19672,422.86189,-279,43550,28.6665,9974,3528
0.889691,391.08223,-278,43551,28.7162,9974,3528
0.768946,358.85844,-277,43552,28.5669,9974,3528
1.82698,339.82768,-276,43553,28.6665,9974,3528
0.981433,329.05578,-275,43554,28.6665,9974,3528
1.7767,316.34194,-274,43555,28.6665,9974,3528
1.62239,304.78811,-273,43556,28.5171,9974,3528
1.22752,300.86197,-272,43557,28.766,9978,3511
2.79474,305.95345,-271,43558,28.6665,9978,3511
2.30684,314.81976,-270,43559,28.7162,9978,3511
1.4118,322.24576,-269,43560,28.6665,9978,3511
2.36199,327.9046,-268,43561,28.6665,9978,3511
2.13284,333.24703,-267,43562,28.5171,9978,3511
2.04379,343.21056,-266,43563,28.6665,9978,3511
2.24822,357.30516,-265,43564,28.7162,9978,3511
2.51832,367.53068,-264,43565,28.5669,9978,3511
2.19672,369.92769,-263,43566,28.6665,9978,3511
2.31303,370.59331,-262,43567,28.766,9982,3511
2.30684,374.46371,-261,43568,28.4175,9982,3511
2.21187,382.54997,-260,43569,28.7162,9982,3511
3.00997,392.49434,-259,43570,28.5171,9982,3511
1.94333,401.64674,-258,43571,28.7162,9982,3511
2.17052,412.73633,-257,43572,28.6665,9982,3511
1.25821,431.37053,-256,43573,28.7162,9982,3511
1.94824,457.74259,-255,43574,28.6665,9982,3511
1.95556,482.25222,-254,43575,28.6665,9982,3511
1.63702,497.04468,-253,43576,28.766,9982,3511
2.12613,503.35693,-252,43577,28.6665,9994,3504
1.43525,507.64479,-251,43578,28.5669,9994,3504
2.24397,511.36857,-250,43579,28.6665,9994,3504
1.45505,514.76695,-249,43580,28.766,9994,3504
1.61355,521.12085,-248,43581,28.7162,9994,3504
1.49066,529.79971,-247,43582,28.7162,9994,3504
1.19205,538.97209,-246,43583,28.9154,9994,3504
2.11263,545.90205,-245,43584,28.5171,9994,3504
1.73047,549.62321,-244,43585,28.7162,9994,3504
3.06336,550.93656,-243,43586,28.6665,9994,3504
2.41983,552.26765,-242,43587,28.9154,10019,3532
2.17052,552.74361,-241,43588,28.6665,10019,3532
2.71512,550.68808,-240,43589,28.766,10019,3532
2.28816,545.20245,-239,43590,28.7162,10019,3532
3.14477,536.79148,-238,43591,28.6665,10019,3532
2.36602,527.09347,-237,43592,28.6665,10019,3532
1.70549,518.83602,-236,43593,28.4175,10019,3532
2.63672,508.86236,-235,43594,28.7162,10019,3532
2.54094,498.45028,-234,43595,28.9652,10019,3532
2.7028,489.73978,-233,43596,28.3678,10019,3532
2.57635,481.95496,-232,43597,28.6665,10053,3606
2.82529,474.6443,-231,43598,28.7162,10053,3606
2.3539,470.3933,-230,43599,28.9154,10053,3606
1.79539,470.29813,-229,43600,28.7162,10053,3606
2.62403,472.11929,-228,43601,28.6665,10053,3606
2.5353,475.19978,-227,43602,28.6665,10053,3606
1.59273,480.29059,-226,43603,28.766,10053,3606
2.01324,486.6173,-225,43604,28.7162,10053,3606
0.873464,491.82288,-224,43605,28.766,10053,3606
1.48103,493.34251,-223,43606,28.6665,10053,3606
1.33185,492.36715,-222,43607,28.6665,10161,3711
1.1472,490.36547,-221,43608,28.5669,10161,3711
5.99533,438.12557,-220,43609,28.6665,10161,3711
9.29018,345.33126,-219,43610,28.8656,10161,3711
4.22187,446.31863,-218,43611,28.766,10161,3711
1.19205,517.53678,-217,43612,28.7162,10161,3711
1.92112,385.65939,-216,43613,28.766,10161,3711
1.86827,281.31784,-215,43614,28.9154,10161,3711
2.12613,325.30753,-214,43615,28.766,10161,3711
1.31745,352.74685,-213,43616,28.6665,10161,3711
1.37415,378.48697,-212,43617,28.7162,10191,3829
1.67446,431.19226,-211,43618,28.766,10191,3829
1.57769,480.37871,-210,43619,28.766,10191,3829
1.40163,505.0918,-209,43620,28.6665,10191,3829
1.24296,498.09304,-208,43621,28.766,10191,3829
2.1771,465.97171,-207,43622,28.6665,10191,3829
1.67161,420.04049,-206,43623,28.9652,10191,3829
1.86827,410.29579,-205,43624,28.766,10191,3829
1.37067,420.3862,-204,43625,28.7162,10191,3829
1.10916,414.36185,-203,43626,28.6665,10191,3829
1.05631,404.98266,-202,43627,28.7162,10177,3933
2.13954,384.89675,-201,43628,28.5171,10177,3933
1.60466,369.39542,-200,43629,28.5669,10177,3933
2.11714,364.26968,-199,43630,28.9154,10177,3933
1.73872,343.07765,-198,43631,28.6665,10177,3933
2.68155,312.98016,-197,43632,28.6665,10177,3933
1.93842,301.61366,-196,43633,28.5171,10177,3933
1.66589,314.41059,-195,43634,28.7162,10177,3933
2.19238,341.38737,-194,43635,28.7162,10177,3933
1.23912,357.2021,-193,43636,28.5669,10177,3933
2.17052,355.5899,-192,43637,28.8656,10152,3933
1.4118,358.21306,-191,43638,28.766,10152,3933
1.76052,372.11168,-190,43639,28.9154,10152,3933
1.60466,384.26226,-189,43640,28.5171,10152,3933
2.31303,390.48715,-188,43641,28.6665,10152,3933
1.74966,393.93505,-187,43642,28.9154,10152,3933
1.54099,388.5219,-186,43643,28.9652,10152,3933
1.31383,361.48468,-185,43644,28.6665,10152,3933
1.47134,313.1178,-184,43645,28.6665,10152,3933
1.39139,279.76582,-183,43646,28.7162,10152,3933
1.1596,291.86629,-182,43647,28.766,10152,4040
1.3029,293.89251,-181,43648,28.7162,10152,4040
1.9335,300.84659,-180,43649,28.6665,10152,4040
0.138107,300.85449,-179,43650,28.766,10152,4040
1.64863,301.83489,-178,43651,28.6665,10152,4040
0.76272,306.44614,-177,43652,28.6665,10152,4040
0.966748,321.03039,-176,43653,28.5669,10152,4040
0.497951,328.8646,-175,43654,28.766,10152,4040
1.47134,313.68985,-174,43655,28.7162,10152,4040
0.717624,289.33855,-173,43656,28.7162,10152,4040
0.878906,275.8392,-172,43657,28.6665,10203,4132
0.625305,277.01573,-171,43658,28.766,10203,4132
2.02975,286.67152,-170,43659,28.5669,10203,4132
0.662337,288.6425,-169,43660,28.766,10203,4132
0.895034,275.91266,-168,43661,28.766,10203,4132
1.12198,256.64374,-167,43662,28.6665,10203,4132
0.946812,246.75076,-166,43663,28.766,10203,4132
0.690534,246.81232,-165,43664,28.8656,10203,4132
0.425674,246.22829,-164,43665,28.6665,10203,4132
0.585938,238.79749,-163,43666,28.6665,10203,4132
0.793363,230.75422,-162,43667,28.5171,10174,4206
0.323889,230.29715,-161,43668,28.5669,10174,4206
0.921287,233.38813,-160,43669,28.7162,10174,4206
1.17998,231.08636,-159,43670,28.5669,10174,4206
0.577742,218.02551,-158,43671,28.7162,10174,4206
1.09619,202.3424,-157,43672,28.7162,10174,4206
0.601994,200.24157,-156,43673,28.766,10174,4206
0.941763,218.06931,-155,43674,28.5669,10174,4206
0.840071,240.91466,-154,43675,28.7162,10174,4206
1.28447,243.95345,-153,43676,28.7162,10174,4206
1.97256,222.58881,-152,43677,28.6665,10119,4269
1.57163,186.86449,-151,43678,28.6665,10119,4269
1.67446,143.7852,-150,43679,28.6665,10119,4269
1.17594,98.866253,-149,43680,28.766,10119,4269
1.00068,66.653632,-148,43681,28.6665,10119,4269
1.39822,66.788192,-147,43682,28.6665,10119,4269
1.08306,91.439383,-146,43683,28.6665,10119,4269
1.84516,121.29601,-145,43684,28.7162,10119,4269
1.56555,154.93632,-144,43685,28.766,10119,4269
1.33185,187.59173,-143,43686,28.9154,10119,4269
2.50693,208.57623,-142,43687,28.7162,10089,4289
3.22266,212.24261,-141,43688,28.6665,10089,4289
2.35593,201.45914,-140,43689,28.6665,10089,4289
1.63993,185.94791,-139,43690,28.7162,10089,4289
1.91864,170.20695,-138,43691,28.7162,10089,4289
2.23332,156.03413,-137,43692,28.7162,10089,4289
2.19238,138.37649,-136,43693,28.6665,10089,4289
1.60466,116.71792,-135,43694,28.766,10089,4289
1.87846,108.07277,-134,43695,28.9652,10089,4289
1.92608,92.16058,-133,43696,28.766,10089,4289
1.67161,68.128906,-132,43697,28.766,10093,4309
1.56859,74.699352,-131,43698,28.6665,10093,4309
1.25821,96.286398,-130,43699,28.6665,10093,4309
0.710948,108.20561,-129,43700,28.9154,10093,4309
0.905627,103.93181,-128,43701,28.766,10093,4309
1.10916,83.858751,-127,43702,28.766,10093,4309
0.811194,61.494124,-126,43703,28.8656,10093,4309
0.497951,65.727014,-125,43704,28.766,10093,4309
1.18402,86.162014,-124,43705,28.6665,10093,4309
1.19205,103.80815,-123,43706,28.7162,10093,4309
0.905627,118.52336,-122,43707,28.9154,10164,4297
1.62239,131.91577,-121,43708,28.7162,10164,4297
1.04268,142.53658,-120,43709,28.7162,10164,4297
0.601994,151.74877,-119,43710,28.9154,10164,4297
1.77132,163.4903,-118,43711,28.6665,10164,4297
0.961803,180.45886,-117,43712,28.6665,10164,4297
1.72495,197.95243,-116,43713,28.7162,10164,4297
1.09619,212.69798,-115,43714,28.6665,10164,4297
1.00543,226.21213,-114,43715,28.6665,10164,4297
1.24296,243.03218,-113,43716,28.6665,10164,4297
0.625305,256.78804,-112,43717,28.766,10205,4290
0.625305,256.69311,-111,43718,28.5669,10205,4290
0.585938,243.57338,-110,43719,28.7162,10205,4290
1.23912,228.86103,-109,43720,28.6665,10205,4290
1.3461,221.55553,-108,43721,28.7162,10205,4290
0.981433,224.70771,-107,43722,28.5171,10205,4290
0.76272,237.93658,-106,43723,28.6665,10205,4290
1.10916,258.64876,-105,43724,28.6665,10205,4290
1.46484,279.41908,-104,43725,28.766,10205,4290
1.29556,294.59226,-103,43726,28.9154,10205,4290
1.56859,304.1273,-102,43727,28.6665,10139,4303
0.799351,307.77547,-101,43728,28.9652,10139,4303
2.0156,305.00239,-100,43729,28.9652,10139,4303
1.1596,297.54766,-99,43730,28.6665,10139,4303
1.42525,292.1847,-98,43731,28.7162,10139,4303
1.52856,291.68729,-97,43732,28.6665,10139,4303
0.768946,294.54947,-96,43733,28.6665,10139,4303
0.981433,296.40326,-95,43734,28.8656,10139,4303
0.632885,297.79668,-94,43735,28.6665,10139,4303
1.17998,299.75185,-93,43736,28.5669,10139,4303
1.68298,298.57834,-92,43737,28.6665,10073,4311
1.96529,295.87107,-91,43738,28.9154,10073,4311
1.9918,296.11196,-90,43739,28.7162,10073,4311
1.3637,300.77949,-89,43740,28.6665,10073,4311
1.22363,307.48373,-88,43741,28.6665,10073,4311
1.64863,317.51035,-87,43742,28.6665,10073,4311
1.54408,330.2187,-86,43743,28.7162,10073,4311
1.73872,345.81852,-85,43744,28.6665,10073,4311
1.15135,365.81874,-84,43745,28.5669,10073,4311
1.56555,385.29943,-83,43746,28.6665,10073,4311
1.68298,399.86935,-82,43747,28.7162,10028,4281
1.10916,409.68908,-81,43748,28.5171,10028,4281
1.02423,417.62882,-80,43749,28.766,10028,4281
1.89865,419.03753,-79,43750,28.8656,10028,4281
1.01956,413.96745,-78,43751,28.5171,10028,4281
0.488281,404.75929,-77,43752,28.9154,10028,4281
1.45505,391.02536,-76,43753,28.7162,10028,4281
1.44188,373.72478,-75,43754,28.9154,10028,4281
0.625305,356.91729,-74,43755,28.9652,10028,4281
1.48103,344.61913,-73,43756,28.6665,10028,4281
1.1596,337.88441,-72,43757,28.6665,10011,4200
1.52856,339.20282,-71,43758,28.5669,10011,4200
1.49066,346.11239,-70,43759,28.5669,10011,4200
0.793363,356.65033,-69,43760,28.5669,10011,4200
1.04268,370.13816,-68,43761,28.6665,10011,4200
1.31745,386.83404,-67,43762,28.7162,10011,4200
0.292969,409.44488,-66,43763,28.6665,10011,4200
0.895034,434.5897,-65,43764,28.7162,10011,4200
1.64863,458.91821,-64,43765,28.9154,10011,4200
0.981433,484.29365,-63,43766,28.6665,10011,4200
1.12198,514.28376,-62,43767,28.5669,10012,4063
1.11773,546.96374,-61,43768,28.4175,10012,4063
1.17998,576.01142,-60,43769,28.6665,10012,4063
1.67161,600.96238,-59,43770,28.7162,10012,4063
1.01016,625.9959,-58,43771,28.9652,10012,4063
1.28817,654.10543,-57,43772,28.766,10012,4063
3.35744,681.30432,-56,43773,28.9154,10012,4063
2.05543,704.69881,-55,43774,28.766,10012,4063
1.01016,729.98187,-54,43775,28.6665,10012,4063
1.88099,748.52711,-53,43776,28.4175,10012,4063
1.64863,755.99241,-52,43777,28.9652,10013,3841
1.3637,784.18472,-51,43778,28.5171,10013,3841
1.958,838.33666,-50,43779,28.766,10013,3841
1.96529,887.54339,-49,43780,28.766,10013,3841
1.09619,911.77855,-48,43781,28.5171,10013,3841
2.08994,915.9952,-47,43782,28.5171,10013,3841
2.32946,914.39654,-46,43783,28.6665,10013,3841
1.54717,922.45049,-45,43784,28.5171,10013,3841
1.09619,937.72665,-44,43785,28.7162,10013,3841
1.11773,949.76077,-43,43786,28.6665,10013,3841
2.77935,958.7009,-42,43787,28.766,10018,3673
2.18584,974.63092,-41,43788,28.6665,10018,3673
2.15287,998.44425,-40,43789,28.7162,10018,3673
3.03992,1022.7268,-39,43790,28.766,10018,3673
3.71736,1042.0333,-38,43791,28.6665,10018,3673
4.23765,1051.6621,-37,43792,28.7162,10018,3673
4.37714,1051.1653,-36,43793,28.766,10018,3673
3.80859,1047.5035,-35,43794,28.6665,10018,3673
5.49137,1048.8213,-34,43795,28.6665,10018,3673
4.62297,1053.1836,-33,43796,28.5669,10018,3673
5.03096,1058.0979,-32,43797,28.5669,10033,3421
6.37838,1065.1196,-31,43798,28.766,10033,3421
4.92946,1078.3754,-30,43799,28.5669,10033,3421
5.64551,1098.3299,-29,43800,28.5669,10033,3421
5.04137,1119.3722,-28,43801,28.9154,10033,3421
4.88184,1136.3025,-27,43802,28.766,10033,3421
3.92937,1150.9721,-26,43803,28.5669,10033,3421
4.5197,1167.4649,-25,43804,28.6665,10033,3421
4.8288,1187.0721,-24,43805,28.766,10033,3421
3.70965,1206.9787,-23,43806,28.6665,10033,3421
4.38258,1222.8109,-22,43807,28.9154,10051,2940
4.06536,1234.4026,-21,43808,28.6665,10051,2940
4.42589,1247.559,-20,43809,28.6665,10051,2940
4.58153,1264.5292,-19,43810,28.5669,10051,2940
3.23005,1281.5373,-18,43811,28.766,10051,2940
4.25674,1294.2035,-17,43812,28.5171,10051,2940
3.92209,1302.1473,-16,43813,28.6665,10051,2940
4.60333,1303.8253,-15,43814,28.6665,10051,2940
4.35858,1292.5712,-14,43815,28.766,10051,2940
5.37198,1267.0018,-13,43816,28.7162,10051,2940
4.41294,1229.4457,-12,43817,28.766,10471,2156
3.96682,1180.4527,-11,43818,28.766,10471,2156
3.90014,1123.4298,-10,43819,28.7162,10471,2156
4.72398,1064.5773,-9,43820,28.6665,10471,2156
5.33546,1009.6852,-8,43821,28.7162,10471,2156
4.94492,959.59716,-7,43822,28.6665,10471,2156
5.42849,912.19539,-6,43823,28.9154,10471,2156
4.63224,864.32178,-5,43824,28.6665,10471,2156
3.78347,816.44506,-4,43825,28.766,10471,2156
6.4741,767.44223,-3,43826,28.766,10471,2156
8.86308,677.32981,-2,43827,28.6665,13461,1336
8.31513,594.67952,-1,43828,28.7162,13461,1336
10.2702,542.48304,0,43829,28.6665,13461,1336
9.46309,481.58207,1,43830,28.5669,13461,1336
8.97429,411.74845,2,43831,28.5669,13461,1336
9.5728,343.39229,3,43832,28.7162,13461,1336
10.0039,307.276,4,43833,28.6665,13461,1336
8.99604,305.2649,5,43834,28.9652,13461,1336
8.62145,291.87875,6,43835,28.7162,13461,1336
8.6314,285.00984,7,43836,28.6665,13461,1336
8.47586,326.96631,8,43837,28.7162,15286,1157
7.11351,406.34493,9,43838,28.766,15286,1157
6.39928,486.8824,10,43839,28.766,15286,1157
5.4241,554.62735,11,43840,28.766,15286,1157
4.88379,616.87232,12,43841,28.766,15286,1157
4.59711,677.61768,13,43842,28.8656,15286,1157
4.83275,731.35895,14,43843,28.9652,15286,1157
4.48581,779.22306,15,43844,28.7162,15286,1157
4.08875,822.32965,16,43845,28.766,15286,1157
4.07941,862.93128,17,43846,28.8656,15286,1157
3.4747,900.90379,18,43847,28.7162,12924,1360
3.92937,937.29117,19,43848,28.7162,12924,1360
4.46237,969.94471,20,43849,28.6665,12924,1360
4.55334,999.82413,21,43850,28.5171,12924,1360
3.51969,1029.516,22,43851,28.7162,12924,1360
3.09741,1052.4502,23,43852,28.6665,12924,1360
3.50612,1069.2276,24,43853,28.5171,12924,1360
4.23653,1087.1953,25,43854,28.766,12924,1360
5.53548,1105.6274,26,43855,28.5171,12924,1360
4.39995,1120.5267,27,43856,28.6665,12924,1360
3.45267,1127.0898,28,43857,28.766,10751,1744
4.22751,1130.2431,29,43858,28.6665,10751,1744
3.49795,1136.7509,30,43859,28.766,10751,1744
3.50204,1143.4181,31,43860,28.6665,10751,1744
3.69678,1145.1281,32,43861,28.766,10751,1744
3.916,1141.2374,33,43862,28.7162,10751,1744
3.84473,1135.5705,34,43863,28.7162,10751,1744
3.48976,1130.6787,35,43864,28.6665,10751,1744
4.23089,1124.5817,36,43865,28.5669,10751,1744
3.39136,1116.7313,37,43866,28.6665,10751,1744
3.71992,1113.7402,38,43867,28.7162,10138,2167
3.17796,1107.0864,39,43868,28.766,10138,2167
4.12244,1097.8637,40,43869,28.9154,10138,2167
2.61493,1091.8693,41,43870,28.7162,10138,2167
3.75818,1086.4596,42,43871,28.4175,10138,2167
2.90353,1080.3125,43,43872,28.9154,10138,2167
2.58743,1078.3184,44,43873,28.766,10138,2167
2.98771,1073.9897,45,43874,28.7162,10138,2167
2.50313,1065.2617,46,43875,28.9652,10138,2167
2.47246,1057.371,47,43876,28.7162,10138,2167
2.25668,1057.5694,48,43877,28.5669,10032,2656
3.39557,1081.0005,49,43878,28.7162,10032,2656
1.49066,1116.4429,50,43879,28.6665,10032,2656
1.54717,1126.3876,51,43880,28.6665,10032,2656
2.44336,1127.2015,52,43881,28.5669,10032,2656
2.43358,1145.549,53,43882,28.766,10032,2656
1.99897,1169.3662,54,43883,28.6665,10032,2656
1.49704,1176.9912,55,43884,28.766,10032,2656
2.63672,1159.634,56,43885,28.6665,10032,2656
3.17646,1133.4147,57,43886,28.6665,10032,2656
2.08079,1098.8763,58,43887,28.9652,10018,2943
3.16894,1052.8409,59,43888,28.5669,10018,2943
2.3539,1009.0893,60,43889,28.766,10018,2943
2.04845,979.29985,61,43890,28.5171,10018,2943
2.06237,952.8699,62,43891,28.5171,10018,2943
2.93781,927.61508,63,43892,28.766,10018,2943
3.70965,914.28922,64,43893,28.7162,10018,2943
3.21228,915.08905,65,43894,28.6665,10018,2943
3.69678,919.81018,66,43895,28.766,10018,2943
2.76386,920.85857,67,43896,28.6665,10018,2943
5.10248,919.06563,68,43897,28.7162,10019,3109
3.78977,918.78082,69,43898,28.7162,10019,3109
3.63958,920.20787,70,43899,28.5171,10019,3109
2.85384,926.27843,71,43900,28.5171,10019,3109
3.45267,932.37909,72,43901,28.766,10019,3109
3.31168,928.70627,73,43902,28.5669,10019,3109
4.05244,916.87041,74,43903,28.766,10019,3109
2.87879,904.39825,75,43904,28.5171,10019,3109
4.52603,898.70394,76,43905,28.766,10019,3109
2.79815,901.2019,77,43906,28.9154,10019,3109
3.67219,899.65265,78,43907,28.9652,10034,3234
3.76198,894.60834,79,43908,28.9154,10034,3234
2.65115,892.48561,80,43909,28.766,10034,3234
2.9248,886.99527,81,43910,28.6665,10034,3234
2.3539,873.75922,82,43911,28.766,10034,3234
1.63993,848.55036,83,43912,28.9652,10034,3234
1.4681,810.75839,84,43913,28.766,10034,3234
2.28816,776.79972,85,43914,28.7162,10034,3234
1.27328,781.50606,86,43915,28.766,10034,3234
2.77763,806.16157,87,43916,28.6665,10034,3234
1.44518,774.76413,88,43917,28.766,10148,3300
2.57264,692.89847,89,43918,28.9154,10148,3300
3.38995,590.09312,90,43919,28.6665,10148,3300
18.5048,251.42484,91,43920,28.766,10148,3300
19.8261,539.05903,92,43921,28.6665,10148,3300
7.78131,1143.1678,93,43922,28.8656,10148,3300
3.73782,1612.0268,94,43923,28.6665,10148,3300
3.28857,1381.0265,95,43924,28.5171,10148,3300
2.59479,630.26029,96,43925,28.6665,10148,3300
3.64612,735.09025,97,43926,28.6665,10148,3300
2.18584,1525.7641,98,43927,28.6665,10165,3384
2.35997,1518.9258,99,43928,28.7162,10165,3384
2.44921,937.49315,100,43929,28.8656,10165,3384
