Linear acceleration,Rotational velocity,Time values,Absolute time values,Temperature,Ambient light,Reflected light
1.63702,32.6713,-2000,67684,34.1425,23765,359
1.11773,32.9303,-1999,67685,34.5408,23765,359
2.47631,32.9337,-1998,67686,34.3416,23765,359
2.57264,32.8362,-1997,67687,34.1425,23765,359
2.00612,32.9384,-1996,67688,34.2421,23793,358
1.88099,32.9441,-1995,67689,34.1425,23793,358
1.88099,32.6001,-1994,67690,34.3914,23793,358
1.09183,32.8489,-1993,67691,34.3416,23793,358
2.06006,32.9908,-1992,67692,34.1425,23793,358
2.15066,33.0145,-1991,67693,34.1425,23793,358
2.0785,33.0326,-1990,67694,34.2421,23793,358
1.97739,33.0285,-1989,67695,34.2421,23793,358
1.38452,33.0231,-1988,67696,33.8936,23793,358
1.56859,32.9008,-1987,67697,34.3416,23793,358
1.68863,32.8054,-1986,67698,34.1425,23811,359
2.01324,32.8705,-1985,67699,34.3416,23811,359
1.31745,33.1515,-1984,67700,34.3416,23811,359
2.47631,33.0732,-1983,67701,34.3416,23811,359
1.50657,32.8625,-1982,67702,34.1923,23811,359
1.94088,33.0441,-1981,67703,34.1425,23811,359
2.60762,33.165,-1980,67704,34.1923,23811,359
2.04845,33.045,-1979,67705,34.3914,23811,359
1.02423,33.0948,-1978,67706,34.4412,23811,359
1.35668,33.1986,-1977,67707,34.3416,23811,359
2.56336,32.9599,-1976,67708,34.3416,23836,360
1.57466,32.8392,-1975,67709,34.2421,23836,360
2.27352,32.6588,-1974,67710,34.1425,23836,360
1.77132,32.6768,-1973,67711,34.2421,23836,360
1.38107,32.5967,-1972,67712,34.2421,23836,360
1.96287,32.5014,-1971,67713,34.1923,23836,360
1.4118,31.9654,-1970,67714,34.3416,23836,360
1.68863,32.0455,-1969,67715,34.3914,23836,360
1.85547,32.1131,-1968,67716,34.1923,23836,360
1.67161,32.2548,-1967,67717,34.3416,23836,360
1.69708,32.2935,-1966,67718,34.1923,23829,359
1.27328,32.0813,-1965,67719,34.2421,23829,359
2.00612,31.9836,-1964,67720,34.3416,23829,359
1.77938,31.8699,-1963,67721,34.1923,23829,359
2.15287,31.9407,-1962,67722,34.1425,23829,359
1.64863,31.9873,-1961,67723,34.1923,23829,359
2.53718,31.8491,-1960,67724,34.3416,23829,359
1.54717,31.5933,-1959,67725,34.2421,23829,359
2.75176,31.4548,-1958,67726,34.1923,23829,359
1.46484,31.4615,-1957,67727,34.2421,23829,359
1.76323,31.256,-1956,67728,34.2421,23826,362
1.43525,31.1894,-1955,67729,34.1923,23826,362
1.48103,31.5178,-1954,67730,34.3416,23826,362
1.68581,31.6117,-1953,67731,34.2421,23826,362
2.25668,31.2703,-1952,67732,34.4412,23826,362
1.4118,30.7753,-1951,67733,34.4412,23826,362
0.889691,30.9669,-1950,67734,34.3416,23826,362
2.04146,30.9902,-1949,67735,34.1425,23826,362
1.90867,30.944,-1948,67736,34.1923,23826,362
1.80334,30.7978,-1947,67737,34.3416,23826,362
1.77132,30.7586,-1946,67738,34.3914,23833,363
1.39139,30.5656,-1945,67739,34.4412,23833,363
2.13508,30.5356,-1944,67740,34.2421,23833,363
2.11037,30.272,-1943,67741,34.1923,23833,363
2.76386,30.1877,-1942,67742,34.1425,23833,363
1.71108,30.3727,-1941,67743,34.3416,23833,363
2.51263,30.2973,-1940,67744,34.2421,23833,363
2.54282,30.0437,-1939,67745,34.2421,23833,363
1.40163,30.3602,-1938,67746,34.1425,23833,363
2.44531,30.4467,-1937,67747,34.2421,23833,363
2.86551,30.4467,-1936,67748,34.1425,23887,362
2.05543,30.2609,-1935,67749,34.3914,23887,362
1.63702,30.3022,-1934,67750,34.3416,23887,362
2.22047,30.2875,-1933,67751,34.2421,23887,362
0.497951,30.0573,-1932,67752,34.3416,23887,362
1.49704,30.2077,-1931,67753,34.2421,23887,362
1.63993,30.1081,-1930,67754,34.2421,23887,362
1.88858,29.7847,-1929,67755,34.1923,23887,362
1.27702,29.7847,-1928,67756,34.2421,23887,362
1.22752,29.9933,-1927,67757,34.3416,23887,362
1.55638,30.1444,-1926,67758,34.2421,23907,359
1.92112,29.9125,-1925,67759,34.3914,23907,359
2.04845,29.7403,-1924,67760,34.4412,23907,359
1.66589,30.0077,-1923,67761,34.2421,23907,359
1.90617,30.0271,-1922,67762,34.3914,23907,359
2.16612,29.8561,-1921,67763,34.3914,23907,359
2.28816,29.6495,-1920,67764,34.2421,23907,359
1.04725,29.894,-1919,67765,34.1923,23907,359
2.31715,29.707,-1918,67766,34.1425,23907,359
3.24771,29.4058,-1917,67767,34.3914,23907,359
1.63702,29.0991,-1916,67768,34.3914,23890,359
1.09619,29.0232,-1915,67769,34.1923,23890,359
1.94824,28.9914,-1914,67770,34.1923,23890,359
0.710948,29.2248,-1913,67771,34.1425,23890,359
2.58559,29.2653,-1912,67772,34.1923,23890,359
1.63993,29.4465,-1911,67773,34.2421,23890,359
2.14177,29.3746,-1910,67774,34.3914,23890,359
4.04773,29.2465,-1909,67775,34.3416,23890,359
2.68155,29.0348,-1908,67776,34.3416,23890,359
1.74966,29.1076,-1907,67777,34.1425,23890,359
2.33968,29.0348,-1906,67778,34.2421,23853,362
1.85804,29.2325,-1905,67779,34.2421,23853,362
2.19455,29.1487,-1904,67780,34.3416,23853,362
1.00068,28.7076,-1903,67781,34.1923,23853,362
1.67446,28.6364,-1902,67782,34.2421,23853,362
2.25034,28.4659,-1901,67783,34.1923,23853,362
2.25668,28.4976,-1900,67784,34.1923,23853,362
2.02975,28.1435,-1899,67785,34.3416,23853,362
1.39481,27.9581,-1898,67786,34.3416,23853,362
1.64283,27.9581,-1897,67787,34.2421,23853,362
2.04845,28.0722,-1896,67788,34.3914,23890,362
1.69708,28.1689,-1895,67789,34.4412,23890,362
1.58673,27.9874,-1894,67790,34.3416,23890,362
2.04146,27.7554,-1893,67791,34.2421,23890,362
1.00068,27.6108,-1892,67792,34.3914,23890,362
1.98461,27.8398,-1891,67793,34.1425,23890,362
1.45505,27.6736,-1890,67794,34.2421,23890,362
2.35997,27.4338,-1889,67795,34.2421,23890,362
1.71664,27.1858,-1888,67796,34.1425,23890,362
1.28817,26.9952,-1887,67797,34.2421,23890,362
1.98701,26.7161,-1886,67798,34.1425,23918,362
1.92112,26.7935,-1885,67799,34.3416,23918,362
1.63702,26.469,-1884,67800,34.2421,23918,362
1.45505,26.1336,-1883,67801,34.1923,23918,362
1.54099,26.0113,-1882,67802,34.1425,23918,362
1.90116,25.895,-1881,67803,34.2421,23918,362
1.33185,25.7421,-1880,67804,34.1923,23918,362
1.5034,25.6246,-1879,67805,34.1425,23918,362
1.958,25.3101,-1878,67806,34.2421,23918,362
1.88858,25.1563,-1877,67807,34.1425,23918,362
1.92608,25.193,-1876,67808,34.1425,23912,358
2.44336,25.1622,-1875,67809,34.5408,23912,358
2.14399,25.1462,-1874,67810,34.4412,23912,358
2.3539,24.8763,-1873,67811,34.1425,23912,358
2.33151,24.7252,-1872,67812,34.3914,23912,358
2.35593,24.4558,-1871,67813,34.3416,23912,358
1.27328,24.2776,-1870,67814,34.1923,23912,358
2.58559,24.0113,-1869,67815,34.2421,23912,358
1.5034,23.8378,-1868,67816,34.0429,23912,358
1.88099,24.169,-1867,67817,34.1425,23912,358
1.26953,24.0209,-1866,67818,34.3914,23921,359
1.76323,24.0193,-1865,67819,34.3416,23921,359
1.54717,23.8728,-1864,67820,34.2421,23921,359
1.8606,23.9672,-1863,67821,34.1425,23921,359
1.92608,23.8544,-1862,67822,34.0429,23921,359
1.6165,23.682,-1861,67823,34.1923,23921,359
1.67161,23.494,-1860,67824,34.2421,23921,359
2.26091,23.4467,-1859,67825,34.3416,23921,359
2.80326,23.3691,-1858,67826,34.2421,23921,359
2.0156,23.6073,-1857,67827,34.1923,23921,359
1.48103,23.4025,-1856,67828,34.2421,23891,364
2.0156,23.2706,-1855,67829,34.3914,23891,364
1.80598,23.1116,-1854,67830,34.5408,23891,364
2.55591,23.2104,-1853,67831,34.3914,23891,364
2.43358,23.2004,-1852,67832,34.3416,23891,364
1.91615,23.09,-1851,67833,34.0429,23891,364
0.931581,23.167,-1850,67834,34.4412,23891,364
1.8529,23.1512,-1849,67835,34.2421,23891,364
2.26301,23.0108,-1848,67836,34.3416,23891,364
0.966748,22.9787,-1847,67837,34.2421,23891,364
1.74966,22.8702,-1846,67838,34.2421,23920,365
1.57163,22.8624,-1845,67839,34.1923,23920,365
2.20539,22.7474,-1844,67840,34.1425,23920,365
2.06237,22.6133,-1843,67841,34.3914,23920,365
1.77132,22.8324,-1842,67842,34.2421,23920,365
2.13284,22.5787,-1841,67843,34.3914,23920,365
1.94579,22.447,-1840,67844,34.1425,23920,365
2.0762,22.4354,-1839,67845,34.1425,23920,365
1.4118,22.6703,-1838,67846,34.2421,23920,365
2.64575,22.4284,-1837,67847,34.1923,23920,365
1.68863,22.1762,-1836,67848,34.2421,23903,362
1.6165,22.2985,-1835,67849,34.2421,23903,362
2.10585,22.5411,-1834,67850,34.2421,23903,362
1.68298,22.6627,-1833,67851,34.4412,23903,362
1.98461,22.3992,-1832,67852,34.1425,23903,362
1.84774,22.152,-1831,67853,34.1425,23903,362
1.78206,22.0187,-1830,67854,34.1425,23903,362
1.85547,21.9041,-1829,67855,34.2421,23903,362
1.63702,22.0028,-1828,67856,34.1425,23903,362
1.70829,22.1082,-1827,67857,34.3914,23903,362
2.22047,21.8724,-1826,67858,34.2421,23895,360
1.84774,21.7566,-1825,67859,34.3416,23895,360
2.08994,21.5156,-1824,67860,34.2421,23895,360
2.91827,21.6288,-1823,67861,34.3914,23895,360
1.86827,21.8714,-1822,67862,34.2421,23895,360
1.97256,21.7576,-1821,67863,34.2421,23895,360
1.79273,21.5235,-1820,67864,34.3416,23895,360
2.15951,21.536,-1819,67865,34.2421,23895,360
2.8986,21.5484,-1818,67866,34.5408,23895,360
1.958,21.7751,-1817,67867,34.2421,23895,360
1.54408,21.5221,-1816,67868,34.3416,23893,362
3.01472,21.1721,-1815,67869,34.1425,23893,362
2.58743,21.4267,-1814,67870,34.3416,23893,362
1.28817,21.4493,-1813,67871,34.2421,23893,362
2.05311,21.2255,-1812,67872,34.0429,23893,362
1.11773,21.1016,-1811,67873,34.3416,23893,362
2.98132,21.2336,-1810,67874,34.3914,23893,362
0.632885,21.2325,-1809,67875,34.2421,23893,362
1.98461,21.1407,-1808,67876,34.3416,23893,362
1.60466,21.0493,-1807,67877,34.2421,23893,362
1.86827,20.9751,-1806,67878,34.1425,23946,364
2.77763,20.9584,-1805,67879,34.2421,23946,364
2.89366,20.8376,-1804,67880,34.3416,23946,364
1.99897,20.9805,-1803,67881,34.4412,23946,364
2.09677,20.9979,-1802,67882,34.2421,23946,364
1.78206,20.739,-1801,67883,34.3416,23946,364
0.710948,20.6129,-1800,67884,34.1923,23946,364
1.9918,20.7749,-1799,67885,34.3416,23946,364
2.66012,20.5738,-1798,67886,34.3416,23946,364
1.81125,20.5822,-1797,67887,34.5408,23946,364
1.09183,20.4044,-1796,67888,34.2421,23922,361
2.18366,20.3301,-1795,67889,34.2421,23922,361
1.49704,20.1966,-1794,67890,34.2421,23922,361
1.92112,20.1412,-1793,67891,34.1923,23922,361
2.26722,20.1841,-1792,67892,34.2421,23922,361
2.57635,20.2066,-1791,67893,34.2421,23922,361
2.45892,20.1327,-1790,67894,34.1425,23922,361
2.20323,19.9068,-1789,67895,34.4412,23922,361
2.21402,19.7878,-1788,67896,34.3416,23922,361
1.37415,19.9442,-1787,67897,34.1923,23922,361
3.12653,19.7878,-1786,67898,34.1425,23943,360
1.88858,19.588,-1785,67899,34.3416,23943,360
1.33185,19.4892,-1784,67900,34.1923,23943,360
1.68863,19.3114,-1783,67901,34.3416,23943,360
1.44518,19.1934,-1782,67902,34.1425,23943,360
1.34255,19.0077,-1781,67903,34.2421,23943,360
1.79273,18.8139,-1780,67904,34.3914,23943,360
2.77935,18.8582,-1779,67905,34.4412,23943,360
2.16832,18.8977,-1778,67906,34.2421,23943,360
1.94088,18.7802,-1777,67907,34.5408,23943,360
2.39606,18.6328,-1776,67908,34.1923,23954,360
2.0156,18.5129,-1775,67909,34.1923,23954,360
2.36199,18.2539,-1774,67910,34.2421,23954,360
2.14177,17.9962,-1773,67911,34.3416,23954,360
1.97739,17.9277,-1772,67912,34.2421,23954,360
1.70549,17.9742,-1771,67913,34.4412,23954,360
1.73323,17.8811,-1770,67914,34.3416,23954,360
1.74966,17.672,-1769,67915,34.2421,23954,360
1.7551,17.5072,-1768,67916,34.2421,23954,360
2.56336,17.6247,-1767,67917,34.3914,23954,360
2.04146,17.6298,-1766,67918,34.2421,23977,364
1.31745,17.2379,-1765,67919,34.2421,23977,364
1.08306,17.364,-1764,67920,34.3416,23977,364
1.56859,17.403,-1763,67921,34.5408,23977,364
1.21581,17.2569,-1762,67922,34.2421,23977,364
1.71664,17.1516,-1761,67923,34.2421,23977,364
1.97739,17.0645,-1760,67924,34.2421,23977,364
2.12613,17.0641,-1759,67925,34.3416,23977,364
1.31745,16.919,-1758,67926,34.1923,23977,364
1.32827,17.068,-1757,67927,34.2421,23977,364
1.73872,16.919,-1756,67928,34.2421,23878,364
3.82484,16.8833,-1755,67929,34.3416,23878,364
1.27328,17.0462,-1754,67930,34.3416,23878,364
1.77938,16.9976,-1753,67931,34.4412,23878,364
1.68298,16.7303,-1752,67932,34.3416,23878,364
2.13508,16.7236,-1751,67933,34.2421,23878,364
0.697405,16.5683,-1750,67934,34.2421,23878,364
1.28817,16.6002,-1749,67935,34.3416,23878,364
2.25668,16.7748,-1748,67936,34.3416,23878,364
1.63993,16.6173,-1747,67937,34.5408,23878,364
1.37067,16.5841,-1746,67938,34.1923,23930,364
1.56555,16.7921,-1745,67939,34.1923,23930,364
1.1472,16.7992,-1744,67940,34.1923,23930,364
1.57769,16.4251,-1743,67941,34.5408,23930,364
1.68014,16.4397,-1742,67942,34.4412,23930,364
2.10811,16.654,-1741,67943,34.2421,23930,364
1.77401,16.7628,-1740,67944,34.4412,23930,364
2.84044,16.7859,-1739,67945,34.1425,23930,364
2.48976,16.8413,-1738,67946,34.1923,23930,364
2.84714,16.6365,-1737,67947,34.2421,23930,364
2.22905,16.8059,-1736,67948,34.1923,23930,363
1.83739,16.777,-1735,67949,34.1923,23930,363
2.41391,16.8249,-1734,67950,34.1923,23930,363
2.02269,16.8771,-1733,67951,34.4412,23930,363
3.04462,16.9489,-1732,67952,34.2421,23930,363
2.0785,17.0624,-1731,67953,34.1923,23930,363
1.27702,17.0641,-1730,67954,34.1923,23930,363
0.98628,17.0698,-1729,67955,34.1923,23930,363
1.83739,17.2922,-1728,67956,34.2421,23930,363
2.64575,17.664,-1727,67957,34.1923,23930,363
0.507437,17.8244,-1726,67958,34.3914,23942,364
1.11773,17.7242,-1725,67959,34.3416,23942,364
1.87846,17.5038,-1724,67960,34.3416,23942,364
1.86827,17.6884,-1723,67961,34.2421,23942,364
2.87382,17.9912,-1722,67962,34.2421,23942,364
2.4974,17.9659,-1721,67963,34.0429,23942,364
2.34782,18.1245,-1720,67964,34.2421,23942,364
2.33151,18.3065,-1719,67965,34.3416,23942,364
1.60168,18.4249,-1718,67966,34.3914,23942,364
1.32827,18.6,-1717,67967,34.1425,23942,364
0.768946,18.6548,-1716,67968,34.5905,23976,365
1.49704,18.6971,-1715,67969,34.1923,23976,365
0.905627,19.1195,-1714,67970,34.1923,23976,365
2.69751,19.0324,-1713,67971,34.2421,23976,365
2.67264,19.0871,-1712,67972,34.2421,23976,365
1.79273,19.5347,-1711,67973,34.1923,23976,365
1.86827,19.6916,-1710,67974,34.4412,23976,365
1.09619,19.6378,-1709,67975,34.3914,23976,365
1.60168,19.7874,-1708,67976,34.1425,23976,365
1.67161,19.9991,-1707,67977,34.3914,23976,365
2.36401,20.1298,-1706,67978,34.1425,23919,362
0.884315,20.3715,-1705,67979,34.3914,23919,362
2.87382,20.5347,-1704,67980,34.3416,23919,362
1.68581,20.5793,-1703,67981,34.3914,23919,362
1.88099,20.7221,-1702,67982,34.2421,23919,362
1.59273,20.6479,-1701,67983,34.5408,23919,362
2.25034,20.8983,-1700,67984,34.5408,23919,362
1.20794,21.1693,-1699,67985,34.2421,23919,362
1.90116,21.2672,-1698,67986,34.1425,23919,362
2.51832,21.4281,-1697,67987,34.1923,23919,362
1.57769,21.7011,-1696,67988,34.1425,23927,361
1.78473,21.9058,-1695,67989,34.2421,23927,361
1.83739,21.9217,-1694,67990,34.2421,23927,361
1.43857,21.8673,-1693,67991,34.1425,23927,361
2.22262,22.1234,-1692,67992,34.1923,23927,361
1.45505,22.2697,-1691,67993,34.1923,23927,361
2.63129,22.3955,-1690,67994,34.5408,23927,361
1.68298,22.1621,-1689,67995,34.2421,23927,361
1.57769,22.2878,-1688,67996,34.3416,23927,361
2.08994,22.7464,-1687,67997,34.2421,23927,361
2.09222,22.946,-1686,67998,34.1923,23919,362
2.59663,22.9086,-1685,67999,34.0429,23919,362
1.24296,22.8588,-1684,68000,34.2421,23919,362
2.37809,23.4953,-1683,68001,34.1923,23919,362
1.94824,23.4978,-1682,68002,34.3914,23919,362
1.7551,23.2655,-1681,68003,34.2421,23919,362
1.77401,23.0341,-1680,68004,34.1425,23919,362
1.1596,23.2915,-1679,68005,34.1425,23919,362
1.63702,23.5675,-1678,68006,34.2421,23919,362
2.3539,23.6309,-1677,68007,34.4412,23919,362
1.05631,23.6643,-1676,68008,34.5408,23956,366
1.22752,23.5988,-1675,68009,34.2421,23956,366
1.28817,23.4111,-1674,68010,34.1425,23956,366
1.74966,23.0829,-1673,68011,34.3416,23956,366
1.88858,23.3039,-1672,68012,34.2421,23956,366
1.84516,23.594,-1671,68013,34.3416,23956,366
2.14399,23.804,-1670,68014,34.5408,23956,366
1.77132,23.6662,-1669,68015,34.2421,23956,366
1.68863,23.4889,-1668,68016,34.2421,23956,366
2.29024,23.5048,-1667,68017,34.3914,23956,366
1.71664,23.5295,-1666,68018,34.1425,23964,363
1.28447,23.5254,-1665,68019,34.2421,23964,363
2.47439,23.5675,-1664,68020,33.9932,23964,363
2.03444,23.5295,-1663,68021,34.1923,23964,363
1.49704,23.6006,-1662,68022,34.3416,23964,363
1.27328,23.434,-1661,68023,34.3416,23964,363
1.3637,23.2178,-1660,68024,34.1425,23964,363
1.88858,23.2428,-1659,68025,34.2421,23964,363
2.11037,23.3186,-1658,68026,34.0429,23964,363
2.57079,23.2078,-1657,68027,34.3416,23964,363
1.48103,22.9109,-1656,68028,34.0429,23966,360
2.90024,22.8157,-1655,68029,34.0429,23966,360
1.94088,22.8725,-1654,68030,34.3914,23966,360
1.56859,22.8588,-1653,68031,34.2421,23966,360
1.0381,22.8405,-1652,68032,34.1425,23966,360
1.30655,22.7074,-1651,68033,34.3416,23966,360
1.94824,22.5381,-1650,68034,34.0429,23966,360
2.68865,22.1681,-1649,68035,34.3416,23966,360
1.64863,22.0299,-1648,68036,34.1425,23966,360
2.41983,22.0465,-1647,68037,34.2421,23966,360
1.98461,22.2737,-1646,68038,34.1923,23982,360
1.57769,22.2483,-1645,68039,34.2421,23982,360
2.34782,22.3908,-1644,68040,34.1425,23982,360
2.37005,22.0883,-1643,68041,34.3416,23982,360
1.41517,21.8921,-1642,68042,34.3416,23982,360
1.70829,21.9866,-1641,68043,34.2421,23982,360
1.9798,21.9638,-1640,68044,34.1425,23982,360
2.45115,22.0444,-1639,68045,34.2421,23982,360
1.27328,22.1109,-1638,68046,34.2421,23982,360
2.28816,21.9231,-1637,68047,34.1425,23982,360
2.11037,21.8421,-1636,68048,34.2421,24011,363
1.96529,21.9367,-1635,68049,34.3416,24011,363
1.64283,22.012,-1634,68050,34.3416,24011,363
2.58743,22.1015,-1633,68051,34.2421,24011,363
2.44531,22.194,-1632,68052,34.2421,24011,363
1.63993,21.9285,-1631,68053,34.1425,24011,363
2.60579,21.7535,-1630,68054,34.3416,24011,363
2.49167,21.8533,-1629,68055,34.4412,24011,363
1.82437,21.8564,-1628,68056,34.3416,24011,363
1.74966,21.9543,-1627,68057,34.3416,24011,363
1.60168,21.9472,-1626,68058,34.3416,23972,364
2.09677,21.7905,-1625,68059,34.1923,23972,364
1.13045,21.4639,-1624,68060,34.4412,23972,364
1.33185,21.3302,-1623,68061,34.5408,23972,364
3.51834,21.5097,-1622,68062,34.1425,23972,364
1.86572,21.8185,-1621,68063,34.1923,23972,364
1.68863,21.8755,-1620,68064,34.3416,23972,364
1.17998,21.7333,-1619,68065,34.1425,23972,364
2.15951,21.4135,-1618,68066,34.1425,23972,364
2.0739,21.2437,-1617,68067,34.3416,23972,364
2.69397,21.3763,-1616,68068,34.2421,23977,365
1.68863,21.4097,-1615,68069,34.2421,23977,365
1.73323,21.5429,-1614,68070,34.3416,23977,365
1.8606,21.5498,-1613,68071,34.2421,23977,365
2.44531,21.4222,-1612,68072,34.2421,23977,365
1.5034,21.4222,-1611,68073,34.3416,23977,365
1.28817,21.4639,-1610,68074,34.2421,23977,365
1.89362,21.3992,-1609,68075,34.2421,23977,365
2.17052,21.1731,-1608,68076,34.1425,23977,365
1.23912,21.2763,-1607,68077,34.0429,23977,365
1.9798,21.2139,-1606,68078,34.1923,24004,362
2.0716,21.0351,-1605,68079,34.1923,24004,362
1.71108,20.9204,-1604,68080,34.1923,24004,362
2.66729,20.9691,-1603,68081,34.3914,24004,362
1.4118,20.8612,-1602,68082,34.2421,24004,362
2.37206,21.0262,-1601,68083,34.3416,24004,362
2.04146,20.9652,-1600,68084,34.4412,24004,362
1.71664,20.909,-1599,68085,34.3914,24004,362
1.71942,20.6908,-1598,68086,34.3416,24004,362
1.89865,20.5281,-1597,68087,34.2421,24004,362
1.69427,20.7451,-1596,68088,34.1923,24001,367
1.49385,20.858,-1595,68089,34.1425,24001,367
2.32946,20.8072,-1594,68090,34.3416,24001,367
1.9918,20.6414,-1593,68091,34.3914,24001,367
2.25668,20.4795,-1592,68092,34.3914,24001,367
0.921287,20.6086,-1591,68093,34.5408,24001,367
2.0739,20.4416,-1590,68094,34.2421,24001,367
2.34782,20.166,-1589,68095,34.1425,24001,367
2.06237,20.1804,-1588,68096,34.2421,24001,367
1.10916,20.2453,-1587,68097,34.3416,24001,367
2.15287,20.0214,-1586,68098,34.1923,23996,367
2.17052,19.866,-1585,68099,34.2421,23996,367
1.96529,19.8266,-1584,68100,34.2421,23996,367
2.42376,19.9352,-1583,68101,34.3416,23996,367
1.57769,19.6412,-1582,68102,34.2421,23996,367
1.65728,19.4402,-1581,68103,34.1923,23996,367
2.10811,19.3942,-1580,68104,34.3416,23996,367
1.05631,19.3083,-1579,68105,34.1425,23996,367
1.4681,19.3934,-1578,68106,34.2421,23996,367
1.97739,19.4042,-1577,68107,34.3914,23996,367
1.62239,19.1716,-1576,68108,34.3416,23954,363
2.0739,19.25,-1575,68109,34.3416,23954,363
3.24183,19.3361,-1574,68110,34.2421,23954,363
2.1771,19.238,-1573,68111,34.1923,23954,363
1.73872,19.0871,-1572,68112,34.1923,23954,363
2.96528,19.2043,-1571,68113,34.3416,23954,363
1.57163,19.2887,-1570,68114,34.1923,23954,363
1.68298,19.3207,-1569,68115,34.2421,23954,363
1.4118,19.1817,-1568,68116,34.3914,23954,363
2.23972,19.1168,-1567,68117,34.1923,23954,363
1.56859,18.9826,-1566,68118,33.9932,23965,369
1.59273,19.0097,-1565,68119,34.0429,23965,369
2.47246,18.8499,-1564,68120,34.1425,23965,369
2.36199,18.7516,-1563,68121,34.3416,23965,369
0.768946,19.0312,-1562,68122,34.1923,23965,369
1.88858,18.9979,-1561,68123,34.2421,23965,369
1.28817,18.6168,-1560,68124,34.1923,23965,369
1.57163,18.7003,-1559,68125,34.2421,23965,369
2.24822,18.8198,-1558,68126,34.2421,23965,369
1.25061,18.6847,-1557,68127,34.3416,23965,369
2.7862,18.8075,-1556,68128,34.2421,23973,366
2.0716,18.7984,-1555,68129,34.3914,23973,366
0.323889,18.9051,-1554,68130,34.3416,23973,366
2.46086,19.025,-1553,68131,34.1923,23973,366
2.18584,19.0656,-1552,68132,34.3416,23973,366
2.45892,19.0754,-1551,68133,34.3416,23973,366
0.840071,19.0567,-1550,68134,34.3416,23973,366
2.17052,19.0641,-1549,68135,34.5408,23973,366
1.57163,19.1125,-1548,68136,34.1425,23973,366
1.62532,19.1312,-1547,68137,34.2421,23973,366
2.5819,19.2921,-1546,68138,34.2421,23968,367
2.34782,19.3804,-1545,68139,34.0429,23968,367
1.90116,19.6416,-1544,68140,34.2421,23968,367
1.63702,19.5747,-1543,68141,34.3914,23968,367
1.79007,19.8089,-1542,68142,34.3416,23968,367
2.54844,19.866,-1541,68143,34.1923,23968,367
2.36602,20.0749,-1540,68144,34.2421,23968,367
1.83739,20.0753,-1539,68145,34.2421,23968,367
2.9701,20.1944,-1538,68146,34.2421,23968,367
1.60466,20.2302,-1537,68147,34.3914,23968,367
1.33185,20.2696,-1536,68148,34.3416,23963,365
1.81125,20.7685,-1535,68149,34.2421,23963,365
2.27143,20.6595,-1534,68150,34.1425,23963,365
1.19205,20.7824,-1533,68151,34.0429,23963,365
3.27258,20.9325,-1532,68152,34.3416,23963,365
2.4974,20.9656,-1531,68153,34.3914,23963,365
1.86827,21.0464,-1530,68154,34.3416,23963,365
2.59846,21.1788,-1529,68155,34.3416,23963,365
2.5782,21.2536,-1528,68156,34.1923,23963,365
1.43525,21.7895,-1527,68157,34.2421,23963,365
2.09222,22.0576,-1526,68158,34.2421,23979,362
2.27352,22.2168,-1525,68159,34.1923,23979,362
1.04725,22.1085,-1524,68160,34.3914,23979,362
1.57769,22.1439,-1523,68161,34.1923,23979,362
1.08306,22.0843,-1522,68162,34.2421,23979,362
1.37067,22.2081,-1521,68163,34.2421,23979,362
2.60945,22.5649,-1520,68164,34.3416,23979,362
2.08994,22.818,-1519,68165,34.3416,23979,362
1.38452,22.9953,-1518,68166,34.1923,23979,362
2.55404,22.9641,-1517,68167,34.2421,23979,362
2.16832,23.0616,-1516,68168,34.1923,23980,364
2.15951,23.349,-1515,68169,34.2421,23980,364
1.66589,23.5517,-1514,68170,34.3914,23980,364
1.96529,23.5419,-1513,68171,34.3416,23980,364
1.02423,23.5722,-1512,68172,34.4412,23980,364
1.91615,23.7272,-1511,68173,34.2421,23980,364
2.08994,23.9233,-1510,68174,34.1425,23980,364
2.16392,24.0677,-1509,68175,34.1425,23980,364
1.29923,24.2638,-1508,68176,34.1425,23980,364
1.68581,24.1712,-1507,68177,34.3914,23980,364
2.26722,24.1936,-1506,68178,34.1923,23982,368
1.3461,24.3915,-1505,68179,34.2421,23982,368
1.56859,24.6044,-1504,68180,34.3416,23982,368
1.27328,24.8334,-1503,68181,34.2421,23982,368
2.25668,24.7345,-1502,68182,34.1425,23982,368
1.56859,24.6932,-1501,68183,34.0429,23982,368
1.69427,24.7345,-1500,68184,34.2421,23982,368
1.1472,24.9481,-1499,68185,34.1923,23982,368
2.04845,25.2119,-1498,68186,34.1923,23982,368
2.11714,25.3024,-1497,68187,34.0429,23982,368
0.710948,25.1459,-1496,68188,34.3914,23977,367
1.34255,25.1329,-1495,68189,34.3416,23977,367
2.7028,25.4838,-1494,68190,34.2421,23977,367
1.23526,25.5929,-1493,68191,34.1425,23977,367
1.08306,25.55,-1492,68192,34.1923,23977,367
1.38452,25.712,-1491,68193,34.1923,23977,367
1.58973,25.8042,-1490,68194,34.1923,23977,367
2.6131,25.7938,-1489,68195,34.3914,23977,367
2.44336,25.7895,-1488,68196,34.1923,23977,367
1.3029,25.838,-1487,68197,34.2421,23977,367
1.84516,26.1096,-1486,68198,34.0429,23984,365
2.17052,26.1917,-1485,68199,34.2421,23984,365
1.27702,26.2343,-1484,68200,34.2421,23984,365
1.28447,26.186,-1483,68201,34.3416,23984,365
1.57769,26.0253,-1482,68202,34.4412,23984,365
1.92608,26.276,-1481,68203,34.3416,23984,365
1.79273,26.4375,-1480,68204,34.1923,23984,365
2.23759,26.5951,-1479,68205,34.3416,23984,365
2.87879,26.5286,-1478,68206,34.5408,23984,365
2.0156,26.8649,-1477,68207,34.0429,23984,365
1.97498,26.7548,-1476,68208,34.3914,23984,365
1.59273,26.6921,-1475,68209,34.1425,23984,365
2.42966,26.6284,-1474,68210,34.2421,23984,365
1.80598,26.532,-1473,68211,34.1425,23984,365
1.09619,26.8549,-1472,68212,34.3416,23984,365
1.83479,27.09,-1471,68213,34.3416,23984,365
1.30655,27.1304,-1470,68214,34.2421,23984,365
0.640375,27.1759,-1469,68215,34.2421,23984,365
2.11714,27.1381,-1468,68216,34.2421,23984,365
2.25668,27.3571,-1467,68217,34.2421,23984,365
1.83739,27.5674,-1466,68218,34.3416,23971,364
1.18402,27.3568,-1465,68219,34.2421,23971,364
0.941763,27.3636,-1464,68220,34.2421,23971,364
1.81125,27.3184,-1463,68221,34.3416,23971,364
2.20539,27.3694,-1462,68222,34.1923,23971,364
1.77132,27.1998,-1461,68223,34.4412,23971,364
2.75695,27.3031,-1460,68224,34.3914,23971,364
2.17052,27.2764,-1459,68225,34.1923,23971,364
1.19205,27.5384,-1458,68226,34.2421,23971,364
1.63993,27.5895,-1457,68227,34.1923,23971,364
2.12613,27.7918,-1456,68228,34.3416,23963,366
1.60168,27.6249,-1455,68229,34.3416,23963,366
1.13886,27.452,-1454,68230,34.1425,23963,366
1.92112,27.353,-1453,68231,34.2421,23963,366
1.25442,27.3116,-1452,68232,34.3416,23963,366
1.25061,27.4853,-1451,68233,34.1425,23963,366
2.18802,27.4289,-1450,68234,34.2421,23963,366
2.06237,27.3448,-1449,68235,34.3416,23963,366
2.97651,27.386,-1448,68236,34.1425,23963,366
0.655098,27.2654,-1447,68237,34.2421,23963,366
0.946812,27.3985,-1446,68238,34.2421,23960,365
2.91337,27.481,-1445,68239,34.3416,23960,365
1.17998,27.2633,-1444,68240,34.3416,23960,365
1.73323,27.2775,-1443,68241,34.3914,23960,365
2.08994,27.2395,-1442,68242,34.1425,23960,365
1.27702,27.1298,-1441,68243,34.3416,23960,365
2.49167,27.2,-1440,68244,34.2421,23960,365
1.28817,27.3628,-1439,68245,34.2421,23960,365
2.73612,27.2329,-1438,68246,34.2421,23960,365
1.75238,27.2878,-1437,68247,34.5408,23960,365
2.55777,27.0707,-1436,68248,33.9932,23963,363
1.88099,27.1252,-1435,68249,34.3416,23963,363
2.38609,27.0903,-1434,68250,34.3914,23963,363
1.71664,27.0729,-1433,68251,34.1425,23963,363
1.53168,26.9256,-1432,68252,34.3416,23963,363
1.86827,26.9621,-1431,68253,34.5905,23963,363
0.981433,26.9811,-1430,68254,33.8936,23963,363
2.39606,26.9811,-1429,68255,34.1425,23963,363
1.78473,26.9272,-1428,68256,34.3914,23963,363
2.36804,27.1298,-1427,68257,34.2421,23963,363
1.85804,27.0016,-1426,68258,34.3914,23961,364
1.86316,26.5499,-1425,68259,34.3416,23961,364
2.18584,26.4963,-1424,68260,34.2421,23961,364
1.96529,26.7314,-1423,68261,34.2421,23961,364
1.57769,26.7526,-1422,68262,34.3416,23961,364
2.3027,26.8083,-1421,68263,34.1425,23961,364
1.958,26.8291,-1420,68264,34.2421,23961,364
2.26722,26.7949,-1419,68265,34.1425,23961,364
1.82698,26.604,-1418,68266,34.2421,23961,364
2.11714,26.2579,-1417,68267,33.9932,23961,364
2.1771,26.0797,-1416,68268,34.2421,23954,366
2.84547,26.297,-1415,68269,34.4412,23954,366
2.14177,26.2326,-1414,68270,34.3416,23954,366
1.77132,26.0962,-1413,68271,34.3416,23954,366
2.74829,25.9697,-1412,68272,34.3416,23954,366
0.900346,26.1045,-1411,68273,34.1923,23954,366
2.05543,25.9829,-1410,68274,34.1425,23954,366
2.0156,26.0308,-1409,68275,34.3416,23954,366
2.32946,25.9252,-1408,68276,34.3914,23954,366
1.3637,25.707,-1407,68277,34.2421,23954,366
2.20539,25.6949,-1406,68278,34.1923,23961,364
1.05631,25.6949,-1405,68279,34.2421,23961,364
1.57769,25.7843,-1404,68280,34.3416,23961,364
2.66729,25.9482,-1403,68281,34.3914,23961,364
2.70104,25.9304,-1402,68282,34.0429,23961,364
1.91864,25.6943,-1401,68283,34.0429,23961,364
2.46086,25.6141,-1400,68284,34.1425,23961,364
2.75176,25.5203,-1399,68285,34.3416,23961,364
1.42525,25.6295,-1398,68286,34.2421,23961,364
1.79007,25.6507,-1397,68287,34.0429,23961,364
3.23447,25.5605,-1396,68288,34.3914,23961,365
2.22905,25.5387,-1395,68289,34.1923,23961,365
1.70549,25.3207,-1394,68290,34.1923,23961,365
1.56859,25.3865,-1393,68291,34.2421,23961,365
1.38796,25.3759,-1392,68292,34.2421,23961,365
1.17998,25.2889,-1391,68293,34.2421,23961,365
2.40797,25.0557,-1390,68294,34.2421,23961,365
1.69708,25.0568,-1389,68295,34.2421,23961,365
1.87592,25.3257,-1388,68296,34.3416,23961,365
2.22905,25.3909,-1387,68297,34.3416,23961,365
2.18366,25.3392,-1386,68298,34.2421,23959,365
1.43525,25.3357,-1385,68299,34.3914,23959,365
1.69427,25.0771,-1384,68300,34.2421,23959,365
1.88099,25.1681,-1383,68301,33.9932,23959,365
1.9798,25.1035,-1382,68302,34.2421,23959,365
1.57163,25.0423,-1381,68303,34.3914,23959,365
1.4118,24.8961,-1380,68304,34.2421,23959,365
1.73323,24.7502,-1379,68305,34.3416,23959,365
1.96287,24.6198,-1378,68306,34.3914,23959,365
1.1472,24.9687,-1377,68307,34.3914,23959,365
2.71688,24.6259,-1376,68308,34.2421,23950,366
1.61355,24.276,-1375,68309,34.3416,23950,366
2.45115,24.1896,-1374,68310,34.3416,23950,366
2.66012,24.3808,-1373,68311,34.2421,23950,366
1.87592,24.3808,-1372,68312,34.2421,23950,366
2.27352,24.3924,-1371,68313,34.1425,23950,366
2.48784,24.1323,-1370,68314,34.3914,23950,366
1.27328,23.8541,-1369,68315,34.0429,23950,366
1.76863,23.8843,-1368,68316,34.2421,23950,366
2.66907,23.7062,-1367,68317,34.3416,23950,366
1.958,23.8078,-1366,68318,34.2421,23953,365
2.21402,23.7874,-1365,68319,34.1923,23953,365
1.5807,23.582,-1364,68320,34.5408,23953,365
1.6165,23.3767,-1363,68321,34.2421,23953,365
2.45115,23.2489,-1362,68322,34.1425,23953,365
1.79273,23.3901,-1361,68323,34.3416,23953,365
1.23912,23.2851,-1360,68324,34.2421,23953,365
2.63672,23.195,-1359,68325,34.2421,23953,365
1.74146,23.0903,-1358,68326,34.2421,23953,365
1.64863,23.0082,-1357,68327,34.3914,23953,365
0.921287,22.847,-1356,68328,34.3416,23952,366
1.29923,22.4453,-1355,68329,34.2421,23952,366
1.30655,22.5847,-1354,68330,34.3416,23952,366
1.40163,22.6532,-1353,68331,34.2421,23952,366
1.10916,22.4613,-1352,68332,34.3416,23952,366
2.39407,22.3749,-1351,68333,34.2421,23952,366
2.68333,22.501,-1350,68334,34.3914,23952,366
2.57079,22.2557,-1349,68335,34.1425,23952,366
0.690534,22.1839,-1348,68336,33.9932,23952,366
1.80334,22.2895,-1347,68337,34.2421,23952,366
2.08994,22.4174,-1346,68338,34.2421,23941,367
1.11773,22.2533,-1345,68339,34.1923,23941,367
1.40163,22.089,-1344,68340,34.1923,23941,367
2.09677,22.3285,-1343,68341,34.4412,23941,367
1.86572,22.2138,-1342,68342,34.3416,23941,367
1.15548,22.1325,-1341,68343,34.2421,23941,367
1.24296,22.1903,-1340,68344,34.3416,23941,367
1.55638,22.2014,-1339,68345,34.3416,23941,367
2.00612,22.5262,-1338,68346,34.3416,23941,367
1.84516,22.5262,-1337,68347,34.3914,23941,367
1.17998,22.3245,-1336,68348,34.2421,23937,364
1.57466,22.5288,-1335,68349,34.2421,23937,364
1.78473,22.5837,-1334,68350,34.1923,23937,364
1.47134,22.5397,-1333,68351,34.2421,23937,364
1.33185,22.3145,-1332,68352,34.2421,23937,364
1.37415,22.4138,-1331,68353,34.1923,23937,364
1.21581,22.7739,-1330,68354,34.2421,23937,364
1.85547,22.9284,-1329,68355,34.2421,23937,364
1.84774,22.8614,-1328,68356,34.3416,23937,364
1.59273,23.0147,-1327,68357,34.1425,23937,364
1.66303,23.061,-1326,68358,34.0429,23937,364
2.83371,23.1699,-1325,68359,34.3914,23937,364
1.28817,23.2674,-1324,68360,34.1425,23937,364
1.78473,23.3856,-1323,68361,34.1923,23937,364
1.64283,23.5143,-1322,68362,34.3914,23937,364
1.958,23.6882,-1321,68363,34.2421,23937,364
1.67446,23.825,-1320,68364,34.1425,23937,364
2.40797,23.9018,-1319,68365,34.3416,23937,364
1.97739,24.094,-1318,68366,34.1425,23937,364
1.86827,24.2552,-1317,68367,34.3416,23937,364
1.97498,24.6222,-1316,68368,34.3914,23969,363
3.1143,24.8211,-1315,68369,34.2421,23969,363
1.80334,24.8658,-1314,68370,34.3416,23969,363
1.88353,24.9002,-1313,68371,34.2421,23969,363
1.68014,25.0613,-1312,68372,34.3416,23969,363
1.11773,25.3492,-1311,68373,34.1923,23969,363
1.17998,25.3748,-1310,68374,34.3416,23969,363
2.03444,25.3619,-1309,68375,34.2421,23969,363
2.20539,25.5911,-1308,68376,34.2421,23969,363
1.69427,25.5646,-1307,68377,34.2421,23969,363
1.67446,25.7687,-1306,68378,34.3914,23996,365
1.71664,25.7707,-1305,68379,34.3416,23996,365
1.97739,26.0928,-1304,68380,34.2421,23996,365
1.71386,26.2204,-1303,68381,34.3914,23996,365
1.9798,26.242,-1302,68382,34.1923,23996,365
2.04845,26.1553,-1301,68383,34.1923,23996,365
1.97739,26.2122,-1300,68384,34.1425,23996,365
1.4118,26.1866,-1299,68385,34.2421,23996,365
1.32467,26.1954,-1298,68386,34.2421,23996,365
2.04845,26.2783,-1297,68387,34.3416,23996,365
2.31715,26.1339,-1296,68388,34.2421,23983,365
2.0785,26.3015,-1295,68389,34.4412,23983,365
2.62585,26.6533,-1294,68390,34.3416,23983,365
1.27328,26.6043,-1293,68391,34.2421,23983,365
0.921287,26.3183,-1292,68392,34.2421,23983,365
1.98461,26.1476,-1291,68393,34.2421,23983,365
1.77132,26.1476,-1290,68394,34.1425,23983,365
1.64283,26.244,-1289,68395,34.3416,23983,365
2.47439,26.4276,-1288,68396,34.3416,23983,365
1.21188,26.3997,-1287,68397,34.1923,23983,365
2.64575,26.2053,-1286,68398,34.3416,23995,367
1.27702,25.9884,-1285,68399,34.3416,23995,367
1.40163,25.8864,-1284,68400,34.2421,23995,367
2.7028,26.0628,-1283,68401,34.2421,23995,367
2.0156,26.0514,-1282,68402,34.1425,23995,367
1.39822,25.773,-1281,68403,34.2421,23995,367
2.49167,25.8864,-1280,68404,34.0429,23995,367
2.3539,26.0628,-1279,68405,34.2421,23995,367
1.73047,25.9531,-1278,68406,34.0429,23995,367
1.9942,25.855,-1277,68407,34.1425,23995,367
1.86827,25.8011,-1276,68408,34.1923,24011,364
1.39139,25.7753,-1275,68409,34.1425,24011,364
1.64863,25.9998,-1274,68410,34.2421,24011,364
2.68865,25.7875,-1273,68411,34.3416,24011,364
1.33185,25.3083,-1272,68412,34.2421,24011,364
2.84547,25.4998,-1271,68413,34.2421,24011,364
1.51603,25.8299,-1270,68414,34.1425,24011,364
1.73323,25.8299,-1269,68415,34.1923,24011,364
2.54282,25.8299,-1268,68416,34.2421,24011,364
1.63993,25.8054,-1267,68417,34.1923,24011,364
2.14399,25.855,-1266,68418,34.1425,24023,365
0.655098,25.7684,-1265,68419,34.5408,24023,365
2.24822,25.7947,-1264,68420,34.2421,24023,365
2.02269,25.8091,-1263,68421,34.4412,24023,365
1.36019,25.7175,-1262,68422,34.0429,24023,365
2.26722,25.4522,-1261,68423,34.3416,24023,365
1.70829,25.4375,-1260,68424,34.3914,24023,365
2.03444,25.5398,-1259,68425,34.1425,24023,365
1.50657,25.3074,-1258,68426,34.3416,24023,365
1.958,25.2134,-1257,68427,34.3914,24023,365
2.32332,25.3074,-1256,68428,34.3914,24016,363
2.55777,25.2367,-1255,68429,34.2421,24016,363
0.98628,25.2134,-1254,68430,34.2421,24016,363
1.19604,24.9863,-1253,68431,34.2421,24016,363
1.3637,25.0782,-1252,68432,34.1923,24016,363
2.27352,24.9005,-1251,68433,34.2421,24016,363
1.08306,24.9248,-1250,68434,34.1923,24016,363
1.3637,24.9866,-1249,68435,34.5408,24016,363
1.30655,24.9866,-1248,68436,34.3416,24016,363
1.68014,25.0791,-1247,68437,34.1923,24016,363
2.64575,24.9866,-1246,68438,34.3416,24004,367
1.0381,25.0304,-1245,68439,34.2421,24004,367
1.30655,24.9191,-1244,68440,34.2421,24004,367
1.61355,24.6104,-1243,68441,34.2421,24004,367
1.97498,24.8316,-1242,68442,34.3416,24004,367
1.28447,24.7637,-1241,68443,34.2421,24004,367
2.16392,24.7418,-1240,68444,34.4412,24004,367
2.04146,24.673,-1239,68445,34.1923,24004,367
1.74146,24.5386,-1238,68446,34.1425,24004,367
1.68298,24.3621,-1237,68447,34.3914,24004,367
1.40163,24.1841,-1236,68448,34.3416,24002,364
2.25034,24.1419,-1235,68449,34.3416,24002,364
2.03678,23.9914,-1234,68450,34.0429,24002,364
1.79804,24.0094,-1233,68451,34.3416,24002,364
1.09619,23.988,-1232,68452,34.3416,24002,364
1.9942,23.9469,-1231,68453,34.1425,24002,364
2.25668,24.0717,-1230,68454,33.9932,24002,364
1.67446,24.0237,-1229,68455,34.3416,24002,364
1.71664,23.9139,-1228,68456,34.2421,24002,364
0.921287,23.8375,-1227,68457,34.4412,24002,364
1.80334,23.5165,-1226,68458,34.2421,23996,367
0.85693,23.3387,-1225,68459,34.3416,23996,367
1.25821,23.229,-1224,68460,34.1923,23996,367
1.58973,23.4238,-1223,68461,34.2421,23996,367
1.81388,23.1959,-1222,68462,34.3416,23996,367
1.67446,23.14,-1221,68463,34.2421,23996,367
1.7551,23.1937,-1220,68464,34.3416,23996,367
2.23759,23.1689,-1219,68465,34.3416,23996,367
1.33543,23.1689,-1218,68466,34.3416,23996,367
1.56859,23.2886,-1217,68467,34.3416,23996,367
1.32467,23.0597,-1216,68468,34.2421,23984,364
1.80334,23.1474,-1215,68469,34.2421,23984,364
2.14399,23.1213,-1214,68470,34.2421,23984,364
1.39822,23.1876,-1213,68471,34.3914,23984,364
1.62239,23.294,-1212,68472,34.2421,23984,364
1.68298,23.2197,-1211,68473,34.2421,23984,364
1.09183,23.1019,-1210,68474,34.2421,23984,364
2.06237,22.9898,-1209,68475,34.2421,23984,364
1.73323,22.8245,-1208,68476,34.2421,23984,364
1.82437,22.7093,-1207,68477,34.3914,23984,364
2.16392,22.8822,-1206,68478,34.3416,23978,365
1.84516,22.9398,-1205,68479,34.2421,23978,365
1.28447,22.7523,-1204,68480,34.2421,23978,365
2.0156,22.5302,-1203,68481,34.1923,23978,365
1.88353,22.3219,-1202,68482,34.1923,23978,365
1.77401,22.2144,-1201,68483,34.0429,23978,365
1.96772,22.15,-1200,68484,34.1923,23978,365
1.66589,22.0937,-1199,68485,34.1923,23978,365
2.0739,22.0937,-1198,68486,34.1923,23978,365
1.97498,21.9852,-1197,68487,34.1425,23978,365
2.13508,22.1001,-1196,68488,34.1425,23995,364
2.42573,21.9285,-1195,68489,34.2421,23995,364
2.39805,21.7635,-1194,68490,34.2421,23995,364
2.25034,21.7141,-1193,68491,34.2421,23995,364
2.12613,21.5439,-1192,68492,34.1923,23995,364
1.52856,21.4358,-1191,68493,34.1923,23995,364
1.1596,21.5048,-1190,68494,34.3416,23995,364
1.60168,21.3326,-1189,68495,34.3416,23995,364
1.06977,21.2704,-1188,68496,34.2421,23995,364
2.34782,20.9442,-1187,68497,34.1923,23995,364
2.22262,20.9496,-1186,68498,33.8936,24000,365
1.88099,21.0475,-1185,68499,34.3416,24000,365
1.98461,20.868,-1184,68500,34.3416,24000,365
2.28816,20.8158,-1183,68501,34.3416,24000,365
2.15951,20.7749,-1182,68502,34.2421,24000,365
2.0739,20.6613,-1181,68503,34.1425,24000,365
1.67161,20.7085,-1180,68504,34.4412,24000,365
1.39139,20.5358,-1179,68505,34.0429,24000,365
2.26722,20.543,-1178,68506,34.2421,24000,365
2.68865,20.3374,-1177,68507,34.2421,24000,365
2.60213,20.3832,-1176,68508,34.2421,23995,364
1.43525,20.163,-1175,68509,34.3416,23995,364
1.76323,20.0545,-1174,68510,34.0429,23995,364
1.22752,19.8378,-1173,68511,34.1425,23995,364
2.20323,19.9942,-1172,68512,34.1425,23995,364
2.49167,20.3686,-1171,68513,34.1923,23995,364
2.77935,20.3627,-1170,68514,34.1425,23995,364
2.06237,20.3085,-1169,68515,34.0429,23995,364
1.39139,20.3627,-1168,68516,34.2421,23995,364
2.16392,20.3085,-1167,68517,34.1425,23995,364
1.65152,20.1446,-1166,68518,34.3416,23984,363
1.07865,20.3085,-1165,68519,34.2421,23984,363
1.76323,20.3642,-1164,68520,34.1923,23984,363
2.52021,20.1992,-1163,68521,34.2421,23984,363
1.21581,20.0912,-1162,68522,34.3416,23984,363
2.08079,20.0363,-1161,68523,34.1923,23984,363
1.10916,20.0897,-1160,68524,34.2421,23984,363
2.44336,20.2541,-1159,68525,34.1425,23984,363
1.56859,20.3151,-1158,68526,34.1923,23984,363
2.03209,20.366,-1157,68527,34.3416,23984,363
2.61493,20.3081,-1156,68528,34.3416,23971,363
1.21188,20.1446,-1155,68529,34.2421,23971,363
1.90867,19.8213,-1154,68530,34.3416,23971,363
1.64863,19.7116,-1153,68531,34.1923,23971,363
1.66303,19.881,-1152,68532,34.3416,23971,363
1.68298,20.2714,-1151,68533,34.2421,23971,363
1.09619,20.214,-1150,68534,34.1425,23971,363
1.86572,20.2121,-1149,68535,34.3416,23971,363
1.77132,20.0485,-1148,68536,34.2421,23971,363
1.67161,20.2066,-1147,68537,34.1923,23971,363
1.10916,20.2066,-1146,68538,34.2421,23979,361
1.79804,20.2673,-1145,68539,34.3914,23979,361
1.54717,20.4867,-1144,68540,34.2421,23979,361
2.06237,20.5401,-1143,68541,34.2421,23979,361
1.8529,20.4827,-1142,68542,34.0429,23979,361
2.21617,20.26,-1141,68543,34.1923,23979,361
2.99249,20.4751,-1140,68544,34.0429,23979,361
1.66589,20.5303,-1139,68545,34.0429,23979,361
1.64863,20.5281,-1138,68546,34.2421,23979,361
2.77935,20.6908,-1137,68547,34.2421,23979,361
1.6165,20.8565,-1136,68548,34.3416,23973,363
1.32827,21.0209,-1135,68549,34.3416,23973,363
2.0156,20.9709,-1134,68550,34.3914,23973,363
2.11714,21.0337,-1133,68551,34.3416,23973,363
2.26722,21.4754,-1132,68552,34.2421,23973,363
2.09677,21.4799,-1131,68553,34.3416,23973,363
2.05078,21.3288,-1130,68554,34.1923,23973,363
1.92112,21.2812,-1129,68555,34.3914,23973,363
2.50693,21.3877,-1128,68556,34.2421,23973,363
1.67446,21.6502,-1127,68557,34.1923,23973,363
1.37415,21.7669,-1126,68558,34.0429,23963,366
1.80334,21.7196,-1125,68559,34.2421,23963,366
2.44531,21.6684,-1124,68560,34.2421,23963,366
1.49066,21.8014,-1123,68561,34.3416,23963,366
1.70829,21.9068,-1122,68562,34.2421,23963,366
2.25668,21.9068,-1121,68563,34.2421,23963,366
1.82437,22.0519,-1120,68564,34.5905,23963,366
1.33543,22.2644,-1119,68565,34.3416,23963,366
1.22752,22.2844,-1118,68566,34.2421,23963,366
2.08994,22.1973,-1117,68567,34.4412,23963,366
1.17594,22.26,-1116,68568,34.5408,23960,365
2.35593,22.3021,-1115,68569,34.3914,23960,365
2.05311,22.3021,-1114,68570,34.3914,23960,365
1.06977,22.15,-1113,68571,34.2421,23960,365
2.71512,22.3295,-1112,68572,34.2421,23960,365
2.41588,22.6081,-1111,68573,34.1425,23960,365
2.48784,22.5609,-1110,68574,34.2421,23960,365
1.28817,22.3868,-1109,68575,34.1425,23960,365
1.92608,22.3539,-1108,68576,34.4412,23960,365
2.65474,22.2202,-1107,68577,34.5408,23960,365
1.19205,22.2279,-1106,68578,34.1425,23968,362
2.38609,22.3229,-1105,68579,34.1923,23968,362
2.39606,22.3305,-1104,68580,34.3416,23968,362
2.36401,22.1254,-1103,68581,34.2421,23968,362
1.31745,22.0596,-1102,68582,34.3416,23968,362
1.98461,22.2279,-1101,68583,34.4412,23968,362
1.90617,22.3389,-1100,68584,34.3914,23968,362
2.06237,22.2188,-1099,68585,34.4412,23968,362
2.0156,22.1742,-1098,68586,34.0429,23968,362
1.36019,22.0153,-1097,68587,34.3416,23968,362
1.68298,21.9486,-1096,68588,34.1425,23969,362
0.878906,21.9591,-1095,68589,34.3914,23969,362
1.51603,22.0275,-1094,68590,34.2421,23969,362
2.36401,21.9733,-1093,68591,34.3416,23969,362
1.87846,21.9475,-1092,68592,34.1425,23969,362
1.68014,21.8591,-1091,68593,34.2421,23969,362
0.534885,21.8537,-1090,68594,34.2421,23969,362
2.21832,21.7385,-1089,68595,34.1425,23969,362
1.26953,21.5045,-1088,68596,34.3416,23969,362
2.02033,21.4982,-1087,68597,34.5408,23969,362
1.32827,21.6316,-1086,68598,34.3416,23971,367
0.845728,21.6164,-1085,68599,34.3416,23971,367
1.76323,21.5356,-1084,68600,34.2421,23971,367
0.926449,21.5757,-1083,68601,34.2421,23971,367
1.59273,21.6753,-1082,68602,34.3416,23971,367
1.14304,21.5878,-1081,68603,34.3416,23971,367
2.0762,21.5626,-1080,68604,34.3914,23971,367
1.55638,21.5971,-1079,68605,34.2421,23971,367
2.21187,21.4528,-1078,68606,34.2421,23971,367
0.402647,21.3096,-1077,68607,34.1425,23971,367
1.61355,21.4639,-1076,68608,34.2421,23974,362
1.62239,21.5124,-1075,68609,34.2421,23974,362
1.68298,21.5471,-1074,68610,34.2421,23974,362
2.14177,21.3173,-1073,68611,34.3416,23974,362
2.08079,21.4577,-1072,68612,34.1923,23974,362
1.48103,21.7145,-1071,68613,34.2421,23974,362
1.11773,21.6395,-1070,68614,34.2421,23974,362
2.45115,21.3012,-1069,68615,34.3416,23974,362
1.37067,21.4316,-1068,68616,34.2421,23974,362
2.25457,21.5889,-1067,68617,34.1425,23974,362
1.55638,21.5294,-1066,68618,34.3416,23978,362
0.921287,21.8274,-1065,68619,34.2421,23978,362
1.59273,21.9621,-1064,68620,34.2421,23978,362
2.79304,22.0339,-1063,68621,34.2421,23978,362
1.73047,21.9214,-1062,68622,34.3416,23978,362
1.37067,22.1611,-1061,68623,34.3914,23978,362
2.26301,22.2971,-1060,68624,34.3416,23978,362
2.18802,22.2426,-1059,68625,34.2421,23978,362
1.79273,22.2751,-1058,68626,34.2421,23978,362
2.24609,22.5212,-1057,68627,34.1425,23978,362
1.56859,22.6041,-1056,68628,34.2421,23976,365
1.60168,22.9366,-1055,68629,34.2421,23976,365
2.09677,23.1998,-1054,68630,34.1425,23976,365
2.1771,23.2129,-1053,68631,34.1425,23976,365
1.23912,23.2466,-1052,68632,34.1923,23976,365
2.18802,23.3515,-1051,68633,34.2421,23976,365
1.67446,23.6341,-1050,68634,34.3416,23976,365
1.31745,23.7799,-1049,68635,34.1425,23976,365
1.80334,24.0475,-1048,68636,34.2421,23976,365
2.23545,24.205,-1047,68637,34.2421,23976,365
2.32332,24.6031,-1046,68638,34.2421,23964,361
2.10585,24.4972,-1045,68639,34.3416,23964,361
1.71664,24.5206,-1044,68640,34.2421,23964,361
1.01487,24.7309,-1043,68641,34.1923,23964,361
2.24822,24.966,-1042,68642,33.9932,23964,361
1.94088,25.0435,-1041,68643,34.3416,23964,361
1.91864,25.3666,-1040,68644,34.2421,23964,361
1.96529,25.3666,-1039,68645,34.3416,23964,361
1.44518,25.3909,-1038,68646,34.5408,23964,361
0.239208,25.5742,-1037,68647,34.4412,23964,361
1.27702,25.7866,-1036,68648,34.1425,23969,362
2.47439,25.762,-1035,68649,34.3416,23969,362
2.54844,25.6548,-1034,68650,34.2421,23969,362
1.958,25.7337,-1033,68651,34.3416,23969,362
2.10585,25.974,-1032,68652,34.2421,23969,362
1.53789,26.1094,-1031,68653,34.3416,23969,362
1.83479,26.1396,-1030,68654,34.5408,23969,362
2.47439,26.1703,-1029,68655,34.1923,23969,362
1.9942,26.1897,-1028,68656,34.3416,23969,362
1.49385,26.4016,-1027,68657,34.1425,23969,362
1.70549,26.3508,-1026,68658,34.2421,23963,357
2.36401,26.6242,-1025,68659,34.3416,23963,357
1.00543,26.4217,-1024,68660,34.3416,23963,357
1.3029,26.2928,-1023,68661,33.8936,23963,357
2.0739,26.4696,-1022,68662,34.3914,23963,357
1.77132,26.843,-1021,68663,34.3416,23963,357
1.89614,26.7958,-1020,68664,34.1923,23963,357
2.4974,26.4794,-1019,68665,34.3914,23963,357
1.66303,26.3044,-1018,68666,34.2421,23963,357
2.3539,26.5724,-1017,68667,34.2421,23963,357
2.47246,26.4126,-1016,68668,34.1923,23960,362
1.49385,26.3598,-1015,68669,34.2421,23960,362
1.6165,26.3341,-1014,68670,34.2421,23960,362
2.12388,26.3256,-1013,68671,34.1425,23960,362
1.91615,26.0342,-1012,68672,34.3416,23960,362
1.88606,26.0591,-1011,68673,34.3416,23960,362
1.98701,26.0428,-1010,68674,34.0429,23960,362
1.19205,26.0539,-1009,68675,34.1923,23960,362
1.02423,26.1453,-1008,68676,34.2421,23960,362
2.41193,26.0425,-1007,68677,34.2421,23960,362
1.88099,25.8515,-1006,68678,34.2421,23950,360
2.19455,25.7895,-1005,68679,34.1923,23950,360
1.34255,25.5413,-1004,68680,34.2421,23950,360
1.39481,25.4381,-1003,68681,34.0429,23950,360
1.54717,25.5107,-1002,68682,34.1923,23950,360
1.9942,25.4103,-1001,68683,34.1923,23950,360
2.71512,25.3319,-1000,68684,34.2421,23950,360
1.76323,25.1965,-999,68685,34.1425,23950,360
1.61355,25.2264,-998,68686,34.1923,23950,360
2.0156,25.1684,-997,68687,34.1425,23950,360
1.30655,25.1983,-996,68688,34.4412,23949,364
1.82437,25.3918,-995,68689,34.3416,23949,364
1.85547,25.1684,-994,68690,34.3416,23949,364
1.79273,24.9391,-993,68691,33.9932,23949,364
1.77938,24.8394,-992,68692,34.3416,23949,364
0.878906,24.6062,-991,68693,34.3416,23949,364
1.68298,24.507,-990,68694,34.1923,23949,364
1.53168,24.5121,-989,68695,34.4412,23949,364
1.83739,24.4857,-988,68696,34.3416,23949,364
3.9318,24.4622,-987,68697,34.1923,23949,364
1.3029,24.5158,-986,68698,34.3416,23952,362
1.18402,24.1801,-985,68699,34.1425,23952,362
1.78473,23.7902,-984,68700,34.2421,23952,362
0.41432,23.8272,-983,68701,34.1923,23952,362
1.77132,23.8899,-982,68702,34.1923,23952,362
1.20794,23.9898,-981,68703,34.2421,23952,362
1.92856,23.8653,-980,68704,34.4412,23952,362
1.75238,23.6413,-979,68705,34.3914,23952,362
1.0381,23.6413,-978,68706,34.3914,23952,362
2.75176,23.6719,-977,68707,34.2421,23952,362
1.74693,23.4709,-976,68708,34.2421,23954,361
2.50313,23.3164,-975,68709,34.3416,23954,361
1.86827,23.3872,-974,68710,34.1425,23954,361
1.68298,23.3566,-973,68711,34.3914,23954,361
1.19604,23.236,-972,68712,34.1923,23954,361
1.90867,23.0325,-971,68713,34.3914,23954,361
1.27328,22.8405,-970,68714,34.2421,23954,361
1.70829,23.0445,-969,68715,34.2421,23954,361
1.48103,23.176,-968,68716,34.5408,23954,361
2.41786,23.4404,-967,68717,34.3416,23954,361
1.63702,23.1332,-966,68718,34.3416,23945,361
2.93131,23.0919,-965,68719,34.3416,23945,361
1.88858,22.8575,-964,68720,34.1923,23945,361
1.19205,22.7866,-963,68721,34.1923,23945,361
2.79986,22.8643,-962,68722,34.2421,23945,361
2.04845,22.8392,-961,68723,34.3416,23945,361
1.90116,22.7677,-960,68724,34.2421,23945,361
1.39481,22.836,-959,68725,34.3416,23945,361
1.58673,22.7542,-958,68726,34.2421,23945,361
1.05631,22.8245,-957,68727,34.3416,23945,361
2.09904,22.983,-956,68728,34.4412,23948,363
1.76052,22.8549,-955,68729,34.2421,23948,363
1.42525,22.5368,-954,68730,34.3416,23948,363
2.63853,22.5939,-953,68731,34.3416,23948,363
1.14304,22.6515,-952,68732,34.0429,23948,363
0.811194,22.5724,-951,68733,34.2421,23948,363
2.44336,22.3682,-950,68734,34.3416,23948,363
1.70829,22.3512,-949,68735,34.3416,23948,363
1.60466,22.3828,-948,68736,34.2421,23948,363
2.17052,22.4497,-947,68737,34.3416,23948,363
1.31383,22.4357,-946,68738,34.3914,23957,362
1.43857,22.1973,-945,68739,34.3416,23957,362
2.10811,22.3379,-944,68740,34.4412,23957,362
1.62826,22.3602,-943,68741,34.1425,23957,362
2.0156,22.2372,-942,68742,34.3416,23957,362
1.96772,22.2222,-941,68743,34.3416,23957,362
1.55638,22.1718,-940,68744,34.3416,23957,362
2.31715,22.1869,-939,68745,34.3416,23957,362
1.31745,21.8294,-938,68746,34.3416,23957,362
1.73323,21.6949,-937,68747,34.2421,23957,362
1.87592,21.6701,-936,68748,34.2421,23957,360
1.57769,21.7522,-935,68749,34.2421,23957,360
1.97739,21.575,-934,68750,34.3416,23957,360
1.31745,21.4493,-933,68751,34.1425,23957,360
1.05631,21.4944,-932,68752,34.3416,23957,360
1.50022,21.2227,-931,68753,34.2421,23957,360
1.53168,21.2227,-930,68754,34.3416,23957,360
2.11037,21.263,-929,68755,34.2421,23957,360
2.59663,21.0372,-928,68756,34.1425,23957,360
1.88858,20.7652,-927,68757,34.3416,23957,360
1.68014,20.7555,-926,68758,34.4412,23952,360
1.47134,20.79,-925,68759,34.3914,23952,360
1.8606,20.6306,-924,68760,34.2421,23952,360
1.23526,20.443,-923,68761,34.3416,23952,360
1.81125,20.2306,-922,68762,34.3416,23952,360
2.15066,19.9879,-921,68763,34.2421,23952,360
1.69708,19.8799,-920,68764,34.2421,23952,360
2.1771,19.7728,-919,68765,34.2421,23952,360
1.78473,19.7158,-918,68766,34.3416,23952,360
1.94824,19.6658,-917,68767,34.2421,23952,360
1.13045,19.4341,-916,68768,34.3416,23952,360
2.33764,19.4188,-915,68769,34.3416,23952,360
1.94579,19.3688,-914,68770,34.3416,23952,360
1.71664,18.992,-913,68771,34.2421,23952,360
1.25061,18.8909,-912,68772,34.1425,23952,360
1.76052,18.6564,-911,68773,34.3914,23952,360
2.18802,18.7584,-910,68774,34.3416,23952,360
1.15135,18.4859,-909,68775,34.3914,23952,360
1.17998,18.5507,-908,68776,34.2421,23952,360
1.53168,18.2784,-907,68777,34.3914,23952,360
1.90867,18.1676,-906,68778,34.2421,23952,360
2.0739,18.2861,-905,68779,34.1923,23952,360
1.73047,17.9725,-904,68780,34.2421,23952,360
2.02269,18.1376,-903,68781,34.1923,23952,360
1.5034,18.3325,-902,68782,34.2421,23952,360
2.63491,18.0602,-901,68783,34.3416,23952,360
1.54717,17.9953,-900,68784,34.0429,23952,360
2.22905,18.2061,-899,68785,34.1425,23952,360
1.64863,18.5908,-898,68786,34.3416,23952,360
2.23332,18.2877,-897,68787,34.2421,23952,360
2.21187,18.0771,-896,68788,34.3416,23922,360
2.93131,18.0313,-895,68789,34.0429,23922,360
0.981433,17.9825,-894,68790,34.3416,23922,360
0.793363,18.231,-893,68791,34.1425,23922,360
2.22262,18.5454,-892,68792,34.3416,23922,360
1.92112,18.4314,-891,68793,34.3416,23922,360
1.79539,18.3455,-890,68794,34.1425,23922,360
0.889691,18.3808,-889,68795,34.3416,23922,360
2.27981,18.658,-888,68796,34.3416,23922,360
1.56859,18.7452,-887,68797,34.1923,23922,360
2.67264,18.8234,-886,68798,34.3914,23961,359
1.97739,18.7953,-885,68799,33.9932,23961,359
1.49385,18.9932,-884,68800,34.4412,23961,359
1.86827,19.2287,-883,68801,34.1425,23961,359
2.27352,19.1728,-882,68802,34.1425,23961,359
2.11037,19.2554,-881,68803,34.3914,23961,359
1.56859,19.4383,-880,68804,34.3914,23961,359
1.47134,19.6184,-879,68805,34.2421,23961,359
2.43358,19.8014,-878,68806,34.1425,23961,359
1.89362,19.8014,-877,68807,34.2421,23961,359
1.58673,19.8731,-876,68808,34.3914,23963,361
2.26091,20.0445,-875,68809,34.1425,23963,361
1.51917,20.3715,-874,68810,34.2421,23963,361
2.10811,20.2762,-873,68811,34.2421,23963,361
1.27702,20.1312,-872,68812,34.3914,23963,361
1.56859,20.3495,-871,68813,34.5408,23963,361
1.82437,20.5959,-870,68814,34.2421,23963,361
2.35997,20.3993,-869,68815,34.2421,23963,361
1.67446,20.3949,-868,68816,34.2421,23963,361
1.73047,20.2154,-867,68817,34.3914,23963,361
1.70829,20.3536,-866,68818,34.2421,23956,360
2.46667,20.3788,-865,68819,34.3914,23956,360
2.8705,20.5096,-864,68820,34.3914,23956,360
1.96529,20.6328,-863,68821,34.3416,23956,360
2.15951,20.6876,-862,68822,34.2421,23956,360
1.4118,20.7914,-861,68823,34.0429,23956,360
1.96772,20.8072,-860,68824,34.3914,23956,360
1.28817,20.64,-859,68825,33.9932,23956,360
1.66589,20.64,-858,68826,34.3914,23956,360
1.58673,20.6129,-857,68827,34.3416,23956,360
1.98461,20.6201,-856,68828,34.2421,23965,354
1.67446,20.6317,-855,68829,34.1923,23965,354
1.80334,20.4733,-854,68830,34.3416,23965,354
1.88858,20.2114,-853,68831,34.3914,23965,354
2.25668,20.3022,-852,68832,34.1923,23965,354
1.66589,20.1867,-851,68833,34.3416,23965,354
2.21402,20.0563,-850,68834,34.3416,23965,354
0.878906,20.102,-849,68835,34.2421,23965,354
1.89614,20.1194,-848,68836,34.2421,23965,354
1.85804,19.8224,-847,68837,34.3416,23965,354
1.4118,19.7245,-846,68838,34.3416,23967,361
1.67161,19.6923,-845,68839,34.1923,23967,361
1.88858,19.6897,-844,68840,34.1923,23967,361
1.57769,19.839,-843,68841,34.1923,23967,361
2.58559,19.3988,-842,68842,34.3914,23967,361
1.73323,19.1386,-841,68843,34.3914,23967,361
1.68014,19.0203,-840,68844,34.2421,23967,361
1.93596,18.7488,-839,68845,34.3416,23967,361
1.98461,18.62,-838,68846,34.1923,23967,361
2.31097,18.5048,-837,68847,34.1425,23967,361
2.06237,18.6148,-836,68848,34.3416,23968,359
1.60466,18.3272,-835,68849,34.1923,23968,359
2.39606,17.9949,-834,68850,34.3416,23968,359
3.36312,17.6614,-833,68851,34.2421,23968,359
2.00612,17.6775,-832,68852,34.4412,23968,359
1.70829,17.361,-831,68853,34.2421,23968,359
1.9942,17.0379,-830,68854,34.3416,23968,359
2.27352,16.8806,-829,68855,34.3416,23968,359
2.23759,16.7005,-828,68856,34.1923,23968,359
1.76323,16.6123,-827,68857,34.1923,23968,359
0.655098,16.6325,-826,68858,34.1923,23952,358
2.25668,16.2926,-825,68859,34.2421,23952,358
0.931581,16.1922,-824,68860,34.3914,23952,358
2.41391,15.8837,-823,68861,34.0429,23952,358
2.49167,15.4268,-822,68862,34.3416,23952,358
2.0739,15.4046,-821,68863,34.1923,23952,358
2.16612,15.1185,-820,68864,34.3416,23952,358
2.34782,14.8199,-819,68865,34.0429,23952,358
2.21187,14.6571,-818,68866,34.3416,23952,358
0.717624,14.5192,-817,68867,34.2421,23952,358
1.57769,14.5079,-816,68868,34.3416,23964,361
1.90617,14.2744,-815,68869,34.1923,23964,361
2.18584,13.7767,-814,68870,34.1425,23964,361
2.28816,13.3515,-813,68871,34.2421,23964,361
2.00136,13.1394,-812,68872,34.2421,23964,361
1.40163,12.94,-811,68873,34.2421,23964,361
1.97739,12.7293,-810,68874,33.9932,23964,361
1.97498,12.4524,-809,68875,34.3416,23964,361
1.01956,12.0862,-808,68876,34.3416,23964,361
1.66303,11.8666,-807,68877,34.1425,23964,361
2.72039,11.7954,-806,68878,34.0429,23969,362
2.19238,11.5206,-805,68879,34.1425,23969,362
2.0156,11.4733,-804,68880,34.1425,23969,362
1.63993,11.3414,-803,68881,34.2421,23969,362
2.0693,11.4655,-802,68882,34.3416,23969,362
2.57635,10.9101,-801,68883,34.2421,23969,362
1.01956,10.3709,-800,68884,34.3416,23969,362
1.31745,10.2036,-799,68885,34.1425,23969,362
2.10811,10.1502,-798,68886,34.1923,23969,362
2.78449,9.86431,-797,68887,34.1425,23969,362
1.86827,9.73506,-796,68888,34.1923,23962,357
2.01324,9.84087,-795,68889,34.3914,23962,357
2.09677,9.50739,-794,68890,34.1923,23962,357
1.67161,9.13817,-793,68891,34.3416,23962,357
1.63702,8.84568,-792,68892,34.2421,23962,357
2.45115,8.6092,-791,68893,34.1923,23962,357
2.60762,8.49244,-790,68894,34.2421,23962,357
0.845728,8.66957,-789,68895,34.2421,23962,357
1.68298,8.28461,-788,68896,34.2421,23962,357
2.40797,8.15408,-787,68897,34.2421,23962,357
2.25668,8.00934,-786,68898,34.2421,23955,361
1.75238,7.93926,-785,68899,34.3416,23955,361
1.46484,7.70108,-784,68900,34.2421,23955,361
2.45892,7.5723,-783,68901,34.3416,23955,361
1.74966,7.41119,-782,68902,34.1923,23955,361
1.75781,7.15753,-781,68903,34.1923,23955,361
1.96529,7.01134,-780,68904,34.3416,23955,361
2.7396,7.01878,-779,68905,34.3416,23955,361
1.62826,6.96015,-778,68906,34.1923,23955,361
2.21832,6.88048,-777,68907,34.1923,23955,361
1.69708,6.93226,-776,68908,34.1923,23956,359
2.0739,6.79768,-775,68909,34.3416,23956,359
1.10916,6.63798,-774,68910,34.3416,23956,359
2.32946,6.65367,-773,68911,34.3914,23956,359
2.0785,6.75701,-772,68912,34.2421,23956,359
2.25668,6.87181,-771,68913,34.1425,23956,359
1.94579,6.77573,-770,68914,34.1923,23956,359
1.9942,6.61662,-769,68915,34.2421,23956,359
1.3637,6.4996,-768,68916,34.2421,23956,359
1.71664,6.45589,-767,68917,34.2421,23956,359
1.96287,6.54757,-766,68918,34.0429,23957,361
1.57769,6.52477,-765,68919,34.2421,23957,361
2.05543,6.47433,-764,68920,34.3416,23957,361
1.76323,6.45243,-763,68921,34.1425,23957,361
1.80334,6.70054,-762,68922,34.3416,23957,361
1.50657,6.78562,-761,68923,34.2421,23957,361
1.22363,6.88481,-760,68924,34.3416,23957,361
2.17052,6.88048,-759,68925,34.3416,23957,361
2.06006,6.90642,-758,68926,34.1923,23957,361
1.61355,6.77793,-757,68927,34.2421,23957,361
1.58673,6.78562,-756,68928,34.3416,23954,360
1.67161,6.88914,-755,68929,34.1923,23954,360
2.57635,6.92473,-754,68930,34.3416,23954,360
2.26722,7.04527,-753,68931,34.1425,23954,360
2.11037,7.16481,-752,68932,34.3416,23954,360
2.1771,7.08639,-751,68933,34.2421,23954,360
2.03678,7.47326,-750,68934,34.4412,23954,360
1.97739,7.56147,-749,68935,34.2421,23954,360
1.71386,7.72137,-748,68936,34.2421,23954,360
2.03444,7.74353,-747,68937,34.0429,23954,360
2.15287,7.62427,-746,68938,34.2421,23952,358
1.60168,7.80582,-745,68939,34.1923,23952,358
2.87879,7.95145,-744,68940,34.1425,23952,358
2.00136,7.82013,-743,68941,34.0429,23952,358
2.12837,8.07235,-742,68942,34.2421,23952,358
1.50022,8.14494,-741,68943,34.3914,23952,358
1.62239,8.14494,-740,68944,34.3416,23952,358
1.83739,8.34465,-739,68945,34.3416,23952,358
2.02269,8.24765,-738,68946,34.3914,23952,358
2.54282,8.18509,-737,68947,34.1425,23952,358
1.92608,8.11653,-736,68948,34.3416,23949,359
0.632885,8.40337,-735,68949,34.3416,23949,359
1.59273,8.28641,-734,68950,34.1923,23949,359
1.88099,8.11469,-733,68951,34.2421,23949,359
1.73047,8.4016,-732,68952,34.1425,23949,359
2.25034,8.63944,-731,68953,34.4412,23949,359
2.44921,8.72269,-730,68954,34.2421,23949,359
1.57769,8.49069,-729,68955,34.3416,23949,359
2.2819,8.49069,-728,68956,34.1923,23949,359
2.18802,8.32677,-727,68957,34.1923,23949,359
1.57769,8.09815,-726,68958,34.2421,23955,359
2.2819,8.16047,-725,68959,34.1425,23955,359
1.52856,8.34911,-724,68960,34.2421,23955,359
2.04845,8.54928,-723,68961,34.2421,23955,359
1.17998,8.51172,-722,68962,34.1425,23955,359
2.19672,8.34911,-721,68963,34.1923,23955,359
1.49066,8.33929,-720,68964,34.3416,23955,359
2.19238,8.11469,-719,68965,34.2421,23955,359
1.57769,8.05849,-718,68966,34.3416,23955,359
1.67161,7.98605,-717,68967,34.3416,23955,359
1.37415,7.96082,-716,68968,34.3416,23956,361
1.23526,7.70688,-715,68969,34.2421,23956,361
2.55404,7.70688,-714,68970,34.2421,23956,361
1.06977,7.44829,-713,68971,34.3416,23956,361
1.8606,7.25163,-712,68972,34.2421,23956,361
1.19604,7.16897,-711,68973,34.2421,23956,361
2.15287,7.10109,-710,68974,34.1425,23956,361
1.18402,6.88373,-709,68975,34.3416,23956,361
2.34782,6.79439,-708,68976,34.1923,23956,361
2.11714,6.67826,-707,68977,34.3914,23956,361
1.68863,6.66151,-706,68978,34.2421,23953,358
1.95556,6.57142,-705,68979,34.3416,23953,358
1.80334,6.25424,-704,68980,34.1425,23953,358
1.5034,6.35938,-703,68981,34.1425,23953,358
1.67161,6.24112,-702,68982,34.2421,23953,358
2.23545,6.04957,-701,68983,34.3914,23953,358
2.55217,5.64171,-700,68984,34.5408,23953,358
2.12837,5.53236,-699,68985,34.1425,23953,358
1.73872,5.60328,-698,68986,34.3914,23953,358
2.23332,5.51482,-697,68987,34.2421,23953,358
1.77132,5.50536,-696,68988,34.5408,23951,359
0.961803,5.32372,-695,68989,34.1425,23951,359
1.9942,5.12986,-694,68990,34.2421,23951,359
2.69751,4.8614,-693,68991,34.3416,23951,359
1.49066,4.403,-692,68992,34.1923,23951,359
2.25668,4.49511,-691,68993,34.0429,23951,359
1.86316,4.61613,-690,68994,34.4412,23951,359
2.0156,4.70565,-689,68995,34.1923,23951,359
2.25034,4.34166,-688,68996,34.1923,23951,359
1.67161,3.70258,-687,68997,34.1923,23951,359
1.80069,3.72864,-686,68998,34.1923,23958,362
1.83479,3.71463,-685,68999,34.3416,23958,362
2.0739,3.7684,-684,69000,34.3416,23958,362
2.37005,3.56521,-683,69001,34.2421,23958,362
1.11773,3.49769,-682,69002,34.0429,23958,362
2.20539,3.41361,-681,69003,34.1425,23958,362
1.11773,3.49769,-680,69004,34.3416,23958,362
1.92856,3.26866,-679,69005,34.3914,23958,362
1.80334,3.28684,-678,69006,34.2421,23958,362
1.79804,3.54845,-677,69007,34.3914,23958,362
1.27702,3.62736,-676,69008,34.3416,23966,360
2.93944,3.55055,-675,69009,34.0429,23966,360
1.58673,3.56102,-674,69010,34.3416,23966,360
1.80334,3.6925,-673,69011,34.1425,23966,360
2.30684,3.656,-672,69012,34.3416,23966,360
1.46484,3.6824,-671,69013,34.3416,23966,360
1.67161,3.89479,-670,69014,34.3416,23966,360
1.04725,3.93854,-669,69015,34.2421,23966,360
2.06006,4.15757,-668,69016,34.1425,23966,360
1.16371,4.32101,-667,69017,34.1923,23966,360
1.19604,4.31584,-666,69018,34.2421,23958,359
1.83739,4.538,-665,69019,34.4412,23958,359
1.29923,4.60805,-664,69020,34.1923,23958,359
1.00068,4.84298,-663,69021,34.2421,23958,359
1.66303,4.90868,-662,69022,34.2421,23958,359
2.15066,5.18763,-661,69023,34.3416,23958,359
1.74966,5.19481,-660,69024,34.1923,23958,359
1.83739,5.72951,-659,69025,34.3416,23958,359
1.62239,5.69036,-658,69026,34.5408,23958,359
2.12164,5.3055,-657,69027,34.1425,23958,359
1.50022,5.52966,-656,69028,34.2421,23948,358
1.76323,5.88728,-655,69029,34.1923,23948,358
1.8606,6.00134,-654,69030,34.3416,23948,358
2.18802,5.95273,-653,69031,34.2421,23948,358
1.79539,6.27446,-652,69032,34.0429,23948,358
2.15951,6.52934,-651,69033,34.1425,23948,358
1.57769,6.68161,-650,69034,34.3416,23948,358
2.11263,6.64246,-649,69035,34.2421,23948,358
1.49066,6.88481,-648,69036,34.1425,23948,358
0.840071,6.87289,-647,69037,34.1923,23948,358
2.19672,7.00071,-646,69038,34.1425,23964,360
2.71688,7.16585,-645,69039,34.3416,23964,360
2.16832,7.44729,-644,69040,34.3914,23964,360
0.889691,7.42625,-643,69041,34.2421,23964,360
2.19238,7.63208,-642,69042,34.2421,23964,360
1.89865,7.76083,-641,69043,34.1425,23964,360
2.4974,7.98885,-640,69044,34.3416,23964,360
2.29856,8.24042,-639,69045,34.2421,23964,360
0.966748,8.17598,-638,69046,34.2421,23964,360
2.17052,8.26931,-637,69047,34.1425,23964,360
1.00068,8.38828,-636,69048,34.1923,23969,361
1.58673,8.75254,-635,69049,34.1923,23969,361
2.01324,8.85157,-634,69050,34.2421,23969,361
1.57769,9.12593,-633,69051,34.1425,23969,361
2.63129,9.00512,-632,69052,34.3416,23969,361
3.14022,9.01917,-631,69053,34.2421,23969,361
1.63993,9.07189,-630,69054,34.3416,23969,361
1.19604,9.21368,-629,69055,34.3416,23969,361
3.06802,9.32061,-628,69056,34.1923,23969,361
1.61355,9.62809,-627,69057,34.0429,23969,361
1.39481,9.92755,-626,69058,34.2421,23971,359
1.19604,10.0972,-625,69059,34.0429,23971,359
2.45698,10.192,-624,69060,34.3416,23971,359
2.48976,10.0847,-623,69061,34.3416,23971,359
2.02504,10.1149,-622,69062,34.2421,23971,359
2.0785,10.2641,-621,69063,34.3416,23971,359
2.52777,10.4218,-620,69064,34.1923,23971,359
1.39481,10.5314,-619,69065,34.0429,23971,359
1.74146,11.1779,-618,69066,34.0429,23971,359
1.66589,10.9843,-617,69067,34.2421,23971,359
1.87846,10.7588,-616,69068,34.3416,23970,359
1.56859,10.7512,-615,69069,34.2421,23970,359
2.18366,10.9415,-614,69070,34.2421,23970,359
1.96529,11.3269,-613,69071,34.1923,23970,359
1.9335,11.6454,-612,69072,34.2421,23970,359
1.67446,11.7619,-611,69073,34.2421,23970,359
1.84774,11.7809,-610,69074,34.3416,23970,359
1.88858,11.7777,-609,69075,34.3416,23970,359
1.58973,12.0485,-608,69076,34.2421,23970,359
2.55777,12.1354,-607,69077,34.2421,23970,359
1.43525,12.1789,-606,69078,34.2421,23975,362
1.67161,12.2497,-605,69079,34.1425,23975,362
2.23332,12.4374,-604,69080,34.0429,23975,362
1.46158,12.5525,-603,69081,34.3416,23975,362
1.11773,12.6324,-602,69082,34.3914,23975,362
1.56859,12.559,-601,69083,34.1923,23975,362
2.33151,12.5359,-600,69084,34.3416,23975,362
0.966748,12.7626,-599,69085,34.2421,23975,362
1.54717,12.9912,-598,69086,34.1425,23975,362
1.92856,13.1298,-597,69087,34.2421,23975,362
1.36019,13.1955,-596,69088,34.1923,23967,363
2.2819,13.1525,-595,69089,34.2421,23967,363
2.26301,13.3113,-594,69090,34.3914,23967,363
2.12388,13.5173,-593,69091,34.2421,23967,363
0.98628,13.5624,-592,69092,34.2421,23967,363
1.98461,13.6096,-591,69093,34.3416,23967,363
1.00068,13.8822,-590,69094,34.1425,23967,363
1.24679,14.1544,-589,69095,34.1425,23967,363
1.23912,13.9315,-588,69096,34.3416,23967,363
2.33356,13.9454,-587,69097,34.1923,23967,363
2.28816,14.1549,-586,69098,34.3416,23951,363
0.662337,14.4177,-585,69099,34.3416,23951,363
2.10811,14.368,-584,69100,34.2421,23951,363
2.25668,14.2556,-583,69101,34.3914,23951,363
0.811194,14.3592,-582,69102,34.2421,23951,363
1.96772,14.6327,-581,69103,34.2421,23951,363
2.05543,14.7422,-580,69104,34.1923,23951,363
1.25061,14.7002,-579,69105,34.1425,23951,363
1.3029,14.5392,-578,69106,34.4412,23951,363
2.04146,14.6906,-577,69107,34.1425,23951,363
1.71664,14.686,-576,69108,34.1425,23960,361
1.83998,14.853,-575,69109,34.0429,23960,361
2.37809,15.0171,-574,69110,34.3914,23960,361
2.37809,15.0171,-573,69111,34.1425,23960,361
1.59273,14.959,-572,69112,34.5408,23960,361
1.59273,14.7397,-571,69113,34.4412,23960,361
2.36401,14.7952,-570,69114,34.2421,23960,361
2.55217,14.9635,-569,69115,34.2421,23960,361
0.447517,14.9674,-568,69116,34.3416,23960,361
2.25668,14.9116,-567,69117,34.2421,23960,361
1.22752,15.0196,-566,69118,34.2421,23968,360
2.63491,15.0681,-565,69119,34.3416,23968,360
1.44518,15.2363,-564,69120,34.3416,23968,360
2.21187,14.9071,-563,69121,34.3416,23968,360
1.48103,14.7417,-562,69122,34.3416,23968,360
2.22262,14.7417,-561,69123,34.2421,23968,360
1.96529,14.9056,-560,69124,34.1425,23968,360
1.57163,14.9635,-559,69125,34.3914,23968,360
2.57079,14.9071,-558,69126,34.2421,23968,360
1.45505,14.857,-557,69127,34.3416,23968,360
2.05543,14.9176,-556,69128,34.2421,23966,362
0.905627,14.6946,-555,69129,34.2421,23966,362
1.68863,14.6342,-554,69130,34.1425,23966,362
2.61128,14.6946,-553,69131,34.2421,23966,362
3.03364,14.9196,-552,69132,34.1923,23966,362
2.55217,14.9709,-551,69133,34.2421,23966,362
1.31745,14.7028,-550,69134,34.3416,23966,362
2.6131,14.598,-549,69135,34.3416,23966,362
3.30015,14.4776,-548,69136,34.1425,23966,362
1.64863,14.4358,-547,69137,34.2421,23966,362
3.22561,14.6469,-546,69138,34.2421,23963,358
1.66589,14.4301,-545,69139,34.1425,23963,358
1.48103,14.3197,-544,69140,34.3914,23963,358
2.15287,14.5407,-543,69141,34.3914,23963,358
2.23545,14.7624,-542,69142,34.0429,23963,358
2.68333,14.8294,-541,69143,34.3416,23963,358
1.28817,14.6133,-540,69144,34.2421,23963,358
1.63993,14.4358,-539,69145,34.2421,23963,358
1.97256,14.2681,-538,69146,34.2421,23963,358
1.20399,14.4456,-537,69147,34.1923,23963,358
1.17998,14.655,-536,69148,34.1425,23957,360
1.31383,14.6026,-535,69149,34.4412,23957,360
1.57769,14.1717,-534,69150,34.3416,23957,360
1.56859,13.9021,-533,69151,34.3914,23957,360
1.60168,13.9267,-532,69152,34.3416,23957,360
2.16832,14.2032,-531,69153,34.3416,23957,360
2.26722,14.4301,-530,69154,34.4412,23957,360
2.26722,14.4956,-529,69155,34.3416,23957,360
1.27702,14.1064,-528,69156,34.2421,23957,360
0.921287,13.9042,-527,69157,34.2421,23957,360
1.71108,13.7923,-526,69158,34.3416,23960,359
1.79273,13.801,-525,69159,34.1923,23960,359
0.625305,14.0301,-524,69160,34.3416,23960,359
2.15287,13.9444,-523,69161,34.2421,23960,359
1.20794,13.9016,-522,69162,34.3416,23960,359
3.1143,13.8236,-521,69163,34.1425,23960,359
2.14177,13.8301,-520,69164,34.2421,23960,359
1.89865,13.9881,-519,69165,34.3416,23960,359
2.0716,13.8672,-518,69166,34.2421,23960,359
1.52231,13.7939,-517,69167,34.1923,23960,359
2.39805,13.6468,-516,69168,34.3416,23969,360
1.89865,13.8468,-515,69169,34.1425,23969,360
1.69708,13.7637,-514,69170,34.1923,23969,360
1.4118,13.5976,-513,69171,34.1425,23969,360
2.01324,13.6353,-512,69172,34.4412,23969,360
2.81175,13.3783,-511,69173,34.3914,23969,360
1.55332,13.3504,-510,69174,34.0429,23969,360
1.67446,13.4953,-509,69175,34.2421,23969,360
2.03209,13.4953,-508,69176,34.1923,23969,360
1.09619,13.3504,-507,69177,34.1425,23969,360
2.27352,13.2855,-506,69178,34.1923,23964,357
1.73047,13.4505,-505,69179,34.2421,23964,357
1.58973,13.5151,-504,69180,34.1425,23964,357
1.76323,13.3113,-503,69181,34.1923,23964,357
2.25668,13.1615,-502,69182,34.2421,23964,357
1.38452,13.0712,-501,69183,34.3914,23964,357
1.73047,13.4,-500,69184,34.3416,23964,357
2.17052,13.2135,-499,69185,34.1923,23964,357
1.66589,13.1898,-498,69186,34.3416,23964,357
3.16442,13.0775,-497,69187,34.1923,23964,357
2.06006,13.1898,-496,69188,34.2421,23964,357
2.50503,13.0124,-495,69189,34.1923,23964,357
2.00136,12.9768,-494,69190,34.2421,23964,357
1.49704,12.9854,-493,69191,34.3416,23964,357
2.27352,13.1008,-492,69192,34.4412,23964,357
1.40163,13.1355,-491,69193,34.3416,23964,357
1.30655,13.3437,-490,69194,34.1425,23964,357
1.66303,13.0763,-489,69195,34.2421,23964,357
1.51917,12.8371,-488,69196,34.2421,23964,357
1.86316,13.0164,-487,69197,34.1923,23964,357
2.47246,13.0112,-486,69198,34.2421,23964,360
2.36401,13.1304,-485,69199,34.2421,23964,360
0.900346,13.1729,-484,69200,34.2421,23964,360
2.40203,13.1932,-483,69201,34.2421,23964,360
1.84516,13.1264,-482,69202,34.1425,23964,360
1.70829,13.1502,-481,69203,34.3914,23964,360
1.76323,13.2411,-480,69204,34.2421,23964,360
1.31745,13.2675,-479,69205,34.1425,23964,360
1.68863,12.9389,-478,69206,34.0429,23964,360
2.47631,12.8203,-477,69207,34.3416,23964,360
1.09619,13.0301,-476,69208,34.3416,23940,361
1.62239,13.1474,-475,69209,34.2421,23940,361
2.33151,13.3252,-474,69210,34.1923,23940,361
2.0762,13.0866,-473,69211,34.1923,23940,361
2.30684,12.7644,-472,69212,34.2421,23940,361
1.3029,12.7626,-471,69213,34.0429,23940,361
1.76863,12.7316,-470,69214,34.1923,23940,361
1.61355,12.9124,-469,69215,34.3416,23940,361
1.34255,12.6789,-468,69216,34.0429,23940,361
1.32827,12.3792,-467,69217,34.1425,23940,361
2.08079,12.5269,-466,69218,34.2421,23969,361
2.76559,12.4972,-465,69219,34.2421,23969,361
1.84774,12.5596,-464,69220,34.1425,23969,361
1.47134,12.6818,-463,69221,34.3914,23969,361
1.76052,12.3061,-462,69222,34.3416,23969,361
1.83479,12.2807,-461,69223,34.2421,23969,361
2.72214,12.2497,-460,69224,34.2421,23969,361
2.11714,12.4182,-459,69225,34.1923,23969,361
1.93596,12.5359,-458,69226,34.2421,23969,361
1.71664,12.5477,-457,69227,34.2421,23969,361
1.32467,12.4709,-456,69228,34.3416,23969,362
1.66589,12.3297,-455,69229,34.5408,23969,362
1.28817,12.1471,-454,69230,34.1923,23969,362
2.30063,12.0954,-453,69231,34.1923,23969,362
1.47134,12.1176,-452,69232,34.3416,23969,362
1.23912,12.0584,-451,69233,34.2421,23969,362
1.92856,12.1642,-450,69234,34.3416,23969,362
2.74829,12.2807,-449,69235,34.2421,23969,362
1.79804,12.1293,-448,69236,34.1425,23969,362
1.78473,12.1746,-447,69237,34.2421,23969,362
1.48103,12.1863,-446,69238,34.3416,23966,364
2.32332,11.9791,-445,69239,34.3416,23966,364
2.32332,12.1863,-444,69240,34.2421,23966,364
1.62826,12.0479,-443,69241,34.2421,23966,364
2.03444,12.2107,-442,69242,34.2421,23966,364
2.20323,12.2375,-441,69243,34.1923,23966,364
2.16612,12.0843,-440,69244,34.3416,23966,364
1.92608,11.7866,-439,69245,34.1923,23966,364
1.95556,11.6971,-438,69246,34.3914,23966,364
1.23912,11.9411,-437,69247,34.2421,23966,364
2.26722,11.9803,-436,69248,34.3416,23973,360
1.55638,12.0064,-435,69249,34.2421,23973,360
1.38452,12.0064,-434,69250,34.3914,23973,360
1.79273,12.204,-433,69251,34.4412,23973,360
1.60466,12.0207,-432,69252,34.1923,23973,360
2.84044,12.4038,-431,69253,34.1425,23973,360
1.958,12.4601,-430,69254,34.3416,23973,360
1.86827,12.1759,-429,69255,34.1923,23973,360
0.926449,12.3049,-428,69256,34.3416,23973,360
3.16442,12.1912,-427,69257,34.3416,23973,360
1.86827,12.2643,-426,69258,34.3416,23973,363
1.81913,12.3804,-425,69259,34.1425,23973,363
1.21581,12.5317,-424,69260,34.1425,23973,363
1.05631,12.5975,-423,69261,34.3914,23973,363
1.66303,12.617,-422,69262,34.3416,23973,363
2.01324,12.8916,-421,69263,34.2421,23973,363
2.01324,12.9325,-420,69264,34.1923,23973,363
2.22905,12.9325,-419,69265,34.4412,23973,363
1.14304,13.2428,-418,69266,34.2421,23973,363
1.96772,13.3783,-417,69267,34.2421,23973,363
2.02033,13.4908,-416,69268,34.3416,23965,361
2.00136,13.3783,-415,69269,34.2421,23965,361
2.64575,13.5806,-414,69270,34.3416,23965,361
2.0739,13.7658,-413,69271,34.2421,23965,361
1.71108,13.9166,-412,69272,34.2421,23965,361
1.57769,13.8565,-411,69273,34.0429,23965,361
2.73612,13.7864,-410,69274,34.3416,23965,361
2.34782,13.8839,-409,69275,34.3416,23965,361
1.73047,14.1143,-408,69276,34.3416,23965,361
1.82437,14.22,-407,69277,34.3416,23965,361
1.68863,14.3301,-406,69278,34.3416,23961,362
1.34255,14.5561,-405,69279,34.3416,23961,362
1.88099,14.6428,-404,69280,34.1425,23961,362
2.21832,14.8173,-403,69281,34.3416,23961,362
1.71108,14.7766,-402,69282,34.2421,23961,362
2.10585,14.8073,-401,69283,34.1425,23961,362
1.57769,14.6678,-400,69284,34.1425,23961,362
2.42573,14.7109,-399,69285,34.2421,23961,362
2.1573,14.8916,-398,69286,34.3416,23961,362
0.926449,15.0107,-397,69287,34.3914,23961,362
1.97256,15.1569,-396,69288,34.1923,23971,360
1.57769,15.3036,-395,69289,34.3914,23971,360
1.21188,15.2402,-394,69290,34.1923,23971,360
1.52231,15.2846,-393,69291,34.2421,23971,360
1.09619,15.5375,-392,69292,34.1425,23971,360
1.41517,15.7248,-391,69293,34.4412,23971,360
1.73047,15.7679,-390,69294,34.3914,23971,360
1.05631,15.8108,-389,69295,34.1425,23971,360
1.45505,15.8837,-388,69296,34.1923,23971,360
1.54717,15.9338,-387,69297,34.1425,23971,360
2.21187,15.8019,-386,69298,34.2421,23980,360
1.68014,15.6973,-385,69299,34.1923,23980,360
1.83998,15.9954,-384,69300,34.3914,23980,360
2.17052,16.1894,-383,69301,34.2421,23980,360
1.88858,15.9954,-382,69302,34.3416,23980,360
1.44188,16.0855,-381,69303,34.3416,23980,360
1.70829,16.2697,-380,69304,34.1923,23980,360
1.79273,16.3141,-379,69305,34.1923,23980,360
0.884315,16.422,-378,69306,34.3416,23980,360
2.27352,16.3702,-377,69307,34.0429,23980,360
1.02423,16.2766,-376,69308,34.1425,23978,361
2.29856,16.2188,-375,69309,34.3416,23978,361
2.39606,16.3159,-374,69310,34.2421,23978,361
1.79539,16.5174,-373,69311,34.4412,23978,361
3.57614,16.7721,-372,69312,34.3416,23978,361
1.34255,16.671,-371,69313,34.3914,23978,361
0.750112,16.5233,-370,69314,34.4412,23978,361
1.63702,16.6679,-369,69315,34.2421,23978,361
2.12837,16.7219,-368,69316,34.5408,23978,361
2.35997,16.5778,-367,69317,34.2421,23978,361
1.56859,16.6222,-366,69318,34.2421,23974,362
1.82698,16.5228,-365,69319,33.9932,23974,362
1.86827,16.5814,-364,69320,34.3416,23974,362
2.30684,16.5485,-363,69321,34.1923,23974,362
1.67161,16.5301,-362,69322,34.3416,23974,362
1.42525,16.4655,-361,69323,34.3416,23974,362
2.78106,16.6276,-360,69324,34.5408,23974,362
1.79539,16.5989,-359,69325,34.3914,23974,362
2.19238,16.4836,-358,69326,34.3416,23974,362
2.06237,16.3159,-357,69327,34.3416,23974,362
2.0739,16.3251,-356,69328,34.3416,23977,363
1.94333,16.3929,-355,69329,34.1923,23977,363
2.02033,16.2702,-354,69330,34.3416,23977,363
1.60168,16.1585,-353,69331,34.1425,23977,363
1.34255,16.0215,-352,69332,34.3416,23977,363
1.79007,15.9656,-351,69333,34.2421,23977,363
1.57163,16.0215,-350,69334,34.3914,23977,363
2.11263,16.2041,-349,69335,34.3914,23977,363
1.12198,15.9996,-348,69336,34.1923,23977,363
2.08994,16.0586,-347,69337,34.2421,23977,363
1.79273,15.8992,-346,69338,34.1923,23982,358
1.82698,15.8546,-345,69339,34.2421,23982,358
2.04146,15.816,-344,69340,34.0429,23982,358
2.39407,15.824,-343,69341,34.3416,23982,358
2.44921,15.84,-342,69342,34.3416,23982,358
1.97498,15.7471,-341,69343,34.2421,23982,358
1.36019,15.5892,-340,69344,34.1425,23982,358
1.61059,15.6317,-339,69345,34.3914,23982,358
2.64575,15.5892,-338,69346,34.0429,23982,358
2.13508,15.572,-337,69347,34.3416,23982,358
2.7028,15.572,-336,69348,34.2421,23982,362
0.895034,15.6869,-335,69349,34.2421,23982,362
2.05543,15.6455,-334,69350,34.2421,23982,362
2.30684,15.7835,-333,69351,34.3416,23982,362
1.71664,15.6455,-332,69352,34.2421,23982,362
2.10811,15.704,-331,69353,34.1425,23982,362
2.04845,15.6045,-330,69354,34.3914,23982,362
2.24609,15.248,-329,69355,34.1923,23982,362
0.921287,15.149,-328,69356,34.3416,23982,362
1.53168,15.1721,-327,69357,34.3416,23982,362
1.60466,15.1947,-326,69358,34.2421,23973,362
2.32946,15.4316,-325,69359,34.3416,23973,362
2.45115,15.3731,-324,69360,34.2421,23973,362
2.19238,15.4909,-323,69361,34.2421,23973,362
1.96772,15.4962,-322,69362,34.1425,23973,362
1.96529,15.1775,-321,69363,34.3416,23973,362
1.88099,15.0052,-320,69364,34.3914,23973,362
2.27352,15.1313,-319,69365,34.2421,23973,362
2.32126,15.2246,-318,69366,34.2421,23973,362
2.56336,15.2666,-317,69367,34.3416,23973,362
2.04146,15.3192,-316,69368,34.2421,23971,357
2.05543,15.3294,-315,69369,34.3416,23971,357
1.92856,15.1239,-314,69370,34.1923,23971,357
2.23972,15.1239,-313,69371,34.2421,23971,357
1.64863,15.1096,-312,69372,34.1425,23971,357
1.17998,15.0785,-311,69373,34.2421,23971,357
1.36019,15.181,-310,69374,34.3416,23971,357
1.77132,15.181,-309,69375,34.1923,23971,357
1.54408,15.1224,-308,69376,34.3416,23971,357
2.37005,15.2563,-307,69377,34.2421,23971,357
2.10811,15.1981,-306,69378,34.2421,23978,362
1.86572,15.1407,-305,69379,33.9932,23978,362
1.57769,14.952,-304,69380,34.4412,23978,362
2.30684,15.0874,-303,69381,34.2421,23978,362
2.13954,15.0052,-302,69382,34.2421,23978,362
1.53168,14.9256,-301,69383,34.0429,23978,362
1.67161,15.0726,-300,69384,34.4412,23978,362
1.8606,15.0622,-299,69385,34.3416,23978,362
1.90116,15.0568,-298,69386,34.1923,23978,362
2.1573,14.8209,-297,69387,34.1425,23978,362
1.99659,14.7705,-296,69388,34.1923,23977,362
1.42859,14.8435,-295,69389,34.3416,23977,362
1.8529,14.9744,-294,69390,34.3416,23977,362
2.41983,15.0052,-293,69391,34.1923,23977,362
1.958,14.9575,-292,69392,34.2421,23977,362
1.79273,14.6199,-291,69393,34.1923,23977,362
2.5353,14.5863,-290,69394,34.3914,23977,362
2.0693,14.686,-289,69395,34.3416,23977,362
1.91864,14.9256,-288,69396,34.1425,23977,362
1.59273,14.8189,-287,69397,34.2421,23977,362
2.09677,14.5765,-286,69398,34.2421,23971,360
1.57769,14.4714,-285,69399,34.2421,23971,360
1.72495,14.4152,-284,69400,34.2421,23971,360
1.58973,14.493,-283,69401,34.2421,23971,360
1.25821,14.3098,-282,69402,34.3416,23971,360
2.68155,14.1417,-281,69403,34.3914,23971,360
1.05631,13.7821,-280,69404,34.3416,23971,360
1.76323,14.1733,-279,69405,34.3416,23971,360
2.05311,14.2284,-278,69406,34.3416,23971,360
1.96287,14.2462,-277,69407,34.3914,23971,360
1.89614,13.9785,-276,69408,34.3416,23973,365
1.80334,14.0025,-275,69409,34.2421,23973,365
2.75176,13.9444,-274,69410,34.3914,23973,365
2.25668,14.0492,-273,69411,34.3416,23973,365
2.4974,13.8398,-272,69412,34.3416,23973,365
1.58673,13.761,-271,69413,34.1425,23973,365
1.71664,14.0657,-270,69414,34.2421,23973,365
1.44518,13.9982,-269,69415,34.1923,23973,365
1.66589,13.7121,-268,69416,34.2421,23973,365
1.19205,13.6211,-267,69417,34.3914,23973,365
2.79815,13.5773,-266,69418,34.1923,23982,360
1.49704,13.6337,-265,69419,34.1923,23982,360
1.40163,13.4599,-264,69420,34.2421,23982,360
2.3539,13.4599,-263,69421,34.3416,23982,360
1.38452,13.3247,-262,69422,34.3416,23982,360
1.34255,13.3649,-261,69423,34.4412,23982,360
1.84516,13.4709,-260,69424,34.3416,23982,360
2.2819,13.557,-259,69425,34.2421,23982,360
1.17998,13.3197,-258,69426,34.2421,23982,360
1.61355,13.0313,-257,69427,34.3416,23982,360
2.56336,12.9797,-256,69428,34.2421,23985,363
2.15287,13.0187,-255,69429,34.2421,23985,363
1.99659,13.0187,-254,69430,34.1425,23985,363
1.78473,13.0364,-253,69431,34.3416,23985,363
2.19672,12.9302,-252,69432,34.3416,23985,363
2.14177,12.7807,-251,69433,34.1923,23985,363
1.9798,12.6736,-250,69434,34.2421,23985,363
1.30655,12.3496,-249,69435,34.2421,23985,363
1.66303,12.3659,-248,69436,34.2421,23985,363
1.34255,12.8592,-247,69437,34.3914,23985,363
2.62221,12.8736,-246,69438,34.3416,23986,357
1.67446,12.6889,-245,69439,34.2421,23986,357
1.4118,12.6718,-244,69440,34.3914,23986,357
0.239208,12.6182,-243,69441,34.1923,23986,357
2.25034,12.521,-242,69442,34.2421,23986,357
1.68298,12.5614,-241,69443,34.3416,23986,357
1.81125,12.5738,-240,69444,34.1923,23986,357
1.77938,12.4691,-239,69445,34.2421,23986,357
2.32332,12.5555,-238,69446,34.3416,23986,357
1.17998,12.399,-237,69447,34.3416,23986,357
1.79273,12.3025,-236,69448,34.3416,23996,364
1.81125,12.1936,-235,69449,34.0429,23996,364
2.05543,12.2898,-234,69450,34.3914,23996,364
2.16392,12.4566,-233,69451,34.1425,23996,364
2.45892,12.3442,-232,69452,34.1923,23996,364
1.30655,12.2734,-231,69453,34.3416,23996,364
1.55638,12.3079,-230,69454,34.3914,23996,364
2.0693,12.5287,-229,69455,34.1425,23996,364
1.70829,12.717,-228,69456,34.3416,23996,364
1.97498,12.3249,-227,69457,34.3914,23996,364
1.69427,12.038,-226,69458,34.5905,23995,363
1.79804,12.0948,-225,69459,34.3416,23995,363
2.16171,12.088,-224,69460,34.3416,23995,363
2.0716,12.4164,-223,69461,34.3416,23995,363
1.62239,12.2034,-222,69462,34.1923,23995,363
1.41517,11.976,-221,69463,34.1923,23995,363
1.80598,11.8156,-220,69464,34.3416,23995,363
1.76323,12.0436,-219,69465,34.3416,23995,363
2.84547,12.007,-218,69466,34.1923,23995,363
2.18148,11.8672,-217,69467,34.1425,23995,363
2.0156,11.928,-216,69468,34.2421,24001,362
2.15951,11.7219,-215,69469,34.3416,24001,362
1.05631,11.5632,-214,69470,34.1923,24001,362
0.889691,11.7219,-213,69471,34.3914,24001,362
1.71664,11.607,-212,69472,34.3914,24001,362
1.27702,11.5632,-211,69473,34.2421,24001,362
1.84774,11.551,-210,69474,34.1425,24001,362
1.61355,11.4408,-209,69475,34.3416,24001,362
1.70829,11.2847,-208,69476,34.2421,24001,362
1.83739,11.1833,-207,69477,34.5408,24001,362
1.67446,11.1512,-206,69478,34.2421,24000,360
2.05078,11.0896,-205,69479,34.1923,24000,360
1.19205,10.9741,-204,69480,34.2421,24000,360
1.31383,10.9877,-203,69481,34.2421,24000,360
1.4118,10.9306,-202,69482,34.1923,24000,360
1.69708,10.9578,-201,69483,34.2421,24000,360
1.37415,11.0896,-200,69484,34.1425,24000,360
1.60168,11.0202,-199,69485,34.0429,24000,360
1.68298,11.0506,-198,69486,34.3416,24000,360
2.04379,11.0896,-197,69487,34.3416,24000,360
2.42376,10.9353,-196,69488,34.5408,23998,364
1.8606,10.7102,-195,69489,34.1425,23998,364
2.10585,10.7102,-194,69490,34.1425,23998,364
1.63993,10.6656,-193,69491,34.3416,23998,364
0.905627,10.471,-192,69492,34.3416,23998,364
1.64863,10.471,-191,69493,34.3914,23998,364
2.09904,10.3594,-190,69494,34.2421,23998,364
2.47246,10.4404,-189,69495,34.2421,23998,364
1.40163,10.4404,-188,69496,34.4412,23998,364
1.1472,10.4411,-187,69497,34.3416,23998,364
1.50657,10.5165,-186,69498,34.4412,24004,363
2.24822,10.52,-185,69499,34.2421,24004,363
2.79474,10.4475,-184,69500,34.0429,24004,363
2.56893,10.3386,-183,69501,34.3914,24004,363
0.941763,10.1876,-182,69502,34.1923,24004,363
2.12837,10.1795,-181,69503,34.2421,24004,363
1.68863,9.90501,-180,69504,34.1923,24004,363
1.6165,9.91178,-179,69505,34.1923,24004,363
1.96287,10.0224,-178,69506,34.1923,24004,363
2.0785,10.1641,-177,69507,34.1425,24004,363
2.23545,9.98144,-176,69508,34.3914,24010,362
2.32332,9.71821,-175,69509,34.2421,24010,362
2.00136,9.8794,-174,69510,34.2421,24010,362
1.67446,10.0625,-173,69511,34.2421,24010,362
2.02269,10.0625,-172,69512,34.5408,24010,362
2.32332,9.72357,-171,69513,34.2421,24010,362
2.11714,9.83632,-170,69514,34.1923,24010,362
1.48103,9.80674,-169,69515,34.3416,24010,362
2.51263,9.80674,-168,69516,34.0429,24010,362
2.66371,9.94854,-167,69517,34.4412,24010,362
2.25034,9.65591,-166,69518,34.5905,24009,364
2.25034,9.62886,-165,69519,34.1923,24009,364
1.55332,9.56988,-164,69520,34.1923,24009,364
2.48016,9.71437,-163,69521,34.1923,24009,364
2.06006,9.75188,-162,69522,34.1923,24009,364
1.18402,9.84238,-161,69523,34.1425,24009,364
1.59273,9.60097,-160,69524,33.9932,24009,364
1.79539,9.72281,-159,69525,34.1923,24009,364
2.11037,9.69672,-158,69526,34.1923,24009,364
0.905627,9.41921,-157,69527,34.1923,24009,364
2.15287,9.4366,-156,69528,34.1923,24018,364
1.27702,9.69672,-155,69529,34.1923,24018,364
2.3539,9.86431,-154,69530,34.3914,24018,364
2.17052,9.79686,-153,69531,34.2421,24018,364
2.28816,9.54493,-152,69532,34.2421,24018,364
1.42859,9.68595,-151,69533,34.1923,24018,364
1.71386,9.85146,-150,69534,34.1923,24018,364
2.75176,10.0127,-149,69535,34.3914,24018,364
1.23912,9.99039,-148,69536,34.2421,24018,364
2.03444,10.0824,-147,69537,34.1425,24018,364
1.54717,9.82192,-146,69538,34.1923,24023,361
1.5807,9.84314,-145,69539,34.0429,24023,361
1.70829,10.0202,-144,69540,34.1923,24023,361
1.57769,10.0847,-143,69541,34.3914,24023,361
2.29856,10.2452,-142,69542,34.2421,24023,361
2.19672,10.2117,-141,69543,34.2421,24023,361
2.14622,10.0706,-140,69544,34.3914,24023,361
1.57466,9.97248,-139,69545,34.2421,24023,361
2.20323,9.98368,-138,69546,34.2421,24023,361
2.11037,9.75723,-137,69547,34.1425,24023,361
2.08079,9.7824,-136,69548,34.2421,24023,362
1.67446,9.97472,-135,69549,34.1425,24023,362
1.51603,9.9418,-134,69550,34.1425,24023,362
1.36019,9.93055,-133,69551,34.3416,24023,362
1.92112,10.0824,-132,69552,34.2421,24023,362
1.77132,10.3774,-131,69553,34.2421,24023,362
1.1472,10.2692,-130,69554,34.3914,24023,362
2.30684,10.5328,-129,69555,34.1425,24023,362
2.0156,10.4966,-128,69556,34.1425,24023,362
2.08994,10.6257,-127,69557,34.4412,24023,362
1.96772,10.4518,-126,69558,34.0429,24004,363
1.56859,10.4047,-125,69559,34.2421,24004,363
2.0156,10.9142,-124,69560,34.2421,24004,363
2.46473,11.0472,-123,69561,34.1923,24004,363
2.41193,11.0849,-122,69562,34.1425,24004,363
2.18584,11.2105,-121,69563,34.2421,24004,363
2.16612,11.2212,-120,69564,34.2421,24004,363
1.86316,11.3309,-119,69565,34.3914,24004,363
1.11773,11.3368,-118,69566,34.4412,24004,363
2.24609,11.3584,-117,69567,34.1425,24004,363
1.9335,11.3368,-116,69568,34.1425,24000,365
1.76052,11.4049,-115,69569,34.1425,24000,365
1.71942,11.5722,-114,69570,34.1923,24000,365
1.84774,11.6492,-113,69571,34.3416,24000,365
1.66875,11.6691,-112,69572,34.3914,24000,365
1.63993,11.9173,-111,69573,34.3914,24000,365
2.09222,12.125,-110,69574,34.2421,24000,365
1.84516,12.1059,-109,69575,34.3416,24000,365
1.98461,11.9735,-108,69576,34.3416,24000,365
1.86827,12.0108,-107,69577,34.2421,24000,365
2.27981,12.3581,-106,69578,34.3416,23991,366
0.601994,12.707,-105,69579,34.1923,23991,366
2.10811,12.6865,-104,69580,34.2421,23991,366
1.76323,12.5744,-103,69581,34.3914,23991,366
1.5807,12.4206,-102,69582,34.3416,23991,366
1.47134,12.3804,-101,69583,34.3416,23991,366
1.49385,12.5975,-100,69584,34.1425,23991,366
2.12613,12.6247,-99,69585,34.1923,23991,366
1.82437,12.6653,-98,69586,34.2421,23991,366
2.48016,12.707,-97,69587,34.1923,23991,366
1.89865,12.7293,-96,69588,34.1425,23977,363
2.73786,12.5121,-95,69589,34.2421,23977,363
2.18584,12.8713,-94,69590,34.3416,23977,363
2.05078,13.272,-93,69591,34.2421,23977,363
1.73047,13.1201,-92,69592,34.1923,23977,363
1.56859,13.2338,-91,69593,34.1923,23977,363
2.18584,13.371,-90,69594,34.3914,23977,363
1.86572,13.5432,-89,69595,34.2421,23977,363
1.96287,13.5201,-88,69596,34.1425,23977,363
1.21188,13.2832,-87,69597,34.3416,23977,363
1.71664,13.3398,-86,69598,34.2421,23953,359
2.33968,13.3141,-85,69599,34.2421,23953,359
2.50693,13.2989,-84,69600,34.1923,23953,359
1.61355,13.2849,-83,69601,34.3914,23953,359
2.0716,13.1762,-82,69602,34.2421,23953,359
1.47134,13.281,-81,69603,34.2421,23953,359
1.87592,13.1666,-80,69604,34.3914,23953,359
2.9701,13.0729,-79,69605,34.1425,23953,359
1.14304,13.1031,-78,69606,34.1425,23953,359
1.40163,13.1445,-77,69607,34.2421,23953,359
1.90617,13.218,-76,69608,34.2421,23919,359
2.44921,13.4039,-75,69609,34.3416,23919,359
1.40163,13.2062,-74,69610,34.2421,23919,359
2.06006,13.0894,-73,69611,34.1425,23919,359
2.02269,12.9745,-72,69612,34.1923,23919,359
1.76323,13.1355,-71,69613,34.2421,23919,359
1.59273,13.254,-70,69614,34.0429,23919,359
0.717624,13.1819,-69,69615,34.1923,23919,359
1.73047,13.2922,-68,69616,34.3416,23919,359
2.36804,13.2922,-67,69617,34.1425,23919,359
1.82437,13.1076,-66,69618,34.3416,23919,361
0.632885,12.994,-65,69619,34.1923,23919,361
1.96772,13.1525,-64,69620,34.4412,23919,361
1.27328,13.2658,-63,69621,34.1923,23919,361
2.41193,13.2698,-62,69622,34.2421,23919,361
1.56555,13.0393,-61,69623,34.2421,23919,361
1.77938,12.9699,-60,69624,34.3914,23919,361
1.73872,12.9728,-59,69625,34.1923,23919,361
1.74966,12.9302,-58,69626,34.0429,23919,361
1.38452,12.8226,-57,69627,34.3914,23919,361
1.80334,12.9665,-56,69628,34.3416,23931,363
1.93596,12.7854,-55,69629,34.2421,23931,363
0.878906,12.8852,-54,69630,34.3416,23931,363
1.65728,13.1099,-53,69631,34.2421,23931,363
1.38452,13.0112,-52,69632,34.3416,23931,363
1.1472,12.8499,-51,69633,34.2421,23931,363
0.577742,12.7947,-50,69634,34.1425,23931,363
1.88099,12.7363,-49,69635,34.3416,23931,363
0.697405,12.7252,-48,69636,34.1425,23931,363
1.50022,12.4566,-47,69637,34.2421,23931,363
2.0739,12.4685,-46,69638,34.3416,23949,364
2.23545,12.6941,-45,69639,34.3416,23949,364
1.51603,12.7334,-44,69640,34.1923,23949,364
1.77401,12.5186,-43,69641,34.3914,23949,364
2.93619,12.4828,-42,69642,34.3416,23949,364
1.69146,12.5969,-41,69643,34.3416,23949,364
1.56859,12.543,-40,69644,34.2421,23949,364
1.23912,12.7626,-39,69645,34.3416,23949,364
2.60945,12.5892,-38,69646,34.1923,23949,364
1.81388,12.4314,-37,69647,34.3416,23949,364
2.30477,12.34,-36,69648,34.4412,23948,363
1.62239,12.4649,-35,69649,34.3416,23948,363
2.21187,12.3611,-34,69650,34.3416,23948,363
2.52021,12.4649,-33,69651,34.3416,23948,363
2.09222,12.4572,-32,69652,34.3416,23948,363
1.83739,12.5549,-31,69653,34.2421,23948,363
1.27328,12.411,-30,69654,34.2421,23948,363
1.66589,12.2898,-29,69655,34.1923,23948,363
2.08994,12.5614,-28,69656,34.0429,23948,363
2.25034,12.4906,-27,69657,34.1923,23948,363
1.64863,12.5489,-26,69658,34.3914,23951,365
1.3029,12.2952,-25,69659,34.2421,23951,365
1.56859,12.1544,-24,69660,34.2421,23951,365
1.00068,12.0368,-23,69661,34.3416,23951,365
1.02423,11.9672,-22,69662,34.4412,23951,365
1.66016,12.0683,-21,69663,34.4412,23951,365
1.59273,12.0751,-20,69664,34.2421,23951,365
1.57163,11.9822,-19,69665,34.2421,23951,365
1.32827,11.9061,-18,69666,34.3416,23951,365
2.10585,11.8992,-17,69667,34.1425,23951,365
1.78473,11.9952,-16,69668,34.2421,23963,363
1.88858,12.1997,-15,69669,34.1923,23963,363
1.3637,12.0751,-14,69670,34.1425,23963,363
3.36312,12.1366,-13,69671,34.3914,23963,363
1.80334,12.0751,-12,69672,34.3914,23963,363
2.26722,12.0368,-11,69673,34.3416,23963,363
2.06237,12.0683,-10,69674,34.0429,23963,363
1.96529,12.1765,-9,69675,34.3416,23963,363
1.27328,11.9909,-8,69676,34.3416,23963,363
1.57769,11.9909,-7,69677,34.3416,23963,363
2.0156,12.1268,-6,69678,34.2421,23964,364
1.62826,12.1268,-5,69679,34.3914,23964,364
2.09677,12.1268,-4,69680,34.1923,23964,364
1.67161,12.435,-3,69681,34.3416,23964,364
2.32946,12.0751,-2,69682,34.1923,23964,364
1.68863,12.1102,-1,69683,34.1425,23964,364
51.2938,12.3412,0,69684,34.1923,23964,364
1.36019,12.1789,1,69685,34.1923,23964,364
1.32827,11.8036,2,69686,34.3416,23964,364
1.53789,11.6767,3,69687,34.2421,23964,364
2.57079,11.6767,4,69688,34.3416,23956,364
0.534885,11.7714,5,69689,34.2421,23956,364
1.96529,11.9791,6,69690,34.2421,23956,364
1.88099,11.8257,7,69691,34.2421,23956,364
1.39822,11.5006,8,69692,34.1425,23956,364
1.19604,11.6396,9,69693,34.3416,23956,364
1.67446,11.5877,10,69694,34.2421,23956,364
0.905627,11.5536,11,69695,34.1923,23956,364
1.90617,11.5941,12,69696,34.2421,23956,364
1.90867,11.5355,13,69697,34.1425,23956,364
1.46484,11.7067,14,69698,34.1425,23952,366
2.51832,11.5413,15,69699,34.3914,23952,366
1.38452,11.5915,16,69700,34.2421,23952,366
1.87592,11.3716,17,69701,34.1923,23952,366
1.33185,11.2629,18,69702,34.1425,23952,366
1.86827,11.319,19,69703,34.2421,23952,366
1.94088,11.5426,20,69704,34.1425,23952,366
1.4118,11.605,21,69705,34.3416,23952,366
1.92856,11.496,22,69706,34.1425,23952,366
1.4219,11.3243,23,69707,34.1425,23952,366
1.58673,10.8889,24,69708,34.2421,23960,364
1.57466,10.9985,25,69709,34.3416,23960,364
1.33185,11.1171,26,69710,34.2421,23960,364
0.768946,11.0755,27,69711,34.3416,23960,364
1.61355,11.0654,28,69712,34.1923,23960,364
1.68863,10.8051,29,69713,34.3416,23960,364
3.1051,10.6558,30,69714,34.3416,23960,364
2.08079,10.6544,31,69715,34.3416,23960,364
1.34255,10.6089,32,69716,34.2421,23960,364
1.37415,10.7533,33,69717,34.3914,23960,364
1.56859,10.7796,34,69718,34.1425,23958,364
1.76323,10.4254,35,69719,34.2421,23958,364
1.28817,10.4118,36,69720,34.3416,23958,364
1.87846,10.4447,37,69721,34.0429,23958,364
1.10916,10.4104,38,69722,34.2421,23958,364
1.57769,10.3953,39,69723,34.2421,23958,364
2.03912,10.4254,40,69724,33.9932,23958,364
2.12164,10.4625,41,69725,34.3914,23958,364
1.66303,10.476,42,69726,34.1923,23958,364
2.18802,10.4966,43,69727,34.2421,23958,364
1.90867,10.8697,44,69728,34.2421,23953,364
1.25442,10.8923,45,69729,34.1923,23953,364
2.60762,10.4988,46,69730,34.1425,23953,364
1.65728,10.3946,47,69731,34.2421,23953,364
0.811194,10.1473,48,69732,34.5408,23953,364
1.63993,10.3501,49,69733,34.2421,23953,364
1.68863,10.5631,50,69734,34.2421,23953,364
1.39481,10.7109,51,69735,34.3416,23953,364
2.27352,10.6453,52,69736,34.3914,23953,364
1.73047,10.5561,53,69737,34.1923,23953,364
2.38609,10.5087,54,69738,34.1425,23952,370
1.86572,10.7927,55,69739,34.1923,23952,370
0.921287,10.6033,56,69740,34.3416,23952,370
2.1771,10.4461,57,69741,34.4412,23952,370
2.37809,10.5885,58,69742,34.3416,23952,370
2.08079,10.8547,59,69743,34.1923,23952,370
2.39606,10.6663,60,69744,34.3416,23952,370
1.45505,10.3494,61,69745,34.1923,23952,370
2.01324,10.2779,62,69746,34.3914,23952,370
1.80598,10.3681,63,69747,34.2421,23952,370
2.14177,10.4988,64,69748,34.3416,23958,363
1.5034,10.3645,65,69749,34.1923,23958,363
1.05179,10.3882,66,69750,34.0429,23958,363
2.12837,10.6229,67,69751,34.2421,23958,363
1.55638,10.8423,68,69752,34.1425,23958,363
1.5807,10.5772,69,69753,34.2421,23958,363
2.12837,10.2204,70,69754,34.3416,23958,363
1.62826,10.2677,71,69755,34.1923,23958,363
1.87592,10.4597,72,69756,34.3914,23958,363
2.80326,10.5214,73,69757,34.2421,23958,363
1.88099,10.4824,74,69758,34.1923,23958,364
1.84516,10.4589,75,69759,34.1923,23958,364
2.21402,10.5469,76,69760,34.2421,23958,364
2.08994,10.5899,77,69761,34.1425,23958,364
2.45115,10.5441,78,69762,34.1425,23958,364
1.51917,10.4988,79,69763,34.1923,23958,364
2.7028,10.632,80,69764,34.1425,23958,364
2.64575,10.6824,81,69765,34.3914,23958,364
2.06006,10.4368,82,69766,34.3416,23958,364
1.88099,10.2633,83,69767,34.1425,23958,364
1.8606,10.525,84,69768,34.3416,23955,365
1.77132,10.6558,85,69769,34.3416,23955,365
2.74829,10.6607,86,69770,34.3416,23955,365
1.63702,10.604,87,69771,34.4412,23955,365
1.82698,10.5822,88,69772,34.3416,23955,365
1.08306,10.525,89,69773,34.3416,23955,365
1.36719,10.6397,90,69774,34.5408,23955,365
1.43857,10.8691,91,69775,34.2421,23955,365
1.98461,10.8889,92,69776,34.1425,23955,365
1.61945,10.834,93,69777,34.1425,23955,365
0.98628,10.8978,94,69778,34.2421,23953,364
2.54844,10.8656,95,69779,34.1923,23953,364
1.28817,11.0006,96,69780,34.3416,23953,364
1.73047,11.2159,97,69781,34.3416,23953,364
2.74308,11.3032,98,69782,34.3914,23953,364
2.06237,11.4206,99,69783,34.1425,23953,364
2.0156,11.5555,100,69784,34.2421,23953,364
