Linear acceleration,Rotational velocity,Time values,Absolute time values,Temperature,Ambient light,Reflected light
0.625305,4.295071,-2000,25748,12.8357,5192,2013
2.20539,3.938541,-1999,25749,12.9851,5192,2013
1.66016,3.879455,-1998,25750,12.9851,5192,2013
1.86572,3.831141,-1997,25751,13.0348,5192,2013
1.99897,3.708608,-1996,25752,13.0846,5192,2013
1.91864,3.514692,-1995,25753,13.0846,5192,2013
1.90617,3.575639,-1994,25754,13.0846,5192,2013
0.966748,3.792047,-1993,25755,12.9851,5192,2013
1.83739,3.910063,-1992,25756,13.0846,5192,2013
0.85693,3.942323,-1991,25757,12.9851,5197,2010
1.4681,3.422326,-1990,25758,13.0846,5197,2010
2.09677,4.210983,-1989,25759,13.0348,5197,2010
1.00543,4.363907,-1988,25760,13.0348,5197,2010
2.35593,3.623248,-1987,25761,13.0348,5197,2010
1.71386,3.396101,-1986,25762,13.0846,5197,2010
1.89865,3.463443,-1985,25763,13.0846,5197,2010
2.21402,3.674296,-1984,25764,13.1842,5197,2010
1.49066,3.606759,-1983,25765,13.0846,5197,2010
1.46484,3.48061,-1982,25766,12.8855,5197,2010
1.40163,3.270938,-1981,25767,12.9851,5198,1994
1.55332,3.413606,-1980,25768,12.9851,5198,1994
1.4118,3.563115,-1979,25769,13.0348,5198,1994
1.25061,4.336504,-1978,25770,13.1842,5198,1994
1.04725,4.065143,-1977,25771,13.0348,5198,1994
2.23545,3.533719,-1976,25772,13.1842,5198,1994
0.884315,3.463443,-1975,25773,13.0348,5198,1994
2.1771,3.542143,-1974,25774,13.1842,5198,1994
0.840071,3.606759,-1973,25775,13.0348,5198,1994
1.74146,3.64784,-1972,25776,13.0846,5198,1994
1.22363,3.596416,-1971,25777,12.8855,5196,1994
1.15135,3.660074,-1970,25778,13.1842,5196,1994
1.74966,3.902433,-1969,25779,12.8357,5196,1994
1.04725,3.2042,-1968,25780,13.0846,5196,1994
1.81913,3.150266,-1967,25781,12.8855,5196,1994
1.59273,3.575639,-1966,25782,13.0846,5196,1994
2.15951,3.744595,-1965,25783,12.8855,5196,1994
1.53168,3.892876,-1964,25784,13.3335,5196,1994
1.80334,4.065143,-1963,25785,13.0846,5196,1994
1.07865,3.852474,-1962,25786,12.8855,5196,1994
1.53789,3.776296,-1961,25787,13.0348,5197,2001
2.0156,3.760479,-1960,25788,13.0846,5197,2001
1.71108,4.103451,-1959,25789,13.0846,5197,2001
1.55332,4.232162,-1958,25790,13.0846,5197,2001
1.89865,3.213488,-1957,25791,12.9851,5197,2001
1.59273,3.2042,-1956,25792,13.0348,5197,2001
1.73047,3.760479,-1955,25793,12.8855,5197,2001
1.91864,4.244467,-1954,25794,13.0846,5197,2001
1.20794,4.42831,-1953,25795,13.0846,5197,2001
0.78733,4.331346,-1952,25796,12.8357,5197,2001
1.79539,4.443426,-1951,25797,13.0846,5194,1989
1.74966,4.793495,-1950,25798,12.8357,5194,1989
1.15548,4.793495,-1949,25799,13.1842,5194,1989
2.10358,4.518251,-1948,25800,13.0846,5194,1989
0.768946,4.117951,-1947,25801,13.3335,5194,1989
2.10811,4.58211,-1946,25802,13.0846,5194,1989
1.11773,4.26548,-1945,25803,13.0846,5194,1989
2.25668,4.166516,-1944,25804,13.1842,5194,1989
1.67446,4.58211,-1943,25805,13.0348,5194,1989
1.77132,4.946484,-1942,25806,13.0348,5194,1989
1.80598,4.601581,-1941,25807,13.1842,5196,1977
2.60945,4.180797,-1940,25808,13.1842,5196,1977
2.41983,3.951761,-1939,25809,13.0846,5196,1977
1.68581,3.567295,-1938,25810,12.8357,5196,1977
1.27702,3.358598,-1937,25811,12.8855,5196,1977
1.69427,3.985554,-1936,25812,12.9851,5196,1977
1.47134,5.1124,-1935,25813,12.8357,5196,1977
1.77132,4.58861,-1934,25814,13.0846,5196,1977
1.96772,4.1324,-1933,25815,13.0846,5196,1977
2.11037,3.744595,-1932,25816,13.0846,5196,1977
2.0716,3.389513,-1931,25817,13.0846,5197,1981
1.81913,3.090573,-1930,25818,13.234,5197,1981
2.09677,2.955009,-1929,25819,13.0348,5197,1981
1.3637,3.073652,-1928,25820,13.0846,5197,1981
1.5034,3.629411,-1927,25821,13.0846,5197,1981
1.7551,4.22864,-1926,25822,12.8357,5197,1981
1.28447,4.117951,-1925,25823,13.3335,5197,1981
1.63993,3.892876,-1924,25824,12.9851,5197,1981
1.07865,3.682398,-1923,25825,12.9851,5197,1981
2.64575,3.439698,-1922,25826,12.8357,5197,1981
1.74146,3.259529,-1921,25827,12.8855,5197,1981
1.21188,3.159712,-1920,25828,13.0348,5197,1981
0.926449,3.140791,-1919,25829,13.0348,5197,1981
1.46484,3.542143,-1918,25830,13.1842,5197,1981
1.82437,3.985554,-1917,25831,12.9851,5197,1981
1.1596,4.42326,-1916,25832,12.8357,5197,1981
1.94333,4.788829,-1915,25833,12.8855,5197,1981
0.78733,3.508327,-1914,25834,12.8855,5197,1981
1.38796,3.304928,-1913,25835,12.9851,5197,1981
1.27328,3.459138,-1912,25836,13.0846,5197,1981
2.14399,3.672268,-1911,25837,12.8357,5195,1956
1.36019,3.896702,-1910,25838,13.0846,5195,1956
1.97498,4.260236,-1909,25839,12.8855,5195,1956
1.73323,4.557655,-1908,25840,13.0846,5195,1956
2.17052,4.606436,-1907,25841,12.9851,5195,1956
2.0156,4.403,-1906,25842,13.234,5195,1956
1.9335,4.42831,-1905,25843,13.0348,5195,1956
0.921287,4.300272,-1904,25844,13.0846,5195,1956
1.59273,4.218055,-1903,25845,13.0846,5195,1956
1.83739,4.700896,-1902,25846,13.0846,5195,1956
1.67446,5.006371,-1901,25847,13.0846,5196,1956
1.31745,4.865999,-1900,25848,13.0846,5196,1956
1.55638,4.470174,-1899,25849,13.0846,5196,1956
1.87592,3.998618,-1898,25850,12.8855,5196,1956
1.83739,3.670238,-1897,25851,12.8855,5196,1956
1.81913,3.413606,-1896,25852,12.9851,5196,1956
2.27981,3.690483,-1895,25853,13.0846,5196,1956
1.92608,3.885213,-1894,25854,12.8855,5196,1956
2.86218,5.022715,-1893,25855,12.8357,5196,1956
1.39822,4.937439,-1892,25856,12.9851,5196,1956
1.45505,4.307197,-1891,25857,13.234,5193,1958
1.80598,3.821405,-1890,25858,12.8855,5193,1958
1.81388,3.730641,-1889,25859,13.234,5193,1958
1.9798,3.862132,-1888,25860,13.0846,5193,1958
2.65833,3.786148,-1887,25861,13.0846,5193,1958
1.64283,3.917677,-1886,25862,13.1842,5193,1958
1.37067,3.925277,-1885,25863,13.0348,5193,1958
1.93596,4.355362,-1884,25864,12.9851,5193,1958
1.39822,4.284651,-1883,25865,12.9851,5193,1958
0.560992,3.972446,-1882,25866,12.9851,5193,1958
1.9798,4.195029,-1881,25867,13.0846,5194,1951
2.12613,4.49013,-1880,25868,13.234,5194,1951
1.61355,4.542918,-1879,25869,12.9851,5194,1951
1.27702,4.805913,-1878,25870,13.0846,5194,1951
1.79007,5.010834,-1877,25871,12.8855,5194,1951
1.04725,5.016778,-1876,25872,13.1842,5194,1951
1.31745,5.031607,-1875,25873,13.0846,5194,1951
1.55638,4.926864,-1874,25874,12.8357,5194,1951
2.47246,4.988481,-1873,25875,13.1842,5194,1951
1.53789,4.205672,-1872,25876,12.8357,5194,1951
2.09677,3.991158,-1871,25877,13.0846,5197,1928
1.1596,4.723033,-1870,25878,12.9851,5197,1928
1.92608,4.970526,-1869,25879,13.0846,5197,1928
1.27702,4.673874,-1868,25880,12.9851,5197,1928
1.26953,4.673874,-1867,25881,12.8357,5197,1928
1.82698,5.052295,-1866,25882,13.0846,5197,1928
1.83739,5.355813,-1865,25883,13.234,5197,1928
1.76323,5.243343,-1864,25884,12.9851,5197,1928
1.52231,4.952506,-1863,25885,13.1842,5197,1928
1.57466,4.805913,-1862,25886,12.8357,5197,1928
1.63702,4.896526,-1861,25887,13.0846,5194,1926
1.86827,4.678654,-1860,25888,12.9851,5194,1926
0.793363,4.564189,-1859,25889,13.1842,5194,1926
1.4681,4.711977,-1858,25890,12.9851,5194,1926
1.83739,4.740353,-1857,25891,12.8855,5194,1926
2.33356,4.569084,-1856,25892,13.1842,5194,1926
1.43857,4.518251,-1855,25893,12.8855,5194,1926
1.70549,4.322737,-1854,25894,13.1842,5194,1926
2.0785,4.216288,-1853,25895,13.0846,5194,1926
1.72772,4.62097,-1852,25896,13.0846,5194,1926
1.3102,4.611286,-1851,25897,13.1842,5195,1913
2.49167,5.707358,-1850,25898,13.0846,5195,1913
1.34255,4.509998,-1849,25899,13.0846,5195,1913
1.958,3.71463,-1848,25900,12.9851,5195,1913
1.27328,3.542143,-1847,25901,13.1842,5195,1913
1.26577,3.670238,-1846,25902,13.0846,5195,1913
1.64863,3.809689,-1845,25903,12.9851,5195,1913
1.81125,3.963057,-1844,25904,13.0846,5195,1913
1.33185,3.97057,-1843,25905,13.0846,5195,1913
1.67446,3.722644,-1842,25906,12.9851,5195,1913
1.06082,3.465593,-1841,25907,13.0846,5195,1913
2.23759,3.138418,-1840,25908,13.1842,5195,1913
1.24679,3.33634,-1839,25909,13.0846,5195,1913
1.3029,3.378504,-1838,25910,12.8855,5195,1913
1.42525,3.313934,-1837,25911,12.8855,5195,1913
1.98461,3.16913,-1836,25912,12.8855,5195,1913
1.22752,3.138418,-1835,25913,12.8855,5195,1913
0.138107,3.307182,-1834,25914,13.0348,5195,1913
1.85804,3.533719,-1833,25915,13.1842,5195,1913
1.54099,3.623248,-1832,25916,13.0846,5195,1913
1.83739,3.561023,-1831,25917,13.0846,5196,1886
1.25442,3.461291,-1830,25918,13.0348,5196,1886
1.99897,2.33215,-1829,25919,13.0846,5196,1886
0.840071,2.59812,-1828,25920,13.0348,5196,1886
1.93842,3.114588,-1827,25921,13.0846,5196,1886
1.83479,3.428851,-1826,25922,12.8855,5196,1886
1.57163,3.499822,-1825,25923,12.8357,5196,1886
1.39139,3.476326,-1824,25924,13.0846,5196,1886
1.45505,3.58812,-1823,25925,13.0846,5196,1886
1.41517,3.474182,-1822,25926,13.0846,5196,1886
1.56859,3.649882,-1821,25927,13.0846,5194,1870
0.98628,3.623248,-1820,25928,13.0846,5194,1870
1.86827,3.623248,-1819,25929,13.0846,5194,1870
3.0163,2.471735,-1818,25930,12.8855,5194,1870
1.07422,3.002533,-1817,25931,12.8357,5194,1870
0.878906,3.680374,-1816,25932,12.8855,5194,1870
1.71942,3.915775,-1815,25933,13.0846,5194,1870
1.97498,4.152185,-1814,25934,12.8357,5194,1870
1.10916,4.374139,-1813,25935,13.0348,5194,1870
1.88858,4.50504,-1812,25936,13.0846,5194,1870
2.09904,4.470174,-1811,25937,13.0846,5197,1867
1.44518,4.635458,-1810,25938,13.0348,5197,1867
1.28447,4.315837,-1809,25939,13.0348,5197,1867
1.91864,4.503385,-1808,25940,13.0348,5197,1867
1.93596,4.524842,-1807,25941,13.1842,5197,1867
2.29024,4.232162,-1806,25942,13.1842,5197,1867
1.11345,4.117951,-1805,25943,12.8357,5197,1867
1.74146,4.314111,-1804,25944,13.0846,5197,1867
1.15548,4.518251,-1803,25945,13.234,5197,1867
1.10916,4.884338,-1802,25946,13.0348,5197,1867
1.56555,4.87212,-1801,25947,13.0846,5196,1848
0.995902,4.796602,-1800,25948,12.8855,5196,1848
2.05311,4.611286,-1799,25949,12.9851,5196,1848
2.05078,4.307197,-1798,25950,12.9851,5196,1848
2.44336,4.920812,-1797,25951,13.0348,5196,1848
1.79539,4.865999,-1796,25952,13.1842,5196,1848
1.38452,4.465171,-1795,25953,13.3335,5196,1848
1.24296,4.50504,-1794,25954,13.0846,5196,1848
1.06977,4.884338,-1793,25955,12.9851,5196,1848
2.4277,5.010834,-1792,25956,13.0348,5196,1848
2.08079,5.254698,-1791,25957,13.234,5195,1810
1.25442,5.206267,-1790,25958,13.1842,5195,1810
2.15951,5.163156,-1789,25959,13.0846,5195,1810
1.45176,4.861403,-1788,25960,13.0846,5195,1810
1.44518,4.704065,-1787,25961,12.9851,5195,1810
1.84257,4.263733,-1786,25962,12.8357,5195,1810
1.96529,4.443426,-1785,25963,13.0846,5195,1810
1.83739,4.705648,-1784,25964,13.0348,5195,1810
1.39822,4.830654,-1783,25965,12.9851,5195,1810
1.65728,4.773246,-1782,25966,12.8855,5195,1810
1.45505,5.010834,-1781,25967,12.9851,5199,1793
1.36019,5.344673,-1780,25968,13.0846,5199,1793
1.4118,5.572613,-1779,25969,13.0846,5199,1793
1.67446,5.664115,-1778,25970,12.9851,5199,1793
2.13284,5.509416,-1777,25971,12.7859,5199,1793
1.56555,4.466839,-1776,25972,13.0846,5199,1793
2.12164,3.75453,-1775,25973,13.0846,5199,1793
1.57769,4.341655,-1774,25974,12.9851,5199,1793
0.884315,4.542918,-1773,25975,13.0846,5199,1793
1.6341,4.182579,-1772,25976,13.0846,5199,1793
1.93842,4.048614,-1771,25977,12.8357,5198,1756
1.82698,4.23744,-1770,25978,13.0846,5198,1756
2.13508,4.627415,-1769,25979,12.8357,5198,1756
1.11773,4.824481,-1768,25980,13.0846,5198,1756
1.33185,5.006371,-1767,25981,13.0846,5198,1756
1.23912,4.952506,-1766,25982,13.0348,5198,1756
1.3461,4.274204,-1765,25983,12.9851,5198,1756
1.61945,4.105267,-1764,25984,13.0348,5198,1756
1.5034,4.182579,-1763,25985,13.0348,5198,1756
1.80334,4.020915,-1762,25986,13.0846,5198,1756
2.03209,3.852474,-1761,25987,12.7859,5195,1686
1.27702,3.85634,-1760,25988,12.8357,5195,1686
2.03444,3.966816,-1759,25989,12.8855,5195,1686
1.64863,4.020915,-1758,25990,13.0846,5195,1686
1.57466,3.85634,-1757,25991,12.8357,5195,1686
1.01016,4.04309,-1756,25992,13.1842,5195,1686
1.44518,4.317563,-1755,25993,12.8357,5195,1686
1.85804,4.961524,-1754,25994,13.3335,5195,1686
1.25442,4.768561,-1753,25995,12.8855,5195,1686
1.44188,4.092543,-1752,25996,12.8855,5195,1686
1.70269,3.633515,-1751,25997,13.234,5199,1625
0.805294,3.499822,-1750,25998,12.8855,5199,1625
1.68863,3.396101,-1749,25999,13.0846,5199,1625
2.50313,3.270938,-1748,26000,12.9851,5199,1625
2.11037,3.243489,-1747,26001,12.8855,5199,1625
0.889691,3.504077,-1746,26002,13.234,5199,1625
0.828641,3.491296,-1745,26003,13.0846,5199,1625
1.86572,4.179014,-1744,26004,12.8855,5199,1625
0.730792,4.529779,-1743,26005,13.0846,5199,1625
1.62826,4.085254,-1742,26006,13.0846,5199,1625
1.74966,3.720642,-1741,26007,12.9851,5197,1558
1.52856,3.680374,-1740,26008,13.0846,5197,1558
1.70829,3.550547,-1739,26009,12.8855,5197,1558
1.28447,3.439698,-1738,26010,13.0846,5197,1558
1.4118,3.286844,-1737,26011,12.9851,5197,1558
1.81125,2.99259,-1736,26012,12.9851,5197,1558
2.3539,3.298158,-1735,26013,13.0348,5197,1558
0.981433,3.48061,-1734,26014,13.0846,5197,1558
1.78473,4.438393,-1733,26015,13.234,5197,1558
1.34255,4.645092,-1732,26016,13.234,5197,1558
1.60466,4.4785,-1731,26017,12.9851,5197,1493
1.92608,4.377544,-1730,26018,12.9851,5197,1493
1.11773,4.242712,-1729,26019,12.9851,5197,1493
0.292969,4.355362,-1728,26020,13.0846,5197,1493
1.53168,4.1324,-1727,26021,12.9851,5197,1493
1.81388,3.947989,-1726,26022,12.9851,5197,1493
1.49066,3.546347,-1725,26023,13.0348,5197,1493
1.80598,3.533719,-1724,26024,13.0846,5197,1493
1.13045,3.5295,-1723,26025,13.0846,5197,1493
1.50657,3.284576,-1722,26026,12.9851,5197,1493
1.89865,3.760479,-1721,26027,13.0846,5200,1426
1.73323,4.384347,-1720,26028,13.0348,5200,1426
1.4681,4.564189,-1719,26029,13.0846,5200,1426
0.85693,4.692965,-1718,26030,12.8855,5200,1426
2.30063,4.6643,-1717,26031,12.9851,5200,1426
1.76323,4.370731,-1716,26032,13.0846,5200,1426
1.77938,4.191476,-1715,26033,12.9851,5200,1426
1.57163,4.066975,-1714,26034,13.1842,5200,1426
2.48784,4.087077,-1713,26035,12.8855,5200,1426
1.58973,3.567295,-1712,26036,13.0348,5200,1426
1.90116,3.300416,-1711,26037,13.0846,5201,1405
1.39481,4.195029,-1710,26038,13.0846,5201,1405
2.11263,4.805913,-1709,26039,13.234,5201,1405
1.84257,4.891959,-1708,26040,12.9851,5201,1405
1.3637,4.804362,-1707,26041,12.7859,5201,1405
1.60466,4.804362,-1706,26042,13.0846,5201,1405
1.71664,4.438393,-1705,26043,12.8855,5201,1405
2.16832,4.289864,-1704,26044,13.1842,5201,1405
1.76863,4.295071,-1703,26045,13.0846,5201,1405
0.889691,4.341655,-1702,26046,12.9851,5201,1405
1.62826,4.343371,-1701,26047,12.9851,5201,1406
0.817051,4.372435,-1700,26048,13.0846,5201,1406
1.4118,4.397921,-1699,26049,13.0846,5201,1406
1.73323,4.438393,-1698,26050,13.1842,5201,1406
1.96287,4.493448,-1697,26051,12.8855,5201,1406
1.8606,4.551111,-1696,26052,12.8855,5201,1406
0.981433,4.470174,-1695,26053,12.9851,5201,1406
1.22752,4.544558,-1694,26054,12.9851,5201,1406
1.27328,4.509998,-1693,26055,12.8855,5201,1406
1.36019,4.302004,-1692,26056,12.9851,5201,1406
1.21188,4.284651,-1691,26057,12.9851,5203,1412
0.845728,5.231963,-1690,26058,13.0846,5203,1412
1.70549,4.646696,-1689,26059,13.0846,5203,1412
1.73047,3.892876,-1688,26060,13.0846,5203,1412
2.59295,3.809689,-1687,26061,13.0846,5203,1412
1.81651,4.253235,-1686,26062,12.9851,5203,1412
1.36019,4.627415,-1685,26063,12.9851,5203,1412
1.71386,4.68502,-1684,26064,13.0846,5203,1412
1.66589,4.4785,-1683,26065,12.8357,5203,1412
1.98701,4.150391,-1682,26066,12.8357,5203,1412
2.11037,3.840853,-1681,26067,13.0846,5203,1412
2.36602,4.411453,-1680,26068,12.9851,5203,1412
1.32827,4.842977,-1679,26069,12.9851,5203,1412
2.30684,4.180797,-1678,26070,12.8357,5203,1412
1.8529,3.833086,-1677,26071,13.1842,5203,1412
2.40401,3.930967,-1676,26072,12.9851,5203,1412
1.34255,3.879455,-1675,26073,13.0846,5203,1412
2.1771,4.022768,-1674,26074,12.8357,5203,1412
1.40163,4.315837,-1673,26075,12.9851,5203,1412
1.92856,4.471841,-1672,26076,13.0846,5203,1412
2.91827,4.471841,-1671,26077,13.0846,5196,1427
1.81388,4.161148,-1670,26078,12.9851,5196,1427
1.43525,3.307182,-1669,26079,12.9851,5196,1427
1.50022,3.48061,-1668,26080,12.8855,5196,1427
1.44188,3.744595,-1667,26081,13.0348,5196,1427
1.07865,3.892876,-1666,26082,12.9851,5196,1427
1.73047,3.966816,-1665,26083,12.9851,5196,1427
1.60466,4.162938,-1664,26084,12.8855,5196,1427
1.41517,3.947989,-1663,26085,12.9851,5196,1427
1.00068,3.736628,-1662,26086,13.0348,5196,1427
1.66016,3.833086,-1661,26087,12.8855,5201,1454
1.52856,3.930967,-1660,26088,12.9851,5201,1454
2.04146,3.938541,-1659,26089,12.9851,5201,1454
1.1472,3.320672,-1658,26090,12.9851,5201,1454
1.27702,3.598487,-1657,26091,13.0348,5201,1454
2.72214,3.833086,-1656,26092,13.0348,5201,1454
1.59273,3.631464,-1655,26093,13.234,5201,1454
1.10916,3.690483,-1654,26094,13.1842,5201,1454
1.3637,3.670238,-1653,26095,12.8855,5201,1454
1.70829,4.020915,-1652,26096,12.9851,5201,1454
0.478416,4.253235,-1651,26097,13.0846,5203,1484
1.15548,4.377544,-1650,26098,12.9851,5203,1484
0.683594,4.232162,-1649,26099,13.0846,5203,1484
1.96772,3.558931,-1648,26100,13.3335,5203,1484
0.905627,3.266379,-1647,26101,13.1842,5203,1484
1.66589,3.947989,-1646,26102,12.8357,5203,1484
1.10916,4.377544,-1645,26103,13.0846,5203,1484
1.72495,4.450128,-1644,26104,13.0348,5203,1484
1.5987,4.321013,-1643,26105,12.8855,5203,1484
1.53789,4.04309,-1642,26106,12.8855,5203,1484
0.946812,3.744595,-1641,26107,13.0846,5203,1488
1.95556,3.752545,-1640,26108,13.0846,5203,1488
1.97256,4.032018,-1639,26109,13.0846,5203,1488
1.19205,4.242712,-1638,26110,13.0846,5203,1488
2.16171,4.110708,-1637,26111,12.9851,5203,1488
1.01487,4.180797,-1636,26112,13.0846,5203,1488
1.94088,4.04309,-1635,26113,12.8357,5203,1488
2.26722,3.923379,-1634,26114,13.0846,5203,1488
2.29648,3.938541,-1633,26115,13.0348,5203,1488
2.03444,3.702576,-1632,26116,12.9851,5203,1488
1.86827,3.892876,-1631,26117,12.7859,5202,1510
2.4277,3.985554,-1630,26118,13.0846,5202,1510
1.70829,3.852474,-1629,26119,12.9851,5202,1510
1.8606,3.985554,-1628,26120,13.1842,5202,1510
1.3102,4.314111,-1627,26121,12.9851,5202,1510
2.98451,5.019747,-1626,26122,13.0846,5202,1510
1.15548,4.453476,-1625,26123,12.8855,5202,1510
2.0716,4.096182,-1624,26124,13.0846,5202,1510
0.710948,3.809689,-1623,26125,13.0846,5202,1510
1.39139,3.752545,-1622,26126,13.1842,5202,1510
1.58673,3.606759,-1621,26127,13.1842,5202,1534
1.67446,3.690483,-1620,26128,13.0846,5202,1534
1.89865,3.682398,-1619,26129,12.8855,5202,1534
1.97498,3.682398,-1618,26130,13.0846,5202,1534
1.42525,3.550547,-1617,26131,13.0348,5202,1534
2.11263,4.148595,-1616,26132,13.3335,5202,1534
1.57769,4.426627,-1615,26133,12.9851,5202,1534
2.01324,3.730641,-1614,26134,12.8357,5202,1534
1.40163,3.354158,-1613,26135,12.8855,5202,1534
1.54717,3.340804,-1612,26136,13.3335,5202,1534
1.91864,3.298158,-1611,26137,13.1842,5204,1547
1.77132,3.231983,-1610,26138,13.0348,5204,1547
1.10916,3.259529,-1609,26139,13.234,5204,1547
1.27328,3.080915,-1608,26140,12.8855,5204,1547
2.0739,3.284576,-1607,26141,13.0846,5204,1547
1.28447,3.435363,-1606,26142,13.234,5204,1547
1.36019,3.581885,-1605,26143,13.3335,5204,1547
1.61355,3.627358,-1604,26144,13.0846,5204,1547
1.56555,3.623248,-1603,26145,13.234,5204,1547
1.5034,3.459138,-1602,26146,13.1842,5204,1547
1.30655,3.499822,-1601,26147,13.0846,5204,1550
1.14304,3.499822,-1600,26148,12.9851,5204,1550
1.61355,3.581885,-1599,26149,12.9851,5204,1550
1.8606,3.463443,-1598,26150,12.9851,5204,1550
1.20794,3.340804,-1597,26151,13.0348,5204,1550
1.36019,3.48275,-1596,26152,12.9851,5204,1550
1.81913,3.164424,-1595,26153,13.0348,5204,1550
0.926449,3.17148,-1594,26154,13.0846,5204,1550
1.9798,3.48275,-1593,26155,12.8855,5204,1550
1.47781,3.58812,-1592,26156,13.0846,5204,1550
1.64863,3.672268,-1591,26157,12.8855,5204,1568
1.73323,3.58812,-1590,26158,13.0846,5204,1568
1.67161,3.393906,-1589,26159,13.1842,5204,1568
2.44336,3.422326,-1588,26160,13.0348,5204,1568
2.39208,3.58812,-1587,26161,13.3335,5204,1568
2.67264,3.58812,-1586,26162,13.234,5204,1568
2.32946,3.627358,-1585,26163,13.0846,5204,1568
2.00136,3.054198,-1584,26164,13.0846,5204,1568
1.56555,2.612419,-1583,26165,12.9851,5204,1568
1.63702,3.197217,-1582,26166,12.8855,5204,1568
1.23912,3.696534,-1581,26167,12.9851,5203,1580
1.86827,3.840853,-1580,26168,13.1842,5203,1580
2.70809,3.674296,-1579,26169,13.0846,5203,1580
1.15135,3.400485,-1578,26170,13.0846,5203,1580
1.79007,3.413606,-1577,26171,12.8855,5203,1580
1.37415,3.631464,-1576,26172,13.0846,5203,1580
1.83739,3.821405,-1575,26173,13.1842,5203,1580
1.48103,3.885213,-1574,26174,12.9851,5203,1580
2.14177,4.017208,-1573,26175,12.9851,5203,1580
0.655098,4.020915,-1572,26176,12.9851,5203,1580
1.45176,3.95553,-1571,26177,13.0846,5200,1578
1.96287,4.04309,-1570,26178,12.9851,5200,1578
1.19205,4.04309,-1569,26179,12.9851,5200,1578
0.98628,4.02832,-1568,26180,12.8357,5200,1578
1.86572,3.947989,-1567,26181,13.234,5200,1578
1.40163,4.159357,-1566,26182,13.0348,5200,1578
1.96529,4.307197,-1565,26183,12.9851,5200,1578
2.21832,4.307197,-1564,26184,12.9851,5200,1578
1.94579,4.673874,-1563,26185,13.0348,5200,1578
3.31024,5.273098,-1562,26186,12.9851,5200,1578
1.65152,4.702481,-1561,26187,12.8855,5203,1581
2.11263,4.202128,-1560,26188,13.0846,5203,1581
1.73047,4.216288,-1559,26189,12.8855,5203,1581
1.75238,4.418203,-1558,26190,13.0348,5203,1581
1.37067,4.653105,-1557,26191,12.8855,5203,1581
1.62826,4.740353,-1556,26192,12.9851,5203,1581
1.74966,4.737209,-1555,26193,13.1842,5203,1581
1.41517,4.529779,-1554,26194,12.8855,5203,1581
2.0156,4.441749,-1553,26195,13.0348,5203,1581
1.17998,5.110943,-1552,26196,13.0348,5203,1581
1.54099,5.31812,-1551,26197,13.0846,5204,1600
1.4118,4.919297,-1550,26198,12.8357,5204,1600
1.62826,4.50504,-1549,26199,13.1842,5204,1600
2.04146,4.363907,-1548,26200,12.9851,5204,1600
1.59273,4.622582,-1547,26201,12.9851,5204,1600
1.10916,4.653105,-1546,26202,12.8357,5204,1600
1.69427,4.648299,-1545,26203,12.9851,5204,1600
1.66303,4.649902,-1544,26204,13.0846,5204,1600
1.91864,4.470174,-1543,26205,13.0846,5204,1600
1.9942,4.426627,-1542,26206,13.0846,5204,1600
2.63129,4.58211,-1541,26207,13.0846,5204,1599
1.09183,4.670685,-1540,26208,12.8855,5204,1599
1.60466,4.286389,-1539,26209,12.9851,5204,1599
1.61945,4.503385,-1538,26210,13.1842,5204,1599
2.01324,4.567453,-1537,26211,13.0846,5204,1599
1.71108,4.662702,-1536,26212,12.8357,5204,1599
2.40995,4.57723,-1535,26213,12.9851,5204,1599
1.88099,4.518251,-1534,26214,13.0846,5204,1599
1.32827,4.370731,-1533,26215,13.0348,5204,1599
2.01324,4.300272,-1532,26216,13.0348,5204,1599
1.3102,4.020915,-1531,26217,13.1842,5204,1586
1.73047,3.809689,-1530,26218,13.0846,5204,1586
1.48103,4.020915,-1529,26219,13.0846,5204,1586
1.76323,4.232162,-1528,26220,13.0348,5204,1586
1.59273,4.02832,-1527,26221,13.0846,5204,1586
1.69708,3.966816,-1526,26222,12.9851,5204,1586
2.01324,3.756514,-1525,26223,13.0846,5204,1586
1.79273,3.892876,-1524,26224,12.9851,5204,1586
1.21188,3.885213,-1523,26225,13.0846,5204,1586
2.27352,3.563115,-1522,26226,12.9851,5204,1586
2.16171,3.583964,-1521,26227,13.1842,5204,1586
1.70829,2.423027,-1520,26228,13.0348,5204,1586
1.00543,2.586624,-1519,26229,13.0348,5204,1586
1.19604,3.435363,-1518,26230,13.3335,5204,1586
1.84257,3.852474,-1517,26231,13.0348,5204,1586
1.41517,3.85634,-1516,26232,12.8357,5204,1586
1.82437,3.953646,-1515,26233,12.8357,5204,1586
2.05311,3.809689,-1514,26234,13.0846,5204,1586
1.19604,3.666176,-1513,26235,13.0348,5204,1586
0.365396,3.829196,-1512,26236,13.234,5204,1586
1.92856,3.792047,-1511,26237,12.9851,5201,1591
2.0156,3.846668,-1510,26238,13.0846,5201,1591
2.31715,3.558931,-1509,26239,13.1842,5201,1591
1.25442,3.567295,-1508,26240,12.7859,5201,1591
1.21581,3.561023,-1507,26241,13.0846,5201,1591
2.18584,3.542143,-1506,26242,13.0846,5201,1591
1.98461,3.680374,-1505,26243,12.9851,5201,1591
2.25034,3.71463,-1504,26244,12.9851,5201,1591
1.25061,3.825303,-1503,26245,12.8855,5201,1591
0.851347,3.953646,-1502,26246,13.0846,5201,1591
1.73323,3.809689,-1501,26247,13.0846,5203,1597
2.11037,3.758497,-1500,26248,12.9851,5203,1597
2.51832,4.232162,-1499,26249,13.0348,5203,1597
2.36602,4.372435,-1498,26250,13.0846,5203,1597
1.28447,3.831141,-1497,26251,13.0846,5203,1597
1.73323,3.720642,-1496,26252,13.0846,5203,1597
1.98461,3.815552,-1495,26253,13.0846,5203,1597
1.87846,3.852474,-1494,26254,13.0846,5203,1597
2.37206,3.961177,-1493,26255,13.1842,5203,1597
1.08306,3.879455,-1492,26256,12.9851,5203,1597
1.47458,3.985554,-1491,26257,12.9851,5205,1589
2.03444,4.096182,-1490,26258,12.9851,5205,1589
1.52231,4.162938,-1489,26259,13.1842,5205,1589
3.27112,4.821391,-1488,26260,13.0846,5205,1589
2.01324,4.564189,-1487,26261,12.9851,5205,1589
1.19604,3.963057,-1486,26262,13.234,5205,1589
1.73872,3.690483,-1485,26263,13.0846,5205,1589
1.4118,3.322914,-1484,26264,12.8855,5205,1589
1.99897,3.660074,-1483,26265,13.0846,5205,1589
1.77132,3.892876,-1482,26266,13.234,5205,1589
1.46158,4.711977,-1481,26267,13.0846,5204,1583
1.38452,6.105957,-1480,26268,13.0846,5204,1583
2.27981,5.810855,-1479,26269,12.8357,5204,1583
2.45504,4.735636,-1478,26270,13.0846,5204,1583
1.67446,6.827213,-1477,26271,13.234,5204,1583
2.0785,8.907788,-1476,26272,13.0846,5204,1583
0.981433,8.080649,-1475,26273,12.9851,5204,1583
1.69708,6.113273,-1474,26274,13.0846,5204,1583
1.84257,6.225586,-1473,26275,13.0846,5204,1583
2.16392,7.219713,-1472,26276,13.1842,5204,1583
1.81651,7.622311,-1471,26277,12.9851,5203,1596
1.12623,8.013058,-1470,26278,12.9851,5203,1596
1.31383,6.225586,-1469,26279,13.0846,5203,1596
1.40842,4.358782,-1468,26280,13.0846,5203,1596
1.82698,1.781558,-1467,26281,13.0846,5203,1596
1.76863,1.814706,-1466,26282,12.8855,5203,1596
1.1472,3.083333,-1465,26283,13.0846,5203,1596
1.25442,6.225586,-1464,26284,12.8855,5203,1596
1.38107,5.548495,-1463,26285,13.0846,5203,1596
1.83739,4.177231,-1462,26286,13.0846,5203,1596
1.4118,4.678654,-1461,26287,13.0846,5204,1596
1.21188,5.856831,-1460,26288,13.0846,5204,1596
2.46667,6.452429,-1459,26289,13.0846,5204,1596
0.805294,6.110835,-1458,26290,13.0846,5204,1596
1.33185,5.134214,-1457,26291,13.0348,5204,1596
1.56859,3.472037,-1456,26292,13.3335,5204,1596
1.62826,2.373318,-1455,26293,12.9851,5204,1596
1.93596,3.472037,-1454,26294,12.8855,5204,1596
1.27328,5.064079,-1453,26295,13.0846,5204,1596
1.82698,4.572344,-1452,26296,13.1842,5204,1596
0.966748,3.938541,-1451,26297,13.234,5202,1578
1.88099,4.95852,-1450,26298,13.1842,5202,1578
1.49385,5.831333,-1449,26299,12.9851,5202,1578
2.0693,5.197673,-1448,26300,12.9851,5202,1578
2.66729,3.799898,-1447,26301,12.9851,5202,1578
2.05311,3.792047,-1446,26302,12.9851,5202,1578
1.44188,3.16913,-1445,26303,13.0846,5202,1578
1.36019,4.105267,-1444,26304,12.9851,5202,1578
1.51603,5.1255,-1443,26305,12.9851,5202,1578
2.76386,4.516602,-1442,26306,13.0846,5202,1578
1.30655,3.378504,-1441,26307,13.1842,5203,1587
2.09677,9.435017,-1440,26308,13.0348,5203,1587
2.33764,13.35652,-1439,26309,13.0846,5203,1587
0.655098,13.87258,-1438,26310,12.9851,5203,1587
1.23912,11.45771,-1437,26311,12.8855,5203,1587
1.78473,9.362085,-1436,26312,12.8855,5203,1587
0.981433,8.446701,-1435,26313,13.0846,5203,1587
1.37415,15.8433,-1434,26314,13.0846,5203,1587
1.55638,44.20631,-1433,26315,13.234,5203,1587
1.74146,82.94262,-1432,26316,13.1842,5203,1587
1.06082,115.4686,-1431,26317,13.0846,5205,1596
0.793363,138.5948,-1430,26318,12.8357,5205,1596
0.905627,151.1213,-1429,26319,13.0846,5205,1596
0.921287,158.5646,-1428,26320,13.0846,5205,1596
0.966748,160.1469,-1427,26321,12.9851,5205,1596
2.27143,157.891,-1426,26322,12.9851,5205,1596
1.21188,170.6979,-1425,26323,13.0846,5205,1596
1.37415,196.4011,-1424,26324,13.0846,5205,1596
1.41517,212.1149,-1423,26325,12.9851,5205,1596
0.717624,208.4733,-1422,26326,12.8357,5205,1596
0.365396,193.6768,-1421,26327,13.0846,5193,1601
0.905627,180.9463,-1420,26328,12.9851,5193,1601
0.447517,175.415,-1419,26329,13.0348,5193,1601
0.926449,169.9209,-1418,26330,13.0846,5193,1601
1.12623,158.6814,-1417,26331,13.1842,5193,1601
0.697405,142.7215,-1416,26332,12.9851,5193,1601
0.497951,142.4521,-1415,26333,12.9851,5193,1601
4.96224,371.6365,-1414,26334,12.8357,5193,1601
4.33774,377.105,-1413,26335,13.0846,5193,1601
2.5353,95.42214,-1412,26336,12.8357,5193,1601
2.9909,178.7778,-1411,26337,12.9851,5211,1600
2.91991,255.2157,-1410,26338,12.9851,5211,1600
2.23545,199.8026,-1409,26339,13.234,5211,1600
2.32332,153.8344,-1408,26340,12.9851,5211,1600
1.76323,186.3095,-1407,26341,13.0846,5211,1600
1.68581,210.7406,-1406,26342,12.8357,5211,1600
2.12388,176.2846,-1405,26343,12.8855,5211,1600
2.08994,146.6936,-1404,26344,13.0348,5211,1600
1.62239,151.6517,-1403,26345,13.0348,5211,1600
2.30477,158.2122,-1402,26346,13.0846,5211,1600
1.97256,155.8684,-1401,26347,13.0846,5215,1613
1.74966,153.1796,-1400,26348,13.0846,5215,1613
1.84774,150.5141,-1399,26349,13.0846,5215,1613
1.14304,145.6784,-1398,26350,12.8855,5215,1613
1.91864,139.2502,-1397,26351,13.0846,5215,1613
1.84257,132.0832,-1396,26352,13.0846,5215,1613
1.80598,123.3293,-1395,26353,12.9851,5215,1613
1.22752,124.9884,-1394,26354,12.9851,5215,1613
1.90617,135.2879,-1393,26355,13.0348,5215,1613
1.40163,136.3956,-1392,26356,12.9851,5215,1613
1.67161,124.9868,-1391,26357,12.9851,5218,1634
1.12198,115.3843,-1390,26358,12.9851,5218,1634
1.59273,111.764,-1389,26359,12.9851,5218,1634
1.82437,113.5042,-1388,26360,12.8855,5218,1634
1.86572,119.4253,-1387,26361,13.0348,5218,1634
2.27981,125.9201,-1386,26362,13.0846,5218,1634
1.88858,128.9242,-1385,26363,12.8855,5218,1634
1.94579,130.1342,-1384,26364,12.9851,5218,1634
2.09677,130.81,-1383,26365,13.1842,5218,1634
1.45176,126.1129,-1382,26366,13.1842,5218,1634
2.26722,119.1207,-1381,26367,12.9851,5214,1633
2.32332,114.9323,-1380,26368,13.0846,5214,1633
2.22905,116.4002,-1379,26369,13.0846,5214,1633
1.20794,124.1284,-1378,26370,13.0846,5214,1633
1.93596,128.1435,-1377,26371,13.1842,5214,1633
1.55638,120.504,-1376,26372,12.9851,5214,1633
1.92856,109.0855,-1375,26373,13.0846,5214,1633
1.55638,102.0275,-1374,26374,12.7859,5214,1633
2.02033,97.37286,-1373,26375,13.234,5214,1633
1.27328,95.97289,-1372,26376,12.9851,5214,1633
0.889691,97.8484,-1371,26377,13.0348,5223,1639
1.19205,99.0932,-1370,26378,13.0846,5223,1639
1.54099,87.79308,-1369,26379,13.0846,5223,1639
1.28447,58.67368,-1368,26380,13.1842,5223,1639
1.54099,31.7594,-1367,26381,13.0846,5223,1639
1.4219,46.98819,-1366,26382,12.9851,5223,1639
1.42525,72.16834,-1365,26383,13.1842,5223,1639
1.05631,84.77623,-1364,26384,12.7859,5223,1639
1.27328,90.04463,-1363,26385,12.9851,5223,1639
0.905627,93.49638,-1362,26386,12.8855,5223,1639
1.57769,93.27075,-1361,26387,12.8855,5230,1639
2.48208,84.76603,-1360,26388,13.0846,5230,1639
1.1596,64.09831,-1359,26389,12.9851,5230,1639
1.69427,34.84674,-1358,26390,13.1842,5230,1639
1.87846,40.62154,-1357,26391,12.9851,5230,1639
2.06237,58.91066,-1356,26392,12.9851,5230,1639
0.981433,78.65971,-1355,26393,12.8357,5230,1639
1.84516,107.6279,-1354,26394,12.8855,5230,1639
1.00543,138.1707,-1353,26395,13.0846,5230,1639
1.66016,155.3395,-1352,26396,12.8855,5230,1639
1.66875,147.9989,-1351,26397,13.0846,5230,1645
1.36019,134.6082,-1350,26398,13.0846,5230,1645
2.30477,122.9061,-1349,26399,13.0846,5230,1645
2.13284,117.3497,-1348,26400,13.0846,5230,1645
1.56555,116.2608,-1347,26401,13.0846,5230,1645
1.92112,108.2202,-1346,26402,13.0846,5230,1645
1.92856,111.0618,-1345,26403,13.234,5230,1645
2.00612,121.8162,-1344,26404,13.0846,5230,1645
2.70985,121.0751,-1343,26405,13.0348,5230,1645
1.42525,128.7687,-1342,26406,12.8357,5230,1645
1.28447,139.9151,-1341,26407,13.0846,5240,1640
1.64863,149.3296,-1340,26408,13.1842,5240,1640
1.92608,157.9378,-1339,26409,12.9851,5240,1640
1.00068,169.2634,-1338,26410,12.9851,5240,1640
0.817051,180.1653,-1337,26411,13.0348,5240,1640
1.38452,189.5969,-1336,26412,13.0348,5240,1640
0.497951,193.1226,-1335,26413,13.234,5240,1640
1.58673,184.3452,-1334,26414,12.7859,5240,1640
1.15135,167.0958,-1333,26415,13.0846,5240,1640
2.32946,153.7018,-1332,26416,12.9851,5240,1640
0.534885,149.666,-1331,26417,13.0348,5254,1625
1.09619,150.4058,-1330,26418,12.8855,5254,1625
0.840071,147.1205,-1329,26419,13.234,5254,1625
1.85804,130.7392,-1328,26420,13.0846,5254,1625
1.28447,131.6868,-1327,26421,12.9851,5254,1625
2.11263,153.8071,-1326,26422,12.8357,5254,1625
0.811194,158.6991,-1325,26423,13.0846,5254,1625
1.37067,157.7629,-1324,26424,13.0348,5254,1625
1.49704,163.3806,-1323,26425,13.3335,5254,1625
1.13045,165.1288,-1322,26426,12.9851,5254,1625
1.74146,156.8323,-1321,26427,13.0846,5263,1620
1.4219,141.1645,-1320,26428,13.0846,5263,1620
2.0693,126.4386,-1319,26429,12.9851,5263,1620
1.50022,129.0546,-1318,26430,13.234,5263,1620
2.10358,135.0451,-1317,26431,12.8855,5263,1620
1.51917,141.328,-1316,26432,13.0846,5263,1620
1.85804,156.3927,-1315,26433,13.3335,5263,1620
1.67446,175.6271,-1314,26434,13.0846,5263,1620
1.68298,187.9641,-1313,26435,13.0846,5263,1620
1.23912,196.611,-1312,26436,12.7859,5263,1620
1.09619,202.7237,-1311,26437,13.1842,5283,1608
1.4118,203.5713,-1310,26438,12.9851,5283,1608
0.697405,205.1341,-1309,26439,12.9851,5283,1608
0.632885,201.8992,-1308,26440,12.8855,5283,1608
2.26722,206.996,-1307,26441,13.1842,5283,1608
1.39822,221.2141,-1306,26442,13.1842,5283,1608
1.04268,233.7301,-1305,26443,12.9851,5283,1608
1.60168,251.3089,-1304,26444,13.0348,5283,1608
1.33185,270.1898,-1303,26445,13.0846,5283,1608
1.48103,291.5682,-1302,26446,13.0348,5283,1608
2.21187,313.8924,-1301,26447,13.0846,5311,1581
1.86572,326.6641,-1300,26448,13.0846,5311,1581
1.60168,321.0192,-1299,26449,13.0846,5311,1581
1.21581,313.072,-1298,26450,13.0846,5311,1581
1.53789,335.301,-1297,26451,13.0348,5311,1581
3.4305,363.4305,-1296,26452,13.0846,5311,1581
1.63702,364.5348,-1295,26453,13.0846,5311,1581
1.18402,368.7167,-1294,26454,12.9851,5311,1581
0.402647,395.1231,-1293,26455,13.0846,5311,1581
1.4118,422.1829,-1292,26456,13.0846,5311,1581
0.750112,429.4383,-1291,26457,13.1842,5351,1542
1.07865,414.939,-1290,26458,13.0846,5351,1542
1.19205,398.565,-1289,26459,13.0846,5351,1542
0.625305,389.2794,-1288,26460,13.0846,5351,1542
1.59273,385.8077,-1287,26461,12.7859,5351,1542
2.12388,389.9924,-1286,26462,12.9851,5351,1542
3.48566,408.4356,-1285,26463,12.8855,5351,1542
2.12164,429.7881,-1284,26464,13.0846,5351,1542
1.66016,436.3271,-1283,26465,13.234,5351,1542
2.8236,441.1904,-1282,26466,12.9851,5351,1542
2.87382,439.6616,-1281,26467,12.9851,5428,1498
3.26966,440.0353,-1280,26468,13.0846,5428,1498
1.77132,447.8914,-1279,26469,13.0348,5428,1498
2.65833,453.8192,-1278,26470,13.0846,5428,1498
1.97739,459.3811,-1277,26471,13.1842,5428,1498
2.6131,463.9733,-1276,26472,13.0846,5428,1498
2.30684,468.1609,-1275,26473,13.0846,5428,1498
1.60168,477.317,-1274,26474,13.3335,5428,1498
2.57079,487.5237,-1273,26475,12.9851,5428,1498
1.79804,493.319,-1272,26476,12.8855,5428,1498
1.16371,500.9542,-1271,26477,12.9851,5539,1440
0.862477,513.3463,-1270,26478,13.1842,5539,1440
1.73047,523.1119,-1269,26479,13.0846,5539,1440
1.7551,525.0496,-1268,26480,13.3335,5539,1440
2.86051,525.6558,-1267,26481,13.0846,5539,1440
2.76386,536.2367,-1266,26482,13.1842,5539,1440
1.49385,549.0733,-1265,26483,13.1842,5539,1440
2.26722,553.6614,-1264,26484,12.8855,5539,1440
1.97498,554.6334,-1263,26485,13.0846,5539,1440
2.5353,558.4031,-1262,26486,12.9851,5539,1440
2.3027,561.8644,-1261,26487,12.9851,5649,1373
2.75176,563.3322,-1260,26488,13.0846,5649,1373
2.41391,566.6437,-1259,26489,13.0846,5649,1373
3.16442,571.5456,-1258,26490,12.9851,5649,1373
1.96287,575.0709,-1257,26491,12.9851,5649,1373
2.15287,575.8374,-1256,26492,12.9851,5649,1373
3.23447,577.7742,-1255,26493,12.8855,5649,1373
1.80334,585.1591,-1254,26494,13.1842,5649,1373
1.61945,590.4314,-1253,26495,12.8357,5649,1373
1.96529,596.1784,-1252,26496,13.0846,5649,1373
3.27549,605.9625,-1251,26497,13.1842,5703,1325
3.91357,611.1126,-1250,26498,13.1842,5703,1325
2.41193,613.9874,-1249,26499,13.1842,5703,1325
2.4974,625.7875,-1248,26500,12.9851,5703,1325
2.11714,639.0735,-1247,26501,13.0846,5703,1325
2.75176,643.7658,-1246,26502,13.0846,5703,1325
3.20336,644.5168,-1245,26503,13.0846,5703,1325
3.12805,643.323,-1244,26504,13.1842,5703,1325
3.12805,650.8454,-1243,26505,13.0846,5703,1325
2.41983,671.1255,-1242,26506,13.234,5703,1325
2.25668,690.64,-1241,26507,13.0846,5648,1283
2.83371,702.2499,-1240,26508,13.234,5648,1283
3.16442,711.807,-1239,26509,13.0846,5648,1283
3.06802,719.2495,-1238,26510,13.234,5648,1283
2.91009,724.8015,-1237,26511,13.0348,5648,1283
3.23595,739.4588,-1236,26512,13.0846,5648,1283
2.3539,758.5036,-1235,26513,12.9851,5648,1283
2.40797,774.3057,-1234,26514,13.234,5648,1283
2.0716,789.4275,-1233,26515,13.0846,5648,1283
2.65115,801.4137,-1232,26516,13.1842,5648,1283
3.23742,811.158,-1231,26517,13.0846,5561,1201
2.1573,830.8283,-1230,26518,12.7859,5561,1201
2.1771,863.5674,-1229,26519,12.9851,5561,1201
2.15951,882.3206,-1228,26520,13.0348,5561,1201
2.23972,874.5673,-1227,26521,12.9851,5561,1201
2.64575,867.2809,-1226,26522,13.1842,5561,1201
2.9717,867.8413,-1225,26523,12.9851,5561,1201
3.03992,874.2018,-1224,26524,13.0846,5561,1201
2.96689,881.3607,-1223,26525,13.0846,5561,1201
2.8986,880.3187,-1222,26526,13.0348,5561,1201
3.59741,875.5369,-1221,26527,13.0348,5766,1095
2.34985,871.8601,-1220,26528,13.3833,5766,1095
2.8236,869.7307,-1219,26529,12.9851,5766,1095
3.23005,870.1334,-1218,26530,13.0348,5766,1095
4.61368,874.7477,-1217,26531,12.9851,5766,1095
4.20489,876.6977,-1216,26532,12.9851,5766,1095
4.19922,880.0552,-1215,26533,12.8357,5766,1095
2.91827,882.6718,-1214,26534,13.0846,5766,1095
3.53861,882.0449,-1213,26535,13.0846,5766,1095
3.55474,888.7323,-1212,26536,12.9851,5766,1095
4.40429,895.6304,-1211,26537,12.9851,6444,1006
3.02261,896.0151,-1210,26538,13.0846,6444,1006
3.21673,894.07,-1209,26539,13.0348,6444,1006
3.55071,890.1532,-1208,26540,12.9851,6444,1006
4.18101,884.3332,-1207,26541,13.234,6444,1006
2.97651,879.4673,-1206,26542,13.0348,6444,1006
3.37303,874.612,-1205,26543,13.0846,6444,1006
3.916,869.9215,-1204,26544,12.8357,6444,1006
3.60403,863.747,-1203,26545,13.0846,6444,1006
4.30353,858.224,-1202,26546,12.9851,6444,1006
4.13975,855.5167,-1201,26547,13.0846,6303,1006
2.40203,853.3296,-1200,26548,12.9851,6303,1006
4.08875,845.9096,-1199,26549,13.0846,6303,1006
3.79982,833.121,-1198,26550,12.8855,6303,1006
4.15929,818.8135,-1197,26551,12.8855,6303,1006
3.89892,806.0815,-1196,26552,13.0846,6303,1006
4.03711,792.6171,-1195,26553,12.8855,6303,1006
3.21673,777.2297,-1194,26554,12.8357,6303,1006
4.60333,759.7851,-1193,26555,12.9851,6303,1006
4.6936,741.0592,-1192,26556,13.1842,6303,1006
4.09109,722.4877,-1191,26557,12.8855,6303,988
4.33554,706.1051,-1190,26558,12.9851,6303,988
4.28131,690.5675,-1189,26559,13.0846,6303,988
4.46344,668.5377,-1188,26560,13.0348,6303,988
4.05244,643.0102,-1187,26561,13.0348,6303,988
4.35201,632.1122,-1186,26562,13.1842,6303,988
4.23427,633.8886,-1185,26563,12.9851,6303,988
3.45405,635.2664,-1184,26564,12.9851,6303,988
3.39557,621.601,-1183,26565,13.0846,6303,988
3.80107,604.5327,-1182,26566,12.9851,6303,988
3.71736,592.4177,-1181,26567,13.0348,5817,974
3.80484,576.6801,-1180,26568,13.0348,5817,974
4.24103,550.6023,-1179,26569,13.1842,5817,974
4.08058,520.2183,-1178,26570,12.9851,5817,974
4.12128,494.3132,-1177,26571,13.0348,5817,974
4.24327,472.5771,-1176,26572,12.9851,5817,974
3.81485,453.1394,-1175,26573,12.9851,5817,974
4.51548,433.3644,-1174,26574,13.0846,5817,974
4.41618,411.3325,-1173,26575,12.9851,5817,974
4.09924,386.2271,-1172,26576,13.0846,5817,974
4.08175,360.6754,-1171,26577,13.1842,5480,979
3.98481,337.6133,-1170,26578,13.0846,5480,979
4.2444,315.5499,-1169,26579,13.0846,5480,979
3.39557,291.324,-1168,26580,13.0846,5480,979
3.69161,269.027,-1167,26581,12.8357,5480,979
5.05648,248.3546,-1166,26582,13.0348,5480,979
4.32343,226.851,-1165,26583,13.0348,5480,979
4.73205,204.474,-1164,26584,13.0846,5480,979
4.19012,181.396,-1163,26585,13.0846,5480,979
3.42354,159.4688,-1162,26586,13.3335,5480,979
4.83965,138.3604,-1161,26587,12.9851,5269,1007
4.06536,117.395,-1160,26588,13.0348,5269,1007
4.29354,99.35016,-1159,26589,13.0846,5269,1007
3.82109,84.38635,-1158,26590,13.0846,5269,1007
3.90869,75.56823,-1157,26591,12.9851,5269,1007
3.76452,72.64927,-1156,26592,13.0846,5269,1007
3.8928,76.29229,-1155,26593,12.9851,5269,1007
4.81793,83.3237,-1154,26594,13.0348,5269,1007
3.44022,90.87477,-1153,26595,13.0846,5269,1007
4.43019,99.35474,-1152,26596,13.0846,5269,1007
4.29243,107.9711,-1151,26597,13.0348,5171,1024
4.64868,115.2931,-1150,26598,13.0846,5171,1024
4.22187,125.3036,-1149,26599,13.0846,5171,1024
3.19442,137.8773,-1148,26600,13.0846,5171,1024
3.31024,149.706,-1147,26601,13.1842,5171,1024
4.19922,160.6753,-1146,26602,12.8357,5171,1024
3.14477,173.4675,-1145,26603,13.1842,5171,1024
3.65005,187.1163,-1144,26604,13.0846,5171,1024
2.76731,195.5646,-1143,26605,13.0846,5171,1024
3.36028,200.4135,-1142,26606,12.9851,5171,1024
3.70837,209.2161,-1141,26607,13.0846,5129,1032
4.00629,227.2976,-1140,26608,13.1842,5129,1032
3.07268,250.8663,-1139,26609,13.0846,5129,1032
2.96689,253.3216,-1138,26610,13.0846,5129,1032
3.81235,241.47,-1137,26611,13.0846,5129,1032
3.38855,242.8173,-1136,26612,12.9851,5129,1032
3.04775,258.55,-1135,26613,13.0348,5129,1032
3.13262,271.9215,-1134,26614,12.8855,5129,1032
2.74308,277.1549,-1133,26615,13.0348,5129,1032
1.8606,275.1233,-1132,26616,13.0348,5129,1032
2.35593,272.5524,-1131,26617,12.7859,5098,1065
3.32892,277.2172,-1130,26618,12.9851,5098,1065
2.86218,283.3883,-1129,26619,13.0846,5098,1065
2.18584,286.4201,-1128,26620,13.0846,5098,1065
2.01324,285.4895,-1127,26621,12.9851,5098,1065
2.21187,283.5537,-1126,26622,12.8855,5098,1065
1.57466,282.3762,-1125,26623,13.1842,5098,1065
2.82529,281.5898,-1124,26624,12.9851,5098,1065
2.0739,279.174,-1123,26625,13.0348,5098,1065
2.1771,277.7186,-1122,26626,13.1842,5098,1065
1.96529,274.1703,-1121,26627,13.0348,5097,1106
2.9717,262.7181,-1120,26628,13.1842,5097,1106
2.03444,251.5482,-1119,26629,12.9851,5097,1106
2.33968,245.1188,-1118,26630,12.8855,5097,1106
2.05543,241.12,-1117,26631,13.0348,5097,1106
1.5987,236.4432,-1116,26632,13.0348,5097,1106
2.72039,229.0264,-1115,26633,12.9851,5097,1106
1.8606,220.238,-1114,26634,13.1842,5097,1106
1.97739,213.4429,-1113,26635,13.0348,5097,1106
1.77132,207.7522,-1112,26636,13.0348,5097,1106
2.30063,202.9816,-1111,26637,13.0846,5088,1141
2.0739,197.1693,-1110,26638,13.0348,5088,1141
1.76863,189.4532,-1109,26639,13.0348,5088,1141
2.88045,181.5609,-1108,26640,12.9851,5088,1141
1.11773,173.9038,-1107,26641,13.0846,5088,1141
1.70829,166.219,-1106,26642,13.0846,5088,1141
2.11037,159.3243,-1105,26643,13.1842,5088,1141
3.63958,151.8689,-1104,26644,13.234,5088,1141
2.56336,144.407,-1103,26645,12.9851,5088,1141
1.60168,137.7766,-1102,26646,12.8855,5088,1141
2.70809,131.608,-1101,26647,13.234,5076,1177
2.87382,125.7328,-1100,26648,12.8855,5076,1177
3.2609,120.5615,-1099,26649,13.0348,5076,1177
2.05543,115.0305,-1098,26650,12.9851,5076,1177
2.64575,109.6978,-1097,26651,12.9851,5076,1177
1.45176,104.5533,-1096,26652,13.0846,5076,1177
2.39407,98.52262,-1095,26653,13.0846,5076,1177
2.75176,92.47034,-1094,26654,13.1842,5076,1177
4.20149,87.59606,-1093,26655,12.9851,5076,1177
3.12805,82.785,-1092,26656,13.0846,5076,1177
1.29923,78.36096,-1091,26657,13.0846,5074,1215
2.40797,73.02101,-1090,26658,13.0846,5074,1215
2.75176,67.51206,-1089,26659,13.0846,5074,1215
2.40203,63.35543,-1088,26660,13.0846,5074,1215
2.2819,61.07787,-1087,26661,13.1842,5074,1215
2.24822,59.91651,-1086,26662,13.0348,5074,1215
2.20539,59.06702,-1085,26663,13.1842,5074,1215
3.02734,59.93006,-1084,26664,12.8855,5074,1215
2.05543,62.58113,-1083,26665,13.0846,5074,1215
2.81853,66.69487,-1082,26666,13.0846,5074,1215
2.44531,71.56215,-1081,26667,12.9851,5074,1225
1.88099,76.96473,-1080,26668,12.8855,5074,1225
2.00136,82.79877,-1079,26669,13.0846,5074,1225
1.80334,89.0921,-1078,26670,12.9851,5074,1225
3.20485,95.509,-1077,26671,13.0846,5074,1225
1.23912,101.7084,-1076,26672,12.9851,5074,1225
2.17052,107.2087,-1075,26673,13.0348,5074,1225
2.78106,112.13,-1074,26674,12.8855,5074,1225
2.70809,116.754,-1073,26675,13.0348,5074,1225
2.23759,120.7197,-1072,26676,13.0348,5074,1225
2.64033,125.2228,-1071,26677,13.0846,5071,1211
2.69397,129.6797,-1070,26678,13.0846,5071,1211
2.37005,133.5684,-1069,26679,13.0846,5071,1211
2.21187,137.8369,-1068,26680,12.9851,5071,1211
1.89614,141.6772,-1067,26681,13.0846,5071,1211
2.56336,144.7804,-1066,26682,13.234,5071,1211
2.57635,148.0534,-1065,26683,13.0348,5071,1211
2.0716,151.5408,-1064,26684,13.0348,5071,1211
2.62221,155.34,-1063,26685,13.234,5071,1211
1.88858,158.8002,-1062,26686,13.0348,5071,1211
1.29556,161.176,-1061,26687,12.9851,5075,1208
2.56522,164.5773,-1060,26688,13.0348,5075,1208
3.16894,167.9656,-1059,26689,12.8357,5075,1208
3.74802,171.0894,-1058,26690,13.0846,5075,1208
2.12164,173.779,-1057,26691,13.0348,5075,1208
2.0739,176.8003,-1056,26692,12.9851,5075,1208
2.48976,179.6712,-1055,26693,13.1842,5075,1208
1.86827,182.3409,-1054,26694,12.8855,5075,1208
2.38009,184.6495,-1053,26695,12.9851,5075,1208
2.02269,186.3234,-1052,26696,13.234,5075,1208
2.10585,188.5301,-1051,26697,12.8357,5075,1199
2.38809,191.5677,-1050,26698,12.8855,5075,1199
1.54717,194.4449,-1049,26699,12.8855,5075,1199
1.88858,195.7142,-1048,26700,12.8357,5075,1199
1.92608,195.9659,-1047,26701,12.8357,5075,1199
1.70269,196.2733,-1046,26702,13.0846,5075,1199
2.44921,197.7409,-1045,26703,13.1842,5075,1199
2.35187,200.0519,-1044,26704,13.234,5075,1199
2.06237,200.0502,-1043,26705,12.9851,5075,1199
1.18402,197.331,-1042,26706,13.0846,5075,1199
1.8529,192.0097,-1041,26707,13.1842,5070,1199
4.41294,187.336,-1040,26708,13.0846,5070,1199
2.58005,184.2234,-1039,26709,13.234,5070,1199
2.37809,181.7104,-1038,26710,12.9851,5070,1199
2.18366,179.7194,-1037,26711,12.9851,5070,1199
2.41786,178.1461,-1036,26712,13.0348,5070,1199
2.02269,175.4768,-1035,26713,12.9851,5070,1199
2.27352,172.7251,-1034,26714,13.234,5070,1199
2.19672,170.2536,-1033,26715,13.0846,5070,1199
1.67446,168.3847,-1032,26716,12.8855,5070,1199
2.34578,166.272,-1031,26717,13.0348,5070,1179
2.69397,163.5196,-1030,26718,12.8855,5070,1179
2.66729,161.4966,-1029,26719,12.8357,5070,1179
2.32332,158.3596,-1028,26720,12.8855,5070,1179
1.94088,154.9576,-1027,26721,13.1842,5070,1179
2.9248,151.1596,-1026,26722,13.0846,5070,1179
2.48016,148.4163,-1025,26723,13.0846,5070,1179
3.054,145.8189,-1024,26724,13.0846,5070,1179
2.66729,141.9708,-1023,26725,13.1842,5070,1179
1.81125,138.3532,-1022,26726,13.0348,5070,1179
1.958,135.3692,-1021,26727,13.0846,5074,1166
2.19238,132.0664,-1020,26728,13.234,5074,1166
3.41238,131.3775,-1019,26729,13.0846,5074,1166
2.98451,130.8383,-1018,26730,13.3335,5074,1166
2.12388,127.1015,-1017,26731,13.0846,5074,1166
2.18584,121.9871,-1016,26732,13.234,5074,1166
2.93294,117.7538,-1015,26733,13.0846,5074,1166
1.80334,116.1438,-1014,26734,13.0846,5074,1166
1.79804,117.0513,-1013,26735,12.8855,5074,1166
1.95556,117.8844,-1012,26736,12.8357,5074,1166
2.24609,115.3342,-1011,26737,12.8357,5076,1158
1.83479,112.4018,-1010,26738,13.0348,5076,1158
1.80598,111.5315,-1009,26739,13.1842,5076,1158
2.05078,110.3657,-1008,26740,13.0348,5076,1158
2.1771,108.8405,-1007,26741,12.8357,5076,1158
3.68127,107.2465,-1006,26742,12.9851,5076,1158
1.69708,104.5263,-1005,26743,13.0846,5076,1158
2.64394,103.0511,-1004,26744,13.0846,5076,1158
1.82437,105.0285,-1003,26745,13.1842,5076,1158
2.54094,107.1354,-1002,26746,13.0846,5076,1158
2.95239,107.267,-1001,26747,12.8855,5068,1158
2.28816,103.889,-1000,26748,13.0846,5068,1158
2.10811,98.38988,-999,26749,13.1842,5068,1158
1.72495,93.0609,-998,26750,13.3335,5068,1158
2.87382,88.39273,-997,26751,13.1842,5068,1158
2.22047,84.36048,-996,26752,12.9851,5068,1158
2.78449,83.74993,-995,26753,13.0846,5068,1158
2.99727,86.96248,-994,26754,13.0348,5068,1158
3.53995,87.90368,-993,26755,13.0846,5068,1158
2.66371,87.4395,-992,26756,12.8855,5068,1158
2.68333,86.60783,-991,26757,13.3335,5072,1152
1.92856,87.74334,-990,26758,13.0348,5072,1152
2.00612,91.12833,-989,26759,13.0348,5072,1152
2.20323,95.26561,-988,26760,12.9851,5072,1152
2.21402,101.2889,-987,26761,12.7859,5072,1152
2.29856,107.9287,-986,26762,13.0846,5072,1152
2.18802,113.0939,-985,26763,12.8855,5072,1152
2.75868,116.6534,-984,26764,13.0846,5072,1152
2.5353,126.4871,-983,26765,12.9851,5072,1152
2.44336,139.1614,-982,26766,12.8357,5072,1152
1.59273,144.0986,-981,26767,13.0846,5073,1168
2.58743,144.4865,-980,26768,12.9851,5073,1168
2.0693,149.7944,-979,26769,12.9851,5073,1168
2.29024,159.4725,-978,26770,12.9851,5073,1168
1.59572,169.2172,-977,26771,12.9851,5073,1168
1.85804,174.8075,-976,26772,13.0846,5073,1168
2.45698,181.2275,-975,26773,13.1842,5073,1168
1.57769,188.6385,-974,26774,13.1842,5073,1168
2.04845,194.133,-973,26775,13.0846,5073,1168
2.32946,196.5195,-972,26776,13.0348,5073,1168
2.9909,195.8085,-971,26777,13.0846,5071,1186
2.19672,197.1939,-970,26778,13.0348,5071,1186
1.81913,201.2567,-969,26779,13.1842,5071,1186
2.87382,206.0287,-968,26780,12.8855,5071,1186
2.4974,211.5477,-967,26781,13.0846,5071,1186
2.14399,217.8892,-966,26782,13.0348,5071,1186
4.50597,225.8721,-965,26783,13.1842,5071,1186
1.92112,235.1317,-964,26784,13.0846,5071,1186
2.27352,241.2967,-963,26785,12.9851,5071,1186
2.21187,245.931,-962,26786,12.9851,5071,1186
1.82698,253.1428,-961,26787,13.0846,5071,1210
2.13508,262.5506,-960,26788,12.9851,5071,1210
2.93131,271.5784,-959,26789,13.0846,5071,1210
1.20794,278.6517,-958,26790,13.0846,5071,1210
2.41193,284.1794,-957,26791,13.1842,5071,1210
1.99897,287.0432,-956,26792,12.9851,5071,1210
2.7862,289.0957,-955,26793,13.0846,5071,1210
2.47631,289.2201,-954,26794,13.0846,5071,1210
2.38009,287.9708,-953,26795,12.8357,5071,1210
2.39407,287.2445,-952,26796,12.8357,5071,1210
1.10916,288.4745,-951,26797,12.8357,5071,1240
1.65728,291.2146,-950,26798,13.0846,5071,1240
1.69708,292.0014,-949,26799,13.0846,5071,1240
2.33151,294.4242,-948,26800,13.0846,5071,1240
1.88606,301.0199,-947,26801,13.0348,5071,1240
2.34985,309.9157,-946,26802,13.1842,5071,1240
1.25442,320.5384,-945,26803,13.0846,5071,1240
2.22262,329.9671,-944,26804,13.0846,5071,1240
2.18584,336.8331,-943,26805,12.9851,5071,1240
3.07113,340.5898,-942,26806,13.0348,5071,1240
2.44921,343.3698,-941,26807,13.0348,5067,1280
1.68298,347.7315,-940,26808,12.9851,5067,1280
2.16392,358.3078,-939,26809,13.0846,5067,1280
2.41193,365.2455,-938,26810,12.8357,5067,1280
3.23595,365.1626,-937,26811,12.8855,5067,1280
2.82022,361.5714,-936,26812,12.8357,5067,1280
2.70809,360.7896,-935,26813,13.0846,5067,1280
1.98461,367.4167,-934,26814,12.9851,5067,1280
1.81125,374.3257,-933,26815,12.9851,5067,1280
1.9918,376.147,-932,26816,13.1842,5067,1280
1.83739,374.671,-931,26817,13.0846,5066,1313
2.41193,374.4944,-930,26818,12.8855,5066,1313
2.32946,377.2632,-929,26819,13.0348,5066,1313
2.84044,379.5057,-928,26820,12.8357,5066,1313
1.77401,378.6213,-927,26821,13.1842,5066,1313
3.16593,375.4305,-926,26822,13.0846,5066,1313
2.28816,374.4812,-925,26823,13.0846,5066,1313
2.46086,375.0402,-924,26824,12.9851,5066,1313
1.22752,373.9733,-923,26825,12.9851,5066,1313
2.14399,372.489,-922,26826,13.1842,5066,1313
2.15287,373.0579,-921,26827,13.0846,5059,1353
1.96287,377.0363,-920,26828,12.9851,5059,1353
1.61355,383.4103,-919,26829,12.8855,5059,1353
1.70829,387.8717,-918,26830,12.9851,5059,1353
1.65152,386.283,-917,26831,13.0846,5059,1353
2.32332,381.8215,-916,26832,12.7859,5059,1353
2.95077,378.7317,-915,26833,12.9851,5059,1353
2.35997,377.6424,-914,26834,13.0846,5059,1353
2.35593,377.1582,-913,26835,13.0846,5059,1353
2.30684,375.3052,-912,26836,13.3335,5059,1353
2.04146,371.6782,-911,26837,13.0348,5057,1401
2.09677,368.2503,-910,26838,13.1842,5057,1401
2.59295,365.2406,-909,26839,12.8855,5057,1401
2.10811,360.925,-908,26840,13.0348,5057,1401
1.86827,354.9837,-907,26841,13.1842,5057,1401
2.40203,349.2686,-906,26842,13.0846,5057,1401
2.23972,345.5053,-905,26843,13.0846,5057,1401
2.7028,344.5713,-904,26844,12.9851,5057,1401
1.48103,343.3344,-903,26845,13.1842,5057,1401
2.67443,338.6716,-902,26846,13.0846,5057,1401
2.7028,332.217,-901,26847,13.3335,5064,1434
3.02104,327.3226,-900,26848,13.0846,5064,1434
1.67446,324.1257,-899,26849,12.9851,5064,1434
1.88858,319.9411,-898,26850,12.9851,5064,1434
2.0156,312.6405,-897,26851,13.0846,5064,1434
2.27352,303.4924,-896,26852,13.0846,5064,1434
2.15287,294.2391,-895,26853,13.0846,5064,1434
2.19238,287.1539,-894,26854,13.0846,5064,1434
3.03835,282.121,-893,26855,13.0846,5064,1434
2.33764,276.3193,-892,26856,13.0348,5064,1434
2.55777,268.5064,-891,26857,13.1842,5058,1460
1.84774,261.1921,-890,26858,12.8855,5058,1460
3.33464,254.9151,-889,26859,13.0348,5058,1460
1.95556,249.4695,-888,26860,12.9851,5058,1460
1.80334,244.7613,-887,26861,12.9851,5058,1460
1.88099,239.3085,-886,26862,12.8357,5058,1460
2.54282,233.3467,-885,26863,12.9851,5058,1460
2.68155,227.8973,-884,26864,12.9851,5058,1460
2.11714,223.6654,-883,26865,13.0348,5058,1460
2.22262,220.4789,-882,26866,13.0846,5058,1460
1.59273,219.3199,-881,26867,12.8855,5049,1463
1.11773,220.0921,-880,26868,13.0846,5049,1463
3.39136,219.7756,-879,26869,12.9851,5049,1463
2.45698,215.0559,-878,26870,12.9851,5049,1463
2.65474,206.5615,-877,26871,13.0846,5049,1463
1.70829,197.0399,-876,26872,13.0348,5049,1463
2.05543,190.3648,-875,26873,12.9851,5049,1463
2.0693,186.3827,-874,26874,12.9851,5049,1463
3.03049,183.486,-873,26875,12.9851,5049,1463
2.05543,182.0113,-872,26876,12.8855,5049,1463
1.12623,182.8159,-871,26877,13.0846,5049,1463
2.03678,184.9278,-870,26878,13.0846,5049,1463
1.26953,187.5423,-869,26879,13.0348,5049,1463
1.82698,190.3056,-868,26880,13.1842,5049,1463
2.12388,192.0787,-867,26881,13.0846,5049,1463
1.51603,193.2254,-866,26882,13.0846,5049,1463
1.6165,194.9018,-865,26883,12.9851,5049,1463
1.83479,196.5531,-864,26884,13.0348,5049,1463
2.20539,199.0865,-863,26885,12.8357,5049,1463
2.65833,203.7522,-862,26886,13.0846,5049,1463
2.05543,211.0325,-861,26887,13.0348,5054,1486
2.20323,219.592,-860,26888,13.0846,5054,1486
1.59273,227.322,-859,26889,13.0846,5054,1486
1.70829,231.5793,-858,26890,13.3335,5054,1486
2.35997,230.9615,-857,26891,13.0348,5054,1486
1.05631,226.5926,-856,26892,13.0846,5054,1486
2.28816,221.4005,-855,26893,12.8357,5054,1486
1.66303,217.2458,-854,26894,12.9851,5054,1486
1.94088,212.7396,-853,26895,13.1842,5054,1486
2.40203,207.6473,-852,26896,13.0846,5054,1486
1.68863,202.0018,-851,26897,13.0846,5066,1510
2.915,180.2754,-850,26898,13.0846,5066,1510
2.10585,132.4551,-849,26899,13.0846,5066,1510
1.60168,120.5745,-848,26900,12.8357,5066,1510
2.30063,158.1845,-847,26901,13.0846,5066,1510
2.57079,206.0812,-846,26902,13.0846,5066,1510
1.7551,221.1345,-845,26903,12.9851,5066,1510
2.68865,235.8388,-844,26904,13.0846,5066,1510
3.31744,257.9241,-843,26905,12.9851,5066,1510
2.1771,268.7994,-842,26906,13.0348,5066,1510
2.37809,250.9021,-841,26907,13.0846,5075,1516
1.1472,210.3141,-840,26908,13.0846,5075,1516
1.94088,171.7013,-839,26909,12.9851,5075,1516
2.64575,158.9188,-838,26910,13.0846,5075,1516
2.14399,160.8797,-837,26911,13.3335,5075,1516
2.19238,157.1749,-836,26912,13.0348,5075,1516
2.5353,151.0624,-835,26913,12.9851,5075,1516
0.697405,152.5241,-834,26914,13.0348,5075,1516
1.80334,160.587,-833,26915,13.234,5075,1516
2.46086,169.1302,-832,26916,13.0846,5075,1516
1.57769,167.5783,-831,26917,13.0846,5082,1529
2.33151,154.765,-830,26918,12.9851,5082,1529
1.65152,144.1309,-829,26919,13.0846,5082,1529
2.37005,139.612,-828,26920,13.0846,5082,1529
2.99568,139.5556,-827,26921,13.0846,5082,1529
1.78473,129.5903,-826,26922,12.9851,5082,1529
1.958,101.975,-825,26923,13.0348,5082,1529
1.76052,96.34635,-824,26924,13.234,5082,1529
1.97739,116.9008,-823,26925,13.234,5082,1529
1.97739,137.9743,-822,26926,12.9851,5082,1529
2.82529,152.8204,-821,26927,12.9851,5081,1540
2.2819,155.4249,-820,26928,13.0846,5081,1540
1.91864,142.0266,-819,26929,12.9851,5081,1540
2.10585,130.0918,-818,26930,13.1842,5081,1540
2.03912,127.858,-817,26931,12.9851,5081,1540
1.45505,130.2659,-816,26932,13.0846,5081,1540
1.66589,135.6983,-815,26933,13.0846,5081,1540
2.0716,135.71,-814,26934,13.1842,5081,1540
1.74966,126.4449,-813,26935,12.8357,5081,1540
2.0739,124.422,-812,26936,13.0348,5081,1540
1.61355,131.3359,-811,26937,13.1842,5087,1553
2.22262,134.5704,-810,26938,13.0846,5087,1553
1.73323,135.2423,-809,26939,13.0846,5087,1553
1.82698,135.2219,-808,26940,12.8855,5087,1553
2.18802,131.9465,-807,26941,13.0846,5087,1553
2.02269,133.3452,-806,26942,12.9851,5087,1553
0.931581,138.9144,-805,26943,13.0846,5087,1553
1.62532,146.4707,-804,26944,13.0846,5087,1553
1.25061,151.965,-803,26945,12.8855,5087,1553
1.47134,153.3667,-802,26946,12.8855,5087,1553
1.97739,148.4533,-801,26947,12.8855,5091,1557
2.47439,139.6096,-800,26948,13.0846,5091,1557
2.4974,131.33,-799,26949,13.0348,5091,1557
2.42966,133.1912,-798,26950,12.9851,5091,1557
1.02423,142.7788,-797,26951,13.0846,5091,1557
1.83739,148.613,-796,26952,12.8357,5091,1557
1.96529,147.7802,-795,26953,13.0846,5091,1557
1.67446,147.2589,-794,26954,13.0348,5091,1557
1.55638,152.4719,-793,26955,13.0846,5091,1557
1.19205,152.8047,-792,26956,13.0846,5091,1557
1.39481,144.7872,-791,26957,13.1842,5088,1565
1.65152,140.2502,-790,26958,13.0348,5088,1565
2.37809,143.8696,-789,26959,12.8357,5088,1565
1.90867,147.6823,-788,26960,13.1842,5088,1565
1.25061,146.5542,-787,26961,12.9851,5088,1565
1.98461,146.6942,-786,26962,13.0846,5088,1565
2.0716,152.5753,-785,26963,13.1842,5088,1565
3.41797,161.1551,-784,26964,12.9851,5088,1565
2.85384,164.9801,-783,26965,13.0846,5088,1565
2.0716,166.4301,-782,26966,13.0846,5088,1565
2.42573,166.6723,-781,26967,13.0348,5090,1584
1.35668,165.5879,-780,26968,13.0846,5090,1584
1.51917,165.9311,-779,26969,12.9851,5090,1584
2.21402,166.9725,-778,26970,13.0846,5090,1584
2.20539,167.293,-777,26971,13.0846,5090,1584
2.8236,169.7645,-776,26972,12.9851,5090,1584
2.10585,175.5212,-775,26973,13.0846,5090,1584
2.44921,181.9561,-774,26974,12.9851,5090,1584
3.92937,187.9598,-773,26975,13.0846,5090,1584
2.33764,194.0437,-772,26976,13.234,5090,1584
1.67446,199.924,-771,26977,13.0846,5094,1600
2.2819,203.6726,-770,26978,13.1842,5094,1600
2.67264,205.4072,-769,26979,13.0846,5094,1600
2.72739,206.9457,-768,26980,13.234,5094,1600
1.96772,209.6056,-767,26981,12.8855,5094,1600
2.30684,213.2057,-766,26982,13.1842,5094,1600
1.92608,218.8623,-765,26983,13.0846,5094,1600
3.20485,224.0571,-764,26984,13.0348,5094,1600
3.21673,227.5781,-763,26985,13.0348,5094,1600
2.68155,232.4967,-762,26986,13.0846,5094,1600
1.89362,237.4024,-761,26987,12.9851,5100,1617
2.26091,240.6614,-760,26988,13.234,5100,1617
2.22691,245.3379,-759,26989,13.0846,5100,1617
2.915,251.5995,-758,26990,13.0348,5100,1617
3.02104,256.8094,-757,26991,12.9851,5100,1617
2.13954,258.8978,-756,26992,13.0846,5100,1617
2.47246,258.5753,-755,26993,13.0348,5100,1617
2.93294,258.8919,-754,26994,13.0348,5100,1617
3.14477,260.1478,-753,26995,12.9851,5100,1617
3.20485,259.4846,-752,26996,13.0348,5100,1617
2.90024,259.4555,-751,26997,12.9851,5100,1643
1.38452,259.5809,-750,26998,13.0846,5100,1643
3.22561,258.9556,-749,26999,13.0846,5100,1643
3.07113,257.8343,-748,27000,13.0348,5100,1643
1.69708,255.8217,-747,27001,13.1842,5100,1643
2.52021,254.0696,-746,27002,12.8855,5100,1643
2.20539,250.7605,-745,27003,13.1842,5100,1643
2.51073,246.4037,-744,27004,12.9851,5100,1643
2.71688,241.8467,-743,27005,13.0846,5100,1643
2.19238,236.2944,-742,27006,12.8357,5100,1643
2.39407,230.4974,-741,27007,13.234,5102,1613
3.08971,224.8741,-740,27008,13.0846,5102,1613
2.38009,219.2359,-739,27009,12.8855,5102,1613
2.7862,214.3386,-738,27010,13.0846,5102,1613
2.85049,208.8547,-737,27011,12.8855,5102,1613
2.21187,203.8834,-736,27012,13.0348,5102,1613
3.30303,199.5246,-735,27013,13.0846,5102,1613
3.31744,195.6694,-734,27014,12.9851,5102,1613
2.41588,191.2269,-733,27015,12.9851,5102,1613
2.44921,184.8966,-732,27016,12.9851,5102,1613
2.83876,178.595,-731,27017,13.0846,5106,1600
2.5782,172.0563,-730,27018,12.9851,5106,1600
2.10585,165.5213,-729,27019,13.1842,5106,1600
2.51073,160.0717,-728,27020,13.234,5106,1600
2.48784,153.4677,-727,27021,13.0846,5106,1600
2.20539,148.6352,-726,27022,12.8357,5106,1600
1.85804,146.2103,-725,27023,13.0846,5106,1600
2.09222,138.3548,-724,27024,12.9851,5106,1600
1.23912,126.4446,-723,27025,13.1842,5106,1600
2.56522,122.697,-722,27026,12.9851,5106,1600
1.73323,127.5483,-721,27027,12.8855,5111,1646
1.87592,132.0996,-720,27028,13.0348,5111,1646
2.10585,130.2687,-719,27029,13.1842,5111,1646
2.45115,130.0116,-718,27030,13.0846,5111,1646
2.15287,138.3628,-717,27031,12.9851,5111,1646
2.83876,151.708,-716,27032,13.0846,5111,1646
2.37206,158.1818,-715,27033,13.1842,5111,1646
3.16292,153.9694,-714,27034,13.0348,5111,1646
1.83739,149.4154,-713,27035,13.1842,5111,1646
1.9942,149.6497,-712,27036,13.0846,5111,1646
1.97739,150.7348,-711,27037,13.1842,5111,1646
2.48016,146.9697,-710,27038,12.9851,5111,1646
3.51834,143.9886,-709,27039,12.8855,5111,1646
1.88099,148.3589,-708,27040,13.0846,5111,1646
2.60579,155.2221,-707,27041,13.0846,5111,1646
2.32332,159.0604,-706,27042,13.0846,5111,1646
3.01472,161.7142,-705,27043,12.9851,5111,1646
2.2944,164.5343,-704,27044,12.8855,5111,1646
2.74829,165.6386,-703,27045,13.1842,5111,1646
2.51263,163.6102,-702,27046,13.0846,5111,1646
3.03992,160.9509,-701,27047,12.8855,5111,1666
2.59663,159.4437,-700,27048,13.0846,5111,1666
2.92969,157.2257,-699,27049,13.0846,5111,1666
1.83739,155.6341,-698,27050,13.1842,5111,1666
2.38409,157.8922,-697,27051,13.1842,5111,1666
2.34782,163.931,-696,27052,12.8855,5111,1666
1.62239,170.2276,-695,27053,12.9851,5111,1666
2.84547,176.2782,-694,27054,13.0846,5111,1666
3.04619,182.5935,-693,27055,12.9851,5111,1666
2.05078,187.6038,-692,27056,13.0846,5111,1666
2.00136,190.3966,-691,27057,12.8855,5108,1651
2.76559,190.6057,-690,27058,13.3335,5108,1651
2.29856,192.1094,-689,27059,13.0348,5108,1651
1.71108,192.3651,-688,27060,13.3335,5108,1651
2.32946,186.1749,-687,27061,13.0846,5108,1651
2.78449,179.2563,-686,27062,12.8357,5108,1651
1.41517,171.1021,-685,27063,13.1842,5108,1651
2.85384,145.9901,-684,27064,13.0846,5108,1651
2.84547,108.792,-683,27065,13.3335,5108,1651
2.33356,113.6617,-682,27066,13.0846,5108,1651
1.76863,166.7024,-681,27067,12.7859,5106,1653
1.23912,212.519,-680,27068,12.8855,5106,1653
1.36019,233.921,-679,27069,12.8855,5106,1653
2.09677,233.2362,-678,27070,12.8855,5106,1653
0.507437,215.9709,-677,27071,13.3335,5106,1653
1.57769,182.0681,-676,27072,12.8855,5106,1653
1.36019,131.708,-675,27073,13.0348,5106,1653
1.63702,97.93379,-674,27074,12.9851,5106,1653
2.62948,108.9217,-673,27075,12.9851,5106,1653
1.90116,153.1248,-672,27076,13.234,5106,1653
0.931581,78.89039,-671,27077,13.0846,5090,1710
1.36019,150.0194,-670,27078,12.8357,5090,1710
2.19238,122.3961,-669,27079,13.0846,5090,1710
2.41391,110.6294,-668,27080,13.0846,5090,1710
2.68865,116.2654,-667,27081,13.0846,5090,1710
1.89865,125.1614,-666,27082,13.0846,5090,1710
1.53168,171.0402,-665,27083,12.9851,5090,1710
1.94333,224.2155,-664,27084,13.1842,5090,1710
2.85884,280.1632,-663,27085,12.8855,5090,1710
2.25668,333.5506,-662,27086,13.234,5090,1710
2.3539,373.4141,-661,27087,12.8855,5076,1664
2.76386,387.2452,-660,27088,13.1842,5076,1664
3.46232,359.8106,-659,27089,13.0846,5076,1664
3.4416,297.8087,-658,27090,13.0846,5076,1664
2.08079,230.6881,-657,27091,13.0846,5076,1664
3.17646,185.0358,-656,27092,13.0348,5076,1664
3.47332,163.6809,-655,27093,13.0846,5076,1664
3.53995,158.1964,-654,27094,13.1842,5076,1664
2.32126,163.1148,-653,27095,13.0846,5076,1664
2.98771,173.1371,-652,27096,13.0348,5076,1664
3.83355,186.0881,-651,27097,13.0846,5080,1622
3.93059,201.7152,-650,27098,13.234,5080,1622
3.07113,218.6066,-649,27099,13.0348,5080,1622
3.36879,231.6773,-648,27100,13.0846,5080,1622
2.86218,236.0545,-647,27101,13.1842,5080,1622
2.90024,226.7682,-646,27102,13.0348,5080,1622
1.88099,211.9501,-645,27103,13.3833,5080,1622
3.24183,203.2804,-644,27104,13.234,5080,1622
2.54844,203.5426,-643,27105,12.7859,5080,1622
3.36312,209.8322,-642,27106,13.0846,5080,1622
2.79474,219.8886,-641,27107,13.1842,5105,1648
2.25668,228.7922,-640,27108,13.0846,5105,1648
3.03364,227.1595,-639,27109,12.8357,5105,1648
1.90617,220.3856,-638,27110,12.9851,5105,1648
2.34985,218.7083,-637,27111,13.0846,5105,1648
3.59608,224.5777,-636,27112,12.9851,5105,1648
3.69807,233.0297,-635,27113,12.8855,5105,1648
3.48566,237.6949,-634,27114,12.8357,5105,1648
1.33185,233.6448,-633,27115,13.0846,5105,1648
2.00136,222.2333,-632,27116,13.0846,5105,1648
2.72039,211.9588,-631,27117,13.0846,5114,1672
3.25944,210.1381,-630,27118,13.0846,5114,1672
1.88858,216.3314,-629,27119,13.0846,5114,1672
3.23447,217.0971,-628,27120,13.234,5114,1672
1.83739,207.1158,-627,27121,13.1842,5114,1672
1.81388,203.3439,-626,27122,12.9851,5114,1672
1.81651,215.9682,-625,27123,13.0846,5114,1672
2.29856,235.1531,-624,27124,13.0846,5114,1672
2.91827,246.9522,-623,27125,13.0846,5114,1672
2.26301,253.3874,-622,27126,12.8855,5114,1672
1.85804,261.8844,-621,27127,13.0846,5113,1645
2.0716,273.0404,-620,27128,13.1842,5113,1645
2.27981,279.3853,-619,27129,12.9851,5113,1645
2.0156,277.7467,-618,27130,13.234,5113,1645
3.12653,272.3704,-617,27131,13.1842,5113,1645
2.82698,271.0685,-616,27132,13.0846,5113,1645
2.31509,274.9265,-615,27133,13.0846,5113,1645
2.0156,277.6756,-614,27134,12.9851,5113,1645
1.46484,274.3213,-613,27135,13.0348,5113,1645
1.80334,272.8862,-612,27136,13.0846,5113,1645
1.74146,280.2072,-611,27137,12.9851,5116,1633
2.78449,291.5352,-610,27138,13.0846,5116,1633
2.78449,303.712,-609,27139,13.0846,5116,1633
2.8354,313.2389,-608,27140,13.1842,5116,1633
2.27352,330.1599,-607,27141,13.0348,5116,1633
1.94824,358.7902,-606,27142,13.0348,5116,1633
2.87382,383.3007,-605,27143,13.1842,5116,1633
2.23972,393.234,-604,27144,13.3335,5116,1633
2.27772,391.0405,-603,27145,12.8855,5116,1633
1.92608,380.8081,-602,27146,13.0846,5116,1633
2.79815,362.5242,-601,27147,13.0846,5117,1703
2.0762,333.7781,-600,27148,13.0348,5117,1703
2.14177,295.8928,-599,27149,12.9851,5117,1703
3.21228,253.0037,-598,27150,13.0846,5117,1703
1.97256,208.6989,-597,27151,13.1842,5117,1703
2.48016,169.7644,-596,27152,13.0846,5117,1703
1.56555,144.9206,-595,27153,13.0846,5117,1703
2.88541,137.6345,-594,27154,13.0348,5117,1703
1.73047,144.4383,-593,27155,13.1842,5117,1703
2.0693,164.666,-592,27156,13.1842,5117,1703
2.63129,199.7916,-591,27157,13.0846,5089,1707
1.88353,242.8171,-590,27158,13.0846,5089,1707
2.85049,280.4626,-589,27159,12.8855,5089,1707
1.62239,304.3159,-588,27160,12.8357,5089,1707
2.63491,310.4685,-587,27161,13.0846,5089,1707
1.73323,298.5404,-586,27162,13.234,5089,1707
2.34578,274.7289,-585,27163,13.0846,5089,1707
1.80334,249.3135,-584,27164,13.0846,5089,1707
2.05543,227.2692,-583,27165,13.0348,5089,1707
2.37005,206.784,-582,27166,13.0846,5089,1707
2.23972,193.0456,-581,27167,13.0846,5074,1677
2.41786,188.4266,-580,27168,13.0846,5074,1677
2.94915,189.2408,-579,27169,13.0348,5074,1677
2.60762,193.0582,-578,27170,12.9851,5074,1677
2.84044,194.7992,-577,27171,13.0846,5074,1677
1.73323,193.1245,-576,27172,13.0846,5074,1677
2.37206,192.0545,-575,27173,12.9851,5074,1677
2.45115,191.0942,-574,27174,13.0348,5074,1677
2.83371,187.2785,-573,27175,13.1842,5074,1677
2.47246,183.5289,-572,27176,13.0846,5074,1677
3.32749,182.6952,-571,27177,13.0348,5051,1668
2.02269,188.002,-570,27178,12.9851,5051,1668
2.77935,199.8995,-569,27179,13.0846,5051,1668
3.37303,212.3182,-568,27180,13.0846,5051,1668
2.95723,226.6696,-567,27181,13.1842,5051,1668
1.84257,241.982,-566,27182,12.8855,5051,1668
2.6003,258.738,-565,27183,13.234,5051,1668
2.11714,274.0706,-564,27184,13.0846,5051,1668
2.37206,282.4676,-563,27185,13.1842,5051,1668
2.45698,291.8422,-562,27186,13.234,5051,1668
2.37206,306.4143,-561,27187,13.1842,5040,1670
1.59273,325.0865,-560,27188,13.0846,5040,1670
2.68333,339.814,-559,27189,13.1842,5040,1670
1.84257,354.0993,-558,27190,13.1842,5040,1670
2.67443,372.4045,-557,27191,13.0846,5040,1670
2.82529,389.596,-556,27192,13.0846,5040,1670
2.78277,406.3994,-555,27193,13.0846,5040,1670
3.24183,423.0183,-554,27194,12.9851,5040,1670
3.12042,439.3906,-553,27195,12.9851,5040,1670
2.85384,461.409,-552,27196,13.1842,5040,1670
2.45504,484.6799,-551,27197,12.9851,5040,1670
3.95598,500.9348,-550,27198,13.0348,5040,1670
3.92937,514.6776,-549,27199,13.0846,5040,1670
2.7396,529.7334,-548,27200,12.8855,5040,1670
3.36595,548.2238,-547,27201,13.0846,5040,1670
3.1143,534.7013,-546,27202,13.0846,5040,1670
8.11429,881.3597,-545,27203,12.9851,5040,1670
5.4197,867.7871,-544,27204,12.9851,5040,1670
4.24777,644.9201,-543,27205,12.9851,5040,1670
3.48429,467.8157,-542,27206,13.3335,5040,1670
3.67738,386.7618,-541,27207,13.0846,5104,1603
3.5224,429.7035,-540,27208,13.0846,5104,1603
2.41983,428.0179,-539,27209,13.234,5104,1603
2.72739,479.6776,-538,27210,13.0846,5104,1603
2.68688,518.1374,-537,27211,13.0846,5104,1603
2.41786,520.9573,-536,27212,12.9851,5104,1603
2.37206,549.3247,-535,27213,13.3335,5104,1603
2.01087,569.4396,-534,27214,13.0348,5104,1603
2.04845,558.4721,-533,27215,13.0348,5104,1603
1.3637,561.0445,-532,27216,13.0846,5104,1603
1.80334,591.798,-531,27217,13.0846,5149,1548
2.22905,620.2798,-530,27218,13.0846,5149,1548
2.6655,626.9836,-529,27219,13.0846,5149,1548
4.39345,606.8026,-528,27220,13.0846,5149,1548
3.34606,592.0716,-527,27221,12.8855,5149,1548
3.98002,537.1809,-526,27222,12.9851,5149,1548
3.4692,499.3976,-525,27223,13.0846,5149,1548
2.61128,502.867,-524,27224,12.8357,5149,1548
2.50883,495.1199,-523,27225,13.0846,5149,1548
3.20485,478.7735,-522,27226,12.8855,5149,1548
2.71161,470.1773,-521,27227,12.8855,5149,1549
2.44921,462.8944,-520,27228,13.0348,5149,1549
1.73323,461.83,-519,27229,13.0348,5149,1549
2.30477,473.0521,-518,27230,12.9851,5149,1549
3.71351,482.1695,-517,27231,12.8357,5149,1549
1.36019,485.9438,-516,27232,12.9851,5149,1549
2.46667,486.1091,-515,27233,12.8357,5149,1549
2.25668,485.4179,-514,27234,12.8357,5149,1549
1.73047,515.1093,-513,27235,13.0846,5149,1549
2.24609,586.7462,-512,27236,12.8855,5149,1549
2.65294,651.7377,-511,27237,12.8855,5158,1541
2.51073,656.5542,-510,27238,12.9851,5158,1541
2.33151,604.5833,-509,27239,13.1842,5158,1541
1.87592,552.8327,-508,27240,13.0846,5158,1541
3.4692,542.6358,-507,27241,13.0846,5158,1541
1.27702,560.6756,-506,27242,12.8855,5158,1541
3.09741,562.6937,-505,27243,13.0846,5158,1541
3.30592,526.7869,-504,27244,13.0846,5158,1541
2.47824,478.7198,-503,27245,13.0846,5158,1541
2.02269,450.6371,-502,27246,12.9851,5158,1541
2.04379,441.511,-501,27247,13.1842,5189,1405
2.19889,433.6348,-500,27248,12.9851,5189,1405
2.45892,412.9389,-499,27249,13.0846,5189,1405
2.74482,381.142,-498,27250,13.0846,5189,1405
2.38009,358.1936,-497,27251,13.1842,5189,1405
2.64575,346.9287,-496,27252,13.1842,5189,1405
2.03678,339.9858,-495,27253,13.0846,5189,1405
3.48566,332.2527,-494,27254,13.234,5189,1405
2.96528,328.755,-493,27255,13.0348,5189,1405
2.87216,323.3081,-492,27256,13.1842,5189,1405
2.23545,304.8498,-491,27257,13.0348,5257,1270
2.93944,282.6236,-490,27258,13.3833,5257,1270
2.63129,258.8948,-489,27259,12.9851,5257,1270
3.25797,229.3164,-488,27260,13.0846,5257,1270
2.11037,199.8288,-487,27261,13.0846,5257,1270
2.25457,171.9763,-486,27262,13.0846,5257,1270
1.37415,153.0513,-485,27263,13.3335,5257,1270
2.38409,143.1714,-484,27264,13.1842,5257,1270
1.85547,135.5845,-483,27265,13.0348,5257,1270
1.33185,127.1455,-482,27266,12.8855,5257,1270
1.71664,130.7674,-481,27267,13.0846,5305,1242
2.22905,140.3401,-480,27268,13.0846,5305,1242
2.97651,145.5777,-479,27269,12.9851,5305,1242
2.64033,153.8992,-478,27270,13.0846,5305,1242
2.73786,168.9103,-477,27271,13.0348,5305,1242
1.9942,183.5869,-476,27272,13.0846,5305,1242
1.89362,190.5726,-475,27273,12.9851,5305,1242
1.84774,197.6145,-474,27274,13.1842,5305,1242
2.16171,208.2674,-473,27275,12.8357,5305,1242
2.13508,216.3546,-472,27276,13.0846,5305,1242
2.56893,217.5054,-471,27277,12.9851,5291,1227
1.9942,222.4018,-470,27278,13.0846,5291,1227
2.00136,232.6941,-469,27279,13.0348,5291,1227
2.56522,243.1732,-468,27280,12.9851,5291,1227
2.30477,248.2694,-467,27281,13.1842,5291,1227
3.12805,251.3057,-466,27282,13.1842,5291,1227
3.03364,251.7029,-465,27283,13.0846,5291,1227
2.8705,247.7484,-464,27284,13.234,5291,1227
1.83739,245.5863,-463,27285,13.0846,5291,1227
2.72039,248.137,-462,27286,13.0846,5291,1227
2.19889,248.4286,-461,27287,13.1842,5271,1177
3.57614,247.2985,-460,27288,13.1842,5271,1177
1.39139,249.2735,-459,27289,12.9851,5271,1177
2.0716,255.6361,-458,27290,12.9851,5271,1177
2.93944,263.1294,-457,27291,13.0348,5271,1177
3.30303,272.2902,-456,27292,13.0846,5271,1177
2.15287,282.8081,-455,27293,13.0348,5271,1177
3.46783,293.8639,-454,27294,13.1842,5271,1177
2.9717,303.7237,-453,27295,12.9851,5271,1177
2.50313,308.5254,-452,27296,13.0348,5271,1177
2.7028,310.6408,-451,27297,13.0846,5251,1146
2.48784,315.6527,-450,27298,12.9851,5251,1146
3.18994,323.7585,-449,27299,12.8855,5251,1146
3.84969,333.94,-448,27300,13.0846,5251,1146
3.38855,344.6635,-447,27301,13.1842,5251,1146
2.8705,353.319,-446,27302,13.0846,5251,1146
2.61493,358.9912,-445,27303,13.0348,5251,1146
2.30684,361.0655,-444,27304,12.7859,5251,1146
3.22266,361.4135,-443,27305,13.0846,5251,1146
3.28857,359.013,-442,27306,13.0846,5251,1146
2.76386,353.7804,-441,27307,12.9851,5297,1106
3.13262,349.4755,-440,27308,13.0348,5297,1106
3.36312,348.9954,-439,27309,13.0348,5297,1106
2.59295,352.7279,-438,27310,12.8855,5297,1106
3.25211,370.0361,-437,27311,13.0846,5297,1106
2.85384,406.0247,-436,27312,12.8855,5297,1106
3.33035,435.5512,-435,27313,13.0348,5297,1106
3.00362,440.9729,-434,27314,13.0846,5297,1106
3.06647,437.6862,-433,27315,12.8357,5297,1106
3.08971,450.9804,-432,27316,13.3335,5297,1106
2.84044,481.5836,-431,27317,13.1842,5470,1023
2.72039,513.118,-430,27318,12.8855,5470,1023
2.36199,529.0323,-429,27319,13.1842,5470,1023
2.37206,521.2116,-428,27320,12.8855,5470,1023
2.5782,500.8101,-427,27321,12.9851,5470,1023
3.65527,416.4451,-426,27322,13.0846,5470,1023
6.21404,343.2258,-425,27323,13.0348,5470,1023
4.08409,560.4199,-424,27324,13.3335,5470,1023
3.6146,494.1378,-423,27325,12.9851,5470,1023
3.7391,647.1535,-422,27326,13.0846,5470,1023
4.14895,600.4662,-421,27327,13.0846,5683,881
5.1601,488.6375,-420,27328,13.0846,5683,881
4.60644,486.8858,-419,27329,13.1842,5683,881
3.87438,542.3316,-418,27330,13.234,5683,881
3.36312,552.7927,-417,27331,13.234,5683,881
3.33893,516.4595,-416,27332,12.9851,5683,881
3.1311,463.088,-415,27333,13.234,5683,881
3.67867,403.2231,-414,27334,13.1842,5683,881
3.95839,345.3837,-413,27335,13.1842,5683,881
4.28131,310.6057,-412,27336,13.0846,5683,881
2.25668,299.9171,-411,27337,13.0348,5865,775
4.03711,298.583,-410,27338,13.0846,5865,775
4.35967,300.7775,-409,27339,13.0846,5865,775
3.05712,303.6512,-408,27340,13.0846,5865,775
3.21673,311.5611,-407,27341,13.0348,5865,775
2.62039,327.1264,-406,27342,13.234,5865,775
3.03049,335.8047,-405,27343,13.0846,5865,775
3.24918,339.3747,-404,27344,13.0846,5865,775
2.51643,337.3647,-403,27345,12.9851,5865,775
2.34578,317.9651,-402,27346,13.0846,5865,775
2.38609,288.0995,-401,27347,13.0846,6245,622
2.38809,270.2346,-400,27348,13.1842,6245,622
2.81853,271.4563,-399,27349,12.8357,6245,622
2.75176,260.7899,-398,27350,12.9851,6245,622
3.68774,239.7755,-397,27351,12.9851,6245,622
2.7028,226.7472,-396,27352,13.0846,6245,622
2.36401,221.293,-395,27353,12.8855,6245,622
3.38432,217.641,-394,27354,12.9851,6245,622
2.29024,206.4848,-393,27355,12.9851,6245,622
3.90869,195.7351,-392,27356,12.9851,6245,622
2.75868,213.5508,-391,27357,13.0846,6245,622
3.15386,289.4256,-390,27358,13.0846,6245,622
2.41391,333.7446,-389,27359,13.1842,6245,622
2.84547,282.3104,-388,27360,13.0846,6245,622
2.93131,225.3654,-387,27361,12.9851,6245,622
2.88706,186.8322,-386,27362,13.1842,6245,622
3.31744,155.7073,-385,27363,13.0846,6245,622
3.52781,126.2343,-384,27364,13.0348,6245,622
2.9443,100.7804,-383,27365,13.1842,6245,622
3.68256,93.12573,-382,27366,12.7859,6245,622
3.40259,99.70044,-381,27367,13.0846,6820,443
3.16442,102.3916,-380,27368,13.0846,6820,443
2.08994,110.3718,-379,27369,13.0846,6820,443
3.17646,129.1532,-378,27370,13.0846,6820,443
2.76559,135.2837,-377,27371,13.1842,6820,443
1.68863,143.0725,-376,27372,13.0348,6820,443
1.85804,165.4691,-375,27373,13.0846,6820,443
2.15287,200.8339,-374,27374,12.9851,6820,443
2.22047,228.7467,-373,27375,13.0348,6820,443
2.0785,214.2817,-372,27376,12.9851,6820,443
2.43358,185.1279,-371,27377,13.0348,7723,424
1.72772,196.4866,-370,27378,13.0348,7723,424
1.9798,205.9961,-369,27379,13.0846,7723,424
1.91615,199.9337,-368,27380,13.234,7723,424
1.67446,194.0298,-367,27381,13.0846,7723,424
2.57635,187.7287,-366,27382,13.0846,7723,424
2.03444,179.8914,-365,27383,12.9851,7723,424
2.34782,177.7323,-364,27384,12.537,7723,424
1.77938,182.5005,-363,27385,13.0846,7723,424
2.96367,177.9721,-362,27386,13.0846,7723,424
1.69427,159.6849,-361,27387,13.0846,8124,414
2.66729,138.9389,-360,27388,12.9851,8124,414
2.41983,115.079,-359,27389,13.3335,8124,414
3.45267,93.65538,-358,27390,13.0846,8124,414
2.00136,72.02117,-357,27391,13.0846,8124,414
1.62826,55.86101,-356,27392,13.0846,8124,414
1.61355,48.95461,-355,27393,13.0846,8124,414
2.15066,39.63978,-354,27394,13.234,8124,414
2.27981,89.62139,-353,27395,13.0348,8124,414
2.44336,169.2994,-352,27396,13.0846,8124,414
1.8606,203.0709,-351,27397,13.0846,8398,400
2.13284,186.146,-350,27398,12.9851,8398,400
2.27352,126.6044,-349,27399,13.0846,8398,400
1.94824,90.53388,-348,27400,12.8357,8398,400
1.88858,105.159,-347,27401,13.3833,8398,400
2.27352,128.8583,-346,27402,13.0846,8398,400
1.9798,118.8223,-345,27403,13.0348,8398,400
1.68298,111.6213,-344,27404,13.0846,8398,400
1.80598,133.8165,-343,27405,13.0846,8398,400
1.77132,153.306,-342,27406,13.0348,8398,400
1.94824,157.8146,-341,27407,13.0846,8424,393
1.19604,159.3989,-340,27408,13.0846,8424,393
2.38609,169.3575,-339,27409,13.0846,8424,393
2.03444,188.9057,-338,27410,12.9851,8424,393
2.06237,206.7004,-337,27411,13.1842,8424,393
2.52588,219.7166,-336,27412,13.0846,8424,393
1.79804,224.2377,-335,27413,13.0846,8424,393
1.87592,224.8232,-334,27414,13.0348,8424,393
2.37206,229.7576,-333,27415,12.9851,8424,393
1.52231,236.3742,-332,27416,13.0846,8424,393
2.18584,239.7838,-331,27417,13.0846,8516,399
2.53718,242.6026,-330,27418,13.0846,8516,399
2.40401,246.2018,-329,27419,12.9851,8516,399
2.19672,250.8604,-328,27420,13.0348,8516,399
2.09904,257.5575,-327,27421,13.0348,8516,399
1.87592,264.1417,-326,27422,12.9851,8516,399
1.86827,272.2004,-325,27423,13.0846,8516,399
2.60762,274.2662,-324,27424,13.0846,8516,399
2.83876,284.1535,-323,27425,13.0846,8516,399
2.79304,300.8234,-322,27426,12.8855,8516,399
1.90617,310.6185,-321,27427,13.0846,8416,391
1.82698,306.0473,-320,27428,12.9851,8416,391
1.97256,305.6617,-319,27429,13.0846,8416,391
1.91864,303.2578,-318,27430,12.9851,8416,391
2.87547,302.0138,-317,27431,13.1842,8416,391
2.65474,299.6189,-316,27432,13.0846,8416,391
3.0163,294.1786,-315,27433,13.1842,8416,391
2.0156,289.9549,-314,27434,13.0846,8416,391
2.5353,292.4854,-313,27435,13.0846,8416,391
2.9443,299.2524,-312,27436,13.0348,8416,391
2.95884,302.2349,-311,27437,13.1842,8264,394
2.02269,301.0344,-310,27438,13.234,8264,394
2.12164,300.9557,-309,27439,13.0846,8264,394
1.60168,301.2935,-308,27440,13.0846,8264,394
3.38009,299.4832,-307,27441,13.3335,8264,394
2.89366,299.8277,-306,27442,13.0348,8264,394
2.37206,296.8707,-305,27443,13.0348,8264,394
2.84044,294.4012,-304,27444,12.9851,8264,394
2.27352,293.7738,-303,27445,13.0846,8264,394
2.74308,292.4141,-302,27446,13.234,8264,394
2.58559,288.5042,-301,27447,13.0348,8123,393
3.15839,286.4324,-300,27448,12.9851,8123,393
2.63672,285.6321,-299,27449,13.0846,8123,393
2.41983,284.1353,-298,27450,13.234,8123,393
2.22905,282.8279,-297,27451,13.0846,8123,393
3.33893,274.1634,-296,27452,13.0846,8123,393
2.99408,265.5491,-295,27453,13.0846,8123,393
2.44726,266.1651,-294,27454,13.0348,8123,393
1.96529,265.9724,-293,27455,13.0348,8123,393
2.52777,259.8642,-292,27456,13.0846,8123,393
1.79804,253.9566,-291,27457,13.0846,7916,403
3.06802,251.9401,-290,27458,13.1842,7916,403
2.04146,251.2199,-289,27459,13.0846,7916,403
2.87382,250.9161,-288,27460,13.0348,7916,403
2.79304,245.2655,-287,27461,13.234,7916,403
3.09587,240.2824,-286,27462,13.0846,7916,403
2.5353,234.001,-285,27463,13.0846,7916,403
2.19672,228.2711,-284,27464,13.0846,7916,403
3.97642,223.0392,-283,27465,13.0846,7916,403
2.01324,219.0189,-282,27466,13.1842,7916,403
2.08079,217.4507,-281,27467,13.0348,7793,407
3.53726,217.7187,-280,27468,12.8855,7793,407
2.21617,214.2298,-279,27469,12.8855,7793,407
2.11714,211.0414,-278,27470,13.0348,7793,407
2.43358,208.6642,-277,27471,12.8855,7793,407
2.6922,207.6092,-276,27472,13.1842,7793,407
2.9717,203.881,-275,27473,12.9851,7793,407
2.27981,199.5408,-274,27474,13.1842,7793,407
1.68863,199.3676,-273,27475,13.0846,7793,407
2.09449,203.1563,-272,27476,12.8357,7793,407
3.15839,206.6619,-271,27477,12.9851,7663,413
3.21228,199.1537,-270,27478,12.9851,7663,413
2.30684,191.7118,-269,27479,13.0846,7663,413
2.94592,186.2608,-268,27480,13.0846,7663,413
2.22905,187.8535,-267,27481,13.1842,7663,413
1.90617,190.6026,-266,27482,13.0846,7663,413
2.94592,190.2975,-265,27483,13.0846,7663,413
3.31024,185.6462,-264,27484,13.0846,7663,413
2.58005,180.7361,-263,27485,12.9851,7663,413
1.51603,180.1181,-262,27486,13.1842,7663,413
2.14399,181.3511,-261,27487,13.0846,7413,431
3.23742,181.2208,-260,27488,12.8855,7413,431
2.36804,177.6178,-259,27489,12.9851,7413,431
2.43358,171.8499,-258,27490,12.9851,7413,431
2.18584,169.6437,-257,27491,12.9851,7413,431
2.45892,173.1225,-256,27492,13.0846,7413,431
2.38409,173.1875,-255,27493,12.8855,7413,431
3.27985,170.6262,-254,27494,13.0846,7413,431
2.0762,168.4672,-253,27495,13.0846,7413,431
2.37206,167.1186,-252,27496,13.0846,7413,431
2.41391,167.3756,-251,27497,13.0846,7168,457
2.79815,168.2472,-250,27498,12.9851,7168,457
2.62948,168.603,-249,27499,12.9851,7168,457
1.80598,170.001,-248,27500,13.0846,7168,457
1.86572,167.171,-247,27501,13.1842,7168,457
2.47439,163.6939,-246,27502,12.8855,7168,457
2.45698,165.1229,-245,27503,13.0348,7168,457
3.45819,166.9046,-244,27504,13.0846,7168,457
3.20336,164.516,-243,27505,12.8855,7168,457
2.54282,160.1915,-242,27506,12.9851,7168,457
2.75695,160.0015,-241,27507,13.0846,6826,501
2.60762,161.7984,-240,27508,12.9851,6826,501
2.81853,162.2016,-239,27509,13.0846,6826,501
2.36199,159.3404,-238,27510,13.0348,6826,501
3.31024,157.2768,-237,27511,13.234,6826,501
2.23972,156.7501,-236,27512,13.0846,6826,501
3.18096,156.8945,-235,27513,13.1842,6826,501
2.37809,155.5386,-234,27514,13.0846,6826,501
2.3539,153.0184,-233,27515,13.0846,6826,501
2.53718,152.5652,-232,27516,13.1842,6826,501
2.90024,152.0999,-231,27517,13.234,6826,501
4.46771,149.1053,-230,27518,12.8357,6826,501
2.64033,145.9549,-229,27519,13.0846,6826,501
1.83739,145.9922,-228,27520,13.0846,6826,501
2.44336,145.5411,-227,27521,12.9851,6826,501
2.8236,141.0032,-226,27522,12.9851,6826,501
2.75176,137.4265,-225,27523,13.0348,6826,501
2.51073,135.464,-224,27524,13.234,6826,501
2.20323,131.1843,-223,27525,13.234,6826,501
1.89865,127.9201,-222,27526,13.1842,6826,501
2.12613,128.2291,-221,27527,12.8855,6536,577
2.27143,132.2595,-220,27528,12.8855,6536,577
3.60271,134.8654,-219,27529,13.0846,6536,577
2.58005,135.1561,-218,27530,12.9851,6536,577
1.66589,137.0919,-217,27531,13.0348,6536,577
0.507437,141.2523,-216,27532,13.0348,6536,577
2.38009,142.9077,-215,27533,13.0846,6536,577
2.69397,145.2623,-214,27534,13.234,6536,577
2.28816,151.4606,-213,27535,12.8855,6536,577
2.5353,153.9481,-212,27536,13.0846,6536,577
1.83739,156.965,-211,27537,13.0846,6228,648
3.15083,162.5872,-210,27538,13.0348,6228,648
3.12042,162.8871,-209,27539,12.8855,6228,648
2.9443,156.6613,-208,27540,12.9851,6228,648
1.49066,151.9827,-207,27541,13.234,6228,648
1.28447,152.5809,-206,27542,13.0846,6228,648
2.51832,168.7061,-205,27543,13.1842,6228,648
2.92806,186.2496,-204,27544,13.3335,6228,648
2.04146,192.7942,-203,27545,13.0348,6228,648
2.20323,198.3246,-202,27546,13.1842,6228,648
2.99727,207.4954,-201,27547,13.0846,6067,677
2.9248,215.5147,-200,27548,13.0846,6067,677
2.0739,215.5783,-199,27549,12.8855,6067,677
2.75695,208.4608,-198,27550,12.8855,6067,677
3.41657,203.0917,-197,27551,13.0846,6067,677
2.67443,201.9069,-196,27552,12.8855,6067,677
2.64575,200.7758,-195,27553,12.9851,6067,677
1.9335,197.6668,-194,27554,12.9851,6067,677
2.74134,191.1243,-193,27555,13.0846,6067,677
2.75868,189.4457,-192,27556,13.0846,6067,677
1.80334,196.9526,-191,27557,13.0846,6006,672
1.89614,202.5092,-190,27558,13.0846,6006,672
2.58005,202.1407,-189,27559,13.0846,6006,672
2.76559,187.6997,-188,27560,12.9851,6006,672
2.95239,170.5138,-187,27561,13.0846,6006,672
2.28816,195.6195,-186,27562,12.8357,6006,672
2.44336,217.444,-185,27563,13.0348,6006,672
2.54844,214.2846,-184,27564,12.8855,6006,672
2.43358,205.4061,-183,27565,13.0846,6006,672
2.41391,218.8942,-182,27566,13.0846,6006,672
2.63672,257.2488,-181,27567,13.0348,6041,671
1.67161,303.2013,-180,27568,12.9851,6041,671
1.9335,333.8639,-179,27569,13.0846,6041,671
1.31383,342.398,-178,27570,13.1842,6041,671
2.21187,340.5924,-177,27571,12.9851,6041,671
1.17998,339.6106,-176,27572,12.9851,6041,671
1.83998,335.7687,-175,27573,12.8855,6041,671
1.71664,328.8889,-174,27574,13.0846,6041,671
2.70985,328.9373,-173,27575,13.0348,6041,671
2.37809,333.5999,-172,27576,13.0846,6041,671
2.24609,337.2768,-171,27577,13.234,6080,669
3.18246,339.5996,-170,27578,13.1842,6080,669
2.4974,341.307,-169,27579,13.0348,6080,669
2.87879,339.672,-168,27580,13.3335,6080,669
2.26512,339.2404,-167,27581,13.0846,6080,669
4.79312,337.5829,-166,27582,13.0846,6080,669
2.30063,335.1111,-165,27583,12.9851,6080,669
1.83998,329.307,-164,27584,12.9851,6080,669
1.86572,315.6453,-163,27585,13.3335,6080,669
2.6851,303.1835,-162,27586,13.0846,6080,669
2.3539,295.1267,-161,27587,13.3335,6130,649
2.35593,287.6621,-160,27588,13.0846,6130,649
2.30477,281.7629,-159,27589,12.8855,6130,649
2.24822,278.7394,-158,27590,13.0846,6130,649
2.53718,271.9528,-157,27591,13.0846,6130,649
1.97498,264.5688,-156,27592,12.9851,6130,649
2.47439,259.5642,-155,27593,13.0348,6130,649
2.60762,251.7206,-154,27594,13.3335,6130,649
2.10358,239.4031,-153,27595,12.8855,6130,649
1.92608,229.2533,-152,27596,13.0846,6130,649
2.46086,229.1124,-151,27597,13.0846,6216,611
2.26512,229.573,-150,27598,13.3335,6216,611
2.28816,223.2836,-149,27599,13.1842,6216,611
2.73089,218.0382,-148,27600,12.9851,6216,611
2.06006,217.8155,-147,27601,12.8357,6216,611
2.44336,222.0425,-146,27602,13.0846,6216,611
2.79815,223.439,-145,27603,13.0846,6216,611
2.32946,214.9736,-144,27604,12.9851,6216,611
1.09619,202.8562,-143,27605,13.1842,6216,611
2.33764,193.9287,-142,27606,13.0846,6216,611
2.44141,182.812,-141,27607,13.0846,6268,600
3.2609,170.9117,-140,27608,13.0846,6268,600
2.37005,165.0457,-139,27609,13.3335,6268,600
1.31745,173.094,-138,27610,12.8357,6268,600
2.0156,168.9866,-137,27611,13.0348,6268,600
2.06237,135.2402,-136,27612,12.9851,6268,600
3.25211,137.9278,-135,27613,13.0846,6268,600
2.11714,154.9096,-134,27614,13.0846,6268,600
2.38409,164.7503,-133,27615,12.9851,6268,600
1.93596,176.8142,-132,27616,13.234,6268,600
2.68155,185.6494,-131,27617,12.8855,6283,610
2.59295,204.3704,-130,27618,13.0348,6283,610
2.26722,232.4459,-129,27619,13.0846,6283,610
2.39606,255.2724,-128,27620,13.234,6283,610
2.56336,276.7201,-127,27621,12.8855,6283,610
2.49167,297.6547,-126,27622,13.0846,6283,610
2.76559,309.324,-125,27623,13.0846,6283,610
2.03209,315.3213,-124,27624,12.9851,6283,610
2.01324,319.2392,-123,27625,13.0846,6283,610
1.9942,316.0428,-122,27626,13.0846,6283,610
3.49522,304.0088,-121,27627,13.0846,6301,623
2.36401,291.8883,-120,27628,13.234,6301,623
2.32332,289.1613,-119,27629,13.0846,6301,623
2.15951,295.4816,-118,27630,12.9851,6301,623
2.30684,309.0115,-117,27631,12.9851,6301,623
2.39805,326.518,-116,27632,13.1842,6301,623
2.77935,346.6455,-115,27633,12.9851,6301,623
2.9893,367.7976,-114,27634,13.0846,6301,623
2.04845,387.7071,-113,27635,13.0348,6301,623
1.74146,400.8722,-112,27636,13.0846,6301,623
2.17052,409.5606,-111,27637,13.0348,6510,641
2.43162,413.0611,-110,27638,13.0846,6510,641
3.32175,415.215,-109,27639,13.0846,6510,641
3.16292,413.106,-108,27640,13.0348,6510,641
2.26301,406.2894,-107,27641,13.0846,6510,641
2.80496,397.3066,-106,27642,13.1842,6510,641
2.82529,387.2774,-105,27643,12.8357,6510,641
2.46667,376.2769,-104,27644,13.1842,6510,641
1.88099,368.8168,-103,27645,13.0846,6510,641
2.8236,370.6512,-102,27646,13.234,6510,641
2.57079,384.4133,-101,27647,13.0846,6837,686
2.12837,402.7719,-100,27648,12.9851,6837,686
2.47439,416.9949,-99,27649,13.0846,6837,686
2.41391,422.2776,-98,27650,12.9851,6837,686
2.54844,424.1642,-97,27651,12.8855,6837,686
3.25211,419.0943,-96,27652,12.9851,6837,686
3.03521,401.5652,-95,27653,13.3335,6837,686
2.42376,390.7584,-94,27654,13.1842,6837,686
2.60762,397.9196,-93,27655,13.0846,6837,686
2.19238,412.2734,-92,27656,12.8357,6837,686
3.27549,427.3097,-91,27657,12.9851,6828,741
2.15951,431.5267,-90,27658,13.0846,6828,741
1.93596,420.0134,-89,27659,12.9851,6828,741
2.30477,399.8438,-88,27660,12.9851,6828,741
3.16442,389.1823,-87,27661,13.0846,6828,741
2.38609,390.2218,-86,27662,13.1842,6828,741
2.08079,387.8402,-85,27663,12.8357,6828,741
1.90617,375.2634,-84,27664,12.9851,6828,741
1.81913,359.9532,-83,27665,13.0846,6828,741
1.77132,346.3184,-82,27666,13.0846,6828,741
1.85547,332.2729,-81,27667,12.8357,6681,774
1.68581,314.9444,-80,27668,12.9851,6681,774
1.19205,302.2244,-79,27669,13.3335,6681,774
1.1472,299.639,-78,27670,13.0348,6681,774
2.57079,298.2266,-77,27671,12.8855,6681,774
1.9798,297.9672,-76,27672,13.0348,6681,774
1.57163,301.5691,-75,27673,13.0846,6681,774
2.22691,293.9086,-74,27674,12.9851,6681,774
1.87592,270.7047,-73,27675,13.0348,6681,774
0.793363,243.4637,-72,27676,12.8357,6681,774
1.27328,224.0626,-71,27677,12.8855,6425,774
1.53168,209.8204,-70,27678,13.0846,6425,774
0.981433,194.3324,-69,27679,13.0348,6425,774
0.98628,181.3301,-68,27680,12.9851,6425,774
1.19205,180.3357,-67,27681,13.1842,6425,774
2.16171,190.6319,-66,27682,13.0348,6425,774
1.68581,200.9837,-65,27683,12.8855,6425,774
1.52544,210.5244,-64,27684,13.1842,6425,774
2.47824,224.7341,-63,27685,12.9851,6425,774
3.1097,230.951,-62,27686,13.0348,6425,774
2.0716,222.8238,-61,27687,13.0348,6615,810
2.76731,207.2031,-60,27688,13.0846,6615,810
4.78715,186.1653,-59,27689,13.234,6615,810
3.50884,167.3864,-58,27690,12.8855,6615,810
3.65135,159.0785,-57,27691,13.0846,6615,810
3.32892,164.2202,-56,27692,13.0846,6615,810
3.82857,180.5388,-55,27693,13.0846,6615,810
3.80484,199.456,-54,27694,13.0846,6615,810
4.31901,213.3302,-53,27695,13.1842,6615,810
2.5353,223.646,-52,27696,13.0846,6615,810
4.04184,234.8477,-51,27697,12.8855,6612,857
3.30736,245.384,-50,27698,13.0348,6612,857
3.59476,258.1504,-49,27699,13.0846,6612,857
4.65688,275.9374,-48,27700,13.0348,6612,857
4.20489,290.5508,-47,27701,12.8357,6612,857
2.75868,303.8589,-46,27702,13.0846,6612,857
3.17345,324.5553,-45,27703,12.9851,6612,857
2.8236,350.2855,-44,27704,12.8357,6612,857
4.11201,374.9472,-43,27705,13.0348,6612,857
4.67324,395.6083,-42,27706,13.0348,6612,857
3.29725,411.5373,-41,27707,13.0846,6590,865
3.92695,428.7611,-40,27708,13.0846,6590,865
4.60644,449.4701,-39,27709,13.0846,6590,865
3.42354,468.5252,-38,27710,13.0846,6590,865
3.60932,480.3314,-37,27711,13.0846,6590,865
2.99568,487.8904,-36,27712,13.1842,6590,865
4.79809,502.7153,-35,27713,12.8855,6590,865
4.40645,518.8165,-34,27714,13.0348,6590,865
2.9701,528.7062,-33,27715,13.0846,6590,865
3.33893,524.2748,-32,27716,13.1842,6590,865
3.06336,542.4325,-31,27717,13.0348,5967,884
3.6304,604.581,-30,27718,12.8855,5967,884
3.53995,638.856,-29,27719,12.9851,5967,884
3.1097,644.6244,-28,27720,13.0846,5967,884
4.69665,622.9896,-27,27721,12.9851,5967,884
3.04775,596.7903,-26,27722,13.0846,5967,884
2.97651,596.5358,-25,27723,12.9851,5967,884
3.054,606.3163,-24,27724,12.8855,5967,884
3.51563,604.3784,-23,27725,13.0348,5967,884
2.54844,598.5069,-22,27726,12.8855,5967,884
3.36737,602.2626,-21,27727,13.0846,5245,908
3.52781,611.4732,-20,27728,13.0846,5245,908
2.51832,617.9069,-19,27729,13.0846,5245,908
2.9893,620.6007,-18,27730,12.8357,5245,908
4.03711,623.9067,-17,27731,13.1842,5245,908
2.11037,625.8021,-16,27732,13.3833,5245,908
2.22905,622.4867,-15,27733,12.9851,5245,908
2.2819,614.2871,-14,27734,12.8357,5245,908
2.32332,605.316,-13,27735,12.9851,5245,908
2.44531,595.4452,-12,27736,12.9851,5245,908
1.86572,585.5279,-11,27737,13.0846,5039,909
2.2819,573.4957,-10,27738,13.0348,5039,909
2.80326,559.8172,-9,27739,12.9851,5039,909
4.03475,548.7703,-8,27740,13.1842,5039,909
2.55777,538.8769,-7,27741,12.9851,5039,909
3.28276,525.6149,-6,27742,13.3335,5039,909
2.37809,510.446,-5,27743,13.1842,5039,909
2.31715,495.0881,-4,27744,13.0846,5039,909
2.37809,482.0647,-3,27745,13.0846,5039,909
3.53861,470.6388,-2,27746,12.8357,5039,909
2.0716,455.9218,-1,27747,13.1842,5042,923
10.1233,379.4264,0,27748,12.9851,5042,923
6.42679,612.469,1,27749,13.0846,5042,923
4.28354,388.8575,2,27750,13.234,5042,923
4.15584,540.6035,3,27751,13.0846,5042,923
4.4345,608.6862,4,27752,13.1842,5042,923
3.9427,507.8831,5,27753,12.8855,5042,923
2.30684,460.2856,6,27754,13.0846,5042,923
2.75176,571.1273,7,27755,13.0846,5042,923
3.39557,671.0925,8,27756,13.0846,5042,923
2.74308,597.6966,9,27757,13.1842,5135,947
2.23545,421.2281,10,27758,13.0846,5135,947
2.68865,298.678,11,27759,13.0846,5135,947
1.48103,280.5512,12,27760,12.9851,5135,947
1.8606,303.7034,13,27761,13.0348,5135,947
1.68298,298.5059,14,27762,13.3833,5135,947
2.15951,332.0898,15,27763,13.0846,5135,947
2.45892,388.5343,16,27764,13.0846,5135,947
1.68863,428.759,17,27765,13.0846,5135,947
3.32318,453.4785,18,27766,13.0846,5135,947
2.9701,480.9978,19,27767,13.0846,5052,985
2.59663,507.8424,20,27768,12.8357,5052,985
3.18096,518.1694,21,27769,13.3335,5052,985
2.15951,508.155,22,27770,12.9851,5052,985
2.60213,492.6096,23,27771,13.0348,5052,985
2.39407,497.6974,24,27772,13.0846,5052,985
3.23447,494.1337,25,27773,13.0846,5052,985
3.60271,513.4657,26,27774,13.0846,5052,985
2.70985,628.3404,27,27775,12.7859,5052,985
2.75695,730.9253,28,27776,13.1842,5052,985
2.34985,705.881,29,27777,13.3335,4956,1021
3.87438,686.5306,30,27778,13.0846,4956,1021
3.14629,763.4074,31,27779,13.0846,4956,1021
3.24624,815.9911,32,27780,13.0348,4956,1021
3.19889,745.5377,33,27781,13.0846,4956,1021
2.87382,623.7355,34,27782,13.0846,4956,1021
2.9893,558.7648,35,27783,13.0846,4956,1021
3.8186,555.1448,36,27784,13.0348,4956,1021
2.95239,605.7782,37,27785,13.0846,4956,1021
3.55071,629.4936,38,27786,13.0846,4956,1021
3.9596,573.0062,39,27787,12.9851,4965,1046
3.95598,508.0505,40,27788,13.234,4965,1046
3.51563,508.7212,41,27789,13.3335,4965,1046
3.63302,548.4091,42,27790,12.8855,4965,1046
3.62382,555.3726,43,27791,13.0846,4965,1046
3.38855,508.5741,44,27792,12.8855,4965,1046
4.00986,453.9896,45,27793,13.1842,4965,1046
3.53051,427.1975,46,27794,13.0846,4965,1046
3.20634,420.375,47,27795,12.8855,4965,1046
2.85884,413.7612,48,27796,13.234,4965,1046
3.31744,404.877,49,27797,13.1842,4972,1066
3.70579,403.4807,50,27798,12.9851,4972,1066
2.86218,412.4813,51,27799,12.8855,4972,1066
2.75695,421.9112,52,27800,13.0846,4972,1066
2.65294,429.9189,53,27801,12.9851,4972,1066
2.95077,435.1439,54,27802,13.1842,4972,1066
3.29725,434.6486,55,27803,13.0846,4972,1066
4.0312,423.5237,56,27804,13.0846,4972,1066
3.03364,406.4227,57,27805,13.0846,4972,1066
3.62382,392.0933,58,27806,13.0846,4972,1066
3.45129,383.6033,59,27807,13.0846,4960,1092
3.50204,380.1548,60,27808,13.0846,4960,1092
3.08816,377.9888,61,27809,13.0846,4960,1092
3.03992,371.256,62,27810,13.0846,4960,1092
4.22187,365.3451,63,27811,13.1842,4960,1092
2.97651,370.0892,64,27812,12.8357,4960,1092
3.18844,387.3202,65,27813,13.0846,4960,1092
2.87879,407.4453,66,27814,13.0846,4960,1092
3.15537,417.8492,67,27815,13.0348,4960,1092
2.60213,415.3521,68,27816,13.1842,4960,1092
2.53154,404.7426,69,27817,13.234,5020,1068
2.24822,393.3332,70,27818,13.1842,5020,1068
2.72039,383.9265,71,27819,13.1842,5020,1068
2.37005,372.8935,72,27820,12.9851,5020,1068
2.56522,348.4477,73,27821,12.9851,5020,1068
2.75868,303.6658,74,27822,13.0348,5020,1068
2.64575,256.2915,75,27823,13.0846,5020,1068
2.84882,232.7402,76,27824,13.0846,5020,1068
3.42772,231.1291,77,27825,13.0846,5020,1068
2.30063,224.9362,78,27826,13.234,5020,1068
2.8986,198.8247,79,27827,13.0846,5085,1048
6.06492,161.5298,80,27828,13.0846,5085,1048
3.8928,143.3676,81,27829,13.0846,5085,1048
3.68127,183.5948,82,27830,13.0348,5085,1048
3.39557,253.3005,83,27831,12.9851,5085,1048
3.75437,309.2539,84,27832,13.0348,5085,1048
3.69161,338.6244,85,27833,13.1842,5085,1048
3.21821,336.2768,86,27834,13.234,5085,1048
3.50067,276.3962,87,27835,13.0846,5085,1048
3.46508,201.6756,88,27836,13.0846,5085,1048
3.40959,185.852,89,27837,13.0846,5105,1048
2.86051,187.6499,90,27838,13.3833,5105,1048
2.09449,157.0735,91,27839,13.0846,5105,1048
3.21821,117.2359,92,27840,13.0846,5105,1048
2.70809,107.6693,93,27841,12.9851,5105,1048
3.962,129.2306,94,27842,13.0846,5105,1048
2.63672,153.7767,95,27843,13.234,5105,1048
3.45267,176.0188,96,27844,13.0846,5105,1048
3.13414,206.2287,97,27845,13.0348,5105,1048
2.09677,230.8544,98,27846,12.8855,5105,1048
3.20634,233.9075,99,27847,12.8357,5105,1060
2.97812,224.8446,100,27848,13.1842,5105,1060
