Linear acceleration,Rotational velocity,Time values,Absolute time values,Temperature,Ambient light,Reflected light
1.80598,80.128909,-2000,56284,31.6036,8795,693
1.48103,79.580482,-1999,56285,31.6534,8795,693
1.96772,78.760802,-1998,56286,31.504,8795,693
1.56555,77.958215,-1997,56287,31.504,8795,693
1.14304,77.549243,-1996,56288,31.6534,8795,693
1.88858,76.936842,-1995,56289,31.6036,8819,688
1.74146,76.288476,-1994,56290,31.6534,8819,688
1.54408,75.550479,-1993,56291,31.504,8819,688
0.878906,74.656351,-1992,56292,31.504,8819,688
1.27702,73.384465,-1991,56293,31.6534,8819,688
1.9942,71.959491,-1990,56294,31.6534,8819,688
3.25944,70.273601,-1989,56295,31.6534,8819,688
2.2944,68.22431,-1988,56296,31.8027,8819,688
2.58743,65.658284,-1987,56297,31.6534,8819,688
1.46484,63.215924,-1986,56298,31.504,8819,688
0.662337,61.270177,-1985,56299,31.6036,8840,684
1.63993,59.21744,-1984,56300,31.6534,8840,684
1.97739,56.496272,-1983,56301,31.504,8840,684
1.66589,53.78316,-1982,56302,31.7032,8840,684
1.50022,51.854026,-1981,56303,31.4045,8840,684
1.14304,50.840343,-1980,56304,31.6534,8840,684
1.96529,49.975681,-1979,56305,31.7032,8840,684
1.11773,48.81378,-1978,56306,31.4543,8840,684
0.717624,48.283862,-1977,56307,31.6534,8840,684
1.78473,47.848448,-1976,56308,31.6534,8840,684
1.30655,47.055533,-1975,56309,31.4543,8863,681
1.09619,46.267708,-1974,56310,31.6534,8863,681
1.23912,45.58178,-1973,56311,31.8027,8863,681
1.71108,44.132934,-1972,56312,31.4045,8863,681
1.08306,43.111909,-1971,56313,31.4045,8863,681
1.88353,42.077621,-1970,56314,31.6036,8863,681
1.07422,41.153992,-1969,56315,31.8027,8863,681
1.52231,40.310198,-1968,56316,31.6534,8863,681
1.68014,39.751275,-1967,56317,31.4543,8863,681
2.35997,39.356461,-1966,56318,31.6036,8863,681
2.09677,39.567544,-1965,56319,31.6534,8885,680
2.19672,40.576032,-1964,56320,31.6534,8885,680
1.08306,41.457026,-1963,56321,31.504,8885,680
2.25034,42.767487,-1962,56322,31.8027,8885,680
1.01016,43.406253,-1961,56323,31.4543,8885,680
1.48103,38.236078,-1960,56324,31.6534,8885,680
1.39822,30.395508,-1959,56325,31.7032,8885,680
1.1596,29.273469,-1958,56326,31.4543,8885,680
1.48103,40.259337,-1957,56327,31.504,8885,680
1.97498,56.05221,-1956,56328,31.4543,8885,680
1.49704,64.295373,-1955,56329,31.7032,8907,680
1.17998,67.0415,-1954,56330,31.4543,8907,680
1.61355,70.739298,-1953,56331,31.3049,8907,680
1.46484,75.838288,-1952,56332,31.6036,8907,680
1.18402,76.63498,-1951,56333,31.4045,8907,680
1.4118,71.843435,-1950,56334,31.6534,8907,680
1.11773,63.931056,-1949,56335,31.6534,8907,680
1.37415,56.970491,-1948,56336,31.6036,8907,680
1.59273,54.030284,-1947,56337,31.6534,8907,680
1.30655,59.903697,-1946,56338,31.6534,8907,680
2.11037,79.963136,-1945,56339,31.6036,8917,680
1.49704,105.68025,-1944,56340,31.4045,8917,680
1.57769,113.15892,-1943,56341,31.7032,8917,680
1.56859,98.37345,-1942,56342,31.4045,8917,680
1.40163,96.252499,-1941,56343,31.504,8917,680
0.569429,110.6316,-1940,56344,31.4543,8917,680
1.19205,114.57286,-1939,56345,31.6534,8917,680
1.5807,107.87045,-1938,56346,31.4543,8917,680
1.02423,95.05986,-1937,56347,31.504,8917,680
1.40163,75.441428,-1936,56348,31.504,8917,680
1.38452,49.555886,-1935,56349,31.6534,8920,683
1.27328,46.204702,-1934,56350,31.6036,8920,683
1.78473,73.260597,-1933,56351,31.6534,8920,683
1.17594,89.85395,-1932,56352,31.4543,8920,683
0.995902,88.630949,-1931,56353,31.504,8920,683
1.79804,76.807161,-1930,56354,31.6534,8920,683
1.83479,62.056878,-1929,56355,31.4543,8920,683
1.14304,48.576776,-1928,56356,31.504,8920,683
1.45505,41.877946,-1927,56357,31.6534,8920,683
0.98628,47.35101,-1926,56358,31.7032,8920,683
1.74966,58.547065,-1925,56359,31.4045,8920,683
2.11714,65.797371,-1924,56360,31.504,8920,683
1.48103,65.927914,-1923,56361,31.8027,8920,683
1.52231,60.56287,-1922,56362,31.6534,8920,683
1.3637,51.401024,-1921,56363,31.8027,8920,683
1.39822,43.361602,-1920,56364,31.504,8920,683
1.60168,44.437953,-1919,56365,31.6534,8920,683
1.57769,52.764884,-1918,56366,31.504,8920,683
1.96044,59.689013,-1917,56367,31.4543,8920,683
1.39822,61.131516,-1916,56368,31.6534,8920,683
1.46484,58.513459,-1915,56369,31.8027,8911,678
0.834375,54.439117,-1914,56370,31.4543,8911,678
1.98701,48.164125,-1913,56371,31.504,8911,678
1.38452,39.293939,-1912,56372,31.504,8911,678
1.32467,32.554347,-1911,56373,31.4543,8911,678
2.34782,29.599219,-1910,56374,31.4543,8911,678
1.59273,30.381533,-1909,56375,31.4543,8911,678
1.42859,31.850294,-1908,56376,31.6534,8911,678
2.0156,31.84468,-1907,56377,31.7032,8911,678
2.0156,31.200847,-1906,56378,31.504,8911,678
1.45176,32.895854,-1905,56379,31.4543,8901,681
1.3637,36.636959,-1904,56380,31.504,8901,681
1.66589,40.394393,-1903,56381,31.504,8901,681
2.28816,42.812062,-1902,56382,31.4543,8901,681
1.25821,45.647605,-1901,56383,31.504,8901,681
2.37608,47.177452,-1900,56384,31.6534,8901,681
1.19205,45.24875,-1899,56385,31.6534,8901,681
1.22363,40.755766,-1898,56386,31.504,8901,681
2.26091,37.221238,-1897,56387,31.6534,8901,681
0.840071,36.092788,-1896,56388,31.4045,8901,681
2.15951,35.153495,-1895,56389,31.6534,8888,684
2.63129,32.379251,-1894,56390,31.4045,8888,684
1.66589,29.288227,-1893,56391,31.6036,8888,684
1.50022,27.241379,-1892,56392,31.6534,8888,684
0.946812,26.325617,-1891,56393,31.4045,8888,684
1.36719,25.416728,-1890,56394,31.6036,8888,684
1.24679,24.829534,-1889,56395,31.8027,8888,684
0.601994,25.16988,-1888,56396,31.504,8888,684
1.25061,26.561165,-1887,56397,31.6036,8888,684
1.1472,27.401998,-1886,56398,31.504,8888,684
1.5034,28.005228,-1885,56399,31.6534,8881,686
2.03209,29.322295,-1884,56400,31.504,8881,686
1.46484,31.338091,-1883,56401,31.504,8881,686
1.27702,31.946526,-1882,56402,31.6534,8881,686
0.617632,31.720905,-1881,56403,31.4543,8881,686
1.78473,32.474374,-1880,56404,31.6036,8881,686
2.27981,33.463523,-1879,56405,31.6534,8881,686
1.43857,34.075988,-1878,56406,31.6534,8881,686
2.55777,34.233269,-1877,56407,31.6534,8881,686
0.995902,34.000691,-1876,56408,31.8525,8881,686
0.884315,33.571555,-1875,56409,31.4543,8875,688
1.49704,32.792639,-1874,56410,31.4045,8875,688
2.5819,32.231648,-1873,56411,31.6534,8875,688
1.34255,33.650027,-1872,56412,31.7032,8875,688
0.447517,34.964782,-1871,56413,31.6534,8875,688
2.00136,34.553231,-1870,56414,31.6534,8875,688
1.26953,33.946084,-1869,56415,31.6534,8875,688
1.99897,34.892043,-1868,56416,31.6534,8875,688
0.793363,36.038869,-1867,56417,31.4543,8875,688
1.97739,36.351752,-1866,56418,31.6534,8875,688
1.02423,35.546783,-1865,56419,31.504,8867,683
1.94088,35.293734,-1864,56420,31.504,8867,683
1.22363,36.140441,-1863,56421,31.7032,8867,683
1.67161,38.453117,-1862,56422,31.504,8867,683
0.905627,39.261312,-1861,56423,31.504,8867,683
1.47134,38.53731,-1860,56424,31.504,8867,683
1.40163,38.244066,-1859,56425,31.6036,8867,683
1.19205,37.234647,-1858,56426,31.6036,8867,683
1.57769,36.807185,-1857,56427,31.4045,8867,683
0.690534,37.373456,-1856,56428,31.6534,8867,683
1.61059,37.971717,-1855,56429,31.504,8860,688
1.21581,37.45192,-1854,56430,31.4543,8860,688
0.845728,37.059148,-1853,56431,31.504,8860,688
0.690534,38.346014,-1852,56432,31.504,8860,688
1.38107,39.68806,-1851,56433,31.4045,8860,688
1.41517,38.442265,-1850,56434,31.8027,8860,688
1.42525,35.30471,-1849,56435,31.6534,8860,688
1.73323,36.450203,-1848,56436,31.6534,8860,688
1.29556,42.088066,-1847,56437,31.8027,8860,688
0.889691,44.564359,-1846,56438,31.6534,8860,688
0.793363,41.986864,-1845,56439,31.7032,8846,685
1.02423,39.62813,-1844,56440,31.6534,8846,685
1.25821,39.726714,-1843,56441,31.8027,8846,685
1.02423,39.548144,-1842,56442,31.504,8846,685
0.840071,39.687122,-1841,56443,31.6534,8846,685
2.11263,42.08187,-1840,56444,31.8027,8846,685
1.96529,43.888479,-1839,56445,31.504,8846,685
0.905627,43.501071,-1838,56446,31.6534,8846,685
1.43525,43.043765,-1837,56447,31.6534,8846,685
1.38452,43.743092,-1836,56448,31.7032,8846,685
1.3637,43.559094,-1835,56449,31.6036,8829,688
1.9335,41.69894,-1834,56450,31.6534,8829,688
1.55638,40.220825,-1833,56451,31.6036,8829,688
0.862477,41.233754,-1832,56452,31.504,8829,688
1.70269,44.307656,-1831,56453,31.504,8829,688
1.96529,45.570991,-1830,56454,31.6534,8829,688
1.32827,44.597449,-1829,56455,31.6534,8829,688
1.56859,44.00258,-1828,56456,31.4543,8829,688
0.811194,43.225648,-1827,56457,31.4543,8829,688
1.14304,40.503437,-1826,56458,31.7032,8829,688
0.828641,40.736017,-1825,56459,31.6036,8813,691
1.31745,48.023305,-1824,56460,31.7032,8813,691
1.67446,52.199584,-1823,56461,31.6036,8813,691
1.36019,45.842075,-1822,56462,31.4045,8813,691
1.65152,40.349732,-1821,56463,31.504,8813,691
1.25821,41.823291,-1820,56464,31.4543,8813,691
1.63702,48.097252,-1819,56465,31.4543,8813,691
1.00068,52.145317,-1818,56466,31.7032,8813,691
0.961803,49.262593,-1817,56467,31.6036,8813,691
1.52231,43.129706,-1816,56468,31.504,8813,691
2.0156,39.101009,-1815,56469,31.4045,8807,688
1.4118,40.691915,-1814,56470,31.4543,8807,688
1.60168,44.899479,-1813,56471,31.6534,8807,688
2.41588,47.689826,-1812,56472,31.504,8807,688
0.525895,46.032163,-1811,56473,31.4543,8807,688
1.92856,41.854811,-1810,56474,31.6534,8807,688
1.39139,41.691256,-1809,56475,31.6534,8807,688
1.83739,45.489498,-1808,56476,31.4543,8807,688
0.862477,49.862548,-1807,56477,31.504,8807,688
1.14304,51.128958,-1806,56478,31.6534,8807,688
1.47781,50.376305,-1805,56479,31.7032,8803,691
1.1596,50.290895,-1804,56480,31.504,8803,691
1.73047,51.920653,-1803,56481,31.8027,8803,691
2.2944,51.178333,-1802,56482,31.6036,8803,691
1.48103,50.5203,-1801,56483,31.504,8803,691
0.78733,50.495518,-1800,56484,31.504,8803,691
1.54408,50.738684,-1799,56485,31.6534,8803,691
1.06082,50.465261,-1798,56486,31.6534,8803,691
2.21832,49.72414,-1797,56487,31.6534,8803,691
0.926449,48.898417,-1796,56488,31.4543,8803,691
2.35593,48.516615,-1795,56489,31.6036,8805,690
1.05179,46.410484,-1794,56490,31.4045,8805,690
0.625305,44.475996,-1793,56491,31.6534,8805,690
1.69427,43.868273,-1792,56492,31.504,8805,690
1.88353,42.183021,-1791,56493,31.6534,8805,690
2.16392,42.073017,-1790,56494,31.6036,8805,690
1.07865,43.911561,-1789,56495,31.7032,8805,690
1.7551,43.98158,-1788,56496,31.4045,8805,690
0.365396,45.334127,-1787,56497,31.6534,8805,690
1.32467,46.220179,-1786,56498,31.6534,8805,690
0.507437,47.191347,-1785,56499,31.6534,8817,690
1.45505,46.720568,-1784,56500,31.7032,8817,690
1.13045,44.102536,-1783,56501,31.4543,8817,690
1.04268,43.052245,-1782,56502,31.4543,8817,690
0.402647,42.781073,-1781,56503,31.6534,8817,690
1.96529,41.764106,-1780,56504,31.4045,8817,690
0.793363,42.099041,-1779,56505,31.4045,8817,690
1.25061,42.937007,-1778,56506,31.6534,8817,690
1.84774,43.529322,-1777,56507,31.6534,8817,690
2.15287,42.976552,-1776,56508,31.6036,8817,690
2.01324,42.120626,-1775,56509,31.4543,8825,692
1.77132,41.212246,-1774,56510,31.8027,8825,692
2.09904,41.155079,-1773,56511,31.504,8825,692
2.14844,41.234658,-1772,56512,31.6534,8825,692
1.29923,40.715711,-1771,56513,31.7032,8825,692
1.30655,39.761395,-1770,56514,31.504,8825,692
1.9942,39.365925,-1769,56515,31.6534,8825,692
0.750112,36.879581,-1768,56516,31.4543,8825,692
1.39481,33.605494,-1767,56517,31.4543,8825,692
1.09619,31.599239,-1766,56518,31.6534,8825,692
1.90867,30.813265,-1765,56519,31.4045,8837,686
2.05311,29.093994,-1764,56520,31.6036,8837,686
1.70549,26.165509,-1763,56521,31.504,8837,686
1.13045,24.23211,-1762,56522,31.6534,8837,686
1.70829,21.521103,-1761,56523,31.4543,8837,686
0.488281,17.714501,-1760,56524,31.6534,8837,686
1.68298,15.335258,-1759,56525,31.7032,8837,686
2.05543,14.70428,-1758,56526,31.504,8837,686
1.25821,14.069894,-1757,56527,31.504,8837,686
1.02423,13.52614,-1756,56528,31.4543,8837,686
1.86572,13.203923,-1755,56529,31.504,8850,690
0.338291,13.342012,-1754,56530,31.504,8850,690
1.77132,14.013651,-1753,56531,31.4045,8850,690
0.497951,15.082971,-1752,56532,31.4543,8850,690
0.793363,15.952493,-1751,56533,31.4045,8850,690
1.22363,16.379271,-1750,56534,31.4045,8850,690
1.65152,17.270253,-1749,56535,31.6036,8850,690
0.889691,19.204264,-1748,56536,31.6534,8850,690
1.36019,21.512447,-1747,56537,31.6036,8850,690
1.54717,23.561151,-1746,56538,31.4543,8850,690
1.56859,25.500135,-1745,56539,31.6534,8858,687
1.61945,27.65748,-1744,56540,31.4543,8858,687
1.32467,29.977148,-1743,56541,31.4045,8858,687
1.64863,32.195105,-1742,56542,31.6534,8858,687
1.48103,33.159564,-1741,56543,31.8027,8858,687
1.76323,32.587515,-1740,56544,31.6534,8858,687
1.25061,30.774311,-1739,56545,31.504,8858,687
1.58973,29.171229,-1738,56546,31.6534,8858,687
1.72772,26.257605,-1737,56547,31.4543,8858,687
0.690534,23.831552,-1736,56548,31.504,8858,687
1.76323,22.328526,-1735,56549,31.6534,8864,690
1.24296,22.03665,-1734,56550,31.4543,8864,690
1.96529,22.235904,-1733,56551,31.7032,8864,690
1.71108,22.278083,-1732,56552,31.6534,8864,690
0.534885,22.151978,-1731,56553,31.7032,8864,690
1.44188,20.947778,-1730,56554,31.6534,8864,690
1.45505,19.727484,-1729,56555,31.4543,8864,690
1.45505,19.398428,-1728,56556,31.6534,8864,690
1.09619,18.55268,-1727,56557,31.6534,8864,690
1.38107,17.026074,-1726,56558,31.8027,8864,690
2.06237,16.588992,-1725,56559,31.6534,8869,688
1.76052,18.687127,-1724,56560,31.504,8869,688
1.04268,19.605115,-1723,56561,31.6036,8869,688
1.30655,15.415214,-1722,56562,31.6534,8869,688
1.31745,8.7124345,-1721,56563,31.7032,8869,688
1.32827,8.441407,-1720,56564,31.504,8869,688
1.13045,11.1686,-1719,56565,31.4045,8869,688
1.80334,12.073241,-1718,56566,31.6534,8869,688
0.793363,13.686037,-1717,56567,31.4045,8869,688
1.11773,14.808794,-1716,56568,31.6036,8869,688
1.08306,12.905436,-1715,56569,31.504,8871,687
1.09183,11.993991,-1714,56570,31.4543,8871,687
1.00543,15.023082,-1713,56571,31.6036,8871,687
0.840071,14.711878,-1712,56572,31.4543,8871,687
0.577742,11.223833,-1711,56573,31.7032,8871,687
0.931581,12.320034,-1710,56574,31.4543,8871,687
0.717624,17.428717,-1709,56575,31.7032,8871,687
1.02423,20.544473,-1708,56576,31.4543,8871,687
0.981433,20.229817,-1707,56577,31.6036,8871,687
1.15135,21.506905,-1706,56578,31.504,8871,687
0.507437,24.834634,-1705,56579,31.504,8868,687
1.8606,28.76563,-1704,56580,31.7032,8868,687
1.22363,32.66493,-1703,56581,31.6534,8868,687
1.59273,33.947401,-1702,56582,31.6036,8868,687
0.828641,34.127332,-1701,56583,31.6534,8868,687
1.11773,36.520859,-1700,56584,31.504,8868,687
1.30655,38.762658,-1699,56585,31.3049,8868,687
0.655098,37.650332,-1698,56586,31.7032,8868,687
1.21581,36.200383,-1697,56587,31.6036,8868,687
0.85693,37.621033,-1696,56588,31.7032,8868,687
1.57769,38.81644,-1695,56589,31.6036,8869,688
1.95556,39.089003,-1694,56590,31.6534,8869,688
1.77938,39.83983,-1693,56591,31.6036,8869,688
1.49066,42.033331,-1692,56592,31.6534,8869,688
0.921287,42.910102,-1691,56593,31.7032,8869,688
1.13045,43.40385,-1690,56594,31.4543,8869,688
1.75781,45.067758,-1689,56595,31.504,8869,688
2.12613,47.023221,-1688,56596,31.504,8869,688
1.53168,48.021133,-1687,56597,31.4045,8869,688
1.23912,50.361365,-1686,56598,31.6036,8869,688
2.74482,52.979781,-1685,56599,31.504,8872,682
1.4118,53.682771,-1684,56600,31.504,8872,682
1.17594,52.933775,-1683,56601,31.8027,8872,682
1.98701,52.085845,-1682,56602,31.3049,8872,682
1.73047,51.387107,-1681,56603,31.6036,8872,682
1.11773,49.188429,-1680,56604,31.6534,8872,682
1.54717,46.248541,-1679,56605,31.4543,8872,682
0.981433,43.830212,-1678,56606,31.4543,8872,682
1.67446,41.556112,-1677,56607,31.7032,8872,682
1.27702,39.612898,-1676,56608,31.4045,8872,682
1.86572,38.758237,-1675,56609,31.6534,8876,680
1.25061,38.262958,-1674,56610,31.6534,8876,680
0.793363,38.18382,-1673,56611,31.504,8876,680
1.68863,38.283009,-1672,56612,31.504,8876,680
1.74966,38.644268,-1671,56613,31.6534,8876,680
1.66875,38.116638,-1670,56614,31.6534,8876,680
2.13284,36.908459,-1669,56615,31.6534,8876,680
0.750112,35.340146,-1668,56616,31.7032,8876,680
1.19604,33.519583,-1667,56617,31.6534,8876,680
1.81125,31.223763,-1666,56618,31.504,8876,680
1.00068,28.873177,-1665,56619,31.6036,8877,676
2.20539,26.848255,-1664,56620,31.8525,8877,676
0.921287,25.862203,-1663,56621,31.6534,8877,676
1.958,25.707034,-1662,56622,31.6534,8877,676
1.66303,25.955375,-1661,56623,31.504,8877,676
2.20539,26.951289,-1660,56624,31.504,8877,676
1.86316,28.418273,-1659,56625,31.6534,8877,676
1.00068,30.185942,-1658,56626,31.4543,8877,676
1.23912,31.676717,-1657,56627,31.6534,8877,676
1.17998,32.614711,-1656,56628,31.6036,8877,676
1.09619,32.319599,-1655,56629,31.504,8883,678
1.1472,30.938503,-1654,56630,31.4543,8883,678
1.69146,28.84607,-1653,56631,31.6534,8883,678
2.37206,26.295317,-1652,56632,31.4543,8883,678
2.39606,23.050935,-1651,56633,31.4543,8883,678
0.840071,20.202176,-1650,56634,31.7032,8883,678
2.25668,18.008991,-1649,56635,31.6534,8883,678
1.958,16.795651,-1648,56636,31.4543,8883,678
0.743728,16.72586,-1647,56637,31.6036,8883,678
2.21187,17.647078,-1646,56638,31.504,8883,678
1.5034,18.71183,-1645,56639,31.7032,8889,677
0.98628,20.577811,-1644,56640,31.6036,8889,677
1.27702,22.62421,-1643,56641,31.4543,8889,677
1.49704,24.417724,-1642,56642,31.504,8889,677
1.33185,26.091655,-1641,56643,31.6534,8889,677
1.88858,28.127607,-1640,56644,31.8525,8889,677
1.08306,30.165202,-1639,56645,31.6534,8889,677
1.52856,33.998719,-1638,56646,31.7032,8889,677
1.86827,45.756669,-1637,56647,31.504,8889,677
1.37415,47.564521,-1636,56648,31.504,8889,677
2.0762,31.730064,-1635,56649,31.6534,8899,674
0.85693,42.913748,-1634,56650,31.6534,8899,674
1.45505,42.335878,-1633,56651,31.7032,8899,674
1.05631,34.775687,-1632,56652,31.8027,8899,674
1.09619,29.90623,-1631,56653,31.504,8899,674
1.60168,27.828551,-1630,56654,31.6534,8899,674
2.03444,15.499084,-1629,56655,31.6534,8899,674
1.27328,39.584675,-1628,56656,31.6534,8899,674
1.60168,90.937549,-1627,56657,31.504,8899,674
2.16171,118.99001,-1626,56658,31.4045,8899,674
1.49385,107.45169,-1625,56659,31.8027,8899,675
0.981433,74.876282,-1624,56660,31.6534,8899,675
2.08079,45.3407,-1623,56661,31.7032,8899,675
1.49066,29.712526,-1622,56662,31.6534,8899,675
0.966748,23.155101,-1621,56663,31.6534,8899,675
1.4118,21.136502,-1620,56664,31.8027,8899,675
1.57769,31.103267,-1619,56665,31.6534,8899,675
0.840071,42.917047,-1618,56666,31.4045,8899,675
2.37809,43.403163,-1617,56667,31.6534,8899,675
1.40163,34.718436,-1616,56668,31.6534,8899,675
1.38452,23.266486,-1615,56669,31.7032,8889,673
1.33185,11.091618,-1614,56670,31.6534,8889,673
1.63993,13.117306,-1613,56671,31.504,8889,673
1.32467,25.310095,-1612,56672,31.4045,8889,673
1.958,35.264801,-1611,56673,31.504,8889,673
2.0156,37.058343,-1610,56674,31.4045,8889,673
2.05078,33.321618,-1609,56675,31.6036,8889,673
1.70829,30.440332,-1608,56676,31.6534,8889,673
2.0739,28.882207,-1607,56677,32.0019,8889,673
2.10811,26.328164,-1606,56678,31.6534,8889,673
1.59273,21.398546,-1605,56679,31.4543,8871,675
1.57769,17.075014,-1604,56680,31.504,8871,675
1.38796,16.437392,-1603,56681,31.504,8871,675
0.365396,16.602909,-1602,56682,31.4045,8871,675
1.7551,16.488532,-1601,56683,31.504,8871,675
1.14304,17.511879,-1600,56684,31.4543,8871,675
1.21188,19.133913,-1599,56685,31.6036,8871,675
2.33151,21.314819,-1598,56686,31.4543,8871,675
2.36602,24.780574,-1597,56687,31.504,8871,675
1.47134,28.647278,-1596,56688,31.4045,8871,675
1.68863,31.399844,-1595,56689,31.6534,8860,675
1.0381,33.051537,-1594,56690,31.7032,8860,675
0.768946,35.525187,-1593,56691,31.8027,8860,675
1.67446,37.909859,-1592,56692,31.3049,8860,675
1.79539,40.94017,-1591,56693,31.6534,8860,675
1.96529,44.329847,-1590,56694,31.4543,8860,675
1.45176,47.115029,-1589,56695,31.6534,8860,675
1.83479,50.236494,-1588,56696,31.6534,8860,675
1.67446,53.909904,-1587,56697,31.6534,8860,675
1.31383,57.136992,-1586,56698,31.8027,8860,675
2.46086,58.375142,-1585,56699,31.6534,8860,671
1.98701,58.069811,-1584,56700,31.4543,8860,671
1.19604,59.00392,-1583,56701,31.7032,8860,671
1.90617,62.137746,-1582,56702,31.6534,8860,671
2.0739,64.927064,-1581,56703,31.6534,8860,671
1.78473,66.584852,-1580,56704,31.504,8860,671
1.40163,67.75881,-1579,56705,31.6036,8860,671
2.15951,68.52669,-1578,56706,31.6534,8860,671
1.29923,69.186412,-1577,56707,31.7032,8860,671
2.33356,69.31928,-1576,56708,31.6036,8860,671
2.17052,70.261301,-1575,56709,31.6534,8851,676
1.66589,71.405812,-1574,56710,31.8027,8851,676
1.28447,73.362633,-1573,56711,31.6036,8851,676
0.717624,74.736645,-1572,56712,31.504,8851,676
1.64863,74.636987,-1571,56713,31.4045,8851,676
1.24296,73.415018,-1570,56714,31.504,8851,676
1.98461,71.09367,-1569,56715,31.6036,8851,676
1.11773,70.031558,-1568,56716,31.7032,8851,676
1.79539,71.182171,-1567,56717,31.6534,8851,676
2.0762,72.278099,-1566,56718,31.6036,8851,676
0.402647,70.788678,-1565,56719,31.6534,8841,673
2.06237,68.568428,-1564,56720,31.6534,8841,673
2.2819,67.233819,-1563,56721,31.7032,8841,673
0.98628,64.872303,-1562,56722,31.6534,8841,673
0.78733,62.555408,-1561,56723,31.6036,8841,673
0.478416,62.788061,-1560,56724,31.6534,8841,673
1.36019,63.282008,-1559,56725,31.6534,8841,673
1.5807,61.927558,-1558,56726,31.6534,8841,673
1.66303,59.761491,-1557,56727,31.504,8841,673
1.05631,59.723703,-1556,56728,31.6036,8841,673
2.03678,59.509997,-1555,56729,31.504,8838,676
1.00543,58.45626,-1554,56730,31.6534,8838,676
2.08079,57.899173,-1553,56731,31.6534,8838,676
1.70549,56.6151,-1552,56732,31.504,8838,676
1.04268,53.024061,-1551,56733,31.6036,8838,676
1.77132,48.810727,-1550,56734,31.8027,8838,676
1.78473,46.0354,-1549,56735,31.4543,8838,676
1.62826,44.384772,-1548,56736,31.6534,8838,676
2.34985,42.970484,-1547,56737,31.4543,8838,676
1.70829,42.454152,-1546,56738,31.6534,8838,676
1.79273,41.200855,-1545,56739,31.6036,8835,671
2.12164,39.353053,-1544,56740,31.8027,8835,671
1.27702,38.674526,-1543,56741,31.4045,8835,671
0.981433,40.477676,-1542,56742,31.6036,8835,671
1.73872,39.185141,-1541,56743,31.6534,8835,671
1.70829,36.821757,-1540,56744,31.6534,8835,671
1.37415,34.716934,-1539,56745,31.504,8835,671
1.66303,34.133226,-1538,56746,31.6036,8835,671
1.96772,34.141519,-1537,56747,31.6534,8835,671
0.577742,33.885672,-1536,56748,31.6036,8835,671
0.737289,32.773094,-1535,56749,31.7032,8826,674
1.38452,32.610371,-1534,56750,31.504,8826,674
1.25821,33.160238,-1533,56751,31.504,8826,674
2.01324,32.597345,-1532,56752,31.4543,8826,674
1.44518,31.270259,-1531,56753,31.3049,8826,674
1.67446,29.450586,-1530,56754,31.504,8826,674
1.07422,27.240558,-1529,56755,31.6534,8826,674
2.35187,24.578608,-1528,56756,31.4543,8826,674
1.49704,23.035092,-1527,56757,31.6534,8826,674
1.05631,22.492097,-1526,56758,31.4543,8826,674
1.25821,22.861068,-1525,56759,31.4543,8814,673
1.20794,23.137074,-1524,56760,31.504,8814,673
0.971667,22.707375,-1523,56761,31.6534,8814,673
1.58973,22.164419,-1522,56762,31.504,8814,673
1.60168,21.220933,-1521,56763,31.4045,8814,673
0.507437,19.594472,-1520,56764,31.6534,8814,673
2.30684,19.615374,-1519,56765,31.6036,8814,673
1.96529,22.272731,-1518,56766,31.8027,8814,673
1.57769,24.295979,-1517,56767,31.7032,8814,673
1.09619,23.575061,-1516,56768,31.7032,8814,673
1.11773,21.600927,-1515,56769,31.6534,8810,677
0.793363,21.427774,-1514,56770,31.504,8810,677
0.941763,22.136165,-1513,56771,31.7032,8810,677
1.21188,22.444346,-1512,56772,31.4543,8810,677
1.90116,21.447236,-1511,56773,31.6534,8810,677
1.19205,19.683625,-1510,56774,31.6534,8810,677
1.17998,18.979088,-1509,56775,31.504,8810,677
1.5807,19.606636,-1508,56776,31.504,8810,677
1.58973,19.935244,-1507,56777,31.6534,8810,677
1.39481,19.422227,-1506,56778,31.7032,8810,677
1.22752,19.967733,-1505,56779,31.4543,8813,678
1.63702,22.018047,-1504,56780,31.6036,8813,678
2.18366,24.062409,-1503,56781,31.6534,8813,678
0.793363,24.613444,-1502,56782,31.6534,8813,678
1.64863,23.611377,-1501,56783,31.6534,8813,678
1.79539,22.839222,-1500,56784,31.6534,8813,678
1.68863,22.841505,-1499,56785,31.504,8813,678
1.88858,22.919981,-1498,56786,31.4543,8813,678
1.28817,23.529508,-1497,56787,31.4543,8813,678
0.840071,24.792297,-1496,56788,31.4045,8813,678
1.88606,25.887254,-1495,56789,31.4045,8820,678
2.02033,26.480256,-1494,56790,31.8027,8820,678
1.5034,27.724745,-1493,56791,31.4543,8820,678
1.28447,29.161778,-1492,56792,31.504,8820,678
1.22363,30.450855,-1491,56793,31.504,8820,678
1.37067,30.189891,-1490,56794,31.6036,8820,678
0.585938,28.681588,-1489,56795,31.6534,8820,678
0.840071,28.76019,-1488,56796,31.6534,8820,678
1.49704,30.599499,-1487,56797,31.6036,8820,678
1.22752,31.131041,-1486,56798,31.6036,8820,678
1.95556,30.476046,-1485,56799,31.504,8840,676
1.19205,30.962817,-1484,56800,31.6036,8840,676
1.68863,33.092314,-1483,56801,31.6534,8840,676
1.73047,34.526914,-1482,56802,31.504,8840,676
1.1472,34.229134,-1481,56803,31.8027,8840,676
1.50657,34.308708,-1480,56804,31.6534,8840,676
1.56555,35.088792,-1479,56805,31.504,8840,676
1.74146,35.363119,-1478,56806,31.6534,8840,676
1.61945,34.9424,-1477,56807,31.6534,8840,676
0.931581,34.658941,-1476,56808,31.2551,8840,676
1.95556,33.672161,-1475,56809,31.504,8862,679
2.0716,32.514041,-1474,56810,31.8027,8862,679
1.4219,32.416506,-1473,56811,31.4045,8862,679
1.59273,33.753269,-1472,56812,31.504,8862,679
0.905627,34.207796,-1471,56813,31.504,8862,679
1.56555,33.877756,-1470,56814,31.504,8862,679
1.40842,33.524917,-1469,56815,31.6036,8862,679
1.33543,34.028071,-1468,56816,31.6036,8862,679
1.17998,34.580604,-1467,56817,31.4543,8862,679
2.05078,34.576941,-1466,56818,31.8525,8862,679
1.9942,33.58265,-1465,56819,31.6534,8885,676
1.56555,31.960516,-1464,56820,31.6036,8885,676
2.0785,29.929141,-1463,56821,31.504,8885,676
1.24296,27.454153,-1462,56822,31.6036,8885,676
0.662337,25.937859,-1461,56823,31.504,8885,676
1.05179,25.724128,-1460,56824,31.6534,8885,676
1.21188,25.049709,-1459,56825,31.4543,8885,676
1.27702,22.525198,-1458,56826,31.4045,8885,676
1.56555,20.480183,-1457,56827,31.504,8885,676
1.39481,20.366728,-1456,56828,31.6534,8885,676
1.60168,20.005012,-1455,56829,31.6036,8912,674
1.05631,18.593597,-1454,56830,31.6036,8912,674
1.20399,16.144231,-1453,56831,31.7032,8912,674
1.40163,13.789083,-1452,56832,31.4045,8912,674
1.66303,11.207225,-1451,56833,31.4543,8912,674
1.38452,10.234269,-1450,56834,31.504,8912,674
1.73047,9.6959489,-1449,56835,31.7032,8912,674
1.22363,7.1938677,-1448,56836,31.3049,8912,674
1.73323,4.4030002,-1447,56837,31.4543,8912,674
1.77401,3.9855536,-1446,56838,31.6036,8912,674
1.45505,5.9074969,-1445,56839,31.504,8930,675
1.27328,10.150937,-1444,56840,31.6534,8930,675
1.84774,12.084961,-1443,56841,31.6534,8930,675
0.793363,11.874123,-1442,56842,31.504,8930,675
2.08079,13.561347,-1441,56843,31.6036,8930,675
1.84774,18.030905,-1440,56844,31.7032,8930,675
0.697405,22.999809,-1439,56845,31.4045,8930,675
1.73323,26.275759,-1438,56846,31.7032,8930,675
1.57163,28.021452,-1437,56847,31.504,8930,675
2.02269,30.447429,-1436,56848,31.4543,8930,675
1.77132,34.71908,-1435,56849,31.6534,8941,673
1.68298,39.73984,-1434,56850,31.504,8941,673
1.51917,43.620285,-1433,56851,31.6534,8941,673
1.04268,45.905742,-1432,56852,31.6534,8941,673
1.31383,49.047511,-1431,56853,31.7032,8941,673
1.81125,53.934361,-1430,56854,31.8525,8941,673
0.905627,58.699068,-1429,56855,31.6036,8941,673
1.55638,61.321351,-1428,56856,31.6036,8941,673
0.981433,64.081333,-1427,56857,31.6534,8941,673
1.17594,67.396743,-1426,56858,31.6036,8941,673
1.59273,69.812267,-1425,56859,31.7032,8937,672
2.00136,72.773668,-1424,56860,31.504,8937,672
1.54717,76.708639,-1423,56861,31.6534,8937,672
1.95556,79.807942,-1422,56862,31.6036,8937,672
1.92856,80.850827,-1421,56863,31.6534,8937,672
1.67446,81.896444,-1420,56864,31.4543,8937,672
1.67446,84.901021,-1419,56865,31.6534,8937,672
2.0762,88.30182,-1418,56866,31.504,8937,672
1.84774,88.977452,-1417,56867,31.6036,8937,672
2.33968,90.602984,-1416,56868,31.6534,8937,672
1.31745,94.513171,-1415,56869,31.6534,8922,676
1.40163,96.923521,-1414,56870,31.6534,8922,676
1.46484,97.417004,-1413,56871,31.504,8922,676
1.70829,98.459223,-1412,56872,31.8027,8922,676
1.49066,99.847621,-1411,56873,31.7032,8922,676
0.921287,101.21823,-1410,56874,31.504,8922,676
2.18802,103.29212,-1409,56875,31.504,8922,676
0.85693,104.76122,-1408,56876,31.8027,8922,676
0.138107,105.12423,-1407,56877,31.6534,8922,676
2.12837,105.73424,-1406,56878,31.6036,8922,676
0.683594,106.9499,-1405,56879,31.504,8898,670
0.840071,107.55925,-1404,56880,31.7032,8898,670
1.88858,108.10041,-1403,56881,31.7032,8898,670
1.10916,109.74366,-1402,56882,31.6534,8898,670
1.07865,109.0638,-1401,56883,31.6036,8898,670
1.9942,107.29904,-1400,56884,31.6534,8898,670
1.4118,109.27911,-1399,56885,31.7032,8898,670
1.1596,112.55333,-1398,56886,31.6036,8898,670
1.21188,109.4595,-1397,56887,31.6534,8898,670
2.08994,104.1156,-1396,56888,31.504,8898,670
1.60168,103.92371,-1395,56889,31.6534,8857,675
0.921287,105.9443,-1394,56890,31.504,8857,675
1.21581,104.51087,-1393,56891,31.504,8857,675
1.85547,100.57468,-1392,56892,31.6534,8857,675
1.27328,97.401477,-1391,56893,31.6036,8857,675
1.88858,95.357465,-1390,56894,31.6036,8857,675
1.85547,93.122688,-1389,56895,31.7032,8857,675
1.08306,90.601339,-1388,56896,31.4543,8857,675
1.55638,88.5826,-1387,56897,31.6534,8857,675
0.98628,85.505875,-1386,56898,31.6534,8857,675
2.01324,81.475053,-1385,56899,31.504,8830,677
1.30655,77.977327,-1384,56900,31.4543,8830,677
1.59273,75.201753,-1383,56901,31.6036,8830,677
2.15066,72.079289,-1382,56902,31.4045,8830,677
1.49704,68.776412,-1381,56903,31.504,8830,677
1.64863,66.014988,-1380,56904,31.6534,8830,677
0.239208,63.417025,-1379,56905,31.6036,8830,677
1.06082,60.461291,-1378,56906,31.7032,8830,677
1.40163,57.498227,-1377,56907,31.6534,8830,677
1.67446,54.881976,-1376,56908,31.6036,8830,677
1.06082,51.528278,-1375,56909,31.504,8807,679
0.683594,47.65857,-1374,56910,31.4045,8807,679
0.768946,43.2496,-1373,56911,31.6534,8807,679
1.22752,38.613022,-1372,56912,31.6534,8807,679
1.38452,34.411273,-1371,56913,31.504,8807,679
1.62826,29.576808,-1370,56914,31.6534,8807,679
1.49066,24.345607,-1369,56915,31.6534,8807,679
1.82437,20.000914,-1368,56916,31.6036,8807,679
1.06082,17.444527,-1367,56917,31.6534,8807,679
2.15951,16.007044,-1366,56918,31.6036,8807,679
1.00068,14.491962,-1365,56919,31.504,8791,677
1.0381,14.051348,-1364,56920,31.6534,8791,677
1.63993,15.270991,-1363,56921,31.6534,8791,677
1.39481,17.590413,-1362,56922,31.6534,8791,677
1.61945,20.518346,-1361,56923,31.504,8791,677
1.76323,23.984875,-1360,56924,31.6534,8791,677
1.28817,27.607059,-1359,56925,31.4543,8791,677
1.39822,31.108776,-1358,56926,31.504,8791,677
0.811194,34.954126,-1357,56927,31.6036,8791,677
2.41193,39.087669,-1356,56928,31.6534,8791,677
0.632885,43.608498,-1355,56929,31.4543,8788,678
1.38452,47.799374,-1354,56930,31.6534,8788,678
1.77132,50.885753,-1353,56931,31.6534,8788,678
1.92856,53.968471,-1352,56932,31.6534,8788,678
1.34255,57.386681,-1351,56933,31.7032,8788,678
1.90867,60.451432,-1350,56934,31.6534,8788,678
1.39139,63.030022,-1349,56935,31.7032,8788,678
2.64033,65.396656,-1348,56936,31.504,8788,678
1.15135,67.311456,-1347,56937,31.8027,8788,678
1.34255,68.555061,-1346,56938,31.6036,8788,678
1.00543,69.684188,-1345,56939,31.4045,8787,680
0.768946,70.760676,-1344,56940,31.6534,8787,680
1.7551,71.560278,-1343,56941,31.6036,8787,680
1.42859,71.865002,-1342,56942,31.6534,8787,680
1.45505,72.117112,-1341,56943,31.6534,8787,680
1.43525,72.875465,-1340,56944,31.3049,8787,680
1.42859,73.531128,-1339,56945,31.7032,8787,680
2.47246,74.144527,-1338,56946,31.6534,8787,680
2.31715,75.700721,-1337,56947,31.504,8787,680
1.01016,77.092984,-1336,56948,31.504,8787,680
1.37415,78.212117,-1335,56949,31.6534,8792,679
1.41517,79.033151,-1334,56950,31.504,8792,679
2.19672,80.219516,-1333,56951,31.8027,8792,679
2.05311,81.596129,-1332,56952,31.7032,8792,679
0.921287,81.778819,-1331,56953,31.4543,8792,679
2.02269,80.961335,-1330,56954,31.6036,8792,679
1.52856,79.714531,-1329,56955,31.6534,8792,679
1.61945,78.084745,-1328,56956,31.4045,8792,679
2.02269,75.490595,-1327,56957,31.504,8792,679
1.27702,71.995514,-1326,56958,31.6036,8792,679
1.66589,68.468388,-1325,56959,31.504,8808,682
1.13045,65.411238,-1324,56960,31.4045,8808,682
1.5807,62.940239,-1323,56961,31.4543,8808,682
2.36401,60.902933,-1322,56962,31.6534,8808,682
1.92608,58.503909,-1321,56963,31.504,8808,682
1.77401,56.834055,-1320,56964,31.6534,8808,682
2.30684,56.508667,-1319,56965,31.504,8808,682
0.905627,56.589432,-1318,56966,31.6036,8808,682
2.03444,56.496008,-1317,56967,31.6036,8808,682
1.12198,57.10934,-1316,56968,31.6534,8808,682
0.878906,58.06763,-1315,56969,31.8525,8827,678
1.61945,58.75806,-1314,56970,31.8027,8827,678
2.06237,59.838489,-1313,56971,31.7032,8827,678
0.811194,62.01244,-1312,56972,31.6036,8827,678
1.22363,64.042605,-1311,56973,31.7032,8827,678
1.47458,65.483413,-1310,56974,31.6534,8827,678
1.57769,67.728015,-1309,56975,31.6534,8827,678
1.25442,70.10716,-1308,56976,31.6534,8827,678
1.3637,72.865445,-1307,56977,31.4543,8827,678
1.70549,74.937552,-1306,56978,31.6534,8827,678
0.662337,77.428382,-1305,56979,31.6534,8857,679
3.16442,80.012318,-1304,56980,31.6534,8857,679
0.76272,82.475188,-1303,56981,31.4543,8857,679
1.26577,85.496029,-1302,56982,31.6036,8857,679
1.98701,88.979294,-1301,56983,31.7032,8857,679
2.27981,91.403687,-1300,56984,31.4045,8857,679
1.56555,93.314989,-1299,56985,31.4543,8857,679
2.11037,96.47525,-1298,56986,31.504,8857,679
1.64863,99.773347,-1297,56987,31.6534,8857,679
2.35593,103.07672,-1296,56988,31.8027,8857,679
1.58673,106.69392,-1295,56989,31.6534,8892,675
2.15287,109.01132,-1294,56990,31.6036,8892,675
1.79007,111.37342,-1293,56991,31.504,8892,675
1.28447,114.60589,-1292,56992,31.6036,8892,675
1.49704,117.14795,-1291,56993,31.504,8892,675
1.60168,119.16551,-1290,56994,31.6534,8892,675
1.48103,122.35002,-1289,56995,31.7032,8892,675
2.0785,122.79922,-1288,56996,31.4045,8892,675
1.84774,128.63419,-1287,56997,31.6036,8892,675
1.56555,133.01906,-1286,56998,31.6534,8892,675
2.5819,132.59792,-1285,56999,31.6534,8929,673
1.59273,133.69419,-1284,57000,31.8027,8929,673
1.94824,140.04955,-1283,57001,31.6534,8929,673
1.77132,145.25049,-1282,57002,31.7032,8929,673
1.99897,147.86001,-1281,57003,31.6036,8929,673
2.31303,153.922,-1280,57004,31.6036,8929,673
2.41983,168.57451,-1279,57005,31.6534,8929,673
2.37206,180.88024,-1278,57006,31.504,8929,673
1.66589,175.85638,-1277,57007,31.504,8929,673
2.47246,162.82414,-1276,57008,31.6534,8929,673
2.30684,163.11874,-1275,57009,31.7032,8967,672
2.74308,177.36279,-1274,57010,31.4543,8967,672
1.44518,183.63765,-1273,57011,31.6534,8967,672
2.01087,178.49489,-1272,57012,31.4543,8967,672
1.76323,174.9156,-1271,57013,31.6534,8967,672
2.0739,179.49998,-1270,57014,31.504,8967,672
1.27328,187.28964,-1269,57015,31.504,8967,672
1.23912,189.77985,-1268,57016,31.6036,8967,672
1.46484,188.65109,-1267,57017,31.7032,8967,672
1.45176,189.61257,-1266,57018,31.6534,8967,672
1.15135,194.24026,-1265,57019,31.504,8995,672
1.53789,200.9693,-1264,57020,31.6036,8995,672
1.86827,203.82588,-1263,57021,31.6534,8995,672
1.58673,200.9822,-1262,57022,31.4045,8995,672
1.96529,199.17166,-1261,57023,31.4543,8995,672
2.24609,204.05052,-1260,57024,31.504,8995,672
1.60168,213.20379,-1259,57025,31.7032,8995,672
2.18584,210.97879,-1258,57026,31.8027,8995,672
1.86827,193.55625,-1257,57027,31.504,8995,672
1.02423,193.9753,-1256,57028,31.6534,8995,672
1.4219,209.42108,-1255,57029,31.4045,8995,669
2.25034,213.47927,-1254,57030,31.6534,8995,669
2.06237,207.61465,-1253,57031,31.6036,8995,669
1.01487,206.32288,-1252,57032,31.6534,8995,669
2.06237,208.75669,-1251,57033,31.6036,8995,669
2.06237,211.89926,-1250,57034,31.6534,8995,669
1.88099,218.08267,-1249,57035,31.7032,8995,669
1.15135,225.13198,-1248,57036,31.4045,8995,669
1.82698,227.20948,-1247,57037,31.6534,8995,669
1.67161,227.41607,-1246,57038,31.7032,8995,669
1.74966,230.42332,-1245,57039,31.6036,9000,666
1.59273,231.66607,-1244,57040,31.6036,9000,666
1.00068,234.2681,-1243,57041,31.4045,9000,666
1.86316,240.83835,-1242,57042,31.6534,9000,666
0.750112,243.13645,-1241,57043,31.6534,9000,666
1.42859,236.7665,-1240,57044,31.6534,9000,666
1.58973,226.64818,-1239,57045,31.504,9000,666
1.00068,223.11688,-1238,57046,31.7032,9000,666
1.83479,222.34041,-1237,57047,31.4543,9000,666
1.85804,220.34709,-1236,57048,31.504,9000,666
1.57769,226.57477,-1235,57049,31.6534,8975,666
1.64863,239.94993,-1234,57050,31.6036,8975,666
1.52856,245.479,-1233,57051,31.6534,8975,666
1.28817,238.22437,-1232,57052,31.7032,8975,666
0.569429,231.96787,-1231,57053,31.4045,8975,666
0.632885,234.23502,-1230,57054,31.4045,8975,666
1.63993,238.66085,-1229,57055,31.504,8975,666
1.62532,236.60776,-1228,57056,31.4045,8975,666
1.19604,224.36487,-1227,57057,31.504,8975,666
0.840071,209.4569,-1226,57058,31.8027,8975,666
0.447517,201.1029,-1225,57059,31.504,8918,668
0.717624,204.88483,-1224,57060,31.6534,8918,668
0.447517,223.36009,-1223,57061,31.8027,8918,668
0.926449,250.29204,-1222,57062,31.504,8918,668
0.966748,265.5816,-1221,57063,31.4543,8918,668
0.365396,258.26472,-1220,57064,31.7032,8918,668
0.425674,243.08343,-1219,57065,31.6534,8918,668
2.38009,237.04141,-1218,57066,31.6036,8918,668
0.690534,238.19196,-1217,57067,31.6534,8918,668
1.74966,235.1848,-1216,57068,31.6534,8918,668
0.966748,224.09586,-1215,57069,31.504,8839,663
1.69427,219.54817,-1214,57070,31.6036,8839,663
1.68581,220.78352,-1213,57071,31.4045,8839,663
1.11773,212.74464,-1212,57072,31.7032,8839,663
1.1472,204.18306,-1211,57073,31.4045,8839,663
0.961803,207.74983,-1210,57074,31.6534,8839,663
0.577742,212.67332,-1209,57075,31.6534,8839,663
1.01016,203.20311,-1208,57076,31.6036,8839,663
0.655098,189.91979,-1207,57077,31.6036,8839,663
0.845728,191.02136,-1206,57078,31.6534,8839,663
0.971667,207.38431,-1205,57079,31.6534,8774,671
0.768946,213.71932,-1204,57080,31.504,8774,671
1.79273,200.3118,-1203,57081,31.8027,8774,671
1.25821,185.19591,-1202,57082,31.6036,8774,671
0.717624,184.27871,-1201,57083,31.4045,8774,671
1.25442,188.07205,-1200,57084,31.504,8774,671
0.971667,191.59133,-1199,57085,31.6534,8774,671
0.425674,184.27091,-1198,57086,31.6036,8774,671
1.59273,157.62416,-1197,57087,31.504,8774,671
1.58673,144.96414,-1196,57088,31.6036,8774,671
1.43857,155.61102,-1195,57089,31.504,8728,667
0.690534,161.93514,-1194,57090,31.504,8728,667
0.921287,155.22545,-1193,57091,31.504,8728,667
1.21581,149.3595,-1192,57092,31.6036,8728,667
1.00068,153.68381,-1191,57093,31.6534,8728,667
1.21581,169.96445,-1190,57094,31.6534,8728,667
1.29923,181.98497,-1189,57095,31.7032,8728,667
1.46158,176.77012,-1188,57096,31.6534,8728,667
1.26577,168.25372,-1187,57097,31.8027,8728,667
1.80334,170.11561,-1186,57098,31.4543,8728,667
1.5807,170.33927,-1185,57099,31.4045,8710,668
1.07865,157.29038,-1184,57100,31.7032,8710,668
1.52856,148.28991,-1183,57101,31.4543,8710,668
1.48103,147.33937,-1182,57102,31.6534,8710,668
0.878906,144.96285,-1181,57103,31.7032,8710,668
0.961803,146.72963,-1180,57104,31.6534,8710,668
1.57769,153.60511,-1179,57105,31.6534,8710,668
1.19205,150.37249,-1178,57106,31.8027,8710,668
0.895034,149.07729,-1177,57107,31.6534,8710,668
0.560992,162.22727,-1176,57108,31.4543,8710,668
1.38452,174.27007,-1175,57109,31.504,8693,670
1.02423,171.59947,-1174,57110,31.6534,8693,670
1.36019,165.53909,-1173,57111,31.6534,8693,670
1.53168,176.23254,-1172,57112,31.6036,8693,670
0.889691,187.12782,-1171,57113,31.6534,8693,670
0.85693,184.10356,-1170,57114,31.4543,8693,670
1.4118,175.38977,-1169,57115,31.8027,8693,670
0.793363,171.91995,-1168,57116,31.6036,8693,670
0.447517,174.44296,-1167,57117,31.6534,8693,670
1.20399,180.98001,-1166,57118,31.504,8693,670
1.19205,181.4913,-1165,57119,31.6534,8687,670
1.79539,177.51047,-1164,57120,31.6534,8687,670
1.74966,174.91096,-1163,57121,31.6036,8687,670
1.10916,176.83207,-1162,57122,31.6036,8687,670
1.37067,177.30615,-1161,57123,31.6534,8687,670
0.862477,178.73908,-1160,57124,31.4543,8687,670
1.76323,181.24544,-1159,57125,31.6036,8687,670
1.79539,181.27857,-1158,57126,31.4045,8687,670
1.09183,181.57502,-1157,57127,31.6534,8687,670
1.23912,186.17151,-1156,57128,31.4543,8687,670
1.94088,188.14853,-1155,57129,31.504,8690,671
1.3029,189.26533,-1154,57130,31.3049,8690,671
0.862477,190.03372,-1153,57131,31.6534,8690,671
1.61945,191.67612,-1152,57132,31.6534,8690,671
2.26091,196.13193,-1151,57133,31.6534,8690,671
1.20399,198.37331,-1150,57134,31.504,8690,671
1.36019,196.84102,-1149,57135,31.4543,8690,671
2.33764,194.50417,-1148,57136,31.4045,8690,671
1.28817,198.22324,-1147,57137,31.6534,8690,671
2.06006,203.32133,-1146,57138,31.504,8690,671
0.961803,204.31004,-1145,57139,31.6534,8700,674
1.71664,212.50404,-1144,57140,31.6534,8700,674
0.895034,215.9536,-1143,57141,31.8525,8700,674
1.67161,212.52897,-1142,57142,31.6534,8700,674
1.09619,211.1135,-1141,57143,31.504,8700,674
0.447517,215.19421,-1140,57144,31.6036,8700,674
2.53154,216.79395,-1139,57145,31.6036,8700,674
1.53168,211.88333,-1138,57146,31.4045,8700,674
1.21581,206.5245,-1137,57147,31.7032,8700,674
1.11345,205.21298,-1136,57148,31.4543,8700,674
1.21581,209.93159,-1135,57149,31.504,8709,678
1.05179,210.88342,-1134,57150,31.504,8709,678
1.4118,204.0078,-1133,57151,31.7032,8709,678
0.956832,199.65412,-1132,57152,31.7032,8709,678
1.44518,201.8077,-1131,57153,31.6534,8709,678
1.31745,207.26065,-1130,57154,31.6534,8709,678
1.68298,211.05067,-1129,57155,31.6534,8709,678
0.981433,213.43843,-1128,57156,31.6036,8709,678
0.560992,216.88879,-1127,57157,31.8525,8709,678
1.4681,219.60697,-1126,57158,31.4543,8709,678
0.76272,219.86422,-1125,57159,31.8525,8723,685
0.737289,219.68862,-1124,57160,31.6036,8723,685
2.0716,220.03647,-1123,57161,31.4543,8723,685
0.845728,219.18693,-1122,57162,31.6534,8723,685
1.47781,216.77436,-1121,57163,31.6534,8723,685
0.85693,214.13071,-1120,57164,31.504,8723,685
0.834375,212.94161,-1119,57165,31.4045,8723,685
1.61355,210.92454,-1118,57166,31.7032,8723,685
1.94824,204.98154,-1117,57167,31.504,8723,685
0.577742,198.6024,-1116,57168,31.6534,8723,685
1.54408,197.43589,-1115,57169,31.6036,8733,686
0.995902,200.81494,-1114,57170,31.6534,8733,686
1.09619,203.14341,-1113,57171,31.4543,8733,686
0.365396,201.21665,-1112,57172,31.504,8733,686
0.805294,200.6879,-1111,57173,31.6534,8733,686
0.717624,203.69399,-1110,57174,31.6534,8733,686
0.59402,204.33673,-1109,57175,31.7032,8733,686
1.00543,202.30918,-1108,57176,31.4543,8733,686
2.32332,201.257,-1107,57177,31.6534,8733,686
1.12198,195.51435,-1106,57178,31.4543,8733,686
1.12198,180.85985,-1105,57179,31.504,8731,697
0.662337,168.67856,-1104,57180,31.6534,8731,697
1.25821,176.37952,-1103,57181,31.504,8731,697
0.292969,185.92371,-1102,57182,31.3049,8731,697
0.921287,183.53672,-1101,57183,31.504,8731,697
1.37415,170.42778,-1100,57184,31.504,8731,697
0.632885,163.08804,-1099,57185,31.6036,8731,697
1.0381,165.04245,-1098,57186,31.504,8731,697
1.27702,160.03376,-1097,57187,31.4543,8731,697
0.946812,156.15017,-1096,57188,31.6534,8731,697
0.0976563,182.8035,-1095,57189,31.7032,8726,692
1.22363,183.62954,-1094,57190,31.7032,8726,692
0.941763,146.48722,-1093,57191,31.4543,8726,692
1.1472,154.27621,-1092,57192,31.504,8726,692
1.42525,146.99704,-1091,57193,31.504,8726,692
1.00543,100.52525,-1090,57194,31.504,8726,692
1.04268,83.07313,-1089,57195,31.4045,8726,692
1.32467,121.72351,-1088,57196,31.6534,8726,692
0.793363,163.44823,-1087,57197,31.504,8726,692
0.750112,167.80957,-1086,57198,31.6534,8726,692
0.697405,151.84041,-1085,57199,31.6534,8724,700
1.27702,136.43191,-1084,57200,31.7032,8724,700
0.793363,136.83619,-1083,57201,31.7032,8724,700
1.07422,161.76062,-1082,57202,31.504,8724,700
1.77132,194.19518,-1081,57203,31.504,8724,700
1.47781,212.73297,-1080,57204,31.504,8724,700
0.98628,172.59555,-1079,57205,31.6534,8724,700
1.22752,91.39953,-1078,57206,31.8525,8724,700
0.793363,51.492985,-1077,57207,31.6534,8724,700
1.37415,42.667198,-1076,57208,31.4045,8724,700
1.18402,35.293734,-1075,57209,31.6534,8715,701
0.981433,34.273075,-1074,57210,31.7032,8715,701
1.28817,49.193882,-1073,57211,31.4045,8715,701
0.640375,74.856975,-1072,57212,31.504,8715,701
1.41854,101.19599,-1071,57213,31.6036,8715,701
1.51603,121.59539,-1070,57214,31.6534,8715,701
0.768946,136.94118,-1069,57215,31.6036,8715,701
1.26953,157.27626,-1068,57216,31.6534,8715,701
0.662337,175.09041,-1067,57217,31.4543,8715,701
0.981433,191.46249,-1066,57218,31.6036,8715,701
1.09619,206.16375,-1065,57219,31.6036,8712,699
0.78733,215.44511,-1064,57220,31.6036,8712,699
0.811194,212.02007,-1063,57221,31.504,8712,699
0.717624,196.47758,-1062,57222,31.6534,8712,699
1.19205,174.59699,-1061,57223,31.4045,8712,699
0.525895,141.58346,-1060,57224,31.7032,8712,699
1.43525,103.55808,-1059,57225,31.6036,8712,699
1.97256,76.733791,-1058,57226,31.504,8712,699
1.36019,60.203935,-1057,57227,31.6534,8712,699
1.5034,62.758626,-1056,57228,31.6534,8712,699
1.45505,85.971739,-1055,57229,31.6534,8707,696
2.25668,107.95033,-1054,57230,31.4045,8707,696
1.81125,109.5534,-1053,57231,31.8027,8707,696
1.89362,87.590106,-1052,57232,31.6534,8707,696
2.06237,55.57659,-1051,57233,31.6036,8707,696
2.06237,46.37451,-1050,57234,31.6534,8707,696
1.91864,64.494726,-1049,57235,31.8027,8707,696
1.07422,75.77342,-1048,57236,31.6534,8707,696
1.0381,60.258486,-1047,57237,31.6036,8707,696
1.61945,42.636978,-1046,57238,31.6534,8707,696
1.94088,48.407305,-1045,57239,31.7032,8697,695
2.23118,79.24291,-1044,57240,31.504,8697,695
1.17998,111.29091,-1043,57241,31.4543,8697,695
1.7551,106.54871,-1042,57242,31.6534,8697,695
1.958,101.4698,-1041,57243,31.6534,8697,695
1.47134,112.47228,-1040,57244,31.6036,8697,695
2.44921,112.22352,-1039,57245,31.6534,8697,695
2.09677,131.98669,-1038,57246,31.4543,8697,695
2.17052,141.83021,-1037,57247,31.6036,8697,695
1.60466,130.20829,-1036,57248,31.6534,8697,695
1.07422,122.91195,-1035,57249,31.8027,8690,690
1.40163,134.94077,-1034,57250,31.6534,8690,690
1.3029,149.74649,-1033,57251,31.7032,8690,690
1.60168,151.99239,-1032,57252,31.7032,8690,690
1.21188,153.30233,-1031,57253,31.6534,8690,690
1.20794,157.76359,-1030,57254,31.6534,8690,690
1.09619,163.35804,-1029,57255,31.504,8690,690
1.69427,176.72232,-1028,57256,31.7032,8690,690
1.37415,195.36235,-1027,57257,31.6534,8690,690
1.59572,209.00188,-1026,57258,31.7032,8690,690
1.28817,211.66601,-1025,57259,31.4543,8685,689
1.56859,206.32887,-1024,57260,31.6534,8685,689
1.96529,203.57526,-1023,57261,31.504,8685,689
1.73047,205.55104,-1022,57262,31.8027,8685,689
1.67161,201.38886,-1021,57263,31.4045,8685,689
2.0739,192.97382,-1020,57264,31.4543,8685,689
2.13284,193.0949,-1019,57265,31.504,8685,689
2.32332,201.95643,-1018,57266,31.8027,8685,689
1.94333,208.96676,-1017,57267,31.504,8685,689
0.525895,210.52883,-1016,57268,31.6534,8685,689
2.02033,214.39123,-1015,57269,31.4543,8684,693
1.82437,224.94074,-1014,57270,31.6534,8684,693
1.65152,235.5513,-1013,57271,31.4045,8684,693
1.3637,240.63985,-1012,57272,31.6036,8684,693
1.39139,245.87088,-1011,57273,31.6534,8684,693
1.15548,255.09416,-1010,57274,31.6534,8684,693
0.811194,262.44859,-1009,57275,31.6534,8684,693
0.76272,263.49317,-1008,57276,31.504,8684,693
2.15287,261.7781,-1007,57277,31.6534,8684,693
1.04268,259.32326,-1006,57278,31.6534,8684,693
2.08079,257.57802,-1005,57279,31.504,8687,707
1.73872,257.43402,-1004,57280,31.6534,8687,707
0.507437,258.10009,-1003,57281,31.504,8687,707
1.19205,256.45697,-1002,57282,31.6036,8687,707
1.77401,252.70339,-1001,57283,31.4543,8687,707
1.6165,252.13962,-1000,57284,31.504,8687,707
1.71664,253.606,-999,57285,31.4543,8687,707
0.59402,254.22982,-998,57286,31.504,8687,707
1.80598,253.14699,-997,57287,31.6534,8687,707
1.17594,252.44126,-996,57288,31.6534,8687,707
1.02423,252.05581,-995,57289,31.6534,8690,722
0.895034,250.39177,-994,57290,31.504,8690,722
1.00543,250.80165,-993,57291,31.8027,8690,722
1.39139,254.50305,-992,57292,31.6534,8690,722
1.1596,251.56698,-991,57293,31.4543,8690,722
1.04268,243.78817,-990,57294,31.8027,8690,722
1.4118,239.03035,-989,57295,31.4045,8690,722
0.98628,236.38975,-988,57296,31.4045,8690,722
0.710948,231.08194,-987,57297,31.504,8690,722
0.497951,220.86419,-986,57298,31.6036,8690,722
0.941763,210.07375,-985,57299,31.504,8672,733
1.17998,203.49711,-984,57300,31.6036,8672,733
1.71664,199.70811,-983,57301,31.6534,8672,733
0.840071,193.39609,-982,57302,31.6534,8672,733
0.921287,187.21965,-981,57303,31.7032,8672,733
0.447517,182.91091,-980,57304,31.6534,8672,733
0.662337,177.11435,-979,57305,31.4543,8672,733
0.458048,168.80793,-978,57306,31.4045,8672,733
0.750112,160.24954,-977,57307,31.6036,8672,733
0.365396,153.3707,-976,57308,31.6534,8672,733
0.799351,147.40717,-975,57309,31.6534,8656,748
1.11773,141.3561,-974,57310,31.7032,8656,748
0.497951,136.21614,-973,57311,31.6534,8656,748
0.662337,133.55837,-972,57312,31.7032,8656,748
0.447517,130.64752,-971,57313,31.6534,8656,748
0.805294,122.8934,-970,57314,31.6534,8656,748
0.889691,112.10322,-969,57315,31.6036,8656,748
1.00068,102.22469,-968,57316,31.4543,8656,748
0.507437,94.374642,-967,57317,31.6534,8656,748
0.905627,87.950792,-966,57318,31.8027,8656,748
0.497951,85.958045,-965,57319,31.6036,8645,755
0.768946,86.955371,-964,57320,31.504,8645,755
0.534885,86.51608,-963,57321,31.6534,8645,755
1.07422,85.613333,-962,57322,31.6534,8645,755
0.292969,85.127481,-961,57323,31.504,8645,755
0.497951,84.589882,-960,57324,31.6534,8645,755
1.22363,80.769693,-959,57325,31.6534,8645,755
0.625305,76.251453,-958,57326,31.6534,8645,755
1.65152,87.703761,-957,57327,31.6534,8645,755
0.811194,97.841469,-956,57328,31.6534,8645,755
0.601994,92.703542,-955,57329,31.4045,8641,758
0.41432,84.000963,-954,57330,31.6036,8641,758
0.647778,83.859551,-953,57331,31.6534,8641,758
1.10916,92.850101,-952,57332,31.504,8641,758
0.717624,101.44998,-951,57333,31.6534,8641,758
0.577742,101.42398,-950,57334,31.6036,8641,758
0.971667,100.04316,-949,57335,31.504,8641,758
1.00543,99.436516,-948,57336,31.6534,8641,758
0.447517,95.249033,-947,57337,31.6534,8641,758
1.15135,86.773448,-946,57338,31.7032,8641,758
1.23912,77.172095,-945,57339,31.6534,8650,755
1.36019,71.911952,-944,57340,31.6534,8650,755
1.40163,68.673095,-943,57341,31.6534,8650,755
1.13045,69.192012,-942,57342,31.8027,8650,755
0.750112,72.069882,-941,57343,31.8027,8650,755
0.617632,75.510233,-940,57344,31.6534,8650,755
0.59402,82.396466,-939,57345,31.7032,8650,755
1.11773,91.573972,-938,57346,31.7032,8650,755
1.52231,100.78322,-937,57347,31.6534,8650,755
0.845728,111.536,-936,57348,31.4543,8650,755
1.49066,124.15331,-935,57349,31.7032,8667,755
1.59273,135.76425,-934,57350,31.7032,8667,755
1.87846,146.04436,-933,57351,31.4543,8667,755
1.80334,157.83262,-932,57352,31.504,8667,755
0.981433,167.75046,-931,57353,31.4543,8667,755
2.13284,172.50803,-930,57354,31.7032,8667,755
0.737289,174.0551,-929,57355,31.6534,8667,755
1.05631,173.36748,-928,57356,31.6534,8667,755
1.38107,170.54398,-927,57357,31.8027,8667,755
1.64863,165.38009,-926,57358,31.6534,8667,755
1.66303,159.90321,-925,57359,31.4543,8667,745
1.5034,156.2024,-924,57360,31.4045,8667,745
1.67161,152.57446,-923,57361,31.8027,8667,745
2.28816,148.32246,-922,57362,31.6534,8667,745
1.00543,144.37131,-921,57363,31.6036,8667,745
1.56555,144.07483,-920,57364,31.6036,8667,745
1.40163,148.15942,-919,57365,31.504,8667,745
1.44188,146.16558,-918,57366,31.6036,8667,745
1.27702,136.47881,-917,57367,31.7032,8667,745
1.77132,128.75508,-916,57368,31.6534,8667,745
1.77132,128.07346,-915,57369,31.6534,8675,730
1.62239,127.74493,-914,57370,31.6534,8675,730
1.01487,118.12856,-913,57371,31.6036,8675,730
1.66875,101.59778,-912,57372,31.6036,8675,730
3.05556,88.810662,-911,57373,31.6036,8675,730
1.69427,87.507302,-910,57374,31.504,8675,730
1.70549,91.987412,-909,57375,31.504,8675,730
2.8236,90.420489,-908,57376,31.7032,8675,730
1.09619,82.995156,-907,57377,31.6534,8675,730
2.0156,80.240504,-906,57378,31.504,8675,730
1.68581,89.475707,-905,57379,31.6534,8671,726
1.93842,101.69197,-904,57380,31.6534,8671,726
2.18148,106.66808,-903,57381,31.4543,8671,726
1.48103,106.17374,-902,57382,31.6534,8671,726
0.78733,107.02003,-901,57383,31.6036,8671,726
0.85693,110.08042,-900,57384,31.6534,8671,726
1.05631,116.24491,-899,57385,31.6534,8671,726
1.49385,130.68236,-898,57386,31.6534,8671,726
1.21188,137.29633,-897,57387,31.6036,8671,726
1.93596,132.83797,-896,57388,31.6534,8671,726
1.30655,133.82709,-895,57389,31.8027,8668,730
1.31383,143.40394,-894,57390,31.504,8668,730
2.08079,153.56203,-893,57391,31.6534,8668,730
1.15135,155.27603,-892,57392,31.4543,8668,730
0.98628,151.57781,-891,57393,31.6534,8668,730
1.83479,151.70595,-890,57394,31.4045,8668,730
1.22752,157.3581,-889,57395,31.6534,8668,730
2.03209,164.05819,-888,57396,31.6534,8668,730
0.981433,165.9073,-887,57397,31.6534,8668,730
1.47134,164.3916,-886,57398,31.6534,8668,730
1.33185,164.14059,-885,57399,31.504,8672,739
2.16392,165.95696,-884,57400,31.6534,8672,739
1.56859,169.79419,-883,57401,31.6036,8672,739
0.862477,173.15569,-882,57402,31.7032,8672,739
0.525895,170.72261,-881,57403,31.6534,8672,739
0.717624,166.07705,-880,57404,31.6534,8672,739
0.577742,165.31201,-879,57405,31.4543,8672,739
1.70549,167.24172,-878,57406,31.4543,8672,739
0.851347,167.1098,-877,57407,31.4045,8672,739
0.750112,163.70089,-876,57408,31.6534,8672,739
1.01016,159.7476,-875,57409,31.504,8675,754
1.5034,157.07186,-874,57410,31.6036,8675,754
0.828641,155.64625,-873,57411,31.504,8675,754
1.73323,153.5002,-872,57412,31.6534,8675,754
0.730792,149.45161,-871,57413,31.6534,8675,754
0.905627,143.70963,-870,57414,31.4543,8675,754
1.19604,138.35021,-869,57415,31.7032,8675,754
0.239208,136.1791,-868,57416,31.504,8675,754
1.01487,132.89556,-867,57417,31.4543,8675,754
1.6165,126.45412,-866,57418,31.6036,8675,754
0.218366,119.74401,-865,57419,31.8027,8678,765
1.4118,115.99057,-864,57420,31.8027,8678,765
0.717624,113.82643,-863,57421,31.6036,8678,765
0.851347,110.2201,-862,57422,31.4045,8678,765
0.436732,104.81476,-861,57423,31.4045,8678,765
0.737289,98.578561,-860,57424,31.6036,8678,765
1.42525,93.698885,-859,57425,31.4045,8678,765
1.64283,90.77395,-858,57426,31.6534,8678,765
1.00068,87.826175,-857,57427,31.6036,8678,765
1.19205,83.130958,-856,57428,31.6036,8678,765
1.17998,77.666271,-855,57429,31.4045,8673,774
0.601994,74.559584,-854,57430,31.7032,8673,774
0.697405,76.815987,-853,57431,31.6036,8673,774
0.981433,83.906448,-852,57432,31.4543,8673,774
0.884315,88.937669,-851,57433,31.6534,8673,774
0.601994,88.06838,-850,57434,31.504,8673,774
1.4118,84.327617,-849,57435,31.7032,8673,774
0.98628,81.623061,-848,57436,31.4543,8673,774
1.10916,79.974876,-847,57437,31.6036,8673,774
1.24296,79.09186,-846,57438,31.6534,8673,774
0.625305,79.132168,-845,57439,31.6534,8667,781
1.39822,76.786593,-844,57440,31.6534,8667,781
0.292969,74.270632,-843,57441,31.4543,8667,781
0.845728,76.201604,-842,57442,31.504,8667,781
0.926449,80.005985,-841,57443,31.504,8667,781
1.16371,80.771999,-840,57444,31.504,8667,781
1.52856,80.979186,-839,57445,31.7032,8667,781
0.402647,82.671888,-838,57446,31.6036,8667,781
0.323889,76.803183,-837,57447,31.7032,8667,781
0.995902,66.170442,-836,57448,31.6534,8667,781
0.817051,61.680427,-835,57449,31.6534,8671,780
1.04725,64.116204,-834,57450,31.4543,8671,780
0.817051,68.588309,-833,57451,31.504,8671,780
0.218366,73.720868,-832,57452,31.6534,8671,780
0.697405,81.272247,-831,57453,31.4045,8671,780
0.560992,87.348111,-830,57454,31.6036,8671,780
1.45505,90.420242,-829,57455,31.6534,8671,780
1.54099,90.035772,-828,57456,31.4045,8671,780
0.447517,88.219092,-827,57457,31.6534,8671,780
1.55638,86.644988,-826,57458,31.4045,8671,780
0.690534,84.884258,-825,57459,31.6534,8676,784
0.921287,81.756859,-824,57460,31.6534,8676,784
1.3102,79.345609,-823,57461,31.6534,8676,784
0.138107,78.492445,-822,57462,31.6036,8676,784
1.25061,78.844004,-821,57463,31.504,8676,784
1.28447,79.814664,-820,57464,31.504,8676,784
1.19205,81.968192,-819,57465,31.7032,8676,784
1.60168,84.218962,-818,57466,31.6534,8676,784
1.05179,81.453194,-817,57467,31.504,8676,784
1.02423,73.880378,-816,57468,31.504,8676,784
1.27328,65.728034,-815,57469,31.4543,8681,782
1.3029,59.317003,-814,57470,31.6534,8681,782
0.402647,54.551774,-813,57471,31.4543,8681,782
0.710948,52.061808,-812,57472,31.6534,8681,782
0.308816,51.876436,-811,57473,31.8027,8681,782
0.905627,51.482277,-810,57474,31.4543,8681,782
0.292969,50.227447,-809,57475,31.504,8681,782
1.09619,47.855766,-808,57476,31.6534,8681,782
1.13045,43.581837,-807,57477,31.7032,8681,782
0.577742,38.836781,-806,57478,31.4045,8681,782
0.601994,34.432917,-805,57479,31.504,8683,781
0.617632,31.398658,-804,57480,31.6534,8683,781
1.81651,29.578823,-803,57481,31.6534,8683,781
1.95556,27.788362,-802,57482,31.6534,8683,781
0.323889,24.879295,-801,57483,31.504,8683,781
1.93596,22.599827,-800,57484,31.504,8683,781
0.507437,22.891032,-799,57485,31.6534,8683,781
0.478416,23.32725,-798,57486,31.4543,8683,781
1.23912,22.475528,-797,57487,31.4045,8683,781
0.85693,22.675526,-796,57488,31.6534,8683,781
0.834375,23.723447,-795,57489,31.504,8678,782
1.49066,24.64037,-794,57490,31.6036,8678,782
1.11773,25.318631,-793,57491,31.7032,8678,782
1.26577,24.429012,-792,57492,31.6534,8678,782
1.17998,26.702166,-791,57493,31.504,8678,782
0.497951,33.531139,-790,57494,31.6036,8678,782
0.737289,36.163523,-789,57495,31.6036,8678,782
1.54408,35.273674,-788,57496,31.4045,8678,782
0.525895,35.734299,-787,57497,31.6534,8678,782
1.51603,39.66177,-786,57498,31.4045,8678,782
0.966748,42.273356,-785,57499,31.6534,8674,783
0.507437,42.83781,-784,57500,31.4045,8674,783
0.805294,44.405415,-783,57501,31.8027,8674,783
1.00068,44.714074,-782,57502,31.4045,8674,783
1.30655,41.761965,-781,57503,31.6036,8674,783
0.845728,40.210265,-780,57504,31.6534,8674,783
0.41432,39.972389,-779,57505,31.6534,8674,783
0.976563,39.046857,-778,57506,31.4045,8674,783
0.690534,37.171563,-777,57507,31.6036,8674,783
0.710948,33.864778,-776,57508,31.4045,8674,783
1.46158,36.099186,-775,57509,31.7032,8673,783
1.28447,45.889671,-774,57510,31.7032,8673,783
0.768946,47.413907,-773,57511,31.6534,8673,783
0.704209,44.182202,-772,57512,31.7032,8673,783
1.09619,43.884574,-771,57513,31.6036,8673,783
0.878906,45.498833,-770,57514,31.6036,8673,783
0.845728,50.766429,-769,57515,31.6534,8673,783
0.799351,47.603353,-768,57516,31.8027,8673,783
1.18402,39.7224,-767,57517,31.504,8673,783
1.83479,41.448039,-766,57518,31.6534,8673,783
0.625305,47.094625,-765,57519,31.6534,8677,786
1.10916,53.142102,-764,57520,31.3049,8677,786
1.46484,53.295121,-763,57521,31.504,8677,786
1.47134,49.220984,-762,57522,31.4045,8677,786
1.11773,50.383551,-761,57523,31.6534,8677,786
1.28447,51.361293,-760,57524,31.6036,8677,786
1.22752,57.445464,-759,57525,31.6534,8677,786
0.845728,60.838795,-758,57526,31.6036,8677,786
0.534885,55.749927,-757,57527,31.504,8677,786
1.45505,55.912068,-756,57528,31.4543,8677,786
0.926449,59.638938,-755,57529,31.4045,8695,781
1.78206,65.612765,-754,57530,31.6534,8695,781
1.32827,65.898525,-753,57531,31.4543,8695,781
1.5034,70.348942,-752,57532,31.4045,8695,781
0.625305,78.657529,-751,57533,31.6534,8695,781
0.750112,84.145591,-750,57534,31.504,8695,781
1.59273,85.908451,-749,57535,31.7032,8695,781
0.704209,87.800807,-748,57536,31.4045,8695,781
0.478416,88.52362,-747,57537,31.6534,8695,781
0.697405,86.112538,-746,57538,31.6036,8695,781
0.710948,84.09165,-745,57539,31.6534,8708,775
0.697405,80.383092,-744,57540,31.4543,8708,775
0.889691,75.929403,-743,57541,31.504,8708,775
1.4118,75.263946,-742,57542,31.7032,8708,775
1.22752,74.58546,-741,57543,31.4543,8708,775
1.36019,72.863809,-740,57544,31.6534,8708,775
1.73047,72.120934,-739,57545,31.504,8708,775
0.805294,73.191409,-738,57546,31.6036,8708,775
0.926449,75.926753,-737,57547,31.6534,8708,775
1.04725,78.785394,-736,57548,31.4543,8708,775
1.18402,81.629724,-735,57549,31.7032,8711,769
1.54717,86.449313,-734,57550,31.504,8711,769
1.1472,90.953033,-733,57551,31.4045,8711,769
1.11773,91.274398,-732,57552,31.504,8711,769
1.81125,89.23582,-731,57553,31.6534,8711,769
0.981433,88.680112,-730,57554,31.6534,8711,769
1.06082,90.161384,-729,57555,31.6534,8711,769
2.02504,90.387853,-728,57556,31.4543,8711,769
1.50657,88.685657,-727,57557,31.4543,8711,769
1.11773,86.256216,-726,57558,31.6534,8711,769
2.0156,83.517596,-725,57559,31.6534,8710,764
0.811194,81.940828,-724,57560,31.6534,8710,764
1.62239,81.697238,-723,57561,31.6534,8710,764
1.84516,81.70271,-722,57562,31.6534,8710,764
1.94824,83.133109,-721,57563,31.6534,8710,764
1.09619,85.728739,-720,57564,31.4543,8710,764
1.04268,88.167306,-719,57565,31.6036,8710,764
1.07865,88.686245,-718,57566,31.4543,8710,764
1.81388,88.30452,-717,57567,31.6534,8710,764
1.5034,90.087312,-716,57568,31.6036,8710,764
1.37067,94.171688,-715,57569,31.6534,8699,761
2.05078,99.529534,-714,57570,31.6036,8699,761
1.07422,103.44341,-713,57571,31.504,8699,761
1.40163,106.67863,-712,57572,31.6534,8699,761
2.37005,110.61645,-711,57573,31.3049,8699,761
1.28447,114.76726,-710,57574,31.7032,8699,761
1.20399,117.34589,-709,57575,31.504,8699,761
1.93596,117.42733,-708,57576,31.6534,8699,761
1.60168,118.77535,-707,57577,31.6534,8699,761
1.74146,123.29446,-706,57578,31.4543,8699,761
0.683594,125.22356,-705,57579,31.4543,8692,764
1.94579,123.45311,-704,57580,31.8027,8692,764
1.05179,124.89589,-703,57581,31.6534,8692,764
1.7767,131.25931,-702,57582,31.8027,8692,764
0.750112,136.31959,-701,57583,31.6534,8692,764
0.926449,137.47177,-700,57584,31.6036,8692,764
1.49066,138.67247,-699,57585,31.7032,8692,764
1.3029,140.29767,-698,57586,31.7032,8692,764
1.64863,141.16908,-697,57587,31.4543,8692,764
0.817051,144.44761,-696,57588,31.4543,8692,764
1.11773,149.99114,-695,57589,31.4543,8687,776
1.40163,161.92736,-694,57590,31.504,8687,776
1.54717,165.57599,-693,57591,31.8027,8687,776
0.625305,156.68532,-692,57592,31.6036,8687,776
1.48103,159.89119,-691,57593,31.8027,8687,776
1.27702,171.21174,-690,57594,31.504,8687,776
0.683594,178.9363,-689,57595,31.6534,8687,776
0.710948,177.5628,-688,57596,31.4045,8687,776
1.40163,172.28031,-687,57597,31.6036,8687,776
0.851347,173.03117,-686,57598,31.504,8687,776
1.25061,178.18198,-685,57599,31.6534,8690,789
1.23912,179.53489,-684,57600,31.6036,8690,789
1.96287,178.53087,-683,57601,31.4045,8690,789
1.42859,180.68691,-682,57602,31.6534,8690,789
0.710948,184.41322,-681,57603,31.6534,8690,789
1.60466,186.43894,-680,57604,31.6534,8690,789
1.958,184.56373,-679,57605,31.6534,8690,789
0.926449,183.36131,-678,57606,31.8027,8690,789
1.11773,183.73662,-677,57607,31.6036,8690,789
0.169146,181.97441,-676,57608,31.6534,8690,789
0.971667,177.7314,-675,57609,31.7032,8693,800
1.10916,174.18629,-674,57610,31.6036,8693,800
0.352105,174.65805,-673,57611,31.6036,8693,800
1.09619,175.73771,-672,57612,31.4543,8693,800
1.26953,173.08387,-671,57613,31.6534,8693,800
0.768946,167.29464,-670,57614,31.6534,8693,800
2.11037,163.04541,-669,57615,31.6036,8693,800
0.601994,161.05146,-668,57616,31.504,8693,800
0.710948,159.22878,-667,57617,31.4543,8693,800
0.941763,155.13043,-666,57618,31.8027,8693,800
0.895034,150.40217,-665,57619,31.8027,8702,814
1.28817,145.06438,-664,57620,31.8027,8702,814
0.569429,139.32828,-663,57621,31.6534,8702,814
1.12198,134.73803,-662,57622,31.6534,8702,814
0.497951,130.86774,-661,57623,31.8027,8702,814
0.717624,124.79115,-660,57624,31.6534,8702,814
0.840071,116.38058,-659,57625,31.6534,8702,814
0.218366,109.41103,-658,57626,31.6036,8702,814
1.00068,107.03012,-657,57627,31.6534,8702,814
0.447517,106.81954,-656,57628,31.6534,8702,814
0.966748,102.79574,-655,57629,31.6534,8717,823
1.02423,98.898125,-654,57630,31.6534,8717,823
1.20794,96.341012,-653,57631,31.6534,8717,823
0.625305,94.534611,-652,57632,31.6036,8717,823
1.09619,90.772883,-651,57633,31.8027,8717,823
0.534885,85.304268,-650,57634,31.4045,8717,823
0.85693,79.353309,-649,57635,31.6534,8717,823
1.39139,76.069298,-648,57636,31.7032,8717,823
0.507437,73.923729,-647,57637,31.6534,8717,823
0.632885,67.773213,-646,57638,31.504,8717,823
0.889691,59.885411,-645,57639,31.4045,8739,825
1.77132,53.623475,-644,57640,31.7032,8739,825
0.690534,53.353665,-643,57641,31.6036,8739,825
0.966748,57.425098,-642,57642,31.504,8739,825
1.69708,59.261459,-641,57643,31.6534,8739,825
1.67161,55.292058,-640,57644,31.6534,8739,825
1.59572,48.983061,-639,57645,31.504,8739,825
0.447517,47.24263,-638,57646,31.8525,8739,825
1.21581,52.550383,-637,57647,31.4543,8739,825
1.28817,58.996343,-636,57648,31.6036,8739,825
0.750112,61.612746,-635,57649,31.4543,8762,817
1.57769,63.627328,-634,57650,31.8525,8762,817
1.39481,68.091276,-633,57651,31.6534,8762,817
0.85693,71.319156,-632,57652,31.6534,8762,817
1.02423,72.612548,-631,57653,31.6534,8762,817
0.793363,80.118402,-630,57654,31.6534,8762,817
0.895034,95.135778,-629,57655,31.6534,8762,817
1.04268,105.09148,-628,57656,31.8525,8762,817
1.47781,112.84534,-627,57657,31.6036,8762,817
1.22752,124.07251,-626,57658,31.6534,8762,817
0.840071,132.96158,-625,57659,31.4045,8784,811
2.03209,135.91097,-624,57660,31.6534,8784,811
0.981433,132.70986,-623,57661,31.504,8784,811
1.17188,126.69381,-622,57662,31.504,8784,811
1.11345,120.37823,-621,57663,31.6036,8784,811
1.51603,114.10049,-620,57664,31.4543,8784,811
0.750112,111.53553,-619,57665,31.504,8784,811
0.41432,110.36034,-618,57666,31.7032,8784,811
0.840071,109.59875,-617,57667,31.6534,8784,811
0.76272,112.08029,-616,57668,31.4543,8784,811
1.37415,118.12225,-615,57669,31.7032,8769,799
0.926449,124.14917,-614,57670,31.4543,8769,799
1.67446,130.16291,-613,57671,31.6534,8769,799
1.99897,134.22151,-612,57672,31.6036,8769,799
1.66589,134.33221,-611,57673,31.6534,8769,799
1.48103,129.79249,-610,57674,31.6534,8769,799
0.655098,123.37378,-609,57675,31.8027,8769,799
0.717624,115.11315,-608,57676,31.6036,8769,799
1.11773,109.07384,-607,57677,31.6534,8769,799
1.38452,105.31053,-606,57678,31.6534,8769,799
1.34255,102.59725,-605,57679,31.6036,8727,793
1.25821,100.36452,-604,57680,31.6036,8727,793
1.1596,97.299994,-603,57681,31.504,8727,793
1.67446,95.443139,-602,57682,31.504,8727,793
1.42525,95.19207,-601,57683,31.4045,8727,793
1.77132,94.577397,-600,57684,31.7032,8727,793
1.01016,93.770104,-599,57685,31.6036,8727,793
0.239208,93.473902,-598,57686,31.4045,8727,793
1.39139,93.682026,-597,57687,31.504,8727,793
1.34255,93.244541,-596,57688,31.6534,8727,793
1.17998,91.578284,-595,57689,31.504,8727,793
1.15548,91.560953,-594,57690,31.6534,8727,793
1.86827,92.044901,-593,57691,31.6036,8727,793
1.45176,90.314626,-592,57692,31.6036,8727,793
0.76272,86.29007,-591,57693,31.4543,8727,793
2.26091,82.781494,-590,57694,31.6534,8727,793
1.74146,82.712704,-589,57695,31.504,8727,793
1.60168,85.501257,-588,57696,31.6534,8727,793
2.08994,86.740127,-587,57697,31.6534,8727,793
2.08079,86.549229,-586,57698,31.504,8727,793
1.83479,88.010664,-585,57699,31.6534,8692,789
2.93781,90.206657,-584,57700,31.6036,8692,789
0.98628,92.928305,-583,57701,31.6534,8692,789
0.971667,98.155083,-582,57702,31.6534,8692,789
2.56336,101.83664,-581,57703,31.8027,8692,789
1.77132,101.45255,-580,57704,31.6036,8692,789
1.71386,100.62245,-579,57705,31.504,8692,789
0.78733,101.61017,-578,57706,31.4543,8692,789
1.86572,105.38946,-577,57707,31.6534,8692,789
1.1472,111.78935,-576,57708,31.6534,8692,789
1.55638,115.89675,-575,57709,31.504,8682,790
1.88858,115.77679,-574,57710,31.6534,8682,790
1.60466,117.03965,-573,57711,31.4045,8682,790
1.37067,121.63919,-572,57712,31.6036,8682,790
1.02423,125.17184,-571,57713,31.4543,8682,790
1.29923,126.02073,-570,57714,31.504,8682,790
1.67161,127.49308,-569,57715,31.504,8682,790
1.45505,130.42217,-568,57716,31.504,8682,790
0.447517,133.24119,-567,57717,31.7032,8682,790
0.525895,135.00761,-566,57718,31.8027,8682,790
1.17998,136.85214,-565,57719,31.504,8681,795
0.98628,138.28164,-564,57720,31.8027,8681,795
0.862477,140.27887,-563,57721,31.504,8681,795
1.4219,143.06979,-562,57722,31.7032,8681,795
1.21581,145.15228,-561,57723,31.4543,8681,795
0.817051,145.59923,-560,57724,31.7032,8681,795
1.74966,144.58794,-559,57725,31.6534,8681,795
0.625305,144.80287,-558,57726,31.504,8681,795
2.12613,147.93698,-557,57727,31.7032,8681,795
0.497951,150.27525,-556,57728,31.504,8681,795
0.617632,150.56674,-555,57729,31.6036,8688,807
1.24679,150.68056,-554,57730,31.4543,8688,807
1.28447,151.96969,-553,57731,31.6036,8688,807
0.976563,154.00446,-552,57732,31.504,8688,807
2.2944,154.93608,-551,57733,31.504,8688,807
0.768946,155.03689,-550,57734,31.6534,8688,807
1.20794,154.70605,-549,57735,31.7032,8688,807
0.352105,154.03247,-548,57736,31.6036,8688,807
2.11714,152.89159,-547,57737,31.6036,8688,807
1.83998,152.01072,-546,57738,31.6534,8688,807
0.946812,152.20778,-545,57739,31.504,8696,815
1.24679,152.01793,-544,57740,31.504,8696,815
1.00068,151.02471,-543,57741,31.504,8696,815
1.39139,151.66326,-542,57742,31.504,8696,815
1.73323,153.84623,-541,57743,31.4045,8696,815
1.3029,154.63432,-540,57744,31.6534,8696,815
0.793363,151.50588,-539,57745,31.4543,8696,815
0.926449,148.28031,-538,57746,31.6534,8696,815
0.931581,149.36713,-537,57747,31.6534,8696,815
1.28447,151.00473,-536,57748,31.6036,8696,815
1.87846,148.9929,-535,57749,31.6534,8700,831
1.01487,147.12025,-534,57750,31.6534,8700,831
0.921287,147.28596,-533,57751,31.7032,8700,831
0.834375,148.07959,-532,57752,31.6036,8700,831
1.04268,148.04598,-531,57753,31.8027,8700,831
1.14304,145.82825,-530,57754,31.504,8700,831
0.793363,141.65517,-529,57755,31.6036,8700,831
1.07865,138.61002,-528,57756,31.4045,8700,831
1.05631,138.95243,-527,57757,31.6534,8700,831
0.845728,138.34488,-526,57758,31.4045,8700,831
0.768946,135.56456,-525,57759,31.4543,8697,837
1.31383,133.0315,-524,57760,31.6534,8697,837
0.625305,130.2882,-523,57761,31.6036,8697,837
0.717624,126.41894,-522,57762,31.504,8697,837
0.601994,123.35959,-521,57763,31.6534,8697,837
0.447517,118.79931,-520,57764,31.6534,8697,837
0.750112,113.15793,-519,57765,31.6534,8697,837
0.878906,107.48955,-518,57766,31.8027,8697,837
1.25061,102.16155,-517,57767,31.6036,8697,837
0.697405,99.758336,-516,57768,31.4045,8697,837
0.402647,97.290805,-515,57769,31.6534,8690,844
0.662337,91.101836,-514,57770,31.6036,8690,844
0.750112,85.295446,-513,57771,31.6036,8690,844
0.995902,83.785954,-512,57772,31.7032,8690,844
0.497951,82.104423,-511,57773,31.6534,8690,844
0.697405,75.718041,-510,57774,31.6036,8690,844
0.365396,68.988737,-509,57775,31.7032,8690,844
0.995902,64.929014,-508,57776,31.6036,8690,844
0.292969,64.558117,-507,57777,31.4045,8690,844
0.497951,66.551163,-506,57778,31.504,8690,844
0.873464,64.198424,-505,57779,31.7032,8676,848
0.323889,61.780242,-504,57780,31.7032,8676,848
1.39139,60.810745,-503,57781,31.504,8676,848
0.352105,61.473281,-502,57782,31.6534,8676,848
0.488281,65.114644,-501,57783,31.4543,8676,848
1.1596,69.262506,-500,57784,31.6534,8676,848
0.851347,71.659121,-499,57785,31.4543,8676,848
0.497951,74.930194,-498,57786,31.8027,8676,848
0.931581,79.572055,-497,57787,31.6534,8676,848
0.617632,82.9895,-496,57788,31.4543,8676,848
0.632885,85.849891,-495,57789,31.6036,8663,847
0.447517,90.881327,-494,57790,31.4543,8663,847
0.730792,95.988723,-493,57791,31.4543,8663,847
1.60466,100.02446,-492,57792,31.504,8663,847
1.40163,102.25281,-491,57793,31.504,8663,847
1.21188,105.65466,-490,57794,31.7032,8663,847
1.73323,109.80745,-489,57795,31.504,8663,847
0.690534,110.77476,-488,57796,31.6534,8663,847
0.793363,109.41988,-487,57797,31.6534,8663,847
1.43857,107.14471,-486,57798,31.4045,8663,847
0.793363,103.629,-485,57799,31.504,8653,845
1.3637,99.212529,-484,57800,31.6534,8653,845
0.683594,95.584251,-483,57801,31.504,8653,845
1.4219,93.400782,-482,57802,31.504,8653,845
1.21188,91.054471,-481,57803,31.504,8653,845
1.49385,88.785406,-480,57804,31.6534,8653,845
1.33185,86.238853,-479,57805,31.4045,8653,845
1.20794,82.982766,-478,57806,31.6534,8653,845
1.27702,79.061616,-477,57807,31.7032,8653,845
1.29923,75.903788,-476,57808,31.4045,8653,845
0.878906,72.427311,-475,57809,31.7032,8650,837
1.26953,67.915538,-474,57810,31.6534,8650,837
2.20323,63.229712,-473,57811,31.4045,8650,837
1.07422,62.325951,-472,57812,31.504,8650,837
1.4681,62.711834,-471,57813,31.6534,8650,837
1.32827,62.437622,-470,57814,31.4543,8650,837
2.16612,64.179504,-469,57815,31.504,8650,837
1.4118,67.093935,-468,57816,31.6534,8650,837
2.05311,69.134594,-467,57817,31.504,8650,837
1.67161,68.138966,-466,57818,31.8027,8650,837
1.67161,63.64372,-465,57819,31.504,8654,832
1.76052,62.54576,-464,57820,31.504,8654,832
0.981433,63.150596,-463,57821,31.8027,8654,832
1.68298,63.234778,-462,57822,31.6036,8654,832
1.1472,63.913805,-461,57823,31.7032,8654,832
2.02033,65.010321,-460,57824,31.7032,8654,832
1.41854,60.574679,-459,57825,31.6036,8654,832
0.840071,59.598447,-458,57826,31.504,8654,832
1.3029,66.412757,-457,57827,31.504,8654,832
0.895034,70.278689,-456,57828,31.504,8654,832
0.690534,69.835635,-455,57829,31.6534,8671,829
1.01956,68.792876,-454,57830,31.6534,8671,829
1.11345,69.875951,-453,57831,31.504,8671,829
1.49385,71.608884,-452,57832,31.504,8671,829
1.27328,71.318633,-451,57833,31.4543,8671,829
1.4118,72.21158,-450,57834,31.6534,8671,829
1.81651,71.949655,-449,57835,31.6534,8671,829
1.70829,68.667562,-448,57836,31.504,8671,829
1.31383,67.63852,-447,57837,31.4543,8671,829
1.07865,71.012299,-446,57838,31.6534,8671,829
0.961803,74.397925,-445,57839,31.6534,8684,831
0.981433,72.670088,-444,57840,31.6036,8684,831
0.78733,72.10244,-443,57841,31.7032,8684,831
1.28075,71.29596,-442,57842,31.6534,8684,831
0.884315,70.561287,-441,57843,31.7032,8684,831
1.49385,72.846629,-440,57844,31.6036,8684,831
1.97498,74.995792,-439,57845,31.8027,8684,831
0.690534,75.28295,-438,57846,31.4045,8684,831
0.704209,73.540044,-437,57847,31.6534,8684,831
0.402647,70.6167,-436,57848,31.6534,8684,831
1.01016,68.8456,-435,57849,31.6534,8703,833
1.4681,69.085111,-434,57850,31.6534,8703,833
1.6341,69.30079,-433,57851,31.4543,8703,833
0.78733,68.246367,-432,57852,31.6036,8703,833
1.18402,65.76611,-431,57853,31.6036,8703,833
1.3029,64.96171,-430,57854,31.6534,8703,833
0.730792,66.12167,-429,57855,31.504,8703,833
1.16371,66.315758,-428,57856,31.4543,8703,833
1.51603,65.484892,-427,57857,31.6534,8703,833
0.793363,64.848295,-426,57858,31.4543,8703,833
0.750112,65.135008,-425,57859,31.6036,8722,835
1.14304,63.891886,-424,57860,31.7032,8722,835
0.828641,62.721575,-423,57861,31.6036,8722,835
0.98628,62.437384,-422,57862,31.6534,8722,835
1.25821,62.511562,-421,57863,31.504,8722,835
1.958,64.714077,-420,57864,31.504,8722,835
1.05179,68.547236,-419,57865,31.4543,8722,835
0.560992,69.3992,-418,57866,31.4045,8722,835
1.07422,67.138339,-417,57867,31.7032,8722,835
1.32827,67.2285,-416,57868,31.6534,8722,835
1.19604,70.225238,-415,57869,31.7032,8732,837
1.36019,73.174916,-414,57870,31.4045,8732,837
0.878906,74.449782,-413,57871,31.7032,8732,837
0.905627,73.721374,-412,57872,31.7032,8732,837
0.768946,75.304423,-411,57873,31.6534,8732,837
1.49385,77.022691,-410,57874,31.4045,8732,837
0.971667,79.062747,-409,57875,31.504,8732,837
0.525895,79.877742,-408,57876,31.6534,8732,837
1.4681,81.656189,-407,57877,31.6036,8732,837
0.946812,84.869511,-406,57878,31.504,8732,837
0.811194,86.839794,-405,57879,31.4543,8727,840
1.19205,84.571119,-404,57880,31.4543,8727,840
0.323889,81.56663,-403,57881,31.6534,8727,840
0.981433,82.143888,-402,57882,31.8027,8727,840
0.981433,84.953571,-401,57883,31.6036,8727,840
1.02423,85.519903,-400,57884,31.6036,8727,840
0.625305,83.005748,-399,57885,31.6534,8727,840
0.750112,79.823251,-398,57886,31.6534,8727,840
0.884315,78.977983,-397,57887,31.8027,8727,840
0.768946,78.089324,-396,57888,31.7032,8727,840
1.01956,75.967073,-395,57889,31.6534,8708,845
1.23912,71.640299,-394,57890,31.7032,8708,845
0.811194,67.021271,-393,57891,31.7032,8708,845
0.921287,66.974787,-392,57892,31.6534,8708,845
1.64283,66.676432,-391,57893,31.6534,8708,845
0.926449,63.120386,-390,57894,31.6534,8708,845
0.921287,57.148335,-389,57895,31.7032,8708,845
0.750112,54.275734,-388,57896,31.6534,8708,845
0.690534,54.9921,-387,57897,31.7032,8708,845
0.497951,54.539207,-386,57898,31.6036,8708,845
1.19604,50.816011,-385,57899,31.6534,8689,850
0.811194,47.176346,-384,57900,31.6534,8689,850
0.632885,45.621483,-383,57901,31.4045,8689,850
0.569429,44.548975,-382,57902,31.8027,8689,850
0.768946,48.25191,-381,57903,31.7032,8689,850
0.878906,50.847817,-380,57904,31.6534,8689,850
1.11773,46.045433,-379,57905,31.6534,8689,850
0.878906,42.236152,-378,57906,31.6534,8689,850
1.36019,40.433292,-377,57907,31.6534,8689,850
0.478416,34.202568,-376,57908,31.4543,8689,850
1.22363,23.865292,-375,57909,31.6534,8677,850
0.577742,14.715423,-374,57910,31.6036,8677,850
0.85693,12.834229,-373,57911,31.6036,8677,850
0.601994,15.192238,-372,57912,31.4543,8677,850
1.44188,17.902767,-371,57913,31.4543,8677,850
0.507437,20.451423,-370,57914,31.504,8677,850
1.62826,25.408812,-369,57915,31.6534,8677,850
1.06082,29.247242,-368,57916,31.6534,8677,850
1.07422,27.762879,-367,57917,31.6534,8677,850
0.737289,26.222681,-366,57918,31.504,8677,850
1.39139,26.766821,-365,57919,31.6534,8673,854
0.921287,27.937305,-364,57920,31.7032,8673,854
0.569429,30.048643,-363,57921,31.504,8673,854
1.61355,34.537702,-362,57922,31.4045,8673,854
0.59402,40.030316,-361,57923,31.4543,8673,854
1.62532,45.636342,-360,57924,31.504,8673,854
0.873464,49.922728,-359,57925,31.504,8673,854
0.884315,54.730262,-358,57926,31.504,8673,854
1.47781,58.088669,-357,57927,31.4543,8673,854
1.61355,59.438716,-356,57928,31.6534,8673,854
1.19604,60.9791,-355,57929,31.4543,8675,849
1.3102,63.561603,-354,57930,31.504,8675,849
1.10916,65.52345,-353,57931,31.6534,8675,849
1.4118,67.365119,-352,57932,31.4543,8675,849
0.308816,68.462512,-351,57933,31.6534,8675,849
1.69708,71.285718,-350,57934,31.504,8675,849
1.39139,75.519112,-349,57935,31.4045,8675,849
1.04268,77.464074,-348,57936,31.7032,8675,849
0.507437,79.086962,-347,57937,31.6534,8675,849
0.497951,81.469108,-346,57938,31.504,8675,849
0.697405,84.255579,-345,57939,31.8027,8686,846
1.58973,85.311866,-344,57940,31.7032,8686,846
1.17594,84.964094,-343,57941,31.6036,8686,846
0.805294,84.476625,-342,57942,31.7032,8686,846
0.697405,82.441214,-341,57943,31.504,8686,846
1.09619,76.877747,-340,57944,31.6534,8686,846
0.577742,70.694311,-339,57945,31.4045,8686,846
1.74966,66.836255,-338,57946,31.6534,8686,846
0.436732,66.930719,-337,57947,31.4045,8686,846
0.840071,66.981461,-336,57948,31.6534,8686,846
0.710948,66.996698,-335,57949,31.4045,8695,840
0.750112,70.818248,-334,57950,31.7032,8695,840
1.36019,75.865103,-333,57951,31.7032,8695,840
1.52856,79.512389,-332,57952,31.504,8695,840
0.921287,80.502849,-331,57953,31.7032,8695,840
0.690534,79.266976,-330,57954,31.8027,8695,840
1.93596,77.685263,-329,57955,31.6036,8695,840
1.04268,76.026386,-328,57956,31.6036,8695,840
1.67161,72.603416,-327,57957,31.6534,8695,840
0.488281,69.037966,-326,57958,31.6036,8695,840
1.02423,69.281973,-325,57959,31.6534,8702,848
1.3637,68.503201,-324,57960,31.7032,8702,848
1.18402,60.116252,-323,57961,31.7032,8702,848
1.5034,54.147919,-322,57962,31.6036,8702,848
1.26953,52.857009,-321,57963,31.504,8702,848
0.981433,48.733582,-320,57964,31.6534,8702,848
1.01956,44.200411,-319,57965,31.6534,8702,848
0.921287,42.507295,-318,57966,31.6036,8702,848
0.889691,42.583297,-317,57967,31.6534,8702,848
0.632885,40.168553,-316,57968,31.6534,8702,848
0.981433,37.387409,-315,57969,31.6534,8699,842
0.704209,37.709651,-314,57970,31.4045,8699,842
1.11345,41.512702,-313,57971,31.7032,8699,842
0.683594,41.958818,-312,57972,31.6036,8699,842
1.5034,43.590213,-311,57973,31.6036,8699,842
1.80598,45.975803,-310,57974,31.6534,8699,842
1.17998,44.607973,-309,57975,31.8027,8699,842
1.20399,43.620285,-308,57976,31.6534,8699,842
1.05631,42.849462,-307,57977,31.6036,8699,842
1.44188,41.103813,-306,57978,31.504,8699,842
0.840071,41.338603,-305,57979,31.6534,8691,847
1.00068,44.475159,-304,57980,31.6036,8691,847
0.905627,45.459679,-303,57981,31.4045,8691,847
0.447517,45.810859,-302,57982,31.6534,8691,847
1.14304,47.038429,-301,57983,31.6534,8691,847
1.27702,47.501667,-300,57984,31.7032,8691,847
0.195313,48.557293,-299,57985,31.6534,8691,847
2.0156,48.723337,-298,57986,31.8027,8691,847
0.78733,49.093062,-297,57987,31.6534,8691,847
0.834375,52.207433,-296,57988,31.6036,8691,847
1.60466,54.933539,-295,57989,31.6534,8680,849
1.02423,56.951786,-294,57990,31.504,8680,849
1.09183,57.909338,-293,57991,31.8027,8680,849
1.60168,58.499196,-292,57992,31.6534,8680,849
0.981433,61.700717,-291,57993,31.4045,8680,849
1.63993,62.543139,-290,57994,31.6534,8680,849
0.926449,61.397605,-289,57995,31.504,8680,849
1.27702,63.096656,-288,57996,31.6036,8680,849
1.07422,63.85981,-287,57997,31.4543,8680,849
1.09619,64.159998,-286,57998,31.504,8680,849
0.525895,67.54295,-285,57999,31.8027,8669,858
0.617632,69.094601,-284,58000,31.6534,8669,858
0.730792,66.626911,-283,58001,31.6534,8669,858
1.28075,65.100339,-282,58002,31.7032,8669,858
1.17998,67.750783,-281,58003,31.6534,8669,858
1.94824,70.013257,-280,58004,31.6534,8669,858
0.921287,71.395377,-279,58005,31.6036,8669,858
0.617632,73.501028,-278,58006,31.6534,8669,858
1.31745,72.209826,-277,58007,31.6534,8669,858
0.743728,69.885121,-276,58008,31.6534,8669,858
1.37415,67.074388,-275,58009,31.4543,8667,855
1.15135,66.349117,-274,58010,31.6534,8667,855
1.95556,68.582443,-273,58011,31.8525,8667,855
0.617632,69.813761,-272,58012,31.6036,8667,855
1.28075,68.955033,-271,58013,31.504,8667,855
1.89865,67.395748,-270,58014,31.6036,8667,855
0.239208,65.361443,-269,58015,31.6534,8667,855
0.710948,64.739861,-268,58016,31.504,8667,855
0.76272,64.932572,-267,58017,31.7032,8667,855
0.926449,63.064056,-266,58018,31.8027,8667,855
0.497951,60.398412,-265,58019,31.6534,8667,855
0.402647,58.759455,-264,58020,31.6036,8667,855
0.292969,58.095851,-263,58021,31.4543,8667,855
0.884315,58.837637,-262,58022,31.6534,8667,855
1.32467,57.542267,-261,58023,31.6036,8667,855
1.35668,55.275211,-260,58024,31.6036,8667,855
0.655098,55.591871,-259,58025,31.6036,8667,855
0.534885,54.262142,-258,58026,31.7032,8667,855
1.06082,55.955625,-257,58027,31.6534,8667,855
0.662337,54.74646,-256,58028,31.6534,8667,855
1.27702,55.15228,-255,58029,31.6534,8658,862
0.946812,57.336934,-254,58030,31.6036,8658,862
0.966748,56.191605,-253,58031,31.504,8658,862
1.05179,55.746185,-252,58032,31.6534,8658,862
0.292969,56.788941,-251,58033,31.6534,8658,862
0.845728,59.738921,-250,58034,31.6534,8658,862
1.01016,61.085185,-249,58035,31.504,8658,862
1.04268,62.653948,-248,58036,31.7032,8658,862
1.38107,65.364179,-247,58037,31.8027,8658,862
0.138107,67.106371,-246,58038,31.7032,8658,862
0.239208,68.445315,-245,58039,31.6534,8659,862
0.601994,70.691781,-244,58040,31.6036,8659,862
1.19205,72.822078,-243,58041,31.504,8659,862
0.534885,73.731782,-242,58042,31.504,8659,862
1.28447,76.554341,-241,58043,31.504,8659,862
1.59572,80.648115,-240,58044,31.504,8659,862
1.45176,80.083428,-239,58045,31.504,8659,862
1.5034,77.385743,-238,58046,31.4543,8659,862
0.717624,78.40849,-237,58047,31.504,8659,862
0.218366,82.013991,-236,58048,31.6534,8659,862
0.895034,84.756276,-235,58049,31.6036,8654,857
1.01016,87.373782,-234,58050,31.4543,8654,857
1.09619,91.402139,-233,58051,31.6534,8654,857
0.971667,98.004977,-232,58052,31.6036,8654,857
1.50022,106.96794,-231,58053,31.6534,8654,857
1.54717,113.28868,-230,58054,31.504,8654,857
0.323889,113.7656,-229,58055,31.6534,8654,857
0.41432,108.04071,-228,58056,31.9521,8654,857
1.59273,102.38796,-227,58057,31.6534,8654,857
0.447517,103.10751,-226,58058,31.504,8654,857
0.239208,107.23368,-225,58059,31.4045,8653,854
0.436732,111.89188,-224,58060,31.8027,8653,854
1.51603,115.97078,-223,58061,31.6036,8653,854
0.683594,121.45941,-222,58062,31.504,8653,854
0.497951,126.28733,-221,58063,31.504,8653,854
1.12198,130.18242,-220,58064,31.7032,8653,854
0.497951,129.99061,-219,58065,31.6534,8653,854
0.402647,128.6514,-218,58066,31.7032,8653,854
1.24679,127.69103,-217,58067,31.4543,8653,854
0.569429,126.22767,-216,58068,31.504,8653,854
0.625305,127.42229,-215,58069,31.6534,8659,853
1.05631,132.58707,-214,58070,31.6534,8659,853
0.218366,137.51577,-213,58071,31.4543,8659,853
1.32827,140.36069,-212,58072,31.6036,8659,853
1.04268,142.8933,-211,58073,31.6534,8659,853
0.683594,146.00441,-210,58074,31.6534,8659,853
0.921287,146.22118,-209,58075,31.6036,8659,853
0.365396,145.38738,-208,58076,31.7032,8659,853
0.497951,146.67976,-207,58077,31.6036,8659,853
0.41432,148.73891,-206,58078,31.6036,8659,853
0.534885,147.84509,-205,58079,31.6036,8664,845
0.840071,145.84767,-204,58080,31.4045,8664,845
0.845728,146.46637,-203,58081,31.6534,8664,845
0.862477,151.52594,-202,58082,31.6534,8664,845
0.926449,155.60695,-201,58083,31.6534,8664,845
0.966748,157.27593,-200,58084,31.6534,8664,845
0.560992,160.24731,-199,58085,31.6036,8664,845
0.59402,165.53837,-198,58086,31.7032,8664,845
1.11773,170.11907,-197,58087,31.6534,8664,845
1.12198,171.48489,-196,58088,31.6534,8664,845
1.47134,171.66728,-195,58089,31.504,8672,839
1.06977,173.32721,-194,58090,31.6534,8672,839
0.218366,175.79858,-193,58091,31.6534,8672,839
0.697405,178.85934,-192,58092,31.7032,8672,839
0.840071,182.70501,-191,58093,31.9521,8672,839
0.966748,187.69211,-190,58094,31.6036,8672,839
1.40163,193.41243,-189,58095,31.6036,8672,839
0.436732,199.03036,-188,58096,31.8027,8672,839
1.87846,203.39336,-187,58097,31.504,8672,839
1.17594,205.03213,-186,58098,31.6534,8672,839
0.971667,205.52472,-185,58099,31.504,8676,834
1.68298,207.88273,-184,58100,31.6036,8676,834
1.28447,214.01833,-183,58101,31.6534,8676,834
0.905627,221.90103,-182,58102,31.6534,8676,834
0.447517,227.36968,-181,58103,31.504,8676,834
0.878906,231.84286,-180,58104,31.6534,8676,834
0.78733,237.00928,-179,58105,31.504,8676,834
0.59402,240.30105,-178,58106,31.7032,8676,834
0.138107,243.37612,-177,58107,31.4543,8676,834
1.28447,246.3949,-176,58108,31.6534,8676,834
1.19205,248.52206,-175,58109,31.6534,8683,829
0.218366,250.0132,-174,58110,31.4543,8683,829
0.292969,252.58495,-173,58111,31.504,8683,829
0.710948,259.46432,-172,58112,31.6036,8683,829
0.447517,266.27058,-171,58113,31.504,8683,829
1.43525,270.25168,-170,58114,31.504,8683,829
0.966748,273.80972,-169,58115,31.4543,8683,829
1.23912,277.27889,-168,58116,31.4543,8683,829
1.00068,279.82023,-167,58117,31.6534,8683,829
0.966748,286.85942,-166,58118,31.6534,8683,829
1.17998,292.61896,-165,58119,31.504,8690,822
1.29923,291.78331,-164,58120,31.6534,8690,822
1.06977,287.14469,-163,58121,31.504,8690,822
1.83479,284.87952,-162,58122,31.6534,8690,822
1.3102,285.74272,-161,58123,31.6534,8690,822
0.402647,281.8852,-160,58124,31.4045,8690,822
1.19205,271.69641,-159,58125,31.6534,8690,822
0.926449,269.82178,-158,58126,31.4045,8690,822
0.308816,274.16541,-157,58127,31.6036,8690,822
1.00543,277.48131,-156,58128,31.504,8690,822
1.47781,270.79947,-155,58129,31.7032,8693,811
1.11773,250.94777,-154,58130,31.4543,8693,811
1.22752,240.31549,-153,58131,31.6534,8693,811
0.525895,249.9248,-152,58132,31.6534,8693,811
1.09619,265.91179,-151,58133,31.6534,8693,811
0.625305,259.97268,-150,58134,31.6534,8693,811
1.84774,244.22905,-149,58135,31.6534,8693,811
1.5034,241.97443,-148,58136,31.6534,8693,811
1.4118,254.50691,-147,58137,31.6534,8693,811
1.17998,255.67536,-146,58138,31.4543,8693,811
1.4118,237.74687,-145,58139,31.6036,8693,796
1.33543,223.59606,-144,58140,31.504,8693,796
1.15135,217.85974,-143,58141,31.6534,8693,796
0.601994,206.13888,-142,58142,31.8027,8693,796
1.60466,207.26155,-141,58143,31.7032,8693,796
1.60168,242.67118,-140,58144,31.504,8693,796
0.878906,295.08212,-139,58145,31.6036,8693,796
2.41983,346.82547,-138,58146,31.7032,8693,796
1.9335,395.44054,-137,58147,31.7032,8693,796
1.4118,432.8414,-136,58148,31.4543,8693,796
0.995902,450.28484,-135,58149,31.4045,8699,791
0.276214,449.1734,-134,58150,31.8525,8699,791
1.4118,431.36859,-133,58151,31.8027,8699,791
1.56555,405.44847,-132,58152,31.6534,8699,791
1.1596,383.11438,-131,58153,31.6036,8699,791
0.625305,353.75111,-130,58154,31.6036,8699,791
1.48746,303.73432,-129,58155,31.504,8699,791
0.750112,259.72722,-128,58156,31.4045,8699,791
1.25821,246.92365,-127,58157,31.4543,8699,791
0.710948,254.49646,-126,58158,31.7032,8699,791
1.42525,258.97501,-125,58159,31.6534,8704,784
1.49066,262.03839,-124,58160,31.504,8704,784
0.488281,281.50306,-123,58161,31.6534,8704,784
1.18402,311.88798,-122,58162,31.504,8704,784
1.02423,335.85865,-121,58163,31.4045,8704,784
1.47781,353.79104,-120,58164,31.4543,8704,784
2.14177,371.56611,-119,58165,31.504,8704,784
1.41854,386.5006,-118,58166,31.7032,8704,784
0.941763,391.15949,-117,58167,31.8027,8704,784
2.29024,386.0843,-116,58168,31.4543,8704,784
1.25442,380.61613,-115,58169,31.6534,8702,782
1.96287,376.92391,-114,58170,31.7032,8702,782
1.07865,368.04282,-113,58171,31.6534,8702,782
1.17594,349.36937,-112,58172,31.504,8702,782
0.632885,330.71734,-111,58173,31.6036,8702,782
0.478416,319.96632,-110,58174,31.6534,8702,782
0.78733,314.10572,-109,58175,31.504,8702,782
1.06082,306.05128,-108,58176,31.6534,8702,782
1.31745,297.62988,-107,58177,31.4543,8702,782
1.44518,289.81253,-106,58178,31.6534,8702,782
0.525895,283.11958,-105,58179,31.504,8703,776
1.63702,277.40062,-104,58180,31.8027,8703,776
1.47134,270.50082,-103,58181,31.6534,8703,776
1.32467,264.68182,-102,58182,31.504,8703,776
1.36019,260.54054,-101,58183,31.4543,8703,776
1.01016,251.66994,-100,58184,31.7032,8703,776
0.878906,242.97773,-99,58185,31.6534,8703,776
0.402647,241.0952,-98,58186,31.6036,8703,776
0.905627,244.55994,-97,58187,31.6534,8703,776
0.690534,249.13701,-96,58188,31.6534,8703,776
1.10916,250.19001,-95,58189,31.6036,8710,783
0.884315,246.59369,-94,58190,31.6036,8710,783
0.811194,246.03952,-93,58191,31.504,8710,783
1.69427,247.0578,-92,58192,31.6534,8710,783
1.74146,242.4825,-91,58193,32.0019,8710,783
0.478416,240.30725,-90,58194,31.7032,8710,783
1.38452,237.85422,-89,58195,31.504,8710,783
1.06082,234.96531,-88,58196,31.6036,8710,783
1.10916,239.48518,-87,58197,31.6534,8710,783
1.36019,248.4052,-86,58198,31.504,8710,783
1.30655,256.23146,-85,58199,31.7032,8730,774
0.78733,257.62566,-84,58200,31.6534,8730,774
1.52231,250.94919,-83,58201,31.6534,8730,774
1.00068,244.44156,-82,58202,31.504,8730,774
1.36019,241.88577,-81,58203,31.4543,8730,774
1.45505,239.98871,-80,58204,31.6534,8730,774
1.23912,233.09632,-79,58205,31.6036,8730,774
0.840071,223.17104,-78,58206,31.6534,8730,774
0.560992,219.82264,-77,58207,31.6534,8730,774
0.560992,225.72897,-76,58208,31.504,8730,774
1.13045,231.54685,-75,58209,31.504,8759,769
1.63993,233.11572,-74,58210,31.6534,8759,769
1.13045,235.82913,-73,58211,31.6534,8759,769
0.921287,242.82222,-72,58212,31.8525,8759,769
1.68298,248.38147,-71,58213,31.7032,8759,769
0.895034,247.01425,-70,58214,31.504,8759,769
0.717624,242.596,-69,58215,31.6534,8759,769
1.04725,242.03022,-68,58216,31.7032,8759,769
1.60466,247.32593,-67,58217,31.8027,8759,769
0.966748,254.5221,-66,58218,31.6036,8759,769
1.34255,260.50871,-65,58219,31.504,8780,765
1.25442,263.59481,-64,58220,31.6036,8780,765
0.889691,263.88759,-63,58221,31.6036,8780,765
0.507437,264.86988,-62,58222,31.6534,8780,765
1.07865,269.29632,-61,58223,31.6036,8780,765
0.577742,275.69352,-60,58224,31.504,8780,765
0.981433,278.65907,-59,58225,31.504,8780,765
0.878906,276.297,-58,58226,31.504,8780,765
1.31383,273.37019,-57,58227,31.6534,8780,765
0.534885,273.91539,-56,58228,31.6036,8780,765
1.18402,277.38152,-55,58229,31.6036,8798,763
1.57163,279.48448,-54,58230,31.6036,8798,763
1.1596,279.3922,-53,58231,31.504,8798,763
0.59402,278.55779,-52,58232,31.4543,8798,763
1.38452,280.41514,-51,58233,31.8027,8798,763
1.21188,283.87482,-50,58234,31.6534,8798,763
1.17998,285.07856,-49,58235,31.6534,8798,763
0.931581,282.72512,-48,58236,31.7032,8798,763
1.70829,278.67123,-47,58237,31.6534,8798,763
1.05631,274.99269,-46,58238,31.6036,8798,763
0.239208,271.6915,-45,58239,31.504,8824,757
1.09619,265.93502,-44,58240,31.504,8824,757
0.78733,258.49209,-43,58241,31.6036,8824,757
0.828641,259.63805,-42,58242,31.6036,8824,757
0.905627,272.73079,-41,58243,31.6534,8824,757
0.889691,284.74977,-40,58244,31.6036,8824,757
0.889691,285.22783,-39,58245,31.504,8824,757
0.878906,281.12973,-38,58246,31.504,8824,757
1.49066,283.39209,-37,58247,31.7032,8824,757
1.36019,290.31844,-36,58248,31.6534,8824,757
1.00543,294.33927,-35,58249,31.4045,8892,755
0.905627,292.6112,-34,58250,31.6534,8892,755
1.60168,289.49054,-33,58251,31.504,8892,755
1.60168,287.56807,-32,58252,31.504,8892,755
0.737289,285.18517,-31,58253,31.504,8892,755
0.276214,283.74443,-30,58254,31.504,8892,755
0.768946,284.18509,-29,58255,31.504,8892,755
2.52021,285.1308,-28,58256,31.6036,8892,755
1.20794,283.95856,-27,58257,31.6534,8892,755
1.40163,282.76272,-26,58258,31.6534,8892,755
0.811194,284.79593,-25,58259,31.6036,9049,747
1.02423,287.788,-24,58260,31.6534,9049,747
1.31745,290.59383,-23,58261,31.6534,9049,747
0.365396,293.78158,-22,58262,31.6036,9049,747
1.08306,295.81566,-21,58263,31.6534,9049,747
1.71386,295.24923,-20,58264,31.6534,9049,747
1.23912,296.67079,-19,58265,31.6534,9049,747
1.68581,298.17682,-18,58266,31.6036,9049,747
0.625305,298.3129,-17,58267,31.6534,9049,747
1.3637,298.00394,-16,58268,31.6036,9049,747
1.25821,298.05494,-15,58269,31.6534,9387,729
1.20794,294.43334,-14,58270,31.6534,9387,729
1.27328,292.0162,-13,58271,31.7032,9387,729
0.601994,292.75541,-12,58272,31.504,9387,729
0.793363,293.12257,-11,58273,31.8027,9387,729
1.10916,289.1781,-10,58274,31.504,9387,729
0.768946,286.87419,-9,58275,31.6534,9387,729
1.44518,288.764,-8,58276,31.6534,9387,729
0.862477,297.69471,-7,58277,31.504,9387,729
1.05631,303.1467,-6,58278,31.6036,9387,729
1.7551,282.4797,-5,58279,31.6036,10106,708
1.99659,266.07671,-4,58280,31.7032,10106,708
1.40163,318.0209,-3,58281,31.6534,10106,708
3.16442,427.01757,-2,58282,31.504,10106,708
8.32888,713.44021,-1,58283,31.6534,10106,708
12.7193,1175.3207,0,58284,31.504,10106,708
12.6128,1310.1656,1,58285,31.504,10106,708
7.94624,972.28444,2,58286,31.6036,10106,708
5.22164,589.35691,3,58287,31.504,10106,708
4.32122,421.16384,4,58288,31.4045,10106,708
4.24103,380.75249,5,58289,31.6036,10347,702
4.25898,482.38997,6,58290,31.504,10347,702
3.64743,867.31662,7,58291,31.6036,10347,702
2.3539,1278.8443,8,58292,31.6534,10347,702
2.32946,1497.7723,9,58293,31.6534,10347,702
1.46484,1572.0771,10,58294,31.7032,10347,702
1.0381,1583.8923,11,58295,31.8027,10347,702
0.647778,1530.4111,12,58296,31.504,10347,702
1.84774,1346.729,13,58297,31.4543,10347,702
1.74966,956.59877,14,58298,31.4543,10347,702
1.92856,496.39452,15,58299,31.6534,9620,720
1.32827,542.55515,16,58300,31.504,9620,720
1.00543,782.59185,17,58301,31.6036,9620,720
1.54099,807.57136,18,58302,31.4045,9620,720
1.20794,666.73818,19,58303,31.6534,9620,720
0.85693,472.46997,20,58304,31.504,9620,720
1.31745,312.29141,21,58305,31.504,9620,720
1.95556,242.73073,22,58306,31.4543,9620,720
2.62039,263.89575,23,58307,31.6534,9620,720
1.60466,328.08188,24,58308,31.4045,9620,720
2.09904,406.11641,25,58309,31.6036,9277,738
1.00543,462.32129,26,58310,31.6036,9277,738
1.80334,465.2566,27,58311,31.8027,9277,738
1.72772,412.97843,28,58312,31.6534,9277,738
0.662337,328.48316,29,58313,31.6534,9277,738
1.57466,230.70569,30,58314,31.7032,9277,738
1.54408,134.81836,31,58315,31.6534,9277,738
0.625305,56.343351,32,58316,31.504,9277,738
1.30655,41.633672,33,58317,31.6036,9277,738
1.60466,58.916601,34,58318,31.6534,9277,738
1.05631,54.737205,35,58319,31.6036,9219,745
1.33543,42.222214,36,58320,31.6534,9219,745
1.51603,56.857647,37,58321,31.504,9219,745
1.51603,99.361185,38,58322,31.7032,9219,745
1.17998,141.54336,39,58323,31.7032,9219,745
1.4118,169.06373,40,58324,31.4543,9219,745
1.60168,181.03904,41,58325,31.6534,9219,745
0.737289,177.86315,42,58326,31.7032,9219,745
1.17998,165.53243,43,58327,31.6534,9219,745
1.40842,153.1099,44,58328,31.4045,9219,745
1.97739,145.99921,45,58329,31.8027,9277,741
0.85693,149.14989,46,58330,31.6534,9277,741
1.09619,157.11986,47,58331,31.6534,9277,741
1.57769,165.63268,48,58332,31.7032,9277,741
2.11488,174.38572,49,58333,31.6036,9277,741
1.13045,186.00043,50,58334,31.504,9277,741
1.43857,201.22287,51,58335,31.6534,9277,741
2.1573,223.12593,52,58336,31.6534,9277,741
1.10916,248.81862,53,58337,31.6534,9277,741
1.31745,253.97461,54,58338,31.504,9277,741
5.86669,400.97855,55,58339,31.4543,9515,733
11.8744,1097.2506,56,58340,31.6534,9515,733
12.4288,1124.8589,57,58341,31.8027,9515,733
8.15181,748.13389,58,58342,31.4045,9515,733
4.61574,358.77561,59,58343,31.6534,9515,733
1.93842,183.23913,60,58344,31.504,9515,733
2.15951,542.05776,61,58345,31.7032,9515,733
2.21617,699.27537,62,58346,31.6036,9515,733
2.23118,869.76235,63,58347,31.6534,9515,733
1.90867,1078.1472,64,58348,31.6036,9515,733
2.45698,1173.3863,65,58349,31.7032,9259,733
1.74966,1108.7241,66,58350,31.7032,9259,733
1.05179,952.97938,67,58351,31.8027,9259,733
0.710948,794.4366,68,58352,31.504,9259,733
0.497951,593.32696,69,58353,31.8027,9259,733
0.525895,371.28235,70,58354,31.6534,9259,733
0.78733,203.48535,71,58355,31.6534,9259,733
1.58673,179.59373,72,58356,31.8027,9259,733
1.49385,313.41716,73,58357,31.6534,9259,733
1.94088,340.46283,74,58358,31.6534,9259,733
1.62826,299.66472,75,58359,31.6534,9348,754
2.09677,285.05206,76,58360,31.7032,9348,754
0.402647,301.17856,77,58361,31.4543,9348,754
0.352105,322.65899,78,58362,31.6534,9348,754
0.308816,337.45748,79,58363,31.7032,9348,754
1.29923,348.71491,80,58364,31.8027,9348,754
0.76272,359.90854,81,58365,31.4543,9348,754
1.31745,365.27587,82,58366,31.6534,9348,754
2.05543,354.66478,83,58367,31.6036,9348,754
1.00068,345.68358,84,58368,31.504,9348,754
1.37415,336.97715,85,58369,31.504,9295,773
1.89865,316.17875,86,58370,31.6534,9295,773
0.926449,285.26474,87,58371,31.4045,9295,773
0.926449,268.83946,88,58372,31.4045,9295,773
1.44518,280.14243,89,58373,31.504,9295,773
1.01016,283.33116,90,58374,31.6036,9295,773
1.84516,257.41185,91,58375,31.6036,9295,773
0.497951,234.34798,92,58376,31.6036,9295,773
1.49385,218.85525,93,58377,31.4045,9295,773
1.19205,226.0259,94,58378,31.6534,9295,773
1.49385,265.90627,95,58379,31.4045,9240,791
1.10916,255.26152,96,58380,31.504,9240,791
1.66303,203.29036,97,58381,31.6534,9240,791
0.884315,181.36354,98,58382,31.6534,9240,791
0.905627,201.82195,99,58383,31.7032,9240,791
1.45176,256.64838,100,58384,31.6534,9240,791
