Linear acceleration,Rotational velocity,Time values,Absolute time values,Temperature,Ambient light,Reflected light
1.76323,9.319811,-2000,43448,26.476,5285,461
1.92608,9.443699,-1999,43449,26.3267,5285,461
1.11773,9.49798,-1998,43450,26.476,5285,461
1.66589,9.662079,-1997,43451,26.3765,5285,461
1.45505,9.534778,-1996,43452,26.3267,5285,461
1.75238,9.560529,-1995,43453,26.3267,5283,441
1.92608,9.402584,-1994,43454,26.476,5283,441
1.12198,9.472058,-1993,43455,26.5756,5283,441
1.80334,9.748062,-1992,43456,26.3267,5283,441
1.32467,9.901249,-1991,43457,26.5756,5283,441
1.02423,9.911779,-1990,43458,26.5258,5283,441
1.23912,9.887695,-1989,43459,26.6752,5283,441
1.32827,9.78011,-1988,43460,26.5258,5283,441
1.04725,9.953784,-1987,43461,26.3267,5283,441
1.59273,9.872613,-1986,43462,26.1773,5283,441
1.56555,9.428697,-1985,43463,26.3267,5285,466
0.845728,9.27895,-1984,43464,26.2271,5285,466
2.15951,9.278147,-1983,43465,26.5756,5285,466
2.21617,9.57299,-1982,43466,26.5756,5285,466
1.33185,9.640464,-1981,43467,26.5258,5285,466
1.1596,9.841623,-1980,43468,26.5258,5285,466
1.56555,9.79077,-1979,43469,26.5258,5285,466
2.0693,9.856753,-1978,43470,26.3267,5285,466
1.61355,9.953784,-1977,43471,26.3765,5285,466
1.71386,9.897486,-1976,43472,26.3765,5285,466
1.36019,9.621123,-1975,43473,26.3765,5284,421
1.74146,9.82192,-1974,43474,26.5756,5284,421
1.59273,9.554293,-1973,43475,26.5258,5284,421
1.25442,9.560529,-1972,43476,26.2271,5284,421
1.32467,9.700558,-1971,43477,26.1773,5284,421
2.1771,9.909523,-1970,43478,26.476,5284,421
2.45115,9.966501,-1969,43479,26.3765,5284,421
1.52856,9.848434,-1968,43480,26.5756,5284,421
1.84257,9.709003,-1967,43481,26.5258,5284,421
1.49385,9.680568,-1966,43482,26.2271,5284,421
1.15135,9.709003,-1965,43483,26.5756,5284,421
2.00374,9.37004,-1964,43484,26.3765,5284,421
1.60466,9.397036,-1963,43485,26.3267,5284,421
1.23912,9.879403,-1962,43486,26.3267,5284,421
1.6165,9.866574,-1961,43487,26.5258,5284,421
1.62239,9.738886,-1960,43488,26.3765,5284,421
1.67161,9.78011,-1959,43489,26.5258,5284,421
1.45505,9.879403,-1958,43490,26.5258,5284,421
1.10916,10.05581,-1957,43491,26.3765,5284,421
1.53789,9.966501,-1956,43492,26.5258,5284,421
1.64863,9.887695,-1955,43493,26.5258,5278,471
1.77401,9.974721,-1954,43494,26.3267,5278,471
2.22047,10.26843,-1953,43495,26.3765,5278,471
1.81913,10.04691,-1952,43496,26.3267,5278,471
2.15951,9.83708,-1951,43497,26.5258,5278,471
1.44188,9.766388,-1950,43498,26.3267,5278,471
1.82698,9.560529,-1949,43499,26.5258,5278,471
2.39407,9.377193,-1948,43500,26.6752,5278,471
1.86827,9.418419,-1947,43501,26.3765,5278,471
1.06082,9.452373,-1946,43502,26.5258,5278,471
0.921287,9.408921,-1945,43503,26.6752,5286,412
1.40163,9.487777,-1944,43504,26.3765,5286,412
2.45115,9.52696,-1943,43505,26.3765,5286,412
1.30655,9.612601,-1942,43506,26.5756,5286,412
2.46667,9.911779,-1941,43507,26.476,5286,412
1.30655,9.96351,-1940,43508,26.476,5286,412
1.5987,9.824196,-1939,43509,26.5258,5286,412
1.39139,9.631185,-1938,43510,26.5258,5286,412
2.50313,9.652821,-1937,43511,26.5756,5286,412
1.52544,9.712072,-1936,43512,26.476,5286,412
1.97498,9.756465,-1935,43513,26.3765,5281,476
0.895034,9.524614,-1934,43514,26.5258,5281,476
2.54282,9.12593,-1933,43515,26.3765,5281,476
1.46158,9.337382,-1932,43516,26.725,5281,476
1.22752,9.614151,-1931,43517,26.5756,5281,476
2.35187,9.604071,-1930,43518,26.3267,5281,476
1.80334,9.652821,-1929,43519,26.3765,5281,476
2.3027,9.812813,-1928,43520,26.5258,5281,476
1.22752,9.96351,-1927,43521,26.476,5281,476
1.83998,10.01497,-1926,43522,26.3267,5281,476
0.41432,9.984426,-1925,43523,26.3765,5283,424
0.889691,9.887695,-1924,43524,26.3267,5283,424
1.88858,9.569098,-1923,43525,26.3765,5283,424
1.59273,9.803698,-1922,43526,26.5258,5283,424
1.64863,9.640464,-1921,43527,26.5258,5283,424
2.0716,9.794574,-1920,43528,26.5258,5283,424
0.447517,9.879403,-1919,43529,26.5258,5283,424
1.30655,9.887695,-1918,43530,26.5258,5283,424
1.60168,9.83708,-1917,43531,26.3267,5283,424
1.64863,9.685954,-1916,43532,26.6752,5283,424
1.55332,9.812813,-1915,43533,26.3765,5276,467
2.69574,9.794574,-1914,43534,26.476,5276,467
1.49066,9.76181,-1913,43535,26.3267,5276,467
0.601994,9.672099,-1912,43536,26.6752,5276,467
1.56555,9.526178,-1911,43537,26.3267,5276,467
1.8529,9.770202,-1910,43538,26.5258,5276,467
1.71664,9.569098,-1909,43539,26.5258,5276,467
1.48103,9.720507,-1908,43540,26.3765,5276,467
1.27702,9.452373,-1907,43541,26.1773,5276,467
1.90617,9.428697,-1906,43542,26.2271,5276,467
1.53168,9.78011,-1905,43543,26.5258,5282,432
1.96772,9.812813,-1904,43544,26.2271,5282,432
2.22905,9.864309,-1903,43545,26.5756,5282,432
1.90617,9.794574,-1902,43546,26.476,5282,432
2.99568,10.23427,-1901,43547,26.3267,5282,432
1.1472,9.941051,-1900,43548,26.5258,5282,432
1.62239,9.614151,-1899,43549,26.5258,5282,432
0.98628,9.562867,-1898,43550,26.3267,5282,432
1.45176,9.569098,-1897,43551,26.3267,5282,432
1.68298,9.621123,-1896,43552,26.3267,5282,432
1.25442,9.685954,-1895,43553,26.5258,5283,425
1.42525,9.803698,-1894,43554,26.3765,5283,425
1.53789,9.688262,-1893,43555,26.5258,5283,425
1.48103,9.640464,-1892,43556,26.5258,5283,425
1.08306,9.514439,-1891,43557,26.476,5283,425
1.70549,9.494842,-1890,43558,26.3765,5283,425
1.73047,9.687493,-1889,43559,26.3765,5283,425
2.17052,9.987411,-1888,43560,26.6752,5283,425
1.41854,9.604071,-1887,43561,26.2271,5283,425
0.971667,9.400207,-1886,43562,26.3765,5283,425
1.17998,9.52696,-1885,43563,26.5258,5283,493
1.80334,9.738886,-1884,43564,26.5258,5283,493
2.56522,9.631185,-1883,43565,26.3765,5283,493
1.67161,9.748826,-1882,43566,26.6752,5283,493
1.25442,9.695949,-1881,43567,26.3765,5283,493
1.92856,9.669787,-1880,43568,26.476,5283,493
1.34255,9.66285,-1879,43569,26.5258,5283,493
1.55638,9.595534,-1878,43570,26.476,5283,493
1.63702,9.66285,-1877,43571,26.476,5283,493
1.27702,9.652821,-1876,43572,26.5756,5283,493
1.19205,9.553513,-1875,43573,26.5258,5282,414
1.22752,9.579215,-1874,43574,26.3267,5282,414
2.35997,9.579215,-1873,43575,26.5258,5282,414
1.93596,9.579215,-1872,43576,26.476,5282,414
1.97498,9.462615,-1871,43577,26.3765,5282,414
2.31715,9.766388,-1870,43578,26.476,5282,414
1.99897,9.685954,-1869,43579,26.2271,5282,414
1.4219,9.553513,-1868,43580,26.3765,5282,414
1.98701,9.397036,-1867,43581,26.5756,5282,414
2.22905,9.624995,-1866,43582,26.2271,5282,414
1.52856,9.712072,-1865,43583,26.3765,5283,487
1.57769,9.720507,-1864,43584,26.5258,5283,487
2.45892,9.604071,-1863,43585,26.3267,5283,487
2.48208,9.83708,-1862,43586,26.5258,5283,487
1.45505,10.06247,-1861,43587,26.3765,5283,487
2.00612,9.74959,-1860,43588,26.3267,5283,487
1.45176,9.514439,-1859,43589,26.476,5283,487
2.15066,9.677489,-1858,43590,26.3765,5283,487
1.96772,9.941051,-1857,43591,26.3765,5283,487
2.0693,9.995613,-1856,43592,26.6752,5283,487
1.30655,9.748826,-1855,43593,26.5258,5284,416
1.73047,9.78011,-1854,43594,26.5258,5284,416
1.98701,9.794574,-1853,43595,26.3765,5284,416
0.647778,9.816609,-1852,43596,26.6752,5284,416
1.21188,9.670558,-1851,43597,26.2271,5284,416
1.57769,9.614151,-1850,43598,26.476,5284,416
1.48103,9.815091,-1849,43599,26.3267,5284,416
1.49066,9.78011,-1848,43600,26.3267,5284,416
1.87846,9.79077,-1847,43601,26.5756,5284,416
1.07865,9.945547,-1846,43602,26.3267,5284,416
0.710948,9.945547,-1845,43603,26.3765,5290,493
2.59295,9.600968,-1844,43604,26.476,5290,493
1.80598,9.642782,-1843,43605,26.3765,5290,493
1.02423,9.730466,-1842,43606,26.5756,5290,493
1.34255,9.919293,-1841,43607,26.6752,5290,493
1.21581,9.83708,-1840,43608,26.5258,5290,493
0.811194,9.665163,-1839,43609,26.5258,5290,493
1.45505,9.487777,-1838,43610,26.3267,5290,493
1.4681,9.418419,-1837,43611,26.476,5290,493
1.68298,9.462615,-1836,43612,26.2271,5290,493
0.625305,9.66285,-1835,43613,26.5258,5282,433
2.12613,9.385929,-1834,43614,26.3267,5282,433
1.95556,9.52696,-1833,43615,26.5258,5282,433
1.54717,9.864309,-1832,43616,26.3765,5282,433
0.981433,9.988903,-1831,43617,26.5756,5282,433
1.66303,9.897486,-1830,43618,26.3765,5282,433
1.53789,9.738886,-1829,43619,26.5258,5282,433
1.78473,9.770202,-1828,43620,26.3765,5282,433
1.10916,9.614151,-1827,43621,26.5258,5282,433
2.03912,9.462615,-1826,43622,26.725,5282,433
1.65152,9.311813,-1825,43623,26.476,5275,446
1.27328,9.335786,-1824,43624,26.5258,5275,446
2.16392,9.644327,-1823,43625,26.3765,5275,446
1.25442,9.997104,-1822,43626,26.5258,5275,446
1.52856,9.644327,-1821,43627,26.3267,5275,446
1.52231,9.677489,-1820,43628,26.2271,5275,446
1.21581,9.637372,-1819,43629,26.5756,5275,446
1.54099,10.23136,-1818,43630,26.5756,5275,446
1.72772,10.13845,-1817,43631,26.3267,5275,446
1.84774,9.66285,-1816,43632,26.5258,5275,446
1.73047,9.590874,-1815,43633,26.5258,5282,460
1.94824,9.600968,-1814,43634,26.2271,5282,460
1.78206,9.802938,-1813,43635,26.5258,5282,460
0.981433,9.604071,-1812,43636,26.5258,5282,460
1.5034,9.385929,-1811,43637,26.3267,5282,460
1.28447,9.612601,-1810,43638,26.3765,5282,460
2.08994,9.677489,-1809,43639,26.5258,5282,460
1.18402,9.360493,-1808,43640,26.476,5282,460
2.03209,9.546492,-1807,43641,26.476,5282,460
1.3461,9.799137,-1806,43642,26.5756,5282,460
1.88606,9.812054,-1805,43643,26.3267,5282,456
1.65152,9.794574,-1804,43644,26.2271,5282,456
1.32467,9.74118,-1803,43645,26.476,5282,456
1.36019,9.787725,-1802,43646,26.3765,5282,456
1.71664,9.818886,-1801,43647,26.6752,5282,456
1.30655,9.700558,-1800,43648,26.5756,5282,456
1.49385,9.535559,-1799,43649,26.5258,5282,456
1.18402,9.569098,-1798,43650,26.476,5282,456
1.07422,9.83708,-1797,43651,26.5258,5282,456
1.15548,9.984426,-1796,43652,26.5756,5282,456
1.19604,10.05581,-1795,43653,26.5258,5283,446
1.09619,9.841623,-1794,43654,26.5258,5283,446
1.26577,9.605623,-1793,43655,26.3765,5283,446
1.3637,9.546492,-1792,43656,26.3267,5283,446
0.569429,9.612601,-1791,43657,26.5258,5283,446
1.36019,9.794574,-1790,43658,26.5258,5283,446
1.27702,9.400207,-1789,43659,26.3765,5283,446
1.89362,9.335786,-1788,43660,26.3267,5283,446
1.78206,9.402584,-1787,43661,26.3765,5283,446
2.04845,9.37004,-1786,43662,26.3267,5283,446
2.12164,9.494842,-1785,43663,26.3267,5284,492
1.39139,9.76181,-1784,43664,26.6752,5284,492
1.51917,9.984426,-1783,43665,26.3267,5284,492
1.49385,9.974721,-1782,43666,26.476,5284,492
2.53342,9.700558,-1781,43667,26.476,5284,492
1.81125,9.770202,-1780,43668,26.5756,5284,492
1.66303,9.824196,-1779,43669,26.5258,5284,492
1.92608,9.579215,-1778,43670,26.3267,5284,492
2.48592,9.418419,-1777,43671,26.5258,5284,492
1.17594,9.443699,-1776,43672,26.3765,5284,492
1.88606,9.436596,-1775,43673,26.5258,5285,443
2.2819,9.319811,-1774,43674,26.6752,5285,443
1.4681,9.494842,-1773,43675,26.5258,5285,443
1.31745,9.590874,-1772,43676,26.5258,5285,443
1.12623,9.535559,-1771,43677,26.5258,5285,443
1.67446,9.614151,-1770,43678,26.3267,5285,443
1.97739,9.893722,-1769,43679,26.5258,5285,443
1.92608,10.14359,-1768,43680,26.3267,5285,443
1.28447,9.887695,-1767,43681,26.5258,5285,443
2.28816,9.953784,-1766,43682,26.3765,5285,443
1.01016,9.685954,-1765,43683,26.5258,5286,465
1.66016,9.866574,-1764,43684,26.3765,5286,465
1.11773,9.83708,-1763,43685,26.3765,5286,465
1.77132,9.770202,-1762,43686,26.5258,5286,465
1.33185,9.362881,-1761,43687,26.2271,5286,465
2.33968,9.443699,-1760,43688,26.5756,5286,465
1.97256,9.621123,-1759,43689,26.2271,5286,465
1.31383,9.677489,-1758,43690,26.5258,5286,465
0.817051,9.569098,-1757,43691,26.3267,5286,465
1.25061,9.335786,-1756,43692,26.5756,5286,465
2.29024,9.327003,-1755,43693,26.5258,5285,446
1.61945,9.685954,-1754,43694,26.5258,5285,446
1.36019,9.812813,-1753,43695,26.3267,5285,446
1.6341,9.720507,-1752,43696,26.5258,5285,446
2.26512,9.872613,-1751,43697,26.476,5285,446
1.7551,9.827229,-1750,43698,26.3765,5285,446
1.38107,9.709003,-1749,43699,26.5258,5285,446
1.4118,9.748826,-1748,43700,26.5258,5285,446
2.22905,9.720507,-1747,43701,26.5258,5285,446
1.48103,9.802938,-1746,43702,26.476,5285,446
2.0693,9.905011,-1745,43703,26.476,5285,480
1.34255,9.828745,-1744,43704,26.3267,5285,480
1.27328,9.748062,-1743,43705,26.3765,5285,480
1.38452,9.730466,-1742,43706,26.5258,5285,480
2.11714,9.802938,-1741,43707,26.5258,5285,480
1.64863,9.920044,-1740,43708,26.3765,5285,480
1.54717,9.998594,-1739,43709,26.5756,5285,480
1.88099,9.974721,-1738,43710,26.3765,5285,480
1.28817,9.66285,-1737,43711,26.476,5285,480
1.40842,9.440543,-1736,43712,26.5756,5285,480
2.6655,9.582325,-1735,43713,26.5258,5280,405
0.98628,10.0053,-1734,43714,26.3765,5280,405
2.44921,9.756465,-1733,43715,26.3765,5280,405
1.23912,9.479135,-1732,43716,26.1773,5280,405
1.79539,9.524614,-1731,43717,26.2271,5280,405
1.91864,9.640464,-1730,43718,26.3765,5280,405
2.12613,9.560529,-1729,43719,26.476,5280,405
1.34255,9.685954,-1728,43720,26.476,5280,405
1.88099,9.604071,-1727,43721,26.5258,5280,405
2.11488,9.569098,-1726,43722,26.5756,5280,405
1.70829,9.695949,-1725,43723,26.3765,5281,503
1.13045,9.953784,-1724,43724,26.5258,5281,503
1.33185,9.794574,-1723,43725,26.3267,5281,503
1.70549,9.52696,-1722,43726,26.3765,5281,503
1.60168,9.311813,-1721,43727,26.3765,5281,503
1.3102,9.323807,-1720,43728,26.3765,5281,503
1.98701,9.590874,-1719,43729,26.3267,5281,503
1.5034,9.614151,-1718,43730,26.3765,5281,503
1.55638,9.685954,-1717,43731,26.5258,5281,503
2.0156,9.730466,-1716,43732,26.5258,5281,503
1.93596,9.49798,-1715,43733,26.3765,5282,434
1.33185,9.37004,-1714,43734,26.6752,5282,434
1.82698,9.730466,-1713,43735,26.5258,5282,434
2.27981,10.03727,-1712,43736,26.3267,5282,434
1.26577,9.988903,-1711,43737,26.3267,5282,434
1.74693,9.785441,-1710,43738,26.5258,5282,434
1.00543,9.624995,-1709,43739,26.3765,5282,434
1.52856,9.82192,-1708,43740,26.6752,5282,434
1.23912,9.920044,-1707,43741,26.476,5282,434
0.981433,9.846921,-1706,43742,26.3765,5282,434
1.28817,9.569098,-1705,43743,26.2271,5282,434
1.64863,10.10385,-1704,43744,26.5258,5282,434
1.25442,10.18757,-1703,43745,26.3267,5282,434
1.54099,10.03727,-1702,43746,26.3267,5282,434
1.31383,9.945547,-1701,43747,26.5756,5282,434
2.03444,9.911779,-1700,43748,26.2271,5282,434
1.66875,9.76181,-1699,43749,26.3267,5282,434
1.38452,9.644327,-1698,43750,26.3267,5282,434
1.45176,9.487777,-1697,43751,26.5258,5282,434
1.57466,9.335786,-1696,43752,26.2271,5282,434
1.45176,9.519919,-1695,43753,26.3267,5282,465
2.36199,9.364472,-1694,43754,26.5756,5282,465
0.981433,9.338977,-1693,43755,26.5756,5282,465
2.32332,9.66285,-1692,43756,26.3765,5282,465
1.94824,10.02613,-1691,43757,26.3267,5282,465
2.14622,10.0053,-1690,43758,26.476,5282,465
1.87846,9.953784,-1689,43759,26.476,5282,465
1.09183,9.812813,-1688,43760,26.2271,5282,465
0.946812,9.802938,-1687,43761,26.3765,5282,465
1.92608,9.738886,-1686,43762,26.6752,5282,465
1.38107,9.794574,-1685,43763,26.5258,5285,438
1.04268,9.631959,-1684,43764,26.5258,5285,438
1.09183,9.957526,-1683,43765,26.2271,5285,438
1.89614,9.846921,-1682,43766,26.1773,5285,438
2.44336,9.621123,-1681,43767,26.5258,5285,438
1.83479,9.621123,-1680,43768,26.3267,5285,438
1.99897,9.794574,-1679,43769,26.476,5285,438
1.47781,9.945547,-1678,43770,26.5258,5285,438
1.09619,9.897486,-1677,43771,26.3765,5285,438
1.23912,9.494842,-1676,43772,26.3765,5285,438
2.31097,9.428697,-1675,43773,26.5258,5284,427
0.793363,9.766388,-1674,43774,26.2271,5284,427
1.74146,9.600192,-1673,43775,26.5258,5284,427
2.3539,9.541027,-1672,43776,26.3267,5284,427
1.48103,9.709003,-1671,43777,26.6752,5284,427
1.94088,9.929803,-1670,43778,26.3267,5284,427
1.23912,9.920044,-1669,43779,26.5258,5284,427
1.10916,9.738886,-1668,43780,26.6752,5284,427
1.73047,9.856753,-1667,43781,26.5258,5284,427
1.6165,9.856753,-1666,43782,26.6752,5284,427
0.655098,9.685954,-1665,43783,26.5258,5284,459
0.737289,9.569098,-1664,43784,26.3765,5284,459
1.53168,9.677489,-1663,43785,26.476,5284,459
0.768946,9.864309,-1662,43786,26.5258,5284,459
1.93842,9.677489,-1661,43787,26.3267,5284,459
1.48103,9.569098,-1660,43788,26.3267,5284,459
0.78733,9.652821,-1659,43789,26.3765,5284,459
2.27981,9.582325,-1658,43790,26.3765,5284,459
1.16371,9.621123,-1657,43791,26.5258,5284,459
1.48103,9.513656,-1656,43792,26.3765,5284,459
1.04268,9.770202,-1655,43793,26.5756,5282,437
1.58673,9.685954,-1654,43794,26.476,5282,437
1.7767,9.644327,-1653,43795,26.476,5282,437
1.36019,9.364472,-1652,43796,26.476,5282,437
1.67446,9.402584,-1651,43797,26.5756,5282,437
1.97498,9.443699,-1650,43798,26.5258,5282,437
1.26953,9.545711,-1649,43799,26.3765,5282,437
0.905627,9.76181,-1648,43800,26.3765,5282,437
1.49385,9.436596,-1647,43801,26.5756,5282,437
1.49385,9.569098,-1646,43802,26.5258,5282,437
0.750112,9.866574,-1645,43803,26.5258,5282,445
1.23912,10.15607,-1644,43804,26.3765,5282,445
2.09222,10.05803,-1643,43805,26.3765,5282,445
0.662337,10.08023,-1642,43806,26.5756,5282,445
1.28447,10.24227,-1641,43807,26.5258,5282,445
1.38107,10.02613,-1640,43808,26.3765,5282,445
1.27328,9.494842,-1639,43809,26.5756,5282,445
0.365396,9.494842,-1638,43810,26.476,5282,445
1.97739,9.685954,-1637,43811,26.5756,5282,445
1.56555,9.443699,-1636,43812,26.5258,5282,445
0.577742,9.402584,-1635,43813,26.3765,5278,421
2.41391,9.487777,-1634,43814,26.476,5278,421
1.61945,9.52696,-1633,43815,26.3267,5278,421
1.21581,9.685954,-1632,43816,26.5756,5278,421
2.46667,9.575325,-1631,43817,26.5258,5278,421
1.13045,9.772489,-1630,43818,26.3267,5278,421
1.99897,10.19196,-1629,43819,26.3267,5278,421
2.56708,10.11344,-1628,43820,26.3267,5278,421
1.47458,9.78011,-1627,43821,26.3765,5278,421
1.86827,9.866574,-1626,43822,26.5258,5278,421
1.39139,9.866574,-1625,43823,26.5258,5281,484
2.03209,9.794574,-1624,43824,26.3765,5281,484
1.26577,9.631959,-1623,43825,26.3267,5281,484
1.76052,9.327003,-1622,43826,26.6752,5281,484
0.900346,9.545711,-1621,43827,26.5258,5281,484
2.12388,9.802938,-1620,43828,26.476,5281,484
2.02269,9.712072,-1619,43829,26.6752,5281,484
1.40163,9.259659,-1618,43830,26.3267,5281,484
1.53168,9.27895,-1617,43831,26.1773,5281,484
1.78206,9.385929,-1616,43832,26.5258,5281,484
1.56859,9.76181,-1615,43833,26.5258,5281,422
1.05631,9.856753,-1614,43834,26.476,5281,422
1.80598,10.01497,-1613,43835,26.725,5281,422
2.45892,10.01497,-1612,43836,26.3267,5281,422
1.80334,10.10238,-1611,43837,26.3267,5281,422
1.43857,9.652821,-1610,43838,26.5258,5281,422
1.94333,9.595534,-1609,43839,26.5258,5281,422
1.04268,9.595534,-1608,43840,26.3267,5281,422
1.98461,9.685954,-1607,43841,26.3765,5281,422
2.43358,9.78011,-1606,43842,26.5258,5281,422
2.0156,9.707468,-1605,43843,26.3765,5285,471
1.13886,9.614151,-1604,43844,26.3267,5285,471
1.40163,9.652821,-1603,43845,26.6752,5285,471
2.08537,9.52696,-1602,43846,26.3765,5285,471
1.54408,9.557412,-1601,43847,26.3267,5285,471
1.91615,9.885434,-1600,43848,26.3267,5285,471
1.4219,9.741945,-1599,43849,26.5258,5285,471
1.94333,9.443699,-1598,43850,26.3267,5285,471
1.85804,9.418419,-1597,43851,26.6752,5285,471
0.647778,9.579215,-1596,43852,26.5756,5285,471
1.56555,9.685954,-1595,43853,26.476,5281,422
2.22262,9.545711,-1594,43854,26.5258,5281,422
1.19205,9.545711,-1593,43855,26.5756,5281,422
1.4118,9.52696,-1592,43856,26.5258,5281,422
1.06977,9.472058,-1591,43857,26.6752,5281,422
2.14177,9.82192,-1590,43858,26.5258,5281,422
2.15066,9.605623,-1589,43859,26.3267,5281,422
1.71108,9.582325,-1588,43860,26.5258,5281,422
2.0156,9.535559,-1587,43861,26.5258,5281,422
1.47458,9.560529,-1586,43862,26.5258,5281,422
0.981433,9.828745,-1585,43863,26.476,5281,482
0.768946,9.945547,-1584,43864,26.5258,5281,482
0.458048,9.937303,-1583,43865,26.3267,5281,482
1.53789,9.974721,-1582,43866,26.3267,5281,482
1.69708,10.11344,-1581,43867,26.5258,5281,482
1.65152,10.01497,-1580,43868,26.3765,5281,482
1.56859,9.953784,-1579,43869,26.3765,5281,482
1.64863,9.695949,-1578,43870,26.5258,5281,482
1.65728,9.794574,-1577,43871,26.5258,5281,482
1.37067,9.652821,-1576,43872,26.5756,5281,482
0.966748,9.418419,-1575,43873,26.2271,5281,404
0.817051,9.402584,-1574,43874,26.476,5281,404
2.11263,9.560529,-1573,43875,26.3765,5281,404
1.94824,9.720507,-1572,43876,26.5258,5281,404
1.92112,9.770202,-1571,43877,26.3765,5281,404
1.88858,9.738886,-1570,43878,26.3765,5281,404
1.16371,9.841623,-1569,43879,26.3765,5281,404
1.98461,9.872613,-1568,43880,26.3765,5281,404
1.43857,9.802938,-1567,43881,26.5258,5281,404
1.84516,9.695949,-1566,43882,26.3765,5281,404
1.47134,9.66285,-1565,43883,26.6752,5283,500
1.51917,9.579215,-1564,43884,26.5258,5283,500
1.31383,9.652821,-1563,43885,26.5756,5283,500
1.36019,9.677489,-1562,43886,26.5258,5283,500
1.22752,9.677489,-1561,43887,26.5258,5283,500
1.97256,9.652821,-1560,43888,26.3267,5283,500
1.75781,9.50347,-1559,43889,26.3267,5283,500
1.50022,9.396243,-1558,43890,26.3267,5283,500
0.811194,9.569098,-1557,43891,26.2271,5283,500
1.57769,9.569098,-1556,43892,26.3765,5283,500
1.80598,9.677489,-1555,43893,26.3765,5282,413
1.73323,9.96351,-1554,43894,26.3267,5282,413
1.01016,9.707468,-1553,43895,26.5258,5282,413
1.70549,9.66285,-1552,43896,26.5258,5282,413
1.67161,9.953784,-1551,43897,26.3267,5282,413
1.25821,9.83708,-1550,43898,26.5258,5282,413
2.11263,9.846921,-1549,43899,26.3765,5282,413
2.15287,9.882419,-1548,43900,26.3765,5282,413
2.02975,9.604071,-1547,43901,26.3765,5282,413
2.32946,9.595534,-1546,43902,26.5258,5282,413
1.58673,9.756465,-1545,43903,26.476,5275,455
1.24296,9.882419,-1544,43904,26.5258,5275,455
1.4118,9.802938,-1543,43905,26.6752,5275,455
1.76323,9.848434,-1542,43906,26.5258,5275,455
1.06082,10.0053,-1541,43907,26.5258,5275,455
1.68863,9.83708,-1540,43908,26.3765,5275,455
1.92608,9.604071,-1539,43909,26.6752,5275,455
1.69708,9.487777,-1538,43910,26.3267,5275,455
2.02504,9.402584,-1537,43911,26.3267,5275,455
0.884315,9.443699,-1536,43912,26.476,5275,455
2.26091,9.685954,-1535,43913,26.5258,5283,461
1.43857,9.52696,-1534,43914,26.3765,5283,461
1.51917,9.685954,-1533,43915,26.5258,5283,461
0.981433,9.66285,-1532,43916,26.3765,5283,461
1.84774,9.707468,-1531,43917,26.5258,5283,461
1.68863,9.760283,-1530,43918,26.5258,5283,461
1.09183,9.464189,-1529,43919,26.476,5283,461
1.63993,9.695949,-1528,43920,26.5258,5283,461
1.36019,10.08392,-1527,43921,26.3765,5283,461
1.66016,9.846921,-1526,43922,26.476,5283,461
1.6165,9.605623,-1525,43923,26.5756,5279,444
1.00543,9.582325,-1524,43924,26.6752,5279,444
1.82437,9.644327,-1523,43925,26.5258,5279,444
1.74966,9.74118,-1522,43926,26.3765,5279,444
1.60466,9.712072,-1521,43927,26.5258,5279,444
1.22752,9.738886,-1520,43928,26.2271,5279,444
2.38409,9.700558,-1519,43929,26.5258,5279,444
2.01324,9.872613,-1518,43930,26.3765,5279,444
1.42525,9.899744,-1517,43931,26.476,5279,444
2.08079,9.700558,-1516,43932,26.6752,5279,444
1.77132,10.03653,-1515,43933,26.5258,5283,441
1.88099,10.05581,-1514,43934,26.3267,5283,441
1.53168,9.905011,-1513,43935,26.3267,5283,441
1.96287,9.612601,-1512,43936,26.2271,5283,441
2.52588,9.856753,-1511,43937,26.3765,5283,441
1.41517,9.959771,-1510,43938,26.5258,5283,441
1.76323,9.905011,-1509,43939,26.5258,5283,441
0.926449,9.82192,-1508,43940,26.3765,5283,441
1.04268,9.52696,-1507,43941,26.5258,5283,441
2.17052,9.804458,-1506,43942,26.5756,5283,441
2.08994,9.856753,-1505,43943,26.5756,5286,458
1.51917,9.856753,-1504,43944,26.5258,5286,458
1.45505,9.695949,-1503,43945,26.5258,5286,458
1.60168,9.741945,-1502,43946,26.2271,5286,458
2.03444,9.579215,-1501,43947,26.3765,5286,458
1.31745,9.78011,-1500,43948,26.5258,5286,458
2.12613,9.78011,-1499,43949,26.5258,5286,458
1.33185,9.66285,-1498,43950,26.476,5286,458
1.77401,9.748826,-1497,43951,26.3267,5286,458
2.29856,9.818886,-1496,43952,26.3765,5286,458
1.89362,9.631959,-1495,43953,26.3267,5280,448
1.66016,9.640464,-1494,43954,26.3267,5280,448
1.56555,9.688262,-1493,43955,26.5258,5280,448
1.4681,9.712072,-1492,43956,26.5258,5280,448
1.97739,9.487777,-1491,43957,26.476,5280,448
1.88858,9.534778,-1490,43958,26.3765,5280,448
2.0693,9.546492,-1489,43959,26.3267,5280,448
1.99897,9.730466,-1488,43960,26.3267,5280,448
1.59572,9.920044,-1487,43961,26.1773,5280,448
1.49385,9.738886,-1486,43962,26.2271,5280,448
1.68298,9.535559,-1485,43963,26.3267,5281,437
1.10916,9.535559,-1484,43964,26.3267,5281,437
1.45176,9.66285,-1483,43965,26.476,5281,437
1.36019,9.66285,-1482,43966,26.3765,5281,437
1.0381,9.49798,-1481,43967,26.3267,5281,437
0.710948,9.57299,-1480,43968,26.5258,5281,437
2.5819,9.524614,-1479,43969,26.5258,5281,437
2.50883,9.487777,-1478,43970,26.3765,5281,437
1.69146,9.685954,-1477,43971,26.3765,5281,437
1.52544,9.953784,-1476,43972,26.3765,5281,437
1.58973,10.15094,-1475,43973,26.3765,5282,441
1.00068,9.695949,-1474,43974,26.5756,5282,441
1.36019,9.50347,-1473,43975,26.476,5282,441
2.24822,9.685954,-1472,43976,26.5258,5282,441
0.878906,9.730466,-1471,43977,26.5258,5282,441
1.96772,9.858264,-1470,43978,26.3765,5282,441
1.66589,9.911779,-1469,43979,26.5756,5282,441
1.23912,9.997104,-1468,43980,26.5756,5282,441
1.79539,9.974721,-1467,43981,26.3267,5282,441
1.73047,9.631185,-1466,43982,26.3765,5282,441
1.57769,9.513656,-1465,43983,26.5258,5283,420
1.12623,9.513656,-1464,43984,26.6752,5283,420
1.21188,9.418419,-1463,43985,26.5258,5283,420
1.53168,9.595534,-1462,43986,26.3267,5283,420
2.45698,9.929803,-1461,43987,26.5258,5283,420
1.38452,9.879403,-1460,43988,26.3267,5283,420
0.793363,9.866574,-1459,43989,26.476,5283,420
1.87592,10.19196,-1458,43990,26.5258,5283,420
2.17052,10.29307,-1457,43991,26.725,5283,420
2.23545,9.966501,-1456,43992,26.3267,5283,420
1.89362,9.770202,-1455,43993,26.3267,5278,443
1.3637,9.974721,-1454,43994,26.5258,5278,443
2.61493,9.812813,-1453,43995,26.5258,5278,443
2.33151,9.83708,-1452,43996,26.3267,5278,443
2.53154,9.76181,-1451,43997,26.5258,5278,443
1.11773,9.612601,-1450,43998,26.5258,5278,443
1.59273,9.546492,-1449,43999,26.6752,5278,443
1.87592,9.612601,-1448,44000,26.3267,5278,443
0.737289,9.553513,-1447,44001,26.5258,5278,443
1.39139,9.560529,-1446,44002,26.5258,5278,443
1.09619,9.66285,-1445,44003,26.2271,5283,455
1.79539,9.569877,-1444,44004,26.476,5283,455
2.15287,9.569877,-1443,44005,26.3765,5283,455
2.2819,9.605623,-1442,44006,26.5258,5283,455
1.61945,9.644327,-1441,44007,26.476,5283,455
2.12388,9.569098,-1440,44008,26.6752,5283,455
0.878906,9.560529,-1439,44009,26.3267,5283,455
2.13284,9.677489,-1438,44010,26.3267,5283,455
1.74966,9.685954,-1437,44011,26.3765,5283,455
1.76323,9.812813,-1436,44012,26.3765,5283,455
1.10916,9.621123,-1435,44013,26.6752,5283,455
2.63853,9.78011,-1434,44014,26.5258,5283,455
2.24822,9.974721,-1433,44015,26.3267,5283,455
1.39139,9.730466,-1432,44016,26.3267,5283,455
2.44336,9.479135,-1431,44017,26.3765,5283,455
2.32946,9.614151,-1430,44018,26.5258,5283,455
2.18802,9.730466,-1429,44019,26.5756,5283,455
1.23912,9.730466,-1428,44020,26.5756,5283,455
0.981433,9.802938,-1427,44021,26.5258,5283,455
1.45505,9.674409,-1426,44022,26.5756,5283,455
1.83739,9.557412,-1425,44023,26.5756,5280,444
1.60466,9.741945,-1424,44024,26.5756,5280,444
1.40163,9.66285,-1423,44025,26.3267,5280,444
1.77132,9.669787,-1422,44026,26.5258,5280,444
2.04845,9.614151,-1421,44027,26.3765,5280,444
1.52856,9.579215,-1420,44028,26.5258,5280,444
1.96772,9.614151,-1419,44029,26.5258,5280,444
1.77401,9.650506,-1418,44030,26.5756,5280,444
1.74966,9.640464,-1417,44031,26.5756,5280,444
1.79539,9.443699,-1416,44032,26.2271,5280,444
1.37415,9.588543,-1415,44033,26.5258,5283,441
2.34782,9.595534,-1414,44034,26.3267,5283,441
1.60168,9.535559,-1413,44035,26.5258,5283,441
1.66016,9.494842,-1412,44036,26.3765,5283,441
0.690534,9.487777,-1411,44037,26.476,5283,441
1.19604,9.677489,-1410,44038,26.5258,5283,441
1.37067,9.920044,-1409,44039,26.5258,5283,441
1.5807,9.78011,-1408,44040,26.3765,5283,441
0.560992,9.612601,-1407,44041,26.5258,5283,441
2.03444,9.600968,-1406,44042,26.3267,5283,441
1.63702,9.748826,-1405,44043,26.5258,5282,462
1.67161,9.846921,-1404,44044,26.3267,5282,462
1.9942,9.987411,-1403,44045,26.476,5282,462
3.00204,9.974721,-1402,44046,26.3267,5282,462
1.50022,9.966501,-1401,44047,26.725,5282,462
1.66303,9.841623,-1400,44048,26.3765,5282,462
1.61059,9.76181,-1399,44049,26.476,5282,462
0.534885,9.76181,-1398,44050,26.5258,5282,462
1.90617,9.575325,-1397,44051,26.5258,5282,462
2.33764,9.612601,-1396,44052,26.3765,5282,462
1.92361,9.770202,-1395,44053,26.5756,5283,436
1.12623,9.535559,-1394,44054,26.3765,5283,436
2.01324,9.519919,-1393,44055,26.476,5283,436
1.90116,9.329399,-1392,44056,26.5258,5283,436
1.93596,9.346155,-1391,44057,26.5258,5283,436
1.34255,9.866574,-1390,44058,26.5258,5283,436
1.05179,9.866574,-1389,44059,26.3267,5283,436
0.768946,9.83708,-1388,44060,26.5258,5283,436
2.14399,9.937303,-1387,44061,26.3765,5283,436
1.09183,9.959771,-1386,44062,26.3765,5283,436
1.37415,9.985172,-1385,44063,26.5756,5283,473
1.28817,9.920044,-1384,44064,26.3765,5283,473
2.06237,9.579215,-1383,44065,26.5258,5283,473
2.02504,9.545711,-1382,44066,26.5258,5283,473
0.895034,9.545711,-1381,44067,26.3765,5283,473
1.9918,9.335786,-1380,44068,26.5258,5283,473
1.99897,9.381959,-1379,44069,26.5258,5283,473
2.11488,9.535559,-1378,44070,26.3765,5283,473
1.88858,9.472845,-1377,44071,26.5756,5283,473
0.961803,9.730466,-1376,44072,26.5258,5283,473
1.80334,9.76181,-1375,44073,26.5258,5280,438
1.33185,9.738886,-1374,44074,26.5258,5280,438
1.3102,9.955281,-1373,44075,26.476,5280,438
1.78206,9.877895,-1372,44076,26.2271,5280,438
1.56859,10.12595,-1371,44077,26.3765,5280,438
1.27328,9.882419,-1370,44078,26.3765,5280,438
2.25034,9.41921,-1369,44079,26.3765,5280,438
1.4681,9.381959,-1368,44080,26.476,5280,438
1.68863,9.712072,-1367,44081,26.5756,5280,438
1.31745,9.74118,-1366,44082,26.3765,5280,438
1.90617,9.631959,-1365,44083,26.5258,5283,462
2.02269,9.545711,-1364,44084,26.3267,5283,462
2.11714,9.525396,-1363,44085,26.476,5283,462
1.25821,9.557412,-1362,44086,26.3765,5283,462
0.840071,9.569098,-1361,44087,26.6752,5283,462
1.23912,9.712072,-1360,44088,26.476,5283,462
1.46484,9.802938,-1359,44089,26.5258,5283,462
2.95723,9.78011,-1358,44090,26.3267,5283,462
1.27328,10.07062,-1357,44091,26.476,5283,462
1.63702,9.720507,-1356,44092,26.3765,5283,462
1.53168,9.487777,-1355,44093,26.3765,5276,441
1.68014,9.409713,-1354,44094,26.3765,5276,441
1.17594,9.418419,-1353,44095,26.5258,5276,441
1.74146,9.516005,-1352,44096,26.3765,5276,441
1.70549,9.438964,-1351,44097,26.476,5276,441
1.13886,9.815091,-1350,44098,26.3765,5276,441
2.33151,9.760283,-1349,44099,26.476,5276,441
1.60466,9.866574,-1348,44100,26.3765,5276,441
1.46484,10.0291,-1347,44101,26.3765,5276,441
1.92856,9.945547,-1346,44102,26.3267,5276,441
1.48103,9.812813,-1345,44103,26.476,5282,464
1.07865,9.846921,-1344,44104,26.3267,5282,464
0.840071,9.695949,-1343,44105,26.5258,5282,464
3.00997,9.720507,-1342,44106,26.476,5282,464
1.34255,9.595534,-1341,44107,26.3267,5282,464
2.50313,9.596311,-1340,44108,26.5258,5282,464
2.03209,9.693643,-1339,44109,26.5756,5282,464
1.49385,9.652821,-1338,44110,26.5258,5282,464
1.91615,9.929803,-1337,44111,26.3765,5282,464
1.81125,10.03727,-1336,44112,26.476,5282,464
0.507437,9.76181,-1335,44113,26.3765,5282,423
2.16392,9.730466,-1334,44114,26.5756,5282,423
1.69708,9.535559,-1333,44115,26.3267,5282,423
1.69146,9.650506,-1332,44116,26.3267,5282,423
0.655098,9.569098,-1331,44117,26.3267,5282,423
1.88606,9.738886,-1330,44118,26.3267,5282,423
1.77938,9.897486,-1329,44119,26.6752,5282,423
1.91864,9.953784,-1328,44120,26.5258,5282,423
1.25821,9.929803,-1327,44121,26.6752,5282,423
2.08537,10.20292,-1326,44122,26.476,5282,423
2.00374,10.22043,-1325,44123,26.5258,5281,481
1.66016,10.0053,-1324,44124,26.1773,5281,481
1.96287,9.882419,-1323,44125,26.5258,5281,481
0.793363,9.756465,-1322,44126,26.3267,5281,481
1.81388,9.535559,-1321,44127,26.5258,5281,481
2.3539,9.418419,-1320,44128,26.5258,5281,481
0.697405,9.832534,-1319,44129,26.476,5281,481
2.12837,9.864309,-1318,44130,26.2271,5281,481
2.05078,9.756465,-1317,44131,26.3267,5281,481
1.04268,9.652821,-1316,44132,26.3267,5281,481
1.39822,9.637372,-1315,44133,26.3267,5285,428
2.62948,9.705166,-1314,44134,26.3765,5285,428
1.45176,9.756465,-1313,44135,26.3765,5285,428
1.93596,9.418419,-1312,44136,26.5258,5285,428
1.98461,9.428697,-1311,44137,26.5258,5285,428
2.37206,9.546492,-1310,44138,26.5258,5285,428
0.59402,9.203163,-1309,44139,26.5258,5285,428
1.85804,9.319811,-1308,44140,26.3765,5285,428
1.34255,9.812813,-1307,44141,26.5258,5285,428
2.0693,9.974721,-1306,44142,26.5258,5285,428
1.83739,9.803698,-1305,44143,26.3765,5280,465
2.04146,9.757993,-1304,44144,26.3765,5280,465
2.01087,9.554293,-1303,44145,26.3267,5280,465
1.64863,9.631959,-1302,44146,26.3765,5280,465
1.93842,9.712072,-1301,44147,26.5756,5280,465
1.17998,9.83708,-1300,44148,26.5258,5280,465
1.98461,10.12595,-1299,44149,26.3267,5280,465
2.03912,10.1883,-1298,44150,26.3765,5280,465
2.14177,9.662079,-1297,44151,26.5258,5280,465
2.31303,9.516005,-1296,44152,26.3765,5280,465
0.971667,9.479135,-1295,44153,26.476,5284,422
1.34255,9.346155,-1294,44154,26.3765,5284,422
0.402647,9.207209,-1293,44155,26.5258,5284,422
1.60466,9.408129,-1292,44156,26.3267,5284,422
1.62532,9.50347,-1291,44157,26.3765,5284,422
1.59273,9.560529,-1290,44158,26.3267,5284,422
1.60466,9.677489,-1289,44159,26.3267,5284,422
0.926449,9.548052,-1288,44160,26.5258,5284,422
2.14622,9.553513,-1287,44161,26.476,5284,422
1.80334,9.911779,-1286,44162,26.5258,5284,422
1.83739,10.11344,-1285,44163,26.5258,5292,493
1.61355,10.17586,-1284,44164,26.3765,5292,493
1.17998,10.10533,-1283,44165,26.3765,5292,493
0.625305,10.05581,-1282,44166,26.5258,5292,493
1.11773,10.07062,-1281,44167,26.5258,5292,493
1.60466,9.685954,-1280,44168,26.5258,5292,493
1.94333,9.50347,-1279,44169,26.3765,5292,493
1.95556,9.545711,-1278,44170,26.3267,5292,493
0.710948,9.685954,-1277,44171,26.3765,5292,493
0.966748,9.770202,-1276,44172,26.3765,5292,493
1.65152,9.841623,-1275,44173,26.476,5270,402
2.12388,9.688262,-1274,44174,26.5258,5270,402
1.23912,9.848434,-1273,44175,26.6752,5270,402
1.52544,9.966501,-1272,44176,26.476,5270,402
1.09183,10.05581,-1271,44177,26.3267,5270,402
0.926449,10.03653,-1270,44178,26.5258,5270,402
1.68863,9.945547,-1269,44179,26.3267,5270,402
1.09619,9.905011,-1268,44180,26.5258,5270,402
1.91615,9.778586,-1267,44181,26.5258,5270,402
1.44188,9.519919,-1266,44182,26.476,5270,402
1.07865,9.579215,-1265,44183,26.6752,5278,484
0.717624,9.685954,-1264,44184,26.3765,5278,484
0.717624,9.872613,-1263,44185,26.3267,5278,484
2.04146,9.920044,-1262,44186,26.476,5278,484
1.81913,9.974721,-1261,44187,26.476,5278,484
1.82698,10.09279,-1260,44188,26.6752,5278,484
1.46158,10.03727,-1259,44189,26.3267,5278,484
1.35316,9.879403,-1258,44190,26.5258,5278,484
2.19672,9.545711,-1257,44191,26.3765,5278,484
1.51917,9.462615,-1256,44192,26.476,5278,484
0.921287,9.184524,-1255,44193,26.3267,5278,438
0.534885,9.103041,-1254,44194,26.3267,5278,438
1.91864,9.362881,-1253,44195,26.3765,5278,438
1.85804,9.794574,-1252,44196,26.5258,5278,438
1.43857,9.802938,-1251,44197,26.5756,5278,438
2.30684,9.685954,-1250,44198,26.5258,5278,438
1.23912,9.595534,-1249,44199,26.5258,5278,438
2.31303,9.560529,-1248,44200,26.3267,5278,438
1.73323,9.707468,-1247,44201,26.3267,5278,438
2.00136,9.741945,-1246,44202,26.5258,5278,438
1.52231,9.730466,-1245,44203,26.5258,5283,406
2.14399,9.83708,-1244,44204,26.476,5283,406
2.08994,9.83708,-1243,44205,26.5258,5283,406
0.905627,9.52696,-1242,44206,26.5258,5283,406
1.49704,9.409713,-1241,44207,26.3765,5283,406
2.03678,9.720507,-1240,44208,26.3765,5283,406
1.45505,9.452373,-1239,44209,26.476,5283,406
1.11773,9.418419,-1238,44210,26.5258,5283,406
0.447517,9.377193,-1237,44211,26.476,5283,406
2.12388,9.338977,-1236,44212,26.3267,5283,406
2.03444,9.794574,-1235,44213,26.6752,5284,495
1.08306,10.17952,-1234,44214,26.5258,5284,495
0.966748,9.997104,-1233,44215,26.476,5284,495
2.16392,9.652821,-1232,44216,26.476,5284,495
2.10585,9.535559,-1231,44217,26.2271,5284,495
2.28816,9.644327,-1230,44218,26.3267,5284,495
2.02269,9.770202,-1229,44219,26.476,5284,495
1.25442,9.897486,-1228,44220,26.5258,5284,495
1.96529,9.812813,-1227,44221,26.3267,5284,495
0.828641,9.906515,-1226,44222,26.3765,5284,495
1.0381,10.02241,-1225,44223,26.3765,5282,416
0.834375,9.920044,-1224,44224,26.5258,5282,416
3.06647,9.718208,-1223,44225,26.2271,5282,416
1.9335,9.514439,-1222,44226,26.476,5282,416
0.799351,9.535559,-1221,44227,26.3765,5282,416
0.926449,9.525396,-1220,44228,26.5258,5282,416
2.14177,9.730466,-1219,44229,26.3267,5282,416
1.68298,9.856753,-1218,44230,26.5258,5282,416
1.28447,9.920044,-1217,44231,26.3267,5282,416
1.76323,9.920044,-1216,44232,26.3765,5282,416
1.21188,9.596311,-1215,44233,26.3267,5283,479
2.1771,9.867329,-1214,44234,26.3267,5283,479
2.16171,9.828745,-1213,44235,26.5258,5283,479
1.45505,9.516005,-1212,44236,26.6752,5283,479
2.19672,9.355716,-1211,44237,26.3267,5283,479
2.56336,9.76181,-1210,44238,26.5258,5283,479
2.71688,9.695949,-1209,44239,26.3267,5283,479
1.87592,9.650506,-1208,44240,26.3765,5283,479
1.80334,9.650506,-1207,44241,26.476,5283,479
1.27328,9.535559,-1206,44242,26.5756,5283,479
2.60945,9.804458,-1205,44243,26.5258,5281,422
2.76903,9.974721,-1204,44244,26.3267,5281,422
2.14399,9.640464,-1203,44245,26.6752,5281,422
1.19205,9.408921,-1202,44246,26.3267,5281,422
2.19889,9.535559,-1201,44247,26.5258,5281,422
1.47458,9.897486,-1200,44248,26.5258,5281,422
1.74966,9.802938,-1199,44249,26.5258,5281,422
1.79804,9.604071,-1198,44250,26.5258,5281,422
1.57769,9.604071,-1197,44251,26.3765,5281,422
1.96287,9.494842,-1196,44252,26.5258,5281,422
1.11345,9.443699,-1195,44253,26.3267,5288,488
2.38009,9.381959,-1194,44254,26.6752,5288,488
1.06977,9.266094,-1193,44255,26.5258,5288,488
1.98701,9.22984,-1192,44256,26.1773,5288,488
1.7767,9.545711,-1191,44257,26.3267,5288,488
1.38452,9.474418,-1190,44258,26.476,5288,488
1.3102,9.625769,-1189,44259,26.5756,5288,488
2.10585,9.815091,-1188,44260,26.3765,5288,488
1.67446,9.974721,-1187,44261,26.2271,5288,488
2.15287,10.15461,-1186,44262,26.3267,5288,488
0.845728,10.07062,-1185,44263,26.5756,5281,402
1.99659,9.560529,-1184,44264,26.5258,5281,402
1.93596,9.644327,-1183,44265,26.3267,5281,402
1.98701,9.612601,-1182,44266,26.6752,5281,402
1.67446,9.535559,-1181,44267,26.5258,5281,402
1.90116,9.640464,-1180,44268,26.476,5281,402
1.12198,9.640464,-1179,44269,26.3267,5281,402
1.3637,9.487777,-1178,44270,26.3267,5281,402
1.32827,9.487777,-1177,44271,26.5258,5281,402
1.66589,9.604071,-1176,44272,26.3267,5281,402
1.46158,9.766388,-1175,44273,26.476,5281,402
1.80334,10.00977,-1174,44274,26.3765,5281,402
1.83998,10.10385,-1173,44275,26.5258,5281,402
1.0381,9.897486,-1172,44276,26.5258,5281,402
1.66016,9.74118,-1171,44277,26.3267,5281,402
1.48103,9.516005,-1170,44278,26.3765,5281,402
1.53168,9.487777,-1169,44279,26.476,5281,402
1.10916,9.652821,-1168,44280,26.6752,5281,402
1.3102,9.78011,-1167,44281,26.2271,5281,402
1.46484,9.812813,-1166,44282,26.5258,5281,402
1.06082,9.545711,-1165,44283,26.3765,5272,461
1.86572,9.631185,-1164,44284,26.3765,5272,461
2.39407,9.487777,-1163,44285,26.1773,5272,461
1.14304,9.583103,-1162,44286,26.6752,5272,461
1.77132,9.785441,-1161,44287,26.5258,5272,461
1.66303,9.730466,-1160,44288,26.5258,5272,461
2.27981,9.52696,-1159,44289,26.5258,5272,461
1.21188,9.605623,-1158,44290,26.3765,5272,461
0.862477,9.677489,-1157,44291,26.476,5272,461
1.62239,9.756465,-1156,44292,26.3765,5272,461
2.39606,9.52696,-1155,44293,26.5258,5281,439
1.33185,9.472845,-1154,44294,26.725,5281,439
2.44141,9.804458,-1153,44295,26.5756,5281,439
0.768946,9.707468,-1152,44296,26.476,5281,439
1.20794,9.631959,-1151,44297,26.3267,5281,439
0.768946,9.560529,-1150,44298,26.5258,5281,439
1.58673,9.652821,-1149,44299,26.5258,5281,439
1.39139,9.631959,-1148,44300,26.5258,5281,439
1.76323,9.828745,-1147,44301,26.5258,5281,439
1.39822,9.929803,-1146,44302,26.6752,5281,439
2.70809,9.945547,-1145,44303,26.6752,5280,442
2.09677,9.990394,-1144,44304,26.3267,5280,442
1.42859,9.82192,-1143,44305,26.3267,5280,442
1.68014,9.899744,-1142,44306,26.2271,5280,442
1.28817,9.879403,-1141,44307,26.5258,5280,442
1.79273,9.866574,-1140,44308,26.3267,5280,442
1.07865,9.887695,-1139,44309,26.2271,5280,442
1.4118,10.05581,-1138,44310,26.3765,5280,442
1.82698,10.2073,-1137,44311,26.5756,5280,442
1.63702,10.13992,-1136,44312,26.3267,5280,442
1.11773,9.848434,-1135,44313,26.3765,5282,456
2.48976,9.590874,-1134,44314,26.6752,5282,456
1.51917,9.377193,-1133,44315,26.2271,5282,456
1.36019,9.184524,-1132,44316,26.3267,5282,456
1.36019,9.474418,-1131,44317,26.2271,5282,456
1.32827,9.695949,-1130,44318,26.6752,5282,456
1.60466,9.83708,-1129,44319,26.5756,5282,456
1.81651,9.802938,-1128,44320,26.5258,5282,456
1.76323,9.730466,-1127,44321,26.3765,5282,456
1.22752,9.818886,-1126,44322,26.476,5282,456
2.09677,9.872613,-1125,44323,26.5258,5280,442
1.43857,9.933554,-1124,44324,26.3765,5280,442
0.85693,9.980694,-1123,44325,26.5258,5280,442
1.65728,9.953784,-1122,44326,26.3267,5280,442
1.51603,9.612601,-1121,44327,26.476,5280,442
1.68298,9.644327,-1120,44328,26.5258,5280,442
1.61355,9.802938,-1119,44329,26.3267,5280,442
1.57769,9.848434,-1118,44330,26.476,5280,442
1.23912,9.672099,-1117,44331,26.5258,5280,442
2.03678,9.866574,-1116,44332,26.3765,5280,442
2.20323,9.802938,-1115,44333,26.6752,5282,428
0.889691,9.841623,-1114,44334,26.3267,5282,428
1.04725,9.693643,-1113,44335,26.5258,5282,428
1.14304,9.778586,-1112,44336,26.5756,5282,428
1.4681,9.451585,-1111,44337,26.5258,5282,428
0.845728,9.548052,-1110,44338,26.6752,5282,428
1.21188,9.794574,-1109,44339,26.5756,5282,428
1.46158,9.897486,-1108,44340,26.3765,5282,428
1.52856,9.631185,-1107,44341,26.6752,5282,428
2.66371,9.29259,-1106,44342,26.5258,5282,428
1.88858,9.29259,-1105,44343,26.3765,5282,472
1.90867,9.50347,-1104,44344,26.5258,5282,472
1.22363,9.52696,-1103,44345,26.3267,5282,472
1.98461,9.560529,-1102,44346,26.3765,5282,472
2.02504,9.941051,-1101,44347,26.3765,5282,472
1.31745,9.908771,-1100,44348,26.476,5282,472
1.44188,9.974721,-1099,44349,26.3267,5282,472
1.88353,9.866574,-1098,44350,26.3765,5282,472
1.67161,9.908771,-1097,44351,26.5258,5282,472
1.69427,9.66285,-1096,44352,26.3267,5282,472
2.33764,9.560529,-1095,44353,26.2271,5279,428
1.90617,9.409713,-1094,44354,26.5258,5279,428
1.04725,9.595534,-1093,44355,26.5258,5279,428
1.52544,9.712072,-1092,44356,26.2271,5279,428
1.80598,9.553513,-1091,44357,26.5258,5279,428
1.68863,9.723573,-1090,44358,26.6752,5279,428
2.04845,9.828745,-1089,44359,26.3267,5279,428
1.23526,10.01721,-1088,44360,26.5258,5279,428
2.32332,9.872613,-1087,44361,26.3765,5279,428
0.497951,9.76181,-1086,44362,26.3765,5279,428
2.21402,9.621123,-1085,44363,26.476,5282,457
2.12613,9.535559,-1084,44364,26.5258,5282,457
1.66016,9.652821,-1083,44365,26.3267,5282,457
1.92856,9.748826,-1082,44366,26.3765,5282,457
1.79804,9.748826,-1081,44367,26.3267,5282,457
1.65152,9.741945,-1080,44368,26.3765,5282,457
1.14304,9.832534,-1079,44369,26.5258,5282,457
1.62826,9.828745,-1078,44370,26.3267,5282,457
2.38009,9.770202,-1077,44371,26.3267,5282,457
2.79986,9.652821,-1076,44372,26.3267,5282,457
1.60466,9.730466,-1075,44373,26.5258,5276,418
0.98628,9.720507,-1074,44374,26.476,5276,418
1.97739,9.718974,-1073,44375,26.476,5276,418
1.81125,9.877895,-1072,44376,26.476,5276,418
1.39822,10.03727,-1071,44377,26.5258,5276,418
2.27981,9.988903,-1070,44378,26.3267,5276,418
1.3029,9.909523,-1069,44379,26.5258,5276,418
0.811194,9.730466,-1068,44380,26.3765,5276,418
1.70829,9.557412,-1067,44381,26.5258,5276,418
0.905627,9.545711,-1066,44382,26.5258,5276,418
1.958,9.730466,-1065,44383,26.5756,5283,481
0.365396,9.625769,-1064,44384,26.3267,5283,481
1.97256,9.49798,-1063,44385,26.3267,5283,481
0.710948,9.487777,-1062,44386,26.3765,5283,481
1.9798,9.650506,-1061,44387,26.5258,5283,481
1.04268,9.685954,-1060,44388,26.5756,5283,481
1.52856,9.96351,-1059,44389,26.5258,5283,481
1.6341,9.78011,-1058,44390,26.3765,5283,481
1.44518,9.560529,-1057,44391,26.3267,5283,481
1.19604,9.720507,-1056,44392,26.3267,5283,481
1.76323,9.595534,-1055,44393,26.3765,5277,425
1.59572,9.569098,-1054,44394,26.5756,5277,425
1.83998,9.494842,-1053,44395,26.5258,5277,425
0.926449,9.535559,-1052,44396,26.5258,5277,425
1.63993,9.685954,-1051,44397,26.2271,5277,425
2.02269,9.707468,-1050,44398,26.5258,5277,425
1.49385,9.802938,-1049,44399,26.5258,5277,425
1.96529,9.802938,-1048,44400,26.5258,5277,425
1.07422,9.777824,-1047,44401,26.3267,5277,425
1.57769,9.766388,-1046,44402,26.5756,5277,425
1.9335,9.677489,-1045,44403,26.476,5279,472
1.92608,9.879403,-1044,44404,26.5258,5279,472
1.54717,10.16414,-1043,44405,26.5258,5279,472
2.21617,10.23136,-1042,44406,26.5258,5279,472
0.717624,9.677489,-1041,44407,26.476,5279,472
2.0693,9.677489,-1040,44408,26.3267,5279,472
1.77132,9.52696,-1039,44409,26.2271,5279,472
2.01324,9.428697,-1038,44410,26.3765,5279,472
1.74966,9.625769,-1037,44411,26.3765,5279,472
1.61355,9.741945,-1036,44412,26.5258,5279,472
1.76052,9.812813,-1035,44413,26.1773,5283,423
0.926449,9.770202,-1034,44414,26.476,5283,423
1.60466,9.652821,-1033,44415,26.5258,5283,423
1.14304,9.545711,-1032,44416,26.3267,5283,423
1.41517,9.50347,-1031,44417,26.5258,5283,423
2.2819,9.78011,-1030,44418,26.3267,5283,423
0.717624,9.720507,-1029,44419,26.5756,5283,423
0.840071,9.815091,-1028,44420,26.3765,5283,423
1.49385,9.595534,-1027,44421,26.3267,5283,423
1.95556,9.327003,-1026,44422,26.5258,5283,423
1.38452,9.487777,-1025,44423,26.3765,5279,429
1.26577,9.83708,-1024,44424,26.1773,5279,429
1.39139,9.685954,-1023,44425,26.5258,5279,429
1.60466,9.685954,-1022,44426,26.3765,5279,429
2.04146,9.614151,-1021,44427,26.3267,5279,429
1.62826,9.534778,-1020,44428,26.5258,5279,429
1.01016,9.614151,-1019,44429,26.5756,5279,429
1.19205,9.590874,-1018,44430,26.3267,5279,429
1.57163,9.909523,-1017,44431,26.5258,5279,429
1.74146,10.10828,-1016,44432,26.5258,5279,429
0.995902,9.968743,-1015,44433,26.3267,5284,461
1.60168,9.631959,-1014,44434,26.1773,5284,461
1.51603,9.255635,-1013,44435,26.5258,5284,461
1.20399,8.7933,-1012,44436,26.3267,5284,461
2.11714,8.947846,-1011,44437,26.5258,5284,461
1.81913,9.436596,-1010,44438,26.3765,5284,461
1.64863,9.867329,-1009,44439,26.2271,5284,461
1.5034,10.16414,-1008,44440,26.3267,5284,461
1.67161,10.10533,-1007,44441,26.476,5284,461
1.36019,9.967996,-1006,44442,26.476,5284,461
1.63702,10.02018,-1005,44443,26.5258,5281,434
1.32827,10.05581,-1004,44444,26.476,5281,434
1.51917,9.688262,-1003,44445,26.476,5281,434
0.525895,9.479135,-1002,44446,26.5258,5281,434
2.01797,9.497196,-1001,44447,26.5258,5281,434
1.81651,9.923048,-1000,44448,26.5756,5281,434
1.5807,9.929803,-999,44449,26.3267,5281,434
0.737289,10.15827,-998,44450,26.3765,5281,434
1.82437,9.390691,-997,44451,26.3267,5281,434
1.78473,9.171535,-996,44452,26.3765,5281,434
0.862477,9.228225,-995,44453,26.6752,5280,433
1.68014,9.0538,-994,44454,26.3267,5280,433
1.49066,8.965314,-993,44455,26.476,5280,433
1.78473,9.693643,-992,44456,26.476,5280,433
2.11263,10.5363,-991,44457,26.5258,5280,433
2.1771,10.35081,-990,44458,26.6752,5280,433
2.23118,9.834807,-989,44459,26.5756,5280,433
1.93596,9.291788,-988,44460,26.5258,5280,433
2.18584,9.83708,-987,44461,26.3267,5280,433
1.78206,10.42541,-986,44462,26.476,5280,433
1.17998,10.17074,-985,44463,26.3267,5276,432
0.817051,9.301405,-984,44464,26.5756,5276,432
1.4118,9.099767,-983,44465,26.3267,5276,432
1.10916,9.462615,-982,44466,26.3765,5276,432
1.19604,10.1744,-981,44467,26.3267,5276,432
1.82437,10.19415,-980,44468,26.5258,5276,432
2.92317,9.595534,-979,44469,26.1773,5276,432
1.70549,9.044743,-978,44470,26.5258,5276,432
1.64863,9.10386,-977,44471,26.3267,5276,432
1.32827,9.937303,-976,44472,26.476,5276,432
1.56555,10.70119,-975,44473,26.5756,5282,464
1.55638,10.87796,-974,44474,26.3267,5282,464
1.19604,10.41969,-973,44475,26.5258,5282,464
1.02423,9.804458,-972,44476,26.3765,5282,464
1.77401,9.291788,-971,44477,26.3267,5282,464
1.42525,9.381959,-970,44478,26.5258,5282,464
1.44518,9.588543,-969,44479,26.5258,5282,464
1.46484,10.04691,-968,44480,26.3267,5282,464
2.33151,10.08171,-967,44481,26.3765,5282,464
2.25245,9.688262,-966,44482,26.3267,5282,464
1.32827,9.309412,-965,44483,26.6752,5281,416
2.1771,9.29259,-964,44484,26.5258,5281,416
0.793363,9.593981,-963,44485,26.2271,5281,416
1.46484,10.28655,-962,44486,26.3765,5281,416
1.89865,10.73247,-961,44487,26.2271,5281,416
1.83998,10.47389,-960,44488,26.6752,5281,416
0.946812,10.09426,-959,44489,26.3765,5281,416
1.0381,9.76181,-958,44490,26.5258,5281,416
1.09183,9.635052,-957,44491,26.5258,5281,416
1.25821,9.702094,-956,44492,26.3267,5281,416
1.71108,9.508956,-955,44493,26.5258,5279,467
1.79804,9.017518,-954,44494,26.3765,5279,467
1.11345,9.175596,-953,44495,26.5258,5279,467
0.961803,9.161782,-952,44496,26.5258,5279,467
1.84774,9.631959,-951,44497,26.3765,5279,467
1.43525,9.97248,-950,44498,26.476,5279,467
1.42525,10.2909,-949,44499,26.5756,5279,467
1.30655,10.36017,-948,44500,26.5258,5279,467
1.27702,10.07801,-947,44501,26.3765,5279,467
1.28447,9.738886,-946,44502,26.3765,5279,467
1.84257,9.150389,-945,44503,26.3267,5282,405
1.96772,9.383547,-944,44504,26.476,5282,405
2.09904,9.406545,-943,44505,26.5258,5282,405
1.71386,9.49798,-942,44506,26.3267,5282,405
1.83739,9.524614,-941,44507,26.3267,5282,405
1.51603,9.96351,-940,44508,26.3765,5282,405
1.63993,10.58569,-939,44509,26.476,5282,405
0.840071,10.86494,-938,44510,26.5258,5282,405
1.38107,10.92171,-937,44511,26.5258,5282,405
1.76052,10.66283,-936,44512,26.3765,5282,405
1.07865,10.17952,-935,44513,26.3267,5282,469
1.91864,9.872613,-934,44514,26.3267,5282,469
2.23332,9.161782,-933,44515,26.476,5282,469
1.26953,8.83472,-932,44516,26.5756,5282,469
1.27328,8.811075,-931,44517,26.3765,5282,469
1.29556,8.895233,-930,44518,26.476,5282,469
1.67446,9.22984,-929,44519,26.3765,5282,469
1.85804,9.139798,-928,44520,26.5258,5282,469
2.11488,9.285371,-927,44521,26.3267,5282,469
1.14304,9.431067,-926,44522,26.3267,5282,469
2.15066,9.516005,-925,44523,26.3765,5283,408
1.69708,9.828745,-924,44524,26.5258,5283,408
1.53789,10.09131,-923,44525,26.3765,5283,408
2.22262,10.30464,-922,44526,26.3765,5283,408
1.64863,10.02241,-921,44527,26.5258,5283,408
1.83219,9.767914,-920,44528,26.3267,5283,408
2.25034,9.62422,-919,44529,26.3267,5283,408
1.87846,9.483064,-918,44530,26.3267,5283,408
1.02423,9.393864,-917,44531,26.3267,5283,408
1.05631,9.487777,-916,44532,26.5258,5283,408
1.27702,9.625769,-915,44533,26.5258,5280,408
0.873464,9.315813,-914,44534,26.5258,5280,408
1.61945,9.228225,-913,44535,26.3765,5280,408
1.98701,9.167472,-912,44536,26.3765,5280,408
1.51917,9.083377,-911,44537,26.5756,5280,408
1.32827,9.35253,-910,44538,26.3267,5280,408
1.68014,9.943299,-909,44539,26.5258,5280,408
1.51917,10.18757,-908,44540,26.2271,5280,408
2.24609,10.20292,-907,44541,26.5258,5280,408
2.1573,9.848434,-906,44542,26.3765,5280,408
1.40163,9.381959,-905,44543,26.5258,5280,467
2.09904,9.323807,-904,44544,26.3765,5280,467
1.58973,9.349343,-903,44545,26.5258,5280,467
1.73047,9.146317,-902,44546,26.3267,5280,467
1.38452,9.142243,-901,44547,26.3765,5280,467
2.00374,9.687493,-900,44548,26.5258,5280,467
1.3029,10.32703,-899,44549,26.5258,5280,467
1.86572,10.75744,-898,44550,26.3267,5280,467
1.05631,10.86083,-897,44551,26.6752,5280,467
0.78733,10.47673,-896,44552,26.476,5280,467
1.50657,10.21168,-895,44553,26.5258,5282,407
1.53168,9.575325,-894,44554,26.6752,5282,407
2.42376,8.704735,-893,44555,26.3267,5282,407
1.80598,8.629085,-892,44556,26.5756,5282,407
1.39139,8.317818,-891,44557,26.5756,5282,407
1.26953,8.178711,-890,44558,26.476,5282,407
2.05078,8.931177,-889,44559,26.3765,5282,407
1.57163,9.879403,-888,44560,26.476,5282,407
0.878906,10.57583,-887,44561,26.3765,5282,407
0.884315,10.92921,-886,44562,26.5258,5282,407
1.92608,10.77612,-885,44563,26.476,5275,452
0.995902,10.51932,-884,44564,26.3267,5275,452
1.42859,10.21751,-883,44565,26.5756,5275,452
2.1771,10.05284,-882,44566,26.476,5275,452
1.3461,9.864309,-881,44567,26.5258,5275,452
1.51603,9.657451,-880,44568,26.3765,5275,452
2.19672,9.239521,-879,44569,26.6752,5275,452
1.85804,9.319811,-878,44570,26.3765,5275,452
2.00612,9.600192,-877,44571,26.6752,5275,452
1.5807,10.02167,-876,44572,26.3267,5275,452
0.895034,10.19123,-875,44573,26.3267,5280,424
1.59273,10.20292,-874,44574,26.5258,5280,424
1.36019,9.709003,-873,44575,26.725,5280,424
1.73872,9.316612,-872,44576,26.3765,5280,424
1.78206,9.311813,-871,44577,26.5258,5280,424
1.06082,9.675179,-870,44578,26.6752,5280,424
1.66016,10.00977,-869,44579,26.1773,5280,424
0.889691,10.05803,-868,44580,26.5258,5280,424
1.9942,10.22043,-867,44581,26.3267,5280,424
1.39139,10.09279,-866,44582,26.5756,5280,424
2.81853,9.685954,-865,44583,26.5258,5281,456
2.44336,9.595534,-864,44584,26.3267,5281,456
1.31383,9.52696,-863,44585,26.3267,5281,456
1.30655,9.50347,-862,44586,26.5756,5281,456
1.84774,9.409713,-861,44587,26.5258,5281,456
2.51073,9.457102,-860,44588,26.5756,5281,456
1.98461,9.812054,-859,44589,26.5756,5281,456
1.10916,9.718208,-858,44590,26.5258,5281,456
1.35316,9.705166,-857,44591,26.2271,5281,456
1.82437,9.595534,-856,44592,26.6752,5281,456
1.7767,9.362881,-855,44593,26.476,5281,431
1.59273,9.255635,-854,44594,26.3267,5281,431
1.14304,9.342965,-853,44595,26.6752,5281,431
1.87592,9.584657,-852,44596,26.476,5281,431
1.88858,9.462615,-851,44597,26.3765,5281,431
1.27328,9.820403,-850,44598,26.3765,5281,431
1.13045,10.05581,-849,44599,26.3765,5281,431
1.48103,10.19634,-848,44600,26.3765,5281,431
1.09619,10.22626,-847,44601,26.6752,5281,431
1.61945,10.08466,-846,44602,26.3267,5281,431
1.09183,9.841623,-845,44603,26.3267,5283,437
1.38107,9.443699,-844,44604,26.3765,5283,437
1.77938,9.383547,-843,44605,26.3765,5283,437
1.87592,9.39545,-842,44606,26.476,5283,437
1.54717,9.139798,-841,44607,26.476,5283,437
1.76863,9.600968,-840,44608,26.6752,5283,437
2.03444,10.20292,-839,44609,26.5258,5283,437
1.28817,10.45181,-838,44610,26.3765,5283,437
1.25442,10.81201,-837,44611,26.1773,5283,437
1.04268,10.77612,-836,44612,26.5258,5283,437
1.39139,10.41182,-835,44613,26.5258,5280,438
1.60168,10.0053,-834,44614,26.3765,5280,438
1.52856,9.487777,-833,44615,26.3267,5280,438
1.26577,9.266094,-832,44616,26.5258,5280,438
1.53168,9.303808,-831,44617,26.3765,5280,438
2.03444,9.169098,-830,44618,26.6752,5280,438
1.27702,9.04639,-829,44619,26.3267,5280,438
1.6341,9.210446,-828,44620,26.6752,5280,438
1.958,9.435017,-827,44621,26.3267,5280,438
0.956832,9.764099,-826,44622,26.476,5280,438
1.0381,9.930553,-825,44623,26.3765,5283,434
2.09677,10.10312,-824,44624,26.5756,5283,434
1.68581,9.905011,-823,44625,26.3267,5283,434
2.19455,9.76181,-822,44626,26.5258,5283,434
1.24296,9.582325,-821,44627,26.5756,5283,434
2.17052,9.346155,-820,44628,26.5258,5283,434
1.68863,9.327003,-819,44629,26.476,5283,434
1.3461,9.29259,-818,44630,26.476,5283,434
2.20539,9.443699,-817,44631,26.5258,5283,434
1.82437,9.385929,-816,44632,26.476,5283,434
0.710948,9.362881,-815,44633,26.5258,5281,423
1.52231,9.472058,-814,44634,26.5258,5281,423
1.53168,9.195874,-813,44635,26.5756,5281,423
2.42573,9.327003,-812,44636,26.5756,5281,423
1.49066,9.695949,-811,44637,26.476,5281,423
1.11345,10.30392,-810,44638,26.6752,5281,423
1.09619,10.23791,-809,44639,26.5258,5281,423
1.54408,9.987411,-808,44640,26.5258,5281,423
0.956832,10.00902,-807,44641,26.3765,5281,423
1.44188,10.25754,-806,44642,26.476,5281,423
1.66016,10.19926,-805,44643,26.3765,5280,419
2.13284,9.882419,-804,44644,26.5258,5280,419
2.54656,9.342965,-803,44645,26.5756,5280,419
1.4118,9.103041,-802,44646,26.3765,5280,419
1.43857,9.0538,-801,44647,26.3267,5280,419
1.83739,9.168285,-800,44648,26.476,5280,419
2.13284,9.548052,-799,44649,26.3267,5280,419
1.33185,9.794574,-798,44650,26.476,5280,419
1.38107,10.22043,-797,44651,26.5258,5280,419
1.85804,10.17586,-796,44652,26.3267,5280,419
1.45176,10.16487,-795,44653,26.3765,5277,450
1.52856,10.18245,-794,44654,26.5258,5277,450
2.12613,9.841623,-793,44655,26.5756,5277,450
1.74966,9.364472,-792,44656,26.3765,5277,450
1.82437,9.548052,-791,44657,26.5258,5277,450
2.36602,9.400207,-790,44658,26.6752,5277,450
1.18402,9.383547,-789,44659,26.5258,5277,450
1.31745,9.487777,-788,44660,26.5258,5277,450
1.57769,9.947794,-787,44661,26.3765,5277,450
2.03444,10.13184,-786,44662,26.3765,5277,450
0.768946,10.12889,-785,44663,26.5258,5278,430
1.88353,10.04914,-784,44664,26.3267,5278,430
2.03444,9.834807,-783,44665,26.3267,5278,430
1.55332,9.600968,-782,44666,26.3267,5278,430
1.33543,9.593204,-781,44667,26.5258,5278,430
1.4681,9.514439,-780,44668,26.3267,5278,430
1.86572,9.006771,-779,44669,26.5258,5278,430
0.793363,8.814457,-778,44670,26.5756,5278,430
2.30477,9.28858,-777,44671,26.3765,5278,430
0.78733,9.545711,-776,44672,26.5258,5278,430
2.0785,9.738886,-775,44673,26.3765,5280,452
2.36199,10.15534,-774,44674,26.5756,5280,452
1.88606,10.25826,-773,44675,26.5756,5280,452
1.10916,10.12963,-772,44676,26.5258,5280,452
1.67161,9.974721,-771,44677,26.6752,5280,452
1.26577,9.897486,-770,44678,26.5258,5280,452
0.840071,9.760283,-769,44679,26.3765,5280,452
1.23912,10.07062,-768,44680,26.3267,5280,452
2.14399,9.929803,-767,44681,26.5756,5280,452
1.51603,9.595534,-766,44682,26.5756,5280,452
1.74966,9.332593,-765,44683,26.5756,5280,425
1.37415,9.228225,-764,44684,26.5258,5280,425
1.26953,9.358105,-763,44685,26.3267,5280,425
1.92608,9.804458,-762,44686,26.5756,5280,425
1.23912,9.872613,-761,44687,26.5756,5280,425
0.981433,9.894475,-760,44688,26.5756,5280,425
2.11488,9.431857,-759,44689,26.3267,5280,425
1.27328,9.168285,-758,44690,26.6752,5280,425
1.40163,9.438175,-757,44691,26.5258,5280,425
1.43857,9.642782,-756,44692,26.3267,5280,425
1.28447,9.914033,-755,44693,26.3267,5279,459
1.76323,10.13478,-754,44694,26.3765,5279,459
1.23912,9.812813,-753,44695,26.6752,5279,459
1.12198,9.390691,-752,44696,26.5258,5279,459
1.69427,8.91949,-751,44697,26.5258,5279,459
1.05631,8.782278,-750,44698,26.3765,5279,459
1.53168,9.085837,-749,44699,26.3267,5279,459
1.34255,9.695949,-748,44700,26.5258,5279,459
1.09619,10.22261,-747,44701,26.3267,5279,459
1.75781,10.21168,-746,44702,26.5756,5279,459
1.75238,10.42183,-745,44703,26.3267,5282,434
1.54408,10.84573,-744,44704,26.3765,5282,434
0.793363,11.05933,-743,44705,26.3765,5282,434
1.25061,10.51011,-742,44706,26.5258,5282,434
2.15066,9.57299,-741,44707,26.6752,5282,434
2.51263,8.70131,-740,44708,26.5756,5282,434
1.89865,8.112856,-739,44709,26.476,5282,434
2.0693,8.266603,-738,44710,26.5258,5282,434
2.23332,8.684168,-737,44711,26.3765,5282,434
2.3027,9.631959,-736,44712,26.3765,5282,434
1.958,10.35369,-735,44713,26.3267,5284,472
2.33764,10.84229,-734,44714,26.5258,5284,472
1.33543,10.59764,-733,44715,26.5258,5284,472
2.04379,10.37885,-732,44716,26.2271,5284,472
1.19205,10.14359,-731,44717,26.5258,5284,472
1.62826,9.897486,-730,44718,26.5258,5284,472
1.24296,9.756465,-729,44719,26.3765,5284,472
1.49385,9.709003,-728,44720,26.5756,5284,472
1.27702,9.117762,-727,44721,26.476,5284,472
0.961803,9.024951,-726,44722,26.476,5284,472
1.9942,9.534778,-725,44723,26.3765,5279,420
1.54408,9.911779,-724,44724,26.5258,5279,420
1.67446,9.947794,-723,44725,26.3765,5279,420
1.12623,9.39545,-722,44726,26.3765,5279,420
1.20794,9.377193,-721,44727,26.476,5279,420
1.68863,9.84238,-720,44728,26.6752,5279,420
2.05078,10.46393,-719,44729,26.476,5279,420
1.9798,10.89986,-718,44730,26.5258,5279,420
0.921287,10.75397,-717,44731,26.5258,5279,420
0.895034,9.864309,-716,44732,26.3765,5279,420
1.01487,8.660973,-715,44733,26.5258,5280,469
1.92608,8.015847,-714,44734,26.3765,5280,469
1.74966,8.588408,-713,44735,26.3267,5280,469
1.17188,9.642782,-712,44736,26.476,5280,469
1.27702,10.70536,-711,44737,26.3267,5280,469
1.76863,11.0849,-710,44738,26.2271,5280,469
2.09677,10.66213,-709,44739,26.725,5280,469
1.81125,9.876386,-708,44740,26.3765,5280,469
1.62239,9.239521,-707,44741,26.5258,5280,469
1.88858,8.659252,-706,44742,26.476,5280,469
0.905627,8.938681,-705,44743,26.5258,5274,432
1.83479,9.342965,-704,44744,26.5258,5274,432
1.25821,9.625769,-703,44745,26.5258,5274,432
1.54099,9.642782,-702,44746,26.3267,5274,432
1.77132,9.984426,-701,44747,26.3267,5274,432
1.43525,10.14653,-700,44748,26.3765,5274,432
1.41517,10.07284,-699,44749,26.3267,5274,432
1.69708,10.23427,-698,44750,26.3765,5274,432
2.2819,10.03653,-697,44751,26.5258,5274,432
1.1472,9.779348,-696,44752,26.6752,5274,432
1.73047,9.335786,-695,44753,26.3267,5285,458
2.58005,9.094033,-694,44754,26.476,5285,458
2.0785,9.575325,-693,44755,26.6752,5285,458
1.67446,10.16267,-692,44756,26.3765,5285,458
1.70269,9.857508,-691,44757,26.5756,5285,458
1.73047,9.688262,-690,44758,26.5258,5285,458
1.77132,9.557412,-689,44759,26.3765,5285,458
2.14177,9.45395,-688,44760,26.5258,5285,458
1.44518,9.52696,-687,44761,26.5258,5285,458
1.57163,9.426326,-686,44762,26.3267,5285,458
1.22752,9.113675,-685,44763,26.5258,5281,441
0.916097,9.393071,-684,44764,26.476,5281,441
1.79539,9.436596,-683,44765,26.1773,5281,441
0.601994,9.327003,-682,44766,26.5258,5281,441
1.5034,9.723573,-681,44767,26.5756,5281,441
1.96772,10.47958,-680,44768,26.2271,5281,441
1.41854,10.66143,-679,44769,26.6752,5281,441
1.09183,10.31404,-678,44770,26.3267,5281,441
1.85547,9.79077,-677,44771,26.5258,5281,441
1.22752,9.285371,-676,44772,26.5258,5281,441
1.63993,9.400207,-675,44773,26.476,5280,463
1.84516,9.712072,-674,44774,26.5258,5280,463
0.690534,9.920044,-673,44775,26.5756,5280,463
1.21581,9.945547,-672,44776,26.5258,5280,463
2.02504,9.954533,-671,44777,26.5756,5280,463
2.1771,10.06247,-670,44778,26.5258,5280,463
2.20971,10.251,-669,44779,26.3267,5280,463
1.6165,10.45395,-668,44780,26.476,5280,463
0.921287,10.40538,-667,44781,26.5258,5280,463
1.96287,10.31404,-666,44782,26.5258,5280,463
1.70549,9.970985,-665,44783,26.5258,5281,426
1.51603,9.38831,-664,44784,26.3267,5281,426
1.77132,9.487777,-663,44785,26.3267,5281,426
1.89614,9.464189,-662,44786,26.5258,5281,426
2.03444,9.809016,-661,44787,26.5258,5281,426
1.00543,10.01051,-660,44788,26.3765,5281,426
1.25442,10.08466,-659,44789,26.5258,5281,426
2.06237,9.879403,-658,44790,26.476,5281,426
1.59273,9.879403,-657,44791,26.6752,5281,426
1.16371,9.730466,-656,44792,26.3267,5281,426
1.28817,9.346155,-655,44793,26.3267,5279,473
2.09222,9.150389,-654,44794,26.3267,5279,473
1.90617,9.269309,-653,44795,26.3267,5279,473
1.58673,9.342965,-652,44796,26.3267,5279,473
1.56555,9.621123,-651,44797,26.5258,5279,473
1.88858,10.04617,-650,44798,26.5258,5279,473
2.38409,10.03875,-649,44799,26.3267,5279,473
1.9798,9.987411,-648,44800,26.5258,5279,473
1.38452,9.741945,-647,44801,26.2271,5279,473
1.98461,9.675179,-646,44802,26.3765,5279,473
1.54099,9.751882,-645,44803,26.3267,5279,473
1.32827,9.551173,-644,44804,26.5258,5279,473
0.900346,9.258854,-643,44805,26.5258,5279,473
1.05631,9.169098,-642,44806,26.3765,5279,473
1.73323,9.640464,-641,44807,26.3267,5279,473
1.22752,9.793813,-640,44808,26.5258,5279,473
1.73323,9.832534,-639,44809,26.5258,5279,473
0.737289,9.69979,-638,44810,26.2271,5279,473
1.3461,9.815091,-637,44811,26.5258,5279,473
0.625305,9.738886,-636,44812,26.5258,5279,473
1.71386,9.727403,-635,44813,26.5258,5272,412
1.58673,9.57299,-634,44814,26.5258,5272,412
1.83739,9.346155,-633,44815,26.5258,5272,412
1.76323,9.278147,-632,44816,26.3267,5272,412
2.04146,9.483064,-631,44817,26.5258,5272,412
2.09222,9.612601,-630,44818,26.5258,5272,412
0.926449,9.55975,-629,44819,26.5258,5272,412
1.23912,9.335786,-628,44820,26.476,5272,412
1.87592,9.569098,-627,44821,26.3267,5272,412
1.59273,9.846921,-626,44822,26.3267,5272,412
2.23332,9.794574,-625,44823,26.5258,5280,474
2.41588,9.670558,-624,44824,26.6752,5280,474
1.73047,9.909523,-623,44825,26.3267,5280,474
1.28447,9.688262,-622,44826,26.5258,5280,474
2.10585,9.443699,-621,44827,26.476,5280,474
1.8606,9.487777,-620,44828,26.3267,5280,474
1.10916,9.535559,-619,44829,26.5756,5280,474
1.10916,9.614151,-618,44830,26.5258,5280,474
1.26953,9.650506,-617,44831,26.3267,5280,474
1.48103,9.579215,-616,44832,26.5258,5280,474
1.98701,9.631185,-615,44833,26.3765,5275,422
1.60168,9.723573,-614,44834,26.5756,5275,422
1.24296,9.693643,-613,44835,26.2271,5275,422
1.34255,9.700558,-612,44836,26.5756,5275,422
1.82437,9.680568,-611,44837,26.3765,5275,422
0.577742,9.730466,-610,44838,26.5258,5275,422
1.13045,9.872613,-609,44839,26.5756,5275,422
1.01016,9.631959,-608,44840,26.3765,5275,422
2.06237,9.338977,-607,44841,26.3765,5275,422
1.88606,9.79077,-606,44842,26.476,5275,422
1.37067,10.07801,-605,44843,26.3765,5271,422
2.03444,10.23281,-604,44844,26.476,5271,422
2.06237,10.0053,-603,44845,26.6752,5271,422
2.29024,10.18757,-602,44846,26.476,5271,422
0.981433,10.18757,-601,44847,26.5258,5271,422
1.55638,9.730466,-600,44848,26.3267,5271,422
1.47781,9.362881,-599,44849,26.3267,5271,422
1.60168,9.377193,-598,44850,26.5258,5271,422
0.840071,9.827229,-597,44851,26.5258,5271,422
1.61945,9.897486,-596,44852,26.3765,5271,422
1.00068,9.846921,-595,44853,26.5258,5276,451
1.32467,9.756465,-594,44854,26.476,5276,451
1.57769,9.569098,-593,44855,26.5258,5276,451
1.67446,9.197494,-592,44856,26.5258,5276,451
1.62532,8.964483,-591,44857,26.3267,5276,451
2.44336,9.266094,-590,44858,26.3765,5276,451
1.4118,9.487777,-589,44859,26.5756,5276,451
2.12388,9.655908,-588,44860,26.5258,5276,451
0.889691,9.590874,-587,44861,26.6752,5276,451
0.845728,9.631185,-586,44862,26.3765,5276,451
1.60168,9.707468,-585,44863,26.3765,5281,422
2.29024,9.604071,-584,44864,26.5258,5281,422
1.77132,9.553513,-583,44865,26.5258,5281,422
0.690534,9.569098,-582,44866,26.5258,5281,422
1.63993,9.84238,-581,44867,26.3765,5281,422
1.70829,9.65205,-580,44868,26.476,5281,422
0.834375,9.228225,-579,44869,26.3765,5281,422
1.25821,9.169098,-578,44870,26.3267,5281,422
1.71386,9.362881,-577,44871,26.5258,5281,422
2.1771,9.562867,-576,44872,26.6752,5281,422
2.2819,9.929803,-575,44873,26.1773,5280,479
1.95556,10.0053,-574,44874,26.476,5280,479
2.14844,9.995613,-573,44875,26.3765,5280,479
1.92856,10.04691,-572,44876,26.6752,5280,479
1.96529,9.705166,-571,44877,26.3267,5280,479
0.981433,9.677489,-570,44878,26.5258,5280,479
1.68298,9.83708,-569,44879,26.3765,5280,479
1.86827,9.604071,-568,44880,26.476,5280,479
1.00068,9.625769,-567,44881,26.3267,5280,479
2.09677,9.474418,-566,44882,26.3765,5280,479
1.6165,9.385929,-565,44883,26.5258,5278,408
1.72772,9.718974,-564,44884,26.3267,5278,408
0.851347,9.887695,-563,44885,26.3765,5278,408
2.18584,9.802938,-562,44886,26.5756,5278,408
1.6165,9.941051,-561,44887,26.476,5278,408
1.37067,10.26117,-560,44888,26.5258,5278,408
2.83035,10.18245,-559,44889,26.3765,5278,408
2.03444,10.0053,-558,44890,26.6752,5278,408
1.67161,9.562867,-557,44891,26.5756,5278,408
1.60168,9.562867,-556,44892,26.3267,5278,408
1.55332,9.802938,-555,44893,26.3267,5279,480
1.41517,9.856753,-554,44894,26.2271,5279,480
1.24679,10.10238,-553,44895,26.3267,5279,480
1.68298,10.25027,-552,44896,26.5258,5279,480
1.53168,10.08466,-551,44897,26.5258,5279,480
1.66589,9.533996,-550,44898,26.5258,5279,480
1.6165,9.62809,-549,44899,26.2271,5279,480
1.56859,9.588543,-548,44900,26.3765,5279,480
1.20399,9.685954,-547,44901,26.5756,5279,480
2.21402,9.856753,-546,44902,26.3765,5279,480
1.46484,10.08466,-545,44903,26.6752,5278,409
1.27328,9.848434,-544,44904,26.5258,5278,409
1.25442,9.700558,-543,44905,26.1773,5278,409
1.73872,9.730466,-542,44906,26.3267,5278,409
1.00068,9.712072,-541,44907,26.3765,5278,409
2.56522,9.678259,-540,44908,26.5258,5278,409
1.12623,9.943299,-539,44909,26.5258,5278,409
2.21832,9.941051,-538,44910,26.476,5278,409
2.26091,10.24082,-537,44911,26.3765,5278,409
1.95556,10.27423,-536,44912,26.6752,5278,409
1.4118,10.35873,-535,44913,26.3267,5286,479
2.16392,10.26698,-534,44914,26.6752,5286,479
1.94088,9.766388,-533,44915,26.5258,5286,479
1.8529,9.385929,-532,44916,26.476,5286,479
1.38452,9.346155,-531,44917,26.476,5286,479
0.805294,9.539465,-530,44918,26.3765,5286,479
1.09183,9.74271,-529,44919,26.3765,5286,479
1.36019,9.864309,-528,44920,26.3765,5286,479
1.94579,10.0053,-527,44921,26.3267,5286,479
1.62826,10.10238,-526,44922,26.5258,5286,479
0.737289,9.941051,-525,44923,26.3267,5278,412
1.56555,9.650506,-524,44924,26.3765,5278,412
1.01956,9.748062,-523,44925,26.3267,5278,412
1.13045,9.83708,-522,44926,26.5258,5278,412
0.905627,9.78011,-521,44927,26.3267,5278,412
1.8529,9.652821,-520,44928,26.476,5278,412
1.79804,9.513656,-519,44929,26.5258,5278,412
1.00068,9.66285,-518,44930,26.476,5278,412
1.44518,9.748062,-517,44931,26.3267,5278,412
1.04725,9.756465,-516,44932,26.5756,5278,412
1.70549,9.920044,-515,44933,26.5258,5270,451
1.47458,9.997104,-514,44934,26.5258,5270,451
1.92608,9.937303,-513,44935,26.476,5270,451
1.33185,9.700558,-512,44936,26.3267,5270,451
1.1596,9.612601,-511,44937,26.5258,5270,451
1.57163,9.637372,-510,44938,26.3765,5270,451
1.71664,9.887695,-509,44939,26.5756,5270,451
1.90617,10.0053,-508,44940,26.3267,5270,451
1.98461,9.911779,-507,44941,26.5258,5270,451
2.13284,9.670558,-506,44942,26.5258,5270,451
1.28817,9.738886,-505,44943,26.3267,5280,451
2.11037,9.680568,-504,44944,26.476,5280,451
1.88858,9.930553,-503,44945,26.5756,5280,451
1.02423,10.10312,-502,44946,26.5258,5280,451
1.28817,10.17293,-501,44947,26.5258,5280,451
0.750112,9.911779,-500,44948,26.476,5280,451
1.59273,9.879403,-499,44949,26.3765,5280,451
0.425674,9.590874,-498,44950,26.3267,5280,451
1.51603,9.50347,-497,44951,26.5756,5280,451
1.59273,9.76181,-496,44952,26.5258,5280,451
1.09619,9.937303,-495,44953,26.3267,5275,451
1.57769,9.927552,-494,44954,26.476,5275,451
0.941763,9.770202,-493,44955,26.3765,5275,451
1.86316,9.794574,-492,44956,26.5756,5275,451
1.59273,9.677489,-491,44957,26.5258,5275,451
1.47781,9.621123,-490,44958,26.3267,5275,451
1.83998,9.827229,-489,44959,26.3267,5275,451
2.18584,10.15461,-488,44960,26.2271,5275,451
2.0156,10.07062,-487,44961,26.5258,5275,451
1.87592,9.730466,-486,44962,26.5258,5275,451
1.53789,9.50347,-485,44963,26.3267,5279,452
1.49066,9.49798,-484,44964,26.3765,5279,452
2.26091,9.650506,-483,44965,26.3765,5279,452
0.878906,9.887695,-482,44966,26.3765,5279,452
2.46473,9.848434,-481,44967,26.6752,5279,452
1.06082,9.887695,-480,44968,26.476,5279,452
1.3637,9.604071,-479,44969,26.3765,5279,452
1.35668,9.487777,-478,44970,26.476,5279,452
2.65474,9.246776,-477,44971,26.5756,5279,452
1.27328,9.346155,-476,44972,26.5756,5279,452
1.06082,9.335786,-475,44973,26.2271,5273,447
1.27702,9.335786,-474,44974,26.6752,5273,447
1.49704,9.66285,-473,44975,26.6752,5273,447
2.12613,9.652821,-472,44976,26.3765,5273,447
1.16371,9.52696,-471,44977,26.5756,5273,447
1.34255,9.756465,-470,44978,26.3765,5273,447
1.50022,9.919293,-469,44979,26.476,5273,447
1.83998,9.998594,-468,44980,26.5258,5273,447
2.15951,10.05877,-467,44981,26.476,5273,447
1.41517,9.957526,-466,44982,26.476,5273,447
0.941763,9.662079,-465,44983,26.476,5277,431
0.365396,9.381959,-464,44984,26.5258,5277,431
2.40797,9.562867,-463,44985,26.6752,5277,431
1.12623,9.562867,-462,44986,26.5258,5277,431
0.921287,9.534778,-461,44987,26.5258,5277,431
2.27981,9.824196,-460,44988,26.3765,5277,431
1.23912,9.770202,-459,44989,26.3765,5277,431
1.12623,9.770202,-458,44990,26.3267,5277,431
1.68298,9.824196,-457,44991,26.3765,5277,431
1.4118,9.462615,-456,44992,26.3267,5277,431
1.44188,9.487777,-455,44993,26.476,5280,476
2.14622,9.246776,-454,44994,26.476,5280,476
1.3637,9.246776,-453,44995,26.3765,5280,476
1.52231,9.408921,-452,44996,26.476,5280,476
2.15287,9.49798,-451,44997,26.5258,5280,476
1.8529,9.579215,-450,44998,26.5258,5280,476
1.11773,9.685954,-449,44999,26.6752,5280,476
1.52856,9.712072,-448,45000,26.3765,5280,476
1.98461,9.83708,-447,45001,26.5258,5280,476
2.01324,9.545711,-446,45002,26.5258,5280,476
2.36199,9.760283,-445,45003,26.5258,5276,425
1.76052,9.995613,-444,45004,26.5258,5276,425
2.16612,9.802938,-443,45005,26.476,5276,425
2.08537,9.595534,-442,45006,26.5258,5276,425
2.02033,9.362881,-441,45007,26.3267,5276,425
1.53168,9.409713,-440,45008,26.5258,5276,425
1.57769,9.385929,-439,45009,26.5258,5276,425
0.966748,9.452373,-438,45010,26.1773,5276,425
1.38452,9.595534,-437,45011,26.3267,5276,425
2.24822,10.03727,-436,45012,26.476,5276,425
1.75238,10.01497,-435,45013,26.5258,5277,483
2.02269,9.791531,-434,45014,26.3267,5277,483
1.70829,9.720507,-433,45015,26.5258,5277,483
2.06237,9.816609,-432,45016,26.3267,5277,483
1.09183,9.514439,-431,45017,26.5258,5277,483
1.4118,9.443699,-430,45018,26.5258,5277,483
1.86827,9.640464,-429,45019,26.5258,5277,483
2.1573,9.803698,-428,45020,26.5258,5277,483
1.39139,9.828745,-427,45021,26.5756,5277,483
1.59572,9.723573,-426,45022,26.5756,5277,483
1.76052,9.541027,-425,45023,26.3267,5275,400
1.1596,9.730466,-424,45024,26.3765,5275,400
2.08537,9.824196,-423,45025,26.5756,5275,400
1.89614,9.791531,-422,45026,26.5756,5275,400
1.19604,9.66285,-421,45027,26.2271,5275,400
2.02504,9.712072,-420,45028,26.3765,5275,400
1.74146,9.905011,-419,45029,26.5756,5275,400
1.46158,9.848434,-418,45030,26.3765,5275,400
1.15548,9.535559,-417,45031,26.5258,5275,400
1.17998,9.37163,-416,45032,26.476,5275,400
1.94088,9.675179,-415,45033,26.1773,5274,501
1.79539,9.604071,-414,45034,26.5258,5274,501
1.40163,9.535559,-413,45035,26.7747,5274,501
1.73047,9.718208,-412,45036,26.3765,5274,501
2.40203,9.812054,-411,45037,26.5756,5274,501
1.5807,9.897486,-410,45038,26.476,5274,501
1.19604,9.569098,-409,45039,26.5258,5274,501
1.59273,9.560529,-408,45040,26.5258,5274,501
1.68863,9.644327,-407,45041,26.476,5274,501
1.92856,9.794574,-406,45042,26.5258,5274,501
1.07865,9.553513,-405,45043,26.5258,5278,440
2.01324,9.252414,-404,45044,26.3267,5278,440
1.89865,9.770202,-403,45045,26.3267,5278,440
2.35997,10.03727,-402,45046,26.5258,5278,440
2.02033,9.920044,-401,45047,26.3765,5278,440
1.62239,9.866574,-400,45048,26.3267,5278,440
1.94088,9.974721,-399,45049,26.3267,5278,440
1.71942,10.0291,-398,45050,26.6752,5278,440
1.46484,9.872613,-397,45051,26.5258,5278,440
2.10585,9.766388,-396,45052,26.6752,5278,440
0.926449,9.462615,-395,45053,26.6752,5279,417
1.04268,9.474418,-394,45054,26.5258,5279,417
2.17052,9.66285,-393,45055,26.5258,5279,417
1.53789,9.712072,-392,45056,26.5258,5279,417
2.3539,9.644327,-391,45057,26.6752,5279,417
1.63702,9.621123,-390,45058,26.3267,5279,417
1.62826,9.631185,-389,45059,26.3267,5279,417
2.28816,9.569098,-388,45060,26.3765,5279,417
0.878906,9.695949,-387,45061,26.6752,5279,417
2.8236,9.895981,-386,45062,26.5258,5279,417
1.67161,9.872613,-385,45063,26.3267,5279,417
1.67446,10.09279,-384,45064,26.476,5279,417
0.601994,9.856753,-383,45065,26.6752,5279,417
0.966748,9.652821,-382,45066,26.6752,5279,417
1.45505,9.677489,-381,45067,26.5258,5279,417
1.60466,9.802938,-380,45068,26.6752,5279,417
1.12198,9.718974,-379,45069,26.3765,5279,417
1.31745,9.572212,-378,45070,26.5258,5279,417
1.44188,9.700558,-377,45071,26.5258,5279,417
1.75781,9.867329,-376,45072,26.3765,5279,417
1.58673,9.985172,-375,45073,26.3765,5279,488
1.49385,9.754938,-374,45074,26.5258,5279,488
2.915,9.52696,-373,45075,26.5258,5279,488
1.38452,9.35492,-372,45076,26.3267,5279,488
1.91864,9.562088,-371,45077,26.5258,5279,488
0.905627,9.848434,-370,45078,26.476,5279,488
1.86572,9.945547,-369,45079,26.3765,5279,488
1.40163,9.83708,-368,45080,26.3765,5279,488
1.52856,9.879403,-367,45081,26.5258,5279,488
1.6165,9.897486,-366,45082,26.3765,5279,488
1.78206,9.794574,-365,45083,26.5756,5278,434
1.10916,9.541808,-364,45084,26.5258,5278,434
1.92856,10.10238,-363,45085,26.5258,5278,434
1.77132,10.17513,-362,45086,26.3765,5278,434
2.44921,10.26117,-361,45087,26.3267,5278,434
1.81125,9.953784,-360,45088,26.5258,5278,434
0.690534,9.705166,-359,45089,26.476,5278,434
0.941763,9.631959,-358,45090,26.3765,5278,434
1.31383,9.9253,-357,45091,26.3765,5278,434
2.33764,10.01646,-356,45092,26.3765,5278,434
1.66303,9.83708,-355,45093,26.5258,5281,462
1.57769,9.45395,-354,45094,26.5756,5281,462
1.61355,9.057091,-353,45095,26.3765,5281,462
1.28075,8.91949,-352,45096,26.5756,5281,462
1.06082,9.294995,-351,45097,26.5258,5281,462
1.84257,9.241134,-350,45098,26.5258,5281,462
1.94088,8.279211,-349,45099,26.476,5281,462
2.49167,7.067439,-348,45100,26.3765,5281,462
1.17998,8.979431,-347,45101,26.476,5281,462
2.51073,18.09319,-346,45102,26.3765,5281,462
0.662337,19.37883,-345,45103,26.5258,5280,441
0.840071,39.24784,-344,45104,26.3267,5280,441
1.39139,44.14981,-343,45105,26.5258,5280,441
1.1596,41.00491,-342,45106,26.3267,5280,441
1.22752,8.697028,-341,45107,26.476,5280,441
3.85958,136.7226,-340,45108,26.5258,5280,441
0.840071,204.5912,-339,45109,26.5258,5280,441
0.921287,154.3234,-338,45110,26.3765,5280,441
1.61945,69.0371,-337,45111,26.476,5280,441
2.6131,19.54536,-336,45112,26.5258,5280,441
2.9893,22.94078,-335,45113,26.3765,5271,457
1.08306,48.22025,-334,45114,26.5756,5271,457
1.22752,77.38276,-333,45115,26.5756,5271,457
2.36602,73.01856,-332,45116,26.5258,5271,457
1.50022,66.77603,-331,45117,26.6752,5271,457
1.69146,65.41602,-330,45118,26.3267,5271,457
1.39822,66.64022,-329,45119,26.3765,5271,457
0.690534,61.73778,-328,45120,26.5258,5271,457
1.44188,43.80454,-327,45121,26.5258,5271,457
0.569429,32.56693,-326,45122,26.5258,5271,457
1.95556,121.2558,-325,45123,26.5756,5273,424
0.577742,193.7338,-324,45124,26.5258,5273,424
0.926449,155.033,-323,45125,26.3765,5273,424
1.20399,44.24994,-322,45126,26.3267,5273,424
0.966748,80.07747,-321,45127,26.5258,5273,424
1.10916,91.9653,-320,45128,26.3765,5273,424
0.905627,82.09381,-319,45129,26.5258,5273,424
8.02506,74.37549,-318,45130,26.5258,5273,424
1.27328,29.45539,-317,45131,26.5258,5273,424
2.04845,24.23057,-316,45132,26.476,5273,424
1.9918,54.87695,-315,45133,26.5258,5277,483
1.4118,89.22488,-314,45134,26.3267,5277,483
1.71386,66.98925,-313,45135,26.5756,5277,483
1.06082,41.37247,-312,45136,26.5258,5277,483
0.560992,38.36,-311,45137,26.3267,5277,483
1.79273,35.57947,-310,45138,26.5258,5277,483
3.00997,54.2414,-309,45139,26.5258,5277,483
1.94824,88.25861,-308,45140,26.6752,5277,483
2.12613,95.78071,-307,45141,26.476,5277,483
0.292969,67.29585,-306,45142,26.5258,5277,483
1.17188,25.14352,-305,45143,26.3765,5283,434
4.23653,23.07549,-304,45144,26.3267,5283,434
2.03444,10.99243,-303,45145,26.3765,5283,434
2.64033,37.7886,-302,45146,26.5258,5283,434
1.18402,67.54692,-301,45147,26.3765,5283,434
1.32467,74.25679,-300,45148,26.5756,5283,434
1.00068,66.83692,-299,45149,26.5258,5283,434
1.78206,45.56429,-298,45150,26.5258,5283,434
1.04268,37.29463,-297,45151,26.476,5283,434
1.67161,41.52293,-296,45152,26.5756,5283,434
1.56859,35.94261,-295,45153,26.476,5286,465
1.93842,31.96355,-294,45154,26.6752,5286,465
1.61945,53.28212,-293,45155,26.3765,5286,465
0.717624,43.35404,-292,45156,26.6752,5286,465
1.25442,17.52421,-291,45157,26.6752,5286,465
2.11488,27.83257,-290,45158,26.5756,5286,465
3.18695,45.35154,-289,45159,26.5258,5286,465
1.94824,50.87213,-288,45160,26.3765,5286,465
2.32332,42.69391,-287,45161,26.5258,5286,465
1.45176,29.56043,-286,45162,26.3765,5286,465
0.793363,17.49996,-285,45163,26.5258,5298,425
1.88099,9.25644,-284,45164,26.5756,5298,425
1.05179,28.67042,-283,45165,26.3765,5298,425
1.95556,26.84576,-282,45166,26.5258,5298,425
2.0156,15.0721,-281,45167,26.5258,5298,425
1.92856,26.63204,-280,45168,26.3267,5298,425
2.60762,35.43741,-279,45169,26.476,5298,425
2.46086,30.71373,-278,45170,26.1773,5298,425
0.926449,38.69552,-277,45171,26.5258,5298,425
1.65152,51.43232,-276,45172,26.5258,5298,425
1.33543,55.21169,-275,45173,26.3267,5299,494
2.22905,55.57337,-274,45174,26.5258,5299,494
1.79539,47.37366,-273,45175,26.6752,5299,494
1.83739,23.76738,-272,45176,26.476,5299,494
2.19238,24.71283,-271,45177,26.2271,5299,494
1.94824,45.85508,-270,45178,26.3765,5299,494
2.10585,54.86568,-269,45179,26.5756,5299,494
1.56555,50.91561,-268,45180,26.5258,5299,494
2.0156,38.59141,-267,45181,26.5756,5299,494
1.66303,21.91766,-266,45182,26.5258,5299,494
1.06082,13.73983,-265,45183,26.5258,5302,404
2.21402,24.35295,-264,45184,26.5258,5302,404
1.55332,26.71388,-263,45185,26.3765,5302,404
0.601994,24.38261,-262,45186,26.3267,5302,404
1.21581,22.74213,-261,45187,26.5258,5302,404
1.32827,22.89396,-260,45188,26.476,5302,404
1.98701,19.72975,-259,45189,26.5258,5302,404
1.4118,12.20032,-258,45190,26.3267,5302,404
2.04146,7.155445,-257,45191,26.5258,5302,404
1.92608,7.613509,-256,45192,26.5258,5302,404
0.85693,14.59034,-255,45193,26.3765,5300,496
0.683594,18.7667,-254,45194,26.5258,5300,496
0.817051,19.39843,-253,45195,26.3765,5300,496
1.3461,18.10678,-252,45196,26.476,5300,496
1.4681,23.20845,-251,45197,26.5258,5300,496
0.447517,35.01397,-250,45198,26.5258,5300,496
1.21581,41.18874,-249,45199,26.5258,5300,496
0.926449,40.45024,-248,45200,26.5258,5300,496
2.48784,32.51839,-247,45201,26.3267,5300,496
2.57079,18.49758,-246,45202,26.3267,5300,496
1.66589,10.43398,-245,45203,26.5258,5297,424
2.35997,13.35039,-244,45204,26.5756,5297,424
2.0156,27.29275,-243,45205,26.2271,5297,424
4.31901,28.54488,-242,45206,26.5258,5297,424
2.87382,46.20486,-241,45207,26.3765,5297,424
0.750112,42.15051,-240,45208,26.476,5297,424
0.488281,34.42946,-239,45209,26.5258,5297,424
0.525895,72.93719,-238,45210,26.5756,5297,424
0.995902,109.5269,-237,45211,26.2271,5297,424
1.5034,128.239,-236,45212,26.6752,5297,424
1.85547,126.9309,-235,45213,26.5258,5288,460
1.33185,109.9562,-234,45214,26.6752,5288,460
7.58268,48.26658,-233,45215,26.3267,5288,460
0.717624,21.86967,-232,45216,26.5756,5288,460
3.69032,42.08948,-231,45217,26.3765,5288,460
1.88606,50.15322,-230,45218,26.5756,5288,460
1.5034,61.23186,-229,45219,26.5258,5288,460
0.697405,65.8422,-228,45220,26.3765,5288,460
1.12623,52.44877,-227,45221,26.476,5288,460
1.00068,52.83755,-226,45222,26.725,5288,460
0.402647,76.4855,-225,45223,26.476,5295,504
2.00136,95.75239,-224,45224,26.5258,5295,504
2.04146,109.8505,-223,45225,26.5258,5295,504
1.4118,115.6793,-222,45226,26.5258,5295,504
2.42376,103.2262,-221,45227,26.5258,5295,504
1.50022,70.88208,-220,45228,26.3765,5295,504
2.15287,31.60278,-219,45229,26.1773,5295,504
1.97256,27.05145,-218,45230,26.5258,5295,504
1.66589,42.54811,-217,45231,26.3765,5295,504
1.60168,37.10295,-216,45232,26.476,5295,504
2.2819,29.68744,-215,45233,26.5258,5297,445
1.61945,38.51816,-214,45234,26.5258,5297,445
1.23526,56.30975,-213,45235,26.3267,5297,445
1.96772,50.55082,-212,45236,26.5258,5297,445
1.75781,31.68495,-211,45237,26.5258,5297,445
1.47458,28.94637,-210,45238,26.5258,5297,445
2.27352,38.02368,-209,45239,26.3765,5297,445
1.30655,37.28584,-208,45240,26.5258,5297,445
2.60762,33.19976,-207,45241,26.2271,5297,445
2.21617,32.06478,-206,45242,26.3267,5297,445
1.48103,36.17506,-205,45243,26.5258,5309,443
1.82437,38.5943,-204,45244,26.3765,5309,443
1.26577,36.86827,-203,45245,26.5756,5309,443
2.66371,51.56239,-202,45246,26.3267,5309,443
1.55638,83.84836,-201,45247,26.5258,5309,443
1.47134,98.37156,-200,45248,26.5258,5309,443
1.46158,91.06527,-199,45249,26.5258,5309,443
1.54717,86.62443,-198,45250,26.5756,5309,443
1.76323,82.60228,-197,45251,26.6752,5309,443
1.01016,61.96076,-196,45252,26.6752,5309,443
1.83479,36.12889,-195,45253,26.476,5323,449
1.57769,32.46244,-194,45254,26.5258,5323,449
1.35316,35.45696,-193,45255,26.5258,5323,449
1.32827,51.91807,-192,45256,26.476,5323,449
1.44188,52.68151,-191,45257,26.3267,5323,449
2.05078,48.82111,-190,45258,26.3765,5323,449
2.56336,53.66778,-189,45259,26.3267,5323,449
1.70549,55.25755,-188,45260,26.5258,5323,449
2.31509,55.07698,-187,45261,26.5258,5323,449
1.92856,65.79069,-186,45262,26.3765,5323,449
2.16171,78.48817,-185,45263,26.5258,5340,448
1.56859,69.72865,-184,45264,26.3267,5340,448
2.43162,56.32589,-183,45265,26.476,5340,448
1.56859,48.3933,-182,45266,26.3267,5340,448
1.94824,46.27673,-181,45267,26.3765,5340,448
1.52856,46.66376,-180,45268,26.3765,5340,448
1.28075,41.44265,-179,45269,26.5258,5340,448
1.92856,34.97522,-178,45270,26.3765,5340,448
2.09222,32.65124,-177,45271,26.3765,5340,448
3.23595,31.82947,-176,45272,26.6752,5340,448
1.80598,26.53956,-175,45273,26.476,5353,397
1.28817,24.17609,-174,45274,26.5756,5353,397
3.00997,26.99107,-173,45275,26.5258,5353,397
1.98701,30.89537,-172,45276,26.5258,5353,397
2.09677,32.49135,-171,45277,26.5258,5353,397
1.72495,33.73561,-170,45278,26.6752,5353,397
2.12388,39.35476,-169,45279,26.5756,5353,397
1.22752,48.15036,-168,45280,26.476,5353,397
1.95313,56.65509,-167,45281,26.476,5353,397
0.662337,62.90519,-166,45282,26.3765,5353,397
0.750112,65.84174,-165,45283,26.3765,5372,466
1.33185,65.64807,-164,45284,26.5258,5372,466
2.0156,61.27407,-163,45285,26.476,5372,466
1.07865,53.57566,-162,45286,26.5756,5372,466
1.83739,44.66656,-161,45287,26.6752,5372,466
1.4118,37.31001,-160,45288,26.5258,5372,466
1.88099,32.79696,-159,45289,26.3765,5372,466
1.28447,32.43971,-158,45290,26.3765,5372,466
1.17594,36.62292,-157,45291,26.5258,5372,466
1.60168,44.42118,-156,45292,26.5258,5372,466
1.89614,55.68842,-155,45293,26.3267,5381,432
1.46484,63.02943,-154,45294,26.5756,5381,432
1.82698,61.81183,-153,45295,26.3765,5381,432
2.27772,59.39157,-152,45296,26.476,5381,432
1.97256,60.7221,-151,45297,26.3765,5381,432
2.00612,64.46584,-150,45298,26.5258,5381,432
1.34255,69.58361,-149,45299,26.2271,5381,432
2.0716,76.50654,-148,45300,26.5258,5381,432
1.87592,88.39197,-147,45301,26.5756,5381,432
1.96529,98.2942,-146,45302,26.3765,5381,432
1.36019,89.41565,-145,45303,26.6752,5397,432
2.08537,74.92184,-144,45304,26.5756,5397,432
1.02423,66.9759,-143,45305,26.3765,5397,432
1.49704,62.88529,-142,45306,26.3765,5397,432
2.32332,56.88686,-141,45307,26.476,5397,432
2.0156,52.88674,-140,45308,26.476,5397,432
1.51603,56.31319,-139,45309,26.5258,5397,432
2.39407,63.4883,-138,45310,26.1773,5397,432
2.10585,67.23914,-137,45311,26.6752,5397,432
1.40163,70.26724,-136,45312,26.5258,5397,432
2.0693,75.44084,-135,45313,26.5258,5424,460
1.0381,79.56691,-134,45314,26.476,5424,460
1.74966,72.81962,-133,45315,26.5258,5424,460
3.25944,89.92697,-132,45316,26.3765,5424,460
1.73323,101.411,-131,45317,26.5258,5424,460
1.68863,93.446,-130,45318,26.5756,5424,460
2.45892,81.17832,-129,45319,26.5258,5424,460
1.00543,72.75831,-128,45320,26.3765,5424,460
1.83479,65.43367,-127,45321,26.5258,5424,460
1.52231,62.05448,-126,45322,26.5756,5424,460
3.32749,78.63697,-125,45323,26.476,5456,460
2.38809,93.75826,-124,45324,26.5756,5456,460
1.23912,91.14174,-123,45325,26.5258,5456,460
1.01956,94.04779,-122,45326,26.476,5456,460
1.91366,105.5196,-121,45327,26.3765,5456,460
1.59273,107.7148,-120,45328,26.476,5456,460
1.10916,105.9369,-119,45329,26.3765,5456,460
0.834375,110.1647,-118,45330,26.5258,5456,460
1.16371,115.4262,-117,45331,26.5258,5456,460
0.840071,112.8514,-116,45332,26.2271,5456,460
1.52856,106.8807,-115,45333,26.3267,5456,438
1.69427,103.6248,-114,45334,26.2271,5456,438
1.92856,101.4315,-113,45335,26.3267,5456,438
1.62826,97.10484,-112,45336,26.5258,5456,438
1.55332,89.80178,-111,45337,26.6752,5456,438
2.45115,84.52115,-110,45338,26.476,5456,438
1.73323,82.17236,-109,45339,26.3267,5456,438
1.9335,105.2223,-108,45340,26.5756,5456,438
2.6003,157.0038,-107,45341,26.3765,5456,438
2.59663,154.3622,-106,45342,26.6752,5456,438
3.34464,150.3569,-105,45343,26.476,5493,422
2.36199,159.6006,-104,45344,26.3765,5493,422
1.67446,194.3158,-103,45345,26.3765,5493,422
1.25442,267.9711,-102,45346,26.5258,5493,422
1.40163,178.9061,-101,45347,26.476,5493,422
2.84714,189.6629,-100,45348,26.3765,5493,422
2.38009,260.2693,-99,45349,26.3765,5493,422
3.12042,280.8045,-98,45350,26.5258,5493,422
2.14399,295.1689,-97,45351,26.3765,5493,422
1.25821,268.9216,-96,45352,26.3267,5493,422
1.39822,207.3647,-95,45353,26.5258,5550,480
1.92361,164.3143,-94,45354,26.5258,5550,480
1.13045,192.5341,-93,45355,26.476,5550,480
2.60213,238.3938,-92,45356,26.3765,5550,480
2.10811,199.2795,-91,45357,26.5258,5550,480
2.49167,169.6087,-90,45358,26.5258,5550,480
1.89614,178.7795,-89,45359,26.3267,5550,480
0.525895,183.0347,-88,45360,26.5258,5550,480
1.68298,184.8172,-87,45361,26.476,5550,480
2.0693,187.5967,-86,45362,26.3765,5550,480
2.44531,193.2831,-85,45363,26.5258,5512,427
2.17052,203.9264,-84,45364,26.5756,5512,427
1.92608,208.529,-83,45365,26.5258,5512,427
1.47458,211.5105,-82,45366,26.3765,5512,427
2.72039,219.2231,-81,45367,26.5258,5512,427
2.59295,221.3879,-80,45368,26.1773,5512,427
2.76386,217.1131,-79,45369,26.3765,5512,427
1.55638,214.0416,-78,45370,26.5756,5512,427
1.82437,201.3586,-77,45371,26.5258,5512,427
1.36719,184.6843,-76,45372,26.6752,5512,427
1.32827,182.373,-75,45373,26.6752,5464,461
1.44188,185.5419,-74,45374,26.3765,5464,461
1.33185,187.9776,-73,45375,26.3765,5464,461
2.28816,193.2828,-72,45376,26.5258,5464,461
1.74146,204.3666,-71,45377,26.5258,5464,461
1.87846,212.6565,-70,45378,26.3765,5464,461
1.59273,221.5439,-69,45379,26.3267,5464,461
1.64863,227.6596,-68,45380,26.5756,5464,461
2.38009,231.7883,-67,45381,26.3765,5464,461
1.92608,233.4455,-66,45382,26.476,5464,461
2.05078,224.4315,-65,45383,26.3267,5380,430
0.981433,210.5597,-64,45384,26.5258,5380,430
0.834375,200.6241,-63,45385,26.5258,5380,430
1.73047,199.0177,-62,45386,26.5258,5380,430
1.60466,202.6221,-61,45387,26.5258,5380,430
1.52856,202.6593,-60,45388,26.5756,5380,430
1.46484,196.8523,-59,45389,26.5258,5380,430
1.07422,191.1294,-58,45390,26.3267,5380,430
1.79804,185.5251,-57,45391,26.3267,5380,430
1.32827,180.0149,-56,45392,26.5258,5380,430
1.89865,174.7511,-55,45393,26.7747,5307,453
1.06082,172.374,-54,45394,26.5258,5307,453
1.77132,170.5608,-53,45395,26.5258,5307,453
2.3539,166.3795,-52,45396,26.476,5307,453
0.85693,165.8142,-51,45397,26.2271,5307,453
1.77132,160.3841,-50,45398,26.1773,5307,453
1.04268,154.159,-49,45399,26.5756,5307,453
2.02269,148.3147,-48,45400,26.6752,5307,453
0.971667,152.6481,-47,45401,26.3765,5307,453
1.4681,151.9919,-46,45402,26.5258,5307,453
2.98291,147.7653,-45,45403,26.5258,5241,422
1.22363,143.4304,-44,45404,26.5258,5241,422
1.12198,147.4695,-43,45405,26.6752,5241,422
1.58673,153.222,-42,45406,26.5258,5241,422
1.65152,159.0325,-41,45407,26.5756,5241,422
0.793363,164.5653,-40,45408,26.3765,5241,422
1.19604,167.6267,-39,45409,26.6752,5241,422
1.51603,165.7176,-38,45410,26.6752,5241,422
0.402647,165.9143,-37,45411,26.5258,5241,422
1.64863,175.4683,-36,45412,26.5258,5241,422
1.66589,181.563,-35,45413,26.5258,5296,444
1.3637,181.2738,-34,45414,26.5756,5296,444
1.17998,190.9535,-33,45415,26.6752,5296,444
2.01324,223.5774,-32,45416,26.3765,5296,444
2.0739,269.5422,-31,45417,26.5258,5296,444
2.79474,298.8313,-30,45418,26.3765,5296,444
1.8529,302.7353,-29,45419,26.5258,5296,444
1.77132,314.1019,-28,45420,26.6752,5296,444
1.80334,300.2475,-27,45421,26.5258,5296,444
1.60168,253.0907,-26,45422,26.476,5296,444
1.43525,207.6296,-25,45423,26.5258,5507,407
1.60168,195.21,-24,45424,26.6752,5507,407
2.93944,205.8578,-23,45425,26.3765,5507,407
1.17998,231.6045,-22,45426,26.5258,5507,407
1.97256,240.3404,-21,45427,26.5756,5507,407
3.8136,230.1391,-20,45428,26.476,5507,407
1.64863,228.9778,-19,45429,26.2271,5507,407
1.57769,223.1057,-18,45430,26.476,5507,407
1.64283,233.1339,-17,45431,26.6752,5507,407
4.58153,299.0234,-16,45432,26.2271,5507,407
1.45505,349.1274,-15,45433,26.5756,5570,427
0.717624,313.4529,-14,45434,26.5258,5570,427
1.1596,269.7661,-13,45435,26.6752,5570,427
2.32332,257.5686,-12,45436,26.5258,5570,427
2.56336,233.1086,-11,45437,26.476,5570,427
1.4681,217.9896,-10,45438,26.3765,5570,427
2.27352,218.8595,-9,45439,26.5258,5570,427
5.28698,223.1596,-8,45440,26.5258,5570,427
0.926449,226.5835,-7,45441,26.5756,5570,427
1.74966,231.9758,-6,45442,26.5756,5570,427
1.25821,231.7214,-5,45443,26.476,5669,415
0.436732,233.8853,-4,45444,26.5756,5669,415
1.83739,237.6329,-3,45445,26.3267,5669,415
0.78733,242.9384,-2,45446,26.6752,5669,415
0.926449,251.9869,-1,45447,26.5258,5669,415
33.6041,310.6079,0,45448,26.5756,5669,415
1.95556,339.1992,1,45449,26.2271,5669,415
1.4118,268.4311,2,45450,26.6752,5669,415
1.5034,176.5663,3,45451,26.3765,5669,415
2.22047,131.713,4,45452,26.3267,5669,415
1.50022,147.7923,5,45453,26.3765,5883,413
15.1921,157.6219,6,45454,26.6752,5883,413
1.57769,154.2309,7,45455,26.476,5883,413
4.5481,145.4999,8,45456,26.5258,5883,413
0.905627,157.5581,9,45457,26.476,5883,413
1.64863,206.1346,10,45458,26.6752,5883,413
1.94824,168.4296,11,45459,26.5258,5883,413
1.07422,98.01638,12,45460,26.2271,5883,413
0.834375,53.75877,13,45461,26.3765,5883,413
1.5034,62.42473,14,45462,26.5258,5883,413
1.69146,52.09042,15,45463,26.3765,5606,380
1.07865,75.56458,16,45464,26.5258,5606,380
1.67446,135.9994,17,45465,26.3267,5606,380
1.12198,74.22869,18,45466,26.3267,5606,380
1.66303,59.18195,19,45467,26.3765,5606,380
1.17594,157.8802,20,45468,26.6752,5606,380
1.56555,192.7408,21,45469,26.5258,5606,380
1.79007,158.4859,22,45470,26.5258,5606,380
1.11773,96.66967,23,45471,26.5258,5606,380
1.67161,44.07685,24,45472,26.5258,5606,380
2.24822,17.42273,25,45473,26.476,5566,452
2.05078,34.35059,26,45474,26.3765,5566,452
1.36019,56.3337,27,45475,26.5258,5566,452
1.86827,70.56688,28,45476,26.476,5566,452
1.13045,71.79675,29,45477,26.5756,5566,452
1.05179,55.08875,30,45478,26.3765,5566,452
1.77401,24.14062,31,45479,26.3267,5566,452
1.77132,11.86722,32,45480,26.476,5566,452
0.926449,44.18777,33,45481,26.5258,5566,452
2.02033,73.28836,34,45482,26.5258,5566,452
1.38107,96.46251,35,45483,26.5258,5607,371
1.98461,110.3635,36,45484,26.6752,5607,371
1.58673,108.6645,37,45485,26.2271,5607,371
0.497951,87.39118,38,45486,26.2271,5607,371
1.4219,55.96668,39,45487,26.476,5607,371
1.09183,22.3442,40,45488,26.5258,5607,371
0.817051,20.75411,41,45489,26.1773,5607,371
1.09619,39.2837,42,45490,26.3267,5607,371
3.35744,69.21441,43,45491,26.5258,5607,371
3.13414,66.82901,44,45492,26.6752,5607,371
2.20323,77.55779,45,45493,26.476,5638,413
1.53168,78.05506,46,45494,26.5258,5638,413
1.13045,68.22966,47,45495,26.3765,5638,413
1.71386,47.62729,48,45496,26.5258,5638,413
1.90617,43.0564,49,45497,26.6752,5638,413
1.92112,68.89558,50,45498,26.5756,5638,413
0.402647,60.72946,51,45499,26.5258,5638,413
1.44518,93.45349,52,45500,26.3765,5638,413
3.02892,72.92677,53,45501,26.476,5638,413
1.43857,79.24517,54,45502,26.2271,5638,413
2.58005,80.74321,55,45503,26.5258,5591,418
1.66016,81.69423,56,45504,26.5258,5591,418
1.45505,87.73357,57,45505,26.3765,5591,418
2.78277,101.6699,58,45506,26.5258,5591,418
1.88099,110.6895,59,45507,26.5756,5591,418
1.56555,110.6543,60,45508,26.5258,5591,418
1.50657,103.8762,61,45509,26.5258,5591,418
2.39606,91.00102,62,45510,26.5756,5591,418
2.12613,79.27224,63,45511,26.3267,5591,418
2.26512,80.79598,64,45512,26.3765,5591,418
2.0762,80.64119,65,45513,26.2271,5553,406
1.9918,74.28247,66,45514,26.5258,5553,406
2.09677,81.55978,67,45515,26.5258,5553,406
1.6165,82.91989,68,45516,26.5258,5553,406
2.0716,91.3577,69,45517,26.5258,5553,406
2.86051,130.3075,70,45518,26.5258,5553,406
2.31303,168.507,71,45519,26.5756,5553,406
2.28816,145.1105,72,45520,26.476,5553,406
1.74146,132.443,73,45521,26.5756,5553,406
1.47781,141.1683,74,45522,26.5756,5553,406
2.68155,154.2112,75,45523,26.5756,5552,457
3.57614,163.6104,76,45524,26.476,5552,457
2.72914,173.6841,77,45525,26.3765,5552,457
1.94824,179.3989,78,45526,26.5258,5552,457
1.68014,180.5491,79,45527,26.3765,5552,457
1.93596,183.6167,80,45528,26.3765,5552,457
0.41432,197.2938,81,45529,26.5258,5552,457
0.931581,202.3023,82,45530,26.5258,5552,457
0.655098,200.1253,83,45531,26.3267,5552,457
0.632885,206.2553,84,45532,26.5258,5552,457
1.59273,220.4035,85,45533,26.5258,5537,381
1.76323,231.7531,86,45534,26.5258,5537,381
0.995902,238.7823,87,45535,26.5258,5537,381
0.577742,245.0827,88,45536,26.5258,5537,381
1.06082,256.4658,89,45537,26.5258,5537,381
1.12198,267.2249,90,45538,26.3267,5537,381
1.74146,271.9683,91,45539,26.5756,5537,381
2.67977,270.4249,92,45540,26.3765,5537,381
2.39606,276.2078,93,45541,26.3267,5537,381
1.18402,285.2205,94,45542,26.5258,5537,381
2.11037,289.9146,95,45543,26.476,5585,441
2.0156,303.2948,96,45544,26.5258,5585,441
2.14177,285.1545,97,45545,26.3765,5585,441
1.14304,294.5056,98,45546,26.5258,5585,441
1.27702,292.7274,99,45547,26.5258,5585,441
1.49385,264.7853,100,45548,26.3765,5585,441
