Linear acceleration,Rotational velocity,Time values,Absolute time values,Temperature,Ambient light,Reflected light
4.12475,1167.5715,-2000,5216,25.2813,4594,544
3.85464,1135.3537,-1999,5217,25.6297,4594,544
4.62606,1103.2001,-1998,5218,25.58,4594,544
4.61678,1068.3012,-1997,5219,25.4804,4594,544
3.37727,1034.756,-1996,5220,25.58,4594,544
4.19012,1003.7378,-1995,5221,25.2813,4594,544
4.41618,971.32586,-1994,5222,25.4804,4594,544
3.15083,937.05061,-1993,5223,25.7791,4589,556
3.76198,901.88423,-1992,5224,25.6297,4589,556
3.45681,865.18363,-1991,5225,25.4804,4589,556
4.45488,828.27942,-1990,5226,25.58,4589,556
4.21395,790.03979,-1989,5227,25.3808,4589,556
4.00867,747.40332,-1988,5228,25.4804,4589,556
3.28857,702.97254,-1987,5229,25.4306,4589,556
4.08058,658.58395,-1986,5230,25.3808,4589,556
3.77337,612.66979,-1985,5231,25.4804,4589,556
3.93907,564.78281,-1984,5232,25.6795,4589,556
4.06654,516.57184,-1983,5233,25.4804,4587,475
3.87438,468.95433,-1982,5234,25.4804,4587,475
4.05126,421.96976,-1981,5235,25.4306,4587,475
3.62382,374.43088,-1980,5236,25.4306,4587,475
4.1432,327.20275,-1979,5237,25.3808,4587,475
4.53234,281.3802,-1978,5238,25.4306,4587,475
3.77716,236.83513,-1977,5239,25.4306,4587,475
1.92608,193.88586,-1976,5240,25.4804,4587,475
3.75691,149.41671,-1975,5241,25.2813,4587,475
3.21228,105.26977,-1974,5242,25.2813,4587,475
4.38475,65.534707,-1973,5243,25.2813,4607,530
2.86051,31.822913,-1972,5244,25.58,4607,530
3.00204,27.5533,-1971,5245,25.2813,4607,530
3.36737,64.37042,-1970,5246,25.58,4607,530
3.16292,105.09339,-1969,5247,25.58,4607,530
2.65474,141.05635,-1968,5248,25.4804,4607,530
2.93944,173.11412,-1967,5249,25.58,4607,530
2.86218,202.603,-1966,5250,25.6297,4607,530
2.77935,233.00553,-1965,5251,25.4306,4607,530
2.26722,261.15782,-1964,5252,25.4804,4607,530
2.08079,286.42167,-1963,5253,25.58,4589,573
2.8354,310.17079,-1962,5254,25.58,4589,573
1.91864,330.95999,-1961,5255,25.3808,4589,573
2.59663,355.88506,-1960,5256,25.4804,4589,573
1.59273,386.54875,-1959,5257,25.3808,4589,573
1.62239,419.8003,-1958,5258,25.3808,4589,573
2.50122,448.24885,-1957,5259,25.58,4589,573
1.28817,468.28237,-1956,5260,25.4804,4589,573
1.67446,490.02925,-1955,5261,25.3808,4589,573
2.53906,515.77089,-1954,5262,25.58,4589,573
1.13045,540.49953,-1953,5263,25.58,4592,481
0.926449,560.1039,-1952,5264,25.3808,4592,481
0.905627,578.4044,-1951,5265,25.58,4592,481
0.971667,590.83848,-1950,5266,25.4804,4592,481
1.10916,599.91194,-1949,5267,25.4804,4592,481
0.710948,604.78688,-1948,5268,25.4306,4592,481
0.884315,606.07611,-1947,5269,25.6297,4592,481
0.895034,603.97298,-1946,5270,25.4804,4592,481
0.889691,602.47084,-1945,5271,25.58,4592,481
1.12198,602.03084,-1944,5272,25.4804,4592,481
0.534885,598.04588,-1943,5273,25.4306,4600,561
1.31383,591.2581,-1942,5274,25.4306,4600,561
0.750112,583.16006,-1941,5275,25.4804,4600,561
0.525895,573.34577,-1940,5276,25.4306,4600,561
1.23912,565.94099,-1939,5277,25.4804,4600,561
0.743728,565.90662,-1938,5278,25.2813,4600,561
1.3029,564.42828,-1937,5279,25.6297,4600,561
1.27328,558.84569,-1936,5280,25.3808,4600,561
0.577742,551.55622,-1935,5281,25.2813,4600,561
1.45505,550.78245,-1934,5282,25.3808,4600,561
1.27328,555.693,-1933,5283,25.58,4607,419
1.1596,561.69463,-1932,5284,25.3808,4607,419
1.49385,566.88582,-1931,5285,25.2813,4607,419
2.0762,573.85006,-1930,5286,25.58,4607,419
1.90617,575.6303,-1929,5287,25.58,4607,419
2.0156,569.23544,-1928,5288,25.4804,4607,419
2.7028,561.72409,-1927,5289,25.1319,4607,419
2.29856,557.04751,-1926,5290,25.4306,4607,419
2.13954,554.31001,-1925,5291,25.1319,4607,419
2.63129,548.21288,-1924,5292,25.3808,4607,419
2.95077,538.56971,-1923,5293,25.4306,4573,409
2.22905,523.09694,-1922,5294,25.2813,4573,409
3.80107,501.55728,-1921,5295,25.2813,4573,409
2.48208,482.3003,-1920,5296,25.4804,4573,409
3.34606,469.03959,-1919,5297,25.3808,4573,409
2.41391,461.16285,-1918,5298,25.4804,4573,409
3.49113,457.01772,-1917,5299,25.4804,4573,409
3.45681,458.15564,-1916,5300,25.6297,4573,409
2.51073,465.70669,-1915,5301,25.4306,4573,409
3.01472,471.98169,-1914,5302,25.6297,4573,409
4.46344,474.59646,-1913,5303,25.58,4605,563
3.50067,477.77793,-1912,5304,25.6297,4605,563
2.50313,487.78956,-1911,5305,25.58,4605,563
2.71161,504.5576,-1910,5306,25.3808,4605,563
2.69397,521.42295,-1909,5307,25.4306,4605,563
3.42911,531.83069,-1908,5308,25.58,4605,563
2.80326,542.11589,-1907,5309,25.2813,4605,563
2.45115,556.08769,-1906,5310,25.6297,4605,563
2.64575,586.53395,-1905,5311,25.4804,4605,563
2.70985,634.22967,-1904,5312,25.2813,4605,563
2.93131,672.67157,-1903,5313,25.2813,4587,427
1.77938,683.23117,-1902,5314,25.9284,4587,427
2.64575,683.30169,-1901,5315,25.4306,4587,427
1.95556,697.14821,-1900,5316,25.3808,4587,427
1.98461,729.8368,-1899,5317,25.4804,4587,427
2.87879,756.07858,-1898,5318,25.4804,4587,427
2.44726,771.14302,-1897,5319,25.2813,4587,427
2.16171,788.84893,-1896,5320,25.58,4587,427
2.42573,820.47457,-1895,5321,25.6297,4587,427
2.09677,854.1598,-1894,5322,25.58,4587,427
1.91864,881.26508,-1893,5323,25.6795,4668,482
2.80496,903.11228,-1892,5324,25.4804,4668,482
2.60213,921.51639,-1891,5325,25.4306,4668,482
1.7767,946.33789,-1890,5326,25.58,4668,482
2.24822,979.34672,-1889,5327,25.2813,4668,482
2.44336,1008.6946,-1888,5328,25.58,4668,482
1.41517,1033.0519,-1887,5329,25.58,4668,482
2.26301,1055.2175,-1886,5330,25.3808,4668,482
2.80496,1076.5844,-1885,5331,25.4306,4668,482
2.73089,1099.1541,-1884,5332,25.58,4668,482
2.30684,1118.6108,-1883,5333,25.4306,4780,491
3.03992,1130.2997,-1882,5334,25.3808,4780,491
1.76323,1145.1647,-1881,5335,25.6795,4780,491
2.56336,1172.269,-1880,5336,25.58,4780,491
2.88375,1272.2369,-1879,5337,25.58,4780,491
2.45115,1300.1162,-1878,5338,25.6297,4780,491
1.71664,1189.3781,-1877,5339,25.2315,4780,491
2.90189,1146.073,-1876,5340,25.4306,4780,491
3.4416,1137.7289,-1875,5341,25.4306,4780,491
3.91722,1156.8034,-1874,5342,25.58,4780,491
2.81853,1320.6831,-1873,5343,25.3808,4780,491
2.02504,1371.5146,-1872,5344,25.4804,4780,491
3.90381,1259.2986,-1871,5345,25.6297,4780,491
4.16387,1198.8638,-1870,5346,25.6297,4780,491
4.06888,1244.4289,-1869,5347,25.3808,4780,491
3.99437,1319.5056,-1868,5348,25.3808,4780,491
3.87438,1341.6086,-1867,5349,25.4804,4780,491
4.01936,1291.356,-1866,5350,25.2813,4780,491
3.55474,1246.9435,-1865,5351,25.3808,4780,491
2.98451,1262.0981,-1864,5352,25.4804,4780,491
2.69397,1320.593,-1863,5353,25.3808,4703,464
2.75695,1359.8904,-1862,5354,25.4804,4703,464
2.35997,1352.3858,-1861,5355,25.6297,4703,464
2.23118,1331.2157,-1860,5356,25.4804,4703,464
1.10916,1332.0175,-1859,5357,25.3808,4703,464
0.900346,1354.327,-1858,5358,25.58,4703,464
1.34255,1370.7103,-1857,5359,25.58,4703,464
1.13045,1354.7938,-1856,5360,25.4306,4703,464
1.45505,1316.3588,-1855,5361,25.58,4703,464
1.09183,1287.1991,-1854,5362,25.4804,4703,464
1.20794,1279.5552,-1853,5363,25.4804,4625,443
1.26577,1279.9015,-1852,5364,25.4804,4625,443
0.507437,1276.0917,-1851,5365,25.58,4625,443
2.15287,1268.0969,-1850,5366,25.2315,4625,443
2.44921,1262.0543,-1849,5367,25.4306,4625,443
1.97498,1257.7003,-1848,5368,25.6297,4625,443
2.2819,1248.7196,-1847,5369,25.3808,4625,443
2.28816,1228.436,-1846,5370,25.6795,4625,443
4.24103,1201.4458,-1845,5371,25.58,4625,443
4.06654,1174.9567,-1844,5372,25.4804,4625,443
3.98959,1151.1227,-1843,5373,25.58,4596,427
4.71387,1127.1679,-1842,5374,25.4306,4596,427
4.56902,1099.0935,-1841,5375,25.4804,4596,427
4.80901,1069.6638,-1840,5376,25.6297,4596,427
3.96682,1047.2886,-1839,5377,25.6795,4596,427
4.33774,1030.9658,-1838,5378,25.58,4596,427
4.32453,1009.2445,-1837,5379,25.4306,4596,427
5.07625,983.53039,-1836,5380,25.2813,4596,427
4.50597,955.62863,-1835,5381,25.4804,4596,427
3.99556,925.48399,-1834,5382,25.3808,4596,427
4.38584,897.00797,-1833,5383,25.58,4584,520
3.26382,868.14013,-1832,5384,25.4306,4584,520
4.33554,844.41361,-1831,5385,25.4804,4584,520
5.8805,823.0253,-1830,5386,25.3808,4584,520
3.77969,800.87605,-1829,5387,25.58,4584,520
4.5102,778.91616,-1828,5388,25.4306,4584,520
3.8928,758.4297,-1827,5389,25.58,4584,520
4.42804,739.9361,-1826,5390,25.58,4584,520
4.09458,709.96629,-1825,5391,25.4804,4584,520
4.4805,679.66865,-1824,5392,25.6297,4584,520
4.10737,661.10784,-1823,5393,25.4804,4586,415
3.37444,648.32238,-1822,5394,25.4804,4586,415
4.27127,631.71424,-1821,5395,25.4804,4586,415
4.35639,605.51617,-1820,5396,25.6297,4586,415
3.41378,579.56287,-1819,5397,25.4306,4586,415
4.01461,566.7812,-1818,5398,25.3808,4586,415
3.11736,558.67136,-1817,5399,25.4306,4586,415
2.97651,545.0666,-1816,5400,25.58,4586,415
4.5197,533.65206,-1815,5401,25.6297,4586,415
4.37278,518.93378,-1814,5402,25.6297,4586,415
3.69807,500.3683,-1813,5403,25.7791,4586,540
5.25986,495.97643,-1812,5404,25.4306,4586,540
4.08058,510.39754,-1811,5405,25.3808,4586,540
4.35091,514.65397,-1810,5406,25.58,4586,540
4.29243,501.54294,-1809,5407,25.58,4586,540
4.79809,496.10057,-1808,5408,25.4306,4586,540
4.48156,509.67243,-1807,5409,25.6297,4586,540
4.16158,522.69804,-1806,5410,25.4804,4586,540
3.7391,528.83681,-1805,5411,25.58,4586,540
3.45681,538.04862,-1804,5412,25.6297,4586,540
4.06302,552.36764,-1803,5413,25.4804,4584,383
3.74929,564.01437,-1802,5414,25.4804,4584,383
4.09924,570.90488,-1801,5415,25.4306,4584,383
3.90747,581.2925,-1800,5416,25.58,4584,383
4.08992,596.0718,-1799,5417,25.6297,4584,383
4.55962,609.77597,-1798,5418,25.4804,4584,383
3.89402,619.18806,-1797,5419,25.3808,4584,383
4.04773,627.53664,-1796,5420,25.58,4584,383
3.47881,636.94723,-1795,5421,25.4306,4584,383
3.45819,644.85087,-1794,5422,25.58,4584,383
3.00997,653.60865,-1793,5423,25.58,4590,524
3.51969,666.38327,-1792,5424,25.4804,4590,524
2.98132,680.15397,-1791,5425,25.4804,4590,524
3.11736,688.29177,-1790,5426,25.4306,4590,524
4.1004,693.27059,-1789,5427,25.2813,4590,524
3.50204,696.62469,-1788,5428,25.2813,4590,524
2.87382,701.52067,-1787,5429,25.3808,4590,524
3.78851,707.12851,-1786,5430,25.4306,4590,524
3.52781,713.50531,-1785,5431,25.58,4590,524
3.51155,715.63391,-1784,5432,25.6297,4590,524
3.37303,710.84463,-1783,5433,25.4306,4589,376
3.58679,704.14673,-1782,5434,25.4804,4589,376
3.10817,700.28785,-1781,5435,25.6795,4589,376
2.98451,701.42801,-1780,5436,25.4306,4589,376
3.42772,702.52111,-1779,5437,25.6297,4589,376
3.32175,700.45431,-1778,5438,25.2813,4589,376
4.00272,693.04823,-1777,5439,25.4306,4589,376
3.91722,683.41614,-1776,5440,25.4306,4589,376
3.68127,674.48841,-1775,5441,25.4306,4589,376
3.71736,664.7254,-1774,5442,25.6297,4589,376
3.42354,653.07397,-1773,5443,25.4804,4595,473
3.41238,636.91518,-1772,5444,25.2813,4595,473
2.19455,616.2734,-1771,5445,25.2315,4595,473
3.35744,595.39333,-1770,5446,25.4804,4595,473
2.9893,573.94061,-1769,5447,25.6297,4595,473
3.16292,548.85525,-1768,5448,25.6297,4595,473
3.07113,517.96493,-1767,5449,25.3808,4595,473
2.63129,487.37105,-1766,5450,25.4306,4595,473
2.58559,456.98503,-1765,5451,25.3808,4595,473
3.15537,427.56393,-1764,5452,25.3808,4595,473
2.90024,399.50186,-1763,5453,25.4804,4616,398
2.6131,374.69522,-1762,5454,25.4804,4616,398
3.21228,353.83551,-1761,5455,25.4306,4616,398
2.38009,336.96892,-1760,5456,25.4306,4616,398
2.44921,322.11869,-1759,5457,25.58,4616,398
1.97498,307.33746,-1758,5458,25.3808,4616,398
2.51073,297.39928,-1757,5459,25.4306,4616,398
2.50693,296.37621,-1756,5460,25.58,4616,398
2.63491,301.66738,-1755,5461,25.4804,4616,398
2.82698,308.73534,-1754,5462,25.58,4616,398
2.68155,320.62013,-1753,5463,25.58,4614,398
2.58559,339.75572,-1752,5464,25.4306,4614,398
2.45892,361.38918,-1751,5465,25.7791,4614,398
3.53861,384.19245,-1750,5466,25.2813,4614,398
2.31715,409.557,-1749,5467,25.4306,4614,398
2.64575,437.75968,-1748,5468,25.58,4614,398
2.37809,466.13702,-1747,5469,25.4804,4614,398
2.58005,494.29447,-1746,5470,25.58,4614,398
2.36401,522.63017,-1745,5471,25.58,4614,398
2.85384,550.2458,-1744,5472,25.3808,4614,398
2.1771,576.57908,-1743,5473,25.6297,4695,454
1.51917,601.35093,-1742,5474,25.58,4695,454
1.82437,624.41243,-1741,5475,25.4804,4695,454
2.05543,647.232,-1740,5476,25.58,4695,454
2.26722,673.11618,-1739,5477,25.4306,4695,454
1.58673,697.34845,-1738,5478,25.4804,4695,454
1.85804,716.25024,-1737,5479,25.4804,4695,454
1.51603,730.46965,-1736,5480,25.58,4695,454
2.03678,748.21604,-1735,5481,25.6297,4695,454
2.20971,769.40767,-1734,5482,25.4804,4695,454
2.33356,784.61671,-1733,5483,25.4306,4696,418
1.73872,795.87901,-1732,5484,25.6297,4696,418
1.56555,803.41621,-1731,5485,25.6297,4696,418
1.6165,810.85496,-1730,5486,25.58,4696,418
1.98461,818.87413,-1729,5487,25.6795,4696,418
2.17052,827.7759,-1728,5488,25.3808,4696,418
2.11263,833.44175,-1727,5489,25.58,4696,418
2.25034,820.27299,-1726,5490,25.3808,4696,418
2.11037,771.52503,-1725,5491,25.4306,4696,418
1.87592,701.91374,-1724,5492,25.4306,4696,418
0.889691,651.25841,-1723,5493,25.58,4632,466
1.11773,657.72886,-1722,5494,25.4306,4632,466
0.889691,703.39169,-1721,5495,25.4306,4632,466
0.447517,734.32701,-1720,5496,25.4804,4632,466
1.38796,738.87616,-1719,5497,25.4306,4632,466
1.09183,737.18013,-1718,5498,25.3808,4632,466
1.38107,746.94079,-1717,5499,25.4804,4632,466
1.50022,767.04937,-1716,5500,25.6297,4632,466
0.884315,785.69709,-1715,5501,25.58,4632,466
1.09183,796.09815,-1714,5502,25.6297,4632,466
1.45176,793.37295,-1713,5503,25.4804,4599,433
1.75238,784.47562,-1712,5504,25.2315,4599,433
1.83479,776.78704,-1711,5505,25.3808,4599,433
1.36019,781.5022,-1710,5506,25.4306,4599,433
1.83739,800.95092,-1709,5507,25.4306,4599,433
1.79007,832.66717,-1708,5508,25.2813,4599,433
1.78473,872.12364,-1707,5509,25.2813,4599,433
2.19672,898.65808,-1706,5510,25.3808,4599,433
4.85736,882.09352,-1705,5511,25.58,4599,433
4.12244,817.25841,-1704,5512,25.2813,4599,433
5.3631,727.97152,-1703,5513,25.4306,4584,442
4.69563,648.52282,-1702,5514,25.58,4584,442
6.02152,593.80363,-1701,5515,25.4804,4584,442
5.43552,556.1903,-1700,5516,25.2813,4584,442
4.42157,531.53722,-1699,5517,25.7791,4584,442
4.32453,522.74131,-1698,5518,25.4804,4584,442
5.02337,517.8722,-1697,5519,25.6297,4584,442
4.08992,493.66908,-1696,5520,25.3808,4584,442
4.28799,448.01988,-1695,5521,25.58,4584,442
3.18246,391.26942,-1694,5522,25.6795,4584,442
2.48592,332.4969,-1693,5523,25.4306,4594,439
2.70104,284.98255,-1692,5524,25.4306,4594,439
2.23759,273.30453,-1691,5525,25.4804,4594,439
2.60945,308.68263,-1690,5526,25.3808,4594,439
1.52856,360.17414,-1689,5527,25.58,4594,439
2.12164,395.48261,-1688,5528,25.58,4594,439
2.79304,405.11834,-1687,5529,25.4804,4594,439
2.37809,393.84433,-1686,5530,25.2813,4594,439
1.94088,372.35609,-1685,5531,25.4306,4594,439
2.6851,351.51642,-1684,5532,25.6795,4594,439
3.56679,341.92585,-1683,5533,25.58,4585,392
2.27981,352.46781,-1682,5534,25.4804,4585,392
2.03209,385.91608,-1681,5535,25.3808,4585,392
1.80334,429.70416,-1680,5536,25.58,4585,392
1.70829,469.29561,-1679,5537,25.3808,4585,392
2.03209,494.50577,-1678,5538,25.4306,4585,392
2.23972,503.93686,-1677,5539,25.4804,4585,392
1.31745,498.91081,-1676,5540,25.58,4585,392
2.19889,480.5657,-1675,5541,25.4804,4585,392
2.14177,451.36717,-1674,5542,25.4306,4585,392
3.27985,416.23489,-1673,5543,25.58,4595,483
2.75176,382.20609,-1672,5544,25.8289,4595,483
3.6304,354.58865,-1671,5545,25.6297,4595,483
2.29024,333.75894,-1670,5546,25.4306,4595,483
2.38609,320.70678,-1669,5547,25.2813,4595,483
3.15235,316.17809,-1668,5548,25.2813,4595,483
2.61128,319.02662,-1667,5549,25.4306,4595,483
2.40995,324.57541,-1666,5550,25.6297,4595,483
3.2108,330.59586,-1665,5551,25.58,4595,483
2.0156,342.78391,-1664,5552,25.4804,4595,483
2.84882,361.23652,-1663,5553,25.2813,4582,384
1.68014,378.96879,-1662,5554,25.58,4582,384
2.31509,393.07562,-1661,5555,25.2813,4582,384
1.41517,401.62331,-1660,5556,25.4804,4582,384
2.26301,402.29043,-1659,5557,25.58,4582,384
1.7551,391.55137,-1658,5558,25.58,4582,384
1.97498,368.72778,-1657,5559,25.58,4582,384
2.24609,338.21747,-1656,5560,25.58,4582,384
1.94824,306.64833,-1655,5561,25.3808,4582,384
2.57079,277.11053,-1654,5562,25.58,4582,384
2.68333,249.18833,-1653,5563,25.6297,4600,417
2.15951,222.59119,-1652,5564,25.4804,4600,417
2.31303,198.39524,-1651,5565,25.58,4600,417
1.63702,177.39173,-1650,5566,25.58,4600,417
1.94824,160.39519,-1649,5567,25.58,4600,417
3.39838,146.97453,-1648,5568,25.4306,4600,417
2.2819,137.75779,-1647,5569,25.4804,4600,417
1.99659,131.69045,-1646,5570,25.58,4600,417
2.32126,132.243,-1645,5571,25.4306,4600,417
2.69397,135.97438,-1644,5572,25.4804,4600,417
2.15951,139.84112,-1643,5573,25.2813,4587,412
2.35997,143.17271,-1642,5574,25.3808,4587,412
1.62532,146.42363,-1641,5575,25.4306,4587,412
2.60213,150.4415,-1640,5576,25.3808,4587,412
2.32332,153.46457,-1639,5577,25.6297,4587,412
2.36401,152.75157,-1638,5578,25.58,4587,412
1.60168,150.08425,-1637,5579,25.6297,4587,412
1.98461,147.95989,-1636,5580,25.4306,4587,412
1.90116,147.00282,-1635,5581,25.58,4587,412
1.65152,149.05585,-1634,5582,25.4306,4587,412
2.28816,153.63091,-1633,5583,25.58,4590,440
1.75238,158.82699,-1632,5584,25.4306,4590,440
1.81125,164.32763,-1631,5585,25.3808,4590,440
1.48103,169.16853,-1630,5586,25.4306,4590,440
1.87846,172.98225,-1629,5587,25.3808,4590,440
1.65152,175.91416,-1628,5588,25.4306,4590,440
2.02269,178.62574,-1627,5589,25.4804,4590,440
1.53168,181.58475,-1626,5590,25.4306,4590,440
1.70829,185.01982,-1625,5591,25.6297,4590,440
1.92608,189.38842,-1624,5592,25.4306,4590,440
2.45504,193.98966,-1623,5593,25.4804,4590,440
1.45505,200.06997,-1622,5594,25.3808,4590,440
2.01324,206.55873,-1621,5595,25.58,4590,440
1.96529,212.15209,-1620,5596,25.4306,4590,440
2.39208,217.26434,-1619,5597,25.3808,4590,440
2.42376,221.69195,-1618,5598,25.3808,4590,440
1.57466,227.31324,-1617,5599,25.4306,4590,440
1.28447,233.51933,-1616,5600,25.4804,4590,440
2.79815,239.54606,-1615,5601,25.3808,4590,440
1.88606,245.97762,-1614,5602,25.58,4590,440
1.89614,251.14815,-1613,5603,25.4804,4589,374
1.02423,254.24465,-1612,5604,25.6297,4589,374
1.45176,256.57266,-1611,5605,25.6297,4589,374
1.39139,256.90828,-1610,5606,25.2813,4589,374
1.35668,256.42324,-1609,5607,25.4804,4589,374
1.71942,258.03045,-1608,5608,25.4804,4589,374
1.66303,259.54988,-1607,5609,25.4306,4589,374
2.02269,260.09431,-1606,5610,25.2813,4589,374
1.52231,260.04306,-1605,5611,25.58,4589,374
1.14304,259.70668,-1604,5612,25.2813,4589,374
1.12623,260.14309,-1603,5613,25.4306,4593,449
2.12837,260.94653,-1602,5614,25.7791,4593,449
1.98701,259.85083,-1601,5615,25.2813,4593,449
0.601994,258.14145,-1600,5616,25.3808,4593,449
1.22752,258.15689,-1599,5617,25.4804,4593,449
1.40163,258.73341,-1598,5618,25.3808,4593,449
2.1573,258.89781,-1597,5619,25.2813,4593,449
1.84257,258.27969,-1596,5620,25.4306,4593,449
1.60466,256.68119,-1595,5621,25.4306,4593,449
1.41517,251.60095,-1594,5622,25.4804,4593,449
2.4974,244.48477,-1593,5623,25.4306,4584,392
2.37809,238.77343,-1592,5624,25.2315,4584,392
1.36719,234.06994,-1591,5625,25.4306,4584,392
2.63129,229.27317,-1590,5626,25.6297,4584,392
2.27981,227.37728,-1589,5627,25.4804,4584,392
2.16171,226.94788,-1588,5628,25.4306,4584,392
1.19604,226.36829,-1587,5629,25.4804,4584,392
1.67161,223.3389,-1586,5630,25.4804,4584,392
1.89614,219.52699,-1585,5631,25.2813,4584,392
1.3461,217.27593,-1584,5632,25.4306,4584,392
2.84714,216.48835,-1583,5633,25.4306,4597,365
1.97498,216.12183,-1582,5634,25.4804,4597,365
2.13284,212.14545,-1581,5635,25.4804,4597,365
1.81125,204.28966,-1580,5636,25.4804,4597,365
1.5034,199.36388,-1579,5637,25.4804,4597,365
0.981433,201.1715,-1578,5638,25.2813,4597,365
1.7767,205.66446,-1577,5639,25.4306,4597,365
1.57769,206.20859,-1576,5640,25.4306,4597,365
1.74146,199.17155,-1575,5641,25.4804,4597,365
1.52544,186.23345,-1574,5642,25.3808,4597,365
1.17998,175.62512,-1573,5643,25.58,4598,473
1.5034,172.64786,-1572,5644,25.4306,4598,473
1.70829,173.20659,-1571,5645,25.6795,4598,473
1.53168,174.68735,-1570,5646,25.4804,4598,473
1.95556,178.52043,-1569,5647,25.7791,4598,473
1.74966,185.64603,-1568,5648,25.4306,4598,473
1.22752,194.59451,-1567,5649,25.3808,4598,473
1.07422,200.15995,-1566,5650,25.2813,4598,473
0.737289,202.08485,-1565,5651,25.4306,4598,473
2.54282,204.15941,-1564,5652,25.6297,4598,473
1.89865,205.49264,-1563,5653,25.2813,4604,385
1.05179,206.45612,-1562,5654,25.4306,4604,385
1.50022,208.70822,-1561,5655,25.58,4604,385
1.01016,210.16729,-1560,5656,25.4306,4604,385
1.25821,208.65505,-1559,5657,25.2813,4604,385
1.41517,204.56267,-1558,5658,25.58,4604,385
0.85693,203.34349,-1557,5659,25.58,4604,385
1.87592,202.29655,-1556,5660,25.6297,4604,385
1.26953,198.30085,-1555,5661,25.4804,4604,385
1.54717,192.66571,-1554,5662,25.4804,4604,385
0.995902,190.9708,-1553,5663,25.58,4608,469
1.64863,193.06206,-1552,5664,25.58,4608,469
0.617632,195.12763,-1551,5665,25.58,4608,469
0.981433,197.62988,-1550,5666,25.4804,4608,469
2.21187,197.37803,-1549,5667,25.2813,4608,469
1.04725,199.50416,-1548,5668,25.6795,4608,469
1.7551,204.54344,-1547,5669,25.6297,4608,469
0.840071,209.53262,-1546,5670,25.58,4608,469
0.560992,210.46196,-1545,5671,25.4804,4608,469
1.17998,210.04683,-1544,5672,25.2813,4608,469
0.976563,210.97264,-1543,5673,25.58,4597,423
1.38107,215.14604,-1542,5674,25.4804,4597,423
1.31745,220.48825,-1541,5675,25.2813,4597,423
0.683594,220.9245,-1540,5676,25.6297,4597,423
0.690534,218.85913,-1539,5677,25.6795,4597,423
1.64863,218.22656,-1538,5678,25.3808,4597,423
1.05631,219.28816,-1537,5679,25.4804,4597,423
1.44188,216.83158,-1536,5680,25.58,4597,423
1.44518,212.98723,-1535,5681,25.58,4597,423
1.22752,209.74671,-1534,5682,25.4306,4597,423
1.54717,209.87359,-1533,5683,25.58,4593,458
1.60168,212.48953,-1532,5684,25.58,4593,458
1.09619,207.61246,-1531,5685,25.4804,4593,458
1.99897,199.42281,-1530,5686,25.4306,4593,458
1.64283,188.11831,-1529,5687,25.4804,4593,458
1.24296,172.41934,-1528,5688,25.58,4593,458
1.15548,150.9421,-1527,5689,25.4804,4593,458
0.793363,126.63146,-1526,5690,25.58,4593,458
2.27981,100.36867,-1525,5691,25.4306,4593,458
1.60466,77.483019,-1524,5692,25.2813,4593,458
1.44518,65.394264,-1523,5693,25.6297,4588,413
1.64863,61.751775,-1522,5694,25.2813,4588,413
1.06977,60.478664,-1521,5695,25.4306,4588,413
1.14304,52.965294,-1520,5696,25.4306,4588,413
1.02423,42.452046,-1519,5697,25.7791,4588,413
1.64863,34.366425,-1518,5698,25.3808,4588,413
1.32827,32.528704,-1517,5699,25.4306,4588,413
1.09619,39.470261,-1516,5700,25.58,4588,413
1.32827,53.078412,-1515,5701,25.6297,4588,413
2.24609,67.533242,-1514,5702,25.3808,4588,413
2.44141,86.941661,-1513,5703,25.4306,4588,447
1.82437,105.57847,-1512,5704,25.6297,4588,447
1.1596,118.8244,-1511,5705,25.4804,4588,447
2.05078,134.89576,-1510,5706,25.3808,4588,447
1.75781,149.41102,-1509,5707,25.4804,4588,447
2.38609,166.85141,-1508,5708,25.4306,4588,447
1.26953,186.22797,-1507,5709,25.58,4588,447
1.77132,203.34313,-1506,5710,25.58,4588,447
1.75238,221.72317,-1505,5711,25.58,4588,447
2.91009,240.9906,-1504,5712,25.6297,4588,447
2.27352,258.20214,-1503,5713,25.4804,4599,447
2.44336,278.74408,-1502,5714,25.4306,4599,447
2.93944,304.08639,-1501,5715,25.4306,4599,447
2.20323,325.07932,-1500,5716,25.4306,4599,447
2.91827,342.77574,-1499,5717,25.4306,4599,447
2.06237,364.71549,-1498,5718,25.6297,4599,447
1.00068,386.85657,-1497,5719,25.4804,4599,447
2.20323,408.40846,-1496,5720,25.58,4599,447
2.9248,425.89576,-1495,5721,25.6297,4599,447
2.16612,440.83802,-1494,5722,25.58,4599,447
2.54282,455.95777,-1493,5723,25.3808,4587,438
2.57264,470.12911,-1492,5724,25.4306,4587,438
2.03209,483.27871,-1491,5725,25.4804,4587,438
2.38009,496.86297,-1490,5726,25.3808,4587,438
2.32946,510.32268,-1489,5727,25.58,4587,438
1.60168,523.79304,-1488,5728,25.58,4587,438
2.54094,537.45597,-1487,5729,25.4306,4587,438
2.64575,549.20802,-1486,5730,25.4804,4587,438
1.22752,557.47953,-1485,5731,25.58,4587,438
1.33185,563.5822,-1484,5732,25.6795,4587,438
1.88099,569.97437,-1483,5733,25.3808,4593,441
1.78473,576.74859,-1482,5734,25.3808,4593,441
2.04146,581.33715,-1481,5735,25.6297,4593,441
1.958,584.10437,-1480,5736,25.4804,4593,441
2.13284,585.18481,-1479,5737,25.58,4593,441
1.62239,587.33783,-1478,5738,25.6297,4593,441
1.84516,589.22876,-1477,5739,25.6297,4593,441
1.80598,588.61071,-1476,5740,25.58,4593,441
1.94333,587.97575,-1475,5741,25.58,4593,441
2.11714,587.80316,-1474,5742,25.4804,4593,441
2.30477,587.4604,-1473,5743,25.58,4586,424
2.35593,584.18522,-1472,5744,25.58,4586,424
1.66303,577.93157,-1471,5745,25.4804,4586,424
1.78473,570.23083,-1470,5746,25.4804,4586,424
1.89865,562.20505,-1469,5747,25.3808,4586,424
2.66729,554.20089,-1468,5748,25.58,4586,424
2.03444,544.52088,-1467,5749,25.4804,4586,424
1.89614,532.08831,-1466,5750,25.58,4586,424
2.81345,517.20503,-1465,5751,25.3808,4586,424
2.26512,501.54789,-1464,5752,25.4804,4586,424
3.08353,486.41575,-1463,5753,25.4804,4592,430
1.60466,472.52503,-1462,5754,25.3808,4592,430
1.83998,456.64187,-1461,5755,25.2813,4592,430
3.08353,439.84319,-1460,5756,25.4804,4592,430
2.11714,424.56825,-1459,5757,25.58,4592,430
1.36719,412.3722,-1458,5758,25.2813,4592,430
2.77247,398.32426,-1457,5759,25.4804,4592,430
2.62221,379.75849,-1456,5760,25.3808,4592,430
2.65115,360.29577,-1455,5761,25.4306,4592,430
2.00374,339.54776,-1454,5762,25.58,4592,430
2.59295,318.18694,-1453,5763,25.3808,4600,399
2.25668,296.33083,-1452,5764,25.3808,4600,399
2.77075,275.20762,-1451,5765,25.3808,4600,399
3.76958,255.33999,-1450,5766,25.58,4600,399
1.90617,235.80048,-1449,5767,25.4306,4600,399
3.03364,216.32464,-1448,5768,25.4306,4600,399
2.68865,196.61291,-1447,5769,25.4306,4600,399
2.40995,178.59521,-1446,5770,25.4804,4600,399
3.15083,161.77554,-1445,5771,25.4306,4600,399
2.51073,145.45768,-1444,5772,25.4306,4600,399
2.77247,129.51764,-1443,5773,25.4804,4595,443
2.54656,117.47693,-1442,5774,25.4306,4595,443
2.14177,109.29391,-1441,5775,25.4306,4595,443
2.98291,105.95288,-1440,5776,25.58,4595,443
2.55591,106.44349,-1439,5777,25.58,4595,443
3.32605,110.60716,-1438,5778,25.3808,4595,443
2.67977,117.39211,-1437,5779,25.4804,4595,443
2.77075,124.99869,-1436,5780,25.4804,4595,443
2.26722,132.17301,-1435,5781,25.6297,4595,443
2.44336,139.03616,-1434,5782,25.2813,4595,443
3.1143,146.61336,-1433,5783,25.2813,4595,448
2.50313,157.64255,-1432,5784,25.3808,4595,448
2.88871,168.94487,-1431,5785,25.4306,4595,448
2.27981,179.97201,-1430,5786,25.3808,4595,448
2.08765,190.17963,-1429,5787,25.58,4595,448
1.47134,199.79521,-1428,5788,25.4804,4595,448
2.01797,208.31437,-1427,5789,25.6297,4595,448
2.6851,215.8499,-1426,5790,25.58,4595,448
2.09222,221.94024,-1425,5791,25.4804,4595,448
2.04845,228.6969,-1424,5792,25.58,4595,448
2.34985,234.14715,-1423,5793,25.6297,4595,380
2.6003,238.01204,-1422,5794,25.4306,4595,380
2.50313,240.30622,-1421,5795,25.3808,4595,380
2.63491,242.30868,-1420,5796,25.4804,4595,380
1.958,243.58365,-1419,5797,25.4804,4595,380
1.73047,244.61203,-1418,5798,25.2813,4595,380
1.75238,245.36995,-1417,5799,25.3808,4595,380
2.65294,245.88394,-1416,5800,25.4804,4595,380
1.94824,245.79208,-1415,5801,25.4804,4595,380
1.62826,243.96863,-1414,5802,25.4804,4595,380
2.53154,242.56329,-1413,5803,25.2813,4591,453
2.83371,241.95534,-1412,5804,25.6297,4591,453
2.11488,241.15351,-1411,5805,25.4804,4591,453
2.12837,240.22054,-1410,5806,25.3808,4591,453
1.82437,238.54978,-1409,5807,25.4306,4591,453
1.80334,236.22779,-1408,5808,25.4804,4591,453
1.76863,234.04492,-1407,5809,25.4804,4591,453
1.74146,229.71817,-1406,5810,25.4306,4591,453
2.44141,224.75598,-1405,5811,25.4306,4591,453
1.83739,219.3199,-1404,5812,25.6297,4591,453
2.18584,213.51888,-1403,5813,25.4306,4585,385
1.65152,207.96042,-1402,5814,25.58,4585,385
1.92608,201.37625,-1401,5815,25.58,4585,385
2.11263,195.63823,-1400,5816,25.58,4585,385
1.69708,190.61822,-1399,5817,25.58,4585,385
2.2819,186.11404,-1398,5818,25.3808,4585,385
1.63702,181.66306,-1397,5819,25.3808,4585,385
1.60466,177.84543,-1396,5820,25.58,4585,385
2.53718,175.22674,-1395,5821,25.58,4585,385
1.61355,172.3309,-1394,5822,25.58,4585,385
2.47439,169.86311,-1393,5823,25.58,4589,486
2.79474,168.45287,-1392,5824,25.4306,4589,486
2.22905,167.2496,-1391,5825,25.2813,4589,486
2.44726,166.52507,-1390,5826,25.4804,4589,486
1.74966,166.2327,-1389,5827,25.58,4589,486
2.37206,165.77283,-1388,5828,25.58,4589,486
1.13045,167.22368,-1387,5829,25.58,4589,486
2.45115,169.11118,-1386,5830,25.2813,4589,486
2.2819,170.8476,-1385,5831,25.4804,4589,486
2.09222,173.08499,-1384,5832,25.4804,4589,486
1.86827,175.1033,-1383,5833,25.6297,4588,370
1.89865,177.41609,-1382,5834,25.3808,4588,370
2.1573,181.82958,-1381,5835,25.58,4588,370
1.71664,186.92281,-1380,5836,25.2813,4588,370
1.52231,191.45241,-1379,5837,25.4804,4588,370
1.32827,194.71106,-1378,5838,25.3808,4588,370
1.86572,197.66173,-1377,5839,25.4804,4588,370
1.74146,201.02431,-1376,5840,25.3808,4588,370
1.68863,205.31065,-1375,5841,25.3808,4588,370
1.27702,208.9004,-1374,5842,25.58,4588,370
2.22905,211.51111,-1373,5843,25.58,4589,370
0.632885,213.48464,-1372,5844,25.58,4589,370
1.39481,215.15557,-1371,5845,25.58,4589,370
2.38409,218.42469,-1370,5846,25.4804,4589,370
0.971667,222.64343,-1369,5847,25.3808,4589,370
1.61355,226.39071,-1368,5848,25.4804,4589,370
1.52856,227.92021,-1367,5849,25.3808,4589,370
1.52856,225.99643,-1366,5850,25.6795,4589,370
1.33185,222.15204,-1365,5851,25.4306,4589,370
1.77132,220.13353,-1364,5852,25.6297,4589,370
1.07865,221.89865,-1363,5853,25.2813,4589,491
1.90867,223.29006,-1362,5854,25.58,4589,491
0.926449,221.37979,-1361,5855,25.4306,4589,491
0.926449,215.94694,-1360,5856,25.58,4589,491
1.00068,210.51046,-1359,5857,25.6795,4589,491
1.73872,206.49928,-1358,5858,25.58,4589,491
0.497951,201.61796,-1357,5859,25.58,4589,491
0.873464,193.90745,-1356,5860,25.4306,4589,491
1.69708,185.11088,-1355,5861,25.58,4589,491
1.27328,177.49229,-1354,5862,25.58,4589,491
1.33185,170.92865,-1353,5863,25.4306,4591,358
1.35316,162.89687,-1352,5864,25.8289,4591,358
1.50657,153.40533,-1351,5865,25.4306,4591,358
1.51917,145.21961,-1350,5866,25.58,4591,358
0.497951,137.16934,-1349,5867,25.58,4591,358
1.54099,127.78733,-1348,5868,25.58,4591,358
0.840071,118.24058,-1347,5869,25.58,4591,358
0.647778,110.84663,-1346,5870,25.58,4591,358
1.17998,106.22341,-1345,5871,25.6297,4591,358
1.06082,101.75862,-1344,5872,25.4804,4591,358
1.05179,98.445072,-1343,5873,25.58,4582,419
1.6165,95.860877,-1342,5874,25.4306,4582,419
1.23912,92.800498,-1341,5875,25.3808,4582,419
1.09183,90.878868,-1340,5876,25.58,4582,419
1.31745,90.233992,-1339,5877,25.4306,4582,419
2.13954,89.131559,-1338,5878,25.58,4582,419
1.08306,86.785811,-1337,5879,25.6297,4582,419
1.11773,86.90086,-1336,5880,25.4804,4582,419
0.585938,90.441745,-1335,5881,25.4804,4582,419
1.25061,94.574324,-1334,5882,25.4804,4582,419
1.52856,97.002588,-1333,5883,25.6297,4594,423
1.31745,99.001733,-1332,5884,25.4306,4594,423
1.09619,103.07231,-1331,5885,25.58,4594,423
1.59572,105.86755,-1330,5886,25.58,4594,423
1.3102,107.27849,-1329,5887,25.4804,4594,423
1.14304,109.30147,-1328,5888,25.6297,4594,423
0.402647,109.60126,-1327,5889,25.4804,4594,423
1.04268,110.27443,-1326,5890,25.4804,4594,423
1.26953,113.52178,-1325,5891,25.58,4594,423
1.5034,115.81977,-1324,5892,25.3808,4594,423
1.87592,116.37303,-1323,5893,25.4306,4597,373
1.36719,116.85783,-1322,5894,25.3808,4597,373
1.68863,120.74112,-1321,5895,25.3808,4597,373
1.31745,127.05502,-1320,5896,25.4804,4597,373
1.16371,128.99119,-1319,5897,25.4306,4597,373
0.560992,124.64007,-1318,5898,25.4306,4597,373
2.0693,125.67914,-1317,5899,25.2813,4597,373
2.14399,137.02826,-1316,5900,25.6297,4597,373
0.895034,147.47251,-1315,5901,25.58,4597,373
2.14399,150.0193,-1314,5902,25.4306,4597,373
0.138107,153.31346,-1313,5903,25.58,4587,459
1.88858,163.75062,-1312,5904,25.58,4587,459
1.63702,179.65669,-1311,5905,25.6297,4587,459
1.23912,195.18356,-1310,5906,25.4804,4587,459
1.0381,197.21852,-1309,5907,25.4306,4587,459
0.900346,181.36235,-1308,5908,25.3808,4587,459
0.851347,160.45937,-1307,5909,25.58,4587,459
1.08306,147.912,-1306,5910,25.58,4587,459
1.40163,145.26772,-1305,5911,25.58,4587,459
0.737289,146.78015,-1304,5912,25.58,4587,459
1.13045,147.78521,-1303,5913,25.6297,4592,385
1.04268,148.43609,-1302,5914,25.4306,4592,385
1.45505,151.46353,-1301,5915,25.4306,4592,385
2.25668,155.13403,-1300,5916,25.6795,4592,385
1.94824,156.40194,-1299,5917,25.6297,4592,385
1.17998,152.99677,-1298,5918,25.4804,4592,385
1.74966,148.49009,-1297,5919,25.2813,4592,385
1.63702,145.47038,-1296,5920,25.58,4592,385
2.03444,143.67557,-1295,5921,25.4306,4592,385
2.45698,142.17985,-1294,5922,25.58,4592,385
2.36199,141.05091,-1293,5923,25.58,4588,437
1.78206,138.66575,-1292,5924,25.4306,4588,437
2.32332,136.42689,-1291,5925,25.4306,4588,437
1.74146,135.68762,-1290,5926,25.7791,4588,437
1.56555,135.50426,-1289,5927,25.58,4588,437
2.60213,136.13401,-1288,5928,25.6795,4588,437
1.76052,135.07057,-1287,5929,25.4804,4588,437
2.40203,131.57334,-1286,5930,25.4306,4588,437
2.09222,129.66631,-1285,5931,25.4306,4588,437
1.71386,129.33129,-1284,5932,25.2813,4588,437
2.17052,127.86602,-1283,5933,25.4804,4594,379
1.68863,123.84188,-1282,5934,25.58,4594,379
2.8354,113.97956,-1281,5935,25.4804,4594,379
1.52231,101.64778,-1280,5936,25.4804,4594,379
1.36019,92.245911,-1279,5937,25.2813,4594,379
2.00612,86.295078,-1278,5938,25.3808,4594,379
1.30655,83.568608,-1277,5939,25.58,4594,379
2.79986,81.847303,-1276,5940,25.58,4594,379
2.13284,81.224104,-1275,5941,25.3808,4594,379
2.43358,83.150405,-1274,5942,25.58,4594,379
2.83371,87.284542,-1273,5943,25.58,4591,475
2.27981,93.746583,-1272,5944,25.4804,4591,475
1.89362,104.73839,-1271,5945,25.4804,4591,475
2.51832,119.07263,-1270,5946,25.3808,4591,475
1.85804,132.08741,-1269,5947,25.6297,4591,475
2.43358,140.45498,-1268,5948,25.4804,4591,475
1.81913,144.25762,-1267,5949,25.6795,4591,475
1.8529,142.77969,-1266,5950,25.2813,4591,475
1.60466,136.45632,-1265,5951,25.58,4591,475
2.15951,128.72429,-1264,5952,25.58,4591,475
1.88858,121.7601,-1263,5953,25.58,4587,395
1.81388,115.6397,-1262,5954,25.4804,4587,395
1.3637,111.98692,-1261,5955,25.3808,4587,395
1.5807,110.95386,-1260,5956,25.58,4587,395
2.16392,111.24437,-1259,5957,25.4306,4587,395
1.99897,110.37337,-1258,5958,25.4804,4587,395
2.48784,109.55346,-1257,5959,25.4306,4587,395
1.01956,109.56251,-1256,5960,25.6297,4587,395
1.25821,110.66231,-1255,5961,25.4804,4587,395
1.958,112.7259,-1254,5962,25.58,4587,395
2.22905,115.96532,-1253,5963,25.58,4590,406
2.0693,119.97096,-1252,5964,25.3808,4590,406
1.95556,125.56111,-1251,5965,25.58,4590,406
1.958,132.68307,-1250,5966,25.6297,4590,406
1.52856,138.96883,-1249,5967,25.58,4590,406
1.77938,140.69863,-1248,5968,25.4804,4590,406
0.995902,134.1731,-1247,5969,25.6795,4590,406
1.11773,121.02494,-1246,5970,25.3808,4590,406
1.76052,110.21902,-1245,5971,25.4804,4590,406
1.88858,102.38738,-1244,5972,25.58,4590,406
2.14177,95.401054,-1243,5973,25.4804,4587,436
1.90617,87.800467,-1242,5974,25.4804,4587,436
0.85693,78.876127,-1241,5975,25.4804,4587,436
2.54656,69.056633,-1240,5976,25.4306,4587,436
1.57769,59.9032,-1239,5977,25.4306,4587,436
1.02423,52.05136,-1238,5978,25.4804,4587,436
1.3461,46.957896,-1237,5979,25.6297,4587,436
1.40163,50.118152,-1236,5980,25.2813,4587,436
1.49385,60.903912,-1235,5981,25.58,4587,436
0.895034,73.760071,-1234,5982,25.6297,4587,436
0.41432,84.806455,-1233,5983,25.6297,4596,372
1.68863,88.720935,-1232,5984,25.2813,4596,372
0.878906,83.868701,-1231,5985,25.58,4596,372
2.14177,75.283742,-1230,5986,25.4804,4596,372
1.01487,75.255531,-1229,5987,25.58,4596,372
1.70549,85.262596,-1228,5988,25.58,4596,372
1.71942,97.08704,-1227,5989,25.4306,4596,372
2.09222,107.06408,-1226,5990,25.4804,4596,372
1.72772,115.50574,-1225,5991,25.58,4596,372
1.45505,120.36907,-1224,5992,25.4306,4596,372
1.01016,122.43975,-1223,5993,25.6795,4593,456
1.50022,130.10348,-1222,5994,25.4804,4593,456
1.88858,145.60676,-1221,5995,25.3808,4593,456
0.85693,162.06644,-1220,5996,25.58,4593,456
1.23912,173.36821,-1219,5997,25.6297,4593,456
2.1771,177.86281,-1218,5998,25.4306,4593,456
0.640375,179.17182,-1217,5999,25.4306,4593,456
1.5987,183.2693,-1216,6000,25.4306,4593,456
1.25821,190.84061,-1215,6001,25.4804,4593,456
1.38107,197.34787,-1214,6002,25.4306,4593,456
1.68298,200.25623,-1213,6003,25.58,4589,373
0.601994,198.95027,-1212,6004,25.58,4589,373
1.04268,197.52282,-1211,6005,25.3808,4589,373
0.534885,198.98075,-1210,6006,25.4804,4589,373
0.981433,206.53655,-1209,6007,25.2813,4589,373
1.61355,219.42213,-1208,6008,25.4804,4589,373
0.338291,229.93566,-1207,6009,25.4306,4589,373
1.61945,230.74925,-1206,6010,25.3808,4589,373
0.276214,223.28085,-1205,6011,25.4804,4589,373
1.3637,218.29077,-1204,6012,25.6297,4589,373
1.36019,223.09287,-1203,6013,25.3808,4592,410
1.62239,232.89589,-1202,6014,25.4804,4592,410
1.36019,236.18085,-1201,6015,25.3808,4592,410
1.71664,230.92625,-1200,6016,25.4306,4592,410
0.717624,223.47994,-1199,6017,25.58,4592,410
0.845728,219.41988,-1198,6018,25.4306,4592,410
1.21188,220.86517,-1197,6019,25.58,4592,410
0.98628,222.72671,-1196,6020,25.3808,4592,410
0.995902,222.39757,-1195,6021,25.4306,4592,410
1.77132,225.02122,-1194,6022,25.6795,4592,410
1.22363,232.44258,-1193,6023,25.58,4591,431
1.73047,237.72155,-1192,6024,25.4804,4591,431
1.17998,236.1782,-1191,6025,25.2813,4591,431
1.30655,224.31479,-1190,6026,25.4804,4591,431
1.37067,204.06089,-1189,6027,25.6795,4591,431
2.0156,183.48699,-1188,6028,25.4804,4591,431
1.65152,170.99458,-1187,6029,25.6297,4591,431
1.01956,166.67086,-1186,6030,25.4804,4591,431
1.55638,161.4605,-1185,6031,25.58,4591,431
0.900346,152.38683,-1184,6032,25.4804,4591,431
1.70829,140.92678,-1183,6033,25.4804,4582,350
2.8236,128.73309,-1182,6034,25.2813,4582,350
1.6165,119.36542,-1181,6035,25.6297,4582,350
1.38796,117.15068,-1180,6036,25.4306,4582,350
1.09183,119.16251,-1179,6037,25.3808,4582,350
1.66303,116.52454,-1178,6038,25.6297,4582,350
2.44336,112.03707,-1177,6039,25.2813,4582,350
1.08306,112.91035,-1176,6040,25.4804,4582,350
1.55638,120.81594,-1175,6041,25.4804,4582,350
0.981433,134.04115,-1174,6042,25.6297,4582,350
1.60168,149.14445,-1173,6043,25.4306,4588,450
1.63702,162.41289,-1172,6044,25.7791,4588,450
1.69427,174.03806,-1171,6045,25.6795,4588,450
1.19604,183.61465,-1170,6046,25.6297,4588,450
2.12613,189.02212,-1169,6047,25.6297,4588,450
1.4118,189.34337,-1168,6048,25.4804,4588,450
1.3029,189.93054,-1167,6049,25.4306,4588,450
1.20794,190.83202,-1166,6050,25.58,4588,450
1.49385,190.82327,-1165,6051,25.4306,4588,450
1.68298,192.0443,-1164,6052,25.6795,4588,450
2.22262,191.57721,-1163,6053,25.4306,4592,388
1.10916,190.76798,-1162,6054,25.4804,4592,388
1.67161,190.36712,-1161,6055,25.4804,4592,388
0.799351,190.52845,-1160,6056,25.6297,4592,388
1.34255,192.13022,-1159,6057,25.3808,4592,388
0.552427,194.55166,-1158,6058,25.58,4592,388
1.05631,197.10908,-1157,6059,25.4306,4592,388
1.38107,198.99191,-1156,6060,25.58,4592,388
1.55638,198.94671,-1155,6061,25.58,4592,388
1.17594,196.46196,-1154,6062,25.6297,4592,388
0.497951,191.0717,-1153,6063,25.58,4591,469
0.905627,182.23364,-1152,6064,25.6297,4591,469
1.07865,171.36629,-1151,6065,25.4306,4591,469
1.11345,163.7033,-1150,6066,25.58,4591,469
1.53789,160.18946,-1149,6067,25.58,4591,469
1.23912,155.90482,-1148,6068,25.4306,4591,469
1.05179,153.52442,-1147,6069,25.4306,4591,469
1.05631,153.59768,-1146,6070,25.4804,4591,469
1.54717,156.55949,-1145,6071,25.58,4591,469
1.55332,158.62195,-1144,6072,25.6297,4591,469
0.921287,157.03201,-1143,6073,25.58,4591,356
1.31745,152.69879,-1142,6074,25.58,4591,356
0.981433,145.76616,-1141,6075,25.4306,4591,356
1.68863,140.12768,-1140,6076,25.6297,4591,356
0.76272,143.31876,-1139,6077,25.4804,4591,356
1.53789,157.03709,-1138,6078,25.4804,4591,356
1.37415,173.99516,-1137,6079,25.4306,4591,356
1.53789,188.26828,-1136,6080,25.58,4591,356
2.44141,193.94626,-1135,6081,25.58,4591,356
1.12198,196.37968,-1134,6082,25.6297,4591,356
1.40163,205.53295,-1133,6083,25.58,4595,441
1.70549,221.85399,-1132,6084,25.58,4595,441
2.39606,238.44744,-1131,6085,25.2813,4595,441
2.26091,251.53917,-1130,6086,25.3808,4595,441
1.46158,261.93505,-1129,6087,25.2813,4595,441
1.8529,270.62958,-1128,6088,25.4306,4595,441
1.67161,275.09809,-1127,6089,25.58,4595,441
1.30655,271.30398,-1126,6090,25.58,4595,441
0.905627,265.30196,-1125,6091,25.6297,4595,441
1.46484,264.10831,-1124,6092,25.58,4595,441
2.23545,267.68269,-1123,6093,25.4804,4596,394
1.30655,274.00971,-1122,6094,25.4804,4596,394
1.1472,281.60481,-1121,6095,25.3808,4596,394
1.26577,284.90573,-1120,6096,25.6297,4596,394
0.905627,287.14275,-1119,6097,25.6297,4596,394
1.23912,296.30199,-1118,6098,25.4804,4596,394
1.10916,311.23906,-1117,6099,25.4306,4596,394
1.29923,323.64259,-1116,6100,25.58,4596,394
1.68863,328.68578,-1115,6101,25.2813,4596,394
1.11773,330.09352,-1114,6102,25.4804,4596,394
1.28447,329.11232,-1113,6103,25.58,4596,394
1.47134,325.79011,-1112,6104,25.4306,4596,394
2.04146,320.12532,-1111,6105,25.58,4596,394
2.35997,315.75701,-1110,6106,25.4804,4596,394
2.34782,312.9505,-1109,6107,25.3808,4596,394
1.1596,311.25522,-1108,6108,25.4306,4596,394
1.51603,308.25524,-1107,6109,25.3808,4596,394
2.18802,302.94591,-1106,6110,25.58,4596,394
1.04268,298.70388,-1105,6111,25.58,4596,394
2.08994,294.57863,-1104,6112,25.6297,4596,394
1.46158,291.73972,-1103,6113,25.58,4585,422
2.44726,290.34595,-1102,6114,25.4804,4585,422
3.06647,289.60185,-1101,6115,25.4804,4585,422
1.61355,285.96083,-1100,6116,25.4306,4585,422
1.70829,281.40398,-1099,6117,25.58,4585,422
0.926449,277.62259,-1098,6118,25.4306,4585,422
2.55591,280.06846,-1097,6119,25.4804,4585,422
1.30655,286.80183,-1096,6120,25.58,4585,422
1.48103,291.77912,-1095,6121,25.4306,4585,422
1.34255,287.89304,-1094,6122,25.58,4585,422
1.56859,276.73768,-1093,6123,25.58,4592,388
2.85049,268.67105,-1092,6124,25.6795,4592,388
2.22905,267.10572,-1091,6125,25.4804,4592,388
1.82698,270.31111,-1090,6126,25.4306,4592,388
2.48208,275.77261,-1089,6127,25.58,4592,388
1.28817,281.99273,-1088,6128,25.6795,4592,388
2.28816,288.49923,-1087,6129,25.2813,4592,388
2.15287,293.54875,-1086,6130,25.4306,4592,388
1.09619,298.35518,-1085,6131,25.58,4592,388
2.05543,305.10922,-1084,6132,25.4804,4592,388
1.97739,310.34396,-1083,6133,25.58,4579,413
1.07422,313.34612,-1082,6134,25.4306,4579,413
3.14022,322.55932,-1081,6135,25.4804,4579,413
2.86051,341.64305,-1080,6136,25.58,4579,413
2.0156,364.02673,-1079,6137,25.6297,4579,413
2.45698,382.28546,-1078,6138,25.58,4579,413
3.35744,392.52462,-1077,6139,25.58,4579,413
3.50748,400.43591,-1076,6140,25.58,4579,413
3.61987,413.13732,-1075,6141,25.7791,4579,413
3.45405,430.30722,-1074,6142,25.58,4579,413
3.62514,447.97859,-1073,6143,25.58,4584,406
3.34606,464.24842,-1072,6144,25.3808,4584,406
4.34104,479.3521,-1071,6145,25.58,4584,406
4.14895,490.41638,-1070,6146,25.58,4584,406
2.78106,492.63259,-1069,6147,25.4804,4584,406
3.21673,488.77224,-1068,6148,25.3808,4584,406
2.65294,485.57751,-1067,6149,25.4306,4584,406
3.22709,480.36307,-1066,6150,25.6297,4584,406
3.51155,470.94271,-1065,6151,25.58,4584,406
2.74482,463.91136,-1064,6152,25.2813,4584,406
3.99437,459.94793,-1063,6153,25.4804,4583,417
2.78277,456.2261,-1062,6154,25.58,4583,417
2.15951,452.86069,-1061,6155,25.4804,4583,417
3.00997,448.10687,-1060,6156,25.6297,4583,417
2.13284,440.00596,-1059,6157,25.6297,4583,417
1.95556,428.74008,-1058,6158,25.3808,4583,417
2.02269,419.02578,-1057,6159,25.4306,4583,417
2.17052,398.08531,-1056,6160,25.4804,4583,417
1.958,376.48671,-1055,6161,25.3808,4583,417
2.49167,376.6858,-1054,6162,25.58,4583,417
2.92806,374.69446,-1053,6163,25.4804,4590,392
2.42376,359.21794,-1052,6164,25.4306,4590,392
1.97498,344.69483,-1051,6165,25.58,4590,392
3.56679,335.14395,-1050,6166,25.4804,4590,392
2.79304,322.14728,-1049,6167,25.58,4590,392
2.18584,302.39618,-1048,6168,25.2813,4590,392
2.10585,278.74397,-1047,6169,25.6297,4590,392
2.61493,264.17243,-1046,6170,25.3808,4590,392
2.51263,251.30554,-1045,6171,25.6297,4590,392
2.80326,230.80762,-1044,6172,25.3808,4590,392
3.05088,215.95322,-1043,6173,25.6297,4592,380
3.86452,215.92203,-1042,6174,25.4804,4592,380
3.27695,215.61612,-1041,6175,25.2813,4592,380
4.0158,199.68942,-1040,6176,25.3808,4592,380
2.95561,168.57084,-1039,6177,25.2813,4592,380
3.18844,146.0088,-1038,6178,25.3808,4592,380
2.98451,147.72778,-1037,6179,25.6297,4592,380
3.608,150.40539,-1036,6180,25.6297,4592,380
4.32453,160.95132,-1035,6181,25.4804,4592,380
3.62514,222.4659,-1034,6182,25.6297,4592,380
4.17188,280.87923,-1033,6183,25.4804,4584,399
4.23089,300.40398,-1032,6184,25.4804,4584,399
3.63302,293.95852,-1031,6185,25.2813,4584,399
4.68852,253.90807,-1030,6186,25.4804,4584,399
4.12475,257.05483,-1029,6187,25.6297,4584,399
3.8977,385.5104,-1028,6188,25.58,4584,399
3.74802,543.81054,-1027,6189,25.6297,4584,399
3.82982,650.38059,-1026,6190,25.6297,4584,399
3.04775,709.57284,-1025,6191,25.4804,4584,399
4.39019,737.7033,-1024,6192,25.3808,4584,399
3.14629,733.5783,-1023,6193,25.4804,4593,385
3.44714,696.16615,-1022,6194,25.4804,4593,385
3.81485,632.37015,-1021,6195,25.3808,4593,385
5.14251,560.75055,-1020,6196,25.4306,4593,385
3.19293,506.08235,-1019,6197,25.6297,4593,385
3.73655,475.87769,-1018,6198,25.58,4593,385
4.57319,473.48947,-1017,6199,25.4306,4593,385
3.74929,500.59739,-1016,6200,25.3808,4593,385
3.67867,543.1986,-1015,6201,25.6297,4593,385
4.5355,584.23609,-1014,6202,25.58,4593,385
4.72902,627.27525,-1013,6203,25.4306,4588,346
3.75818,682.02494,-1012,6204,25.6297,4588,346
3.43606,735.62237,-1011,6205,25.4306,4588,346
3.35602,769.92264,-1010,6206,25.3808,4588,346
3.39838,789.53532,-1009,6207,25.4804,4588,346
3.55608,805.92632,-1008,6208,25.4804,4588,346
3.90747,829.99262,-1007,6209,25.58,4588,346
3.32749,868.28146,-1006,6210,25.2813,4588,346
2.0739,921.83583,-1005,6211,25.4804,4588,346
2.59663,973.53768,-1004,6212,25.4306,4588,346
3.63433,1005.7837,-1003,6213,25.6795,4592,397
2.45115,1019.5117,-1002,6214,25.4306,4592,397
2.62948,1030.9382,-1001,6215,25.6297,4592,397
2.13284,1046.435,-1000,6216,25.6297,4592,397
2.01324,1053.2168,-999,6217,25.4306,4592,397
3.38995,1037.4135,-998,6218,25.3808,4592,397
3.75945,1005.1809,-997,6219,25.3808,4592,397
3.64612,968.95496,-996,6220,25.4804,4592,397
3.63433,933.44979,-995,6221,25.6297,4592,397
4.63121,895.92658,-994,6222,25.58,4592,397
5.18774,850.62132,-993,6223,25.58,4583,399
5.20426,793.13148,-992,6224,25.4804,4583,399
4.48156,730.62121,-991,6225,25.4804,4583,399
5.2671,676.69487,-990,6226,25.4804,4583,399
5.12114,633.757,-989,6227,25.58,4583,399
4.55648,597.91133,-988,6228,25.58,4583,399
4.99672,562.09733,-987,6229,25.4804,4583,399
4.71387,525.03263,-986,6230,25.58,4583,399
4.15814,501.43424,-985,6231,25.4804,4583,399
4.4032,480.99901,-984,6232,25.4804,4583,399
3.71351,436.78276,-983,6233,25.4306,4581,427
4.1386,415.69241,-982,6234,25.4804,4581,427
3.27695,416.34952,-981,6235,25.58,4581,427
3.32749,399.08967,-980,6236,25.7791,4581,427
2.48976,375.35178,-979,6237,25.58,4581,427
3.70708,368.06288,-978,6238,25.58,4581,427
2.59663,379.26902,-977,6239,25.2813,4581,427
2.73612,399.3903,-976,6240,25.3808,4581,427
3.57347,411.321,-975,6241,25.6297,4581,427
3.47332,408.00007,-974,6242,25.6297,4581,427
3.33893,389.90813,-973,6243,25.58,4581,435
3.44576,379.90684,-972,6244,25.6297,4581,435
2.46473,393.14146,-971,6245,25.4306,4581,435
4.70983,420.1633,-970,6246,25.4306,4581,435
3.37444,451.69165,-969,6247,25.4306,4581,435
3.986,487.63168,-968,6248,25.6297,4581,435
3.63958,527.21842,-967,6249,25.3808,4581,435
3.43883,562.83042,-966,6250,25.3808,4581,435
2.39407,589.0722,-965,6251,25.58,4581,435
3.21228,599.76812,-964,6252,25.7791,4581,435
2.59479,598.44593,-963,6253,25.3808,4580,444
2.32946,589.72467,-962,6254,25.3808,4580,444
3.42354,571.63949,-961,6255,25.3808,4580,444
2.36199,547.15566,-960,6256,25.4804,4580,444
2.34782,524.88031,-959,6257,25.6297,4580,444
2.48976,527.24828,-958,6258,25.6297,4580,444
1.5807,554.12422,-957,6259,25.4306,4580,444
1.77132,576.48593,-956,6260,25.6297,4580,444
3.06802,581.81115,-955,6261,25.4804,4580,444
2.40203,589.30356,-954,6262,25.4804,4580,444
1.19205,626.37251,-953,6263,25.58,4582,456
1.27328,681.32539,-952,6264,25.6297,4582,456
1.5034,728.47629,-951,6265,25.6297,4582,456
0.436732,736.90938,-950,6266,25.4804,4582,456
0.402647,725.6862,-949,6267,25.3808,4582,456
0.889691,742.96395,-948,6268,25.58,4582,456
0.292969,787.56123,-947,6269,25.58,4582,456
1.17594,815.85655,-946,6270,25.58,4582,456
0.926449,811.79362,-945,6271,25.4306,4582,456
1.28447,795.78809,-944,6272,25.6297,4582,456
0.525895,787.78031,-943,6273,25.4306,4592,427
0.905627,778.33037,-942,6274,25.4804,4592,427
2.83371,753.6096,-941,6275,25.4804,4592,427
1.54408,725.06463,-940,6276,25.58,4592,427
0.926449,699.06965,-939,6277,25.58,4592,427
1.23912,666.7382,-938,6278,25.4306,4592,427
1.55638,609.19408,-937,6279,25.6297,4592,427
1.67446,530.33787,-936,6280,25.3808,4592,427
2.38609,449.36941,-935,6281,25.58,4592,427
2.44336,409.80706,-934,6282,25.58,4592,427
3.79982,447.74024,-933,6283,25.4804,4614,439
3.0163,542.52094,-932,6284,25.4804,4614,439
3.83977,628.09338,-931,6285,25.4306,4614,439
3.79731,689.45617,-930,6286,25.4306,4614,439
2.43554,807.2555,-929,6287,25.6297,4614,439
3.53456,993.04425,-928,6288,25.6297,4614,439
2.78449,1091.2396,-927,6289,25.58,4614,439
2.27352,973.22879,-926,6290,25.4306,4614,439
2.71512,715.96024,-925,6291,25.58,4614,439
2.81345,507.93106,-924,6292,25.6297,4614,439
3.48018,439.83365,-923,6293,25.6297,4637,387
4.0158,414.48811,-922,6294,25.58,4637,387
5.38794,578.67797,-921,6295,25.7791,4637,387
4.95936,942.57429,-920,6296,25.58,4637,387
4.06888,1273.6919,-919,6297,25.6795,4637,387
3.37162,1468.5845,-918,6298,25.58,4637,387
2.39805,1372.0625,-917,6299,25.58,4637,387
2.71161,928.00691,-916,6300,25.6795,4637,387
2.38409,488.39293,-915,6301,25.58,4637,387
3.60668,303.22838,-914,6302,25.6297,4637,387
2.87382,232.68651,-913,6303,25.4804,4671,448
2.76559,195.31197,-912,6304,25.6297,4671,448
2.68865,296.22735,-911,6305,25.58,4671,448
3.16593,453.05391,-910,6306,25.3808,4671,448
2.95239,574.57356,-909,6307,25.58,4671,448
3.1143,540.82812,-908,6308,25.58,4671,448
2.85884,521.59366,-907,6309,25.58,4671,448
2.82022,572.83838,-906,6310,25.6297,4671,448
2.96206,644.80949,-905,6311,25.58,4671,448
4.1524,700.39185,-904,6312,25.7791,4671,448
3.50204,732.22867,-903,6313,25.58,4726,404
3.77969,770.34404,-902,6314,25.58,4726,404
2.98132,803.01008,-901,6315,25.4804,4726,404
3.4416,815.1785,-900,6316,25.3808,4726,404
4.29132,828.82188,-899,6317,25.3808,4726,404
3.25211,841.10691,-898,6318,25.4306,4726,404
4.3002,833.50792,-897,6319,25.4306,4726,404
3.31744,810.95932,-896,6320,25.2813,4726,404
3.24624,782.32208,-895,6321,25.58,4726,404
3.916,747.1379,-894,6322,25.58,4726,404
3.71351,725.76041,-893,6323,25.7791,4721,459
3.21673,736.28953,-892,6324,25.58,4721,459
3.02892,734.09333,-891,6325,25.8289,4721,459
1.78206,700.32143,-890,6326,25.4804,4721,459
1.59273,693.41566,-889,6327,25.6297,4721,459
2.09222,729.47517,-888,6328,25.6297,4721,459
1.86572,717.87039,-887,6329,25.4804,4721,459
1.24296,656.29847,-886,6330,25.6297,4721,459
1.38452,629.06837,-885,6331,25.4306,4721,459
0.497951,623.66887,-884,6332,25.6297,4721,459
1.36019,673.85056,-883,6333,25.2813,4619,376
1.55332,781.95636,-882,6334,25.2813,4619,376
0.878906,833.17417,-881,6335,25.4804,4619,376
0.905627,761.02589,-880,6336,25.4804,4619,376
0.497951,672.66782,-879,6337,25.4804,4619,376
1.00068,642.4188,-878,6338,25.6795,4619,376
1.9798,620.27447,-877,6339,25.6297,4619,376
1.97498,578.39508,-876,6340,25.4306,4619,376
1.60168,554.55813,-875,6341,25.4306,4619,376
1.38107,577.51424,-874,6342,25.6297,4619,376
1.90116,580.16343,-873,6343,25.58,4586,486
2.08994,533.02577,-872,6344,25.6297,4586,486
1.63993,504.87121,-871,6345,25.4804,4586,486
2.6131,523.09899,-870,6346,25.2813,4586,486
2.48208,541.82799,-869,6347,25.3808,4586,486
2.7396,532.29104,-868,6348,25.58,4586,486
2.64575,530.25235,-867,6349,25.3808,4586,486
2.46086,545.16178,-866,6350,25.58,4586,486
3.22857,553.69389,-865,6351,25.58,4586,486
3.02892,541.39781,-864,6352,25.6297,4586,486
3.24918,514.04358,-863,6353,25.4306,4581,386
2.84044,483.41197,-862,6354,25.6297,4581,386
2.91991,470.19501,-861,6355,25.58,4581,386
2.98451,490.80974,-860,6356,25.6297,4581,386
2.79815,508.17871,-859,6357,25.3808,4581,386
2.50693,500.11009,-858,6358,25.4306,4581,386
3.46095,497.70589,-857,6359,25.6297,4581,386
3.32749,520.95278,-856,6360,25.4804,4581,386
2.88045,548.56775,-855,6361,25.6297,4581,386
3.42354,564.17494,-854,6362,25.6795,4581,386
4.03711,578.71068,-853,6363,25.4804,4581,386
3.68903,600.04418,-852,6364,25.7791,4581,386
2.90681,630.09794,-851,6365,25.4306,4581,386
3.16292,668.61588,-850,6366,25.6297,4581,386
2.88871,716.15999,-849,6367,25.3808,4581,386
3.32892,741.05485,-848,6368,25.4804,4581,386
3.5708,733.38858,-847,6369,25.6297,4581,386
2.76903,735.58815,-846,6370,25.6795,4581,386
3.25358,749.47802,-845,6371,25.4804,4581,386
2.62221,758.96316,-844,6372,25.4804,4581,386
2.62221,780.60438,-843,6373,25.4804,4582,412
1.84257,817.77127,-842,6374,25.4306,4582,412
2.32946,842.32771,-841,6375,25.58,4582,412
1.17998,842.82012,-840,6376,25.6297,4582,412
2.38609,822.65328,-839,6377,25.6297,4582,412
1.51603,791.10375,-838,6378,25.6297,4582,412
1.31745,764.64317,-837,6379,25.58,4582,412
1.53168,753.37882,-836,6380,25.58,4582,412
3.10356,757.54586,-835,6381,25.3808,4582,412
2.09904,768.93594,-834,6382,25.58,4582,412
1.69427,781.04018,-833,6383,25.6297,4586,406
2.16832,786.11997,-832,6384,25.4804,4586,406
1.6165,782.45715,-831,6385,25.58,4586,406
2.49549,776.04645,-830,6386,25.4804,4586,406
1.78473,763.63426,-829,6387,25.58,4586,406
1.67446,739.93666,-828,6388,25.58,4586,406
2.82191,712.29777,-827,6389,25.58,4586,406
1.96529,693.29271,-826,6390,25.4306,4586,406
2.44336,680.09386,-825,6391,25.3808,4586,406
2.3539,665.33589,-824,6392,25.58,4586,406
2.65654,649.84735,-823,6393,25.58,4593,392
2.19238,641.30298,-822,6394,25.3808,4593,392
2.54656,634.62855,-821,6395,25.3808,4593,392
3.1097,619.59708,-820,6396,25.7791,4593,392
2.86218,597.50202,-819,6397,25.58,4593,392
2.51832,579.57419,-818,6398,25.4804,4593,392
2.68155,567.03932,-817,6399,25.4804,4593,392
3.40259,548.52971,-816,6400,25.3808,4593,392
3.38995,520.95891,-815,6401,25.6297,4593,392
4.35201,489.36837,-814,6402,25.58,4593,392
3.35602,456.84669,-813,6403,25.58,4600,382
3.28131,424.56227,-812,6404,25.6297,4600,382
2.56336,390.7296,-811,6405,25.6297,4600,382
3.916,359.29302,-810,6406,25.58,4600,382
3.07268,335.98554,-809,6407,25.58,4600,382
4.14895,321.60783,-808,6408,25.6795,4600,382
3.88912,305.39699,-807,6409,25.3808,4600,382
3.42354,280.55375,-806,6410,25.4306,4600,382
3.81985,254.62609,-805,6411,25.4804,4600,382
3.83852,236.34641,-804,6412,25.58,4600,382
3.55071,222.29118,-803,6413,25.6297,4606,361
4.11896,207.38658,-802,6414,25.6297,4606,361
4.594,200.19475,-801,6415,25.6297,4606,361
3.58812,208.27825,-800,6416,25.4804,4606,361
4.49006,229.89765,-799,6417,25.4804,4606,361
3.52105,258.75967,-798,6418,25.4804,4606,361
4.81694,302.11238,-797,6419,25.3808,4606,361
3.77337,345.37542,-796,6420,25.58,4606,361
4.12244,381.58244,-795,6421,25.58,4606,361
3.77464,414.17595,-794,6422,25.58,4606,361
4.18671,449.27754,-793,6423,25.7791,4611,407
3.76958,483.5223,-792,6424,25.6795,4611,407
3.71736,510.09497,-791,6425,25.3808,4611,407
3.25211,533.65177,-790,6426,25.8289,4611,407
2.54094,554.66017,-789,6427,25.4804,4611,407
3.22266,571.18969,-788,6428,25.7791,4611,407
2.41391,584.2987,-787,6429,25.3808,4611,407
2.8705,591.63723,-786,6430,25.6795,4611,407
3.18844,590.07981,-785,6431,25.4804,4611,407
2.36199,590.71731,-784,6432,25.58,4611,407
3.49658,596.57992,-783,6433,25.6297,4611,343
1.68298,602.12297,-782,6434,25.58,4611,343
2.32946,613.70483,-781,6435,25.4804,4611,343
2.45504,635.7566,-780,6436,25.6297,4611,343
1.87592,655.87307,-779,6437,25.4306,4611,343
2.76386,673.06355,-778,6438,25.58,4611,343
1.60168,692.31971,-777,6439,25.4804,4611,343
2.77763,716.85401,-776,6440,25.58,4611,343
2.16392,738.20396,-775,6441,25.58,4611,343
2.05078,750.1094,-774,6442,25.6297,4611,343
2.08537,759.14267,-773,6443,25.58,4613,398
0.793363,769.99241,-772,6444,25.4804,4613,398
2.43358,772.09752,-771,6445,25.4306,4613,398
1.81913,763.92617,-770,6446,25.4804,4613,398
1.73047,751.74337,-769,6447,25.6297,4613,398
1.82698,731.78566,-768,6448,25.7791,4613,398
1.46158,711.50535,-767,6449,25.6297,4613,398
0.981433,701.13883,-766,6450,25.58,4613,398
1.66303,699.62177,-765,6451,25.58,4613,398
2.10358,700.15728,-764,6452,25.4306,4613,398
1.98701,701.65381,-763,6453,25.6297,4605,387
2.77763,701.35001,-762,6454,25.6297,4605,387
2.12388,700.15798,-761,6455,25.58,4605,387
2.17052,699.23795,-760,6456,25.58,4605,387
3.07113,696.04644,-759,6457,25.4804,4605,387
2.38009,690.45915,-758,6458,25.3808,4605,387
1.98461,680.17737,-757,6459,25.4306,4605,387
2.91991,671.23542,-756,6460,25.4306,4605,387
1.59273,670.03096,-755,6461,25.4804,4605,387
2.8354,672.75325,-754,6462,25.6297,4605,387
2.93781,668.51452,-753,6463,25.4306,4583,359
2.15287,656.90477,-752,6464,25.4804,4583,359
2.45698,638.40395,-751,6465,25.58,4583,359
3.12805,608.66188,-750,6466,25.58,4583,359
1.94824,571.68782,-749,6467,25.58,4583,359
3.23595,532.22658,-748,6468,25.4306,4583,359
3.18096,495.02024,-747,6469,25.2813,4583,359
1.15135,466.0261,-746,6470,25.58,4583,359
2.67264,441.61093,-745,6471,25.3808,4583,359
2.58559,416.57048,-744,6472,25.58,4583,359
2.04845,396.02093,-743,6473,25.58,4598,449
1.59273,390.66595,-742,6474,25.58,4598,449
1.96529,388.77863,-741,6475,25.58,4598,449
1.8606,379.46972,-740,6476,25.58,4598,449
1.12623,377.75638,-739,6477,25.3808,4598,449
1.52231,390.74345,-738,6478,25.58,4598,449
1.07865,400.59859,-737,6479,25.6297,4598,449
1.15548,399.2623,-736,6480,25.6297,4598,449
1.4219,397.09242,-735,6481,25.4306,4598,449
0.916097,391.51898,-734,6482,25.58,4598,449
1.3637,371.49103,-733,6483,25.58,4584,366
0.750112,343.40533,-732,6484,25.6297,4584,366
0.647778,328.95379,-731,6485,25.3808,4584,366
0.805294,321.78341,-730,6486,25.4804,4584,366
0.905627,317.72935,-729,6487,25.58,4584,366
0.981433,316.21982,-728,6488,25.2813,4584,366
1.84774,317.74555,-727,6489,25.3808,4584,366
0.625305,318.04452,-726,6490,25.58,4584,366
0.971667,314.92231,-725,6491,25.4306,4584,366
1.98461,310.18513,-724,6492,25.6297,4584,366
2.03444,303.80927,-723,6493,25.6297,4599,437
2.01324,298.5872,-722,6494,25.6297,4599,437
2.0785,292.28734,-721,6495,25.6297,4599,437
1.72495,280.45789,-720,6496,25.6297,4599,437
1.69146,262.61075,-719,6497,25.4804,4599,437
1.92608,241.13658,-718,6498,25.4804,4599,437
1.90617,224.25323,-717,6499,25.6297,4599,437
2.85884,215.62369,-716,6500,25.4804,4599,437
1.96529,207.31309,-715,6501,25.4804,4599,437
1.86827,194.8867,-714,6502,25.58,4599,437
1.64863,182.79743,-713,6503,25.4306,4613,386
2.05078,175.20956,-712,6504,25.7791,4613,386
2.13284,171.57238,-711,6505,25.58,4613,386
1.66589,174.31995,-710,6506,25.6297,4613,386
1.77132,188.68379,-709,6507,25.58,4613,386
2.15066,211.57212,-708,6508,25.58,4613,386
2.23332,228.93574,-707,6509,25.4306,4613,386
3.51834,235.6505,-706,6510,25.4804,4613,386
2.52021,238.10486,-705,6511,25.4306,4613,386
2.30477,237.54848,-704,6512,25.4306,4613,386
2.78106,230.75051,-703,6513,25.58,4634,415
2.5782,221.24664,-702,6514,25.4306,4634,415
1.70549,216.88109,-701,6515,25.6297,4634,415
1.89362,218.34793,-700,6516,25.4306,4634,415
2.27352,226.25574,-699,6517,25.2813,4634,415
1.05631,242.18808,-698,6518,25.3808,4634,415
1.45176,262.92908,-697,6519,25.6297,4634,415
1.78473,281.36005,-696,6520,25.6297,4634,415
1.73047,292.29098,-695,6521,25.4804,4634,415
1.5807,297.38428,-694,6522,25.4306,4634,415
1.19205,300.85563,-693,6523,25.4804,4630,389
1.69708,305.24377,-692,6524,25.4306,4630,389
1.20399,311.21299,-691,6525,25.4804,4630,389
1.80598,320.34941,-690,6526,25.2813,4630,389
1.78206,329.90052,-689,6527,25.7791,4630,389
1.81651,336.01558,-688,6528,25.58,4630,389
1.13045,338.75856,-687,6529,25.4804,4630,389
2.21187,344.61571,-686,6530,25.3808,4630,389
1.31383,356.66067,-685,6531,25.4804,4630,389
0.569429,372.2427,-684,6532,25.58,4630,389
1.60168,381.03246,-683,6533,25.4804,4616,376
1.33543,384.38658,-682,6534,25.4306,4616,376
1.71664,391.69261,-681,6535,25.4804,4616,376
1.22752,404.35558,-680,6536,25.3808,4616,376
1.53168,417.20527,-679,6537,25.6795,4616,376
1.88858,426.68303,-678,6538,25.6297,4616,376
1.53168,425.73619,-677,6539,25.6297,4616,376
1.9798,411.06933,-676,6540,25.6297,4616,376
1.02423,427.96866,-675,6541,25.6297,4616,376
2.30684,541.63076,-674,6542,25.58,4616,376
3.39698,704.92295,-673,6543,25.58,4599,430
2.8986,809.97594,-672,6544,25.6297,4599,430
2.0693,819.97969,-671,6545,25.4804,4599,430
2.60579,758.82389,-670,6546,25.58,4599,430
4.21282,668.19495,-669,6547,25.58,4599,430
2.63129,571.28387,-668,6548,25.58,4599,430
3.33893,490.76397,-667,6549,25.58,4599,430
3.72376,442.55096,-666,6550,25.4804,4599,430
3.31744,423.52569,-665,6551,25.58,4599,430
2.92806,424.53793,-664,6552,25.4306,4599,430
2.14399,423.6094,-663,6553,25.6297,4596,359
2.00136,418.43105,-662,6554,25.58,4596,359
1.79539,407.51351,-661,6555,25.6297,4596,359
1.4681,387.40219,-660,6556,25.6297,4596,359
1.80334,382.709,-659,6557,25.4804,4596,359
1.32827,381.51222,-658,6558,25.4804,4596,359
0.750112,368.15668,-657,6559,25.58,4596,359
1.36719,355.73499,-656,6560,25.6297,4596,359
1.24679,356.52465,-655,6561,25.4804,4596,359
1.49385,361.24782,-654,6562,25.6795,4596,359
1.80598,351.66298,-653,6563,25.4306,4593,414
1.79804,352.32586,-652,6564,25.6297,4593,414
2.31921,372.09026,-651,6565,25.2813,4593,414
2.41391,377.92986,-650,6566,25.4804,4593,414
1.84516,366.27652,-649,6567,25.58,4593,414
2.00612,356.58161,-648,6568,25.58,4593,414
2.63672,353.44432,-647,6569,25.6297,4593,414
1.98461,349.74619,-646,6570,25.6297,4593,414
2.59295,339.16263,-645,6571,25.58,4593,414
2.03678,330.10948,-644,6572,25.4306,4593,414
2.40797,324.9193,-643,6573,25.58,4598,362
3.07578,324.66834,-642,6574,25.4804,4598,362
2.38009,320.56663,-641,6575,25.58,4598,362
1.63702,309.3183,-640,6576,25.4804,4598,362
1.43525,295.34947,-639,6577,25.6297,4598,362
2.71688,281.40872,-638,6578,25.58,4598,362
2.15287,275.09322,-637,6579,25.58,4598,362
2.3539,270.56812,-636,6580,25.58,4598,362
2.30684,268.12843,-635,6581,25.6297,4598,362
1.32827,264.89294,-634,6582,25.6297,4598,362
1.98701,264.79901,-633,6583,25.4306,4593,406
2.88541,269.86182,-632,6584,25.4804,4593,406
1.79539,276.50893,-631,6585,25.3808,4593,406
2.0156,280.96638,-630,6586,25.58,4593,406
1.74966,284.67064,-629,6587,25.6297,4593,406
1.94824,292.62874,-628,6588,25.3808,4593,406
2.71688,320.00052,-627,6589,25.58,4593,406
2.48016,372.08499,-626,6590,25.4804,4593,406
2.30477,430.30277,-625,6591,25.58,4593,406
2.97812,453.9391,-624,6592,25.58,4593,406
2.47824,445.44308,-623,6593,25.6297,4594,345
2.67264,426.54262,-622,6594,25.7791,4594,345
2.47246,388.78883,-621,6595,25.2813,4594,345
1.77132,317.4468,-620,6596,25.58,4594,345
2.63672,229.85957,-619,6597,25.6297,4594,345
2.18802,163.97687,-618,6598,25.3808,4594,345
2.59479,140.34742,-617,6599,25.4804,4594,345
2.54844,157.21353,-616,6600,25.4804,4594,345
1.94824,172.55087,-615,6601,25.4306,4594,345
2.0762,189.00628,-614,6602,25.6297,4594,345
2.59663,231.61886,-613,6603,25.58,4593,425
2.32946,274.07004,-612,6604,25.6297,4593,425
2.40401,295.73001,-611,6605,25.58,4593,425
1.87592,308.18577,-610,6606,25.4804,4593,425
2.15951,313.51936,-609,6607,25.6297,4593,425
2.15951,301.63139,-608,6608,25.4804,4593,425
1.9942,274.8239,-607,6609,25.4306,4593,425
1.54717,265.99961,-606,6610,25.58,4593,425
2.16832,281.4695,-605,6611,25.58,4593,425
2.01324,294.59295,-604,6612,25.6297,4593,425
1.37415,295.9148,-603,6613,25.4804,4594,425
2.51832,308.5003,-602,6614,25.4306,4594,425
1.92608,340.94177,-601,6615,25.4804,4594,425
0.425674,363.03959,-600,6616,25.6297,4594,425
1.04268,338.13298,-599,6617,25.6297,4594,425
1.4118,278.79761,-598,6618,25.6297,4594,425
2.50503,238.35484,-597,6619,25.6297,4594,425
3.14629,327.94468,-596,6620,25.6297,4594,425
3.20485,471.77891,-595,6621,25.6297,4594,425
2.16392,444.95074,-594,6622,25.58,4594,425
2.7028,253.06097,-593,6623,25.3808,4594,346
2.72564,217.14514,-592,6624,25.58,4594,346
4.05126,249.97562,-591,6625,25.58,4594,346
2.27981,205.05934,-590,6626,25.58,4594,346
3.39417,205.06523,-589,6627,25.6795,4594,346
2.32126,261.36428,-588,6628,25.6297,4594,346
2.73786,332.80543,-587,6629,25.4804,4594,346
2.54282,315.9428,-586,6630,25.58,4594,346
2.57264,258.78146,-585,6631,25.4306,4594,346
2.15951,238.54195,-584,6632,25.58,4594,346
2.93944,234.87768,-583,6633,25.58,4580,382
2.94268,166.18312,-582,6634,25.4804,4580,382
2.47246,110.50546,-581,6635,25.4804,4580,382
1.31745,233.4347,-580,6636,25.4306,4580,382
1.60168,300.89295,-579,6637,25.58,4580,382
2.34782,283.93851,-578,6638,25.4804,4580,382
1.13886,227.61878,-577,6639,25.4804,4580,382
0.447517,161.92713,-576,6640,25.58,4580,382
1.13886,113.01272,-575,6641,25.58,4580,382
1.68863,154.42666,-574,6642,25.4306,4580,382
1.31745,230.41566,-573,6643,25.58,4592,401
1.04268,271.25411,-572,6644,25.6795,4592,401
1.26953,262.76533,-571,6645,25.4804,4592,401
0.534885,203.58642,-570,6646,25.6297,4592,401
0.921287,134.62579,-569,6647,25.58,4592,401
1.75238,144.68669,-568,6648,25.3808,4592,401
2.14622,195.33295,-567,6649,25.58,4592,401
1.36019,215.56719,-566,6650,25.6297,4592,401
2.32946,214.10399,-565,6651,25.6795,4592,401
1.92856,183.5692,-564,6652,25.6297,4592,401
2.25034,146.83273,-563,6653,25.8289,4599,378
1.96529,145.21473,-562,6654,25.4306,4599,378
2.18366,148.81192,-561,6655,25.9284,4599,378
2.92806,157.73152,-560,6656,25.6297,4599,378
1.60168,111.49003,-559,6657,25.4306,4599,378
1.46484,101.90678,-558,6658,25.58,4599,378
2.44921,148.32693,-557,6659,25.6297,4599,378
1.36019,243.00241,-556,6660,25.58,4599,378
1.53168,428.8696,-555,6661,25.6297,4599,378
1.48103,533.00084,-554,6662,25.4804,4599,378
1.45505,560.01497,-553,6663,25.58,4597,386
1.73047,573.86979,-552,6664,25.6297,4597,386
1.6165,567.80351,-551,6665,25.4804,4597,386
1.49066,510.9736,-550,6666,25.6297,4597,386
2.11263,411.57557,-549,6667,25.58,4597,386
1.28817,261.88731,-548,6668,25.4804,4597,386
2.13508,101.40605,-547,6669,25.58,4597,386
1.77938,224.89172,-546,6670,25.58,4597,386
2.10585,292.75283,-545,6671,25.4306,4597,386
2.24609,262.78365,-544,6672,25.4804,4597,386
1.34255,215.55955,-543,6673,25.6795,4600,399
1.00543,247.69598,-542,6674,25.4306,4600,399
1.61945,327.91115,-541,6675,25.6297,4600,399
2.32742,373.32758,-540,6676,25.6297,4600,399
1.9335,394.30362,-539,6677,25.7791,4600,399
3.80985,387.86871,-538,6678,25.58,4600,399
3.55071,355.00662,-537,6679,25.4306,4600,399
2.60762,356.65405,-536,6680,25.58,4600,399
5.09593,352.18783,-535,6681,25.58,4600,399
5.12672,326.20607,-534,6682,25.58,4600,399
4.26792,293.54903,-533,6683,25.4804,4590,385
4.18557,251.50733,-532,6684,25.58,4590,385
4.16158,224.57915,-531,6685,25.4306,4590,385
4.5481,219.37706,-530,6686,25.4306,4590,385
3.88299,227.10833,-529,6687,25.4804,4590,385
3.49658,238.6405,-528,6688,25.4804,4590,385
2.12613,234.13942,-527,6689,25.58,4590,385
2.85384,209.50274,-526,6690,25.4804,4590,385
2.84044,167.54705,-525,6691,25.6297,4590,385
1.57163,113.80862,-524,6692,25.58,4590,385
1.87592,78.950903,-523,6693,25.58,4590,408
1.77401,99.080872,-522,6694,25.6297,4590,408
0.971667,106.78759,-521,6695,25.58,4590,408
0.617632,85.87627,-520,6696,25.6297,4590,408
0.78733,102.06816,-519,6697,25.3808,4590,408
0.488281,146.51575,-518,6698,25.4306,4590,408
1.27702,159.73562,-517,6699,25.4804,4590,408
0.793363,139.7808,-516,6700,25.6297,4590,408
0.478416,112.09624,-515,6701,25.6297,4590,408
0.308816,104.77936,-514,6702,25.8289,4590,408
0.169146,125.28405,-513,6703,25.58,4599,366
1.13045,157.61825,-512,6704,25.4306,4599,366
0.239208,182.84919,-511,6705,25.58,4599,366
0.365396,167.71035,-510,6706,25.58,4599,366
0.655098,105.82658,-509,6707,25.58,4599,366
1.06082,176.78601,-508,6708,25.6297,4599,366
0.793363,339.41801,-507,6709,25.58,4599,366
1.49066,446.27427,-506,6710,25.58,4599,366
1.11773,515.38255,-505,6711,25.6297,4599,366
1.20794,563.84744,-504,6712,25.58,4599,366
1.32827,576.51055,-503,6713,25.6297,4612,425
1.47458,525.8122,-502,6714,25.58,4612,425
1.06082,420.11923,-501,6715,25.2813,4612,425
1.49385,314.26992,-500,6716,25.4804,4612,425
1.54099,247.74175,-499,6717,25.6297,4612,425
1.33185,228.34843,-498,6718,25.6297,4612,425
0.560992,260.15498,-497,6719,25.4804,4612,425
0.76272,316.13548,-496,6720,25.58,4612,425
0.625305,355.28214,-495,6721,25.58,4612,425
0.793363,373.76951,-494,6722,25.6297,4612,425
0.750112,380.76427,-493,6723,25.58,4623,362
0.276214,379.43263,-492,6724,25.58,4623,362
0.569429,392.9702,-491,6725,25.4306,4623,362
0.828641,421.39559,-490,6726,25.6297,4623,362
1.15135,468.88491,-489,6727,25.4306,4623,362
0.793363,547.0377,-488,6728,25.4306,4623,362
1.14304,620.44488,-487,6729,25.6297,4623,362
0.601994,650.06035,-486,6730,25.58,4623,362
1.44188,630.40477,-485,6731,25.4306,4623,362
1.41517,572.5065,-484,6732,25.4306,4623,362
1.25821,539.21534,-483,6733,25.58,4618,399
1.19205,554.45043,-482,6734,25.4804,4618,399
1.63993,570.55472,-481,6735,25.6795,4618,399
0.946812,553.35443,-480,6736,25.58,4618,399
1.958,509.86164,-479,6737,25.3808,4618,399
1.36019,472.61711,-478,6738,25.4306,4618,399
2.6003,473.81856,-477,6739,25.4804,4618,399
2.48208,490.30557,-476,6740,25.4306,4618,399
2.72389,488.66815,-475,6741,25.58,4618,399
2.38009,475.73783,-474,6742,25.58,4618,399
2.38009,469.25043,-473,6743,25.4306,4602,377
2.03444,471.24556,-472,6744,25.58,4602,377
2.32332,464.60193,-471,6745,25.58,4602,377
3.07733,454.88661,-470,6746,25.6297,4602,377
2.4974,461.29919,-469,6747,25.7791,4602,377
3.10817,472.89828,-468,6748,25.6297,4602,377
2.56708,469.8304,-467,6749,25.58,4602,377
2.60762,452.21173,-466,6750,25.58,4602,377
3.30303,435.55213,-465,6751,25.6297,4602,377
3.69161,450.58762,-464,6752,25.58,4602,377
4.0312,513.17205,-463,6753,25.6297,4607,386
3.73016,588.56984,-462,6754,25.4804,4607,386
3.75945,626.29254,-461,6755,25.6297,4607,386
4.27239,662.99543,-460,6756,25.4306,4607,386
3.77843,746.03927,-459,6757,25.6297,4607,386
5.09406,823.71989,-458,6758,25.4804,4607,386
5.02527,882.00294,-457,6759,25.6297,4607,386
5.04988,859.6918,-456,6760,25.4804,4607,386
5.91365,621.61097,-455,6761,25.58,4607,386
6.00487,223.19107,-454,6762,25.58,4607,386
5.24624,333.71722,-453,6763,25.4804,4600,360
5.61162,458.21861,-452,6764,25.58,4600,360
4.33774,510.88074,-451,6765,25.58,4600,360
5.04515,604.3416,-450,6766,25.58,4600,360
4.95359,712.47703,-449,6767,25.6795,4600,360
3.5102,763.46702,-448,6768,25.58,4600,360
2.68688,717.31896,-447,6769,25.6297,4600,360
2.41588,614.35109,-446,6770,25.58,4600,360
3.40679,518.81396,-445,6771,25.6297,4600,360
2.72214,444.31389,-444,6772,25.4804,4600,360
2.55777,373.30375,-443,6773,25.58,4603,396
3.58147,312.5771,-442,6774,25.58,4603,396
3.52646,290.23549,-441,6775,25.6795,4603,396
2.54282,311.80452,-440,6776,25.4804,4603,396
3.56679,346.27354,-439,6777,25.6297,4603,396
3.68903,373.10838,-438,6778,25.3808,4603,396
3.38995,393.59978,-437,6779,25.58,4603,396
3.48976,416.54501,-436,6780,25.6297,4603,396
3.37586,436.65315,-435,6781,25.58,4603,396
3.25358,448.33328,-434,6782,25.58,4603,396
3.65135,465.12744,-433,6783,25.58,4597,348
3.41238,491.32749,-432,6784,25.6795,4597,348
3.24477,526.28163,-431,6785,25.58,4597,348
3.12195,563.35358,-430,6786,25.3808,4597,348
3.33893,605.97124,-429,6787,25.4804,4597,348
3.31744,651.6419,-428,6788,25.6297,4597,348
3.61328,689.3962,-427,6789,25.4306,4597,348
3.55608,728.26095,-426,6790,25.58,4597,348
4.36841,763.75448,-425,6791,25.3808,4597,348
2.98451,786.70144,-424,6792,25.58,4597,348
3.24918,799.04737,-423,6793,25.58,4594,382
4.20035,808.90956,-422,6794,25.6297,4594,382
2.44921,818.21775,-421,6795,25.6795,4594,382
3.5601,828.37696,-420,6796,25.58,4594,382
3.06647,840.99034,-419,6797,25.6297,4594,382
3.15083,852.14748,-418,6798,25.4804,4594,382
2.59846,864.71141,-417,6799,25.58,4594,382
3.45129,886.98985,-416,6800,25.2813,4594,382
2.98771,915.48656,-415,6801,25.2813,4594,382
3.33464,930.56445,-414,6802,25.6297,4594,382
1.77132,950.38978,-413,6803,25.4306,4591,399
2.60213,982.63297,-412,6804,25.4804,4591,399
1.94088,995.97264,-411,6805,25.58,4591,399
1.79539,1003.7191,-410,6806,25.4306,4591,399
1.47781,1034.9114,-409,6807,25.6297,4591,399
1.74966,1074.518,-408,6808,25.6297,4591,399
1.46158,1113.4698,-407,6809,25.58,4591,399
2.41983,1159.4715,-406,6810,25.4804,4591,399
1.11773,1209.7506,-405,6811,25.6297,4591,399
2.18584,1247.2229,-404,6812,25.4804,4591,399
2.87382,1251.696,-403,6813,25.7791,4589,363
3.58679,1210.1087,-402,6814,25.6297,4589,363
4.55962,1137.6724,-401,6815,25.4804,4589,363
5.28157,1063.7647,-400,6816,25.58,4589,363
5.18315,998.29517,-399,6817,25.4804,4589,363
5.08844,935.57983,-398,6818,25.6795,4589,363
4.77118,881.63745,-397,6819,25.58,4589,363
5.57411,853.594,-396,6820,25.4804,4589,363
5.12672,858.86318,-395,6821,25.58,4589,363
4.81991,880.51865,-394,6822,25.6297,4589,363
4.61987,894.59513,-393,6823,25.6795,4591,450
3.75183,886.96418,-392,6824,25.4804,4591,450
3.80859,857.07553,-391,6825,25.4804,4591,450
2.62221,814.23106,-390,6826,25.6297,4591,450
2.60213,768.31098,-389,6827,25.4306,4591,450
2.10585,731.09031,-388,6828,25.6297,4591,450
2.04146,708.42742,-387,6829,25.6297,4591,450
2.19672,690.92028,-386,6830,25.6795,4591,450
1.23912,668.62593,-385,6831,25.58,4591,450
1.25061,643.29398,-384,6832,25.6297,4591,450
1.92608,622.21906,-383,6833,25.4306,4615,401
1.57769,611.92952,-382,6834,25.3808,4615,401
1.33543,610.82654,-381,6835,25.6297,4615,401
1.53789,612.14625,-380,6836,25.58,4615,401
1.23912,608.80008,-379,6837,25.2813,4615,401
1.38107,598.31857,-378,6838,25.3808,4615,401
1.14304,584.20115,-377,6839,25.6297,4615,401
1.41517,571.21814,-376,6840,25.6297,4615,401
1.60466,560.77568,-375,6841,25.58,4615,401
1.71386,552.94382,-374,6842,25.58,4615,401
0.995902,616.86227,-373,6843,25.58,4650,455
1.4681,701.74685,-372,6844,25.8289,4650,455
0.717624,805.14049,-371,6845,25.4804,4650,455
0.905627,885.01802,-370,6846,25.6297,4650,455
2.02033,795.83951,-369,6847,25.4804,4650,455
2.21402,617.96303,-368,6848,25.4306,4650,455
2.71512,525.53837,-367,6849,25.6297,4650,455
3.12653,481.60235,-366,6850,25.7791,4650,455
2.90353,438.77234,-365,6851,25.58,4650,455
2.6655,450.89862,-364,6852,25.58,4650,455
1.46158,544.98072,-363,6853,25.6297,4643,413
2.05078,642.19223,-362,6854,25.6297,4643,413
2.09222,657.10154,-361,6855,25.4804,4643,413
2.22905,605.76781,-360,6856,25.4804,4643,413
1.57769,548.1831,-359,6857,25.6297,4643,413
0.768946,506.50505,-358,6858,25.6297,4643,413
1.54099,466.49893,-357,6859,25.6297,4643,413
1.22363,418.52947,-356,6860,25.6795,4643,413
1.19205,386.82364,-355,6861,25.6297,4643,413
1.40163,395.76016,-354,6862,25.58,4643,413
1.28817,431.14123,-353,6863,25.6795,4610,499
1.61945,456.45049,-352,6864,25.6795,4610,499
1.01956,455.99133,-351,6865,25.58,4610,499
1.32467,443.01799,-350,6866,25.6297,4610,499
0.730792,435.57065,-349,6867,25.6297,4610,499
1.40163,441.57341,-348,6868,25.6297,4610,499
2.30477,457.95644,-347,6869,25.6297,4610,499
2.44336,475.8727,-346,6870,25.58,4610,499
1.66589,491.64556,-345,6871,25.58,4610,499
1.97498,502.51959,-344,6872,25.6297,4610,499
2.44336,490.33991,-343,6873,25.4804,4610,499
1.93596,467.85684,-342,6874,25.4804,4610,499
2.34782,481.85818,-341,6875,25.58,4610,499
2.71688,502.4501,-340,6876,25.3808,4610,499
2.81853,482.78599,-339,6877,25.3808,4610,499
2.7028,449.61273,-338,6878,25.58,4610,499
2.04146,435.68367,-337,6879,25.6297,4610,499
2.75176,436.61206,-336,6880,25.4804,4610,499
3.25797,438.28543,-335,6881,25.6297,4610,499
3.24183,434.78241,-334,6882,25.6795,4610,499
2.95077,428.14035,-333,6883,25.6297,4587,432
2.7862,421.19731,-332,6884,25.4804,4587,432
3.55474,414.82032,-331,6885,25.58,4587,432
2.04146,409.68086,-330,6886,25.6297,4587,432
2.76559,400.97322,-329,6887,25.58,4587,432
1.55638,386.39934,-328,6888,25.58,4587,432
1.92112,376.17646,-327,6889,25.58,4587,432
3.34891,379.92635,-326,6890,25.6795,4587,432
2.12388,388.03741,-325,6891,25.58,4587,432
2.0785,389.37347,-324,6892,25.3808,4587,432
2.65474,392.56457,-323,6893,25.58,4584,445
1.96529,405.70039,-322,6894,25.58,4584,445
0.845728,421.16568,-321,6895,25.58,4584,445
2.43554,429.09693,-320,6896,25.6297,4584,445
2.17052,425.63966,-319,6897,25.58,4584,445
2.19672,418.40222,-318,6898,25.4804,4584,445
2.14399,415.93019,-317,6899,25.4804,4584,445
2.28816,419.87306,-316,6900,25.6297,4584,445
2.67443,426.61367,-315,6901,25.58,4584,445
1.74146,433.67454,-314,6902,25.4804,4584,445
1.9798,439.20308,-313,6903,25.3808,4582,434
2.92969,442.41385,-312,6904,25.58,4582,434
2.74829,444.97792,-311,6905,25.6297,4582,434
3.63302,449.01088,-310,6906,25.58,4582,434
2.40203,455.3428,-309,6907,25.6795,4582,434
2.41588,461.28139,-308,6908,25.4804,4582,434
2.66907,466.99553,-307,6909,25.58,4582,434
2.87547,471.39757,-306,6910,25.6297,4582,434
2.65115,473.37572,-305,6911,25.58,4582,434
2.79986,472.11092,-304,6912,25.58,4582,434
2.56336,470.98606,-303,6913,25.4306,4585,432
1.31745,474.47828,-302,6914,25.6297,4585,432
1.95556,480.8476,-301,6915,25.4804,4585,432
2.40401,487.2273,-300,6916,25.58,4585,432
3.94754,493.65805,-299,6917,25.2813,4585,432
1.83219,499.11488,-298,6918,25.4306,4585,432
1.76323,504.81743,-297,6919,25.6297,4585,432
1.49385,515.05025,-296,6920,25.4306,4585,432
2.21617,531.23576,-295,6921,25.6297,4585,432
1.57769,549.86783,-294,6922,25.4306,4585,432
1.80598,568.39696,-293,6923,25.6297,4586,426
1.52231,586.75262,-292,6924,25.58,4586,426
1.80334,604.63397,-291,6925,25.6297,4586,426
2.18584,618.04821,-290,6926,25.6297,4586,426
2.15287,627.21445,-289,6927,25.58,4586,426
1.3029,640.45968,-288,6928,25.4804,4586,426
1.91864,658.54021,-287,6929,25.4306,4586,426
1.88353,671.06972,-286,6930,25.4306,4586,426
1.79273,670.85659,-285,6931,25.6297,4586,426
1.55332,662.46362,-284,6932,25.6297,4586,426
1.84257,659.97918,-283,6933,25.4804,4591,416
1.49066,679.00823,-282,6934,25.58,4591,416
1.4118,715.06736,-281,6935,25.6297,4591,416
1.40163,747.29586,-280,6936,25.6795,4591,416
1.39139,767.87038,-279,6937,25.6297,4591,416
1.0381,783.57508,-278,6938,25.4804,4591,416
1.71664,797.3944,-277,6939,25.7791,4591,416
1.82698,810.63807,-276,6940,25.4804,4591,416
1.73047,835.39333,-275,6941,25.7791,4591,416
2.21617,884.78083,-274,6942,25.58,4591,416
1.958,778.48523,-273,6943,25.6795,4588,413
2.99568,584.49949,-272,6944,25.6297,4588,413
3.78851,779.18818,-271,6945,25.6297,4588,413
2.39208,937.86647,-270,6946,25.4306,4588,413
1.37067,727.9122,-269,6947,25.7791,4588,413
1.91615,553.1133,-268,6948,25.4306,4588,413
1.68581,478.4766,-267,6949,25.58,4588,413
1.78206,521.28923,-266,6950,25.3808,4588,413
3.10356,689.5778,-265,6951,25.4804,4588,413
4.63224,892.46747,-264,6952,25.58,4588,413
6.26904,1047.6654,-263,6953,25.4804,4590,394
6.14692,1228.4225,-262,6954,25.6795,4590,394
6.49322,1436.3961,-261,6955,25.58,4590,394
5.55268,1450.5621,-260,6956,25.6297,4590,394
4.94395,1339.6923,-259,6957,25.58,4590,394
3.99078,1259.8403,-258,6958,25.58,4590,394
3.54803,1193.3088,-257,6959,25.4306,4590,394
2.45892,1057.1396,-256,6960,25.6297,4590,394
1.67161,852.84172,-255,6961,25.3808,4590,394
1.34255,685.54981,-254,6962,25.4804,4590,394
1.44518,732.83108,-253,6963,25.6795,4589,390
1.09619,879.13412,-252,6964,25.58,4589,390
2.05078,1003.7118,-251,6965,25.58,4589,390
2.58743,1095.6271,-250,6966,25.58,4589,390
3.1387,1092.3603,-249,6967,25.58,4589,390
4.4805,905.71564,-248,6968,25.6297,4589,390
4.69258,609.57315,-247,6969,25.58,4589,390
3.55474,469.82364,-246,6970,25.4804,4589,390
3.84969,424.01116,-245,6971,25.7791,4589,390
3.99795,358.13978,-244,6972,25.6297,4589,390
3.7391,307.58568,-243,6973,25.58,4600,391
4.92753,281.642,-242,6974,25.58,4600,391
4.35529,304.6087,-241,6975,25.6297,4600,391
5.64467,373.0278,-240,6976,25.58,4600,391
5.12765,416.84375,-239,6977,25.58,4600,391
6.56407,395.67555,-238,6978,25.6795,4600,391
6.15157,342.68076,-237,6979,25.6297,4600,391
5.76751,312.23472,-236,6980,25.58,4600,391
5.43815,310.91608,-235,6981,25.58,4600,391
5.83409,312.13782,-234,6982,25.6297,4600,391
4.82485,300.11989,-233,6983,25.6297,4621,353
4.65688,298.08663,-232,6984,25.6297,4621,353
5.10155,330.35418,-231,6985,25.4804,4621,353
4.7078,380.73793,-230,6986,25.58,4621,353
4.81694,420.56293,-229,6987,25.4804,4621,353
4.92753,437.50712,-228,6988,25.6297,4621,353
2.40203,435.81634,-227,6989,25.6795,4621,353
3.45129,421.89934,-226,6990,25.58,4621,353
4.38258,397.16894,-225,6991,25.58,4621,353
3.80859,362.76878,-224,6992,25.4804,4621,353
3.58679,331.82883,-223,6993,25.58,4673,414
4.32012,319.07314,-222,6994,25.4804,4673,414
4.5784,328.22748,-221,6995,25.58,4673,414
3.98002,355.59621,-220,6996,25.6297,4673,414
4.1004,411.31171,-219,6997,25.8289,4673,414
3.93059,492.42339,-218,6998,25.2813,4673,414
3.14174,551.98626,-217,6999,25.3808,4673,414
4.5481,586.01463,-216,7000,25.58,4673,414
4.29909,624.90867,-215,7001,25.6297,4673,414
3.87438,682.05035,-214,7002,25.58,4673,414
4.29798,756.37781,-213,7003,25.58,4671,341
4.28799,838.35855,-212,7004,25.6297,4671,341
3.79982,917.92897,-211,7005,25.4306,4671,341
2.87382,996.1524,-210,7006,25.58,4671,341
4.14895,1077.9081,-209,7007,25.3808,4671,341
3.26528,1159.2624,-208,7008,25.58,4671,341
3.05712,1230.8611,-207,7009,25.6297,4671,341
4.22638,1291.6831,-206,7010,25.3808,4671,341
3.62251,1343.6972,-205,7011,25.6297,4671,341
2.53154,1382.0252,-204,7012,25.6297,4671,341
3.67089,1410.28,-203,7013,25.8289,4633,421
2.60945,1431.0535,-202,7014,25.4804,4633,421
2.92806,1446.2587,-201,7015,25.6297,4633,421
3.44299,1459.244,-200,7016,25.4306,4633,421
3.94754,1470.433,-199,7017,25.6795,4633,421
4.3168,1475.6193,-198,7018,25.6297,4633,421
4.18557,1473.7307,-197,7019,25.4306,4633,421
4.0241,1469.7731,-196,7020,25.6795,4633,421
5.64889,1462.3893,-195,7021,25.6297,4633,421
5.0659,1447.3823,-194,7022,25.4306,4633,421
5.14344,1425.9584,-193,7023,25.58,4601,369
4.68852,1399.3648,-192,7024,25.6297,4601,369
5.12486,1366.3712,-191,7025,25.58,4601,369
5.53548,1325.8535,-190,7026,25.58,4601,369
4.10389,1279.6187,-189,7027,25.6297,4601,369
5.01957,1230.4103,-188,7028,25.4306,4601,369
4.16387,1177.5837,-187,7029,25.58,4601,369
4.55752,1121.551,-186,7030,25.6297,4601,369
4.20489,1069.4488,-185,7031,25.58,4601,369
3.80358,1030.147,-184,7032,25.7791,4601,369
3.75691,1004.9263,-183,7033,25.58,4612,461
3.16292,983.88057,-182,7034,25.4804,4612,461
2.80836,961.04748,-181,7035,25.6297,4612,461
1.86572,938.57301,-180,7036,25.58,4612,461
1.25061,918.7248,-179,7037,25.6297,4612,461
0.981433,897.39643,-178,7038,25.4306,4612,461
1.09619,870.58656,-177,7039,25.7791,4612,461
0.577742,841.84107,-176,7040,25.6795,4612,461
1.74966,816.03,-175,7041,25.6297,4612,461
0.750112,795.80094,-174,7042,25.58,4612,461
0.793363,780.9597,-173,7043,25.6795,4612,398
1.0381,771.25421,-172,7044,25.6795,4612,398
1.01487,764.84526,-171,7045,25.4306,4612,398
0.793363,760.25419,-170,7046,25.58,4612,398
1.86572,755.81382,-169,7047,25.4804,4612,398
0.655098,753.54269,-168,7048,25.4804,4612,398
0.981433,751.5889,-167,7049,25.2813,4612,398
1.09619,747.38963,-166,7050,25.6297,4612,398
1.3029,792.11754,-165,7051,25.4804,4612,398
1.57466,826.54462,-164,7052,25.6297,4612,398
1.53168,909.74361,-163,7053,25.6795,4598,452
0.98628,1064.3711,-162,7054,25.58,4598,452
1.40163,1119.5201,-161,7055,25.7791,4598,452
1.67446,1107.6383,-160,7056,25.58,4598,452
2.55777,1073.1258,-159,7057,25.3808,4598,452
3.39557,1013.5457,-158,7058,25.58,4598,452
2.93131,913.65487,-157,7059,25.4804,4598,452
3.5828,791.86993,-156,7060,25.4804,4598,452
3.90747,689.17168,-155,7061,25.58,4598,452
2.58743,618.48475,-154,7062,25.6297,4598,452
2.38009,564.34406,-153,7063,25.58,4572,457
3.233,523.68326,-152,7064,25.8289,4572,457
2.8986,488.82918,-151,7065,25.3808,4572,457
1.87592,443.75559,-150,7066,25.4306,4572,457
1.42525,385.75306,-149,7067,25.58,4572,457
2.74482,322.59433,-148,7068,25.4804,4572,457
2.10585,283.67263,-147,7069,25.58,4572,457
2.01797,282.2258,-146,7070,25.3808,4572,457
1.50657,287.43702,-145,7071,25.6795,4572,457
3.25211,283.74884,-144,7072,25.58,4572,457
2.17052,281.92667,-143,7073,25.58,4581,421
2.5819,295.84185,-142,7074,25.58,4581,421
1.86827,325.97249,-141,7075,25.6297,4581,421
1.85547,352.85502,-140,7076,25.58,4581,421
1.63702,362.42497,-139,7077,25.6297,4581,421
1.81651,370.26811,-138,7078,25.6297,4581,421
1.31383,396.32388,-137,7079,25.7791,4581,421
1.86572,441.33505,-136,7080,25.6297,4581,421
1.14304,492.28549,-135,7081,25.6795,4581,421
2.12837,540.45353,-134,7082,25.6297,4581,421
2.10585,587.63898,-133,7083,25.4306,4582,457
2.54094,635.34767,-132,7084,25.4804,4582,457
2.54282,679.65436,-131,7085,25.4306,4582,457
1.39822,715.08682,-130,7086,25.6297,4582,457
1.78473,743.64042,-129,7087,25.4804,4582,457
1.39139,712.94414,-128,7088,25.4306,4582,457
3.23005,618.41535,-127,7089,25.4804,4582,457
3.23595,624.02124,-126,7090,25.58,4582,457
1.88858,686.15294,-125,7091,25.58,4582,457
2.95077,644.11618,-124,7092,25.2813,4582,457
2.66371,568.27218,-123,7093,25.58,4581,396
3.04462,561.84822,-122,7094,25.3808,4581,396
2.84547,599.01961,-121,7095,25.6297,4581,396
4.0158,603.84545,-120,7096,25.6297,4581,396
3.53726,573.69387,-119,7097,25.58,4581,396
3.89892,558.66162,-118,7098,25.6297,4581,396
3.55608,569.40462,-117,7099,25.4804,4581,396
3.06491,586.17451,-116,7100,25.6297,4581,396
2.70985,601.75921,-115,7101,25.6297,4581,396
2.68333,609.95232,-114,7102,25.4804,4581,396
2.34985,604.17892,-113,7103,25.6297,4585,446
2.69397,592.4773,-112,7104,25.4306,4585,446
1.49066,584.19915,-111,7105,25.7791,4585,446
2.09904,579.53773,-110,7106,25.58,4585,446
1.92608,574.27466,-109,7107,25.6795,4585,446
1.94088,570.20175,-108,7108,25.58,4585,446
0.995902,569.7667,-107,7109,25.4804,4585,446
1.70829,571.25132,-106,7110,25.6297,4585,446
1.89614,569.74524,-105,7111,25.6795,4585,446
2.05311,562.22884,-104,7112,25.58,4585,446
0.447517,546.97163,-103,7113,25.4804,4595,418
2.00374,524.32276,-102,7114,25.58,4595,418
1.47458,497.42462,-101,7115,25.58,4595,418
1.87592,469.78287,-100,7116,25.4804,4595,418
1.34255,443.23924,-99,7117,25.6297,4595,418
2.28607,418.40222,-98,7118,25.58,4595,418
1.66303,395.93579,-97,7119,25.58,4595,418
1.76323,377.81213,-96,7120,25.2813,4595,418
1.958,365.21769,-95,7121,25.6297,4595,418
1.99897,355.3289,-94,7122,25.4804,4595,418
2.67443,344.57822,-93,7123,25.4804,4597,418
3.21377,332.73468,-92,7124,25.4804,4597,418
2.54094,321.78422,-91,7125,25.3808,4597,418
3.06647,312.05422,-90,7126,25.6297,4597,418
3.00204,301.4902,-89,7127,25.6297,4597,418
2.82698,288.17926,-88,7128,25.6297,4597,418
3.34464,274.43825,-87,7129,25.6297,4597,418
3.33035,261.80932,-86,7130,25.6795,4597,418
3.02104,249.90372,-85,7131,25.4306,4597,418
3.76832,236.50102,-84,7132,25.4306,4597,418
3.70708,222.76093,-83,7133,25.6795,4597,412
3.1311,209.68631,-82,7134,25.4306,4597,412
2.39407,198.95326,-81,7135,25.6297,4597,412
3.16894,191.48673,-80,7136,25.58,4597,412
1.85804,183.21619,-79,7137,25.58,4597,412
2.03912,164.67475,-78,7138,25.4306,4597,412
2.50122,135.30336,-77,7139,25.58,4597,412
2.7028,109.14301,-76,7140,25.6297,4597,412
1.76863,101.63972,-75,7141,25.58,4597,412
1.51917,119.6025,-74,7142,25.6297,4597,412
1.74966,160.25201,-73,7143,25.6297,4607,410
2.56336,202.11195,-72,7144,25.4804,4607,410
2.77247,248.80131,-71,7145,25.7791,4607,410
2.39208,298.35365,-70,7146,25.6297,4607,410
1.73047,344.82154,-69,7147,25.58,4607,410
1.31745,380.35468,-68,7148,25.6297,4607,410
1.70549,449.09422,-67,7149,25.4804,4607,410
1.88858,547.39483,-66,7150,25.6297,4607,410
1.54717,643.93316,-65,7151,25.58,4607,410
2.35997,675.22791,-64,7152,25.6297,4607,410
1.54717,662.91052,-63,7153,25.58,4614,402
1.38452,662.55416,-62,7154,25.6297,4614,402
1.63993,678.22456,-61,7155,25.6297,4614,402
0.625305,695.5441,-60,7156,25.58,4614,402
0.497951,702.19489,-59,7157,25.6297,4614,402
1.46484,703.5565,-58,7158,25.4804,4614,402
1.88353,715.07012,-57,7159,25.58,4614,402
1.3461,735.46699,-56,7160,25.4804,4614,402
1.25442,759.48482,-55,7161,25.3808,4614,402
1.28447,783.22291,-54,7162,25.4804,4614,402
2.21187,802.49382,-53,7163,25.6297,4610,407
2.11714,819.81903,-52,7164,25.6795,4610,407
0.98628,835.29148,-51,7165,25.58,4610,407
2.02269,847.89927,-50,7166,25.58,4610,407
2.19672,855.38832,-49,7167,25.6297,4610,407
1.97739,854.33987,-48,7168,25.6795,4610,407
3.46783,844.15956,-47,7169,25.58,4610,407
2.37206,825.43105,-46,7170,25.3808,4610,407
2.50122,799.51621,-45,7171,25.4804,4610,407
3.77464,770.16456,-44,7172,25.4306,4610,407
3.21673,739.04107,-43,7173,25.6297,4607,395
2.64575,703.48528,-42,7174,25.4804,4607,395
2.8354,660.75376,-41,7175,25.6297,4607,395
3.40259,611.37845,-40,7176,25.58,4607,395
2.60213,555.36666,-39,7177,25.6795,4607,395
1.54408,492.38999,-38,7178,25.4306,4607,395
2.34985,423.79729,-37,7179,25.58,4607,395
2.29856,351.78195,-36,7180,25.58,4607,395
1.69708,279.0514,-35,7181,25.58,4607,395
1.63702,208.3349,-34,7182,25.3808,4607,395
2.58005,146.03533,-33,7183,25.58,4602,385
2.94592,103.27877,-32,7184,25.58,4602,385
2.1771,96.723835,-31,7185,25.4804,4602,385
2.99568,120.43367,-30,7186,25.2813,4602,385
1.83739,153.64206,-29,7187,25.6297,4602,385
2.66012,186.20881,-28,7188,25.4804,4602,385
2.79304,214.24042,-27,7189,25.6297,4602,385
2.83876,238.42523,-26,7190,25.4306,4602,385
2.18366,261.59634,-25,7191,25.58,4602,385
2.26091,285.84468,-24,7192,25.2813,4602,385
2.32126,312.65419,-23,7193,25.6297,4608,426
2.61128,340.43473,-22,7194,25.4804,4608,426
2.85216,368.52397,-21,7195,25.58,4608,426
2.0785,396.37875,-20,7196,25.4306,4608,426
2.69397,422.6119,-19,7197,25.2813,4608,426
3.27549,446.52286,-18,7198,25.3808,4608,426
2.01797,469.47987,-17,7199,25.4804,4608,426
2.25034,492.69654,-16,7200,25.6297,4608,426
2.99568,517.84087,-15,7201,25.6297,4608,426
3.44299,544.91977,-14,7202,25.6795,4608,426
3.22561,574.52252,-13,7203,25.4306,4615,390
3.21673,607.22786,-12,7204,25.6795,4615,390
3.89892,642.17089,-11,7205,25.6297,4615,390
3.9318,677.55628,-10,7206,25.58,4615,390
3.67089,712.6361,-9,7207,25.3808,4615,390
3.33893,746.36168,-8,7208,25.6297,4615,390
3.88422,778.41264,-7,7209,25.6297,4615,390
3.20485,808.8953,-6,7210,25.58,4615,390
3.37444,837.97893,-5,7211,25.7791,4615,390
2.11037,867.26711,-4,7212,25.58,4615,390
5.23168,848.29848,-3,7213,25.6297,4628,411
8.36658,902.44451,-2,7214,25.2813,4628,411
12.1765,1103.5061,-1,7215,25.6297,4628,411
12.6067,1179.4902,0,7216,25.7791,4628,411
10.6964,975.04426,1,7217,25.58,4628,411
8.77929,771.88804,2,7218,25.6297,4628,411
7.27916,633.63816,3,7219,25.4306,4628,411
6.81988,459.11886,4,7220,25.6297,4628,411
6.82407,304.36959,5,7221,25.4804,4628,411
5.06873,272.69811,6,7222,25.4306,4628,411
5.1388,558.96007,7,7223,25.6297,4635,370
5.50438,845.86836,8,7224,25.6795,4635,370
5.32831,1052.0325,9,7225,25.58,4635,370
6.06492,1202.5394,10,7226,25.6297,4635,370
5.16564,1297.0751,11,7227,25.4804,4635,370
5.64804,1300.2874,12,7228,25.4804,4635,370
5.54237,1087.3274,13,7229,25.4804,4635,370
4.30574,736.97394,14,7230,25.58,4635,370
4.2545,375.85772,15,7231,25.4306,4635,370
4.47197,126.44493,16,7232,25.6297,4635,370
3.09125,136.80341,17,7233,25.4306,4624,433
2.93781,284.10034,18,7234,25.4804,4624,433
2.77935,419.81929,19,7235,25.4306,4624,433
3.00838,503.45285,20,7236,25.4804,4624,433
3.28276,483.65362,21,7237,25.6297,4624,433
3.4747,398.07385,22,7238,25.6297,4624,433
3.56679,325.40351,23,7239,25.6795,4624,433
2.95239,258.48238,24,7240,25.6297,4624,433
4.07474,179.67858,25,7241,25.58,4624,433
3.32892,199.79271,26,7242,25.6297,4624,433
2.83203,239.05189,27,7243,25.4306,4618,386
2.2819,239.44368,28,7244,25.7791,4618,386
2.45504,241.16661,29,7245,25.6297,4618,386
2.65474,245.5589,30,7246,25.58,4618,386
3.22561,246.09099,31,7247,25.6297,4618,386
3.12653,252.71014,32,7248,25.6297,4618,386
3.46508,263.69702,33,7249,25.58,4618,386
3.08971,272.99717,34,7250,25.58,4618,386
3.09587,284.52757,35,7251,25.58,4618,386
3.0163,303.56219,36,7252,25.6297,4618,386
3.04305,329.4013,37,7253,25.4306,4600,414
3.16442,359.26193,38,7254,25.6297,4600,414
3.2108,418.00249,39,7255,25.58,4600,414
4.68953,538.298,40,7256,25.4306,4600,414
4.44738,708.98777,41,7257,25.3808,4600,414
4.48794,819.58857,42,7258,25.6297,4600,414
3.69161,806.84212,43,7259,25.6795,4600,414
3.97642,716.68861,44,7260,25.58,4600,414
3.62645,597.58156,45,7261,25.4804,4600,414
3.54534,457.7936,46,7262,25.4306,4600,414
3.59343,353.60249,47,7263,25.58,4590,405
2.28816,349.45995,48,7264,25.58,4590,405
2.70809,418.00002,49,7265,25.6297,4590,405
2.47246,487.43295,50,7266,25.3808,4590,405
1.74146,513.36935,51,7267,25.6297,4590,405
1.17998,494.10895,52,7268,25.58,4590,405
2.24609,458.68413,53,7269,25.58,4590,405
1.78473,412.1695,54,7270,25.7791,4590,405
1.5807,389.32557,55,7271,25.3808,4590,405
1.45176,399.16473,56,7272,25.6297,4590,405
1.76323,402.91453,57,7273,25.7791,4588,413
2.3539,395.27321,58,7274,25.7791,4588,413
2.23972,400.77017,59,7275,25.58,4588,413
2.75695,415.79716,60,7276,25.4306,4588,413
1.19205,414.44072,61,7277,25.58,4588,413
2.06237,397.4073,62,7278,25.7791,4588,413
1.25821,390.11153,63,7279,25.6297,4588,413
2.33151,395.38222,64,7280,25.4804,4588,413
1.52544,395.72405,65,7281,25.6297,4588,413
0.793363,387.44196,66,7282,25.4306,4588,413
1.48103,378.43216,67,7283,25.58,4590,433
0.98628,369.66996,68,7284,25.6297,4590,433
1.92608,358.85226,69,7285,25.4804,4590,433
1.23912,352.03201,70,7286,25.58,4590,433
1.42525,355.08076,71,7287,25.6795,4590,433
0.85693,366.16135,72,7288,25.6297,4590,433
1.73047,378.32079,73,7289,25.6297,4590,433
1.89865,386.40703,74,7290,25.58,4590,433
0.710948,390.36958,75,7291,25.58,4590,433
1.20399,394.29899,76,7292,25.4804,4590,433
1.49066,398.85579,77,7293,25.6297,4594,426
0.862477,404.66905,78,7294,25.6795,4594,426
1.02423,413.24032,79,7295,25.4804,4594,426
1.10485,423.06356,80,7296,25.2813,4594,426
1.09183,431.92901,81,7297,25.6297,4594,426
0.840071,437.26583,82,7298,25.6297,4594,426
1.07865,441.47263,83,7299,25.4804,4594,426
0.569429,447.27545,84,7300,25.58,4594,426
0.365396,455.02889,85,7301,25.6297,4594,426
1.44518,463.40357,86,7302,25.6297,4594,426
0.981433,475.95227,87,7303,25.58,4599,406
0.750112,494.49153,88,7304,25.4804,4599,406
1.56859,521.03756,89,7305,25.6297,4599,406
1.12198,546.32098,90,7306,25.58,4599,406
1.74966,558.76601,91,7307,25.6297,4599,406
0.828641,557.72045,92,7308,25.58,4599,406
1.07865,553.0617,93,7309,25.58,4599,406
1.26953,549.83328,94,7310,25.7791,4599,406
2.0156,545.57325,95,7311,25.4306,4599,406
1.56859,536.47959,96,7312,25.6297,4599,406
0.926449,519.55949,97,7313,25.6297,4611,470
0.625305,493.46255,98,7314,25.58,4611,470
1.71108,457.8936,99,7315,25.6297,4611,470
1.01956,420.73373,100,7316,25.2813,4611,470
