Linear acceleration,Rotational velocity,Time values,Absolute time values,Temperature,Ambient light,Reflected light
1.27328,6.32649,-2000,2151715,31.8525,16402,260
1.25061,7.75219,-1999,2151716,31.6534,16402,260
1.88099,10.2168,-1998,2151717,31.8525,16402,260
2.05078,10.3378,-1997,2151718,31.6534,16402,260
2.34782,10.0165,-1996,2151719,31.7032,16402,260
1.88858,15.2143,-1995,2151720,31.504,16402,260
2.93944,23.4378,-1994,2151721,31.6036,16402,260
2.36602,28.0151,-1993,2151722,31.8027,16402,260
2.70985,28.5138,-1992,2151723,31.8027,16407,261
1.07865,26.4163,-1991,2151724,31.7032,16407,261
2.09677,19.3727,-1990,2151725,31.6534,16407,261
1.04268,15.9188,-1989,2151726,31.6534,16407,261
1.73323,15.18,-1988,2151727,31.8027,16407,261
2.04146,14.86,-1987,2151728,31.8027,16407,261
1.70829,13.8914,-1986,2151729,31.7032,16407,261
2.13284,10.2044,-1985,2151730,31.7032,16407,261
1.5987,6.02736,-1984,2151731,31.6534,16407,261
1.38452,4.1324,-1983,2151732,31.8027,16407,261
1.56555,6.50304,-1982,2151733,31.8027,16406,259
1.78473,20.5727,-1981,2151734,31.8027,16406,259
2.15066,30.9072,-1980,2151735,31.8027,16406,259
1.66589,33.7517,-1979,2151736,31.7032,16406,259
1.61945,29.6307,-1978,2151737,31.6036,16406,259
1.62239,20.0779,-1977,2151738,31.8525,16406,259
1.54408,8.08434,-1976,2151739,31.8525,16406,259
1.57769,3.55684,-1975,2151740,31.6534,16406,259
1.45176,4.54292,-1974,2151741,31.6534,16406,259
2.18802,5.94396,-1973,2151742,31.6534,16406,259
1.63702,10.832,-1972,2151743,31.8027,16404,265
1.62826,13.24,-1971,2151744,31.8027,16404,265
1.27328,15.2451,-1970,2151745,31.8027,16404,265
2.43554,18.3366,-1969,2151746,31.8525,16404,265
2.31715,19.6503,-1968,2151747,31.8027,16404,265
1.63702,19.637,-1967,2151748,31.6534,16404,265
2.6131,21.1157,-1966,2151749,31.7032,16404,265
1.22363,19.2643,-1965,2151750,31.8027,16404,265
1.30655,17.8423,-1964,2151751,31.6036,16404,265
1.47134,18.798,-1963,2151752,31.8027,16404,265
2.0156,18.0359,-1962,2151753,31.6534,16398,258
0.625305,14.4508,-1961,2151754,31.7032,16398,258
1.9918,9.05133,-1960,2151755,31.6534,16398,258
1.66303,5.31251,-1959,2151756,31.6534,16398,258
1.63993,4.63385,-1958,2151757,31.504,16398,258
2.06006,1.14512,-1957,2151758,31.6534,16398,258
1.93842,10.4931,-1956,2151759,31.6534,16398,258
2.05078,21.6866,-1955,2151760,31.8525,16398,258
3.16442,29.7456,-1954,2151761,31.8525,16398,258
1.13045,32.1805,-1953,2151762,31.4543,16398,258
2.19672,28.0313,-1952,2151763,31.8027,16401,260
2.0785,19.1246,-1951,2151764,31.6534,16401,260
1.23912,9.00429,-1950,2151765,31.6534,16401,260
2.76386,4.0135,-1949,2151766,31.8027,16401,260
3.61987,8.8541,-1948,2151767,31.4543,16401,260
1.70829,11.2504,-1947,2151768,31.7032,16401,260
2.4277,11.803,-1946,2151769,31.6534,16401,260
2.18584,11.9317,-1945,2151770,31.8027,16401,260
2.79986,11.9666,-1944,2151771,31.8027,16401,260
1.99659,13.4748,-1943,2151772,31.504,16401,260
1.63702,18.0511,-1942,2151773,31.6534,16408,260
2.66012,22.5807,-1941,2151774,31.6534,16408,260
2.20323,25.4826,-1940,2151775,31.7032,16408,260
2.15287,25.5349,-1939,2151776,31.9521,16408,260
1.71664,23.3132,-1938,2151777,31.8525,16408,260
2.14399,19.4019,-1937,2151778,31.7032,16408,260
2.25245,14.7473,-1936,2151779,31.8027,16408,260
1.02423,11.4265,-1935,2151780,31.6534,16408,260
2.12388,10.7019,-1934,2151781,31.8027,16408,260
2.38009,9.95079,-1933,2151782,31.7032,16408,260
1.09619,7.08113,-1932,2151783,31.6534,16406,257
1.49704,8.20781,-1931,2151784,31.6534,16406,257
2.89036,17.1825,-1930,2151785,31.6036,16406,257
1.13045,25.7012,-1929,2151786,31.8027,16406,257
2.84044,29.49,-1928,2151787,31.7032,16406,257
1.45505,29.3002,-1927,2151788,31.7032,16406,257
1.47134,25.1234,-1926,2151789,31.8525,16406,257
1.43525,17.4774,-1925,2151790,31.7032,16406,257
0.768946,12.2034,-1924,2151791,31.6036,16406,257
1.9798,12.8063,-1923,2151792,31.6534,16406,257
0.905627,16.2064,-1922,2151793,31.8027,16399,261
1.17998,17.4863,-1921,2151794,31.8525,16399,261
2.24609,14.9948,-1920,2151795,31.7032,16399,261
2.00612,8.58146,-1919,2151796,31.6036,16399,261
2.32332,2.84976,-1918,2151797,31.504,16399,261
1.83479,10.6033,-1917,2151798,31.6534,16399,261
1.54717,21.2956,-1916,2151799,31.6534,16399,261
1.98461,29.4708,-1915,2151800,31.8027,16399,261
1.51603,32.4955,-1914,2151801,31.8027,16399,261
1.85804,29.8821,-1913,2151802,31.6534,16399,261
1.77132,22.9742,-1912,2151803,31.8027,16397,261
1.98701,15.2593,-1911,2151804,31.7032,16397,261
2.15951,8.25127,-1910,2151805,31.6534,16397,261
1.47134,10.5504,-1909,2151806,31.8027,16397,261
2.29856,14.3551,-1908,2151807,31.6534,16397,261
2.15287,14.3333,-1907,2151808,31.6534,16397,261
1.54717,12.3984,-1906,2151809,31.7032,16397,261
1.56859,11.3085,-1905,2151810,31.8027,16397,261
2.24822,18.2804,-1904,2151811,31.6036,16397,261
2.95239,26.1883,-1903,2151812,31.8027,16397,261
1.96287,29.5672,-1902,2151813,31.6534,16400,262
1.55638,29.1656,-1901,2151814,31.6534,16400,262
1.19205,24.7502,-1900,2151815,31.8525,16400,262
1.17998,18.1434,-1899,2151816,31.8027,16400,262
1.97739,15.5125,-1898,2151817,31.504,16400,262
0.662337,12.8933,-1897,2151818,31.7032,16400,262
2.21187,12.2399,-1896,2151819,31.8027,16400,262
1.88858,13.0547,-1895,2151820,31.6534,16400,262
1.79007,13.1932,-1894,2151821,31.6534,16400,262
2.47439,10.8127,-1893,2151822,31.504,16400,262
2.49549,6.61774,-1892,2151823,31.6534,16406,261
1.71386,13.5745,-1891,2151824,31.6534,16406,261
2.2819,24.4711,-1890,2151825,31.8525,16406,261
2.03444,31.6209,-1889,2151826,31.8027,16406,261
1.36019,33.263,-1888,2151827,31.8027,16406,261
1.4118,29.0499,-1887,2151828,31.8027,16406,261
2.0156,20.1985,-1886,2151829,31.6534,16406,261
1.40163,12.0256,-1885,2151830,31.8027,16406,261
1.50022,9.55117,-1884,2151831,31.8027,16406,261
2.53718,13.5432,-1883,2151832,31.8027,16406,261
2.19455,16.1728,-1882,2151833,31.7032,16398,259
1.86572,15.9132,-1881,2151834,31.7032,16398,259
2.59295,11.2152,-1880,2151835,31.6534,16398,259
2.06237,8.20509,-1879,2151836,31.8027,16398,259
1.49385,15.4456,-1878,2151837,31.8027,16398,259
2.42966,24.1545,-1877,2151838,31.7032,16398,259
2.11488,29.2419,-1876,2151839,31.8525,16398,259
1.25442,30.2146,-1875,2151840,32.0019,16398,259
1.74966,27.5457,-1874,2151841,31.8027,16398,259
1.95556,22.4931,-1873,2151842,31.504,16398,259
1.80598,15.6598,-1872,2151843,31.7032,16395,259
2.19238,8.4696,-1871,2151844,31.6534,16395,259
1.8529,10.4454,-1870,2151845,31.6534,16395,259
1.9798,13.8608,-1869,2151846,31.4543,16395,259
1.01016,13.4687,-1868,2151847,31.6534,16395,259
2.23972,10.4368,-1867,2151848,31.8027,16395,259
1.88858,10.9958,-1866,2151849,31.6036,16395,259
1.56555,19.839,-1865,2151850,31.504,16395,259
2.06237,28.1416,-1864,2151851,31.8027,16395,259
2.04146,31.6296,-1863,2151852,32.0019,16395,259
2.09677,30.318,-1862,2151853,31.6534,16395,260
1.80334,24.644,-1861,2151854,31.7032,16395,260
0.811194,17.1225,-1860,2151855,31.7032,16395,260
1.56859,12.6282,-1859,2151856,31.8027,16395,260
2.11037,12.5091,-1858,2151857,31.7032,16395,260
1.4118,13.0273,-1857,2151858,31.8027,16395,260
2.13508,11.5664,-1856,2151859,31.6534,16395,260
1.69708,9.70593,-1855,2151860,31.8027,16395,260
1.82698,7.60078,-1854,2151861,31.6036,16395,260
1.83479,9.29339,-1853,2151862,31.6534,16395,260
1.29923,17.9348,-1852,2151863,31.8027,16399,260
2.53718,26.1504,-1851,2151864,31.6534,16399,260
1.66303,30.1566,-1850,2151865,31.504,16399,260
2.08537,30.3189,-1849,2151866,31.8027,16399,260
2.11488,26.6675,-1848,2151867,31.7032,16399,260
2.0762,18.9331,-1847,2151868,31.8027,16399,260
2.38609,10.4175,-1846,2151869,31.8027,16399,260
1.84774,8.08341,-1845,2151870,31.8027,16399,260
1.55638,12.4404,-1844,2151871,31.6534,16399,260
2.8986,15.1431,-1843,2151872,31.7032,16399,260
1.92608,14.3036,-1842,2151873,31.7032,16403,261
2.26722,11.9629,-1841,2151874,31.8027,16403,261
2.12613,13.1938,-1840,2151875,31.6534,16403,261
1.1596,20.8854,-1839,2151876,31.6036,16403,261
2.60213,27.0804,-1838,2151877,31.7032,16403,261
1.45176,29.1111,-1837,2151878,31.8027,16403,261
1.4681,27.5655,-1836,2151879,31.7032,16403,261
0.981433,22.456,-1835,2151880,31.6534,16403,261
1.60466,17.7594,-1834,2151881,31.6534,16403,261
1.45176,15.2432,-1833,2151882,31.6534,16403,261
1.49066,13.3308,-1832,2151883,31.8525,16407,260
2.48976,12.9176,-1831,2151884,31.7032,16407,260
2.38209,12.9297,-1830,2151885,31.7032,16407,260
2.08994,10.9863,-1829,2151886,31.504,16407,260
2.69751,7.6943,-1828,2151887,31.6534,16407,260
2.03678,10.8917,-1827,2151888,31.7032,16407,260
2.54094,20.9378,-1826,2151889,31.7032,16407,260
1.9798,28.7747,-1825,2151890,32.0019,16407,260
1.39139,31.7688,-1824,2151891,31.8525,16407,260
2.27981,30.1281,-1823,2151892,31.7032,16407,260
1.16371,24.371,-1822,2151893,31.8027,16403,262
1.51917,16.5679,-1821,2151894,31.8027,16403,262
1.43857,9.36208,-1820,2151895,31.8027,16403,262
1.77132,10.1414,-1819,2151896,31.6534,16403,262
1.55638,14.9296,-1818,2151897,31.8027,16403,262
1.8606,15.5705,-1817,2151898,31.7032,16403,262
2.70809,13.1553,-1816,2151899,31.6534,16403,262
1.28817,10.9163,-1815,2151900,31.4543,16403,262
1.17998,14.3971,-1814,2151901,31.8027,16403,262
1.60168,22.8373,-1813,2151902,31.6534,16403,262
1.92608,28.4246,-1812,2151903,31.8027,16402,259
1.57769,29.8404,-1811,2151904,31.504,16402,259
1.90867,27.4767,-1810,2151905,31.8027,16402,259
2.39805,21.886,-1809,2151906,31.6534,16402,259
2.35593,16.8758,-1808,2151907,31.8027,16402,259
2.74308,12.9475,-1807,2151908,31.6036,16402,259
1.91864,11.6473,-1806,2151909,31.6534,16402,259
2.29856,12.49,-1805,2151910,31.8027,16402,259
1.87592,12.4619,-1804,2151911,31.6534,16402,259
1.68298,10.2,-1803,2151912,31.504,16402,259
1.92608,9.13001,-1802,2151913,31.7032,16402,261
2.8986,16.7601,-1801,2151914,31.8027,16402,261
1.86827,24.8049,-1800,2151915,31.8027,16402,261
2.39407,29.5102,-1799,2151916,31.8027,16402,261
2.34985,30.6238,-1798,2151917,31.7032,16402,261
2.44336,26.3211,-1797,2151918,31.8027,16402,261
1.5034,18.8459,-1796,2151919,31.6036,16402,261
1.06082,11.7644,-1795,2151920,31.8027,16402,261
1.19205,7.589,-1794,2151921,31.8027,16402,261
2.00136,11.093,-1793,2151922,31.6534,16402,261
2.65654,15.7556,-1792,2151923,31.7032,16401,260
1.27702,12.6971,-1791,2151924,31.6534,16401,260
1.78473,9.02082,-1790,2151925,31.6534,16401,260
2.76903,12.2095,-1789,2151926,31.6036,16401,260
1.81125,18.5619,-1788,2151927,31.8027,16401,260
2.5615,25.7652,-1787,2151928,31.8027,16401,260
1.14304,28.2297,-1786,2151929,31.6534,16401,260
2.14399,26.0951,-1785,2151930,31.6534,16401,260
1.65728,21.4351,-1784,2151931,31.6534,16401,260
2.79304,16.8621,-1783,2151932,31.8027,16401,260
1.07422,11.8565,-1782,2151933,31.6534,16406,260
1.81125,9.65359,-1781,2151934,31.8027,16406,260
1.89865,11.692,-1780,2151935,31.6534,16406,260
1.9335,9.35173,-1779,2151936,31.8027,16406,260
1.54717,7.02726,-1778,2151937,31.6534,16406,260
1.56859,10.9728,-1777,2151938,31.6036,16406,260
2.28816,16.4505,-1776,2151939,31.7032,16406,260
1.4219,23.2136,-1775,2151940,31.6534,16406,260
1.10916,28.5751,-1774,2151941,31.6534,16406,260
1.66016,27.8398,-1773,2151942,31.7032,16406,260
1.23912,22.2004,-1772,2151943,31.8525,16404,260
0.497951,16.5791,-1771,2151944,31.8027,16404,260
3.22561,10.1649,-1770,2151945,31.7032,16404,260
1.77132,8.474,-1769,2151946,31.8027,16404,260
1.09619,12.7223,-1768,2151947,31.6036,16404,260
1.00068,12.0027,-1767,2151948,31.7032,16404,260
2.27352,8.96448,-1766,2151949,31.6534,16404,260
1.97739,9.28778,-1765,2151950,31.8525,16404,260
1.93596,11.7746,-1764,2151951,31.7032,16404,260
1.5034,15.8334,-1763,2151952,31.8027,16404,260
2.0716,21.0252,-1762,2151953,31.8027,16402,260
2.0739,22.6706,-1761,2151954,31.8027,16402,260
1.27328,22.1473,-1760,2151955,31.8027,16402,260
1.48103,21.104,-1759,2151956,31.6036,16402,260
2.28816,17.205,-1758,2151957,32.0019,16402,260
2.19455,13.4969,-1757,2151958,31.6036,16402,260
1.59273,11.7524,-1756,2151959,31.6534,16402,260
1.61945,8.75339,-1755,2151960,31.8525,16402,260
1.57769,7.73294,-1754,2151961,31.8027,16402,260
1.5034,10.3702,-1753,2151962,31.8027,16402,260
1.64283,10.1179,-1752,2151963,31.7032,16400,261
1.87592,11.8289,-1751,2151964,31.504,16400,261
1.10916,18.3329,-1750,2151965,31.6534,16400,261
2.56336,22.1486,-1749,2151966,31.6534,16400,261
1.45505,23.1297,-1748,2151967,31.8027,16400,261
1.67161,22.16,-1747,2151968,31.8027,16400,261
1.73872,18.4843,-1746,2151969,31.6534,16400,261
2.13508,13.161,-1745,2151970,31.7032,16400,261
2.39805,11.4049,-1744,2151971,31.6534,16400,261
1.94824,10.243,-1743,2151972,32.0019,16400,261
2.03444,10.4183,-1742,2151973,31.8027,16404,263
2.23759,12.0584,-1741,2151974,31.8027,16404,263
2.0785,11.6217,-1740,2151975,31.8027,16404,263
2.00374,8.34107,-1739,2151976,31.8027,16404,263
2.28816,9.89598,-1738,2151977,31.6036,16404,263
1.20399,15.2959,-1737,2151978,31.8027,16404,263
2.3539,19.8664,-1736,2151979,31.6534,16404,263
1.66303,23.4547,-1735,2151980,31.8027,16404,263
1.98701,23.5675,-1734,2151981,31.7032,16404,263
2.79304,19.6457,-1733,2151982,31.6534,16404,263
1.23912,14.6428,-1732,2151983,31.6534,16403,260
1.87846,10.6845,-1731,2151984,31.6534,16403,260
2.21402,9.60407,-1730,2151985,31.8027,16403,260
1.97739,10.0906,-1729,2151986,31.7032,16403,260
1.02423,9.83935,-1728,2151987,31.6534,16403,260
1.68581,8.83809,-1727,2151988,31.8027,16403,260
2.82529,12.1244,-1726,2151989,31.7032,16403,260
2.03444,16.5386,-1725,2151990,31.6534,16403,260
0.697405,17.6804,-1724,2151991,31.6036,16403,260
2.26091,20.9972,-1723,2151992,31.4543,16403,260
1.68298,22.8744,-1722,2151993,31.7032,16403,259
2.12388,21.3236,-1721,2151994,31.6534,16403,259
1.40163,17.514,-1720,2151995,31.7032,16403,259
2.01324,13.9854,-1719,2151996,31.7032,16403,259
1.70829,13.6298,-1718,2151997,31.6036,16403,259
2.11488,17.6783,-1717,2151998,31.4543,16403,259
1.81388,13.5553,-1716,2151999,31.6534,16403,259
1.47134,8.74998,-1715,2152000,31.6534,16403,259
1.4118,10.0469,-1714,2152001,31.8525,16403,259
2.08994,11.727,-1713,2152002,31.8525,16403,259
2.18802,9.40971,-1712,2152003,32.0019,16398,260
2.76903,14.7104,-1711,2152004,31.6534,16398,260
2.1771,21.11,-1710,2152005,31.6534,16398,260
2.77763,25.5235,-1709,2152006,31.6534,16398,260
1.958,24.7673,-1708,2152007,31.6534,16398,260
1.33185,19.9173,-1707,2152008,31.6534,16398,260
2.55777,15.202,-1706,2152009,31.6534,16398,260
2.04146,13.3219,-1705,2152010,31.6534,16398,260
1.5807,11.1786,-1704,2152011,31.7032,16398,260
1.21581,5.96398,-1703,2152012,32.0019,16398,260
1.97498,6.44319,-1702,2152013,31.7032,16401,258
1.88099,12.5963,-1701,2152014,31.6036,16401,258
2.52021,12.9763,-1700,2152015,31.8027,16401,258
2.19672,11.9461,-1699,2152016,31.7032,16401,258
2.83035,17.4804,-1698,2152017,31.8525,16401,258
1.79273,22.3112,-1697,2152018,31.6534,16401,258
1.71664,23.5912,-1696,2152019,31.8027,16401,258
2.21187,21.9326,-1695,2152020,31.6036,16401,258
2.38009,18.1335,-1694,2152021,31.6534,16401,258
0.655098,15.4664,-1693,2152022,31.504,16401,258
2.15066,13.1434,-1692,2152023,31.8027,16407,262
2.31921,7.74449,-1691,2152024,31.7032,16407,262
2.49167,6.83049,-1690,2152025,31.7032,16407,262
2.19672,9.41209,-1689,2152026,31.6534,16407,262
2.00612,9.91704,-1688,2152027,31.6534,16407,262
2.01087,9.34934,-1687,2152028,31.8027,16407,262
1.30655,13.1729,-1686,2152029,31.8525,16407,262
1.46484,20.1601,-1685,2152030,31.7032,16407,262
3.07113,22.6015,-1684,2152031,31.7032,16407,262
1.66875,22.1109,-1683,2152032,31.7032,16407,262
2.06237,19.6666,-1682,2152033,31.504,16401,260
2.47824,14.7806,-1681,2152034,31.8027,16401,260
2.33764,10.6719,-1680,2152035,31.6534,16401,260
1.91864,7.19387,-1679,2152036,31.8525,16401,260
1.52231,6.77243,-1678,2152037,31.7032,16401,260
2.47631,9.295,-1677,2152038,31.7032,16401,260
1.9942,10.8175,-1676,2152039,32.0019,16401,260
1.83739,10.8944,-1675,2152040,31.504,16401,260
2.23759,12.3206,-1674,2152041,31.7032,16401,260
2.93944,14.9216,-1673,2152042,31.6534,16401,260
2.13508,17.5467,-1672,2152043,31.8525,16402,261
1.14304,17.4889,-1671,2152044,31.6036,16402,261
1.81651,16.6973,-1670,2152045,31.504,16402,261
1.76323,15.7229,-1669,2152046,31.8027,16402,261
1.25061,13.5195,-1668,2152047,31.7032,16402,261
1.69427,10.6677,-1667,2152048,31.6534,16402,261
1.84257,9.68365,-1666,2152049,31.6534,16402,261
1.44188,9.64587,-1665,2152050,31.6534,16402,261
0.878906,9.62577,-1664,2152051,31.6534,16402,261
2.34782,9.59087,-1663,2152052,31.7032,16402,261
2.45115,10.6425,-1662,2152053,31.8027,16405,262
1.70829,12.39,-1661,2152054,31.6534,16405,262
1.76323,14.7195,-1660,2152055,31.8027,16405,262
1.85804,16.9757,-1659,2152056,31.7032,16405,262
1.97498,16.9207,-1658,2152057,31.7032,16405,262
1.20399,16.294,-1657,2152058,31.504,16405,262
2.48592,13.2473,-1656,2152059,31.8027,16405,262
1.68581,9.88242,-1655,2152060,31.6534,16405,262
2.27352,8.26931,-1654,2152061,31.6534,16405,262
1.73323,8.99518,-1653,2152062,31.8027,16405,262
2.86051,9.86355,-1652,2152063,31.7032,16403,259
0.730792,11.3696,-1651,2152064,31.7032,16403,259
1.94824,13.8339,-1650,2152065,31.8525,16403,259
1.74966,15.2832,-1649,2152066,31.6534,16403,259
1.57466,15.4142,-1648,2152067,31.8027,16403,259
1.88858,14.2833,-1647,2152068,31.6036,16403,259
1.15548,13.0181,-1646,2152069,31.7032,16403,259
2.8986,13.1898,-1645,2152070,31.6036,16403,259
2.67977,12.9268,-1644,2152071,31.504,16403,259
1.73047,11.1278,-1643,2152072,31.6534,16403,259
1.9335,9.331,-1642,2152073,31.6534,16399,260
1.13045,10.6425,-1641,2152074,31.8525,16399,260
1.88858,12.65,-1640,2152075,31.6534,16399,260
2.19238,12.8916,-1639,2152076,31.7032,16399,260
1.44188,12.7515,-1638,2152077,31.6534,16399,260
1.92361,13.6003,-1637,2152078,31.8027,16399,260
2.04146,15.0602,-1636,2152079,31.6534,16399,260
2.09677,14.7443,-1635,2152080,31.8027,16399,260
1.05179,12.7053,-1634,2152081,31.6534,16399,260
1.98461,11.2913,-1633,2152082,31.6534,16399,260
1.45505,11.9965,-1632,2152083,31.6036,16401,260
1.80334,10.566,-1631,2152084,31.7032,16401,260
0.697405,9.31661,-1630,2152085,31.6534,16401,260
2.24822,9.64433,-1629,2152086,31.8027,16401,260
2.2944,12.9152,-1628,2152087,31.8027,16401,260
1.39139,14.9011,-1627,2152088,31.7032,16401,260
2.39606,13.9838,-1626,2152089,31.6534,16401,260
2.08994,13.9993,-1625,2152090,31.6534,16401,260
2.65654,15.1711,-1624,2152091,31.8027,16401,260
2.38609,15.6011,-1623,2152092,31.6534,16401,260
1.54717,12.402,-1622,2152093,31.8027,16406,261
2.34782,10.4824,-1621,2152094,31.504,16406,261
1.94333,10.6775,-1620,2152095,31.6534,16406,261
1.47781,13.6184,-1619,2152096,31.8027,16406,261
2.8986,12.1219,-1618,2152097,31.8027,16406,261
2.09677,9.96351,-1617,2152098,31.8027,16406,261
1.57769,10.2981,-1616,2152099,31.6534,16406,261
1.68298,13.1479,-1615,2152100,31.504,16406,261
1.63993,13.9016,-1614,2152101,31.6534,16406,261
2.34578,12.9147,-1613,2152102,31.8525,16406,261
1.08306,13.9069,-1612,2152103,31.6534,16403,262
1.47134,16.1507,-1611,2152104,31.7032,16403,262
1.19604,15.967,-1610,2152105,31.8027,16403,262
0.41432,13.1048,-1609,2152106,31.6036,16403,262
2.12388,11.0634,-1608,2152107,31.8027,16403,262
1.74966,11.031,-1607,2152108,31.8027,16403,262
1.01016,11.1859,-1606,2152109,31.7032,16403,262
1.77938,8.8583,-1605,2152110,31.7032,16403,262
2.75695,8.50647,-1604,2152111,31.6534,16403,262
1.89362,11.8923,-1603,2152112,31.8027,16403,262
1.4118,14.7624,-1602,2152113,31.8525,16397,263
2.2819,14.011,-1601,2152114,31.6534,16397,263
1.958,14.1101,-1600,2152115,31.6534,16397,263
2.20323,14.847,-1599,2152116,31.6534,16397,263
2.1771,15.8075,-1598,2152117,31.6534,16397,263
2.91827,14.4296,-1597,2152118,31.6036,16397,263
0.981433,12.2448,-1596,2152119,31.7032,16397,263
1.18804,11.6121,-1595,2152120,31.6534,16397,263
1.07865,12.3315,-1594,2152121,31.8525,16397,263
2.74308,10.4653,-1593,2152122,31.6534,16397,263
2.19672,8.64978,-1592,2152123,31.8027,16401,259
2.70985,9.22822,-1591,2152124,31.8027,16401,259
2.44921,12.0256,-1590,2152125,31.8027,16401,259
1.70829,13.0095,-1589,2152126,31.8027,16401,259
2.36199,13.1355,-1588,2152127,31.8027,16401,259
2.14622,13.0387,-1587,2152128,31.7032,16401,259
2.33764,14.4755,-1586,2152129,31.8525,16401,259
1.4681,16.2239,-1585,2152130,31.6534,16401,259
1.48103,14.7907,-1584,2152131,31.6534,16401,259
1.61355,13.2439,-1583,2152132,31.8525,16401,259
1.66303,11.8534,-1582,2152133,31.7032,16398,260
1.48103,11.5264,-1581,2152134,31.6534,16398,260
2.34578,12.5406,-1580,2152135,31.6534,16398,260
2.21832,10.7657,-1579,2152136,31.6534,16398,260
2.36199,11.0107,-1578,2152137,31.6534,16398,260
1.73047,11.0795,-1577,2152138,31.8027,16398,260
2.35593,10.8882,-1576,2152139,31.8027,16398,260
2.05543,11.6403,-1575,2152140,31.504,16398,260
2.47246,12.7714,-1574,2152141,31.6534,16398,260
1.62239,14.9036,-1573,2152142,31.6534,16398,260
1.01956,15.9875,-1572,2152143,32.0019,16402,263
1.54099,14.9878,-1571,2152144,31.8027,16402,263
1.25821,14.9933,-1570,2152145,31.8027,16402,263
1.98701,14.6708,-1569,2152146,31.7032,16402,263
1.7767,12.6941,-1568,2152147,31.7032,16402,263
1.31383,10.7623,-1567,2152148,31.6534,16402,263
1.14304,7.71075,-1566,2152149,31.7032,16402,263
2.69397,8.56669,-1565,2152150,31.6534,16402,263
1.19205,12.7895,-1564,2152151,31.7032,16402,263
1.73323,12.0627,-1563,2152152,31.7032,16402,263
2.25457,12.9573,-1562,2152153,31.8027,16401,258
1.5807,13.3191,-1561,2152154,31.6036,16401,258
2.45698,14.2284,-1560,2152155,31.6534,16401,258
1.85547,15.1101,-1559,2152156,31.7032,16401,258
1.98461,13.5965,-1558,2152157,31.7032,16401,258
2.30477,12.5335,-1557,2152158,31.8525,16401,258
1.46484,12.7428,-1556,2152159,31.6534,16401,258
1.05631,12.8104,-1555,2152160,31.504,16401,258
1.54099,13.1932,-1554,2152161,31.8027,16401,258
2.10811,12.9665,-1553,2152162,31.6534,16401,258
1.02423,12.0479,-1552,2152163,31.504,16403,263
1.17998,9.52696,-1551,2152164,31.8027,16403,263
1.66016,7.51005,-1550,2152165,31.6534,16403,263
1.3029,9.35492,-1549,2152166,31.6534,16403,263
1.68014,12.7947,-1548,2152167,31.8027,16403,263
2.13508,15.9763,-1547,2152168,31.7032,16403,263
1.32467,16.2555,-1546,2152169,31.8525,16403,263
2.5819,14.8354,-1545,2152170,31.6534,16403,263
1.58973,13.1479,-1544,2152171,31.8525,16403,263
1.55638,14.7851,-1543,2152172,31.7032,16403,263
2.43162,15.5725,-1542,2152173,31.6534,16403,261
1.73323,14.9415,-1541,2152174,31.8027,16403,261
1.08306,13.7485,-1540,2152175,31.6534,16403,261
1.30655,11.5251,-1539,2152176,31.6534,16403,261
1.06977,8.71671,-1538,2152177,31.7032,16403,261
1.53789,7.49118,-1537,2152178,31.6534,16403,261
2.43358,10.4995,-1536,2152179,31.8027,16403,261
1.82698,11.5909,-1535,2152180,31.8027,16403,261
1.45176,13.1712,-1534,2152181,31.6534,16403,261
2.28816,13.4416,-1533,2152182,31.8027,16403,261
1.95556,14.2472,-1532,2152183,31.8027,16402,262
1.19205,14.9893,-1531,2152184,31.6036,16402,262
1.78473,17.1029,-1530,2152185,31.6534,16402,262
1.63993,18.3873,-1529,2152186,31.7032,16402,262
1.49385,18.1228,-1528,2152187,31.6534,16402,262
0.799351,15.2749,-1527,2152188,31.8027,16402,262
1.84516,10.4168,-1526,2152189,31.7032,16402,262
2.55591,5.52022,-1525,2152190,31.8525,16402,262
1.89614,3.80186,-1524,2152191,31.6534,16402,262
2.13508,7.13668,-1523,2152192,31.8027,16402,262
2.43358,11.0283,-1522,2152193,31.8027,16402,260
1.46158,14.8395,-1521,2152194,31.8027,16402,260
2.44531,15.6045,-1520,2152195,31.6534,16402,260
1.88353,16.3547,-1519,2152196,31.8027,16402,260
1.85547,17.0081,-1518,2152197,31.6534,16402,260
1.73323,17.587,-1517,2152198,31.6534,16402,260
2.60945,17.497,-1516,2152199,31.6534,16402,260
1.45505,16.2665,-1515,2152200,31.7032,16402,260
2.20323,14.3877,-1514,2152201,31.6534,16402,260
2.55777,10.9388,-1513,2152202,31.7032,16402,260
2.25668,6.32649,-1512,2152203,31.8027,16403,262
2.1771,4.89957,-1511,2152204,31.4543,16403,262
1.86572,8.80346,-1510,2152205,31.7032,16403,262
2.09904,11.5103,-1509,2152206,31.7032,16403,262
2.04146,14.1738,-1508,2152207,31.6534,16403,262
1.22752,16.7187,-1507,2152208,31.6534,16403,262
1.45505,20.0589,-1506,2152209,31.6534,16403,262
1.44518,19.8682,-1505,2152210,32.0019,16403,262
1.51917,19.4957,-1504,2152211,31.8525,16403,262
1.84774,18.5298,-1503,2152212,31.7032,16403,262
1.22363,16.2473,-1502,2152213,31.8027,16403,261
1.63702,13.1253,-1501,2152214,31.7032,16403,261
1.4118,9.19749,-1500,2152215,31.8027,16403,261
2.11037,5.22056,-1499,2152216,31.7032,16403,261
1.79539,5.78902,-1498,2152217,31.6534,16403,261
1.8606,9.33978,-1497,2152218,31.7032,16403,261
1.94824,12.3581,-1496,2152219,31.6534,16403,261
1.80069,15.6331,-1495,2152220,31.8027,16403,261
1.96529,17.3979,-1494,2152221,31.6036,16403,261
1.8529,18.9189,-1493,2152222,31.7032,16403,261
1.60168,18.2979,-1492,2152223,31.6534,16401,261
2.09677,17.6073,-1491,2152224,31.7032,16401,261
0.905627,16.9031,-1490,2152225,31.6534,16401,261
1.90116,16.9766,-1489,2152226,32.0019,16401,261
2.69397,16.0047,-1488,2152227,31.8027,16401,261
1.33185,11.4947,-1487,2152228,31.7032,16401,261
1.59273,5.36276,-1486,2152229,31.8027,16401,261
1.68298,2.21415,-1485,2152230,31.504,16401,261
1.80334,5.36276,-1484,2152231,31.8027,16401,261
2.09677,10.8444,-1483,2152232,31.8027,16401,261
2.27352,16.8245,-1482,2152233,31.6534,16402,261
2.84882,20.0199,-1481,2152234,31.6534,16402,261
1.84516,20.0949,-1480,2152235,31.8525,16402,261
1.77132,19.2798,-1479,2152236,31.7032,16402,261
1.98701,17.1399,-1478,2152237,32.0019,16402,261
2.67977,15.0919,-1477,2152238,32.0019,16402,261
2.23972,14.1396,-1476,2152239,31.8027,16402,261
1.96287,13.3101,-1475,2152240,31.7032,16402,261
1.68863,11.2867,-1474,2152241,31.504,16402,261
2.32332,7.73872,-1473,2152242,31.8027,16402,261
2.53342,6.3312,-1472,2152243,31.9521,16402,259
1.32827,8.77294,-1471,2152244,31.8525,16402,259
1.86827,11.255,-1470,2152245,31.6534,16402,259
1.3029,13.8155,-1469,2152246,31.6534,16402,259
1.31383,15.8851,-1468,2152247,31.7032,16402,259
1.88606,17.6947,-1467,2152248,31.7032,16402,259
2.44336,18.6907,-1466,2152249,31.7032,16402,259
1.76323,18.7405,-1465,2152250,31.8027,16402,259
1.78473,18.0342,-1464,2152251,31.6534,16402,259
1.80334,17.1569,-1463,2152252,31.6036,16402,259
1.88858,15.3032,-1462,2152253,31.6534,16406,261
1.45176,11.1866,-1461,2152254,31.6534,16406,261
1.88099,6.89886,-1460,2152255,31.7032,16406,261
1.84257,5.72691,-1459,2152256,32.0019,16406,261
2.37809,7.40616,-1458,2152257,31.8027,16406,261
2.08994,11.1412,-1457,2152258,31.7032,16406,261
2.0785,15.8832,-1456,2152259,32.0019,16406,261
2.08994,19.0234,-1455,2152260,31.7032,16406,261
2.11488,19.2353,-1454,2152261,31.6534,16406,261
1.83479,17.3988,-1453,2152262,31.7032,16406,261
1.69427,14.7225,-1452,2152263,31.8027,16395,260
1.89865,14.0062,-1451,2152264,31.7032,16395,260
1.81388,15.3775,-1450,2152265,31.8027,16395,260
1.67161,16.123,-1449,2152266,31.8525,16395,260
2.34782,14.0662,-1448,2152267,31.6534,16395,260
2.55217,9.27092,-1447,2152268,31.7032,16395,260
2.03209,5.57529,-1446,2152269,31.7032,16395,260
1.57769,8.33124,-1445,2152270,31.8027,16395,260
1.94579,11.0344,-1444,2152271,31.7032,16395,260
2.20323,11.7961,-1443,2152272,31.8525,16395,260
2.19238,15.7243,-1442,2152273,31.504,16395,259
2.16832,21.4996,-1441,2152274,31.6534,16395,259
1.68298,23.4432,-1440,2152275,31.8525,16395,259
1.76323,21.8823,-1439,2152276,31.6534,16395,259
1.67161,19.1561,-1438,2152277,31.8027,16395,259
2.10585,16.8041,-1437,2152278,31.6036,16395,259
2.00136,17.0221,-1436,2152279,31.8525,16395,259
2.2819,12.0454,-1435,2152280,31.504,16395,259
1.17998,6.17391,-1434,2152281,31.6534,16395,259
2.28816,7.28444,-1433,2152282,31.6534,16395,259
1.34255,11.0445,-1432,2152283,31.6036,16404,260
2.15287,12.9676,-1431,2152284,31.8525,16404,260
0.840071,15.0246,-1430,2152285,31.6534,16404,260
2.09222,16.6352,-1429,2152286,31.8027,16404,260
1.23526,16.9823,-1428,2152287,31.8027,16404,260
2.72739,18.0251,-1427,2152288,31.6534,16404,260
2.15951,18.0425,-1426,2152289,31.8525,16404,260
2.21187,15.9875,-1425,2152290,31.8525,16404,260
2.01324,15.3489,-1424,2152291,31.6534,16404,260
1.5034,14.9186,-1423,2152292,31.8525,16404,260
1.77132,12.5525,-1422,2152293,31.8027,16403,259
0.971667,7.43828,-1421,2152294,31.6534,16403,259
2.22905,3.98181,-1420,2152295,31.8027,16403,259
2.5221,5.7191,-1419,2152296,31.8027,16403,259
1.55638,11.0869,-1418,2152297,31.6534,16403,259
2.50313,16.9945,-1417,2152298,31.6534,16403,259
1.54099,18.1162,-1416,2152299,31.8027,16403,259
1.79273,16.7779,-1415,2152300,31.6036,16403,259
1.80598,15.5983,-1414,2152301,31.8027,16403,259
2.87382,14.8711,-1413,2152302,31.8027,16403,259
1.70829,17.0002,-1412,2152303,31.6534,16403,260
2.42966,20.4047,-1411,2152304,31.6036,16403,260
0.878906,19.2523,-1410,2152305,31.6534,16403,260
1.73872,12.906,-1409,2152306,31.8525,16403,260
2.15287,10.554,-1408,2152307,31.7032,16403,260
2.61493,15.0869,-1407,2152308,31.8027,16403,260
1.45505,15.9132,-1406,2152309,31.6036,16403,260
2.44921,13.994,-1405,2152310,31.8027,16403,260
1.49385,19.599,-1404,2152311,31.6534,16403,260
1.63702,29.8139,-1403,2152312,31.6534,16403,260
1.8529,31.3041,-1402,2152313,31.6534,16395,257
1.57466,21.2539,-1401,2152314,31.8525,16395,257
3.07113,13.7561,-1400,2152315,31.8525,16395,257
2.44531,18.3374,-1399,2152316,31.7032,16395,257
1.40163,17.9672,-1398,2152317,31.8027,16395,257
2.26091,10.8485,-1397,2152318,31.6534,16395,257
2.54094,11.9067,-1396,2152319,31.7032,16395,257
1.76323,17.5344,-1395,2152320,31.8027,16395,257
1.51917,20.5879,-1394,2152321,31.8525,16395,257
2.13954,15.4374,-1393,2152322,31.504,16395,257
1.01956,16.5458,-1392,2152323,31.6534,16405,258
1.17188,23.8722,-1391,2152324,31.8027,16405,258
3.32318,22.6015,-1390,2152325,31.8027,16405,258
1.69146,14.411,-1389,2152326,31.6036,16405,258
2.27352,8.1312,-1388,2152327,31.504,16405,258
1.92112,12.5477,-1387,2152328,31.6534,16405,258
1.92112,14.2053,-1386,2152329,31.6534,16405,258
2.30684,11.8156,-1385,2152330,31.8027,16405,258
1.88353,12.9935,-1384,2152331,31.8027,16405,258
1.93596,18.0309,-1383,2152332,31.8027,16405,258
1.90867,19.1444,-1382,2152333,31.504,16402,258
0.828641,17.0663,-1381,2152334,31.8027,16402,258
3.56278,15.2783,-1380,2152335,31.8525,16402,258
2.3539,14.3888,-1379,2152336,31.8027,16402,258
1.62532,12.9452,-1378,2152337,31.6534,16402,258
1.92856,9.91554,-1377,2152338,31.6534,16402,258
2.41391,7.38097,-1376,2152339,31.6534,16402,258
3.8977,3.20652,-1375,2152340,31.8027,16402,258
2.16832,2.6436,-1374,2152341,31.8027,16402,258
2.36199,8.58407,-1373,2152342,31.6534,16402,258
2.78277,17.4842,-1372,2152343,31.6036,16398,260
1.20794,26.2335,-1371,2152344,31.6534,16398,260
1.8606,28.6176,-1370,2152345,31.8525,16398,260
1.73872,23.9973,-1369,2152346,31.4543,16398,260
1.43857,15.6926,-1368,2152347,31.4543,16398,260
2.20323,6.60196,-1367,2152348,31.6534,16398,260
1.80334,3.90243,-1366,2152349,31.6534,16398,260
1.12623,4.76856,-1365,2152350,31.8525,16398,260
2.02504,5.78515,-1364,2152351,31.8027,16398,260
1.94824,11.0364,-1363,2152352,31.4543,16398,260
2.08994,16.843,-1362,2152353,31.7032,16397,259
2.53718,19.5122,-1361,2152354,31.8027,16397,259
1.58673,16.498,-1360,2152355,31.8027,16397,259
1.6165,19.1817,-1359,2152356,31.8027,16397,259
1.39139,20.1116,-1358,2152357,31.6534,16397,259
2.46667,19.0293,-1357,2152358,31.8027,16397,259
3.04462,20.6371,-1356,2152359,31.6534,16397,259
1.62532,20.6948,-1355,2152360,31.6534,16397,259
1.45505,18.2294,-1354,2152361,31.8027,16397,259
1.24679,10.7678,-1353,2152362,31.6534,16397,259
1.76323,2.68832,-1352,2152363,31.6534,16403,262
0.845728,4.16473,-1351,2152364,31.6534,16403,262
2.0739,4.20744,-1350,2152365,31.6534,16403,262
2.18584,5.49452,-1349,2152366,31.8525,16403,262
2.31715,13.1898,-1348,2152367,31.8525,16403,262
1.50022,21.8823,-1347,2152368,31.8525,16403,262
1.33185,28.7446,-1346,2152369,31.8027,16403,262
2.1771,30.0675,-1345,2152370,31.6534,16403,262
2.66729,23.7765,-1344,2152371,31.8525,16403,262
2.14177,15.3581,-1343,2152372,31.7032,16403,262
2.03444,10.821,-1342,2152373,31.6534,16407,260
1.77401,2.58662,-1341,2152374,31.504,16407,260
1.96287,11.1359,-1340,2152375,31.7032,16407,260
2.19672,15.7324,-1339,2152376,31.6534,16407,260
2.34782,20.9666,-1338,2152377,31.8027,16407,260
2.05078,25.7131,-1337,2152378,31.6534,16407,260
2.16392,23.779,-1336,2152379,31.6534,16407,260
2.82529,18.2004,-1335,2152380,31.9521,16407,260
1.82698,14.8796,-1334,2152381,31.6534,16407,260
1.47134,10.2029,-1333,2152382,31.8525,16407,260
1.68863,3.59642,-1332,2152383,31.8027,16398,259
1.7551,14.1016,-1331,2152384,31.6534,16398,259
2.18584,23.5368,-1330,2152385,31.7032,16398,259
1.80598,25.7545,-1329,2152386,31.8027,16398,259
1.86827,21.8983,-1328,2152387,31.7032,16398,259
1.69427,16.7615,-1327,2152388,31.6534,16398,259
0.971667,13.795,-1326,2152389,31.6534,16398,259
2.36199,12.7018,-1325,2152390,31.7032,16398,259
2.77935,8.6773,-1324,2152391,31.4543,16398,259
1.99897,12.4236,-1323,2152392,31.7032,16398,259
1.81125,24.1307,-1322,2152393,31.8027,16408,263
2.49167,29.8014,-1321,2152394,31.6534,16408,263
1.80334,26.9455,-1320,2152395,31.8027,16408,263
1.49704,16.8005,-1319,2152396,31.8027,16408,263
1.72772,11.9336,-1318,2152397,31.8027,16408,263
1.76052,18.1261,-1317,2152398,31.504,16408,263
1.62532,13.8069,-1316,2152399,31.8027,16408,263
1.59273,6.23515,-1315,2152400,31.6534,16408,263
1.90116,15.3348,-1314,2152401,31.6534,16408,263
1.92608,27.6661,-1313,2152402,31.8525,16408,263
2.09677,30.3251,-1312,2152403,31.8027,16402,261
1.44518,22.637,-1311,2152404,31.6534,16402,261
1.92361,17.3434,-1310,2152405,31.6534,16402,261
2.05078,15.8358,-1309,2152406,31.8027,16402,261
1.6165,15.9464,-1308,2152407,31.8027,16402,261
2.36401,9.73965,-1307,2152408,31.8525,16402,261
2.25668,9.85524,-1306,2152409,31.6036,16402,261
2.12613,21.4778,-1305,2152410,31.8525,16402,261
2.55777,26.1598,-1304,2152411,32.0019,16402,261
1.98461,23.583,-1303,2152412,31.504,16402,261
2.12388,16.1216,-1302,2152413,31.6534,16403,261
2.04845,16.926,-1301,2152414,31.8027,16403,261
1.48103,17.3396,-1300,2152415,31.8027,16403,261
2.16392,11.6249,-1299,2152416,31.6534,16403,261
2.3539,9.65359,-1298,2152417,31.8525,16403,261
1.76323,16.4619,-1297,2152418,31.8027,16403,261
1.28817,22.4888,-1296,2152419,31.7032,16403,261
2.18584,19.4785,-1295,2152420,31.504,16403,261
2.0716,13.692,-1294,2152421,31.4543,16403,261
1.68298,12.6217,-1293,2152422,31.6036,16403,261
1.69708,13.5344,-1292,2152423,31.8027,16402,259
2.85718,11.4882,-1291,2152424,31.7032,16402,259
1.28817,13.249,-1290,2152425,31.8027,16402,259
1.73047,21.304,-1289,2152426,31.6534,16402,259
2.66729,26.0694,-1288,2152427,31.8027,16402,259
2.15287,25.0033,-1287,2152428,31.7032,16402,259
1.68863,16.5643,-1286,2152429,32.0019,16402,259
2.32946,7.49814,-1285,2152430,31.504,16402,259
2.76903,12.6182,-1284,2152431,31.8027,16402,259
1.76052,14.0344,-1283,2152432,31.8027,16402,259
1.88606,12.4374,-1282,2152433,31.6534,16403,262
3.39557,15.0132,-1281,2152434,31.6534,16403,262
1.07865,22.5202,-1280,2152435,31.6036,16403,262
1.74146,26.7816,-1279,2152436,31.8027,16403,262
1.86572,23.5899,-1278,2152437,31.8525,16403,262
1.86572,15.0587,-1277,2152438,31.6534,16403,262
2.50693,5.45505,-1276,2152439,31.8027,16403,262
1.21581,2.27392,-1275,2152440,31.7032,16403,262
1.61355,2.98012,-1274,2152441,31.8027,16403,262
2.1771,7.90447,-1273,2152442,31.8525,16403,262
2.09222,15.7891,-1272,2152443,31.6534,16401,259
2.48208,21.2914,-1271,2152444,31.504,16401,259
1.32827,22.6338,-1270,2152445,31.8027,16401,259
2.54656,19.1327,-1269,2152446,31.7032,16401,259
2.40203,13.8865,-1268,2152447,31.7032,16401,259
1.71386,11.5206,-1267,2152448,31.7032,16401,259
1.59273,9.46655,-1266,2152449,31.8027,16401,259
2.93294,6.12058,-1265,2152450,31.6036,16401,259
1.28447,10.058,-1264,2152451,31.6036,16401,259
2.28607,18.5374,-1263,2152452,31.504,16401,259
2.84882,24.2223,-1262,2152453,32.0516,16402,261
2.68155,23.0545,-1261,2152454,31.6534,16402,261
0.900346,16.7668,-1260,2152455,31.6036,16402,261
2.25457,10.0558,-1259,2152456,31.8027,16402,261
2.14399,7.66909,-1258,2152457,31.8027,16402,261
2.23759,7.93551,-1257,2152458,31.9521,16402,261
2.4974,9.08009,-1256,2152459,31.8027,16402,261
1.94824,12.9912,-1255,2152460,31.8027,16402,261
1.88858,17.0554,-1254,2152461,31.6534,16402,261
1.42525,19.0344,-1253,2152462,31.7032,16402,261
2.10811,16.9954,-1252,2152463,31.7032,16400,261
2.41786,12.8638,-1251,2152464,31.7032,16400,261
2.11263,9.9238,-1250,2152465,31.7032,16400,261
1.49066,8.27741,-1249,2152466,31.6534,16400,261
2.0739,8.25307,-1248,2152467,31.8525,16400,261
1.86827,10.2808,-1247,2152468,31.8525,16400,261
1.89865,14.1465,-1246,2152469,31.6036,16400,261
2.03444,16.9132,-1245,2152470,31.6534,16400,261
2.20539,16.7961,-1244,2152471,31.6534,16400,261
1.81125,14.769,-1243,2152472,31.7032,16400,261
2.12613,13.2788,-1242,2152473,31.9521,16401,260
2.37809,13.692,-1241,2152474,31.7032,16401,260
2.28816,13.6561,-1240,2152475,32.0019,16401,260
1.70549,13.0221,-1239,2152476,31.7032,16401,260
1.19604,12.8846,-1238,2152477,31.8525,16401,260
1.74966,12.3285,-1237,2152478,31.8027,16401,260
1.40842,12.3267,-1236,2152479,31.6534,16401,260
2.06237,11.4212,-1235,2152480,31.7032,16401,260
2.44921,11.0869,-1234,2152481,31.6534,16401,260
1.80334,13.0158,-1233,2152482,31.6534,16401,260
1.66589,14.5243,-1232,2152483,31.6534,16403,262
0.926449,15.4379,-1231,2152484,31.7032,16403,262
1.22363,14.6062,-1230,2152485,31.6036,16403,262
1.89362,13.857,-1229,2152486,31.6036,16403,262
2.37005,12.6076,-1228,2152487,31.6534,16403,262
1.37067,11.4856,-1227,2152488,31.8027,16403,262
2.22262,10.5073,-1226,2152489,31.7032,16403,262
2.48208,9.85297,-1225,2152490,31.7032,16403,262
1.91864,11.6172,-1224,2152491,31.7032,16403,262
2.2819,13.1508,-1223,2152492,31.6534,16403,262
1.84774,14.8214,-1222,2152493,31.7032,16399,261
1.89865,14.6652,-1221,2152494,31.7032,16399,261
1.65152,13.1644,-1220,2152495,31.6534,16399,261
2.09222,13.4416,-1219,2152496,31.7032,16399,261
1.80334,14.4219,-1218,2152497,31.7032,16399,261
1.46484,12.9475,-1217,2152498,31.6534,16399,261
2.02504,11.2999,-1216,2152499,31.8027,16399,261
1.47781,11.4798,-1215,2152500,31.7032,16399,261
2.47439,12.45,-1214,2152501,31.8027,16399,261
1.4118,12.0942,-1213,2152502,31.6534,16399,261
1.32827,12.0825,-1212,2152503,31.6534,16402,261
1.73047,12.1685,-1211,2152504,31.8027,16402,261
1.79273,13.2248,-1210,2152505,31.8027,16402,261
1.77132,13.2349,-1209,2152506,31.7032,16402,261
1.80598,11.8389,-1208,2152507,31.6534,16402,261
1.34255,13.1082,-1207,2152508,31.8525,16402,261
2.04845,14.6678,-1206,2152509,31.6036,16402,261
1.23912,15.6916,-1205,2152510,31.8027,16402,261
1.60168,15.2764,-1204,2152511,31.8525,16402,261
1.22752,13.3185,-1203,2152512,31.7032,16402,261
1.60168,13.6664,-1202,2152513,31.6534,16399,261
1.57769,14.6322,-1201,2152514,31.7032,16399,261
2.0739,13.8699,-1200,2152515,31.6534,16399,261
2.0762,12.311,-1199,2152516,31.8027,16399,261
2.02033,11.1412,-1198,2152517,31.6534,16399,261
2.54094,13.2067,-1197,2152518,31.4543,16399,261
1.70549,13.8855,-1196,2152519,31.6534,16399,261
2.32332,13.1207,-1195,2152520,31.6534,16399,261
2.67443,13.4066,-1194,2152521,31.6534,16399,261
2.19455,16.9945,-1193,2152522,31.7032,16399,261
2.76559,18.1397,-1192,2152523,31.8027,16401,262
2.69397,15.1692,-1191,2152524,31.8027,16401,262
1.09619,12.7316,-1190,2152525,31.7032,16401,262
2.38009,10.4995,-1189,2152526,31.8525,16401,262
2.46086,10.5101,-1188,2152527,31.8027,16401,262
1.94824,10.646,-1187,2152528,31.7032,16401,262
2.11263,9.65591,-1186,2152529,31.7032,16401,262
1.47134,13.7902,-1185,2152530,31.8027,16401,262
2.77247,18.7945,-1184,2152531,31.8525,16401,262
2.02504,21.0021,-1183,2152532,31.6534,16401,262
1.82437,18.3755,-1182,2152533,31.7032,16398,259
2.39606,14.254,-1181,2152534,31.8525,16398,259
1.59273,12.2217,-1180,2152535,31.7032,16398,259
1.80334,10.0105,-1179,2152536,31.6534,16398,259
2.22262,7.80296,-1178,2152537,31.7032,16398,259
0.569429,9.12266,-1177,2152538,31.8027,16398,259
1.88858,15.526,-1176,2152539,31.7032,16398,259
1.43857,18.0028,-1175,2152540,31.6036,16398,259
2.43358,17.6682,-1174,2152541,31.8027,16398,259
2.36401,15.2612,-1173,2152542,31.6036,16398,259
1.23912,13.157,-1172,2152543,31.6534,16398,258
2.18584,13.7404,-1171,2152544,31.8027,16398,258
1.38107,11.6729,-1170,2152545,31.6534,16398,258
1.20794,11.3591,-1169,2152546,31.6534,16398,258
1.57769,14.5653,-1168,2152547,31.8027,16398,258
1.74146,18.9732,-1167,2152548,31.504,16398,258
2.05543,18.5475,-1166,2152549,31.6534,16398,258
1.77132,13.9155,-1165,2152550,31.6534,16398,258
1.91864,10.7463,-1164,2152551,31.504,16398,258
2.0693,9.3294,-1163,2152552,31.6534,16398,258
1.66303,10.1348,-1162,2152553,31.8027,16401,259
2.44921,9.37481,-1161,2152554,31.7032,16401,259
2.51263,13.2653,-1160,2152555,31.6534,16401,259
2.29024,18.0697,-1159,2152556,31.7032,16401,259
2.08994,20.5811,-1158,2152557,31.6534,16401,259
1.64863,18.7548,-1157,2152558,31.6036,16401,259
1.89865,13.742,-1156,2152559,31.6534,16401,259
2.49167,11.4629,-1155,2152560,31.6534,16401,259
1.83479,10.1333,-1154,2152561,31.7032,16401,259
1.73047,9.10304,-1153,2152562,31.6534,16401,259
1.74966,10.6005,-1152,2152563,31.6534,16402,258
1.78206,15.6579,-1151,2152564,31.8027,16402,258
1.9798,19.9188,-1150,2152565,31.8525,16402,258
2.03678,18.508,-1149,2152566,31.8525,16402,258
2.15951,15.4933,-1148,2152567,31.8027,16402,258
1.67161,11.4746,-1147,2152568,31.6534,16402,258
1.70829,10.8807,-1146,2152569,31.8027,16402,258
1.31745,10.434,-1145,2152570,31.6534,16402,258
2.70985,7.51997,-1144,2152571,31.6036,16402,258
2.05078,11.4206,-1143,2152572,31.8027,16402,258
1.33185,17.9019,-1142,2152573,31.8027,16402,259
2.4974,22.197,-1141,2152574,31.7032,16402,259
2.08994,19.9341,-1140,2152575,31.6534,16402,259
2.00136,14.947,-1139,2152576,31.6534,16402,259
2.4277,11.1312,-1138,2152577,31.8027,16402,259
1.1472,9.14306,-1137,2152578,31.8027,16402,259
1.54717,9.48935,-1136,2152579,31.4543,16402,259
1.55332,8.87763,-1135,2152580,31.8027,16402,259
1.17998,13.7658,-1134,2152581,31.7032,16402,259
1.72772,17.9231,-1133,2152582,31.6036,16402,259
1.8606,19.9214,-1132,2152583,31.9521,16404,261
1.958,18.3162,-1131,2152584,31.8027,16404,261
2.0716,12.9101,-1130,2152585,31.7032,16404,261
2.19672,10.8161,-1129,2152586,31.8027,16404,261
2.51263,8.77804,-1128,2152587,31.7032,16404,261
1.6165,7.69818,-1127,2152588,31.6534,16404,261
1.4118,10.5158,-1126,2152589,31.6036,16404,261
1.69708,16.4818,-1125,2152590,31.8525,16404,261
2.03444,20.0753,-1124,2152591,31.6036,16404,261
1.92608,19.1779,-1123,2152592,31.8027,16404,261
2.39407,15.6541,-1122,2152593,31.7032,16403,256
2.02269,11.5044,-1121,2152594,31.6534,16403,256
1.24296,10.5179,-1120,2152595,31.8027,16403,256
1.57466,10.1583,-1119,2152596,31.7032,16403,256
1.71664,9.9448,-1118,2152597,31.8027,16403,256
1.88858,12.3551,-1117,2152598,31.6534,16403,256
2.26512,16.7819,-1116,2152599,31.7032,16403,256
2.35187,19.7814,-1115,2152600,31.6534,16403,256
2.22262,16.7881,-1114,2152601,31.8525,16403,256
2.02269,12.7176,-1113,2152602,31.6534,16403,256
1.87592,10.126,-1112,2152603,31.8525,16398,263
2.40797,9.89372,-1111,2152604,31.504,16398,263
1.91864,9.80446,-1110,2152605,31.6036,16398,263
1.28447,10.429,-1109,2152606,31.504,16398,263
1.44518,15.4041,-1108,2152607,31.6036,16398,263
1.88858,19.0328,-1107,2152608,31.8525,16398,263
1.77132,19.2805,-1106,2152609,31.8525,16398,263
1.79539,15.605,-1105,2152610,31.6036,16398,263
2.55404,11.1332,-1104,2152611,31.8027,16398,263
1.69427,10.2546,-1103,2152612,31.504,16398,263
2.12613,8.84399,-1102,2152613,31.8027,16401,257
2.2819,10.0817,-1101,2152614,31.8027,16401,257
2.02269,14.0699,-1100,2152615,31.7032,16401,257
1.90867,19.4705,-1099,2152616,31.8027,16401,257
2.14399,18.7802,-1098,2152617,31.6534,16401,257
2.40203,15.6679,-1097,2152618,31.504,16401,257
1.17594,11.5838,-1096,2152619,31.6534,16401,257
0.840071,9.56053,-1095,2152620,31.7032,16401,257
1.52544,9.7274,-1094,2152621,31.8027,16401,257
2.57079,9.61957,-1093,2152622,31.7032,16401,257
1.88099,12.1219,-1092,2152623,31.7032,16401,257
2.37206,16.7325,-1091,2152624,31.8027,16401,257
1.79804,20.5919,-1090,2152625,31.8027,16401,257
2.09904,19.778,-1089,2152626,31.8027,16401,257
1.54099,13.8182,-1088,2152627,31.6036,16401,257
2.82022,8.56321,-1087,2152628,31.8027,16401,257
1.78473,6.60986,-1086,2152629,31.6534,16401,257
1.68863,7.66909,-1085,2152630,31.6534,16401,257
2.26722,11.6134,-1084,2152631,31.6036,16401,257
0.560992,15.9038,-1083,2152632,31.8525,16401,257
2.28607,17.8678,-1082,2152633,31.8027,16393,259
2.0716,18.5976,-1081,2152634,31.8027,16393,259
1.94824,16.0493,-1080,2152635,31.504,16393,259
1.68298,11.0539,-1079,2152636,31.6534,16393,259
3.07578,7.81536,-1078,2152637,31.7032,16393,259
1.42525,8.20145,-1077,2152638,31.6534,16393,259
2.26301,8.06958,-1076,2152639,31.6534,16393,259
1.66303,10.6453,-1075,2152640,31.7032,16393,259
2.14399,15.0948,-1074,2152641,31.8525,16393,259
2.32332,19.1483,-1073,2152642,31.8027,16393,259
1.76052,18.5209,-1072,2152643,31.8525,16404,260
2.0716,14.199,-1071,2152644,31.6534,16404,260
2.20323,10.0373,-1070,2152645,31.8525,16404,260
1.66016,8.27291,-1069,2152646,31.8027,16404,260
1.79539,8.79669,-1068,2152647,31.6534,16404,260
1.62532,11.0141,-1067,2152648,31.504,16404,260
2.41983,14.6051,-1066,2152649,31.7032,16404,260
2.12388,17.746,-1065,2152650,31.8027,16404,260
2.39606,18.9587,-1064,2152651,31.6534,16404,260
2.17052,18.1183,-1063,2152652,31.8027,16404,260
0.793363,13.3554,-1062,2152653,31.7032,16403,259
2.10585,9.5932,-1061,2152654,31.6534,16403,259
1.90617,8.35268,-1060,2152655,31.8027,16403,259
1.84516,9.40575,-1059,2152656,31.8027,16403,259
1.63702,10.9306,-1058,2152657,31.8027,16403,259
2.0693,15.5437,-1057,2152658,31.9521,16403,259
1.37415,18.0631,-1056,2152659,31.8027,16403,259
2.08079,17.5229,-1055,2152660,31.6534,16403,259
0.966748,14.856,-1054,2152661,31.8027,16403,259
2.0716,11.5703,-1053,2152662,31.6534,16403,259
1.69427,9.62577,-1052,2152663,31.504,16397,261
1.74146,10.2139,-1051,2152664,31.9521,16397,261
3.46232,10.8155,-1050,2152665,31.8027,16397,261
1.90116,12.6324,-1049,2152666,31.6036,16397,261
2.16171,14.8751,-1048,2152667,31.7032,16397,261
1.98701,16.6455,-1047,2152668,31.6534,16397,261
2.22262,16.1253,-1046,2152669,31.8027,16397,261
1.95556,13.8511,-1045,2152670,31.7032,16397,261
1.74146,10.7713,-1044,2152671,31.6534,16397,261
1.3637,9.62886,-1043,2152672,31.8027,16397,261
2.85384,9.97323,-1042,2152673,31.6534,16405,261
1.73872,10.3889,-1041,2152674,31.504,16405,261
1.13045,13.4083,-1040,2152675,31.6534,16405,261
2.30063,15.0305,-1039,2152676,31.7032,16405,261
1.97498,15.0958,-1038,2152677,31.6534,16405,261
1.33185,13.9235,-1037,2152678,31.4543,16405,261
2.18802,12.3707,-1036,2152679,31.6036,16405,261
2.18366,11.5722,-1035,2152680,31.7032,16405,261
1.1472,11.8068,-1034,2152681,31.8027,16405,261
1.44518,12.6359,-1033,2152682,31.6036,16405,261
1.6165,12.8435,-1032,2152683,31.6534,16403,255
1.41854,13.42,-1031,2152684,31.504,16403,255
1.49385,14.773,-1030,2152685,31.7032,16403,255
1.31383,14.6997,-1029,2152686,31.8525,16403,255
2.58005,13.7804,-1028,2152687,31.6534,16403,255
2.0156,11.5245,-1027,2152688,31.8027,16403,255
2.24822,11.5381,-1026,2152689,31.8027,16403,255
1.27328,12.5566,-1025,2152690,31.6036,16403,255
1.3102,12.3731,-1024,2152691,32.0019,16403,255
2.27981,13.4066,-1023,2152692,31.6534,16403,255
1.87846,14.5125,-1022,2152693,31.6534,16404,259
2.16392,14.596,-1021,2152694,31.7032,16404,259
1.49066,13.6397,-1020,2152695,31.6534,16404,259
1.61945,12.2831,-1019,2152696,31.7032,16404,259
1.04725,11.4571,-1018,2152697,31.7032,16404,259
1.28447,12.3249,-1017,2152698,31.8027,16404,259
1.82698,13.5597,-1016,2152699,31.8027,16404,259
2.12613,14.2373,-1015,2152700,31.6534,16404,259
0.647778,16.4795,-1014,2152701,31.6534,16404,259
2.57079,16.6696,-1013,2152702,31.8027,16404,259
1.56859,15.1076,-1012,2152703,31.8027,16401,261
2.20323,11.8414,-1011,2152704,31.8027,16401,261
1.73872,10.1509,-1010,2152705,31.7032,16401,261
2.22047,9.71207,-1009,2152706,31.8027,16401,261
1.88606,10.4532,-1008,2152707,31.7032,16401,261
1.68014,11.2847,-1007,2152708,31.8027,16401,261
1.92608,12.68,-1006,2152709,31.6534,16401,261
2.58559,14.959,-1005,2152710,31.6534,16401,261
2.76386,16.2624,-1004,2152711,31.6534,16401,261
2.56336,15.8921,-1003,2152712,31.6036,16401,261
3.71351,13.5542,-1002,2152713,31.6534,16404,261
1.88606,10.4561,-1001,2152714,31.6534,16404,261
2.17052,9.9792,-1000,2152715,31.4543,16404,261
1.65152,10.4824,-999,2152716,31.8027,16404,261
1.55638,12.2703,-998,2152717,31.6036,16404,261
1.19604,14.8194,-997,2152718,31.8027,16404,261
1.31745,16.855,-996,2152719,31.6534,16404,261
2.04146,16.5611,-995,2152720,31.8525,16404,261
1.84774,14.5438,-994,2152721,31.7032,16404,261
1.79539,11.727,-993,2152722,31.9521,16404,261
2.44921,9.08666,-992,2152723,31.6534,16402,257
1.57466,8.19691,-991,2152724,31.6036,16402,257
1.97498,10.2779,-990,2152725,31.8027,16402,257
1.36019,12.7153,-989,2152726,31.7032,16402,257
2.44531,16.3264,-988,2152727,31.6534,16402,257
1.94088,19.1292,-987,2152728,31.8027,16402,257
2.19238,18.5326,-986,2152729,31.8027,16402,257
1.60168,14.3846,-985,2152730,31.8027,16402,257
1.9798,10.7436,-984,2152731,31.7032,16402,257
1.89865,8.07235,-983,2152732,31.8027,16402,257
2.09677,8.20418,-982,2152733,31.4543,16395,259
1.60168,10.4504,-981,2152734,31.7032,16395,259
1.57769,12.5448,-980,2152735,31.8027,16395,259
1.91366,14.4379,-979,2152736,31.8525,16395,259
2.75176,15.8315,-978,2152737,31.6036,16395,259
1.14304,15.5725,-977,2152738,31.7032,16395,259
1.90867,14.3343,-976,2152739,31.6036,16395,259
2.05078,11.3951,-975,2152740,31.7032,16395,259
2.87382,10.5476,-974,2152741,31.7032,16395,259
1.79007,12.3972,-973,2152742,31.8027,16395,259
2.16392,13.6413,-972,2152743,31.8027,16404,261
1.88858,15.1652,-971,2152744,31.7032,16404,261
1.09183,17.3825,-970,2152745,31.7032,16404,261
1.77938,17.7216,-969,2152746,31.7032,16404,261
1.99659,16.2848,-968,2152747,31.6534,16404,261
0.889691,13.2484,-967,2152748,31.9521,16404,261
2.65654,9.73047,-966,2152749,31.8027,16404,261
1.22752,9.00512,-965,2152750,31.7032,16404,261
3.18844,11.6127,-964,2152751,31.504,16404,261
1.44188,13.2293,-963,2152752,31.7032,16404,261
1.21188,15.4437,-962,2152753,31.8027,16404,259
2.37005,17.6348,-961,2152754,31.7032,16404,259
1.3102,16.8643,-960,2152755,31.8027,16404,259
2.0156,13.1099,-959,2152756,31.6534,16404,259
2.30684,9.89146,-958,2152757,31.7032,16404,259
2.12613,8.2666,-957,2152758,31.6534,16404,259
1.96287,9.54649,-956,2152759,31.6534,16404,259
1.80334,11.3761,-955,2152760,31.6534,16404,259
2.43358,14.4796,-954,2152761,31.8525,16404,259
1.73323,17.6517,-953,2152762,31.9521,16404,259
1.61355,18.2122,-952,2152763,31.6534,16404,262
2.85384,15.2202,-951,2152764,31.8027,16404,262
1.68298,10.9149,-950,2152765,31.8027,16404,262
2.20323,8.14951,-949,2152766,31.6534,16404,262
2.16392,8.70473,-948,2152767,31.6036,16404,262
2.12837,10.7574,-947,2152768,31.8027,16404,262
2.12388,13.4372,-946,2152769,31.6534,16404,262
1.41517,15.9333,-945,2152770,31.8027,16404,262
0.981433,17.4052,-944,2152771,31.7032,16404,262
1.79007,16.0377,-943,2152772,31.504,16404,262
1.68298,13.3152,-942,2152773,31.7032,16400,261
2.86551,10.6026,-941,2152774,31.8525,16400,261
1.77401,9.68442,-940,2152775,31.8027,16400,261
1.72495,10.5645,-939,2152776,31.6534,16400,261
1.45176,12.4182,-938,2152777,31.6534,16400,261
0.811194,15.0963,-937,2152778,31.8027,16400,261
2.50313,17.3331,-936,2152779,31.7032,16400,261
2.63129,17.806,-935,2152780,31.8027,16400,261
1.83479,15.0662,-934,2152781,31.6534,16400,261
1.96529,10.4275,-933,2152782,31.504,16400,261
1.3637,7.76755,-932,2152783,31.6036,16402,258
2.02504,8.20872,-931,2152784,31.6534,16402,258
2.08994,10.9381,-930,2152785,31.7032,16402,258
1.31745,13.5624,-929,2152786,31.8027,16402,258
2.05078,15.3255,-928,2152787,31.7032,16402,258
2.03444,16.1174,-927,2152788,31.8525,16402,258
2.04146,15.8113,-926,2152789,31.8027,16402,258
2.39407,13.1932,-925,2152790,31.6036,16402,258
1.57769,10.061,-924,2152791,31.7032,16402,258
2.97972,9.44054,-923,2152792,31.8027,16402,258
2.01324,11.3243,-922,2152793,31.6534,16403,259
2.0716,13.5542,-921,2152794,31.8027,16403,259
2.08079,14.9734,-920,2152795,31.8027,16403,259
1.97739,14.8038,-919,2152796,31.6534,16403,259
2.30477,14.4482,-918,2152797,31.7032,16403,259
1.81651,13.6222,-917,2152798,31.7032,16403,259
1.90867,11.692,-916,2152799,31.6534,16403,259
1.40163,10.1876,-915,2152800,31.8027,16403,259
2.31715,11.0688,-914,2152801,31.8027,16403,259
1.83479,12.6229,-913,2152802,31.8027,16403,259
1.71664,14.0641,-912,2152803,31.6534,16404,261
2.30477,13.8597,-911,2152804,31.6534,16404,261
1.68298,12.7895,-910,2152805,31.4543,16404,261
2.18802,12.2442,-909,2152806,31.504,16404,261
2.04146,12.5614,-908,2152807,31.6534,16404,261
2.47246,12.4685,-907,2152808,31.6534,16404,261
1.46484,12.3418,-906,2152809,31.6534,16404,261
1.96772,13.7685,-905,2152810,31.7032,16404,261
1.80334,15.0726,-904,2152811,31.7032,16404,261
1.96529,14.6576,-903,2152812,31.6534,16404,261
1.65728,11.7213,-902,2152813,31.8027,16396,260
1.84257,9.96052,-901,2152814,31.6534,16396,260
1.94824,10.3846,-900,2152815,31.8027,16396,260
2.63491,11.031,-899,2152816,31.8027,16396,260
2.0693,11.4571,-898,2152817,31.6534,16396,260
0.895034,13.1139,-897,2152818,31.8027,16396,260
2.70985,14.9485,-896,2152819,31.6534,16396,260
2.22262,15.4548,-895,2152820,31.8027,16396,260
1.88099,14.081,-894,2152821,31.8525,16396,260
1.7767,11.2272,-893,2152822,31.6534,16396,260
2.28816,10.7823,-892,2152823,31.8027,16398,261
2.09677,12.4757,-891,2152824,31.6534,16398,261
1.33185,13.8881,-890,2152825,31.8525,16398,261
2.09222,13.6337,-889,2152826,31.8027,16398,261
1.7551,14.1074,-888,2152827,31.8525,16398,261
1.56859,14.353,-887,2152828,31.7032,16398,261
1.98461,13.7545,-886,2152829,31.8027,16398,261
2.0156,12.2247,-885,2152830,31.8027,16398,261
2.5353,10.7366,-884,2152831,31.6534,16398,261
1.54099,11.1191,-883,2152832,31.8525,16398,261
2.58743,12.8499,-882,2152833,31.6036,16405,257
1.19205,13.4477,-881,2152834,31.8525,16405,257
2.6655,13.1253,-880,2152835,31.8027,16405,257
1.80598,14.0147,-879,2152836,31.8027,16405,257
2.99568,13.8629,-878,2152837,31.6534,16405,257
1.98701,13.2129,-877,2152838,31.6534,16405,257
1.57769,11.6716,-876,2152839,31.7032,16405,257
2.08994,11.9822,-875,2152840,31.6534,16405,257
2.30063,12.9986,-874,2152841,31.8027,16405,257
1.33543,14.1143,-873,2152842,31.7032,16405,257
2.65654,13.1819,-872,2152843,32.0019,16400,260
2.37005,13.3426,-871,2152844,31.8027,16400,260
2.70104,12.8406,-870,2152845,31.6534,16400,260
2.7028,11.8112,-869,2152846,31.6534,16400,260
1.20794,11.2689,-868,2152847,31.8027,16400,260
1.39139,10.7734,-867,2152848,31.6534,16400,260
1.13045,13.6691,-866,2152849,31.9521,16400,260
1.49066,16.2119,-865,2152850,31.4543,16400,260
1.07422,15.3905,-864,2152851,31.7032,16400,260
2.24822,13.4444,-863,2152852,31.6534,16400,260
2.62948,12.6087,-862,2152853,31.6534,16399,262
2.2819,11.6512,-861,2152854,31.6534,16399,262
1.81651,11.0836,-860,2152855,31.7032,16399,262
2.55777,10.0669,-859,2152856,31.8027,16399,262
1.97739,12.6824,-858,2152857,31.6534,16399,262
1.97739,16.06,-857,2152858,31.6036,16399,262
1.82437,17.5654,-856,2152859,31.8525,16399,262
2.05543,14.853,-855,2152860,31.7032,16399,262
1.73047,12.7381,-854,2152861,31.8525,16399,262
1.76323,11.798,-853,2152862,31.6036,16399,262
2.71512,10.7283,-852,2152863,31.504,16401,258
1.89614,9.9268,-851,2152864,31.8027,16401,258
1.82698,11.4811,-850,2152865,31.6534,16401,258
2.38609,14.6754,-849,2152866,31.7032,16401,258
1.89362,18.1466,-848,2152867,31.6534,16401,258
1.30655,17.6002,-847,2152868,31.6534,16401,258
2.15287,13.8435,-846,2152869,31.6534,16401,258
0.878906,11.8118,-845,2152870,31.8525,16401,258
2.16832,9.86431,-844,2152871,31.7032,16401,258
1.77132,9.26046,-843,2152872,31.7032,16401,258
0.640375,9.59165,-842,2152873,31.7032,16398,263
2.28816,12.2052,-841,2152874,31.8525,16398,263
2.18366,16.1105,-840,2152875,31.8027,16398,263
1.4118,18.4564,-839,2152876,31.6534,16398,263
2.05078,16.0531,-838,2152877,31.8525,16398,263
1.94824,13.2563,-837,2152878,31.7032,16398,263
2.41786,11.8942,-836,2152879,31.6036,16398,263
1.94088,9.75494,-835,2152880,32.0019,16398,263
2.27352,9.80522,-834,2152881,31.6534,16398,263
2.21402,9.93805,-833,2152882,32.0019,16398,263
1.61355,14.0916,-832,2152883,31.8525,16398,259
1.97498,17.9115,-831,2152884,31.6534,16398,259
1.56859,17.9713,-830,2152885,31.7032,16398,259
2.0785,13.4222,-829,2152886,31.8027,16398,259
1.22752,11.7226,-828,2152887,31.6036,16398,259
2.1573,10.376,-827,2152888,31.6534,16398,259
2.71688,10.1671,-826,2152889,31.7032,16398,259
2.80496,10.3364,-825,2152890,31.8027,16398,259
1.79273,12.5543,-824,2152891,31.8027,16398,259
2.36401,17.2305,-823,2152892,31.8027,16398,259
1.73323,18.5422,-822,2152893,31.7032,16395,259
2.04146,14.8048,-821,2152894,31.8027,16395,259
1.98461,11.63,-820,2152895,31.6036,16395,259
1.86316,10.3946,-819,2152896,31.6534,16395,259
3.27258,9.8242,-818,2152897,31.7032,16395,259
2.18584,10.486,-817,2152898,31.6534,16395,259
1.86827,12.1403,-816,2152899,31.7032,16395,259
1.63702,15.8935,-815,2152900,31.504,16395,259
1.57466,18.8396,-814,2152901,31.7032,16395,259
2.32946,16.7281,-813,2152902,31.6036,16395,259
2.25457,12.3206,-812,2152903,31.6534,16399,260
1.33185,10.126,-811,2152904,31.8027,16399,260
1.21581,9.65051,-810,2152905,31.8027,16399,260
1.21581,9.80674,-809,2152906,31.6534,16399,260
1.84257,11.8842,-808,2152907,31.7032,16399,260
1.89614,14.3996,-807,2152908,31.6036,16399,260
1.79273,16.881,-806,2152909,31.8027,16399,260
2.64575,16.7401,-805,2152910,31.6534,16399,260
0.793363,13.4864,-804,2152911,31.8027,16399,260
1.60168,10.7547,-803,2152912,31.7032,16399,260
1.79273,10.6614,-802,2152913,31.7032,16398,262
1.89865,10.6886,-801,2152914,31.8525,16398,262
2.77247,11.6895,-800,2152915,31.6534,16398,262
2.15066,14.2723,-799,2152916,31.6534,16398,262
2.60762,17.1742,-798,2152917,31.6534,16398,262
2.58005,17.6602,-797,2152918,31.8027,16398,262
1.73047,15.0196,-796,2152919,31.504,16398,262
1.9918,10.4803,-795,2152920,31.4045,16398,262
2.27352,8.91531,-794,2152921,31.7032,16398,262
0.995902,9.40971,-793,2152922,31.8525,16398,262
1.81651,10.6201,-792,2152923,31.7032,16399,260
1.63702,13.29,-791,2152924,31.8027,16399,260
1.84257,16.6253,-790,2152925,31.6534,16399,260
1.07422,19.0715,-789,2152926,31.8027,16399,260
1.06082,17.3658,-788,2152927,31.7032,16399,260
2.06006,12.6977,-787,2152928,31.8027,16399,260
1.48103,9.38117,-786,2152929,31.8525,16399,260
1.88099,8.80769,-785,2152930,31.8525,16399,260
1.68863,9.327,-784,2152931,31.8027,16399,260
1.62239,11.4532,-783,2152932,31.7032,16399,260
1.40163,14.8108,-782,2152933,31.6534,16406,259
1.4118,17.7212,-781,2152934,31.8027,16406,259
0.840071,18.0747,-780,2152935,31.6534,16406,259
1.11773,14.4245,-779,2152936,32.0019,16406,259
1.96287,10.1002,-778,2152937,31.6534,16406,259
2.03209,9.6188,-777,2152938,31.8027,16406,259
2.54656,9.88845,-776,2152939,31.8027,16406,259
1.66303,10.919,-775,2152940,31.6534,16406,259
2.04845,13.6686,-774,2152941,31.6534,16406,259
1.39139,16.7917,-773,2152942,31.6534,16406,259
1.17998,17.7221,-772,2152943,31.7032,16407,258
2.0716,15.0226,-771,2152944,31.8027,16407,258
1.61355,11.0067,-770,2152945,31.6534,16407,258
1.19604,8.7244,-769,2152946,31.7032,16407,258
1.76323,9.50425,-768,2152947,31.6534,16407,258
2.57079,11.1305,-767,2152948,31.8525,16407,258
1.42525,13.6751,-766,2152949,31.7032,16407,258
1.01016,16.5971,-765,2152950,31.8027,16407,258
1.44188,17.8594,-764,2152951,31.8027,16407,258
2.34782,15.8842,-763,2152952,31.7032,16407,258
2.67264,11.2391,-762,2152953,31.6534,16404,261
2.24397,7.57033,-761,2152954,31.8027,16404,261
2.93131,8.27921,-760,2152955,31.8027,16404,261
1.17998,10.667,-759,2152956,31.8027,16404,261
1.74146,13.4853,-758,2152957,31.8525,16404,261
1.11773,15.3736,-757,2152958,31.8027,16404,261
2.11263,15.6717,-756,2152959,31.7032,16404,261
2.25668,14.5699,-755,2152960,31.6534,16404,261
1.47458,13.3599,-754,2152961,31.6534,16404,261
1.80598,12.1293,-753,2152962,31.8027,16404,261
1.75781,11.0815,-752,2152963,31.6534,16398,260
2.13954,11.8942,-751,2152964,31.6534,16398,260
2.11037,12.4882,-750,2152965,31.6534,16398,260
1.39139,11.3276,-749,2152966,31.6036,16398,260
2.8354,12.9498,-748,2152967,31.6534,16398,260
2.0156,13.9326,-747,2152968,31.6534,16398,260
1.10916,14.4482,-746,2152969,31.6036,16398,260
1.90867,14.3223,-745,2152970,31.8525,16398,260
1.60168,14.533,-744,2152971,31.8027,16398,260
1.9798,14.6005,-743,2152972,31.6534,16398,260
2.3539,14.5653,-742,2152973,31.504,16401,261
1.63993,11.1693,-741,2152974,31.7032,16401,261
2.48976,15.8626,-740,2152975,31.4045,16401,261
1.23912,21.1555,-739,2152976,31.8525,16401,261
1.55638,16.8855,-738,2152977,31.8027,16401,261
2.44921,10.4817,-737,2152978,31.8525,16401,261
2.14177,6.91181,-736,2152979,31.6534,16401,261
2.6851,6.27446,-735,2152980,31.7032,16401,261
2.02269,9.57921,-734,2152981,31.6534,16401,261
1.95556,13.5013,-733,2152982,31.7032,16401,261
1.60168,16.2835,-732,2152983,31.6534,16403,262
2.43358,17.4167,-731,2152984,31.8027,16403,262
1.93596,17.4043,-730,2152985,31.7032,16403,262
1.68298,17.4565,-729,2152986,31.8525,16403,262
1.40163,16.5805,-728,2152987,31.8027,16403,262
1.41517,12.9768,-727,2152988,32.0019,16403,262
1.64863,6.16908,-726,2152989,31.6534,16403,262
1.98701,3.12891,-725,2152990,31.7032,16403,262
2.20323,8.4202,-724,2152991,31.8027,16403,262
2.03209,16.2665,-723,2152992,31.6534,16403,262
1.88858,15.9959,-722,2152993,31.7032,16403,256
1.01956,14.7549,-721,2152994,31.8027,16403,256
2.03444,9.51052,-720,2152995,31.8525,16403,256
1.23912,12.0139,-719,2152996,31.8027,16403,256
2.09677,12.1954,-718,2152997,31.6534,16403,256
2.81853,17.3949,-717,2152998,31.6534,16403,256
2.51832,24.0432,-716,2152999,31.7032,16403,256
1.83479,28.2067,-715,2153000,31.7032,16403,256
1.49066,25.8042,-714,2153001,31.6534,16403,256
1.31745,14.1544,-713,2153002,31.7032,16403,256
1.63702,15.4239,-712,2153003,31.6534,16395,259
1.95556,22.2915,-711,2153004,31.6534,16395,259
2.06237,21.5806,-710,2153005,31.7032,16395,259
1.9918,12.1912,-709,2153006,31.6036,16395,259
2.16392,9.64433,-708,2153007,31.7032,16395,259
1.61355,23.794,-707,2153008,31.6534,16395,259
1.57466,29.0481,-706,2153009,31.7032,16395,259
0.895034,27.5417,-705,2153010,31.7032,16395,259
1.90617,24.9098,-704,2153011,31.8027,16395,259
2.15066,24.761,-703,2153012,32.0019,16395,259
2.05311,21.2606,-702,2153013,31.6534,16395,259
2.33151,12.6064,-701,2153014,31.7032,16395,259
1.55638,6.16304,-700,2153015,31.8027,16395,259
2.50313,5.20484,-699,2153016,31.6534,16395,259
2.23972,6.05572,-698,2153017,31.8027,16395,259
1.56555,7.00177,-697,2153018,31.8525,16395,259
2.20323,16.8395,-696,2153019,31.7032,16395,259
1.90617,15.5456,-695,2153020,31.7032,16395,259
2.25668,20.2188,-694,2153021,31.504,16395,259
1.71664,26.5771,-693,2153022,31.7032,16395,259
0.905627,31.3017,-692,2153023,31.6534,16380,260
1.63993,30.2668,-691,2153024,31.6534,16380,260
1.17998,20.3422,-690,2153025,31.6534,16380,260
2.0716,11.5432,-689,2153026,31.6534,16380,260
2.42573,9.84616,-688,2153027,31.6534,16380,260
0.85693,11.3624,-687,2153028,31.8525,16380,260
2.55777,10.4881,-686,2153029,31.6534,16380,260
2.49549,7.15336,-685,2153030,31.7032,16380,260
1.55638,9.12348,-684,2153031,31.8027,16380,260
1.08306,18.5872,-683,2153032,31.6036,16380,260
1.91864,25.5608,-682,2153033,31.6534,16399,258
1.00068,30.357,-681,2153034,31.7032,16399,258
2.5353,29.1331,-680,2153035,31.8027,16399,258
1.57769,22.4198,-679,2153036,31.8027,16399,258
2.40401,14.3945,-678,2153037,31.7032,16399,258
1.67161,9.63892,-677,2153038,31.6534,16399,258
2.12388,8.35179,-676,2153039,31.6534,16399,258
2.44336,15.0404,-675,2153040,31.7032,16399,258
2.32126,16.9625,-674,2153041,31.6534,16399,258
1.70829,13.7831,-673,2153042,31.8027,16399,258
1.92608,4.63385,-672,2153043,31.7032,16403,263
1.32827,7.92235,-671,2153044,31.6534,16403,263
1.86316,13.0478,-670,2153045,31.7032,16403,263
1.67161,23.3371,-669,2153046,31.6534,16403,263
2.14177,30.56,-668,2153047,31.8525,16403,263
2.72039,29.6844,-667,2153048,31.8525,16403,263
1.37067,22.4264,-666,2153049,31.8027,16403,263
2.00612,14.492,-665,2153050,31.8525,16403,263
2.3539,6.04094,-664,2153051,31.9521,16403,263
1.09619,3.1074,-663,2153052,31.7032,16403,263
1.87846,5.6351,-662,2153053,31.7032,16405,260
1.91615,11.0337,-661,2153054,31.7032,16405,260
1.76323,12.9308,-660,2153055,31.7032,16405,260
1.57466,12.8933,-659,2153056,31.8027,16405,260
2.25034,16.0767,-658,2153057,31.8027,16405,260
2.02269,16.5742,-657,2153058,31.8027,16405,260
1.40163,19.2341,-656,2153059,31.8027,16405,260
2.32946,20.9026,-655,2153060,31.7032,16405,260
1.62826,20.4955,-654,2153061,31.6534,16405,260
1.33185,17.7678,-653,2153062,31.6534,16405,260
1.33543,16.5548,-652,2153063,31.8027,16406,258
1.69427,18.3065,-651,2153064,31.6534,16406,258
1.01016,17.9817,-650,2153065,31.8027,16406,258
2.32946,19.8138,-649,2153066,31.6534,16406,258
1.8606,15.7305,-648,2153067,31.504,16406,258
1.85547,7.92235,-647,2153068,31.8525,16406,258
1.73047,6.85009,-646,2153069,31.7032,16406,258
1.74966,8.18053,-645,2153070,31.6534,16406,258
2.60945,6.53504,-644,2153071,31.6534,16406,258
2.12388,17.8444,-643,2153072,31.6534,16406,258
1.5987,26.0268,-642,2153073,31.8525,16399,261
2.0739,30.3138,-641,2153074,31.8027,16399,261
1.09183,30.0219,-640,2153075,31.7032,16399,261
1.5034,25.2842,-639,2153076,31.8027,16399,261
1.14304,17.3748,-638,2153077,31.7032,16399,261
2.03209,7.54568,-637,2153078,31.6534,16399,261
1.58973,11.2609,-636,2153079,31.6534,16399,261
1.47781,19.4915,-635,2153080,31.6534,16399,261
2.74308,24.1277,-634,2153081,31.7032,16399,261
2.44336,20.3367,-633,2153082,31.8027,16399,261
1.19604,12.2052,-632,2153083,31.8027,16401,260
1.70829,6.2459,-631,2153084,31.504,16401,260
2.01324,3.38731,-630,2153085,31.6036,16401,260
1.94088,12.1354,-629,2153086,31.7032,16401,260
2.62403,20.0244,-628,2153087,31.8525,16401,260
2.40995,25.5442,-627,2153088,31.8027,16401,260
2.19672,28.246,-626,2153089,31.9521,16401,260
1.28447,28.7164,-625,2153090,31.6534,16401,260
1.83479,25.2544,-624,2153091,31.6534,16401,260
1.5807,18.0833,-623,2153092,31.7032,16401,260
1.81651,10.4047,-622,2153093,31.6534,16405,260
1.88858,7.41621,-621,2153094,31.8027,16405,260
1.81651,10.8649,-620,2153095,31.7032,16405,260
1.70829,13.0381,-619,2153096,31.8525,16405,260
1.22363,12.5566,-618,2153097,31.8027,16405,260
1.69708,15.6198,-617,2153098,31.6534,16405,260
2.45115,22.1436,-616,2153099,31.6534,16405,260
1.5807,26.8452,-615,2153100,31.6534,16405,260
0.916097,29.1942,-614,2153101,31.6534,16405,260
2.50313,25.7768,-613,2153102,31.7032,16405,260
2.40203,19.9573,-612,2153103,31.6534,16403,261
0.41432,16.08,-611,2153104,31.7032,16403,261
1.27702,17.8778,-610,2153105,31.6036,16403,261
2.56336,17.514,-609,2153106,31.6534,16403,261
1.77401,13.049,-608,2153107,31.8525,16403,261
2.75176,9.53165,-607,2153108,31.8525,16403,261
1.92856,6.11084,-606,2153109,31.8027,16403,261
2.58559,3.35638,-605,2153110,31.8027,16403,261
2.02504,7.5723,-604,2153111,31.6534,16403,261
3.18096,21.3026,-603,2153112,31.8027,16403,261
1.60466,31.6664,-602,2153113,31.8027,16401,259
2.09677,34.5107,-601,2153114,31.6534,16401,259
1.82437,29.6651,-600,2153115,31.8027,16401,259
2.1573,20.5281,-599,2153116,31.6534,16401,259
1.92608,9.73353,-598,2153117,31.6036,16401,259
2.76903,2.27392,-597,2153118,31.4543,16401,259
1.45176,4.83528,-596,2153119,31.7032,16401,259
1.38452,7.44128,-595,2153120,31.8027,16401,259
1.73047,10.4118,-594,2153121,31.8027,16401,259
1.19205,12.9314,-593,2153122,31.6036,16401,259
1.25061,16.7863,-592,2153123,31.8027,16395,261
1.59572,19.7957,-591,2153124,31.8027,16395,261
1.75238,21.5249,-590,2153125,31.8525,16395,261
1.94579,23.4712,-589,2153126,31.6036,16395,261
1.43857,23.1432,-588,2153127,31.504,16395,261
1.69708,19.4096,-587,2153128,31.4045,16395,261
2.04146,16.6933,-586,2153129,31.6534,16395,261
2.56336,17.7548,-585,2153130,31.6036,16395,261
1.66589,19.7984,-584,2153131,31.8027,16395,261
2.41983,16.1751,-583,2153132,31.8027,16395,261
2.50503,7.49913,-582,2153133,31.8027,16404,262
2.58559,5.26037,-581,2153134,31.7032,16404,262
1.62239,5.07584,-580,2153135,31.6534,16404,262
1.45505,0.999189,-579,2153136,31.9521,16404,262
1.70829,10.5864,-578,2153137,31.6534,16404,262
1.61059,23.1503,-577,2153138,31.6534,16404,262
1.46484,30.8123,-576,2153139,31.6534,16404,262
1.54408,32.9748,-575,2153140,31.8027,16404,262
2.14177,29.3083,-574,2153141,31.7032,16404,262
2.45115,21.0846,-573,2153142,31.8027,16404,262
1.50022,11.569,-572,2153143,31.6534,16403,261
2.02504,5.14002,-571,2153144,31.6534,16403,261
1.47781,10.1846,-570,2153145,31.6036,16403,261
2.56336,14.7544,-569,2153146,31.7032,16403,261
2.53342,14.6617,-568,2153147,31.8027,16403,261
1.80334,12.8453,-567,2153148,31.7032,16403,261
2.11488,12.4206,-566,2153149,31.6534,16403,261
1.7551,16.4704,-565,2153150,31.8027,16403,261
2.67443,22.7657,-564,2153151,31.8027,16403,261
2.19238,26.0974,-563,2153152,31.6534,16403,261
2.51073,25.1136,-562,2153153,31.8525,16404,261
0.805294,23.1889,-561,2153154,31.8525,16404,261
1.15548,22.2771,-560,2153155,31.8027,16404,261
1.59273,19.8243,-559,2153156,31.9521,16404,261
1.40163,14.7851,-558,2153157,31.9521,16404,261
1.80598,10.1561,-557,2153158,31.7032,16404,261
2.46086,10.0876,-556,2153159,31.6534,16404,261
2.0716,9.95977,-555,2153160,31.7032,16404,261
1.79273,6.4177,-554,2153161,31.8525,16404,261
2.85884,10.2036,-553,2153162,31.6534,16404,261
2.57635,20.2953,-552,2153163,31.7032,16397,260
1.33185,27.8355,-551,2153164,31.8525,16397,260
2.20539,30.7164,-550,2153165,31.7032,16397,260
2.60762,28.9247,-549,2153166,31.8027,16397,260
1.83479,23.7924,-548,2153167,31.6534,16397,260
1.21188,15.9165,-547,2153168,31.6534,16397,260
1.88099,10.3451,-546,2153169,31.8027,16397,260
2.27143,10.7671,-545,2153170,31.7032,16397,260
2.24822,17.3619,-544,2153171,31.8027,16397,260
1.7551,20.0166,-543,2153172,31.504,16397,260
1.21581,16.3465,-542,2153173,31.6534,16401,262
1.61945,11.3427,-541,2153174,31.504,16401,262
2.40995,5.98518,-540,2153175,31.8027,16401,262
1.958,11.1619,-539,2153176,31.6534,16401,262
3.23447,21.0053,-538,2153177,31.8525,16401,262
1.98461,27.0905,-537,2153178,31.6036,16401,262
1.52231,30.1482,-536,2153179,31.6534,16401,262
1.29923,29.6178,-535,2153180,31.6534,16401,262
1.31745,25.1654,-534,2153181,31.8525,16401,262
2.65654,17.5348,-533,2153182,31.6036,16401,262
2.44921,9.90576,-532,2153183,31.6534,16399,261
2.05078,8.90026,-531,2153184,31.7032,16399,261
2.27352,12.4995,-530,2153185,31.7032,16399,261
2.34985,12.0089,-529,2153186,31.8027,16399,261
1.73047,8.75934,-528,2153187,31.6036,16399,261
1.73047,12.9958,-527,2153188,31.6534,16399,261
1.91864,20.8915,-526,2153189,31.6534,16399,261
1.04725,26.8807,-525,2153190,31.8027,16399,261
1.74966,29.3804,-524,2153191,31.6534,16399,261
1.37415,27.9192,-523,2153192,31.8027,16399,261
1.85804,23.7567,-522,2153193,31.6534,16402,258
1.96529,17.4155,-521,2153194,31.6534,16402,258
1.89614,13.2231,-520,2153195,31.8027,16402,258
2.27352,11.2834,-519,2153196,31.6534,16402,258
1.25442,12.2782,-518,2153197,31.6534,16402,258
1.83739,15.8452,-517,2153198,31.6036,16402,258
2.44921,15.9038,-516,2153199,31.8525,16402,258
2.22905,10.8595,-515,2153200,31.7032,16402,258
1.57163,6.75811,-514,2153201,31.7032,16402,258
1.47134,13.0433,-513,2153202,31.8027,16402,258
2.20323,23.0328,-512,2153203,31.504,16403,261
1.78473,30.0675,-511,2153204,31.9521,16403,261
0.889691,30.9098,-510,2153205,31.6534,16403,261
2.50313,27.921,-509,2153206,31.7032,16403,261
2.23759,21.9245,-508,2153207,31.6534,16403,261
2.02269,13.3916,-507,2153208,31.7032,16403,261
1.62826,8.67043,-506,2153209,31.6534,16403,261
1.96529,11.2643,-505,2153210,31.8027,16403,261
1.90617,12.7082,-504,2153211,31.8027,16403,261
1.97739,13.061,-503,2153212,31.7032,16403,261
1.84774,11.9865,-502,2153213,31.6534,16399,261
2.9893,12.9331,-501,2153214,32.0516,16399,261
2.44336,19.1608,-500,2153215,31.8525,16399,261
3.36595,24.1372,-499,2153216,31.6534,16399,261
1.45176,28.207,-498,2153217,31.6534,16399,261
2.9248,27.8588,-497,2153218,31.8027,16399,261
1.96287,25.4085,-496,2153219,31.8525,16399,261
2.36199,21.5488,-495,2153220,31.8525,16399,261
1.94824,16.9392,-494,2153221,31.8027,16399,261
2.04146,12.8273,-493,2153222,31.7032,16399,261
1.39139,12.1422,-492,2153223,31.504,16400,260
2.53342,14.2347,-491,2153224,31.8027,16400,260
1.85804,13.8796,-490,2153225,31.7032,16400,260
1.54408,9.13817,-489,2153226,31.8027,16400,260
1.58673,8.95284,-488,2153227,31.6534,16400,260
1.61945,18.1696,-487,2153228,31.7032,16400,260
1.20399,26.2896,-486,2153229,31.7032,16400,260
1.96529,30.5522,-485,2153230,31.8027,16400,260
1.74146,29.6254,-484,2153231,31.8027,16400,260
1.63993,24.4997,-483,2153232,31.6534,16400,260
1.49066,17.3653,-482,2153233,31.7032,16400,260
1.68863,10.9149,-481,2153234,31.6036,16400,260
1.60168,10.2902,-480,2153235,31.6036,16400,260
2.0716,11.5426,-479,2153236,31.9521,16400,260
1.80334,11.1779,-478,2153237,31.8027,16400,260
1.88858,11.0357,-477,2153238,31.6534,16400,260
1.25061,9.72664,-476,2153239,31.4543,16400,260
1.958,12.5382,-475,2153240,31.8027,16400,260
1.80334,18.8613,-474,2153241,31.8027,16400,260
1.64863,23.8025,-473,2153242,31.6534,16400,260
1.67446,26.4541,-472,2153243,31.6534,16401,260
1.3102,26.4329,-471,2153244,31.8027,16401,260
2.12613,23.7074,-470,2153245,31.8027,16401,260
1.14304,18.8874,-469,2153246,31.8525,16401,260
1.16371,12.5115,-468,2153247,31.8027,16401,260
2.4974,8.71927,-467,2153248,31.6036,16401,260
1.20399,11.9635,-466,2153249,31.6534,16401,260
2.22905,15.2432,-465,2153250,31.7032,16401,260
2.04146,15.2788,-464,2153251,31.8027,16401,260
1.32827,11.9392,-463,2153252,31.8027,16401,260
1.48103,13.9278,-462,2153253,31.7032,16403,256
2.39805,21.0007,-461,2153254,31.6534,16403,256
2.38009,26.284,-460,2153255,32.0019,16403,256
1.21188,27.7328,-459,2153256,31.8027,16403,256
1.70269,25.2792,-458,2153257,31.6036,16403,256
2.60945,20.7512,-457,2153258,31.7032,16403,256
1.49704,15.9996,-456,2153259,31.8027,16403,256
2.36401,12.2849,-455,2153260,31.6036,16403,256
1.05631,11.5116,-454,2153261,31.8027,16403,256
1.59273,11.3584,-453,2153262,31.8027,16403,256
1.4681,10.8917,-452,2153263,31.6534,16398,260
2.21617,10.2561,-451,2153264,31.8525,16398,260
2.21617,9.07435,-450,2153265,31.7032,16398,260
1.86827,13.328,-449,2153266,31.6036,16398,260
1.29556,21.0493,-448,2153267,31.7032,16398,260
1.25442,27.2507,-447,2153268,31.6534,16398,260
1.79273,29.9269,-446,2153269,31.8027,16398,260
2.05543,28.0788,-445,2153270,31.8027,16398,260
2.84044,22.7011,-444,2153271,31.8525,16398,260
1.59273,15.2827,-443,2153272,31.8027,16398,260
2.17052,9.60097,-442,2153273,31.7032,16399,263
1.6165,12.3719,-441,2153274,31.504,16399,263
2.22262,15.0647,-440,2153275,31.6534,16399,263
1.60168,13.962,-439,2153276,31.6534,16399,263
1.88099,11.9915,-438,2153277,31.8027,16399,263
2.12164,13.3336,-437,2153278,31.6534,16399,263
2.40995,20.9339,-436,2153279,31.6534,16399,263
2.29024,27.4161,-435,2153280,31.8027,16399,263
1.92856,29.2981,-434,2153281,31.7032,16399,263
1.81388,27.1076,-433,2153282,31.8027,16399,263
1.86572,22.3095,-432,2153283,31.8027,16403,260
2.37206,16.6897,-431,2153284,31.6534,16403,260
2.12613,11.0303,-430,2153285,31.8525,16403,260
1.59273,9.12919,-429,2153286,31.6534,16403,260
2.63491,11.0553,-428,2153287,31.8027,16403,260
2.58743,11.0546,-427,2153288,31.6036,16403,260
2.06237,10.1326,-426,2153289,31.8525,16403,260
3.1051,11.2788,-425,2153290,31.8027,16403,260
2.32946,16.1894,-424,2153291,31.8027,16403,260
1.9942,23.6744,-423,2153292,32.0019,16403,260
1.36019,26.972,-422,2153293,31.7032,16406,260
2.25668,27.2447,-421,2153294,31.7032,16406,260
2.48592,24.7896,-420,2153295,31.8027,16406,260
1.91615,18.9783,-419,2153296,31.7032,16406,260
1.66303,12.2879,-418,2153297,31.6534,16406,260
2.23332,7.77713,-417,2153298,31.6534,16406,260
1.27328,8.46872,-416,2153299,31.6534,16406,260
2.25668,12.7871,-415,2153300,31.7032,16406,260
1.98701,13.0444,-414,2153301,31.7032,16406,260
1.65152,11.3761,-413,2153302,31.8525,16406,260
2.75176,13.9438,-412,2153303,31.7032,16406,263
2.11263,19.9128,-411,2153304,31.8027,16406,263
1.94579,24.1702,-410,2153305,31.6534,16406,263
1.58673,26.7125,-409,2153306,31.6534,16406,263
1.96529,24.4619,-408,2153307,31.7032,16406,263
3.14932,18.5752,-407,2153308,31.504,16406,263
2.05543,16.2885,-406,2153309,31.6534,16406,263
1.4118,13.2293,-405,2153310,31.8027,16406,263
1.958,9.35572,-404,2153311,31.6036,16406,263
2.3027,9.32381,-403,2153312,31.6534,16406,263
1.89865,11.0276,-402,2153313,31.6534,16401,259
3.06802,8.05479,-401,2153314,31.8027,16401,259
3.41238,7.80773,-400,2153315,31.8027,16401,259
2.31097,14.6941,-399,2153316,31.6534,16401,259
1.79804,22.3419,-398,2153317,31.8027,16401,259
1.70829,27.8914,-397,2153318,31.6534,16401,259
1.64283,26.3092,-396,2153319,31.7032,16401,259
1.84516,21.9085,-395,2153320,31.7032,16401,259
1.1596,17.7368,-394,2153321,31.8525,16401,259
1.4118,12.2509,-393,2153322,31.8027,16401,259
1.73047,7.34454,-392,2153323,31.6534,16399,262
1.91864,8.14402,-391,2153324,31.6036,16399,262
1.73323,10.2029,-390,2153325,31.8027,16399,262
2.0156,11.0735,-389,2153326,31.8027,16399,262
2.74308,11.5941,-388,2153327,31.8027,16399,262
1.41854,14.0662,-387,2153328,31.6534,16399,262
2.11037,16.9893,-386,2153329,31.7032,16399,262
2.23759,19.9382,-385,2153330,31.7032,16399,262
2.48784,23.311,-384,2153331,31.6534,16399,262
1.92856,24.352,-383,2153332,31.6036,16399,262
1.71664,22.7474,-382,2153333,31.504,16406,258
1.51603,17.3825,-381,2153334,31.6534,16406,258
1.19205,13.9961,-380,2153335,31.6036,16406,258
1.70549,13.1745,-379,2153336,31.6534,16406,258
1.79539,11.1218,-378,2153337,31.6534,16406,258
2.38409,8.65237,-377,2153338,31.8525,16406,258
1.26577,8.23862,-376,2153339,31.8525,16406,258
1.97498,9.27574,-375,2153340,31.6534,16406,258
1.5034,10.3681,-374,2153341,31.6534,16406,258
2.29648,15.9067,-373,2153342,31.7032,16406,258
1.38796,22.0829,-372,2153343,31.8027,16408,258
2.64935,25.1681,-371,2153344,31.7032,16408,258
1.81388,24.524,-370,2153345,31.8525,16408,258
2.39407,21.4132,-369,2153346,31.8027,16408,258
2.91173,15.791,-368,2153347,31.6036,16408,258
1.92608,11.7847,-367,2153348,31.6534,16408,258
2.44336,10.6089,-366,2153349,31.8525,16408,258
2.5221,11.2338,-365,2153350,31.6534,16408,258
2.33764,15.407,-364,2153351,31.7032,16408,258
2.20323,14.3333,-363,2153352,31.6534,16408,258
2.06237,9.18209,-362,2153353,31.7032,16406,259
1.40163,7.93551,-361,2153354,31.504,16406,259
2.19672,12.6353,-360,2153355,31.8525,16406,259
2.06237,19.3681,-359,2153356,31.6534,16406,259
1.33185,24.2751,-358,2153357,31.6534,16406,259
2.58559,25.2216,-357,2153358,31.7032,16406,259
2.19672,23.7062,-356,2153359,31.8027,16406,259
1.25061,18.948,-355,2153360,31.8027,16406,259
1.7551,12.0417,-354,2153361,31.8027,16406,259
1.69708,7.58999,-353,2153362,31.6036,16406,259
1.90867,6.55098,-352,2153363,31.8027,16401,261
1.63993,7.97204,-351,2153364,31.8525,16401,261
2.24397,9.38117,-350,2153365,31.8027,16401,261
2.48976,9.29099,-349,2153366,31.8027,16401,261
1.76052,13.9299,-348,2153367,31.8525,16401,261
0.889691,19.207,-347,2153368,31.8525,16401,261
1.24679,21.6099,-346,2153369,31.7032,16401,261
2.24397,22.8275,-345,2153370,31.8525,16401,261
2.44921,22.5331,-344,2153371,31.8027,16401,261
2.0716,18.6604,-343,2153372,31.504,16401,261
2.3539,14.0688,-342,2153373,31.6534,16402,260
2.0156,11.9323,-341,2153374,31.8525,16402,260
2.59295,11.54,-340,2153375,31.6534,16402,260
1.82698,12.6152,-339,2153376,31.8027,16402,260
2.53342,10.5582,-338,2153377,31.8027,16402,260
2.3027,7.0948,-337,2153378,31.6534,16402,260
2.14844,8.20509,-336,2153379,31.8027,16402,260
2.34782,11.29,-335,2153380,31.8027,16402,260
1.84774,17.6951,-334,2153381,31.7032,16402,260
1.98461,23.9973,-333,2153382,31.6534,16402,260
2.14399,25.4472,-332,2153383,31.8525,16404,263
2.31921,23.6911,-331,2153384,31.8027,16404,263
1.33185,19.7961,-330,2153385,31.504,16404,263
1.76323,14.4997,-329,2153386,31.8525,16404,263
1.958,9.05874,-328,2153387,31.7032,16404,263
1.66589,6.40608,-327,2153388,31.7032,16404,263
1.70829,6.45474,-326,2153389,31.8027,16404,263
2.59295,8.96781,-325,2153390,31.6534,16404,263
1.89614,11.1385,-324,2153391,31.8027,16404,263
2.43358,10.9101,-323,2153392,31.6534,16404,263
2.51073,14.5755,-322,2153393,31.6534,16402,263
1.958,19.3095,-321,2153394,31.6534,16402,263
2.15066,22.0326,-320,2153395,31.6534,16402,263
1.59273,23.805,-319,2153396,31.8027,16402,263
1.13045,21.8055,-318,2153397,31.6534,16402,263
2.21402,18.7802,-317,2153398,31.8525,16402,263
1.54099,16.6338,-316,2153399,31.8525,16402,263
1.85547,13.4311,-315,2153400,31.504,16402,263
0.425674,9.44291,-314,2153401,31.7032,16402,263
2.48976,8.59795,-313,2153402,31.6534,16402,263
2.60579,7.77713,-312,2153403,31.6534,16402,265
0.995902,6.23635,-311,2153404,31.8027,16402,265
2.63672,7.83726,-310,2153405,31.8027,16402,265
1.80334,14.9968,-309,2153406,31.7032,16402,265
2.25668,22.5926,-308,2153407,32.0019,16402,265
1.68298,26.0734,-307,2153408,32.0019,16402,265
1.81651,24.73,-306,2153409,31.8027,16402,265
1.61355,20.9065,-305,2153410,31.8027,16402,265
2.23118,15.1003,-304,2153411,32.0019,16402,265
2.15287,9.88845,-303,2153412,31.7032,16402,265
2.87216,7.88465,-302,2153413,31.8525,16391,258
1.27702,8.81192,-301,2153414,31.6036,16391,258
1.59273,9.75799,-300,2153415,31.8525,16391,258
2.9248,9.02495,-299,2153416,31.6036,16391,258
2.06237,9.82192,-298,2153417,31.6534,16391,258
1.46484,12.6141,-297,2153418,31.8027,16391,258
2.47439,15.6412,-296,2153419,31.6534,16391,258
2.75176,18.4504,-295,2153420,31.6534,16391,258
1.43525,20.9414,-294,2153421,31.6534,16391,258
0.905627,20.9328,-293,2153422,31.7032,16391,258
1.74966,18.6132,-292,2153423,31.6534,16402,260
2.14177,14.5668,-291,2153424,31.8525,16402,260
1.99897,10.4746,-290,2153425,31.6534,16402,260
2.40995,8.13944,-289,2153426,31.504,16402,260
1.07865,7.92423,-288,2153427,31.6036,16402,260
2.85216,8.94868,-287,2153428,31.6534,16402,260
2.38009,10.4482,-286,2153429,31.7032,16402,260
2.58005,11.7562,-285,2153430,31.6534,16402,260
2.1771,14.1438,-284,2153431,31.504,16402,260
2.73612,17.6437,-283,2153432,31.6534,16402,260
2.12613,19.8074,-282,2153433,31.6534,16395,262
1.90867,19.1915,-281,2153434,31.7032,16395,262
1.86572,16.6741,-280,2153435,31.6534,16395,262
1.16371,13.4897,-279,2153436,31.7032,16395,262
2.09677,11.0296,-278,2153437,31.8027,16395,262
2.27772,10.1766,-277,2153438,31.6534,16395,262
1.17188,9.4508,-276,2153439,31.8027,16395,262
1.74146,9.33579,-275,2153440,31.8027,16395,262
1.49385,11.1352,-274,2153441,31.8027,16395,262
1.52856,11.7727,-273,2153442,31.7032,16395,262
1.7551,11.551,-272,2153443,31.6534,16401,260
2.38009,12.6924,-271,2153444,31.504,16401,260
0.905627,14.1969,-270,2153445,31.6534,16401,260
1.53789,15.6426,-269,2153446,31.7032,16401,260
1.31383,16.922,-268,2153447,31.6036,16401,260
0.840071,16.4985,-267,2153448,31.7032,16401,260
1.82698,14.2551,-266,2153449,31.8027,16401,260
1.11773,11.5096,-265,2153450,31.8027,16401,260
1.63993,9.42633,-264,2153451,31.6534,16401,260
2.93294,8.12295,-263,2153452,31.6534,16401,260
2.68333,9.19587,-262,2153453,31.8027,16402,260
1.88353,11.6358,-261,2153454,31.7032,16402,260
2.51263,12.8603,-260,2153455,31.4543,16402,260
2.45115,13.7056,-259,2153456,31.6036,16402,260
2.41983,14.5791,-258,2153457,31.6534,16402,260
1.96287,15.3649,-257,2153458,31.8027,16402,260
1.49385,14.765,-256,2153459,31.7032,16402,260
1.67446,13.2118,-255,2153460,31.6534,16402,260
2.0716,11.5452,-254,2153461,31.6534,16402,260
1.71386,11.9623,-253,2153462,31.8027,16402,260
3.00521,12.562,-252,2153463,31.8027,16405,262
2.38009,12.6847,-251,2153464,31.7032,16405,262
1.67161,13.1847,-250,2153465,31.7032,16405,262
2.2819,13.2017,-249,2153466,31.7032,16405,262
2.70985,12.3587,-248,2153467,31.504,16405,262
2.51643,11.2285,-247,2153468,31.8027,16405,262
1.88353,10.5009,-246,2153469,31.7032,16405,262
1.99897,11.571,-245,2153470,31.8027,16405,262
2.78449,13.1932,-244,2153471,31.7032,16405,262
2.82529,14.1759,-243,2153472,31.6534,16405,262
1.92112,14.7952,-242,2153473,31.8027,16400,259
1.83479,14.7609,-241,2153474,31.7032,16400,259
1.77132,12.7918,-240,2153475,31.7032,16400,259
1.52231,11.4134,-239,2153476,31.8027,16400,259
1.28817,11.1171,-238,2153477,31.6534,16400,259
1.25442,10.5356,-237,2153478,31.8027,16400,259
2.00136,9.30621,-236,2153479,31.7032,16400,259
1.68298,10.9972,-235,2153480,31.8027,16400,259
1.65152,13.0946,-234,2153481,31.8027,16400,259
1.94824,13.3883,-233,2153482,31.8027,16400,259
1.82698,14.0619,-232,2153483,31.6534,16401,258
2.19672,14.9081,-231,2153484,31.8525,16401,258
2.31715,14.6454,-230,2153485,31.6534,16401,258
1.63993,13.8198,-229,2153486,31.6534,16401,258
1.22752,13.4615,-228,2153487,31.8027,16401,258
2.15951,13.7051,-227,2153488,31.6534,16401,258
1.09619,13.3169,-226,2153489,31.7032,16401,258
1.36019,11.6403,-225,2153490,31.8027,16401,258
1.57163,9.30301,-224,2153491,31.7032,16401,258
1.82698,8.68074,-223,2153492,31.7032,16401,258
1.59273,9.83026,-222,2153493,31.6534,16402,262
2.3027,11.1839,-221,2153494,31.8027,16402,262
1.82698,13.1156,-220,2153495,31.7032,16402,262
1.74146,16.0415,-219,2153496,31.6534,16402,262
2.44336,18.5024,-218,2153497,31.6534,16402,262
2.14622,18.1987,-217,2153498,31.8027,16402,262
0.966748,15.5753,-216,2153499,31.7032,16402,262
2.20323,12.3894,-215,2153500,31.6534,16402,262
2.27981,9.60097,-214,2153501,31.6036,16402,262
1.52856,8.19691,-213,2153502,31.8027,16402,262
2.51073,9.80066,-212,2153503,31.6534,16400,261
1.1596,11.3716,-211,2153504,31.6534,16400,261
0.921287,12.3351,-210,2153505,31.6534,16400,261
2.69397,12.9487,-209,2153506,31.8027,16400,261
1.89865,13.5327,-208,2153507,31.8525,16400,261
2.50313,15.0226,-207,2153508,31.8027,16400,261
1.42525,15.8226,-206,2153509,31.8027,16400,261
1.12198,15.6083,-205,2153510,32.0516,16400,261
1.77938,15.5615,-204,2153511,31.6036,16400,261
1.73047,15.1746,-203,2153512,31.6534,16400,261
2.44336,13.781,-202,2153513,31.6534,16404,260
1.45505,12.1465,-201,2153514,31.7032,16404,260
2.19672,10.7623,-200,2153515,31.6534,16404,260
1.96529,9.53712,-199,2153516,31.7032,16404,260
2.59663,8.6773,-198,2153517,31.6534,16404,260
2.55217,9.41209,-197,2153518,31.7032,16404,260
2.1771,10.9333,-196,2153519,31.7032,16404,260
1.80334,13.3883,-195,2153520,31.7032,16404,260
2.75176,16.0619,-194,2153521,31.7032,16404,260
2.13508,17.4137,-193,2153522,31.6534,16404,260
2.05078,16.9678,-192,2153523,31.6534,16403,260
1.74146,15.1697,-191,2153524,31.8027,16403,260
1.33185,12.6589,-190,2153525,31.8027,16403,260
1.49385,10.738,-189,2153526,31.6534,16403,260
1.80334,9.43344,-188,2153527,31.6036,16403,260
1.27328,9.7641,-187,2153528,32.0019,16403,260
2.11488,11.4421,-186,2153529,31.7032,16403,260
2.0156,13.0843,-185,2153530,31.6534,16403,260
2.09222,14.3208,-184,2153531,31.6534,16403,260
1.08306,13.8074,-183,2153532,31.8027,16403,260
2.15951,11.9859,-182,2153533,31.8027,16400,263
1.54717,11.1191,-181,2153534,31.8027,16400,263
1.90617,11.5381,-180,2153535,31.8027,16400,263
1.21581,13.1491,-179,2153536,31.8525,16400,263
2.60579,14.5207,-178,2153537,31.7032,16400,263
2.59663,15.6655,-177,2153538,31.7032,16400,263
1.86827,15.0667,-176,2153539,31.6534,16400,263
1.98701,13.0758,-175,2153540,32.0019,16400,263
2.0716,10.4902,-174,2153541,31.8525,16400,263
1.74966,8.95783,-173,2153542,31.8525,16400,263
1.45505,8.84062,-172,2153543,31.8027,16399,260
1.76052,11.7929,-171,2153544,31.8027,16399,260
1.91864,15.0914,-170,2153545,31.7032,16399,260
2.31715,15.3857,-169,2153546,31.504,16399,260
1.65152,13.6413,-168,2153547,31.6534,16399,260
1.98461,12.5477,-167,2153548,31.504,16399,260
2.12613,12.0806,-166,2153549,31.8027,16399,260
2.55404,12.9774,-165,2153550,31.7032,16399,260
2.65833,14.961,-164,2153551,31.6534,16399,260
1.13045,16.2174,-163,2153552,31.8027,16399,260
1.94824,15.5782,-162,2153553,31.7032,16400,261
1.55638,12.6087,-161,2153554,32.0019,16400,261
1.27702,10.5165,-160,2153555,31.6036,16400,261
1.89865,11.321,-159,2153556,31.6534,16400,261
2.28816,11.646,-158,2153557,31.9521,16400,261
2.06237,11.0323,-157,2153558,31.8525,16400,261
2.82022,10.5306,-156,2153559,31.6534,16400,261
2.44726,10.9313,-155,2153560,31.9521,16400,261
1.55638,12.6542,-154,2153561,31.8525,16400,261
1.73047,15.3634,-153,2153562,31.7032,16400,261
1.94088,18.2739,-152,2153563,31.8525,16400,256
1.39481,19.8044,-151,2153564,31.6534,16400,256
1.80598,18.3114,-150,2153565,31.8027,16400,256
2.11037,14.0979,-149,2153566,31.8027,16400,256
2.08079,8.64203,-148,2153567,32.0019,16400,256
2.30477,4.06331,-147,2153568,31.6534,16400,256
2.26301,6.0864,-146,2153569,31.7032,16400,256
2.58559,11.2523,-145,2153570,32.0019,16400,256
2.15287,14.4177,-144,2153571,31.7032,16400,256
2.7028,15.5437,-143,2153572,31.6534,16400,256
2.41588,15.1731,-142,2153573,31.8027,16404,257
2.21402,15.4283,-141,2153574,31.6534,16404,257
1.32827,15.7858,-140,2153575,31.504,16404,257
2.03444,16.5912,-139,2153576,31.8525,16404,257
2.45504,17.2573,-138,2153577,31.8027,16404,257
1.82437,16.7846,-137,2153578,31.6534,16404,257
1.74146,13.3944,-136,2153579,31.8027,16404,257
1.71664,8.54143,-135,2153580,31.6534,16404,257
2.30477,6.09985,-134,2153581,31.7032,16404,257
1.59273,7.10109,-133,2153582,31.6534,16404,257
1.50022,8.58407,-132,2153583,31.8027,16400,260
1.5987,11.5323,-131,2153584,31.7032,16400,260
1.26577,14.5207,-130,2153585,31.7032,16400,260
2.3539,17.5696,-129,2153586,31.6534,16400,260
1.59273,18.8988,-128,2153587,31.8027,16400,260
2.37206,18.0887,-127,2153588,31.6036,16400,260
1.87592,16.9009,-126,2153589,32.0019,16400,260
1.83739,16.4288,-125,2153590,31.7032,16400,260
2.28816,15.0132,-124,2153591,31.6534,16400,260
1.01956,10.8251,-123,2153592,31.6534,16400,260
2.39606,6.16062,-122,2153593,31.7032,16402,260
1.4118,4.29507,-121,2153594,31.8525,16402,260
1.40163,7.94114,-120,2153595,31.8027,16402,260
1.82437,11.8735,-119,2153596,31.8027,16402,260
1.84516,15.2666,-118,2153597,31.7032,16402,260
2.25668,16.7054,-117,2153598,31.6534,16402,260
2.00136,17.0379,-116,2153599,31.8027,16402,260
1.73047,16.5683,-115,2153600,31.8027,16402,260
2.0739,14.9948,-114,2153601,31.7032,16402,260
1.93596,14.5064,-113,2153602,31.8027,16402,260
1.44518,15.9488,-112,2153603,32.0019,16405,261
1.90116,16.5769,-111,2153604,31.6534,16405,261
1.10916,13.535,-110,2153605,31.6534,16405,261
1.96287,9.31021,-109,2153606,31.6534,16405,261
1.57769,5.53236,-108,2153607,31.8027,16405,261
1.77132,5.63246,-107,2153608,31.6534,16405,261
1.23912,9.13654,-106,2153609,31.8027,16405,261
2.18584,13.6942,-105,2153610,31.8525,16405,261
2.3539,17.7662,-104,2153611,31.6534,16405,261
1.28817,19.8021,-103,2153612,31.6534,16405,261
1.25442,18.8594,-102,2153613,31.8525,16403,261
1.88099,16.2294,-101,2153614,31.8525,16403,261
0.750112,14.1438,-100,2153615,31.8027,16403,261
2.18584,13.5641,-99,2153616,31.6036,16403,261
1.69708,12.9233,-98,2153617,31.7032,16403,261
2.09677,10.7761,-97,2153618,31.7032,16403,261
2.05078,8.11653,-96,2153619,31.6534,16403,261
1.51603,6.68829,-95,2153620,31.6534,16403,261
2.91337,8.95284,-94,2153621,31.504,16403,261
2.36199,12.921,-93,2153622,31.8027,16403,261
2.42573,15.7111,-92,2153623,31.8027,16400,260
1.68581,16.9207,-91,2153624,31.6534,16400,260
0.905627,17.5556,-90,2153625,31.8027,16400,260
2.45115,17.4291,-89,2153626,31.8525,16400,260
1.85547,15.8677,-88,2153627,31.8525,16400,260
1.33185,14.596,-87,2153628,31.504,16400,260
2.78962,14.5207,-86,2153629,31.7032,16400,260
1.40163,15.1106,-85,2153630,31.6036,16400,260
1.24296,13.3381,-84,2153631,31.7032,16400,260
1.80334,8.81868,-83,2153632,31.6534,16400,260
1.58973,6.28751,-82,2153633,31.6534,16395,261
3.0163,7.70882,-81,2153634,31.8027,16395,261
2.23332,10.3364,-80,2153635,31.7032,16395,261
2.63491,14.6632,-79,2153636,31.8027,16395,261
2.01324,18.0606,-78,2153637,31.8027,16395,261
1.10916,20.0005,-77,2153638,31.6534,16395,261
1.73047,19.9748,-76,2153639,31.8027,16395,261
1.9942,17.1807,-75,2153640,31.6036,16395,261
2.45698,14.3779,-74,2153641,31.8027,16395,261
2.14622,13.7398,-73,2153642,31.8027,16395,261
1.68298,13.7945,-72,2153643,31.8525,16399,261
1.57769,11.8741,-71,2153644,31.8525,16399,261
1.41517,8.91531,-70,2153645,31.6534,16399,261
1.89614,7.28035,-69,2153646,31.8027,16399,261
2.39606,6.93226,-68,2153647,31.6036,16399,261
1.66016,9.13327,-67,2153648,31.6534,16399,261
2.37809,12.5614,-66,2153649,31.7032,16399,261
2.08765,15.7721,-65,2153650,31.7032,16399,261
2.16832,20.9439,-64,2153651,31.8027,16399,261
2.32946,24.3468,-63,2153652,31.8027,16399,261
1.60168,23.1451,-62,2153653,31.8027,16403,258
1.67161,18.8574,-61,2153654,31.7032,16403,258
1.83219,13.4477,-60,2153655,31.8525,16403,258
2.0156,10.3968,-59,2153656,31.6534,16403,258
1.5807,12.6706,-58,2153657,31.7032,16403,258
1.82437,10.0016,-57,2153658,31.8525,16403,258
0.793363,5.17613,-56,2153659,31.6534,16403,258
1.97498,5.98643,-55,2153660,31.8027,16403,258
1.32827,13.037,-54,2153661,31.8027,16403,258
1.85547,19.6825,-53,2153662,31.6534,16403,258
1.98461,22.1328,-52,2153663,31.6534,16404,260
2.52021,21.3623,-51,2153664,31.4543,16404,260
2.54844,18.1212,-50,2153665,31.8525,16404,260
0.840071,16.8886,-49,2153666,31.8027,16404,260
1.36019,14.5279,-48,2153667,31.7032,16404,260
1.88858,10.301,-47,2153668,31.6534,16404,260
1.22363,5.98643,-46,2153669,31.6036,16404,260
2.43358,7.13041,-45,2153670,31.8027,16404,260
1.77401,9.79914,-44,2153671,31.504,16404,260
1.37415,12.349,-43,2153672,31.6534,16404,260
1.74966,13.236,-42,2153673,31.8027,16404,261
1.57769,13.2681,-41,2153674,31.8027,16404,261
2.22905,18.0557,-40,2153675,31.8027,16404,261
1.80598,20.9869,-39,2153676,31.8027,16404,261
2.97812,22.4125,-38,2153677,31.7032,16404,261
1.94824,19.012,-37,2153678,31.7032,16404,261
2.48976,12.6912,-36,2153679,31.8525,16404,261
2.96528,5.62186,-35,2153680,31.6534,16404,261
1.97739,5.47142,-34,2153681,31.8027,16404,261
2.87382,13.7907,-33,2153682,31.8525,16404,261
1.68863,15.7565,-32,2153683,31.7032,16400,259
1.05631,15.832,-31,2153684,31.6534,16400,259
1.78206,12.8679,-30,2153685,31.7032,16400,259
2.24397,10.3544,-29,2153686,31.6534,16400,259
2.23759,9.42395,-28,2153687,31.6036,16400,259
2.18366,10.2779,-27,2153688,31.8027,16400,259
2.41588,17.5259,-26,2153689,31.6036,16400,259
1.42859,27.3495,-25,2153690,31.8027,16400,259
1.86572,29.4296,-24,2153691,31.8027,16400,259
1.60168,19.5728,-23,2153692,31.8027,16400,259
1.83739,12.717,-22,2153693,31.6534,16401,259
1.61945,17.3155,-21,2153694,31.6534,16401,259
1.56859,17.7485,-20,2153695,31.6534,16401,259
1.82698,12.0806,-19,2153696,31.6036,16401,259
2.60945,9.55663,-18,2153697,31.8525,16401,259
2.0156,20.0467,-17,2153698,31.8027,16401,259
2.48208,25.1079,-16,2153699,31.6534,16401,259
1.958,21.5964,-15,2153700,31.8525,16401,259
1.04268,19.8791,-14,2153701,31.6534,16401,259
1.64863,23.4187,-13,2153702,31.8027,16401,259
1.6341,22.0136,-12,2153703,31.8027,16399,259
1.7551,13.1281,-11,2153704,31.8525,16399,259
2.19238,7.34149,-10,2153705,31.8027,16399,259
1.92608,8.12387,-9,2153706,32.0019,16399,259
1.58973,6.06064,-8,2153707,31.6534,16399,259
0.768946,7.01772,-7,2153708,32.0019,16399,259
1.1472,14.5223,-6,2153709,31.8027,16399,259
1.33185,15.3178,-5,2153710,31.7032,16399,259
1.92112,15.9684,-4,2153711,31.6534,16399,259
0.966748,19.262,-3,2153712,31.8027,16399,259
2.1573,23.8275,-2,2153713,31.6036,16403,257
2.01324,23.8893,-1,2153714,31.8027,16403,257
53.0593,18.9488,0,2153715,31.8027,16403,257
2.26722,12.5412,1,2153716,31.8027,16403,257
1.94333,10.7657,2,2153717,31.6534,16403,257
1.79539,10.4475,3,2153718,31.7032,16403,257
2.44921,5.12986,4,2153719,31.6036,16403,257
1.66303,4.11071,5,2153720,31.8027,16403,257
1.34255,10.8402,6,2153721,31.7032,16403,257
1.88858,20.5908,7,2153722,31.7032,16403,257
2.23759,29.1822,8,2153723,31.6534,16405,260
1.86316,31.334,9,2153724,31.8525,16405,260
1.87592,25.137,10,2153725,31.8027,16405,260
0.905627,15.3075,11,2153726,31.7032,16405,260
1.94579,6.46051,12,2153727,31.6534,16405,260
2.01324,3.78615,13,2153728,31.8027,16405,260
1.6165,3.96306,14,2153729,31.7032,16405,260
1.98461,5.4263,15,2153730,31.8027,16405,260
2.30684,14.6962,16,2153731,32.0019,16405,260
1.41854,20.6396,17,2153732,31.8525,16405,260
1.37067,18.5667,18,2153733,31.6534,16404,260
1.96772,16.2757,19,2153734,31.8525,16404,260
1.45176,19.6154,20,2153735,31.8027,16404,260
1.13886,23.0277,21,2153736,31.504,16404,260
1.78206,23.294,22,2153737,31.8525,16404,260
2.00136,21.2588,23,2153738,31.7032,16404,260
1.19604,17.1742,24,2153739,31.6534,16404,260
2.50122,10.9197,25,2153740,31.8525,16404,260
1.90867,5.68512,26,2153741,31.504,16404,260
1.94824,6.87615,27,2153742,31.7032,16404,260
2.29648,7.97298,28,2153743,31.8525,16403,257
2.19672,7.68461,29,2153744,31.6534,16403,257
1.92608,9.69902,30,2153745,31.8027,16403,257
1.54408,15.037,31,2153746,31.8525,16403,257
1.8606,22.4191,32,2153747,31.6534,16403,257
2.44921,27.4493,33,2153748,31.6036,16403,257
1.67161,27.0054,34,2153749,31.8525,16403,257
1.85547,22.9684,35,2153750,31.4045,16403,257
2.01324,15.5835,36,2153751,31.6534,16403,257
1.31745,4.38944,37,2153752,31.8525,16403,257
1.84257,8.87679,38,2153753,31.8027,16405,262
1.57769,15.4837,39,2153754,31.6534,16405,262
1.81388,17.4761,40,2153755,31.8027,16405,262
1.54408,19.9647,41,2153756,31.7032,16405,262
2.27981,20.6879,42,2153757,31.8525,16405,262
2.14399,17.5993,43,2153758,31.504,16405,262
1.47134,12.2618,44,2153759,31.7032,16405,262
1.24296,7.16897,45,2153760,31.7032,16405,262
2.46086,4.4451,46,2153761,31.7032,16405,262
2.23118,9.63273,47,2153762,31.7032,16405,262
1.88858,17.1007,48,2153763,31.8027,16405,257
1.19604,22.7067,49,2153764,31.6534,16405,257
1.61059,24.3373,50,2153765,31.7032,16405,257
1.44518,22.1257,51,2153766,31.6534,16405,257
2.53154,15.5729,52,2153767,31.8027,16405,257
1.94824,7.74064,53,2153768,31.6036,16405,257
2.21832,3.27549,54,2153769,31.7032,16405,257
2.26301,12.174,55,2153770,31.6534,16405,257
1.958,19.8296,56,2153771,31.7032,16405,257
1.73323,24.042,57,2153772,31.7032,16405,257
2.60213,24.6044,58,2153773,31.8525,16401,260
1.4681,20.0262,59,2153774,31.6534,16401,260
1.82698,12.7398,60,2153775,31.8027,16401,260
1.34255,10.4311,61,2153776,31.6534,16401,260
1.5807,8.24585,62,2153777,31.8027,16401,260
1.79804,3.69048,63,2153778,31.6534,16401,260
2.23972,11.5928,64,2153779,31.8027,16401,260
1.70549,18.9744,65,2153780,31.7032,16401,260
2.57079,22.9057,66,2153781,31.7032,16401,260
1.43857,23.4089,67,2153782,31.6534,16401,260
2.49167,18.632,68,2153783,31.8027,16402,260
2.63129,13.466,69,2153784,31.6534,16402,260
1.77132,8.96448,70,2153785,31.6534,16402,260
2.45698,4.62741,71,2153786,31.7032,16402,260
1.67161,10.8732,72,2153787,31.6534,16402,260
2.19672,15.6517,73,2153788,31.6036,16402,260
1.10916,18.8313,74,2153789,31.7032,16402,260
1.91615,20.0801,75,2153790,31.7032,16402,260
2.0693,17.2232,76,2153791,31.6534,16402,260
2.68333,14.1985,77,2153792,31.6534,16402,260
1.06082,11.7695,78,2153793,31.8525,16402,263
2.30684,8.93118,79,2153794,31.7032,16402,263
1.84516,12.6076,80,2153795,31.6036,16402,263
1.24296,16.5264,81,2153796,31.6534,16402,263
1.27702,16.6509,82,2153797,31.6534,16402,263
1.94579,16.0883,83,2153798,31.7032,16402,263
1.34255,14.0577,84,2153799,31.8027,16402,263
1.62826,13.6577,85,2153800,31.8027,16402,263
2.18366,13.8457,86,2153801,31.8027,16402,263
1.27702,11.3032,87,2153802,31.7032,16402,263
2.0156,13.7723,88,2153803,31.6534,16400,260
1.42859,21.0503,89,2153804,31.8027,16400,260
2.44336,25.1894,90,2153805,31.8027,16400,260
1.87846,23.4645,91,2153806,31.6534,16400,260
1.02423,15.9917,92,2153807,31.8027,16400,260
1.62239,6.59293,93,2153808,31.6534,16400,260
1.83739,9.88543,94,2153809,31.7032,16400,260
2.40797,13.1847,95,2153810,31.6534,16400,260
2.09222,11.1593,96,2153811,31.6534,16400,260
2.05078,14.7119,97,2153812,31.8027,16400,260
2.11037,22.3509,98,2153813,31.8027,16403,260
2.36401,27.5284,99,2153814,31.8027,16403,260
1.79804,25.6162,100,2153815,31.6534,16403,260
