Linear acceleration,Rotational velocity,Time values,Absolute time values,Temperature,Ambient light,Reflected light
2.12613,235.7685,-2000,36418,29.7617,14692,1732
1.35668,245.3264,-1999,36419,29.7617,14692,1732
2.27143,252.6757,-1998,36420,29.6123,14692,1732
1.64283,271.2773,-1997,36421,29.6123,14692,1732
2.54094,304.7414,-1996,36422,29.463,14692,1732
1.94088,340.6674,-1995,36423,29.5128,14694,1723
2.37005,359.6116,-1994,36424,29.5128,14694,1723
2.43358,357.6415,-1993,36425,29.5128,14694,1723
1.8529,349.1006,-1992,36426,29.8114,14694,1723
1.02423,355.222,-1991,36427,29.6621,14694,1723
2.14177,371.9531,-1990,36428,29.5128,14694,1723
1.86827,384.8798,-1989,36429,29.8114,14694,1723
1.70549,388.6935,-1988,36430,29.8612,14694,1723
1.57466,383.5617,-1987,36431,29.6123,14694,1723
2.8236,382.506,-1986,36432,29.6123,14694,1723
2.32332,392.2386,-1985,36433,29.8114,14689,1724
2.85049,405.6856,-1984,36434,29.6621,14689,1724
2.12613,420.6199,-1983,36435,29.6621,14689,1724
2.40203,429.5291,-1982,36436,29.6123,14689,1724
2.34782,433.5405,-1981,36437,29.7617,14689,1724
2.27981,437.1286,-1980,36438,29.6123,14689,1724
2.19672,444.4014,-1979,36439,29.6621,14689,1724
2.22905,453.1052,-1978,36440,29.6123,14689,1724
1.90617,458.4216,-1977,36441,29.6123,14689,1724
2.47246,461.006,-1976,36442,29.6621,14689,1724
1.68014,463.8817,-1975,36443,29.6621,14689,1728
2.02269,469.7348,-1974,36444,29.5128,14689,1728
2.03209,478.5211,-1973,36445,29.6123,14689,1728
2.02269,483.4559,-1972,36446,29.6123,14689,1728
2.04146,480.814,-1971,36447,29.6621,14689,1728
2.36199,474.3856,-1970,36448,29.6123,14689,1728
1.99659,471.4989,-1969,36449,29.6123,14689,1728
1.38452,474.5824,-1968,36450,29.6123,14689,1728
2.1573,481.287,-1967,36451,29.7617,14689,1728
1.32827,488.062,-1966,36452,29.6621,14689,1728
1.90116,492.6539,-1965,36453,29.6123,14686,1732
2.05078,494.6207,-1964,36454,29.5128,14686,1732
3.23595,496.8722,-1963,36455,29.6621,14686,1732
1.88353,499.8632,-1962,36456,29.6621,14686,1732
2.34782,502.9561,-1961,36457,29.7617,14686,1732
1.84257,505.4404,-1960,36458,29.8114,14686,1732
1.67446,506.1765,-1959,36459,29.6621,14686,1732
1.01016,505.607,-1958,36460,29.6621,14686,1732
2.27143,504.405,-1957,36461,29.6621,14686,1732
2.24609,503.2705,-1956,36462,29.5128,14686,1732
1.19205,501.5217,-1955,36463,29.7617,14687,1747
2.42376,498.5635,-1954,36464,29.8114,14687,1747
1.91366,494.9001,-1953,36465,29.6621,14687,1747
2.20539,490.8263,-1952,36466,29.5128,14687,1747
1.65728,485.683,-1951,36467,29.6621,14687,1747
2.84044,476.61,-1950,36468,29.8114,14687,1747
3.054,463.6793,-1949,36469,29.5128,14687,1747
1.86572,452.495,-1948,36470,29.6123,14687,1747
1.80598,430.2266,-1947,36471,29.6123,14687,1747
1.26953,399.9306,-1946,36472,29.6123,14687,1747
3.28421,380.7833,-1945,36473,29.6621,14691,1767
2.04146,365.0415,-1944,36474,29.6123,14691,1767
3.55071,348.5806,-1943,36475,29.6123,14691,1767
3.15839,335.0155,-1942,36476,29.6123,14691,1767
2.0739,317.8856,-1941,36477,29.463,14691,1767
1.68863,301.7157,-1940,36478,29.6123,14691,1767
2.60213,287.7299,-1939,36479,29.6123,14691,1767
2.87382,278.4862,-1938,36480,29.5128,14691,1767
2.79304,274.8937,-1937,36481,29.8114,14691,1767
2.72389,271.4443,-1936,36482,29.6621,14691,1767
2.80496,270.9185,-1935,36483,29.6123,14693,1787
1.86572,271.9639,-1934,36484,29.8612,14693,1787
2.33151,267.5817,-1933,36485,29.6621,14693,1787
1.60168,263.5403,-1932,36486,29.5128,14693,1787
2.62766,264.6529,-1931,36487,29.4132,14693,1787
2.20323,260.2269,-1930,36488,29.7617,14693,1787
1.96529,251.2939,-1929,36489,29.7617,14693,1787
1.37415,253.4436,-1928,36490,29.5128,14693,1787
2.56893,268.3707,-1927,36491,30.0604,14693,1787
2.19672,277.0911,-1926,36492,29.8612,14693,1787
2.65115,275.312,-1925,36493,29.9608,14695,1795
1.75781,262.0222,-1924,36494,29.8114,14695,1795
2.41193,244.3742,-1923,36495,29.8612,14695,1795
3.07113,244.2426,-1922,36496,29.5128,14695,1795
2.44336,268.8965,-1921,36497,29.7617,14695,1795
2.15951,296.7307,-1920,36498,29.5128,14695,1795
1.90617,307.1408,-1919,36499,29.6621,14695,1795
2.37206,309.4787,-1918,36500,29.7617,14695,1795
2.8986,321.542,-1917,36501,29.5128,14695,1795
2.05078,345.628,-1916,36502,29.6123,14695,1795
3.15537,373.331,-1915,36503,29.5128,14693,1818
2.50313,401.7166,-1914,36504,29.7617,14693,1818
2.68333,438.5049,-1913,36505,29.6123,14693,1818
3.44576,476.9246,-1912,36506,29.6621,14693,1818
4.02765,508.8311,-1911,36507,29.6123,14693,1818
3.62645,530.1208,-1910,36508,29.7617,14693,1818
2.75695,541.8739,-1909,36509,29.8114,14693,1818
2.92643,536.3821,-1908,36510,29.6621,14693,1818
4.13514,526.0699,-1907,36511,29.6123,14693,1818
2.93781,526.8698,-1906,36512,29.6621,14693,1818
1.98461,535.041,-1905,36513,29.6621,14699,1824
2.65474,540.9993,-1904,36514,29.6123,14699,1824
3.53861,541.2747,-1903,36515,29.6123,14699,1824
2.95239,536.7951,-1902,36516,29.5128,14699,1824
3.62908,541.3399,-1901,36517,29.6621,14699,1824
2.76559,555.5935,-1900,36518,29.6621,14699,1824
2.18366,575.9453,-1899,36519,29.5128,14699,1824
2.66729,590.4615,-1898,36520,29.6621,14699,1824
2.00612,596.5189,-1897,36521,29.6621,14699,1824
2.5819,601.6827,-1896,36522,29.7617,14699,1824
2.86551,610.802,-1895,36523,29.6123,14697,1797
1.54717,619.2057,-1894,36524,29.7617,14697,1797
1.33185,628.8872,-1893,36525,29.7617,14697,1797
1.4118,639.5539,-1892,36526,29.6123,14697,1797
1.76323,641.925,-1891,36527,29.6123,14697,1797
1.97739,637.2399,-1890,36528,29.6621,14697,1797
1.70829,632.4877,-1889,36529,29.6123,14697,1797
1.74146,637.7009,-1888,36530,29.6621,14697,1797
1.36719,642.3414,-1887,36531,29.6123,14697,1797
1.76323,640.7327,-1886,36532,29.6621,14697,1797
1.25821,630.0881,-1885,36533,29.6621,14707,1741
1.21188,603.5327,-1884,36534,29.6123,14707,1741
2.44336,584.2306,-1883,36535,29.6123,14707,1741
2.23759,623.9452,-1882,36536,29.8612,14707,1741
1.96287,709.5951,-1881,36537,29.5128,14707,1741
1.69708,774.8201,-1880,36538,29.8612,14707,1741
1.9942,768.2922,-1879,36539,29.6123,14707,1741
1.64863,707.3109,-1878,36540,29.6621,14707,1741
1.73047,640.669,-1877,36541,29.7617,14707,1741
1.85804,605.603,-1876,36542,29.6621,14707,1741
1.958,601.8077,-1875,36543,29.4132,14738,1639
1.31745,608.8911,-1874,36544,29.6123,14738,1639
2.13508,611.0063,-1873,36545,29.6621,14738,1639
1.28447,596.0182,-1872,36546,29.6621,14738,1639
1.55638,566.3083,-1871,36547,29.8114,14738,1639
1.52231,543.6691,-1870,36548,29.6123,14738,1639
1.39139,533.707,-1869,36549,29.6621,14738,1639
1.53789,531.3697,-1868,36550,29.6123,14738,1639
1.86572,529.7051,-1867,36551,29.8114,14738,1639
1.46158,524.1827,-1866,36552,29.6621,14738,1639
1.28817,503.1809,-1865,36553,29.7617,14811,1505
1.19205,480.0094,-1864,36554,29.6123,14811,1505
2.0693,464.8003,-1863,36555,29.6123,14811,1505
1.66589,464.4749,-1862,36556,29.6621,14811,1505
2.14399,477.3018,-1861,36557,29.6621,14811,1505
2.32946,485.6264,-1860,36558,29.7617,14811,1505
1.93596,474.0009,-1859,36559,29.7617,14811,1505
2.06237,438.9441,-1858,36560,29.7617,14811,1505
1.48103,389.7203,-1857,36561,29.7617,14811,1505
1.34255,349.3489,-1856,36562,29.6123,14811,1505
1.66016,322.8229,-1855,36563,29.6621,14925,1432
1.93596,309.9036,-1854,36564,29.7617,14925,1432
0.961803,310.3706,-1853,36565,29.6123,14925,1432
0.750112,316.8819,-1852,36566,29.8612,14925,1432
1.17998,315.1397,-1851,36567,29.6621,14925,1432
1.78206,312.2134,-1850,36568,29.5128,14925,1432
1.17594,324.5913,-1849,36569,29.8114,14925,1432
0.828641,351.3464,-1848,36570,29.6123,14925,1432
1.72772,377.8944,-1847,36571,29.2638,14925,1432
1.95556,387.4341,-1846,36572,29.7617,14925,1432
1.70269,381.6142,-1845,36573,29.6123,14995,1397
3.25211,372.7683,-1844,36574,29.5128,14995,1397
1.4118,355.529,-1843,36575,29.7617,14995,1397
1.51917,337.4801,-1842,36576,29.5128,14995,1397
1.28817,325.6675,-1841,36577,29.6621,14995,1397
1.96529,323.3622,-1840,36578,29.6123,14995,1397
2.30063,326.5293,-1839,36579,29.6123,14995,1397
2.29024,325.7149,-1838,36580,29.6621,14995,1397
1.83739,320.4993,-1837,36581,29.6123,14995,1397
1.90116,317.16,-1836,36582,29.6123,14995,1397
1.56859,327.4191,-1835,36583,29.5128,14965,1393
1.73872,348.2126,-1834,36584,29.6123,14965,1393
1.70549,365.3046,-1833,36585,29.8612,14965,1393
2.47246,365.5333,-1832,36586,29.7617,14965,1393
1.21581,351.181,-1831,36587,29.6621,14965,1393
2.0156,330.1508,-1830,36588,29.7617,14965,1393
1.64863,313.7994,-1829,36589,29.8114,14965,1393
1.53789,306.9718,-1828,36590,29.6621,14965,1393
1.71386,300.552,-1827,36591,29.7617,14965,1393
1.62239,311.5381,-1826,36592,29.6123,14965,1393
1.26577,324.69,-1825,36593,29.6621,14922,1414
1.85804,331.1283,-1824,36594,29.6621,14922,1414
1.48103,327.4911,-1823,36595,29.5128,14922,1414
1.98701,331.0501,-1822,36596,29.5128,14922,1414
1.84257,339.2924,-1821,36597,29.6123,14922,1414
1.80334,350.0693,-1820,36598,29.6123,14922,1414
1.81388,348.0376,-1819,36599,30.0106,14922,1414
1.22363,342.8221,-1818,36600,29.5128,14922,1414
1.74966,347.595,-1817,36601,29.8114,14922,1414
0.981433,347.6081,-1816,36602,29.8612,14922,1414
2.00612,346.3935,-1815,36603,29.6123,14886,1465
0.905627,346.5511,-1814,36604,29.6621,14886,1465
1.6165,344.8491,-1813,36605,29.8114,14886,1465
1.63702,344.5619,-1812,36606,29.6621,14886,1465
1.11773,350.578,-1811,36607,29.7617,14886,1465
1.9335,355.4887,-1810,36608,29.6123,14886,1465
1.76323,355.5004,-1809,36609,29.5128,14886,1465
1.56555,357.0048,-1808,36610,29.6123,14886,1465
1.70829,359.3163,-1807,36611,29.6123,14886,1465
1.21188,361.8202,-1806,36612,29.5128,14886,1465
1.98461,358.6555,-1805,36613,29.6621,14860,1526
1.23912,349.4564,-1804,36614,29.6123,14860,1526
1.68298,344.7527,-1803,36615,29.7617,14860,1526
1.63993,343.1151,-1802,36616,29.6123,14860,1526
2.10585,338.2445,-1801,36617,29.6621,14860,1526
1.18402,328.4968,-1800,36618,29.6621,14860,1526
2.18802,318.5348,-1799,36619,29.6123,14860,1526
2.46473,308.2202,-1798,36620,29.7617,14860,1526
2.09904,295.0264,-1797,36621,29.6123,14860,1526
2.17052,276.8751,-1796,36622,29.7617,14860,1526
1.78473,262.5799,-1795,36623,29.6123,14841,1577
2.15287,248.4917,-1794,36624,29.6621,14841,1577
1.87846,238.1595,-1793,36625,29.6123,14841,1577
1.84516,231.9802,-1792,36626,29.8114,14841,1577
1.88099,231.4386,-1791,36627,29.8612,14841,1577
2.25034,225.2246,-1790,36628,29.5128,14841,1577
1.94088,217.8483,-1789,36629,29.8114,14841,1577
1.79804,214.745,-1788,36630,29.6621,14841,1577
2.09222,214.7822,-1787,36631,29.6123,14841,1577
2.08994,211.2658,-1786,36632,29.5128,14841,1577
2.00612,201.7604,-1785,36633,29.5128,14841,1577
1.27702,185.5762,-1784,36634,29.6621,14841,1577
0.737289,166.7585,-1783,36635,29.5128,14841,1577
1.79804,156.5158,-1782,36636,29.7617,14841,1577
1.88099,156.0279,-1781,36637,29.6621,14841,1577
1.11345,157.162,-1780,36638,29.6621,14841,1577
0.750112,157.2954,-1779,36639,29.6621,14841,1577
0.889691,157.4608,-1778,36640,29.5128,14841,1577
1.70549,156.2944,-1777,36641,29.5128,14841,1577
2.0716,150.8291,-1776,36642,29.463,14841,1577
1.38452,146.2679,-1775,36643,29.6621,14837,1614
2.09222,143.1192,-1774,36644,29.8114,14837,1614
1.79539,141.2316,-1773,36645,29.7617,14837,1614
1.56859,136.6698,-1772,36646,29.6621,14837,1614
1.3029,126.7321,-1771,36647,29.5128,14837,1614
1.80598,110.2201,-1770,36648,29.6621,14837,1614
0.662337,90.78593,-1769,36649,29.6123,14837,1614
1.44188,79.07679,-1768,36650,29.8114,14837,1614
1.78473,79.93453,-1767,36651,29.6123,14837,1614
1.09619,89.36389,-1766,36652,29.6621,14837,1614
1.02423,99.63585,-1765,36653,29.5128,14833,1646
0.710948,103.556,-1764,36654,29.6123,14833,1646
1.60466,99.0826,-1763,36655,29.6123,14833,1646
1.09183,91.16233,-1762,36656,29.6123,14833,1646
1.60466,84.32903,-1761,36657,29.5128,14833,1646
1.48103,81.03345,-1760,36658,29.6123,14833,1646
1.04725,81.88225,-1759,36659,29.6123,14833,1646
1.17998,88.81603,-1758,36660,29.6123,14833,1646
1.53789,99.72816,-1757,36661,29.8612,14833,1646
1.88858,110.2444,-1756,36662,29.8114,14833,1646
1.02423,121.5716,-1755,36663,29.6123,14824,1680
1.05631,126.581,-1754,36664,29.6621,14824,1680
1.70829,120.694,-1753,36665,29.8114,14824,1680
0.926449,110.9649,-1752,36666,29.7617,14824,1680
1.15548,106.8624,-1751,36667,29.6123,14824,1680
0.895034,109.7928,-1750,36668,29.5128,14824,1680
1.40163,114.6415,-1749,36669,29.6621,14824,1680
0.905627,117.6783,-1748,36670,29.7617,14824,1680
1.20399,122.7484,-1747,36671,29.6621,14824,1680
2.05543,125.6275,-1746,36672,29.5128,14824,1680
1.91864,127.1025,-1745,36673,29.7617,14807,1706
0.436732,134.2091,-1744,36674,29.5128,14807,1706
1.87592,142.0733,-1743,36675,29.6621,14807,1706
1.62826,143.4677,-1742,36676,29.5128,14807,1706
1.04268,144.4123,-1741,36677,29.6123,14807,1706
1.53168,149.9119,-1740,36678,29.8612,14807,1706
1.65152,159.8423,-1739,36679,29.463,14807,1706
0.697405,162.9035,-1738,36680,29.5128,14807,1706
1.64863,154.458,-1737,36681,29.6123,14807,1706
2.10585,150.1908,-1736,36682,29.5128,14807,1706
1.90867,162.0905,-1735,36683,29.6621,14787,1731
1.82698,173.8595,-1734,36684,29.6621,14787,1731
2.54282,176.6823,-1733,36685,29.5128,14787,1731
1.88858,175.4934,-1732,36686,29.7617,14787,1731
1.3029,176.7251,-1731,36687,29.7617,14787,1731
1.3637,179.3575,-1730,36688,29.7617,14787,1731
2.39208,181.067,-1729,36689,29.5128,14787,1731
1.70549,182.6941,-1728,36690,29.5128,14787,1731
1.81913,187.9245,-1727,36691,29.6621,14787,1731
2.09677,190.282,-1726,36692,29.4132,14787,1731
2.37206,186.8665,-1725,36693,29.8114,14773,1743
1.59572,183.8807,-1724,36694,29.6123,14773,1743
1.54408,186.331,-1723,36695,29.5128,14773,1743
1.96287,192.1958,-1722,36696,29.6123,14773,1743
2.28399,200.1062,-1721,36697,29.6621,14773,1743
1.49385,204.6168,-1720,36698,29.6123,14773,1743
2.22262,204.0708,-1719,36699,29.7617,14773,1743
1.79273,199.5776,-1718,36700,30.0106,14773,1743
1.60466,196.5199,-1717,36701,29.6621,14773,1743
1.63702,198.5921,-1716,36702,29.6123,14773,1743
2.64575,208.0895,-1715,36703,29.9608,14752,1755
2.65654,226.5859,-1714,36704,29.6621,14752,1755
1.16371,251.1031,-1713,36705,29.6123,14752,1755
1.65152,271.5933,-1712,36706,29.6123,14752,1755
1.34255,279.6023,-1711,36707,29.8114,14752,1755
2.54094,273.6671,-1710,36708,29.7617,14752,1755
2.15951,254.3653,-1709,36709,29.5128,14752,1755
1.15548,222.069,-1708,36710,29.5128,14752,1755
1.42525,182.7546,-1707,36711,29.5128,14752,1755
0.931581,151.702,-1706,36712,29.5128,14752,1755
1.88858,141.0781,-1705,36713,29.5128,14742,1759
1.75781,145.4235,-1704,36714,29.6621,14742,1759
1.91366,150.8317,-1703,36715,29.6621,14742,1759
3.10356,151.9741,-1702,36716,29.6123,14742,1759
1.87592,151.7935,-1701,36717,29.7617,14742,1759
1.83479,151.9102,-1700,36718,29.6123,14742,1759
1.94579,150.6921,-1699,36719,29.6621,14742,1759
1.45505,150.2777,-1698,36720,29.7617,14742,1759
2.32946,153.6812,-1697,36721,29.6621,14742,1759
1.5807,156.3273,-1696,36722,29.8612,14742,1759
1.60466,149.3202,-1695,36723,29.6123,14736,1762
2.29856,129.4692,-1694,36724,29.6621,14736,1762
2.37809,108.5438,-1693,36725,29.8612,14736,1762
1.23526,100.0155,-1692,36726,29.463,14736,1762
0.941763,105.5977,-1691,36727,29.8612,14736,1762
0.905627,115.6274,-1690,36728,29.6621,14736,1762
1.82437,121.2838,-1689,36729,29.6621,14736,1762
1.80598,122.6141,-1688,36730,29.6621,14736,1762
1.55638,121.4858,-1687,36731,29.6621,14736,1762
1.4219,116.4687,-1686,36732,29.5128,14736,1762
1.46158,105.6321,-1685,36733,29.6123,14731,1768
2.18148,91.2575,-1684,36734,29.8114,14731,1768
2.12613,78.43899,-1683,36735,29.8114,14731,1768
1.38796,69.0045,-1682,36736,29.8114,14731,1768
1.13045,60.92642,-1681,36737,29.5128,14731,1768
1.79273,52.0316,-1680,36738,29.6123,14731,1768
1.80598,43.5608,-1679,36739,29.9608,14731,1768
0.793363,37.94424,-1678,36740,29.6621,14731,1768
1.19205,36.97159,-1677,36741,29.6123,14731,1768
2.02033,41.57726,-1676,36742,29.6123,14731,1768
1.80334,53.00228,-1675,36743,29.8114,14736,1770
2.3539,67.53181,-1674,36744,29.7617,14736,1770
1.42525,78.77594,-1673,36745,29.8114,14736,1770
1.09619,86.56369,-1672,36746,29.6123,14736,1770
1.6341,93.47398,-1671,36747,29.7617,14736,1770
1.92361,102.5258,-1670,36748,29.7617,14736,1770
0.85693,112.5266,-1669,36749,29.5128,14736,1770
2.48784,121.3968,-1668,36750,29.6123,14736,1770
1.31383,127.4413,-1667,36751,29.6621,14736,1770
2.0156,128.2269,-1666,36752,29.6123,14736,1770
1.84257,126.9936,-1665,36753,29.6621,14735,1773
1.92608,128.1068,-1664,36754,29.8114,14735,1773
1.74966,131.3033,-1663,36755,29.6621,14735,1773
1.05631,137.2258,-1662,36756,29.6123,14735,1773
1.71942,143.8108,-1661,36757,29.7617,14735,1773
1.94088,147.6698,-1660,36758,29.8114,14735,1773
1.19604,143.6204,-1659,36759,29.7617,14735,1773
1.36719,133.9663,-1658,36760,29.8612,14735,1773
1.81125,129.1251,-1657,36761,29.5128,14735,1773
1.62532,132.6711,-1656,36762,29.6621,14735,1773
1.48103,145.1716,-1655,36763,29.6123,14745,1781
1.4118,158.4365,-1654,36764,29.7617,14745,1781
1.44518,164.4288,-1653,36765,29.6123,14745,1781
2.23332,160.2188,-1652,36766,29.6123,14745,1781
1.59273,153.8187,-1651,36767,29.7617,14745,1781
1.56555,151.1956,-1650,36768,29.7617,14745,1781
1.64863,148.3805,-1649,36769,29.6621,14745,1781
1.45505,143.4408,-1648,36770,29.7617,14745,1781
1.88858,144.3401,-1647,36771,29.6123,14745,1781
2.02504,148.6957,-1646,36772,29.6621,14745,1781
1.87592,153.7529,-1645,36773,29.7617,14745,1794
2.25034,154.1066,-1644,36774,29.6123,14745,1794
1.33185,149.3593,-1643,36775,29.6621,14745,1794
1.59273,137.8196,-1642,36776,29.7617,14745,1794
0.697405,131.0554,-1641,36777,29.5128,14745,1794
1.81651,130.184,-1640,36778,29.6621,14745,1794
1.05179,136.9219,-1639,36779,29.6621,14745,1794
1.63993,141.9989,-1638,36780,29.6621,14745,1794
2.17052,139.7818,-1637,36781,29.5128,14745,1794
0.458048,132.5168,-1636,36782,29.6621,14745,1794
0.625305,126.5349,-1635,36783,29.7617,14748,1807
1.44518,128.2651,-1634,36784,29.8114,14748,1807
1.66016,136.6615,-1633,36785,29.6123,14748,1807
1.89362,141.0172,-1632,36786,29.7617,14748,1807
0.768946,137.3899,-1631,36787,29.5128,14748,1807
1.8606,128.7814,-1630,36788,29.7617,14748,1807
1.73047,123.3206,-1629,36789,29.6621,14748,1807
2.2944,125.2725,-1628,36790,29.8114,14748,1807
3.18096,132.274,-1627,36791,29.6621,14748,1807
1.09619,138.9474,-1626,36792,29.6123,14748,1807
0.921287,147.1021,-1625,36793,29.6123,14744,1822
2.23545,155.7978,-1624,36794,29.7617,14744,1822
2.0156,162.7427,-1623,36795,29.6621,14744,1822
0.878906,169.0367,-1622,36796,29.6123,14744,1822
1.81388,173.4971,-1621,36797,29.6621,14744,1822
0.625305,174.6624,-1620,36798,29.8114,14744,1822
1.67161,172.052,-1619,36799,29.8114,14744,1822
1.00068,169.8889,-1618,36800,29.6123,14744,1822
1.62239,173.3677,-1617,36801,29.6621,14744,1822
1.56859,183.195,-1616,36802,29.6123,14744,1822
2.04845,199.126,-1615,36803,29.6123,14739,1830
1.85547,216.9391,-1614,36804,29.6621,14739,1830
1.27328,230.6703,-1613,36805,29.5128,14739,1830
1.39822,239.0061,-1612,36806,29.6621,14739,1830
0.76272,241.1858,-1611,36807,29.6123,14739,1830
2.20323,244.9288,-1610,36808,29.6123,14739,1830
1.51603,251.9785,-1609,36809,29.6621,14739,1830
1.39139,261.5073,-1608,36810,29.6621,14739,1830
1.40163,268.9353,-1607,36811,29.6123,14739,1830
1.84516,272.5864,-1606,36812,29.8114,14739,1830
2.08994,276.2404,-1605,36813,29.6123,14726,1837
2.96367,281.7987,-1604,36814,29.5128,14726,1837
1.4219,288.2618,-1603,36815,29.8114,14726,1837
1.39139,292.2871,-1602,36816,29.6123,14726,1837
1.12623,292.3853,-1601,36817,29.6621,14726,1837
1.96529,291.921,-1600,36818,29.8612,14726,1837
2.44726,294.9433,-1599,36819,29.6123,14726,1837
1.29923,300.5436,-1598,36820,29.5128,14726,1837
0.793363,305.1595,-1597,36821,29.6123,14726,1837
1.22363,303.802,-1596,36822,29.6123,14726,1837
1.40163,301.2411,-1595,36823,29.6123,14720,1848
1.5034,300.4683,-1594,36824,29.5128,14720,1848
2.0739,298.963,-1593,36825,29.6123,14720,1848
1.81125,297.4832,-1592,36826,29.7617,14720,1848
1.69427,297.0693,-1591,36827,29.6621,14720,1848
1.04725,298.2014,-1590,36828,29.8612,14720,1848
2.73438,294.1422,-1589,36829,29.6123,14720,1848
1.3637,285.5929,-1588,36830,29.8114,14720,1848
1.37415,276.6126,-1587,36831,29.7617,14720,1848
1.74146,268.4786,-1586,36832,29.6123,14720,1848
1.24296,260.913,-1585,36833,29.7617,14712,1854
0.98628,251.3717,-1584,36834,29.6123,14712,1854
1.67161,241.7549,-1583,36835,29.6123,14712,1854
1.57769,231.8108,-1582,36836,29.6621,14712,1854
1.98461,222.5742,-1581,36837,29.7617,14712,1854
2.63129,212.9915,-1580,36838,29.4132,14712,1854
2.04146,201.2289,-1579,36839,29.7617,14712,1854
1.35668,193.3271,-1578,36840,29.6123,14712,1854
1.60168,188.1426,-1577,36841,29.6621,14712,1854
1.88858,179.777,-1576,36842,29.7617,14712,1854
1.69427,166.2858,-1575,36843,29.8612,14713,1858
1.37067,154.8912,-1574,36844,29.8114,14713,1858
2.21617,147.3161,-1573,36845,29.7617,14713,1858
1.1596,140.6963,-1572,36846,29.463,14713,1858
1.38796,130.1401,-1571,36847,29.7617,14713,1858
1.26577,118.5066,-1570,36848,29.8114,14713,1858
1.31383,103.4652,-1569,36849,29.6621,14713,1858
1.32467,90.90428,-1568,36850,29.6621,14713,1858
2.00374,86.51625,-1567,36851,29.8114,14713,1858
1.33543,80.56548,-1566,36852,29.5128,14713,1858
1.67446,68.22409,-1565,36853,29.6621,14707,1862
1.53789,49.07773,-1564,36854,29.7617,14707,1862
1.47134,39.51648,-1563,36855,29.6123,14707,1862
1.83479,45.11551,-1562,36856,29.6123,14707,1862
1.42859,61.01599,-1561,36857,29.6123,14707,1862
2.50313,72.22128,-1560,36858,29.6621,14707,1862
1.27328,76.91486,-1559,36859,29.7617,14707,1862
1.14304,76.2621,-1558,36860,29.6123,14707,1862
1.54717,74.62291,-1557,36861,29.6123,14707,1862
1.40163,72.19734,-1556,36862,29.8612,14707,1862
1.87846,67.60403,-1555,36863,29.7617,14703,1870
1.17998,64.11539,-1554,36864,29.6621,14703,1870
2.20323,65.28308,-1553,36865,29.6123,14703,1870
1.61355,69.23561,-1552,36866,29.7617,14703,1870
2.02269,72.44397,-1551,36867,29.5128,14703,1870
1.97739,75.76014,-1550,36868,29.6123,14703,1870
1.27328,80.383,-1549,36869,29.5128,14703,1870
1.1596,86.57367,-1548,36870,29.8114,14703,1870
1.52231,96.30829,-1547,36871,29.6621,14703,1870
2.31715,106.2824,-1546,36872,29.6123,14703,1870
2.38009,115.8485,-1545,36873,29.6621,14704,1870
2.31509,130.0138,-1544,36874,29.6123,14704,1870
2.38009,145.892,-1543,36875,29.6621,14704,1870
1.61355,163.9865,-1542,36876,29.8114,14704,1870
2.39606,186.6099,-1541,36877,29.8114,14704,1870
2.91991,210.064,-1540,36878,29.6123,14704,1870
1.74966,222.708,-1539,36879,29.6123,14704,1870
1.60168,220.2421,-1538,36880,29.8114,14704,1870
1.88099,203.5713,-1537,36881,29.7617,14704,1870
1.94824,177.7185,-1536,36882,29.6123,14704,1870
1.52231,152.4965,-1535,36883,29.6123,14704,1873
0.85693,129.1695,-1534,36884,29.5128,14704,1873
2.46667,103.8632,-1533,36885,29.6123,14704,1873
1.56555,82.34581,-1532,36886,29.8612,14704,1873
0.169146,63.49393,-1531,36887,29.6123,14704,1873
1.13045,49.35839,-1530,36888,29.5128,14704,1873
2.19238,49.28573,-1529,36889,29.8114,14704,1873
1.76323,54.55792,-1528,36890,29.6621,14704,1873
2.1573,55.67022,-1527,36891,29.6621,14704,1873
1.04268,58.2879,-1526,36892,29.6621,14704,1873
1.49385,70.53277,-1525,36893,29.6621,14711,1883
1.52856,89.25385,-1524,36894,29.6621,14711,1883
2.93944,104.8688,-1523,36895,29.7617,14711,1883
1.83739,109.9969,-1522,36896,29.4132,14711,1883
2.08994,104.5716,-1521,36897,29.8114,14711,1883
1.49704,92.54065,-1520,36898,29.5128,14711,1883
2.22262,80.19806,-1519,36899,29.6123,14711,1883
2.11714,74.03099,-1518,36900,29.8612,14711,1883
1.83479,69.0617,-1517,36901,29.6621,14711,1883
1.83739,58.84321,-1516,36902,29.6123,14711,1883
1.88606,56.94053,-1515,36903,29.6123,14704,1892
1.4118,65.83382,-1514,36904,29.6621,14704,1892
1.68298,74.86832,-1513,36905,29.6621,14704,1892
1.67446,81.69423,-1512,36906,29.6123,14704,1892
1.17998,87.77815,-1511,36907,29.7617,14704,1892
0.436732,92.63231,-1510,36908,29.6123,14704,1892
2.57079,93.64671,-1509,36909,29.7617,14704,1892
2.03912,92.08504,-1508,36910,29.6621,14704,1892
1.70549,94.32134,-1507,36911,29.6621,14704,1892
2.27981,102.0045,-1506,36912,29.8612,14704,1892
2.18366,108.1931,-1505,36913,29.6621,14705,1884
1.4118,111.2846,-1504,36914,29.463,14705,1884
1.38452,109.8288,-1503,36915,29.7617,14705,1884
1.37415,107.8149,-1502,36916,29.6621,14705,1884
1.83479,111.5753,-1501,36917,29.5128,14705,1884
1.73323,118.6323,-1500,36918,29.8612,14705,1884
1.60466,121.5469,-1499,36919,29.5128,14705,1884
1.07865,120.4832,-1498,36920,29.8114,14705,1884
1.34255,122.394,-1497,36921,29.6621,14705,1884
1.18804,130.7234,-1496,36922,29.8612,14705,1884
1.76323,143.3063,-1495,36923,29.6621,14713,1876
1.49066,149.3642,-1494,36924,29.6621,14713,1876
1.13045,145.7187,-1493,36925,29.6123,14713,1876
1.46158,139.7744,-1492,36926,29.8114,14713,1876
1.12198,141.9557,-1491,36927,29.7617,14713,1876
1.44518,148.4964,-1490,36928,29.8612,14713,1876
1.49066,146.1327,-1489,36929,29.7617,14713,1876
2.68333,136.7931,-1488,36930,29.7617,14713,1876
1.65152,131.2074,-1487,36931,29.6123,14713,1876
1.14304,134.07,-1486,36932,29.5128,14713,1876
1.89865,140.9566,-1485,36933,29.5128,14724,1873
1.70829,143.4775,-1484,36934,29.6123,14724,1873
1.3102,141.8105,-1483,36935,29.6123,14724,1873
1.50022,141.4657,-1482,36936,29.6621,14724,1873
1.3637,143.3981,-1481,36937,29.5128,14724,1873
1.3029,146.7331,-1480,36938,29.6621,14724,1873
1.17998,148.5359,-1479,36939,29.7617,14724,1873
0.921287,149.9605,-1478,36940,29.6123,14724,1873
1.15548,151.8258,-1477,36941,29.8612,14724,1873
1.10916,152.6991,-1476,36942,29.6621,14724,1873
1.76052,153.4568,-1475,36943,29.6123,14741,1870
2.41193,153.4142,-1474,36944,29.8612,14741,1870
1.67161,154.1591,-1473,36945,29.5128,14741,1870
1.87592,155.9886,-1472,36946,29.6621,14741,1870
1.86572,156.4899,-1471,36947,29.6123,14741,1870
1.98461,156.0004,-1470,36948,29.6621,14741,1870
2.60213,155.784,-1469,36949,29.6123,14741,1870
1.42525,154.3736,-1468,36950,29.6621,14741,1870
1.01956,154.4902,-1467,36951,29.6123,14741,1870
1.89865,156.6311,-1466,36952,29.7617,14741,1870
2.44336,157.3092,-1465,36953,29.7617,14746,1880
1.06082,155.353,-1464,36954,29.7617,14746,1880
1.76323,151.8889,-1463,36955,29.463,14746,1880
1.81125,150.6034,-1462,36956,29.6123,14746,1880
0.805294,156.8934,-1461,36957,29.6123,14746,1880
1.67161,167.4532,-1460,36958,29.8114,14746,1880
2.00374,175.7781,-1459,36959,29.5128,14746,1880
2.37206,175.7891,-1458,36960,29.7617,14746,1880
1.68581,172.1864,-1457,36961,29.6123,14746,1880
2.4277,166.5081,-1456,36962,29.6123,14746,1880
1.51603,163.0644,-1455,36963,29.8114,14742,1900
2.16832,164.2093,-1454,36964,29.8612,14742,1900
1.52231,166.5759,-1453,36965,29.8612,14742,1900
1.38796,165.6643,-1452,36966,29.8114,14742,1900
2.40995,159.4372,-1451,36967,29.7617,14742,1900
1.88606,154.1334,-1450,36968,29.6621,14742,1900
1.36019,153.7267,-1449,36969,29.8612,14742,1900
1.958,153.4401,-1448,36970,29.7617,14742,1900
2.02504,145.5706,-1447,36971,29.8612,14742,1900
2.06237,130.3338,-1446,36972,29.6621,14742,1900
1.71664,125.9995,-1445,36973,29.7617,14738,1923
1.96287,136.6412,-1444,36974,29.6123,14738,1923
1.74693,155.1843,-1443,36975,29.8612,14738,1923
1.0381,171.5783,-1442,36976,29.8114,14738,1923
2.08994,179.9652,-1441,36977,29.5128,14738,1923
2.08994,171.2869,-1440,36978,29.7617,14738,1923
2.33151,156.3854,-1439,36979,29.6123,14738,1923
2.22905,151.8238,-1438,36980,29.463,14738,1923
1.49066,151.437,-1437,36981,29.6621,14738,1923
1.19205,153.1201,-1436,36982,29.6123,14738,1923
1.96529,156.6802,-1435,36983,29.6621,14730,1950
1.82437,159.2053,-1434,36984,29.6123,14730,1950
1.46484,159.4998,-1433,36985,29.7617,14730,1950
2.55777,157.3532,-1432,36986,29.8114,14730,1950
1.62239,156.9487,-1431,36987,29.5128,14730,1950
2.59479,155.5889,-1430,36988,29.5128,14730,1950
1.70829,158.5681,-1429,36989,29.6621,14730,1950
2.30684,161.925,-1428,36990,29.7617,14730,1950
2.36804,155.5376,-1427,36991,29.6621,14730,1950
1.10916,146.9973,-1426,36992,29.6123,14730,1950
1.68298,144.0636,-1425,36993,29.8114,14726,1978
1.92856,145.0139,-1424,36994,29.5128,14726,1978
0.961803,147.1804,-1423,36995,29.6621,14726,1978
1.11773,147.9958,-1422,36996,29.6621,14726,1978
1.49385,137.9842,-1421,36997,29.7617,14726,1978
1.88858,114.4393,-1420,36998,29.6621,14726,1978
2.08994,101.0497,-1419,36999,29.8114,14726,1978
2.58559,107.5852,-1418,37000,29.6621,14726,1978
2.19455,116.8923,-1417,37001,29.5128,14726,1978
0.981433,149.7788,-1416,37002,29.6621,14726,1978
2.25245,198.2532,-1415,37003,29.6123,14724,2003
2.54282,206.9906,-1414,37004,29.8612,14724,2003
2.11714,154.0428,-1413,37005,29.6123,14724,2003
0.768946,94.77083,-1412,37006,29.6621,14724,2003
2.86218,118.7993,-1411,37007,29.6621,14724,2003
2.44531,147.1572,-1410,37008,29.6621,14724,2003
1.78473,116.2255,-1409,37009,29.6621,14724,2003
1.79804,110.6909,-1408,37010,29.8612,14724,2003
2.54094,169.3108,-1407,37011,29.8612,14724,2003
1.13045,187.051,-1406,37012,29.8114,14724,2003
1.89865,146.8798,-1405,37013,29.8612,14733,2020
2.54844,88.09469,-1404,37014,29.6123,14733,2020
1.39139,70.48829,-1403,37015,29.7617,14733,2020
2.50693,84.51384,-1402,37016,29.8114,14733,2020
2.47824,88.16528,-1401,37017,29.6621,14733,2020
2.5353,80.64091,-1400,37018,29.8114,14733,2020
2.41786,79.86506,-1399,37019,29.6621,14733,2020
2.0739,92.94498,-1398,37020,29.7617,14733,2020
2.09677,96.65734,-1397,37021,29.6123,14733,2020
19.8483,81.33273,-1396,37022,29.6621,14733,2020
19.9613,397.5339,-1395,37023,29.6123,14770,2019
3.16442,609.6939,-1394,37024,29.6123,14770,2019
1.35668,412.2929,-1393,37025,29.6123,14770,2019
0.577742,190.2322,-1392,37026,29.6123,14770,2019
1.83739,288.9488,-1391,37027,29.8114,14770,2019
2.08994,289.0241,-1390,37028,29.7617,14770,2019
1.30655,201.9954,-1389,37029,29.5128,14770,2019
2.19672,144.2849,-1388,37030,29.6621,14770,2019
1.22363,141.9991,-1387,37031,29.6621,14770,2019
1.60168,161.0922,-1386,37032,29.8612,14770,2019
1.97498,173.7648,-1385,37033,29.6123,14864,2009
1.19604,165.4622,-1384,37034,29.5128,14864,2009
1.25061,146.3616,-1383,37035,29.8114,14864,2009
2.58743,129.2116,-1382,37036,29.6621,14864,2009
2.44726,117.7445,-1381,37037,29.6123,14864,2009
2.11714,123.2373,-1380,37038,29.8612,14864,2009
2.25034,134.1729,-1379,37039,29.6621,14864,2009
2.17052,111.3189,-1378,37040,29.6621,14864,2009
2.87382,89.59778,-1377,37041,29.463,14864,2009
2.34578,118.2745,-1376,37042,29.6123,14864,2009
2.12613,130.7984,-1375,37043,29.8612,14987,2005
1.97256,116.6658,-1374,37044,29.6123,14987,2005
2.15287,107.5491,-1373,37045,29.6621,14987,2005
2.26301,108.6447,-1372,37046,29.8612,14987,2005
2.65833,119.5884,-1371,37047,29.6123,14987,2005
1.85804,139.699,-1370,37048,29.6123,14987,2005
1.5807,147.6923,-1369,37049,29.6621,14987,2005
2.11263,146.2426,-1368,37050,30.0106,14987,2005
1.80334,151.1352,-1367,37051,29.7617,14987,2005
1.84516,157.7697,-1366,37052,29.5128,14987,2005
2.41391,156.4311,-1365,37053,29.8114,15135,1986
1.93596,148.6322,-1364,37054,29.2141,15135,1986
1.02423,149.5499,-1363,37055,29.8114,15135,1986
1.19604,167.0619,-1362,37056,29.8612,15135,1986
1.66016,187.1647,-1361,37057,29.8612,15135,1986
1.27328,201.3364,-1360,37058,29.6621,15135,1986
1.17594,207.32,-1359,37059,29.8114,15135,1986
1.17188,205.971,-1358,37060,29.7617,15135,1986
0.750112,207.8343,-1357,37061,29.5128,15135,1986
0.730792,213.4249,-1356,37062,29.6123,15135,1986
0.805294,217.4574,-1355,37063,29.5128,15184,1965
0.534885,215.0163,-1354,37064,29.6123,15184,1965
0.750112,198.9836,-1353,37065,29.6123,15184,1965
0.981433,183.3034,-1352,37066,29.6123,15184,1965
0.768946,195.2421,-1351,37067,29.7617,15184,1965
1.51603,210.6528,-1350,37068,29.6621,15184,1965
1.89865,203.4124,-1349,37069,29.6621,15184,1965
1.33543,195.0802,-1348,37070,29.6621,15184,1965
1.18402,190.127,-1347,37071,29.6123,15184,1965
0.926449,191.1236,-1346,37072,29.5128,15184,1965
0.85693,198.0514,-1345,37073,29.7617,15129,1950
1.87592,198.3405,-1344,37074,29.6123,15129,1950
1.5034,190.0193,-1343,37075,29.6621,15129,1950
0.873464,185.1078,-1342,37076,29.8612,15129,1950
0.640375,188.253,-1341,37077,29.7617,15129,1950
1.45176,202.6646,-1340,37078,29.8612,15129,1950
1.28447,218.8176,-1339,37079,29.6123,15129,1950
1.21188,219.312,-1338,37080,29.5128,15129,1950
2.12613,210.9361,-1337,37081,30.0106,15129,1950
2.0739,209.0045,-1336,37082,29.6621,15129,1950
1.45176,214.5348,-1335,37083,29.8114,14964,1948
2.64575,232.3286,-1334,37084,29.7617,14964,1948
1.68298,239.8011,-1333,37085,29.7617,14964,1948
1.77132,226.4417,-1332,37086,29.7617,14964,1948
1.87846,219.1298,-1331,37087,29.5128,14964,1948
1.92608,216.9785,-1330,37088,29.5128,14964,1948
2.13284,218.6061,-1329,37089,29.6123,14964,1948
2.80326,217.0644,-1328,37090,29.5128,14964,1948
3.06647,220.2515,-1327,37091,29.6123,14964,1948
2.58005,230.0641,-1326,37092,29.6621,14964,1948
2.1771,242.8437,-1325,37093,29.5128,14801,1947
1.92608,254.4807,-1324,37094,29.8612,14801,1947
1.68863,254.7299,-1323,37095,29.7617,14801,1947
1.22363,248.9465,-1322,37096,29.6123,14801,1947
1.93596,248.361,-1321,37097,29.7617,14801,1947
2.02269,254.6044,-1320,37098,29.6621,14801,1947
2.36401,272.0157,-1319,37099,29.6123,14801,1947
1.43857,300.7601,-1318,37100,29.7617,14801,1947
1.55638,318.3074,-1317,37101,29.6123,14801,1947
1.05631,310.5258,-1316,37102,29.6621,14801,1947
1.06082,300.6093,-1315,37103,29.6123,14738,1942
2.24609,306.4784,-1314,37104,29.6621,14738,1942
2.67443,327.9262,-1313,37105,29.8114,14738,1942
2.98771,357.4862,-1312,37106,29.6621,14738,1942
0.768946,387.8563,-1311,37107,29.6123,14738,1942
2.66371,404.2376,-1310,37108,29.6123,14738,1942
1.85804,404.0741,-1309,37109,29.5128,14738,1942
2.76903,404.1778,-1308,37110,29.6123,14738,1942
2.3539,415.9647,-1307,37111,29.5128,14738,1942
2.1771,436.7375,-1306,37112,29.6123,14738,1942
2.02269,455.8735,-1305,37113,29.6621,14739,1948
3.04775,458.8936,-1304,37114,29.6123,14739,1948
2.56336,453.5869,-1303,37115,29.7617,14739,1948
1.73872,461.6721,-1302,37116,29.8114,14739,1948
2.87382,485.0161,-1301,37117,29.6621,14739,1948
3.04149,505.4661,-1300,37118,29.6621,14739,1948
2.84044,511.8245,-1299,37119,29.6621,14739,1948
2.41983,523.3976,-1298,37120,29.6621,14739,1948
2.33968,558.4267,-1297,37121,29.6621,14739,1948
2.93619,602.4441,-1296,37122,29.7617,14739,1948
2.48208,627.652,-1295,37123,29.6123,14739,1948
2.48592,629.854,-1294,37124,29.6123,14739,1948
2.53342,621.8239,-1293,37125,29.8114,14739,1948
1.9798,621.7081,-1292,37126,29.6123,14739,1948
2.20323,630.9121,-1291,37127,29.6123,14739,1948
2.48784,644.2528,-1290,37128,29.7617,14739,1948
1.51603,664.8351,-1289,37129,29.7617,14739,1948
1.79539,685.3755,-1288,37130,29.6621,14739,1948
1.75238,714.5683,-1287,37131,29.7617,14739,1948
1.38796,755.8708,-1286,37132,29.7617,14739,1948
1.51917,794.0753,-1285,37133,29.7617,14756,1954
0.799351,822.9596,-1284,37134,29.6621,14756,1954
0.931581,837.0575,-1283,37135,29.8114,14756,1954
0.41432,838.2155,-1282,37136,29.6621,14756,1954
0.525895,842.0446,-1281,37137,29.6621,14756,1954
1.5034,848.5335,-1280,37138,29.6621,14756,1954
0.497951,853.1442,-1279,37139,29.6621,14756,1954
1.98701,873.054,-1278,37140,29.6621,14756,1954
2.27352,897.0528,-1277,37141,29.6621,14756,1954
1.14304,911.7461,-1276,37142,29.6621,14756,1954
1.88858,920.666,-1275,37143,29.6621,14752,1953
2.58743,926.8965,-1274,37144,29.6621,14752,1953
2.19672,937.8786,-1273,37145,29.6621,14752,1953
1.25442,949.0893,-1272,37146,29.6621,14752,1953
2.47824,952.2568,-1271,37147,29.5128,14752,1953
2.11714,943.6164,-1270,37148,29.6621,14752,1953
2.1771,927.1437,-1269,37149,29.8114,14752,1953
2.0739,907.6617,-1268,37150,29.6621,14752,1953
2.75695,862.4158,-1267,37151,29.6621,14752,1953
2.54844,828.9918,-1266,37152,29.6621,14752,1953
2.77075,856.6373,-1265,37153,29.9608,14731,1981
2.31097,902.4553,-1264,37154,29.6621,14731,1981
2.67443,919.9435,-1263,37155,29.5128,14731,1981
2.79474,895.3167,-1262,37156,29.5128,14731,1981
3.27403,842.6314,-1261,37157,29.5128,14731,1981
2.65833,788.7361,-1260,37158,29.8612,14731,1981
2.83371,762.481,-1259,37159,29.6123,14731,1981
3.94149,767.771,-1258,37160,29.6621,14731,1981
3.15839,775.0891,-1257,37161,29.6123,14731,1981
3.24036,769.9055,-1256,37162,29.8114,14731,1981
3.09125,746.5594,-1255,37163,29.6621,14741,2045
4.38693,716.3017,-1254,37164,29.7617,14741,2045
3.67867,687.0747,-1253,37165,29.8612,14741,2045
4.34762,649.5053,-1252,37166,29.6123,14741,2045
4.74915,612.8005,-1251,37167,29.8114,14741,2045
4.51337,578.877,-1250,37168,29.2638,14741,2045
5.04232,539.5122,-1249,37169,29.8114,14741,2045
4.03357,496.019,-1248,37170,29.6123,14741,2045
3.88053,455.0388,-1247,37171,29.8612,14741,2045
4.0241,427.8672,-1246,37172,29.6123,14741,2045
3.75818,420.3193,-1245,37173,29.7617,14754,2186
3.91844,414.2223,-1244,37174,29.7617,14754,2186
2.56893,398.4206,-1243,37175,29.5128,14754,2186
3.2609,373.3674,-1242,37176,29.7617,14754,2186
2.93781,365.5153,-1241,37177,29.7617,14754,2186
3.054,349.7101,-1240,37178,29.6123,14754,2186
2.98291,316.8905,-1239,37179,29.8114,14754,2186
3.30015,298.7738,-1238,37180,29.6123,14754,2186
2.28607,300.1703,-1237,37181,29.8114,14754,2186
3.39557,324.5047,-1236,37182,29.6123,14754,2186
2.98451,339.9381,-1235,37183,29.6621,14759,2313
2.7028,349.849,-1234,37184,29.7617,14759,2313
2.73612,374.7453,-1233,37185,29.8612,14759,2313
3.24624,410.8694,-1232,37186,29.5128,14759,2313
3.28131,444.4492,-1231,37187,29.6123,14759,2313
3.58679,477.3514,-1230,37188,29.6123,14759,2313
3.08507,487.6303,-1229,37189,29.6123,14759,2313
4.36841,504.5269,-1228,37190,29.6621,14759,2313
5.14622,473.5475,-1227,37191,29.6621,14759,2313
5.39943,409.753,-1226,37192,29.5128,14759,2313
4.41726,434.8165,-1225,37193,29.6123,14747,2393
3.72888,524.8735,-1224,37194,29.6123,14747,2393
4.33334,595.6249,-1223,37195,29.7617,14747,2393
5.31846,588.7833,-1222,37196,29.6621,14747,2393
3.84473,522.2226,-1221,37197,29.8612,14747,2393
3.11736,516.4114,-1220,37198,29.8612,14747,2393
2.64033,588.5581,-1219,37199,29.6621,14747,2393
3.57214,577.5283,-1218,37200,29.7617,14747,2393
3.32605,468.7667,-1217,37201,29.5128,14747,2393
3.54265,412.1755,-1216,37202,29.8612,14747,2393
4.04537,502.7128,-1215,37203,29.9608,14739,2434
3.84845,609.2559,-1214,37204,29.6621,14739,2434
2.25668,634.7898,-1213,37205,29.6123,14739,2434
2.95239,590.3804,-1212,37206,29.5128,14739,2434
2.33764,522.2222,-1211,37207,29.7617,14739,2434
1.88099,490.769,-1210,37208,29.5128,14739,2434
2.75695,490.0753,-1209,37209,29.463,14739,2434
2.9717,504.0771,-1208,37210,29.8114,14739,2434
2.12837,530.0182,-1207,37211,29.8114,14739,2434
0.840071,566.4595,-1206,37212,29.6621,14739,2434
2.86551,594.0505,-1205,37213,29.7617,14736,2409
1.09619,622.4573,-1204,37214,29.8612,14736,2409
2.10585,654.437,-1203,37215,29.6123,14736,2409
2.05078,674.3208,-1202,37216,29.8114,14736,2409
1.57769,678.1928,-1201,37217,29.8612,14736,2409
0.447517,668.424,-1200,37218,29.6123,14736,2409
1.09619,649.4378,-1199,37219,29.6123,14736,2409
1.71664,631.1894,-1198,37220,29.6621,14736,2409
1.21188,617.1316,-1197,37221,29.5128,14736,2409
0.601994,599.8348,-1196,37222,29.6621,14736,2409
0.447517,570.6557,-1195,37223,29.8612,14727,2357
0.905627,545.0564,-1194,37224,29.6123,14727,2357
0.447517,532.3656,-1193,37225,29.6621,14727,2357
1.27328,547.2772,-1192,37226,29.8114,14727,2357
1.62239,571.8435,-1191,37227,30.0106,14727,2357
1.4118,599.1027,-1190,37228,29.8612,14727,2357
1.79804,620.5812,-1189,37229,29.5128,14727,2357
0.768946,626.0561,-1188,37230,29.6621,14727,2357
1.01016,602.3142,-1187,37231,29.6123,14727,2357
1.06082,570.2724,-1186,37232,29.5128,14727,2357
1.52856,552.2638,-1185,37233,29.8612,14720,2341
2.1771,552.0144,-1184,37234,29.6621,14720,2341
2.64575,553.5741,-1183,37235,29.6621,14720,2341
1.37415,543.6525,-1182,37236,29.6123,14720,2341
1.75238,530.5676,-1181,37237,29.6621,14720,2341
1.54717,521.5653,-1180,37238,29.8114,14720,2341
2.17052,519.899,-1179,37239,29.8114,14720,2341
1.48103,521.4007,-1178,37240,29.8114,14720,2341
0.971667,518.621,-1177,37241,30.0106,14720,2341
0.704209,510.712,-1176,37242,29.6621,14720,2341
0.697405,493.6137,-1175,37243,29.6621,14734,2309
0.805294,476.0311,-1174,37244,29.6123,14734,2309
1.39822,465.436,-1173,37245,29.8114,14734,2309
0.805294,454.6717,-1172,37246,29.6123,14734,2309
0.78733,440.9376,-1171,37247,29.5128,14734,2309
1.13045,421.8804,-1170,37248,29.7617,14734,2309
0.601994,401.049,-1169,37249,29.8114,14734,2309
1.00068,370.6992,-1168,37250,29.7617,14734,2309
1.19604,345.1199,-1167,37251,29.5128,14734,2309
1.24296,326.1984,-1166,37252,29.6621,14734,2309
0.323889,309.0331,-1165,37253,29.6123,14795,2266
1.60168,286.1793,-1164,37254,29.6621,14795,2266
0.276214,266.7722,-1163,37255,29.8114,14795,2266
1.08306,258.4177,-1162,37256,29.7617,14795,2266
1.1472,258.8774,-1161,37257,29.7617,14795,2266
0.98628,264.9442,-1160,37258,29.6123,14795,2266
0.601994,271.8347,-1159,37259,29.7617,14795,2266
0.690534,276.0364,-1158,37260,29.7617,14795,2266
1.49385,279.0135,-1157,37261,29.6123,14795,2266
1.99897,280.7327,-1156,37262,29.8114,14795,2266
1.05631,284.3517,-1155,37263,29.6123,14910,2220
1.66016,285.7426,-1154,37264,29.6123,14910,2220
1.05179,286.5167,-1153,37265,29.8114,14910,2220
2.41193,289.4356,-1152,37266,29.7617,14910,2220
0.811194,295.6278,-1151,37267,29.5128,14910,2220
1.11773,302.9017,-1150,37268,29.6123,14910,2220
0.793363,312.2004,-1149,37269,29.6123,14910,2220
1.44188,325.7271,-1148,37270,29.8612,14910,2220
0.601994,334.6536,-1147,37271,29.7617,14910,2220
1.14304,339.9531,-1146,37272,29.6621,14910,2220
1.21188,347.2315,-1145,37273,29.6123,14945,2174
0.447517,357.2206,-1144,37274,29.6621,14945,2174
0.961803,366.6247,-1143,37275,29.6621,14945,2174
0.525895,371.9121,-1142,37276,29.6621,14945,2174
0.85693,379.4092,-1141,37277,29.6123,14945,2174
0.625305,387.7883,-1140,37278,29.8612,14945,2174
1.14304,395.6388,-1139,37279,29.7617,14945,2174
1.32827,402.6723,-1138,37280,29.6621,14945,2174
1.31745,407.0335,-1137,37281,29.6123,14945,2174
1.13886,408.5186,-1136,37282,29.5128,14945,2174
1.48103,412.8798,-1135,37283,29.6621,14902,2144
1.93596,421.0039,-1134,37284,29.8612,14902,2144
0.981433,433.4632,-1133,37285,29.5128,14902,2144
1.00543,446.8759,-1132,37286,29.8612,14902,2144
0.690534,458.2319,-1131,37287,29.8114,14902,2144
1.55638,467.8048,-1130,37288,29.5128,14902,2144
1.72772,472.8178,-1129,37289,29.7617,14902,2144
1.98461,473.8293,-1128,37290,29.5128,14902,2144
1.83479,479.666,-1127,37291,29.6123,14902,2144
1.71386,491.4005,-1126,37292,29.6621,14902,2144
1.36719,500.7215,-1125,37293,29.6123,14807,2122
1.61945,503.2396,-1124,37294,29.8612,14807,2122
1.27702,505.4547,-1123,37295,29.6621,14807,2122
2.4277,510.6159,-1122,37296,29.6621,14807,2122
1.81651,516.8385,-1121,37297,29.8114,14807,2122
2.44336,526.2651,-1120,37298,29.6123,14807,2122
2.29648,534.7401,-1119,37299,29.7617,14807,2122
2.20323,536.5734,-1118,37300,29.6123,14807,2122
1.41517,533.0106,-1117,37301,29.9608,14807,2122
1.74966,530.8555,-1116,37302,29.6123,14807,2122
1.42525,532.1437,-1115,37303,29.5128,14742,2078
1.53789,533.4929,-1114,37304,29.5128,14742,2078
2.80666,528.3066,-1113,37305,29.8114,14742,2078
1.86572,516.3941,-1112,37306,29.6123,14742,2078
2.13284,503.0065,-1111,37307,29.6621,14742,2078
3.39557,493.2036,-1110,37308,29.6123,14742,2078
3.66178,483.6908,-1109,37309,29.6621,14742,2078
2.69397,472.9717,-1108,37310,29.9608,14742,2078
2.38209,459.7669,-1107,37311,29.8114,14742,2078
2.03444,441.5185,-1106,37312,29.8114,14742,2078
2.47824,419.6283,-1105,37313,29.8114,14735,2000
2.81853,399.4527,-1104,37314,29.6621,14735,2000
3.1143,381.4145,-1103,37315,29.6621,14735,2000
2.45698,362.8134,-1102,37316,29.7617,14735,2000
2.33968,340.2578,-1101,37317,29.8114,14735,2000
2.55404,315.5378,-1100,37318,29.6621,14735,2000
3.7276,292.6501,-1099,37319,29.6621,14735,2000
2.64033,273.5867,-1098,37320,29.6123,14735,2000
3.04775,253.6727,-1097,37321,29.8612,14735,2000
2.40203,235.9124,-1096,37322,29.7617,14735,2000
3.40259,217.7031,-1095,37323,29.8612,14741,1906
1.6165,199.171,-1094,37324,29.6621,14741,1906
1.76323,181.1791,-1093,37325,29.6123,14741,1906
2.41391,164.5523,-1092,37326,29.6123,14741,1906
1.55638,149.1387,-1091,37327,29.6123,14741,1906
2.15287,133.7462,-1090,37328,29.6123,14741,1906
2.23759,117.5687,-1089,37329,29.9608,14741,1906
2.77247,102.8152,-1088,37330,29.6621,14741,1906
2.44921,90.63768,-1087,37331,29.7617,14741,1906
2.33356,81.98891,-1086,37332,29.7617,14741,1906
2.80836,79.12134,-1085,37333,29.9608,14745,1857
2.90517,80.86188,-1084,37334,29.7617,14745,1857
1.81388,83.13383,-1083,37335,29.6123,14745,1857
3.11736,85.18033,-1082,37336,29.6621,14745,1857
2.41391,90.53536,-1081,37337,29.5128,14745,1857
2.0156,100.4639,-1080,37338,29.7617,14745,1857
3.20038,111.6652,-1079,37339,29.6621,14745,1857
2.32946,122.8137,-1078,37340,29.6621,14745,1857
2.11714,135.9669,-1077,37341,30.0604,14745,1857
2.64575,152.365,-1076,37342,29.6621,14745,1857
2.83876,171.7701,-1075,37343,29.7617,14741,1906
3.53321,189.4206,-1074,37344,29.6123,14741,1906
2.52588,202.4408,-1073,37345,29.8612,14741,1906
2.33764,214.927,-1072,37346,29.6621,14741,1906
2.67086,227.7885,-1071,37347,29.6123,14741,1906
2.05078,243.9587,-1070,37348,29.8114,14741,1906
2.69574,260.5877,-1069,37349,29.6123,14741,1906
2.41391,274.4281,-1068,37350,29.6621,14741,1906
3.31744,282.0309,-1067,37351,29.6621,14741,1906
1.69708,288.4227,-1066,37352,29.8114,14741,1906
2.23972,302.6093,-1065,37353,29.6621,14734,2000
2.62766,319.3365,-1064,37354,29.6123,14734,2000
2.97651,335.1253,-1063,37355,29.6621,14734,2000
2.71512,343.0532,-1062,37356,29.6621,14734,2000
2.04845,347.3468,-1061,37357,29.6123,14734,2000
2.63129,352.7293,-1060,37358,29.6621,14734,2000
2.68333,361.8122,-1059,37359,29.8612,14734,2000
2.26301,371.0019,-1058,37360,29.6123,14734,2000
1.67161,380.9819,-1057,37361,29.8114,14734,2000
2.80326,386.5076,-1056,37362,29.5128,14734,2000
1.94824,396.3528,-1055,37363,29.8612,14727,2076
1.77132,402.5304,-1054,37364,29.8114,14727,2076
1.80334,405.0084,-1053,37365,29.7617,14727,2076
2.28816,409.72,-1052,37366,29.6621,14727,2076
1.80069,415.5798,-1051,37367,29.7617,14727,2076
2.33968,417.7828,-1050,37368,29.6123,14727,2076
1.98461,415.7969,-1049,37369,29.8612,14727,2076
1.59273,415.7666,-1048,37370,29.7617,14727,2076
2.02033,418.968,-1047,37371,29.7617,14727,2076
1.92856,423.9481,-1046,37372,29.9608,14727,2076
1.84516,427.181,-1045,37373,29.7617,14727,2076
2.08994,428.1792,-1044,37374,29.5128,14727,2076
1.958,428.3333,-1043,37375,29.8612,14727,2076
1.33185,430.297,-1042,37376,29.6621,14727,2076
1.68863,434.0678,-1041,37377,29.6621,14727,2076
1.25061,434.5451,-1040,37378,29.8114,14727,2076
1.70549,433.7648,-1039,37379,29.7617,14727,2076
1.76052,433.6785,-1038,37380,29.7617,14727,2076
1.73872,431.1873,-1037,37381,29.8612,14727,2076
1.55638,424.8048,-1036,37382,29.8612,14727,2076
1.71664,417.6162,-1035,37383,29.6621,14714,2128
0.878906,411.8135,-1034,37384,29.6123,14714,2128
0.921287,407.1983,-1033,37385,29.6621,14714,2128
2.36401,404.5004,-1032,37386,29.6621,14714,2128
1.12198,401.1642,-1031,37387,29.6123,14714,2128
1.17188,393.8159,-1030,37388,29.6123,14714,2128
1.47781,384.8367,-1029,37389,29.8114,14714,2128
1.01956,376.4412,-1028,37390,29.6123,14714,2128
1.37067,369.7355,-1027,37391,29.5128,14714,2128
1.93842,365.5167,-1026,37392,29.6621,14714,2128
1.80598,363.5674,-1025,37393,29.8114,14728,2146
1.73323,359.8062,-1024,37394,29.7617,14728,2146
2.09677,353.9052,-1023,37395,29.6123,14728,2146
1.7551,347.3876,-1022,37396,29.7617,14728,2146
1.38796,342.8658,-1021,37397,29.7617,14728,2146
1.08306,338.0882,-1020,37398,29.5128,14728,2146
1.37415,333.9431,-1019,37399,29.6123,14728,2146
1.71942,327.4537,-1018,37400,29.8114,14728,2146
1.37415,318.324,-1017,37401,29.6123,14728,2146
1.01487,309.9573,-1016,37402,29.6621,14728,2146
1.19604,299.4716,-1015,37403,29.6123,14750,2152
2.30477,283.7194,-1014,37404,29.8114,14750,2152
1.46484,266.882,-1013,37405,29.6621,14750,2152
1.96772,253.923,-1012,37406,29.6621,14750,2152
2.5819,245.0463,-1011,37407,29.6123,14750,2152
1.96772,235.9113,-1010,37408,29.7617,14750,2152
2.21832,227.2309,-1009,37409,29.6621,14750,2152
2.36401,222.1024,-1008,37410,29.7617,14750,2152
1.77132,223.986,-1007,37411,29.2638,14750,2152
1.88858,228.2831,-1006,37412,30.0106,14750,2152
1.85547,223.8867,-1005,37413,29.7617,14785,2131
2.12613,213.2874,-1004,37414,29.8114,14785,2131
2.15066,201.1956,-1003,37415,29.9608,14785,2131
1.52231,193.7082,-1002,37416,29.7617,14785,2131
1.91864,191.9673,-1001,37417,29.6123,14785,2131
1.49066,193.9828,-1000,37418,29.6621,14785,2131
1.90867,193.2665,-999,37419,29.5128,14785,2131
1.61945,184.7932,-998,37420,29.5128,14785,2131
1.67446,171.4879,-997,37421,29.6621,14785,2131
1.9798,157.4362,-996,37422,29.8114,14785,2131
0.817051,143.8249,-995,37423,29.8612,14808,2117
1.52231,130.569,-994,37424,29.8114,14808,2117
1.41854,118.4966,-993,37425,29.8612,14808,2117
1.13045,110.2809,-992,37426,29.7617,14808,2117
1.31745,105.1692,-991,37427,29.6621,14808,2117
1.60466,97.95152,-990,37428,29.6123,14808,2117
0.662337,87.15248,-989,37429,29.5128,14808,2117
1.27702,79.04531,-988,37430,29.6123,14808,2117
1.29923,74.83647,-987,37431,29.6123,14808,2117
0.98628,71.92842,-986,37432,29.8612,14808,2117
1.32467,72.99325,-985,37433,29.5128,14819,2085
1.23912,80.30946,-984,37434,29.8612,14819,2085
1.52231,90.02626,-983,37435,29.7617,14819,2085
1.44518,97.02693,-982,37436,30.0106,14819,2085
0.941763,101.6058,-981,37437,29.7617,14819,2085
1.71942,105.9015,-980,37438,29.8114,14819,2085
1.57769,113.6315,-979,37439,29.7617,14819,2085
1.09619,123.3795,-978,37440,29.6621,14819,2085
1.61945,132.7118,-977,37441,29.6123,14819,2085
1.06977,141.5892,-976,37442,30.0106,14819,2085
0.365396,153.1183,-975,37443,29.7617,14807,2072
1.02423,165.8232,-974,37444,29.6123,14807,2072
0.41432,175.8753,-973,37445,29.6621,14807,2072
1.61945,182.0306,-972,37446,29.8114,14807,2072
1.00068,187.2459,-971,37447,29.8612,14807,2072
0.811194,195.9326,-970,37448,29.8114,14807,2072
1.09619,208.4574,-969,37449,29.6123,14807,2072
1.07422,222.4053,-968,37450,29.8114,14807,2072
1.62239,231.6855,-967,37451,29.9608,14807,2072
1.01487,236.0334,-966,37452,29.7617,14807,2072
1.49385,239.3486,-965,37453,29.9608,14775,2065
0.697405,248.2211,-964,37454,29.5128,14775,2065
1.81125,259.1622,-963,37455,29.6123,14775,2065
1.04268,265.4141,-962,37456,29.7617,14775,2065
1.57163,265.736,-961,37457,29.6621,14775,2065
0.878906,269.0676,-960,37458,29.7617,14775,2065
0.905627,275.5983,-959,37459,29.6123,14775,2065
2.41391,279.3936,-958,37460,29.8114,14775,2065
2.28399,278.6749,-957,37461,29.6123,14775,2065
1.54717,273.0483,-956,37462,29.6123,14775,2065
1.73872,265.1444,-955,37463,29.6621,14739,2067
2.29648,250.9596,-954,37464,29.7617,14739,2067
2.21832,230.2755,-953,37465,29.6621,14739,2067
2.26091,200.0521,-952,37466,29.6621,14739,2067
1.94824,184.6719,-951,37467,29.6621,14739,2067
2.39407,233.3534,-950,37468,29.8612,14739,2067
1.36019,319.9925,-949,37469,29.6621,14739,2067
2.8986,376.3711,-948,37470,29.6621,14739,2067
2.35997,372.0893,-947,37471,29.6621,14739,2067
2.20323,325.2183,-946,37472,29.7617,14739,2067
1.86572,275.1108,-945,37473,29.8114,14718,2072
2.08994,244.6475,-944,37474,29.6621,14718,2072
2.74308,249.1833,-943,37475,29.6621,14718,2072
2.13284,279.5246,-942,37476,29.6123,14718,2072
2.63672,308.0953,-941,37477,29.8114,14718,2072
2.36199,339.4201,-940,37478,30.0106,14718,2072
2.15951,373.5987,-939,37479,29.7617,14718,2072
1.3102,385.9187,-938,37480,29.6621,14718,2072
1.93596,357.8699,-937,37481,29.6621,14718,2072
1.59273,307.0758,-936,37482,29.6621,14718,2072
1.67161,270.8175,-935,37483,29.6621,14710,2077
2.20323,259.2874,-934,37484,29.6123,14710,2077
2.21617,266.2136,-933,37485,29.7617,14710,2077
1.09183,271.9765,-932,37486,29.7617,14710,2077
0.793363,253.1188,-931,37487,29.9608,14710,2077
1.58673,216.9243,-930,37488,29.6621,14710,2077
1.77132,190.5079,-929,37489,29.8114,14710,2077
2.27981,184.2408,-928,37490,29.8612,14710,2077
2.20539,181.7651,-927,37491,29.5128,14710,2077
1.08306,177.6649,-926,37492,29.8612,14710,2077
2.54282,177.1638,-925,37493,29.6123,14701,2086
2.12613,180.3164,-924,37494,29.8612,14701,2086
1.92856,182.3667,-923,37495,29.7617,14701,2086
2.33968,185.7278,-922,37496,29.6621,14701,2086
2.33764,190.6832,-921,37497,29.6621,14701,2086
2.54282,194.4861,-920,37498,29.6123,14701,2086
2.50883,199.1651,-919,37499,29.6621,14701,2086
1.89865,208.2561,-918,37500,29.8612,14701,2086
2.62221,218.5189,-917,37501,29.6621,14701,2086
2.43358,223.29,-916,37502,29.8612,14701,2086
1.99659,220.0294,-915,37503,29.8114,14702,2121
2.12388,217.9921,-914,37504,29.6621,14702,2121
2.50693,224.2166,-913,37505,29.6621,14702,2121
2.14399,232.4291,-912,37506,29.7617,14702,2121
2.55777,237.8464,-911,37507,29.6123,14702,2121
2.0716,241.6181,-910,37508,29.6123,14702,2121
1.57466,241.6857,-909,37509,29.7617,14702,2121
0.966748,239.1697,-908,37510,29.8612,14702,2121
1.70549,236.1862,-907,37511,29.7617,14702,2121
1.958,231.7473,-906,37512,29.6621,14702,2121
1.61355,226.6067,-905,37513,29.8114,14696,2149
1.48103,221.7347,-904,37514,29.8612,14696,2149
1.21581,219.1776,-903,37515,29.6123,14696,2149
1.13045,218.7054,-902,37516,29.6621,14696,2149
0.497951,219.2951,-901,37517,29.8612,14696,2149
2.24609,218.8044,-900,37518,29.6123,14696,2149
1.98701,216.6693,-899,37519,29.6621,14696,2149
1.05631,215.0818,-898,37520,29.7617,14696,2149
1.60168,215.0516,-897,37521,29.5128,14696,2149
0.768946,213.693,-896,37522,29.6621,14696,2149
1.21188,209.3372,-895,37523,29.5128,14698,2175
1.00543,204.1794,-894,37524,29.8612,14698,2175
2.37809,200.7154,-893,37525,29.8612,14698,2175
1.57769,200.3886,-892,37526,29.6123,14698,2175
1.89865,201.0956,-891,37527,29.7617,14698,2175
2.0785,201.7128,-890,37528,29.7617,14698,2175
1.60168,201.6848,-889,37529,29.6123,14698,2175
2.05543,201.2844,-888,37530,29.6123,14698,2175
1.45176,200.9678,-887,37531,29.8114,14698,2175
2.00612,199.8879,-886,37532,29.6123,14698,2175
1.4219,199.2094,-885,37533,29.6123,14694,2200
0.585938,198.517,-884,37534,29.6123,14694,2200
1.31745,196.7912,-883,37535,29.7617,14694,2200
2.05543,194.7633,-882,37536,29.7617,14694,2200
1.28817,192.7965,-881,37537,29.6123,14694,2200
1.34255,190.0449,-880,37538,29.7617,14694,2200
2.25668,186.7066,-879,37539,29.6123,14694,2200
1.29923,182.9163,-878,37540,29.6621,14694,2200
1.48103,178.904,-877,37541,29.6123,14694,2200
1.77132,172.8161,-876,37542,29.8612,14694,2200
1.21581,165.543,-875,37543,29.6621,14698,2226
2.23972,158.0307,-874,37544,29.8114,14698,2226
1.34255,150.8356,-873,37545,29.9608,14698,2226
2.32126,144.8882,-872,37546,29.6123,14698,2226
1.73323,140.5358,-871,37547,29.6621,14698,2226
0.690534,136.4479,-870,37548,29.8114,14698,2226
1.98461,131.983,-869,37549,29.7617,14698,2226
1.09183,127.4585,-868,37550,29.8114,14698,2226
0.525895,122.9127,-867,37551,29.6123,14698,2226
1.55638,117.9758,-866,37552,29.8114,14698,2226
2.32332,111.9288,-865,37553,29.8114,14690,2238
2.03209,107.071,-864,37554,29.7617,14690,2238
1.21188,103.2355,-863,37555,29.6621,14690,2238
1.78473,98.6964,-862,37556,29.6621,14690,2238
0.966748,93.5347,-861,37557,29.6123,14690,2238
1.21188,89.25869,-860,37558,29.6123,14690,2238
2.48784,84.68645,-859,37559,29.6123,14690,2238
2.12388,79.62934,-858,37560,29.6621,14690,2238
0.78733,74.481,-857,37561,29.8612,14690,2238
1.40163,69.97153,-856,37562,29.8612,14690,2238
2.1771,66.87526,-855,37563,29.6621,14689,2235
1.43525,62.79364,-854,37564,29.6621,14689,2235
1.83739,56.60207,-853,37565,29.6621,14689,2235
1.39822,49.26713,-852,37566,29.6123,14689,2235
1.77132,42.18214,-851,37567,29.6123,14689,2235
1.42525,37.37685,-850,37568,29.6123,14689,2235
0.640375,35.38292,-849,37569,29.6621,14689,2235
0.710948,34.97714,-848,37570,29.8114,14689,2235
2.0716,36.28816,-847,37571,29.7617,14689,2235
1.69708,51.87069,-846,37572,29.7617,14689,2235
1.21188,82.68126,-845,37573,29.8114,14694,2243
1.97256,79.21094,-844,37574,29.7617,14694,2243
1.73323,37.05895,-843,37575,29.6621,14694,2243
2.36401,33.4038,-842,37576,29.6621,14694,2243
2.40995,36.95284,-841,37577,29.8114,14694,2243
1.75781,40.39937,-840,37578,29.6621,14694,2243
2.10585,56.14093,-839,37579,29.6621,14694,2243
1.87846,59.16042,-838,37580,29.6621,14694,2243
2.09904,57.61564,-837,37581,29.5128,14694,2243
1.96772,65.47863,-836,37582,29.7617,14694,2243
2.08994,77.98115,-835,37583,29.8612,14694,2221
1.68863,89.20442,-834,37584,29.8612,14694,2221
1.80598,98.84507,-833,37585,29.7617,14694,2221
2.14177,104.6719,-832,37586,29.8114,14694,2221
1.88858,106.0013,-831,37587,29.7617,14694,2221
1.958,103.8232,-830,37588,29.8114,14694,2221
1.53168,101.4976,-829,37589,29.6621,14694,2221
1.23912,97.04475,-828,37590,29.6123,14694,2221
2.05543,95.96846,-827,37591,29.8114,14694,2221
0.737289,96.76681,-826,37592,29.6621,14694,2221
1.73047,94.56873,-825,37593,29.8612,14701,2200
1.34255,90.0596,-824,37594,29.7617,14701,2200
1.4118,86.50876,-823,37595,29.8612,14701,2200
1.76323,86.55715,-822,37596,29.8612,14701,2200
2.04845,91.54435,-821,37597,29.8114,14701,2200
1.87592,94.83229,-820,37598,29.8612,14701,2200
1.0381,94.62442,-819,37599,29.6621,14701,2200
2.0156,91.43759,-818,37600,29.5128,14701,2200
0.793363,83.49654,-817,37601,29.6621,14701,2200
0.737289,78.28972,-816,37602,29.6621,14701,2200
1.51917,80.75502,-815,37603,29.8612,14703,2193
1.61059,87.74512,-814,37604,29.6621,14703,2193
1.65728,95.48708,-813,37605,29.7617,14703,2193
1.31745,98.74281,-812,37606,29.7617,14703,2193
1.24296,95.06143,-811,37607,29.8612,14703,2193
1.4681,87.61945,-810,37608,29.7617,14703,2193
1.40163,83.88336,-809,37609,29.6621,14703,2193
1.36019,86.85343,-808,37610,29.6123,14703,2193
1.28447,92.85058,-807,37611,29.6621,14703,2193
1.3029,97.36246,-806,37612,29.6621,14703,2193
0.743728,94.57306,-805,37613,29.8612,14703,2186
0.717624,86.76769,-804,37614,29.6621,14703,2186
1.53168,79.68443,-803,37615,29.6621,14703,2186
2.34782,77.93833,-802,37616,29.8612,14703,2186
1.14304,80.76914,-801,37617,29.7617,14703,2186
0.921287,85.41948,-800,37618,29.6123,14703,2186
1.96529,88.31296,-799,37619,29.6123,14703,2186
1.54717,88.86677,-798,37620,29.6123,14703,2186
1.37415,88.03199,-797,37621,29.6621,14703,2186
2.43554,89.09009,-796,37622,29.6123,14703,2186
1.67161,94.36288,-795,37623,29.6621,14703,2186
1.96529,99.6896,-794,37624,29.7617,14703,2186
1.33185,101.0489,-793,37625,29.8612,14703,2186
1.00068,97.91812,-792,37626,29.6123,14703,2186
1.64283,90.45451,-791,37627,29.6621,14703,2186
1.13045,84.68003,-790,37628,29.6621,14703,2186
1.81913,90.24373,-789,37629,29.5128,14703,2186
1.75781,100.7987,-788,37630,29.5128,14703,2186
2.0739,103.1743,-787,37631,29.7617,14703,2186
1.49385,92.71511,-786,37632,29.6621,14703,2186
2.03209,87.48695,-785,37633,29.7617,14707,2186
2.12613,92.20794,-784,37634,29.8114,14707,2186
0.995902,95.70336,-783,37635,29.9608,14707,2186
1.4118,89.86904,-782,37636,29.7617,14707,2186
0.946812,84.27963,-781,37637,30.1599,14707,2186
1.25821,85.80874,-780,37638,29.7617,14707,2186
1.45176,94.16196,-779,37639,29.5128,14707,2186
1.98701,99.83755,-778,37640,29.9608,14707,2186
1.17998,101.8282,-777,37641,29.7617,14707,2186
0.793363,103.632,-776,37642,29.8612,14707,2186
0.697405,109.7032,-775,37643,29.6123,14705,2194
1.67161,116.7223,-774,37644,30.0106,14705,2194
1.10916,118.2013,-773,37645,29.6621,14705,2194
1.13045,119.199,-772,37646,29.6621,14705,2194
2.50693,115.8495,-771,37647,29.6621,14705,2194
1.61945,112.9011,-770,37648,29.8612,14705,2194
1.07865,116.5934,-769,37649,29.8612,14705,2194
1.9798,123.2222,-768,37650,29.8114,14705,2194
2.51263,123.2998,-767,37651,29.6123,14705,2194
1.33185,116.4233,-766,37652,29.7617,14705,2194
1.73047,103.1753,-765,37653,29.7617,14711,2214
2.67264,90.28666,-764,37654,29.9608,14711,2214
0.730792,89.75157,-763,37655,29.7617,14711,2214
0.534885,93.13061,-762,37656,29.5128,14711,2214
1.6165,89.00876,-761,37657,29.5128,14711,2214
2.31715,78.66757,-760,37658,29.5128,14711,2214
1.88606,72.28274,-759,37659,29.6123,14711,2214
1.67446,75.40557,-758,37660,29.6621,14711,2214
1.39481,83.38689,-757,37661,29.6621,14711,2214
1.59273,87.10219,-756,37662,29.7617,14711,2214
1.25061,84.84537,-755,37663,29.6621,14710,2231
1.958,79.52663,-754,37664,29.8114,14710,2231
2.02269,72.52682,-753,37665,29.7617,14710,2231
1.79273,68.26492,-752,37666,29.8612,14710,2231
1.05179,67.71206,-751,37667,29.8114,14710,2231
2.14399,66.48855,-750,37668,29.6123,14710,2231
2.32946,61.27553,-749,37669,29.9608,14710,2231
2.31921,59.91166,-748,37670,29.7617,14710,2231
1.58973,64.48005,-747,37671,29.9608,14710,2231
1.19604,73.47517,-746,37672,29.6621,14710,2231
2.41193,87.9928,-745,37673,29.9608,14708,2240
2.28399,104.9563,-744,37674,29.8612,14708,2240
2.74482,127.0303,-743,37675,29.6621,14708,2240
1.87592,141.1252,-742,37676,29.8114,14708,2240
2.23759,137.0361,-741,37677,29.6621,14708,2240
1.67161,121.1494,-740,37678,29.6621,14708,2240
1.90116,112.4572,-739,37679,29.8612,14708,2240
2.14177,125.3385,-738,37680,29.6123,14708,2240
3.05244,152.4748,-737,37681,29.7617,14708,2240
0.889691,170.6478,-736,37682,29.6621,14708,2240
2.13508,164.6777,-735,37683,29.8114,14712,2239
1.67161,142.4939,-734,37684,29.8114,14712,2239
2.1573,131.2408,-733,37685,29.6621,14712,2239
1.56555,135.5624,-732,37686,29.8114,14712,2239
1.90617,148.5961,-731,37687,29.5128,14712,2239
1.15135,152.4882,-730,37688,29.6621,14712,2239
1.32827,144.135,-729,37689,29.8114,14712,2239
1.8529,139.8089,-728,37690,29.6621,14712,2239
2.36199,148.6064,-727,37691,29.7617,14712,2239
2.10585,159.2279,-726,37692,29.6621,14712,2239
1.63993,164.0652,-725,37693,29.6621,14717,2209
1.94088,163.561,-724,37694,29.9608,14717,2209
1.76323,158.8796,-723,37695,29.6621,14717,2209
2.03209,157.8066,-722,37696,29.8114,14717,2209
1.82698,158.217,-721,37697,29.8114,14717,2209
2.54094,152.6977,-720,37698,29.7617,14717,2209
2.4974,145.7301,-719,37699,29.7617,14717,2209
1.88858,148.4524,-718,37700,29.8612,14717,2209
1.37415,161.6339,-717,37701,29.8612,14717,2209
1.3637,168.6173,-716,37702,29.8612,14717,2209
1.87592,163.9596,-715,37703,29.5128,14720,2174
2.23972,164.0005,-714,37704,29.8114,14720,2174
1.81388,164.6142,-713,37705,29.6123,14720,2174
2.74134,164.057,-712,37706,29.6621,14720,2174
1.58673,166.3412,-711,37707,29.7617,14720,2174
1.13045,164.7178,-710,37708,29.8612,14720,2174
1.05631,158.551,-709,37709,29.6123,14720,2174
1.32827,158.8308,-708,37710,29.6621,14720,2174
1.92608,164.2481,-707,37711,29.9608,14720,2174
2.08994,176.3205,-706,37712,29.6123,14720,2174
2.58559,184.0026,-705,37713,29.7617,14725,2148
1.80334,180.4811,-704,37714,29.8612,14725,2148
1.73047,173.2944,-703,37715,29.8612,14725,2148
2.47824,164.1516,-702,37716,29.6621,14725,2148
1.96529,162.4888,-701,37717,29.6621,14725,2148
1.71108,171.2635,-700,37718,29.6123,14725,2148
1.44518,175.4632,-699,37719,29.6621,14725,2148
1.62826,167.2977,-698,37720,29.9608,14725,2148
1.68863,154.9875,-697,37721,29.6123,14725,2148
0.577742,147.0449,-696,37722,29.8612,14725,2148
1.92608,147.0644,-695,37723,29.5128,14733,2108
1.958,149.5248,-694,37724,29.6123,14733,2108
0.655098,149.2281,-693,37725,29.6123,14733,2108
1.77132,143.7578,-692,37726,29.6621,14733,2108
2.16171,133.1308,-691,37727,29.7617,14733,2108
2.16392,122.8901,-690,37728,30.0106,14733,2108
1.94333,114.3347,-689,37729,29.6621,14733,2108
1.66875,109.2173,-688,37730,29.6621,14733,2108
1.51917,110.104,-687,37731,29.5128,14733,2108
2.03444,110.0823,-686,37732,29.6621,14733,2108
2.05311,100.4141,-685,37733,29.6621,14740,2082
2.33356,94.332,-684,37734,29.8612,14740,2082
1.73047,99.62837,-683,37735,30.0106,14740,2082
1.97498,109.5499,-682,37736,29.8114,14740,2082
1.43857,112.2339,-681,37737,29.8114,14740,2082
2.27352,108.3991,-680,37738,29.6621,14740,2082
2.56336,105.8977,-679,37739,29.6123,14740,2082
1.16371,102.9376,-678,37740,29.8612,14740,2082
2.24822,104.8164,-677,37741,29.6123,14740,2082
1.72772,105.5473,-676,37742,29.8612,14740,2082
1.54408,100.2787,-675,37743,29.6621,14745,2067
1.80334,91.22908,-674,37744,29.7617,14745,2067
1.26577,78.90597,-673,37745,29.8612,14745,2067
1.1596,70.18958,-672,37746,29.8114,14745,2067
1.14304,59.57544,-671,37747,29.6123,14745,2067
1.96772,49.67242,-670,37748,29.8612,14745,2067
1.53789,44.20193,-669,37749,29.6621,14745,2067
1.60168,43.58372,-668,37750,29.6123,14745,2067
1.79273,41.79603,-667,37751,29.7617,14745,2067
2.31303,28.33872,-666,37752,29.6621,14745,2067
1.91864,26.68793,-665,37753,29.6621,14746,2069
2.45698,57.70015,-664,37754,29.6123,14746,2069
2.6003,86.8916,-663,37755,29.8612,14746,2069
2.43358,91.21267,-662,37756,29.6123,14746,2069
3.04305,63.7858,-661,37757,29.8114,14746,2069
3.66178,26.32562,-660,37758,29.6621,14746,2069
2.64935,56.53332,-659,37759,29.6621,14746,2069
2.98451,97.29777,-658,37760,29.8612,14746,2069
3.59608,116.9304,-657,37761,29.8114,14746,2069
3.19293,120.734,-656,37762,29.8612,14746,2069
2.75176,118.174,-655,37763,29.8114,14751,2087
2.74308,114.6095,-654,37764,29.8114,14751,2087
1.90617,109.3798,-653,37765,29.8612,14751,2087
2.2819,101.7752,-652,37766,29.6621,14751,2087
2.75176,104.3265,-651,37767,29.6123,14751,2087
3.03364,124.1453,-650,37768,29.8114,14751,2087
1.87592,147.6063,-649,37769,29.8612,14751,2087
2.86051,144.7313,-648,37770,29.8612,14751,2087
2.20323,138.764,-647,37771,29.7617,14751,2087
1.67161,152.7701,-646,37772,29.6621,14751,2087
1.87592,173.0708,-645,37773,29.6621,14761,2102
1.85804,177.9687,-644,37774,29.8114,14761,2102
2.23545,171.9726,-643,37775,29.8612,14761,2102
1.39139,170.1197,-642,37776,29.6123,14761,2102
1.88353,172.8934,-641,37777,29.7617,14761,2102
2.03209,180.0437,-640,37778,29.7617,14761,2102
1.90867,196.5338,-639,37779,29.6123,14761,2102
2.15951,213.6357,-638,37780,29.6621,14761,2102
1.82698,225.6885,-637,37781,29.6621,14761,2102
2.06237,230.8466,-636,37782,29.8612,14761,2102
2.21832,237.8855,-635,37783,29.8612,14778,2122
1.61355,249.4475,-634,37784,29.8612,14778,2122
2.2944,254.0906,-633,37785,29.6123,14778,2122
1.86572,266.4699,-632,37786,29.9608,14778,2122
1.4118,290.329,-631,37787,29.6621,14778,2122
1.34255,309.6448,-630,37788,29.8612,14778,2122
2.15066,322.2861,-629,37789,29.6621,14778,2122
1.15548,316.7802,-628,37790,29.8114,14778,2122
1.38452,302.1276,-627,37791,29.7617,14778,2122
2.0716,308.9344,-626,37792,29.6621,14778,2122
1.1472,326.4536,-625,37793,29.6621,14818,2153
1.74966,326.2507,-624,37794,29.6123,14818,2153
1.6341,315.0879,-623,37795,29.8114,14818,2153
1.71386,309.4034,-622,37796,29.8114,14818,2153
1.94824,311.0857,-621,37797,29.6621,14818,2153
1.92608,317.0696,-620,37798,29.6123,14818,2153
1.49385,321.3522,-619,37799,29.8612,14818,2153
1.93596,323.463,-618,37800,29.6621,14818,2153
1.60168,330.1295,-617,37801,29.6621,14818,2153
1.6165,304.4439,-616,37802,29.6123,14818,2153
2.27981,280.4833,-615,37803,29.7617,14888,2182
1.44518,305.0213,-614,37804,29.8612,14888,2182
1.68863,339.384,-613,37805,29.6621,14888,2182
1.89865,340.3436,-612,37806,29.6621,14888,2182
2.12388,385.8317,-611,37807,29.6621,14888,2182
5.18315,609.8234,-610,37808,29.5128,14888,2182
3.28712,647.3817,-609,37809,29.6123,14888,2182
2.21832,247.1606,-608,37810,29.8612,14888,2182
2.21617,329.2159,-607,37811,29.8612,14888,2182
1.70829,531.2852,-606,37812,29.7617,14888,2182
1.36719,395.5166,-605,37813,29.6123,14915,2211
1.44188,339.3025,-604,37814,29.6621,14915,2211
1.75781,454.5369,-603,37815,29.6621,14915,2211
1.95556,450.3057,-602,37816,29.7617,14915,2211
1.90617,425.4579,-601,37817,29.6123,14915,2211
1.71386,506.8486,-600,37818,29.6123,14915,2211
1.46158,565.4277,-599,37819,29.8612,14915,2211
0.697405,550.8835,-598,37820,29.6621,14915,2211
1.4681,527.3413,-597,37821,29.6123,14915,2211
0.402647,525.2782,-596,37822,29.7617,14915,2211
1.3637,534.1168,-595,37823,29.6621,14864,2250
1.40163,555.2276,-594,37824,29.6621,14864,2250
1.11773,584.0657,-593,37825,29.8114,14864,2250
0.750112,599.9726,-592,37826,29.6621,14864,2250
1.57769,598.9863,-591,37827,29.6123,14864,2250
0.323889,592.087,-590,37828,29.5128,14864,2250
0.710948,592.2185,-589,37829,29.6621,14864,2250
0.845728,602.2871,-588,37830,29.6621,14864,2250
1.11345,621.9967,-587,37831,29.7617,14864,2250
0.497951,646.0589,-586,37832,29.6123,14864,2250
1.20794,662.1405,-585,37833,29.7617,14814,2291
1.63702,659.0689,-584,37834,29.8612,14814,2291
1.19604,646.9078,-583,37835,30.0106,14814,2291
0.862477,630.7182,-582,37836,29.6621,14814,2291
1.09183,577.5673,-581,37837,29.8114,14814,2291
1.85547,463.6383,-580,37838,29.5128,14814,2291
1.75238,314.2064,-579,37839,29.8114,14814,2291
1.40163,252.2551,-578,37840,29.8612,14814,2291
1.79539,344.0726,-577,37841,29.7617,14814,2291
1.8606,402.5802,-576,37842,29.6621,14814,2291
2.50313,366.6373,-575,37843,29.7617,14760,2338
1.62239,328.1712,-574,37844,29.6123,14760,2338
2.45892,368.8814,-573,37845,29.8114,14760,2338
1.958,425.8579,-572,37846,29.6123,14760,2338
2.11037,444.1862,-571,37847,30.0106,14760,2338
2.09677,421.9161,-570,37848,29.8114,14760,2338
2.32332,375.9482,-569,37849,29.9608,14760,2338
2.85384,328.7784,-568,37850,29.6621,14760,2338
2.33356,288.0227,-567,37851,29.8612,14760,2338
1.82698,251.5603,-566,37852,29.7617,14760,2338
2.46086,216.5587,-565,37853,29.6123,14730,2376
2.31921,187.8188,-564,37854,29.5128,14730,2376
3.44714,179.1426,-563,37855,29.8612,14730,2376
1.71664,191.1649,-562,37856,29.8612,14730,2376
0.971667,214.1958,-561,37857,29.9608,14730,2376
2.40203,233.2114,-560,37858,29.6621,14730,2376
2.30063,234.0985,-559,37859,29.6621,14730,2376
2.57079,215.3019,-558,37860,29.8612,14730,2376
1.31745,186.8466,-557,37861,29.6621,14730,2376
1.44188,162.9092,-556,37862,29.8612,14730,2376
2.05078,151.1561,-555,37863,29.8612,14720,2376
0.85693,147.4569,-554,37864,29.7617,14720,2376
1.4219,141.1803,-553,37865,30.0106,14720,2376
2.32946,133.3317,-552,37866,29.8612,14720,2376
1.79539,124.5168,-551,37867,29.6621,14720,2376
2.8236,115.6624,-550,37868,29.6123,14720,2376
2.0785,108.8203,-549,37869,29.6123,14720,2376
2.08537,105.877,-548,37870,29.8114,14720,2376
1.84257,107.7342,-547,37871,29.6123,14720,2376
1.73047,107.7245,-546,37872,29.8114,14720,2376
1.37067,107.8928,-545,37873,29.8612,14720,2389
1.80334,113.9765,-544,37874,29.6621,14720,2389
2.16392,127.8138,-543,37875,29.8612,14720,2389
1.59273,145.957,-542,37876,29.7617,14720,2389
1.88353,162.6043,-541,37877,29.8612,14720,2389
2.12388,175.4705,-540,37878,29.6123,14720,2389
2.22905,181.5883,-539,37879,29.6621,14720,2389
2.21187,186.7359,-538,37880,29.8114,14720,2389
1.58673,188.3401,-537,37881,29.8612,14720,2389
2.3539,187.759,-536,37882,29.6621,14720,2389
2.04845,181.8975,-535,37883,30.0106,14721,2387
2.09677,174.0483,-534,37884,29.8114,14721,2387
1.67446,179.1428,-533,37885,29.6621,14721,2387
2.05543,190.1117,-532,37886,29.6123,14721,2387
2.44921,200.697,-531,37887,29.6123,14721,2387
2.0693,213.0913,-530,37888,29.6621,14721,2387
2.21187,229.9795,-529,37889,29.6621,14721,2387
2.15951,245.1328,-528,37890,29.7617,14721,2387
2.0156,256.0592,-527,37891,29.8612,14721,2387
2.11037,259.769,-526,37892,29.6621,14721,2387
2.33151,257.612,-525,37893,29.8612,14733,2378
2.43554,255.0652,-524,37894,29.8114,14733,2378
2.21402,256.9708,-523,37895,29.8612,14733,2378
1.98461,258.3286,-522,37896,29.6621,14733,2378
1.85547,251.8701,-521,37897,29.8612,14733,2378
2.04146,246.5149,-520,37898,29.8114,14733,2378
1.68298,254.3774,-519,37899,29.7617,14733,2378
2.09677,265.8228,-518,37900,29.8612,14733,2378
3.02734,271.8369,-517,37901,29.8612,14733,2378
2.65833,273.3985,-516,37902,29.7617,14733,2378
2.87382,274.7994,-515,37903,29.6123,14757,2356
2.22905,281.9349,-514,37904,29.9608,14757,2356
2.75176,297.4804,-513,37905,29.8612,14757,2356
2.88706,313.5391,-512,37906,29.5128,14757,2356
2.03678,326.6885,-511,37907,29.6123,14757,2356
2.45892,336.7168,-510,37908,29.8114,14757,2356
1.89865,339.5893,-509,37909,29.7617,14757,2356
1.97739,335.7828,-508,37910,29.8114,14757,2356
2.90024,330.6575,-507,37911,29.8114,14757,2356
2.32946,324.2066,-506,37912,29.6123,14757,2356
2.16612,316.9721,-505,37913,29.8114,14803,2318
2.00374,312.7942,-504,37914,29.7617,14803,2318
1.67161,310.3829,-503,37915,29.8612,14803,2318
2.00374,304.9918,-502,37916,29.7617,14803,2318
2.44726,299.6874,-501,37917,29.8612,14803,2318
1.80334,297.0221,-500,37918,29.8114,14803,2318
2.16171,296.3244,-499,37919,30.0106,14803,2318
1.5034,291.7296,-498,37920,29.6123,14803,2318
1.56859,281.0559,-497,37921,29.6621,14803,2318
3.00997,267.6521,-496,37922,29.8114,14803,2318
2.37809,257.5632,-495,37923,29.8612,14871,2286
1.89865,251.2684,-494,37924,29.6123,14871,2286
2.75868,244.0258,-493,37925,29.8114,14871,2286
1.34255,233.8489,-492,37926,29.8114,14871,2286
1.28817,222.2575,-491,37927,29.6621,14871,2286
2.16171,209.6985,-490,37928,29.6621,14871,2286
1.79007,195.5203,-489,37929,29.8114,14871,2286
2.02504,182.4923,-488,37930,29.6621,14871,2286
2.75868,172.1097,-487,37931,29.6123,14871,2286
1.19604,165.6435,-486,37932,29.7617,14871,2286
1.59572,167.2984,-485,37933,29.6621,14947,2257
1.45176,176.8902,-484,37934,29.8612,14947,2257
2.05078,183.9325,-483,37935,29.8612,14947,2257
2.14844,176.8103,-482,37936,29.6123,14947,2257
1.39139,155.9821,-481,37937,29.7617,14947,2257
1.39822,136.9151,-480,37938,29.9608,14947,2257
1.89614,131.4159,-479,37939,29.6123,14947,2257
2.03912,136.0843,-478,37940,29.6621,14947,2257
1.82698,139.0863,-477,37941,29.6621,14947,2257
1.17998,131.2138,-476,37942,29.6621,14947,2257
0.78733,117.2664,-475,37943,29.6123,15011,2243
0.768946,108.212,-474,37944,29.6621,15011,2243
1.49066,105.1956,-473,37945,29.6123,15011,2243
1.07865,103.323,-472,37946,29.7617,15011,2243
2.1771,96.47734,-471,37947,29.8114,15011,2243
1.88606,86.38534,-470,37948,29.6621,15011,2243
1.16371,82.87612,-469,37949,29.7617,15011,2243
1.07865,88.02023,-468,37950,29.7617,15011,2243
2.10585,99.51883,-467,37951,29.6621,15011,2243
1.46158,108.1869,-466,37952,29.6123,15011,2243
1.62239,107.9128,-465,37953,29.7617,15044,2242
1.10916,100.5773,-464,37954,29.8114,15044,2242
1.48103,92.88548,-463,37955,29.8114,15044,2242
0.921287,91.39276,-462,37956,29.8114,15044,2242
1.12198,94.95054,-461,37957,29.9608,15044,2242
1.63702,96.75156,-460,37958,29.5128,15044,2242
1.73047,96.14128,-459,37959,29.7617,15044,2242
1.65152,98.0641,-458,37960,29.7617,15044,2242
1.7551,107.3797,-457,37961,29.6123,15044,2242
0.365396,114.7306,-456,37962,29.6123,15044,2242
1.33185,112.2369,-455,37963,29.7617,15016,2253
1.45505,108.5081,-454,37964,29.7617,15016,2253
1.38107,107.4391,-453,37965,29.5128,15016,2253
1.20399,120.4017,-452,37966,29.6621,15016,2253
1.68863,145.481,-451,37967,29.6621,15016,2253
1.75238,170.6807,-450,37968,29.8114,15016,2253
2.47246,176.6849,-449,37969,29.6621,15016,2253
3.13262,158.5308,-448,37970,29.8612,15016,2253
0.625305,130.0209,-447,37971,29.6123,15016,2253
0.768946,116.7902,-446,37972,29.8114,15016,2253
1.27328,134.2656,-445,37973,29.7617,14956,2268
0.239208,158.5649,-444,37974,29.6123,14956,2268
1.74146,164.5103,-443,37975,29.6621,14956,2268
1.18804,150.2595,-442,37976,29.7617,14956,2268
1.31745,140.9715,-441,37977,29.7617,14956,2268
1.64863,147.4638,-440,37978,29.5128,14956,2268
1.56555,145.0891,-439,37979,29.7617,14956,2268
1.38452,130.8554,-438,37980,29.8612,14956,2268
1.85547,119.1686,-437,37981,29.8114,14956,2268
1.76863,120.4746,-436,37982,29.6123,14956,2268
1.56859,128.7428,-435,37983,29.7617,14886,2284
2.62221,128.4175,-434,37984,29.6621,14886,2284
1.28817,113.8991,-433,37985,29.7617,14886,2284
1.42859,100.177,-432,37986,29.8612,14886,2284
1.71664,99.04266,-431,37987,29.8612,14886,2284
1.31745,102.5159,-430,37988,29.7617,14886,2284
1.73872,99.54877,-429,37989,29.8612,14886,2284
2.02975,96.5499,-428,37990,29.6621,14886,2284
1.67161,99.11516,-427,37991,29.9608,14886,2284
1.11773,102.6182,-426,37992,29.8114,14886,2284
2.56522,98.66121,-425,37993,29.9608,14823,2298
1.4118,90.85911,-424,37994,29.8114,14823,2298
1.1472,85.39732,-423,37995,29.6123,14823,2298
1.53168,84.71477,-422,37996,29.7617,14823,2298
2.24822,89.08331,-421,37997,29.9608,14823,2298
1.37067,97.49812,-420,37998,29.6621,14823,2298
1.0381,102.3973,-419,37999,29.6621,14823,2298
2.03444,97.27449,-418,38000,29.8114,14823,2298
2.66371,85.66431,-417,38001,29.6123,14823,2298
2.59663,76.35261,-416,38002,29.7617,14823,2298
2.45892,73.00131,-415,38003,29.6621,14780,2305
2.41786,68.34477,-414,38004,29.9608,14780,2305
2.69397,56.05939,-413,38005,29.8114,14780,2305
1.90617,44.3982,-412,38006,29.6123,14780,2305
1.67161,37.10476,-411,38007,29.7617,14780,2305
2.20323,35.69487,-410,38008,29.9608,14780,2305
1.96772,37.63608,-409,38009,29.6621,14780,2305
2.99568,36.22528,-408,38010,29.6123,14780,2305
2.18584,28.66418,-407,38011,29.6123,14780,2305
2.17052,17.42957,-406,38012,29.7617,14780,2305
2.58005,10.50372,-405,38013,30.0106,14752,2305
2.11714,9.84238,-404,38014,29.7617,14752,2305
1.37415,13.44382,-403,38015,29.8114,14752,2305
1.92856,17.93146,-402,38016,29.5128,14752,2305
1.64863,21.21215,-401,38017,29.8612,14752,2305
2.15287,23.65551,-400,38018,29.8612,14752,2305
1.62239,27.43977,-399,38019,29.6621,14752,2305
2.47631,24.68991,-398,38020,29.8114,14752,2305
2.51263,24.59952,-397,38021,29.6123,14752,2305
1.958,34.34626,-396,38022,30.0106,14752,2305
1.3029,42.90177,-395,38023,29.6621,14743,2305
4.01461,46.08716,-394,38024,29.6621,14743,2305
3.26966,48.01089,-393,38025,29.5128,14743,2305
1.92112,50.44961,-392,38026,29.9608,14743,2305
1.67161,50.5172,-391,38027,29.8114,14743,2305
2.15287,50.81542,-390,38028,29.8114,14743,2305
0.971667,54.31868,-389,38029,29.5128,14743,2305
1.40163,59.02311,-388,38030,29.6123,14743,2305
2.12388,63.4115,-387,38031,29.7617,14743,2305
1.73047,68.73686,-386,38032,29.7617,14743,2305
2.3539,75.66686,-385,38033,29.7617,14735,2294
1.958,80.15717,-384,38034,29.6123,14735,2294
1.87846,80.28488,-383,38035,29.6123,14735,2294
1.23912,77.09492,-382,38036,29.9608,14735,2294
1.30655,77.84115,-381,38037,29.7617,14735,2294
3.31168,81.88534,-380,38038,29.8114,14735,2294
1.87592,86.09013,-379,38039,29.9608,14735,2294
1.92608,88.98407,-378,38040,29.6621,14735,2294
1.62239,91.60529,-377,38041,29.7617,14735,2294
1.94824,92.97375,-376,38042,29.8612,14735,2294
2.3539,93.53589,-375,38043,30.0604,14737,2282
2.23118,93.73585,-374,38044,29.7617,14737,2282
2.18802,94.33887,-373,38045,29.7617,14737,2282
1.09183,95.66333,-372,38046,29.8114,14737,2282
1.69427,97.11466,-371,38047,29.6123,14737,2282
2.29024,100.1218,-370,38048,29.5128,14737,2282
1.95313,102.8442,-369,38049,29.8114,14737,2282
1.76323,106.0974,-368,38050,29.8612,14737,2282
2.44336,110.9968,-367,38051,29.6123,14737,2282
2.04845,116.6396,-366,38052,29.8612,14737,2282
1.96529,121.4976,-365,38053,29.7617,14736,2275
1.38107,123.2316,-364,38054,29.7617,14736,2275
1.77401,120.6464,-363,38055,29.7617,14736,2275
1.81651,112.7245,-362,38056,29.6621,14736,2275
2.5353,102.0183,-361,38057,29.6123,14736,2275
1.19205,92.8773,-360,38058,29.8114,14736,2275
1.11345,88.05696,-359,38059,29.7617,14736,2275
1.88858,86.95469,-358,38060,29.6123,14736,2275
0.402647,89.78867,-357,38061,29.6123,14736,2275
2.12164,95.23566,-356,38062,29.6123,14736,2275
1.48746,102.2399,-355,38063,29.8114,14755,2273
2.14177,109.4093,-354,38064,29.6621,14755,2273
2.60945,116.909,-353,38065,29.7617,14755,2273
1.94088,122.6657,-352,38066,29.7617,14755,2273
1.69708,125.4753,-351,38067,29.6621,14755,2273
2.58743,126.4027,-350,38068,29.8612,14755,2273
1.92856,125.0521,-349,38069,29.8612,14755,2273
1.24296,121.6333,-348,38070,29.6123,14755,2273
1.68298,112.5198,-347,38071,29.8612,14755,2273
1.68863,101.4282,-346,38072,29.463,14755,2273
1.56555,98.3764,-345,38073,29.8114,14787,2276
1.33185,106.8872,-344,38074,29.7617,14787,2276
2.20539,117.6209,-343,38075,29.8612,14787,2276
1.82698,131.1106,-342,38076,29.7617,14787,2276
1.77401,146.3658,-341,38077,29.7617,14787,2276
1.958,162.5033,-340,38078,29.8114,14787,2276
2.10585,178.0817,-339,38079,29.6621,14787,2276
2.11488,190.4281,-338,38080,29.7617,14787,2276
1.62239,195.8202,-337,38081,29.8612,14787,2276
1.6165,194.7906,-336,38082,29.7617,14787,2276
1.86572,190.0259,-335,38083,29.7617,14812,2285
1.69708,185.5322,-334,38084,29.6123,14812,2285
1.82437,183.9237,-333,38085,29.8114,14812,2285
1.60168,184.3012,-332,38086,29.8612,14812,2285
1.8606,185.2864,-331,38087,29.6621,14812,2285
2.12388,186.5529,-330,38088,29.7617,14812,2285
1.75781,189.6154,-329,38089,29.6621,14812,2285
1.51917,193.3546,-328,38090,29.7617,14812,2285
1.60168,196.4571,-327,38091,29.6621,14812,2285
0.817051,206.4192,-326,38092,29.8114,14812,2285
2.43358,226.1451,-325,38093,29.8612,14806,2309
2.37005,246.8695,-324,38094,29.8612,14806,2309
1.94088,265.4259,-323,38095,29.6621,14806,2309
2.1771,284.7114,-322,38096,29.6621,14806,2309
1.75238,305.7486,-321,38097,29.6621,14806,2309
2.11263,324.1352,-320,38098,29.8114,14806,2309
0.497951,335.4153,-319,38099,29.8612,14806,2309
1.70829,339.9521,-318,38100,29.6123,14806,2309
2.32946,338.2703,-317,38101,29.6123,14806,2309
2.2819,338.2609,-316,38102,29.6621,14806,2309
2.62221,349.1309,-315,38103,29.9608,14779,2356
1.94333,362.6895,-314,38104,29.7617,14779,2356
2.66371,365.1607,-313,38105,29.6621,14779,2356
2.11714,355.769,-312,38106,29.7617,14779,2356
1.40163,350.7015,-311,38107,29.6621,14779,2356
2.34782,358.1589,-310,38108,29.7617,14779,2356
1.47781,363.9363,-309,38109,29.6123,14779,2356
2.06237,363.9731,-308,38110,29.6621,14779,2356
1.73047,364.6409,-307,38111,29.9608,14779,2356
1.28817,371.6232,-306,38112,29.8612,14779,2356
1.36019,379.4426,-305,38113,29.7617,14741,2356
1.45176,380.9033,-304,38114,29.8114,14741,2356
1.32827,378.9364,-303,38115,29.6123,14741,2356
1.4118,385.5456,-302,38116,29.8612,14741,2356
1.958,402.1329,-301,38117,29.6621,14741,2356
1.10916,426.7967,-300,38118,29.7617,14741,2356
0.497951,443.525,-299,38119,29.6621,14741,2356
1.44518,437.6221,-298,38120,29.8114,14741,2356
1.80598,418.8355,-297,38121,29.9608,14741,2356
1.82437,405.1562,-296,38122,30.0106,14741,2356
1.44518,405.2062,-295,38123,29.6123,14741,2402
1.32467,411.5945,-294,38124,29.6621,14741,2402
1.19604,428.2604,-293,38125,29.6621,14741,2402
1.21581,455.8739,-292,38126,29.8612,14741,2402
1.3029,485.2985,-291,38127,29.6621,14741,2402
2.05078,514.647,-290,38128,29.7617,14741,2402
1.25442,551.8372,-289,38129,29.8612,14741,2402
0.768946,598.3417,-288,38130,29.8612,14741,2402
2.4277,645.1588,-287,38131,29.8612,14741,2402
1.83739,680.3259,-286,38132,29.8114,14741,2402
1.37415,693.8983,-285,38133,29.7617,14716,2469
3.03364,685.0242,-284,38134,29.9608,14716,2469
2.05078,658.4221,-283,38135,30.0106,14716,2469
1.19205,624.7466,-282,38136,30.0106,14716,2469
1.23912,589.1282,-281,38137,29.7617,14716,2469
1.83479,553.4382,-280,38138,29.8612,14716,2469
2.36602,490.0306,-279,38139,29.8114,14716,2469
1.60466,393.1456,-278,38140,29.5128,14716,2469
2.95561,309.1191,-277,38141,29.7617,14716,2469
2.09677,325.5476,-276,38142,29.6621,14716,2469
1.47134,415.5375,-275,38143,29.6621,14710,2525
0.662337,473.7135,-274,38144,29.8612,14710,2525
0.323889,434.1918,-273,38145,29.8612,14710,2525
1.59273,365.2406,-272,38146,29.6123,14710,2525
0.941763,355.0841,-271,38147,29.8612,14710,2525
1.92856,355.0279,-270,38148,29.6123,14710,2525
0.78733,352.9411,-269,38149,29.8612,14710,2525
1.36019,364.3911,-268,38150,29.8114,14710,2525
2.15287,392.5079,-267,38151,29.6621,14710,2525
1.47781,432.7506,-266,38152,29.7617,14710,2525
1.88606,450.8439,-265,38153,29.6123,14699,2573
1.53168,421.0811,-264,38154,30.0106,14699,2573
1.78473,400.9707,-263,38155,29.7617,14699,2573
0.971667,421.7328,-262,38156,29.8114,14699,2573
0.834375,429.0219,-261,38157,29.6621,14699,2573
1.64863,430.4114,-260,38158,29.7617,14699,2573
1.44518,434.7228,-259,38159,29.6621,14699,2573
0.946812,441.2529,-258,38160,29.7617,14699,2573
1.39139,440.4111,-257,38161,29.8612,14699,2573
1.99897,430.7104,-256,38162,29.6621,14699,2573
1.80334,421.392,-255,38163,29.6621,14692,2617
1.06977,423.6507,-254,38164,29.7617,14692,2617
2.25034,432.8745,-253,38165,29.8612,14692,2617
1.26953,442.4673,-252,38166,29.8114,14692,2617
1.55638,441.376,-251,38167,29.7617,14692,2617
0.534885,437.5201,-250,38168,29.6123,14692,2617
2.18366,439.7189,-249,38169,30.0604,14692,2617
1.76323,445.2132,-248,38170,29.8114,14692,2617
1.37415,449.436,-247,38171,29.8612,14692,2617
0.710948,454.4583,-246,38172,29.6123,14692,2617
2.17052,457.8622,-245,38173,29.9608,14685,2650
1.04725,461.5212,-244,38174,29.8114,14685,2650
1.82698,463.81,-243,38175,29.8114,14685,2650
2.31715,465.19,-242,38176,29.6621,14685,2650
2.10585,470.3835,-241,38177,29.6123,14685,2650
1.82698,474.4836,-240,38178,29.7617,14685,2650
2.27352,474.4543,-239,38179,29.7617,14685,2650
2.6131,472.429,-238,38180,29.6621,14685,2650
1.73047,469.3334,-237,38181,29.8114,14685,2650
2.33356,464.7014,-236,38182,29.8612,14685,2650
2.55591,457.9951,-235,38183,29.6621,14683,2652
2.30684,451.9036,-234,38184,29.8612,14683,2652
2.00136,445.9627,-233,38185,29.7617,14683,2652
2.97651,438.1789,-232,38186,29.6621,14683,2652
2.20323,430.031,-231,38187,29.6123,14683,2652
2.65115,421.0832,-230,38188,29.9608,14683,2652
2.64575,410.124,-229,38189,29.8612,14683,2652
2.8986,400.1241,-228,38190,29.8114,14683,2652
3.23595,389.7862,-227,38191,29.8612,14683,2652
3.07113,380.342,-226,38192,29.8114,14683,2652
2.11263,370.23,-225,38193,30.0106,14687,2628
2.0785,359.4831,-224,38194,29.7617,14687,2628
2.65833,346.4269,-223,38195,29.7617,14687,2628
3.18545,331.6629,-222,38196,29.6621,14687,2628
2.66729,320.2664,-221,38197,29.9608,14687,2628
3.01788,307.7785,-220,38198,29.8612,14687,2628
2.39208,291.8041,-219,38199,29.6621,14687,2628
3.16442,276.0248,-218,38200,29.7617,14687,2628
2.91173,260.4988,-217,38201,29.6621,14687,2628
2.0156,243.1608,-216,38202,29.6123,14687,2628
3.42911,226.5042,-215,38203,29.6621,14680,2581
2.73438,213.0545,-214,38204,29.6621,14680,2581
3.37162,203.3378,-213,38205,29.7617,14680,2581
3.32605,195.3807,-212,38206,30.0106,14680,2581
2.84044,188.2692,-211,38207,29.8612,14680,2581
2.9717,182.9854,-210,38208,29.8612,14680,2581
2.75695,178.8415,-209,38209,29.9608,14680,2581
2.54094,173.5754,-208,38210,29.7617,14680,2581
2.41193,165.1805,-207,38211,29.9608,14680,2581
2.36804,154.8974,-206,38212,29.6123,14680,2581
2.44726,145.4319,-205,38213,29.8114,14681,2553
1.88606,140.3922,-204,38214,29.8612,14681,2553
2.34782,140.2263,-203,38215,29.6621,14681,2553
3.11583,141.6031,-202,38216,29.8612,14681,2553
2.23759,145.5245,-201,38217,30.0106,14681,2553
2.3539,150.5971,-200,38218,29.6621,14681,2553
2.46473,158.9775,-199,38219,29.8114,14681,2553
1.86572,166.5507,-198,38220,29.6621,14681,2553
2.11037,172.3837,-197,38221,29.9608,14681,2553
2.91009,177.7918,-196,38222,29.8612,14681,2553
2.04146,185.37,-195,38223,29.6621,14683,2527
3.26528,192.454,-194,38224,29.6123,14683,2527
1.31383,198.2549,-193,38225,29.6123,14683,2527
2.32946,203.2904,-192,38226,29.6621,14683,2527
1.75238,211.4488,-191,38227,29.7617,14683,2527
2.1771,219.2207,-190,38228,29.8114,14683,2527
1.60168,221.504,-189,38229,29.8612,14683,2527
1.66016,221.8966,-188,38230,29.6621,14683,2527
1.96772,224.0906,-187,38231,29.5128,14683,2527
1.83479,228.7387,-186,38232,29.6123,14683,2527
0.941763,232.9335,-185,38233,29.8612,14679,2515
1.05631,236.4175,-184,38234,29.8612,14679,2515
3.02261,239.2549,-183,38235,29.8612,14679,2515
1.48103,242.3035,-182,38236,29.5128,14679,2515
1.21188,248.1397,-181,38237,29.6621,14679,2515
2.33764,250.5966,-180,38238,29.7617,14679,2515
1.54717,250.8519,-179,38239,29.7617,14679,2515
1.68863,250.2184,-178,38240,29.6621,14679,2515
1.58673,250.1849,-177,38241,29.7617,14679,2515
1.79007,253.7331,-176,38242,29.7617,14679,2515
0.497951,260.5255,-175,38243,29.8114,14682,2518
1.71108,266.0191,-174,38244,29.8612,14682,2518
2.25668,267.9137,-173,38245,29.8612,14682,2518
2.19672,268.8651,-172,38246,29.8612,14682,2518
1.13045,269.9706,-171,38247,29.8114,14682,2518
1.57466,271.8849,-170,38248,29.8612,14682,2518
2.0785,274.4352,-169,38249,29.6621,14682,2518
2.16612,277.0939,-168,38250,29.6621,14682,2518
2.79474,278.6144,-167,38251,29.9608,14682,2518
1.57163,278.0916,-166,38252,29.8114,14682,2518
2.09677,278.086,-165,38253,29.8114,14681,2535
2.23972,279.8791,-164,38254,29.8114,14681,2535
1.66303,281.4397,-163,38255,29.6621,14681,2535
1.49385,278.674,-162,38256,29.8612,14681,2535
1.66303,274.1148,-161,38257,29.5128,14681,2535
1.3637,270.2312,-160,38258,29.8114,14681,2535
1.86827,266.4991,-159,38259,29.7617,14681,2535
1.12623,264.0171,-158,38260,29.6621,14681,2535
0.601994,260.7765,-157,38261,29.8612,14681,2535
1.47134,259.8668,-156,38262,29.6621,14681,2535
1.61945,254.5945,-155,38263,29.8114,14685,2548
1.22363,244.3647,-154,38264,29.6123,14685,2548
0.834375,231.8166,-153,38265,29.6621,14685,2548
1.19205,218.9237,-152,38266,29.8612,14685,2548
1.67161,208.3068,-151,38267,29.9608,14685,2548
1.79007,204.1212,-150,38268,29.6621,14685,2548
1.69708,203.8901,-149,38269,29.8612,14685,2548
1.85547,201.4264,-148,38270,29.7617,14685,2548
0.625305,194.1004,-147,38271,29.6621,14685,2548
0.921287,184.5289,-146,38272,29.8114,14685,2548
1.84516,175.165,-145,38273,29.6621,14687,2555
1.27702,169.6983,-144,38274,29.6621,14687,2555
1.59273,167.0959,-143,38275,30.0106,14687,2555
1.93596,166.098,-142,38276,29.8612,14687,2555
1.85547,168.1589,-141,38277,30.0106,14687,2555
1.74966,169.163,-140,38278,29.9608,14687,2555
1.87592,169.5084,-139,38279,29.6621,14687,2555
2.02269,173.9256,-138,38280,29.6621,14687,2555
1.67161,176.9595,-137,38281,29.6621,14687,2555
1.36019,177.0588,-136,38282,29.8114,14687,2555
1.4681,177.1402,-135,38283,29.8612,14687,2556
0.525895,180.6992,-134,38284,29.9608,14687,2556
1.05631,187.36,-133,38285,29.6621,14687,2556
1.46484,197.4488,-132,38286,29.8612,14687,2556
1.57769,207.8156,-131,38287,29.8114,14687,2556
1.84774,213.3522,-130,38288,29.8612,14687,2556
1.80598,213.025,-129,38289,29.6621,14687,2556
2.31715,215.1614,-128,38290,29.8612,14687,2556
2.34985,224.2793,-127,38291,29.6621,14687,2556
2.0156,237.0842,-126,38292,29.6621,14687,2556
1.60168,241.3424,-125,38293,29.6621,14694,2539
1.21188,236.0767,-124,38294,29.7617,14694,2539
0.76272,223.8455,-123,38295,29.8114,14694,2539
0.697405,209.1678,-122,38296,29.7617,14694,2539
2.01087,202.3092,-121,38297,29.7617,14694,2539
1.41854,204.1187,-120,38298,29.8612,14694,2539
1.94824,201.1131,-119,38299,29.6621,14694,2539
2.31097,186.7359,-118,38300,29.6621,14694,2539
1.08306,165.4774,-117,38301,29.8114,14694,2539
1.14304,145.2842,-116,38302,29.8612,14694,2539
2.24609,139.8386,-115,38303,29.7617,14702,2513
1.6165,149.4741,-114,38304,29.7617,14702,2513
1.46484,161.8273,-113,38305,29.8114,14702,2513
0.41432,166.8443,-112,38306,29.8612,14702,2513
1.80334,165.9221,-111,38307,29.8114,14702,2513
1.21581,161.1388,-110,38308,29.6123,14702,2513
1.55638,157.8902,-109,38309,29.6621,14702,2513
1.43525,164.9213,-108,38310,29.6123,14702,2513
1.30655,180.0517,-107,38311,30.0106,14702,2513
1.27328,190.4774,-106,38312,29.8612,14702,2513
2.03444,195.2217,-105,38313,29.8612,14702,2494
1.34255,194.3743,-104,38314,29.6621,14702,2494
2.0739,186.1663,-103,38315,29.6123,14702,2494
0.931581,171.5607,-102,38316,29.6621,14702,2494
2.06237,154.3589,-101,38317,29.8114,14702,2494
1.39822,135.4489,-100,38318,29.6123,14702,2494
2.64575,122.3445,-99,38319,29.6621,14702,2494
1.69146,119.5566,-98,38320,29.8612,14702,2494
1.95556,120.2678,-97,38321,29.8114,14702,2494
1.4219,121.4589,-96,38322,29.7617,14702,2494
1.52231,119.7473,-95,38323,30.0106,14706,2482
1.12198,116.47,-94,38324,29.6621,14706,2482
2.06237,115.7915,-93,38325,29.7617,14706,2482
2.02269,115.3642,-92,38326,29.8114,14706,2482
2.19672,113.505,-91,38327,29.8114,14706,2482
2.4974,116.7828,-90,38328,29.8612,14706,2482
2.03912,125.3338,-89,38329,29.6621,14706,2482
2.15287,135.8507,-88,38330,30.0604,14706,2482
2.12837,136.9554,-87,38331,29.6621,14706,2482
1.11345,127.8852,-86,38332,29.8612,14706,2482
1.93596,116.3402,-85,38333,29.8612,14710,2468
2.12613,111.8136,-84,38334,29.7617,14710,2468
2.38609,110.997,-83,38335,29.8612,14710,2468
0.323889,105.0361,-82,38336,29.8612,14710,2468
1.45505,101.246,-81,38337,29.8612,14710,2468
1.70829,104.4219,-80,38338,29.8114,14710,2468
1.45176,100.0764,-79,38339,29.8114,14710,2468
1.48103,81.71566,-78,38340,29.8612,14710,2468
2.46667,63.05602,-77,38341,30.0106,14710,2468
3.03364,59.0168,-76,38342,29.6621,14710,2468
2.56522,69.41273,-75,38343,29.6621,14705,2471
1.48103,80.42553,-74,38344,29.8114,14705,2471
1.98701,83.10882,-73,38345,29.6621,14705,2471
1.76052,81.06958,-72,38346,29.8612,14705,2471
2.51263,83.06936,-71,38347,29.8114,14705,2471
2.10585,90.89272,-70,38348,29.7617,14705,2471
1.13886,100.5352,-69,38349,29.6123,14705,2471
1.01487,111.2632,-68,38350,29.7617,14705,2471
1.68014,122.4835,-67,38351,29.5128,14705,2471
2.37809,130.1614,-66,38352,29.8612,14705,2471
1.25821,128.4715,-65,38353,29.8612,14701,2483
1.81651,128.5546,-64,38354,29.7617,14701,2483
2.83203,141.2735,-63,38355,29.8612,14701,2483
1.80334,152.233,-62,38356,29.8114,14701,2483
1.55332,154.0172,-61,38357,29.7617,14701,2483
2.96367,163.6848,-60,38358,29.6123,14701,2483
1.85804,180.433,-59,38359,29.6621,14701,2483
1.73872,194.9129,-58,38360,29.6621,14701,2483
2.1573,202.9518,-57,38361,29.6621,14701,2483
2.0785,205.0725,-56,38362,29.6123,14701,2483
0.534885,203.4186,-55,38363,29.7617,14701,2483
1.87592,198.3309,-54,38364,29.6621,14701,2483
2.1573,195.594,-53,38365,29.7617,14701,2483
2.21832,195.5109,-52,38366,29.6621,14701,2483
2.09904,197.7452,-51,38367,29.6123,14701,2483
1.958,199.91,-50,38368,29.8114,14701,2483
1.67446,203.5123,-49,38369,29.8612,14701,2483
2.36401,207.1703,-48,38370,29.7617,14701,2483
1.71664,211.2243,-47,38371,29.6621,14701,2483
3.08971,212.6755,-46,38372,29.8114,14701,2483
2.05078,212.6702,-45,38373,29.6123,14701,2496
2.65115,216.6367,-44,38374,29.8114,14701,2496
2.9893,226.3893,-43,38375,29.7617,14701,2496
2.2819,235.1044,-42,38376,29.5128,14701,2496
1.89865,237.3418,-41,38377,29.8612,14701,2496
1.97739,235.4849,-40,38378,29.8612,14701,2496
2.79304,233.973,-39,38379,29.8612,14701,2496
1.80334,239.3534,-38,38380,29.7617,14701,2496
3.03207,244.6651,-37,38381,29.7617,14701,2496
2.63672,251.5813,-36,38382,29.6621,14701,2496
1.96287,256.9702,-35,38383,29.7617,14703,2511
1.60168,264.6278,-34,38384,29.8612,14703,2511
1.09619,266.2016,-33,38385,29.5128,14703,2511
1.9942,268.5825,-32,38386,29.9608,14703,2511
1.19604,274.241,-31,38387,29.7617,14703,2511
2.14399,280.7351,-30,38388,29.7617,14703,2511
1.45176,283.2158,-29,38389,29.7617,14703,2511
1.63993,282.8005,-28,38390,29.7617,14703,2511
1.07865,275.8799,-27,38391,29.8612,14703,2511
0.717624,267.921,-26,38392,29.6621,14703,2511
0.750112,261.5521,-25,38393,29.8114,14724,2502
1.33185,257.6161,-24,38394,29.6621,14724,2502
1.8529,254.0324,-23,38395,30.0106,14724,2502
1.11773,250.5991,-22,38396,29.6621,14724,2502
1.21188,250.5776,-21,38397,29.6621,14724,2502
1.09183,247.7455,-20,38398,29.8114,14724,2502
1.49704,243.1284,-19,38399,29.6123,14724,2502
2.41983,236.7568,-18,38400,29.7617,14724,2502
1.40163,229.1175,-17,38401,29.7617,14724,2502
1.89865,223.398,-16,38402,29.8114,14724,2502
0.78733,217.8367,-15,38403,29.8114,14779,2481
1.78473,222.8315,-14,38404,30.0106,14779,2481
1.4118,226.9547,-13,38405,29.5128,14779,2481
1.98701,219.9035,-12,38406,29.6621,14779,2481
1.81651,211.3697,-11,38407,29.6621,14779,2481
1.57769,206.2122,-10,38408,29.7617,14779,2481
1.68014,201.3536,-9,38409,29.7617,14779,2481
1.79539,203.5201,-8,38410,29.8612,14779,2481
1.63993,207.5595,-7,38411,29.9608,14779,2481
1.57466,207.9304,-6,38412,29.8612,14779,2481
0.525895,199.3113,-5,38413,29.6123,14945,2468
1.15548,186.9276,-4,38414,29.6123,14945,2468
0.768946,180.6418,-3,38415,29.8114,14945,2468
2.0716,187.1262,-2,38416,29.7617,14945,2468
1.20399,194.5768,-1,38417,29.8612,14945,2468
10.2427,248.3899,0,38418,30.0106,14945,2468
7.89688,498.0972,1,38419,29.7617,14945,2468
1.39139,477.3807,2,38420,29.9608,14945,2468
2.68865,132.3716,3,38421,29.6621,14945,2468
1.71108,278.5869,4,38422,29.8612,14945,2468
0.625305,297.136,5,38423,29.8114,15630,2450
1.31383,74.65066,6,38424,29.8114,15630,2450
0.921287,207.3532,7,38425,29.6621,15630,2450
0.704209,251.0423,8,38426,29.5128,15630,2450
2.38609,110.5249,9,38427,29.6621,15630,2450
3.61592,57.11169,10,38428,29.8612,15630,2450
0.878906,101.1285,11,38429,29.8612,15630,2450
1.64283,96.10857,12,38430,29.8114,15630,2450
1.36019,123.4594,13,38431,29.7617,15630,2450
0.690534,120.0733,14,38432,29.6123,15630,2450
4.76118,78.07864,15,38433,29.6123,15964,2442
2.53718,174.7546,16,38434,29.9608,15964,2442
0.436732,211.8535,17,38435,29.7617,15964,2442
1.62826,164.4319,18,38436,29.8114,15964,2442
1.67446,177.4722,19,38437,29.8612,15964,2442
1.05631,192.0824,20,38438,29.6621,15964,2442
0.926449,187.434,21,38439,29.7617,15964,2442
1.11773,186.4238,22,38440,29.8114,15964,2442
2.64394,160.2049,23,38441,29.7617,15964,2442
1.61355,145.1849,24,38442,29.8612,15964,2442
0.507437,182.7155,25,38443,29.8612,15770,2442
1.76052,194.794,26,38444,30.0106,15770,2442
1.73323,161.3791,27,38445,29.6621,15770,2442
2.04379,142.9763,28,38446,29.8612,15770,2442
1.63702,162.7044,29,38447,29.6123,15770,2442
0.697405,187.2131,30,38448,29.8612,15770,2442
0.447517,207.4762,31,38449,29.8612,15770,2442
0.525895,233.1635,32,38450,29.6621,15770,2442
1.19205,246.1158,33,38451,29.9608,15770,2442
0.900346,242.2755,34,38452,29.6621,15770,2442
0.995902,243.996,35,38453,29.6123,15207,2449
0.926449,241.9652,36,38454,29.7617,15207,2449
1.79804,293.3131,37,38455,29.8114,15207,2449
3.09741,385.3425,38,38456,29.7617,15207,2449
3.26966,461.5712,39,38457,30.1599,15207,2449
1.99659,415.0166,40,38458,29.9608,15207,2449
2.1573,345.9537,41,38459,29.8114,15207,2449
2.32332,348.4288,42,38460,29.6621,15207,2449
2.45504,408.4576,43,38461,29.8612,15207,2449
2.33764,461.5905,44,38462,29.8612,15207,2449
2.48592,466.8644,45,38463,29.8612,14889,2455
2.25034,441.6463,46,38464,29.6621,14889,2455
2.16612,413.4996,47,38465,29.8114,14889,2455
1.75781,400.9169,48,38466,29.8612,14889,2455
2.40203,402.3689,49,38467,29.8612,14889,2455
2.78106,403.2587,50,38468,29.8612,14889,2455
2.68865,389.008,51,38469,29.8612,14889,2455
3.6146,355.8851,52,38470,29.7617,14889,2455
4.08525,313.126,53,38471,29.6123,14889,2455
3.78473,267.6854,54,38472,29.7617,14889,2455
3.986,222.4648,55,38473,30.0106,14779,2486
4.07005,184.182,56,38474,29.6123,14779,2486
3.86822,153.5389,57,38475,29.6123,14779,2486
4.92946,129.4085,58,38476,29.7617,14779,2486
3.48976,102.074,59,38477,29.6621,14779,2486
4.2354,87.63237,60,38478,30.0106,14779,2486
3.15688,104.2764,61,38479,29.8114,14779,2486
4.68547,133.7827,62,38480,29.8114,14779,2486
3.91844,156.4921,63,38481,29.6621,14779,2486
3.19442,177.9798,64,38482,29.6621,14779,2486
2.33968,199.3409,65,38483,29.9608,14757,2500
3.00521,220.0354,66,38484,29.7617,14757,2500
3.43189,234.0762,67,38485,29.8612,14757,2500
12.0723,103.9573,68,38486,29.8114,14757,2500
3.6146,226.5236,69,38487,30.0106,14757,2500
2.45115,204.0362,70,38488,29.7617,14757,2500
1.67161,190.1581,71,38489,29.9608,14757,2500
2.09677,272.3525,72,38490,29.7617,14757,2500
2.29024,259.9626,73,38491,29.7617,14757,2500
1.98701,185.3168,74,38492,29.6621,14757,2500
1.52231,113.9712,75,38493,29.9608,14793,2474
1.54099,69.63552,76,38494,29.7617,14793,2474
2.18366,97.5868,77,38495,29.7617,14793,2474
2.23759,193.2117,78,38496,29.9608,14793,2474
1.60168,270.3441,79,38497,29.6621,14793,2474
2.19238,283.2453,80,38498,29.8612,14793,2474
1.61355,230.8739,81,38499,29.8612,14793,2474
0.931581,146.589,82,38500,29.7617,14793,2474
2.57079,113.2965,83,38501,29.6621,14793,2474
2.37809,136.0434,84,38502,29.8612,14793,2474
2.26301,185.2339,85,38503,29.8114,14787,2469
1.67446,215.905,86,38504,29.6621,14787,2469
1.5034,205.5846,87,38505,29.8612,14787,2469
2.52021,168.968,88,38506,29.8114,14787,2469
1.82698,135.9211,89,38507,29.8612,14787,2469
2.26301,127.6593,90,38508,29.8612,14787,2469
1.68298,147.0029,91,38509,29.6621,14787,2469
1.65728,166.2518,92,38510,29.8114,14787,2469
2.89201,161.3257,93,38511,29.6621,14787,2469
2.39407,140.7878,94,38512,29.7617,14787,2469
0.85693,129.4512,95,38513,29.8612,14779,2466
2.02269,138.562,96,38514,29.8612,14779,2466
2.21187,160.1573,97,38515,29.7617,14779,2466
2.23118,179.9449,98,38516,29.8114,14779,2466
2.27981,187.6196,99,38517,29.6621,14779,2466
1.87846,178.8807,100,38518,29.9608,14779,2466
