Linear acceleration,Rotational velocity,Time values,Absolute time values,Temperature,Ambient light,Reflected light
0.625305,7.0979452,-2000,31312,23.6385,18417,413
0.78733,6.4558925,-1999,31313,23.7878,18417,413
1.38796,5.8044402,-1998,31314,23.738,18417,413
0.799351,4.8965262,-1997,31315,23.7878,18417,413
1.08306,3.9818131,-1996,31316,23.9869,18417,413
1.1472,3.7065983,-1995,31317,23.9869,18417,413
0.916097,3.4912963,-1994,31318,24.0367,18417,413
0.78733,3.6560008,-1993,31319,23.738,18417,413
0.710948,4.0209153,-1992,31320,23.738,18417,413
0.946812,4.1825785,-1991,31321,23.9371,18417,413
0.402647,4.6402778,-1990,31322,23.8376,18417,413
1.19604,4.7623069,-1989,31323,23.7878,18422,378
0.793363,5.2518615,-1988,31324,24.0367,18422,378
1.47458,5.5202241,-1987,31325,23.7878,18422,378
1.02423,5.8809519,-1986,31326,23.9869,18422,378
0.59402,6.6143639,-1985,31327,23.6385,18422,378
1.61945,7.3647964,-1984,31328,23.8376,18422,378
0.662337,7.7608307,-1983,31329,23.7878,18422,378
0.981433,8.190545,-1982,31330,23.7878,18422,378
1.31383,8.7047346,-1981,31331,23.8376,18422,378
1.02423,9.3206099,-1980,31332,23.7878,18422,378
0.889691,9.7938131,-1979,31333,24.0367,18428,306
1.68298,10.222614,-1978,31334,23.8376,18428,306
0.966748,10.632738,-1977,31335,23.9869,18428,306
0.710948,11.016803,-1976,31336,23.9869,18428,306
1.34255,11.401001,-1975,31337,23.7878,18428,306
0.617632,11.543231,-1974,31338,23.7878,18428,306
0.690534,11.09229,-1973,31339,23.8376,18428,306
0.138107,11.047195,-1972,31340,23.9869,18428,306
0.169146,11.297276,-1971,31341,23.8376,18428,306
1.24296,11.442098,-1970,31342,23.9869,18428,306
0.768946,11.462916,-1969,31343,23.8376,18417,302
0.78733,11.512208,-1968,31344,23.8376,18417,302
0.845728,11.66075,-1967,31345,23.9869,18417,302
0.717624,11.745423,-1966,31346,23.7878,18417,302
1.00068,12.536449,-1965,31347,23.6385,18417,302
1.38107,13.312941,-1964,31348,23.7878,18417,302
0.323889,13.790704,-1963,31349,23.9869,18417,302
0.569429,14.021623,-1962,31350,23.8376,18417,302
0.365396,14.611771,-1961,31351,23.8376,18417,302
1.09619,15.332828,-1960,31352,24.1861,18417,302
0.981433,16.279805,-1959,31353,23.7878,18419,388
0.59402,17.25342,-1958,31354,23.6385,18419,388
1.98701,17.983737,-1957,31355,23.9869,18419,388
0.840071,18.332506,-1956,31356,23.7878,18419,388
1.28447,18.537815,-1955,31357,23.7878,18419,388
1.01487,19.266238,-1954,31358,23.7878,18419,388
0.845728,19.601695,-1953,31359,23.8376,18419,388
0.916097,20.064513,-1952,31360,23.9869,18419,388
1.09619,20.418609,-1951,31361,23.6385,18419,388
1.53789,20.173019,-1950,31362,23.6385,18419,388
0.840071,20.183358,-1949,31363,23.738,18426,306
0.750112,19.85848,-1948,31364,23.7878,18426,306
0.717624,19.174756,-1947,31365,23.6385,18426,306
1.72772,18.078362,-1946,31366,23.738,18426,306
1.25442,17.064539,-1945,31367,23.738,18426,306
0.889691,16.558423,-1944,31368,23.9869,18426,306
1.36019,15.886034,-1943,31369,23.738,18426,306
1.32467,15.060232,-1942,31370,23.9869,18426,306
1.52544,14.341054,-1941,31371,23.9371,18426,306
0.525895,13.997692,-1940,31372,23.7878,18426,306
1.40163,13.519528,-1939,31373,23.9869,18426,274
0.710948,12.797022,-1938,31374,23.7878,18426,274
0.458048,12.129269,-1937,31375,23.7878,18426,274
0.799351,11.946063,-1936,31376,23.7878,18426,274
0.768946,11.468114,-1935,31377,23.9869,18426,274
0.750112,10.907377,-1934,31378,23.7878,18426,274
1.41854,10.240819,-1933,31379,23.8376,18426,274
0.768946,9.7434746,-1932,31380,23.7878,18426,274
0.560992,9.3421679,-1931,31381,23.7878,18426,274
0.981433,8.8650282,-1930,31382,23.8376,18426,274
0.793363,8.2602916,-1929,31383,23.9869,18436,387
0.98628,7.8619347,-1928,31384,23.738,18436,387
1.20399,7.6144874,-1927,31385,23.738,18436,387
0.717624,7.2176492,-1926,31386,23.738,18436,387
0.98628,6.8042566,-1925,31387,23.7878,18436,387
1.4118,6.4904224,-1924,31388,23.5887,18436,387
0.525895,5.754162,-1923,31389,23.8376,18436,387
0.730792,5.4056616,-1922,31390,23.7878,18436,387
1.68298,4.8705902,-1921,31391,23.8376,18436,387
1.28447,4.6386719,-1920,31392,23.7878,18436,387
1.09183,4.0320177,-1919,31393,23.8376,18427,408
1.20794,3.5818849,-1918,31394,23.8376,18427,408
0.793363,3.0541982,-1917,31395,23.7878,18427,408
1.00068,2.5518243,-1916,31396,23.7878,18427,408
1.00068,2.0787825,-1915,31397,23.8376,18427,408
1.28447,2.0132352,-1914,31398,23.6385,18427,408
0.926449,2.1938722,-1913,31399,24.0367,18427,408
0.878906,2.498717,-1912,31400,23.8376,18427,408
0.730792,2.9801161,-1911,31401,23.7878,18427,408
0.817051,3.5589306,-1910,31402,23.9869,18427,408
0.811194,4.1088947,-1909,31403,23.6385,18431,285
0.690534,4.2532352,-1908,31404,23.9869,18431,285
0.768946,4.6802465,-1907,31405,23.7878,18431,285
0.845728,4.7669981,-1906,31406,24.1363,18431,285
0.889691,5.0817037,-1905,31407,24.0367,18431,285
0.662337,5.5966276,-1904,31408,23.9869,18431,285
0.743728,5.7632186,-1903,31409,23.7878,18431,285
0.768946,6.1315275,-1902,31410,23.7878,18431,285
0.560992,5.9976165,-1901,31411,23.8376,18431,285
0.447517,6.2578152,-1900,31412,23.9869,18431,285
1.19205,6.515628,-1899,31413,23.7878,18428,398
1.89865,6.515628,-1898,31414,23.7878,18428,398
0.525895,6.3017136,-1897,31415,23.9869,18428,398
0.840071,6.5247695,-1896,31416,24.0367,18428,398
0.926449,7.0315043,-1895,31417,23.6385,18428,398
1.83739,7.7790498,-1894,31418,23.738,18428,398
0.458048,8.1009082,-1893,31419,23.9869,18428,398
1.44518,8.3312429,-1892,31420,24.1363,18428,398
0.525895,8.5536367,-1891,31421,23.8376,18428,398
1.47781,8.8717492,-1890,31422,23.7878,18428,398
1.63993,9.2411338,-1889,31423,23.7878,18420,393
1.70829,10.509396,-1888,31424,23.7878,18420,393
0.966748,11.967249,-1887,31425,23.7878,18420,393
0.717624,12.693552,-1886,31426,23.6385,18420,393
0.662337,12.043583,-1885,31427,23.7878,18420,393
0.525895,10.708844,-1884,31428,23.738,18420,393
1.17998,8.9178191,-1883,31429,23.8376,18420,393
1.3461,7.5367915,-1882,31430,23.7878,18420,393
1.1596,6.4153727,-1881,31431,23.738,18420,393
1.47781,5.5686009,-1880,31432,23.9869,18420,393
0.525895,5.2900265,-1879,31433,23.7878,18414,268
1.49066,5.2942501,-1878,31434,23.8376,18414,268
0.710948,5.340489,-1877,31435,24.0367,18414,268
0.534885,5.3516382,-1876,31436,23.8376,18414,268
0.697405,4.8995684,-1875,31437,23.7878,18414,268
0.921287,4.6722801,-1874,31438,23.738,18414,268
0.750112,4.3485139,-1873,31439,23.5887,18414,268
0.497951,4.1736624,-1872,31440,23.7878,18414,268
1.20399,4.6354584,-1871,31441,23.8376,18414,268
0.750112,4.5723439,-1870,31442,23.8376,18414,268
1.27702,4.5033854,-1869,31443,23.9869,18424,308
1.28817,4.6015813,-1868,31444,23.8376,18424,308
1.11773,4.5837362,-1867,31445,23.6385,18424,308
1.61945,4.2109835,-1866,31446,23.7878,18424,308
0.601994,3.7683958,-1865,31447,23.738,18424,308
0.41432,3.7900817,-1864,31448,24.1363,18424,308
0.971667,3.7346334,-1863,31449,23.7878,18424,308
0.662337,3.6314636,-1862,31450,24.0367,18424,308
1.54717,4.0816049,-1861,31451,23.8376,18424,308
0.905627,4.6738744,-1860,31452,23.7878,18424,308
0.507437,5.3460665,-1859,31453,23.9371,18421,387
0.981433,5.5899674,-1858,31454,24.0367,18421,387
0.662337,5.4056616,-1857,31455,23.6385,18421,387
1.04268,5.0773033,-1856,31456,23.738,18421,387
0.926449,4.5625565,-1855,31457,23.7878,18421,387
0.78125,3.8871297,-1854,31458,23.7878,18421,387
0.560992,3.4806097,-1853,31459,23.9869,18421,387
0.447517,3.2891098,-1852,31460,23.738,18421,387
0.878906,3.5922703,-1851,31461,23.738,18421,387
0.601994,4.4584918,-1850,31462,23.8376,18421,387
0.507437,5.2518615,-1849,31463,23.9869,18425,301
0.402647,5.8619176,-1848,31464,23.8376,18425,301
0.828641,6.7724275,-1847,31465,24.0367,18425,301
1.48103,7.9813823,-1846,31466,23.9869,18425,301
1.01956,8.7013102,-1845,31467,23.9869,18425,301
1.13886,8.9253352,-1844,31468,23.9869,18425,301
1.23912,9.1030411,-1843,31469,23.738,18425,301
1.4118,9.0825563,-1842,31470,23.7878,18425,301
1.56859,9.2596588,-1841,31471,23.7878,18425,301
1.49385,9.6350524,-1840,31472,23.8376,18425,301
0.534885,9.485421,-1839,31473,23.738,18421,297
1.21188,9.5418077,-1838,31474,23.7878,18421,297
0.862477,9.6636213,-1837,31475,23.9869,18421,297
1.19205,9.607174,-1836,31476,23.738,18421,297
0.768946,9.7983765,-1835,31477,23.9371,18421,297
0.905627,10.117118,-1834,31478,23.7878,18421,297
0.921287,10.205107,-1833,31479,23.7878,18421,297
0.323889,10.53913,-1832,31480,23.7878,18421,297
1.31383,11.385306,-1831,31481,24.0367,18421,297
1.68581,12.015713,-1830,31482,23.8376,18421,297
1.28817,12.551891,-1829,31483,23.7878,18454,382
1.17998,13.254048,-1828,31484,23.7878,18454,382
0.926449,13.778813,-1827,31485,23.7878,18454,382
1.27328,14.013119,-1826,31486,23.8376,18454,382
1.10916,14.292656,-1825,31487,23.9371,18454,382
0.710948,15.056768,-1824,31488,23.7878,18454,382
0.905627,15.832007,-1823,31489,23.9869,18454,382
0.811194,16.732541,-1822,31490,23.7878,18454,382
1.23912,17.594224,-1821,31491,24.1363,18454,382
0.845728,18.104307,-1820,31492,23.7878,18454,382
0.76272,18.299557,-1819,31493,24.0367,18430,416
0.690534,18.463715,-1818,31494,23.738,18430,416
0.941763,18.839606,-1817,31495,23.7878,18430,416
1.11345,18.80398,-1816,31496,23.7878,18430,416
0.717624,18.489119,-1815,31497,23.9869,18430,416
0.895034,18.306477,-1814,31498,23.9869,18430,416
0.981433,18.219582,-1813,31499,23.9869,18430,416
1.28447,18.075065,-1812,31500,23.7878,18430,416
0.85693,17.857764,-1811,31501,23.7878,18430,416
0.941763,17.762384,-1810,31502,23.5887,18430,416
1.23912,17.595918,-1809,31503,23.7878,18429,289
0.138107,17.102482,-1808,31504,24.0367,18429,289
0.895034,16.940087,-1807,31505,23.9869,18429,289
0.690534,16.706695,-1806,31506,23.7878,18429,289
0.625305,16.321399,-1805,31507,23.9869,18429,289
0.662337,15.89213,-1804,31508,23.7878,18429,289
0.878906,15.575808,-1803,31509,23.7878,18429,289
0.905627,14.924562,-1802,31510,23.9869,18429,289
1.15135,14.363376,-1801,31511,23.738,18429,289
0.905627,13.529995,-1800,31512,23.9869,18429,289
1.00543,12.707631,-1799,31513,23.6385,18429,289
1.25821,12.178311,-1798,31514,23.7878,18429,289
0.447517,11.449909,-1797,31515,23.8376,18429,289
1.25442,10.749814,-1796,31516,23.7878,18429,289
0.717624,10.243729,-1795,31517,24.0367,18429,289
0.717624,9.4830643,-1794,31518,23.9371,18429,289
0.981433,8.5090976,-1793,31519,23.9869,18429,289
0.447517,7.6291504,-1792,31520,23.6385,18429,289
0.981433,7.365808,-1791,31521,23.738,18429,289
0.834375,6.9676383,-1790,31522,23.7878,18429,289
1.04268,6.5236275,-1789,31523,23.9869,18426,266
0.601994,5.9926454,-1788,31524,23.7878,18426,266
0.447517,5.419427,-1787,31525,23.7878,18426,266
1.00068,5.0478694,-1786,31526,23.7878,18426,266
0.683594,4.8475902,-1785,31527,23.8376,18426,266
0.365396,4.8337378,-1784,31528,23.7878,18426,266
0.447517,4.9374386,-1783,31529,23.6385,18426,266
1.24296,5.135665,-1782,31530,23.7878,18426,266
1.60168,5.3890967,-1781,31531,23.6385,18426,266
0.750112,5.3987657,-1780,31532,23.738,18426,266
1.07865,5.845371,-1779,31533,23.8376,18431,411
1.54408,6.3429595,-1778,31534,23.9869,18431,411
1.31383,6.8370273,-1777,31535,23.7878,18431,411
0.85693,7.3668195,-1776,31536,23.8376,18431,411
0.601994,8.0362698,-1775,31537,23.7878,18431,411
0.995902,8.4033685,-1774,31538,23.9869,18431,411
1.09619,8.9353468,-1773,31539,23.9869,18431,411
1.41517,9.077633,-1772,31540,23.7878,18431,411
0.878906,9.4097131,-1771,31541,24.0367,18431,411
0.697405,9.8914622,-1770,31542,23.9371,18431,411
1.07865,10.650941,-1769,31543,23.6385,18425,283
0.458048,11.159256,-1768,31544,23.9869,18425,283
0.981433,11.260945,-1767,31545,23.9869,18425,283
1.32827,10.831978,-1766,31546,23.7878,18425,283
0.926449,10.428978,-1765,31547,23.738,18425,283
0.662337,10.254633,-1764,31548,23.6385,18425,283
1.51603,9.9777081,-1763,31549,23.738,18425,283
1.3637,9.5222668,-1762,31550,23.8376,18425,283
0.717624,9.4704852,-1761,31551,23.8376,18425,283
1.1472,9.1422433,-1760,31552,23.7878,18425,283
1.28817,9.2933918,-1759,31553,23.7878,18426,308
0.601994,9.8332922,-1758,31554,23.7878,18426,308
1.01016,10.406807,-1757,31555,23.9869,18426,308
0.632885,11.114433,-1756,31556,23.7878,18426,308
1.16371,11.482398,-1755,31557,23.7878,18426,308
1.36719,11.945439,-1754,31558,23.9869,18426,308
1.26577,12.192985,-1753,31559,23.9869,18426,308
0.828641,12.119437,-1752,31560,23.7878,18426,308
0.905627,12.208252,-1751,31561,24.0367,18426,308
0.662337,12.107751,-1750,31562,23.7878,18426,308
0.76272,12.095437,-1749,31563,23.8376,18421,396
1.04268,12.429611,-1748,31564,23.9869,18421,396
1.21188,13.22084,-1747,31565,23.7878,18421,396
0.497951,13.651151,-1746,31566,23.6385,18421,396
0.900346,12.994613,-1745,31567,23.6385,18421,396
0.478416,12.35506,-1744,31568,23.7878,18421,396
0.768946,11.901699,-1743,31569,23.8376,18421,396
0.921287,11.782157,-1742,31570,23.7878,18421,396
0.488281,11.550974,-1741,31571,23.7878,18421,396
0.625305,11.766337,-1740,31572,23.738,18421,396
1.85547,12.028108,-1739,31573,24.0367,18426,385
0.737289,12.182593,-1738,31574,23.9869,18426,385
0.690534,12.130497,-1737,31575,24.1363,18426,385
1.29923,13.029541,-1736,31576,23.8376,18426,385
1.31383,14.95598,-1735,31577,23.9371,18426,385
1.57769,15.38764,-1734,31578,23.9869,18426,385
0.352105,15.51494,-1733,31579,24.0367,18426,385
1.11773,14.795204,-1732,31580,23.7878,18426,385
1.32827,13.466519,-1731,31581,23.738,18426,385
0.811194,12.436203,-1730,31582,23.9869,18426,385
1.09183,11.213206,-1729,31583,23.7878,18435,304
0.817051,10.052103,-1728,31584,23.4891,18435,304
0.730792,9.4783491,-1727,31585,23.9869,18435,304
0.956832,9.0348526,-1726,31586,23.7878,18435,304
0.793363,8.4449368,-1725,31587,24.0367,18435,304
0.402647,7.8448579,-1724,31588,23.9869,18435,304
0.905627,7.6467089,-1723,31589,23.7878,18435,304
1.13045,7.841058,-1722,31590,23.9869,18435,304
1.83739,7.4502903,-1721,31591,24.0367,18435,304
0.768946,6.6648602,-1720,31592,24.0367,18435,304
1.71386,6.1775298,-1719,31593,23.7878,18436,289
1.99659,5.9514755,-1718,31594,23.738,18436,289
1.01016,6.3429595,-1717,31595,23.8376,18436,289
0.352105,6.6019616,-1716,31596,23.9371,18436,289
1.27702,6.846828,-1715,31597,23.7878,18436,289
1.1472,6.8337573,-1714,31598,23.6385,18436,289
0.946812,6.5018916,-1713,31599,23.8376,18436,289
1.17998,6.1448794,-1712,31600,23.8376,18436,289
1.32827,6.3967639,-1711,31601,23.8376,18436,289
0.840071,6.0025834,-1710,31602,23.8376,18436,289
1.24679,6.0137441,-1709,31603,23.9869,18427,375
1.19205,6.1992011,-1708,31604,23.8376,18427,375
0.921287,6.6121106,-1707,31605,23.9869,18427,375
1.20399,7.0737613,-1706,31606,23.7878,18427,375
1.31383,7.6174222,-1705,31607,23.7878,18427,375
1.61355,8.4361096,-1704,31608,23.7878,18427,375
1.17594,8.8675491,-1703,31609,24.0367,18427,375
0.632885,9.5885434,-1702,31610,24.0367,18427,375
1.28447,10.608886,-1701,31611,23.8376,18427,375
1.27702,11.43363,-1700,31612,23.8376,18427,375
0.655098,12.307933,-1699,31613,23.9869,18412,303
1.15135,12.596923,-1698,31614,23.738,18412,303
0.981433,12.79935,-1697,31615,23.738,18412,303
1.29923,12.950964,-1696,31616,23.7878,18412,303
1.45505,13.008939,-1695,31617,23.8376,18412,303
0.811194,13.098548,-1694,31618,23.9869,18412,303
0.811194,13.002637,-1693,31619,23.7878,18412,303
0.402647,13.215767,-1692,31620,24.1363,18412,303
1.33185,13.813916,-1691,31621,23.7878,18412,303
1.60168,14.36597,-1690,31622,24.0367,18412,303
0.601994,15.036466,-1689,31623,23.8376,18436,282
0.889691,15.669759,-1688,31624,23.9869,18436,282
1.17998,16.141924,-1687,31625,23.9869,18436,282
0.632885,16.654435,-1686,31626,23.9869,18436,282
0.138107,17.060609,-1685,31627,24.0367,18436,282
1.00068,17.581939,-1684,31628,23.738,18436,282
0.926449,17.700616,-1683,31629,23.9371,18436,282
1.60168,17.575582,-1682,31630,23.9869,18436,282
0.750112,17.600575,-1681,31631,23.738,18436,282
1.41517,17.5866,-1680,31632,23.7878,18436,282
0.507437,17.482071,-1679,31633,23.7878,18432,418
0.78733,17.07676,-1678,31634,23.9869,18432,418
1.16371,16.640114,-1677,31635,23.6385,18432,418
0.921287,16.276143,-1676,31636,23.7878,18432,418
0.625305,15.57246,-1675,31637,24.0367,18432,418
2.21187,14.817345,-1674,31638,24.0367,18432,418
0.534885,13.731689,-1673,31639,23.7878,18432,418
1.11345,12.834229,-1672,31640,23.8376,18432,418
0.768946,11.851512,-1671,31641,23.7878,18432,418
0.655098,11.324283,-1670,31642,23.9869,18432,418
0.497951,10.582165,-1669,31643,23.8376,18449,378
0.926449,9.9207948,-1668,31644,23.7878,18449,378
1.47134,9.4128797,-1667,31645,24.1363,18449,378
1.00068,9.0940335,-1666,31646,23.7878,18449,378
1.4118,8.7354935,-1665,31647,23.738,18449,378
1.05631,8.1220343,-1664,31648,23.9869,18449,378
1.01016,7.4951569,-1663,31649,23.6385,18449,378
0.497951,6.8739786,-1662,31650,23.738,18449,378
0.458048,6.3792689,-1661,31651,23.6385,18449,378
0.793363,5.8669994,-1660,31652,23.8376,18449,378
0.323889,5.6548998,-1659,31653,23.7878,18445,277
0.690534,5.2942501,-1658,31654,24.1861,18445,277
0.625305,4.5033854,-1657,31655,23.7878,18445,277
0.85693,4.2707167,-1656,31656,23.9371,18445,277
1.27702,4.3416551,-1655,31657,23.8376,18445,277
1.07422,4.2950713,-1654,31658,23.8376,18445,277
1.3102,4.1772311,-1653,31659,23.9869,18445,277
0.900346,4.4534757,-1652,31660,23.7878,18445,277
0.961803,4.697725,-1651,31661,23.9869,18445,277
1.11773,4.9479903,-1650,31662,23.9371,18445,277
0.828641,5.5202241,-1649,31663,23.7878,18446,297
1.08306,6.1059565,-1648,31664,24.0367,18446,297
1.13886,6.651432,-1647,31665,23.8376,18446,297
1.27702,7.055833,-1646,31666,23.8376,18446,297
0.845728,7.6904297,-1645,31667,23.9371,18446,297
0.308816,8.3034735,-1644,31668,23.7878,18446,297
1.28447,8.6256303,-1643,31669,24.1363,18446,297
1.32827,8.8448344,-1642,31670,23.8376,18446,297
1.00068,8.6781604,-1641,31671,23.7878,18446,297
1.41517,8.4519919,-1640,31672,23.7878,18446,297
0.447517,7.6613102,-1639,31673,23.7878,18441,391
0.981433,7.1855775,-1638,31674,23.9371,18441,391
0.478416,6.832667,-1637,31675,23.7878,18441,391
1.16371,6.5259113,-1636,31676,23.7878,18441,391
1.18402,5.9049739,-1635,31677,24.0367,18441,391
1.94333,5.5686009,-1634,31678,23.9869,18441,391
1.33185,4.9434709,-1633,31679,23.9869,18441,391
0.497951,4.4131415,-1632,31680,23.7878,18441,391
0.632885,3.8155517,-1631,31681,23.7878,18441,391
1.57163,2.7755901,-1630,31682,23.7878,18441,391
0.569429,2.0787825,-1629,31683,23.738,18436,301
0.793363,1.9301011,-1628,31684,23.9869,18436,301
0.41432,2.0895072,-1627,31685,23.5887,18436,301
1.40163,2.4045063,-1626,31686,23.738,18436,301
0.916097,2.7131483,-1625,31687,23.7878,18436,301
1.14304,3.1145876,-1624,31688,23.7878,18436,301
1.43857,3.5589306,-1623,31689,24.0367,18436,301
0.878906,3.5672947,-1622,31690,23.8376,18436,301
0.640375,3.4976926,-1621,31691,23.7878,18436,301
1.69708,3.5943437,-1620,31692,23.8376,18436,301
1.23912,3.5901956,-1619,31693,23.9869,18440,289
0.59402,3.8330856,-1618,31694,23.8376,18440,289
0.750112,4.0209153,-1617,31695,23.7878,18440,289
1.09183,4.1736624,-1616,31696,23.7878,18440,289
0.743728,4.1485951,-1615,31697,23.738,18440,289
0.817051,4.2479767,-1614,31698,23.7878,18440,289
0.737289,4.3758419,-1613,31699,23.738,18440,289
0.956832,4.2916005,-1612,31700,23.8376,18440,289
0.793363,4.4451029,-1611,31701,23.9869,18440,289
0.905627,4.5050396,-1610,31702,23.7878,18440,289
1.38107,4.9884806,-1609,31703,23.738,18438,395
0.717624,5.1515986,-1608,31704,23.9869,18438,395
0.768946,5.2561158,-1607,31705,23.7878,18438,395
1.84257,5.419427,-1606,31706,23.7878,18438,395
1.3029,5.6059387,-1605,31707,23.9869,18438,395
0.507437,5.7269063,-1604,31708,23.7878,18438,395
0.625305,6.0949647,-1603,31709,23.7878,18438,395
1.22363,6.2673328,-1602,31710,23.7878,18438,395
0.276214,6.5906665,-1601,31711,23.8376,18438,395
1.0381,6.9547947,-1600,31712,23.7878,18438,395
0.905627,7.2485512,-1599,31713,24.0367,18438,395
1.17998,7.6046964,-1598,31714,23.8376,18438,395
1.42525,7.8229834,-1597,31715,23.9869,18438,395
0.138107,8.2774114,-1596,31716,23.7878,18438,395
0.981433,8.5187238,-1595,31717,23.9869,18438,395
1.57769,8.7737904,-1594,31718,23.9869,18438,395
0.497951,8.9311766,-1593,31719,23.9869,18438,395
0.878906,9.1845236,-1592,31720,23.9869,18438,395
0.710948,9.3262038,-1591,31721,23.9371,18438,395
0.768946,9.4002067,-1590,31722,23.7878,18438,395
0.793363,9.3118128,-1589,31723,23.738,18430,419
0.525895,9.1764079,-1588,31724,23.7878,18430,419
1.15135,9.2112546,-1587,31725,23.9869,18430,419
0.497951,9.0809155,-1586,31726,23.7878,18430,419
1.21188,9.0059436,-1585,31727,23.7878,18430,419
0.292969,9.1422433,-1584,31728,23.8376,18430,419
0.862477,9.5535131,-1583,31729,24.0367,18430,419
0.497951,9.8272288,-1582,31730,23.9869,18430,419
0.793363,9.8211617,-1581,31731,23.7878,18430,419
0.218366,10.295963,-1580,31732,23.9869,18430,419
0.507437,10.573009,-1579,31733,24.0367,18440,270
0.697405,11.211213,-1578,31734,23.6385,18440,270
1.36719,11.515443,-1577,31735,23.738,18440,270
0.717624,11.992127,-1576,31736,23.7878,18440,270
0.946812,12.317009,-1575,31737,23.738,18440,270
1.73047,12.625281,-1574,31738,23.7878,18440,270
1.26577,12.706458,-1573,31739,23.6385,18440,270
1.59273,12.794693,-1572,31740,23.8376,18440,270
1.11345,12.914093,-1571,31741,23.8376,18440,270
1.1596,12.889839,-1570,31742,23.8376,18440,270
0.625305,12.647097,-1569,31743,23.7878,18444,376
1.38452,12.632361,-1568,31744,23.9869,18444,376
0.525895,12.672404,-1567,31745,23.7878,18444,376
0.662337,12.992892,-1566,31746,23.9869,18444,376
0.76272,13.211821,-1565,31747,23.738,18444,376
0.577742,13.503537,-1564,31748,23.9869,18444,376
0.352105,13.746331,-1563,31749,23.8376,18444,376
0.560992,14.239909,-1562,31750,23.9869,18444,376
1.34255,14.261867,-1561,31751,23.9869,18444,376
0.946812,13.895119,-1560,31752,23.7878,18444,376
0.710948,13.724634,-1559,31753,23.7878,18440,422
1.88099,13.744705,-1558,31754,24.0367,18440,422
0.478416,13.585499,-1557,31755,23.9869,18440,422
0.365396,13.166063,-1556,31756,23.9869,18440,422
0.662337,12.630591,-1555,31757,23.7878,18440,422
0.862477,12.105289,-1554,31758,23.8376,18440,422
0.730792,11.620427,-1553,31759,23.7878,18440,422
0.478416,11.147232,-1552,31760,23.7878,18440,422
1.09183,10.508687,-1551,31761,24.1363,18440,422
0.793363,9.5815476,-1550,31762,23.8376,18440,422
1.19205,8.7320812,-1549,31763,23.6385,18437,283
1.07865,8.3517864,-1548,31764,24.0367,18437,283
0.828641,7.4662738,-1547,31765,24.0367,18437,283
0.956832,6.9547947,-1546,31766,24.0367,18437,283
0.640375,6.3979286,-1545,31767,23.8376,18437,283
0.488281,5.5417771,-1544,31768,23.7878,18437,283
0.946812,4.8429772,-1543,31769,23.8376,18437,283
0.793363,4.4901304,-1542,31770,23.7878,18437,283
1.07422,4.3210132,-1541,31771,23.7878,18437,283
0.710948,4.350227,-1540,31772,23.7878,18437,283
0.683594,4.1287926,-1539,31773,23.8376,18437,300
0.59402,3.9479887,-1538,31774,23.7878,18437,300
0.717624,3.6046931,-1537,31775,23.7878,18437,300
1.66303,2.937307,-1536,31776,23.7878,18437,300
0.840071,2.3983011,-1535,31777,23.9371,18437,300
1.23912,2.0607841,-1534,31778,23.7878,18437,300
1.07422,1.9067992,-1533,31779,23.8376,18437,300
0.889691,1.7089844,-1532,31780,23.8376,18437,300
0.625305,1.5916021,-1531,31781,23.8376,18437,300
1.05179,1.8989684,-1530,31782,23.7878,18437,300
1.25442,1.8950409,-1529,31783,23.9869,18432,383
0.569429,2.0787825,-1528,31784,23.7878,18432,383
0.889691,2.3983011,-1527,31785,23.9869,18432,383
0.811194,2.516544,-1526,31786,23.7878,18432,383
1.89865,2.8497601,-1525,31787,23.6385,18432,383
0.625305,3.1336664,-1524,31788,23.7878,18432,383
1.38452,3.0419765,-1523,31789,23.8376,18432,383
0.840071,2.7755901,-1522,31790,23.9869,18432,383
1.19205,2.5866235,-1521,31791,23.7878,18432,383
1.52856,2.5195029,-1520,31792,24.1861,18432,383
1.08306,2.818212,-1519,31793,23.738,18434,394
0.525895,2.8497601,-1518,31794,23.9869,18434,394
1.13886,2.8497601,-1517,31795,24.0367,18434,394
0.793363,3.1407911,-1516,31796,23.6385,18434,394
1.4118,3.6925008,-1515,31797,23.6385,18434,394
1.94088,3.6904825,-1514,31798,24.1363,18434,394
1.24679,3.8928757,-1513,31799,23.8376,18434,394
0.497951,4.288127,-1512,31800,23.9869,18434,394
1.00068,4.7056483,-1511,31801,23.9371,18434,394
1.01487,4.5347108,-1510,31802,23.7878,18434,394
0.41432,4.4114529,-1509,31803,23.7878,18429,304
1.6165,4.4383933,-1508,31804,23.9869,18429,304
1.20794,4.2374402,-1507,31805,23.7878,18429,304
0.981433,3.9611769,-1506,31806,23.7878,18429,304
0.966748,3.6641433,-1505,31807,23.9869,18429,304
2.12388,3.4976926,-1504,31808,23.7878,18429,304
1.28447,3.3674595,-1503,31809,23.738,18429,304
0.525895,3.0247831,-1502,31810,23.6385,18429,304
0.710948,2.7048974,-1501,31811,24.0367,18429,304
0.662337,2.4687193,-1500,31812,23.6385,18429,304
0.447517,2.2804616,-1499,31813,23.9869,18427,390
0.921287,2.4837634,-1498,31814,24.0367,18427,390
0.717624,2.9751117,-1497,31815,23.8376,18427,390
0.78733,3.2595288,-1496,31816,23.8376,18427,390
0.497951,3.8330856,-1495,31817,23.9371,18427,390
1.38452,4.0430896,-1494,31818,23.9869,18427,390
0.76272,4.3416551,-1493,31819,24.2856,18427,390
0.507437,4.4434264,-1492,31820,23.7878,18427,390
0.884315,4.5853613,-1491,31821,23.738,18427,390
0.737289,4.6611043,-1490,31822,24.0367,18427,390
1.42525,4.5886099,-1489,31823,23.9371,18428,407
1.60466,4.5182509,-1488,31824,23.9869,18428,407
1.32827,4.7482056,-1487,31825,23.9371,18428,407
0.447517,4.7403535,-1486,31826,23.7878,18428,407
0.717624,4.8152058,-1485,31827,23.7878,18428,407
0.507437,5.1876292,-1484,31828,23.9869,18428,407
0.525895,5.3655422,-1483,31829,23.9869,18428,407
0.308816,5.7735516,-1482,31830,23.8376,18428,407
0.352105,6.1775298,-1481,31831,23.9869,18428,407
0.352105,6.8250297,-1480,31832,23.9869,18428,407
0.805294,7.511045,-1479,31833,23.9869,18427,314
1.90116,8.095388,-1478,31834,24.0367,18427,314
1.07422,8.9386815,-1477,31835,24.1363,18427,314
1.10916,9.5480524,-1476,31836,23.8376,18427,314
1.49385,10.306089,-1475,31837,23.7878,18427,314
1.31745,11.254989,-1474,31838,23.8376,18427,314
0.308816,11.758102,-1473,31839,24.1363,18427,314
0.799351,12.115748,-1472,31840,23.7878,18427,314
0.488281,12.115133,-1471,31841,23.6385,18427,314
1.13886,11.877259,-1470,31842,23.7878,18427,314
1.10916,12.052859,-1469,31843,23.8376,18434,270
1.86572,12.110212,-1468,31844,23.8376,18434,270
0.697405,12.409214,-1467,31845,23.9869,18434,270
1.05631,12.46672,-1466,31846,23.7878,18434,270
0.817051,12.618197,-1465,31847,23.8376,18434,270
0.59402,12.854531,-1464,31848,23.9869,18434,270
0.447517,13.209565,-1463,31849,23.8376,18434,270
0.497951,13.621647,-1462,31850,23.9869,18434,270
0.560992,13.392176,-1461,31851,23.7878,18434,270
1.00068,13.510156,-1460,31852,24.1363,18434,270
0.402647,13.773405,-1459,31853,23.7878,18434,411
0.601994,13.97905,-1458,31854,23.8376,18434,411
0.218366,14.162787,-1457,31855,23.8376,18434,411
1.00543,14.266568,-1456,31856,23.738,18434,411
1.25061,13.96145,-1455,31857,23.7878,18434,411
1.68581,13.929929,-1454,31858,24.0367,18434,411
1.07865,14.362858,-1453,31859,23.9869,18434,411
1.49385,14.64335,-1452,31860,24.0367,18434,411
1.67161,15.090379,-1451,31861,24.0367,18434,411
0.402647,15.209393,-1450,31862,23.6385,18434,411
1.02423,15.32894,-1449,31863,23.7878,18433,275
0.697405,15.658343,-1448,31864,23.9869,18433,275
0.905627,15.958097,-1447,31865,23.9869,18433,275
0.625305,16.213768,-1446,31866,23.8376,18433,275
1.54099,15.890723,-1445,31867,23.9869,18433,275
1.52544,15.762204,-1444,31868,23.738,18433,275
1.59273,15.52838,-1443,31869,23.738,18433,275
1.1472,15.437431,-1442,31870,23.9869,18433,275
1.11773,14.655048,-1441,31871,23.9869,18433,275
0.676582,13.790704,-1440,31872,23.9371,18433,275
0.507437,12.992892,-1439,31873,23.7878,18438,285
0.239208,12.29279,-1438,31874,24.0367,18438,285
1.07422,11.510266,-1437,31875,23.9869,18438,285
0.239208,10.543371,-1436,31876,23.8376,18438,285
1.05631,9.9425501,-1435,31877,23.7878,18438,285
0.805294,9.29259,-1434,31878,24.0367,18438,285
0.601994,8.6884569,-1433,31879,23.9869,18438,285
0.365396,8.0353426,-1432,31880,23.8376,18438,285
0.905627,7.4862051,-1431,31881,24.0367,18438,285
0.817051,7.1377216,-1430,31882,23.9869,18438,285
1.68298,6.8631312,-1429,31883,23.7878,18463,395
0.569429,6.630115,-1428,31884,24.1363,18463,395
0.76272,6.3453083,-1427,31885,23.9869,18463,395
0.365396,6.1108355,-1426,31886,23.9869,18463,395
1.25821,5.9238699,-1425,31887,23.7878,18463,395
0.577742,6.2720862,-1424,31888,23.7878,18463,395
1.09619,6.6827225,-1423,31889,23.738,18463,395
0.690534,6.7702269,-1422,31890,23.9869,18463,395
0.365396,6.7680255,-1421,31891,23.7878,18463,395
0.640375,7.0937452,-1420,31892,23.7878,18463,395
0.946812,7.8458076,-1419,31893,23.6385,18436,388
1.52856,8.2962922,-1418,31894,23.738,18436,388
1.13045,8.197819,-1417,31895,23.9869,18436,388
1.05179,8.2041785,-1416,31896,23.9869,18436,388
0.834375,8.0093382,-1415,31897,23.8376,18436,388
0.534885,7.9720419,-1414,31898,23.7878,18436,388
0.750112,7.683645,-1413,31899,23.9371,18436,388
0.793363,7.34555,-1412,31900,23.9869,18436,388
1.57769,7.34555,-1411,31901,23.9869,18436,388
1.13045,7.1949033,-1410,31902,24.0367,18436,388
2.01324,7.0124056,-1409,31903,24.1363,18443,307
0.632885,7.1741627,-1408,31904,23.8376,18443,307
0.59402,7.044208,-1407,31905,23.7878,18443,307
1.77401,6.9708455,-1406,31906,23.8376,18443,307
1.06082,6.9547947,-1405,31907,23.8376,18443,307
0.617632,6.7943946,-1404,31908,24.0367,18443,307
0.750112,6.792201,-1403,31909,23.7878,18443,307
0.941763,7.1189079,-1402,31910,23.9371,18443,307
1.09183,7.3211664,-1401,31911,24.0367,18443,307
0.41432,7.8372563,-1400,31912,23.8376,18443,307
1.84516,8.0612632,-1399,31913,23.9869,18187,307
0.921287,8.7149996,-1398,31914,24.0367,18187,307
0.981433,9.2209558,-1397,31915,24.0367,18187,307
0.961803,9.4956267,-1396,31916,23.8376,18187,307
0.926449,10.008277,-1395,31917,23.8376,18187,307
0.717624,10.615205,-1394,31918,23.9869,18187,307
0.683594,10.952367,-1393,31919,23.7878,18187,307
1.31383,11.720021,-1392,31920,23.7878,18187,307
1.17998,12.675343,-1391,31921,24.0367,18187,307
1.09619,13.276514,-1390,31922,23.738,18187,307
1.14304,13.690391,-1389,31923,23.7878,18410,308
1.39481,14.403262,-1388,31924,23.8376,18410,308
1.10916,15.103704,-1387,31925,24.0367,18410,308
0.995902,15.162784,-1386,31926,23.738,18410,308
0.840071,15.002734,-1385,31927,23.9869,18410,308
0.916097,14.767481,-1384,31928,23.9869,18410,308
0.690534,14.524315,-1383,31929,23.8376,18410,308
0.889691,13.99077,-1382,31930,23.7878,18410,308
0.995902,13.494706,-1381,31931,23.9869,18410,308
1.40163,13.25742,-1380,31932,23.9869,18410,308
0.921287,13.419409,-1379,31933,23.7878,18423,372
0.78733,13.590982,-1378,31934,23.7878,18423,372
0.878906,13.880098,-1377,31935,23.738,18423,372
1.19604,13.935811,-1376,31936,24.0367,18423,372
1.08306,13.967853,-1375,31937,23.8376,18423,372
0.292969,13.738199,-1374,31938,23.8376,18423,372
0.828641,13.740368,-1373,31939,23.7878,18423,372
1.00068,14.405331,-1372,31940,23.9869,18423,372
1.05631,14.580633,-1371,31941,23.7878,18423,372
1.23526,15.179972,-1370,31942,23.7878,18423,372
0.560992,15.676889,-1369,31943,23.6385,18414,293
1.05631,16.300844,-1368,31944,24.0367,18414,293
1.06082,16.619953,-1367,31945,23.9371,18414,293
0.534885,17.087228,-1366,31946,23.7878,18414,293
0.921287,16.661144,-1365,31947,24.0367,18414,293
0.425674,16.193537,-1364,31948,23.9869,18414,293
1.34255,15.820708,-1363,31949,23.8376,18414,293
1.38452,15.847529,-1362,31950,23.8376,18414,293
1.10916,15.739498,-1361,31951,23.9869,18414,293
1.21188,15.641204,-1360,31952,23.7878,18414,293
0.78733,15.805631,-1359,31953,23.8376,18408,297
0.78733,15.470215,-1358,31954,23.8376,18408,297
0.655098,15.138195,-1357,31955,23.9869,18408,297
1.71108,15.141148,-1356,31956,23.8376,18408,297
1.36019,15.061716,-1355,31957,23.7878,18408,297
1.05179,14.60463,-1354,31958,23.8376,18408,297
0.840071,14.140148,-1353,31959,23.8376,18408,297
0.625305,13.810679,-1352,31960,23.7878,18408,297
0.995902,13.431618,-1351,31961,23.8376,18408,297
0.569429,12.968211,-1350,31962,23.7878,18408,297
0.799351,12.824356,-1349,31963,23.9869,18405,400
1.46484,12.718766,-1348,31964,24.0367,18405,400
1.04268,12.416417,-1347,31965,23.8376,18405,400
1.59273,12.052859,-1346,31966,23.8376,18405,400
2.05543,11.931085,-1345,31967,23.9869,18405,400
2.02504,11.810579,-1344,31968,23.7878,18405,400
1.33185,11.786582,-1343,31969,23.738,18405,400
0.683594,12.212523,-1342,31970,23.7878,18405,400
0.625305,12.58864,-1341,31971,23.6385,18405,400
1.1472,12.880587,-1340,31972,23.7878,18405,400
1.17998,13.152474,-1339,31973,23.6385,18392,394
0.730792,13.402186,-1338,31974,23.7878,18392,394
1.958,13.998224,-1337,31975,23.8376,18392,394
0.961803,14.820864,-1336,31976,24.0367,18392,394
1.36719,15.958097,-1335,31977,24.0367,18392,394
0.647778,17.306884,-1334,31978,23.8376,18392,394
0.697405,17.82143,-1333,31979,23.9869,18392,394
0.931581,17.606077,-1332,31980,23.8376,18392,394
0.793363,17.837727,-1331,31981,23.8376,18392,394
1.19205,19.065648,-1330,31982,24.1861,18392,394
0.683594,20.78675,-1329,31983,23.7878,18391,269
1.01016,22.652843,-1328,31984,24.0367,18391,269
2.0739,24.161597,-1327,31985,23.9869,18391,269
1.17998,25.208037,-1326,31986,23.9869,18391,269
0.85693,26.129321,-1325,31987,23.7878,18391,269
0.697405,27.561141,-1324,31988,23.7878,18391,269
0.625305,28.585312,-1323,31989,23.738,18391,269
1.31383,29.262523,-1322,31990,23.7878,18391,269
1.11773,30.173599,-1321,31991,23.9869,18391,269
0.690534,30.656179,-1320,31992,23.8376,18391,269
0.900346,30.989034,-1319,31993,23.9869,18383,315
0.817051,31.330006,-1318,31994,23.6385,18383,315
0.981433,32.188393,-1317,31995,24.0367,18383,315
0.478416,33.584203,-1316,31996,23.9869,18383,315
1.20794,35.216598,-1315,31997,24.0367,18383,315
0.625305,36.830861,-1314,31998,23.9869,18383,315
0.851347,38.595459,-1313,31999,23.7878,18383,315
1.73047,40.399372,-1312,32000,23.9869,18383,315
0.683594,42.126463,-1311,32001,23.7878,18383,315
0.834375,43.756035,-1310,32002,23.738,18383,315
1.15135,45.3637,-1309,32003,23.8376,18366,399
2.19672,46.935519,-1308,32004,23.9869,18366,399
0.793363,48.454841,-1307,32005,23.9869,18366,399
0.931581,49.706156,-1306,32006,23.7878,18366,399
0.981433,51.028311,-1305,32007,23.7878,18366,399
0.365396,52.271329,-1304,32008,23.6385,18366,399
0.905627,53.714544,-1303,32009,23.9869,18366,399
0.507437,54.363654,-1302,32010,23.9869,18366,399
1.28447,54.784552,-1301,32011,23.8376,18366,399
1.43857,55.326408,-1300,32012,23.7878,18366,399
1.6165,55.970936,-1299,32013,24.0367,18329,267
2.51832,56.542147,-1298,32014,23.9869,18329,267
1.19205,57.320819,-1297,32015,23.6385,18329,267
0.655098,57.523231,-1296,32016,23.8376,18329,267
0.710948,57.218823,-1295,32017,23.6385,18329,267
0.961803,56.413524,-1294,32018,24.0367,18329,267
0.750112,55.686678,-1293,32019,23.9869,18329,267
1.35668,54.429946,-1292,32020,23.7878,18329,267
0.365396,52.741439,-1291,32021,23.9869,18329,267
0.647778,50.720619,-1290,32022,23.8376,18329,267
0.436732,48.792864,-1289,32023,23.8376,18290,296
1.80334,47.130682,-1288,32024,23.738,18290,296
0.569429,45.81151,-1287,32025,23.738,18290,296
0.697405,45.065112,-1286,32026,23.7878,18290,296
1.57769,44.773687,-1285,32027,23.7878,18290,296
0.625305,44.394843,-1284,32028,23.7878,18290,296
1.40163,43.672691,-1283,32029,23.9869,18290,296
0.845728,42.805622,-1282,32030,23.8376,18290,296
1.13045,41.252,-1281,32031,23.9869,18290,296
1.04268,39.7509,-1280,32032,23.738,18290,296
1.49385,39.128439,-1279,32033,23.9869,18252,384
1.73323,39.123868,-1278,32034,23.6385,18252,384
1.11773,39.250873,-1277,32035,23.8376,18252,384
1.57769,39.191035,-1276,32036,23.7878,18252,384
0.981433,39.010777,-1275,32037,23.7878,18252,384
0.683594,39.218021,-1274,32038,23.8376,18252,384
0.478416,39.400734,-1273,32039,24.0367,18252,384
1.47781,39.95934,-1272,32040,23.7878,18252,384
0.828641,41.003634,-1271,32041,23.7878,18252,384
1.25061,42.500283,-1270,32042,24.2856,18252,384
1.25061,44.314382,-1269,32043,24.2856,18228,429
0.926449,46.175667,-1268,32044,24.0367,18228,429
1.09619,47.731834,-1267,32045,23.8376,18228,429
1.01487,49.311874,-1266,32046,23.8376,18228,429
0.447517,51.250054,-1265,32047,24.0367,18228,429
0.365396,53.128781,-1264,32048,24.0367,18228,429
1.14304,54.624385,-1263,32049,23.8376,18228,429
1.1472,56.325761,-1262,32050,23.8376,18228,429
0.497951,57.819206,-1261,32051,24.0367,18228,429
0.697405,59.708607,-1260,32052,23.7878,18228,429
0.961803,61.494124,-1259,32053,23.9371,18200,292
1.25821,63.248091,-1258,32054,24.0367,18200,292
0.497951,64.606917,-1257,32055,23.8376,18200,292
1.09183,65.644438,-1256,32056,23.9371,18200,292
0.683594,66.428461,-1255,32057,23.8376,18200,292
1.00543,66.729265,-1254,32058,23.8376,18200,292
0.560992,66.62378,-1253,32059,23.8376,18200,292
0.507437,66.090675,-1252,32060,23.7878,18200,292
0.365396,65.951643,-1251,32061,23.7878,18200,292
1.28075,65.994219,-1250,32062,23.738,18200,292
0.352105,65.97491,-1249,32063,24.0367,18177,369
0.601994,65.455873,-1248,32064,23.8376,18177,369
0.905627,64.612106,-1247,32065,23.9869,18177,369
1.01016,63.703864,-1246,32066,23.7878,18177,369
0.632885,62.594938,-1245,32067,23.7878,18177,369
1.94579,61.475705,-1244,32068,24.1861,18177,369
0.365396,60.941701,-1243,32069,23.9869,18177,369
1.27328,60.360529,-1242,32070,23.7878,18177,369
1.10916,60.285805,-1241,32071,23.7878,18177,369
1.06977,60.146608,-1240,32072,23.7878,18177,369
1.19205,60.36954,-1239,32073,23.9869,18154,412
0.560992,61.212876,-1238,32074,23.7878,18154,412
0.640375,61.88411,-1237,32075,23.7878,18154,412
1.39822,62.53754,-1236,32076,23.7878,18154,412
0.447517,63.281066,-1235,32077,23.7878,18154,412
1.01487,64.40097,-1234,32078,23.7878,18154,412
0.534885,65.574486,-1233,32079,23.7878,18154,412
0.76272,66.531456,-1232,32080,23.9869,18154,412
1.21581,67.3202,-1231,32081,23.738,18154,412
0.85693,67.647883,-1230,32082,23.9869,18154,412
2.00612,67.842326,-1229,32083,24.0367,18126,295
1.13886,67.788163,-1228,32084,23.7878,18126,295
0.497951,67.864617,-1227,32085,23.7878,18126,295
0.717624,68.273218,-1226,32086,23.9869,18126,295
0.828641,68.798508,-1225,32087,23.9869,18126,295
1.4118,69.786115,-1224,32088,24.0367,18126,295
1.00068,70.85485,-1223,32089,23.7878,18126,295
0.308816,71.718984,-1222,32090,23.9869,18126,295
1.36019,72.833638,-1221,32091,23.4891,18126,295
0.577742,73.602325,-1220,32092,24.1363,18126,295
0.981433,74.54999,-1219,32093,24.0367,18091,269
0.488281,75.46414,-1218,32094,24.0367,18091,269
0.497951,76.786108,-1217,32095,24.0367,18091,269
0.402647,78.698438,-1216,32096,23.9869,18091,269
0.737289,80.88418,-1215,32097,23.7878,18091,269
0.85693,83.716831,-1214,32098,23.9869,18091,269
1.34255,88.748559,-1213,32099,24.0367,18091,269
1.25442,97.329623,-1212,32100,23.9869,18091,269
0.525895,111.50747,-1211,32101,23.8376,18091,269
0.878906,131.5112,-1210,32102,23.9869,18091,269
1.39481,142.09619,-1209,32103,24.0367,18061,399
0.768946,145.8657,-1208,32104,23.9869,18061,399
0.292969,152.59717,-1207,32105,23.7878,18061,399
0.323889,163.90984,-1206,32106,23.8376,18061,399
0.662337,181.05529,-1205,32107,23.9869,18061,399
1.15135,182.41802,-1204,32108,23.9869,18061,399
1.70829,174.11647,-1203,32109,23.7878,18061,399
1.19604,163.64576,-1202,32110,24.0367,18061,399
1.00068,164.77548,-1201,32111,23.6385,18061,399
1.08306,161.23885,-1200,32112,23.9869,18061,399
1.38452,143.30119,-1199,32113,23.7878,18045,399
1.31383,127.96096,-1198,32114,24.1363,18045,399
1.04725,113.10913,-1197,32115,23.738,18045,399
0.76272,102.12887,-1196,32116,23.9869,18045,399
1.34255,102.34567,-1195,32117,23.9869,18045,399
1.11773,109.76836,-1194,32118,23.738,18045,399
0.750112,118.73777,-1193,32119,23.7878,18045,399
0.710948,129.46021,-1192,32120,23.9869,18045,399
0.601994,146.49277,-1191,32121,24.0367,18045,399
0.737289,173.83875,-1190,32122,23.8376,18045,399
1.06082,363.4304,-1189,32123,23.7878,18045,375
3.23595,1314.6898,-1188,32124,23.8376,18045,375
4.98812,2025.0923,-1187,32125,23.8376,18045,375
3.84473,1542.2791,-1186,32126,24.1861,18045,375
1.67446,574.83989,-1185,32127,23.9869,18045,375
2.19238,303.49235,-1184,32128,23.738,18045,375
1.59273,204.49514,-1183,32129,23.8376,18045,375
0.926449,38.651787,-1182,32130,24.0367,18045,375
0.811194,114.42469,-1181,32131,24.0367,18045,375
0.717624,120.12047,-1180,32132,23.7878,18045,375
0.793363,107.7168,-1179,32133,23.9869,17947,322
0.683594,103.78942,-1178,32134,23.8376,17947,322
0.76272,114.10551,-1177,32135,23.8376,17947,322
0.647778,125.63087,-1176,32136,23.7878,17947,322
0.926449,130.45016,-1175,32137,23.7878,17947,322
1.45505,131.15795,-1174,32138,24.0367,17947,322
1.01016,131.21849,-1173,32139,23.9869,17947,322
1.05179,131.73677,-1172,32140,23.9869,17947,322
0.793363,132.86556,-1171,32141,24.0367,17947,322
0.662337,134.74517,-1170,32142,24.0367,17947,322
0.41432,137.99184,-1169,32143,24.0367,17852,401
0.365396,144.63354,-1168,32144,23.9869,17852,401
0.601994,149.63306,-1167,32145,23.9371,17852,401
0.323889,145.53879,-1166,32146,23.7878,17852,401
0.560992,133.03474,-1165,32147,23.9869,17852,401
1.3461,116.56878,-1164,32148,23.9869,17852,401
0.436732,93.942683,-1163,32149,23.7878,17852,401
0.458048,84.670436,-1162,32150,23.7878,17852,401
0.946812,89.831973,-1161,32151,23.9371,17852,401
1.23912,97.767576,-1160,32152,23.9869,17852,401
0.828641,105.89549,-1159,32153,23.9869,17829,372
1.69708,110.68015,-1158,32154,23.9869,17829,372
0.625305,114.36842,-1157,32155,23.9869,17829,372
1.56859,119.03333,-1156,32156,23.9869,17829,372
0.425674,121.61175,-1155,32157,23.8376,17829,372
0.365396,121.03258,-1154,32158,23.8376,17829,372
0.710948,120.75796,-1153,32159,23.7878,17829,372
0.292969,121.6278,-1152,32160,23.738,17829,372
1.44518,121.79571,-1151,32161,23.6385,17829,372
0.662337,121.78403,-1150,32162,23.9869,17829,372
0.873464,121.31247,-1149,32163,23.6385,17839,305
0.878906,121.79908,-1148,32164,23.9371,17839,305
1.14304,124.09424,-1147,32165,23.6385,17839,305
1.20794,126.18699,-1146,32166,23.738,17839,305
1.27328,127.57656,-1145,32167,23.9371,17839,305
0.239208,129.43834,-1144,32168,23.8376,17839,305
0.436732,130.83808,-1143,32169,23.7878,17839,305
0.507437,129.07635,-1142,32170,24.0367,17839,305
1.38107,127.02945,-1141,32171,23.9869,17839,305
0.926449,127.97505,-1140,32172,23.8376,17839,305
1.34255,131.20832,-1139,32173,24.0367,17839,295
0.323889,134.59413,-1138,32174,23.7878,17839,295
0.577742,134.54065,-1137,32175,23.9869,17839,295
0.85693,134.3093,-1136,32176,23.8376,17839,295
0.585938,137.56853,-1135,32177,24.1363,17839,295
0.625305,141.15678,-1134,32178,23.7878,17839,295
1.17594,141.23899,-1133,32179,23.7878,17839,295
1.19205,140.90975,-1132,32180,23.7878,17839,295
0.889691,146.82679,-1131,32181,23.8376,17839,295
1.15548,156.50547,-1130,32182,23.8376,17839,295
0.811194,166.42446,-1129,32183,23.8376,17844,413
0.921287,172.57315,-1128,32184,23.8376,17844,413
0.793363,174.52507,-1127,32185,23.9869,17844,413
0.78733,174.12567,-1126,32186,23.9869,17844,413
0.525895,170.82439,-1125,32187,23.7878,17844,413
0.768946,166.09917,-1124,32188,24.0367,17844,413
0.981433,162.04874,-1123,32189,24.0367,17844,413
1.01016,162.97274,-1122,32190,23.9869,17844,413
0.717624,165.02701,-1121,32191,23.9869,17844,413
0.905627,161.81524,-1120,32192,23.8376,17844,413
0.365396,155.98241,-1119,32193,23.9869,17860,300
1.09183,148.6659,-1118,32194,24.0367,17860,300
0.488281,141.68877,-1117,32195,23.7878,17860,300
1.02423,138.48365,-1116,32196,23.7878,17860,300
1.14304,140.087,-1115,32197,24.0367,17860,300
0.697405,144.97997,-1114,32198,23.7878,17860,300
0.78733,149.08249,-1113,32199,23.8376,17860,300
1.23912,149.37686,-1112,32200,23.9869,17860,300
1.40163,147.28596,-1111,32201,23.8376,17860,300
0.365396,143.44072,-1110,32202,23.8376,17860,300
0.625305,140.93101,-1109,32203,24.0367,17873,273
0.447517,141.4786,-1108,32204,23.8376,17873,273
0.971667,146.85515,-1107,32205,23.7878,17873,273
0.878906,152.4472,-1106,32206,23.8376,17873,273
1.04725,154.03348,-1105,32207,24.0367,17873,273
0.560992,151.4716,-1104,32208,23.7878,17873,273
0.625305,151.44017,-1103,32209,24.1363,17873,273
0.569429,149.76674,-1102,32210,23.9869,17873,273
0.905627,145.82028,-1101,32211,23.9869,17873,273
0.78733,143.84245,-1100,32212,23.7878,17873,273
1.21581,146.82988,-1099,32213,24.0367,17895,459
0.921287,154.13131,-1098,32214,23.7878,17895,459
0.704209,167.86386,-1097,32215,24.0367,17895,459
0.811194,171.63498,-1096,32216,23.7878,17895,459
0.840071,152.72045,-1095,32217,23.738,17895,459
1.23912,136.63137,-1094,32218,23.9869,17895,459
1.45176,132.80162,-1093,32219,24.0367,17895,459
1.06082,136.68747,-1092,32220,23.8376,17895,459
1.02423,145.91125,-1091,32221,23.9869,17895,459
1.05179,153.18268,-1090,32222,23.7878,17895,459
0.617632,142.54818,-1089,32223,23.7878,17925,414
0.640375,124.11862,-1088,32224,23.738,17925,414
0.793363,119.08064,-1087,32225,23.8376,17925,414
0.447517,125.72839,-1086,32226,23.9869,17925,414
1.78206,127.5369,-1085,32227,23.6385,17925,414
1.13045,127.16762,-1084,32228,23.7878,17925,414
0.971667,128.76937,-1083,32229,24.0367,17925,414
0.956832,121.49835,-1082,32230,23.7878,17925,414
0.750112,108.10724,-1081,32231,23.9869,17925,414
0.845728,99.888056,-1080,32232,24.1363,17925,414
1.04268,130.71371,-1079,32233,23.9371,17933,272
1.6165,158.49715,-1078,32234,23.9869,17933,272
3.35602,104.24876,-1077,32235,23.7878,17933,272
2.41193,120.5768,-1076,32236,23.9869,17933,272
2.63672,171.14406,-1075,32237,23.8376,17933,272
1.4118,201.53254,-1074,32238,24.1861,17933,272
2.03444,238.7753,-1073,32239,24.0367,17933,272
1.52856,265.32765,-1072,32240,23.8376,17933,272
1.07865,264.23641,-1071,32241,24.1363,17933,272
0.690534,249.51079,-1070,32242,23.8376,17933,272
0.292969,232.8495,-1069,32243,23.9869,17874,303
0.946812,223.75012,-1068,32244,23.9869,17874,303
0.323889,233.66464,-1067,32245,23.7878,17874,303
1.42859,233.01582,-1066,32246,24.0367,17874,303
0.768946,206.78214,-1065,32247,23.7878,17874,303
0.811194,178.78551,-1064,32248,23.6385,17874,303
1.31745,159.73977,-1063,32249,24.1363,17874,303
1.33543,149.7841,-1062,32250,23.7878,17874,303
1.56859,141.20881,-1061,32251,23.8376,17874,303
2.5353,130.47729,-1060,32252,24.1861,17874,303
1.63702,128.06875,-1059,32253,23.8376,17775,440
1.88858,154.06831,-1058,32254,23.9869,17775,440
1.60466,161.30736,-1057,32255,23.7878,17775,440
1.05631,133.43893,-1056,32256,24.0367,17775,440
1.34255,140.41228,-1055,32257,23.6385,17775,440
0.811194,183.71063,-1054,32258,23.7878,17775,440
0.625305,214.53607,-1053,32259,23.9869,17775,440
1.17998,230.84371,-1052,32260,23.9869,17775,440
1.91366,239.75013,-1051,32261,23.8376,17775,440
1.31745,247.44547,-1050,32262,23.7878,17775,440
1.3029,261.18965,-1049,32263,23.8376,17604,303
1.07865,270.43999,-1048,32264,23.738,17604,303
0.662337,260.13367,-1047,32265,23.9371,17604,303
1.28447,229.58311,-1046,32266,23.9869,17604,303
0.926449,187.03068,-1045,32267,23.8376,17604,303
0.497951,147.09878,-1044,32268,23.9869,17604,303
1.0381,125.22183,-1043,32269,23.738,17604,303
0.884315,117.43259,-1042,32270,23.9869,17604,303
1.50657,115.12188,-1041,32271,23.7878,17604,303
0.828641,117.56645,-1040,32272,23.9869,17604,303
0.0976563,123.11921,-1039,32273,24.0367,17491,313
0.921287,134.60349,-1038,32274,24.0367,17491,313
1.09183,148.63503,-1037,32275,23.9869,17491,313
0.655098,159.02258,-1036,32276,24.0367,17491,313
1.28447,167.22773,-1035,32277,24.0367,17491,313
0.873464,168.15379,-1034,32278,23.6385,17491,313
0.851347,162.88846,-1033,32279,23.9869,17491,313
0.655098,164.34627,-1032,32280,23.8376,17491,313
0.497951,174.24484,-1031,32281,23.8376,17491,313
1.4118,181.15127,-1030,32282,23.9869,17491,313
1.17188,182.65427,-1029,32283,23.9371,17374,440
0.402647,176.00207,-1028,32284,23.8376,17374,440
1.4681,158.85649,-1027,32285,24.0367,17374,440
0.239208,143.46217,-1026,32286,23.9869,17374,440
0.921287,147.58326,-1025,32287,23.7878,17374,440
0.625305,173.89438,-1024,32288,23.7878,17374,440
0.845728,192.60173,-1023,32289,23.7878,17374,440
3.12195,69.206978,-1022,32290,23.7878,17374,440
0.497951,87.718711,-1021,32291,23.7878,17374,440
1.02423,61.135903,-1020,32292,23.9869,17374,440
1.11773,234.54482,-1019,32293,23.7878,17228,477
1.37067,313.32061,-1018,32294,23.6385,17228,477
1.31383,252.59047,-1017,32295,23.7878,17228,477
1.63993,156.39589,-1016,32296,23.9371,17228,477
0.737289,112.50308,-1015,32297,23.7878,17228,477
1.07422,132.67875,-1014,32298,23.9869,17228,477
0.889691,182.13893,-1013,32299,23.738,17228,477
1.64283,209.17445,-1012,32300,23.8376,17228,477
0.845728,201.18384,-1011,32301,23.9869,17228,477
1.25442,182.75577,-1010,32302,23.8376,17228,477
1.00068,175.98772,-1009,32303,23.8376,17087,283
1.77132,184.59756,-1008,32304,23.8376,17087,283
2.28816,196.03922,-1007,32305,24.0367,17087,283
0.995902,206.00883,-1006,32306,23.9869,17087,283
0.585938,210.77924,-1005,32307,23.7878,17087,283
0.811194,211.66397,-1004,32308,24.0367,17087,283
0.534885,221.15873,-1003,32309,23.9869,17087,283
0.845728,233.77644,-1002,32310,24.1861,17087,283
0.365396,245.29573,-1001,32311,23.8376,17087,283
1.19205,252.88718,-1000,32312,23.9869,17087,283
1.21188,256.99871,-999,32313,23.9869,16957,283
0.704209,258.32466,-998,32314,23.9869,16957,283
1.68298,255.55358,-997,32315,23.9869,16957,283
0.497951,252.98842,-996,32316,23.9869,16957,283
0.840071,255.66866,-995,32317,23.9869,16957,283
0.640375,263.09701,-994,32318,24.0367,16957,283
0.905627,272.07252,-993,32319,23.738,16957,283
1.59273,279.75219,-992,32320,23.8376,16957,283
0.884315,284.52097,-991,32321,23.9869,16957,283
1.57769,286.45546,-990,32322,23.7878,16957,283
0.338291,288.99787,-989,32323,23.9869,16957,282
2.06237,295.17748,-988,32324,24.0367,16957,282
1.32827,305.447,-987,32325,24.1363,16957,282
0.447517,321.65502,-986,32326,23.8376,16957,282
1.15548,333.6329,-985,32327,23.8376,16957,282
0.601994,333.53916,-984,32328,24.0367,16957,282
0.921287,321.99115,-983,32329,23.7878,16957,282
0.884315,303.6473,-982,32330,23.7878,16957,282
0.218366,288.18921,-981,32331,24.1363,16957,282
1.20794,284.47627,-980,32332,24.1363,16957,282
0.365396,288.8984,-979,32333,24.1363,16853,485
0.447517,291.41162,-978,32334,24.0367,16853,485
0.655098,288.68568,-977,32335,23.6385,16853,485
0.625305,282.6717,-976,32336,23.7878,16853,485
0.750112,281.55946,-975,32337,24.0367,16853,485
0.85693,289.48884,-974,32338,23.9869,16853,485
0.497951,298.23219,-973,32339,23.7878,16853,485
0.76272,298.72292,-972,32340,24.0367,16853,485
1.00068,296.62212,-971,32341,23.8376,16853,485
1.07865,297.69298,-970,32342,23.738,16853,485
0.926449,298.77429,-969,32343,23.6385,16745,277
0.507437,297.82229,-968,32344,23.7878,16745,277
0.560992,297.79095,-967,32345,23.9869,16745,277
1.16371,300.30887,-966,32346,23.9869,16745,277
0.961803,304.73858,-965,32347,23.7878,16745,277
1.17594,308.80117,-964,32348,23.9869,16745,277
1.31383,311.81473,-963,32349,23.7878,16745,277
0.750112,319.2503,-962,32350,23.8376,16745,277
1.10916,325.98136,-961,32351,24.0367,16745,277
1.17594,322.5294,-960,32352,24.0367,16745,277
0.218366,313.0148,-959,32353,24.1861,16664,329
0.946812,310.19363,-958,32354,23.7878,16664,329
0.884315,322.71766,-957,32355,24.0367,16664,329
1.02423,344.5372,-956,32356,24.1363,16664,329
1.0381,357.02278,-955,32357,23.7878,16664,329
0.811194,356.13572,-954,32358,23.7878,16664,329
1.00068,349.60181,-953,32359,23.7878,16664,329
0.905627,349.65869,-952,32360,24.1363,16664,329
1.00068,370.09422,-951,32361,23.738,16664,329
0.730792,395.99446,-950,32362,23.738,16664,329
0.697405,393.04296,-949,32363,23.6385,16619,412
1.19604,355.66147,-948,32364,23.9869,16619,412
0.292969,318.14018,-947,32365,23.9869,16619,412
1.00543,304.47649,-946,32366,23.8376,16619,412
1.80334,311.94604,-945,32367,23.7878,16619,412
1.3461,328.92679,-944,32368,23.8376,16619,412
0.926449,348.2739,-943,32369,23.7878,16619,412
0.768946,355.17647,-942,32370,23.7878,16619,412
0.276214,317.9168,-941,32371,24.1363,16619,412
0.717624,274.31044,-940,32372,23.7878,16619,412
1.28817,271.51593,-939,32373,24.1861,16605,376
0.655098,304.10863,-938,32374,23.8376,16605,376
1.07865,346.46174,-937,32375,23.738,16605,376
1.48103,339.51616,-936,32376,23.7878,16605,376
1.16371,294.28727,-935,32377,23.9869,16605,376
1.01487,271.48512,-934,32378,23.7878,16605,376
1.25821,285.88111,-933,32379,23.7878,16605,376
0.292969,306.30701,-932,32380,23.9869,16605,376
0.218366,306.68448,-931,32381,23.7878,16605,376
0.834375,290.47246,-930,32382,23.9869,16605,376
0.995902,279.20982,-929,32383,23.7878,16608,317
0.617632,282.44773,-928,32384,24.0367,16608,317
1.17998,295.99456,-927,32385,23.8376,16608,317
0.717624,293.92214,-926,32386,24.0367,16608,317
1.05631,278.05342,-925,32387,24.1363,16608,317
1.9798,262.29084,-924,32388,23.9869,16608,317
1.14304,252.18453,-923,32389,23.7878,16608,317
0.59402,243.00916,-922,32390,23.7878,16608,317
0.793363,226.50623,-921,32391,24.0367,16608,317
0.478416,207.22157,-920,32392,23.9869,16608,317
0.218366,188.52059,-919,32393,23.7878,16618,374
0.690534,181.50657,-918,32394,23.8376,16618,374
0.717624,183.61574,-917,32395,23.8376,16618,374
1.36019,185.6083,-916,32396,23.7878,16618,374
1.10485,178.09912,-915,32397,23.9869,16618,374
1.88858,164.71918,-914,32398,23.8376,16618,374
1.23526,153.26126,-913,32399,24.0367,16618,374
0.525895,147.89044,-912,32400,23.7878,16618,374
1.01956,147.85643,-911,32401,23.7878,16618,374
0.737289,151.48163,-910,32402,24.1861,16618,374
0.625305,154.23394,-909,32403,23.9869,16633,407
0.41432,153.76194,-908,32404,24.0367,16633,407
1.4118,152.85363,-907,32405,23.7878,16633,407
1.1472,155.70326,-906,32406,23.6385,16633,407
1.17594,162.30523,-905,32407,24.1363,16633,407
0.577742,168.26236,-904,32408,24.1363,16633,407
1.6165,172.04887,-903,32409,24.0367,16633,407
0.931581,178.72303,-902,32410,23.7878,16633,407
0.560992,232.4731,-901,32411,23.9869,16633,407
0.41432,249.2761,-900,32412,23.738,16633,407
0.845728,223.52768,-899,32413,23.9869,16634,317
0.98628,254.91838,-898,32414,24.0367,16634,317
0.981433,247.78978,-897,32415,23.9869,16634,317
1.96529,195.47479,-896,32416,23.9371,16634,317
1.10916,167.78102,-895,32417,23.8376,16634,317
0.41432,163.83464,-894,32418,23.7878,16634,317
1.19205,161.49718,-893,32419,23.8376,16634,317
1.53789,171.91059,-892,32420,24.1363,16634,317
0.436732,178.40968,-891,32421,23.7878,16634,317
0.845728,178.12066,-890,32422,23.9869,16634,317
0.365396,181.5543,-889,32423,23.7878,16641,270
0.730792,184.87657,-888,32424,23.9371,16641,270
0.625305,172.34309,-887,32425,23.9869,16641,270
0.768946,159.65215,-886,32426,23.9371,16641,270
1.72495,170.28507,-885,32427,24.0367,16641,270
0.85693,200.37781,-884,32428,23.7878,16641,270
2.0739,221.77065,-883,32429,24.0367,16641,270
0.995902,219.06901,-882,32430,23.9371,16641,270
2.1573,207.66456,-881,32431,24.0367,16641,270
1.17998,194.27251,-880,32432,24.1363,16641,270
1.72495,191.25446,-879,32433,23.9869,16649,418
0.926449,191.79379,-878,32434,24.0367,16649,418
0.768946,202.14,-877,32435,23.7878,16649,418
1.41854,215.10448,-876,32436,23.8376,16649,418
1.40163,213.99124,-875,32437,23.7878,16649,418
0.840071,210.27454,-874,32438,23.7878,16649,418
1.27328,220.13018,-873,32439,23.738,16649,418
0.884315,227.87676,-872,32440,24.0367,16649,418
1.12623,215.69614,-871,32441,23.9869,16649,418
1.25821,179.90576,-870,32442,24.0367,16649,418
1.17998,148.54773,-869,32443,24.1861,16640,400
1.17594,164.00731,-868,32444,23.7878,16640,400
1.27702,212.59848,-867,32445,23.7878,16640,400
0.534885,240.49903,-866,32446,23.7878,16640,400
1.15548,225.06009,-865,32447,23.7878,16640,400
1.6341,188.41057,-864,32448,23.8376,16640,400
1.35668,157.76524,-863,32449,23.9869,16640,400
1.27702,145.24115,-862,32450,23.7878,16640,400
1.22363,143.42244,-861,32451,23.738,16640,400
1.80334,145.90691,-860,32452,23.9869,16640,400
1.19205,152.31881,-859,32453,23.8376,16660,296
0.946812,161.9626,-858,32454,23.9869,16660,296
1.74966,171.29144,-857,32455,23.8376,16660,296
0.569429,176.52844,-856,32456,23.7878,16660,296
1.05179,175.15422,-855,32457,23.8376,16660,296
1.09183,170.10142,-854,32458,23.7878,16660,296
0.497951,166.57683,-853,32459,23.9869,16660,296
1.45176,167.27807,-852,32460,23.7878,16660,296
1.10916,171.78013,-851,32461,23.7878,16660,296
1.31745,175.91857,-850,32462,23.9869,16660,296
1.56555,175.50935,-849,32463,24.0367,16665,413
1.09619,155.78626,-848,32464,24.0367,16665,413
1.25442,113.93248,-847,32465,23.738,16665,413
0.793363,86.906519,-846,32466,23.6385,16665,413
0.625305,83.811827,-845,32467,24.0367,16665,413
1.10916,95.125753,-844,32468,24.1861,16665,413
1.18804,101.21337,-843,32469,23.7878,16665,413
1.01956,90.677621,-842,32470,24.0367,16665,413
0.768946,70.643283,-841,32471,23.9371,16665,413
1.40163,51.253689,-840,32472,23.9869,16665,413
0.834375,43.265101,-839,32473,23.7878,16662,364
1.40163,44.307824,-838,32474,23.7878,16662,364
0.995902,50.993549,-837,32475,23.6385,16662,364
2.16832,60.598413,-836,32476,23.7878,16662,364
1.86316,75.652085,-835,32477,23.9869,16662,364
1.25821,97.270126,-834,32478,24.0367,16662,364
1.13886,117.06747,-833,32479,23.9869,16662,364
1.09619,141.37903,-832,32480,24.0367,16662,364
1.70549,170.93043,-831,32481,23.9869,16662,364
1.65152,214.09497,-830,32482,23.7878,16662,364
1.92112,246.12608,-829,32483,23.9869,16644,338
1.12623,243.62806,-828,32484,23.9869,16644,338
2.31303,248.96829,-827,32485,23.738,16644,338
1.14304,279.94327,-826,32486,23.7878,16644,338
0.921287,307.30514,-825,32487,23.8376,16644,338
0.525895,316.01055,-824,32488,24.0367,16644,338
1.11345,326.84079,-823,32489,23.9869,16644,338
1.84774,347.37604,-822,32490,23.8376,16644,338
1.32827,396.99724,-821,32491,24.0367,16644,338
1.92608,487.43715,-820,32492,23.9869,16644,338
1.15135,537.96847,-819,32493,23.9869,16607,307
1.37415,506.80426,-818,32494,24.1861,16607,307
2.09677,478.75502,-817,32495,23.9869,16607,307
1.68014,460.31763,-816,32496,24.1363,16607,307
1.47134,471.73726,-815,32497,23.7878,16607,307
1.62826,545.46426,-814,32498,23.8376,16607,307
2.78106,648.14193,-813,32499,23.8376,16607,307
1.23912,645.70337,-812,32500,24.1363,16607,307
0.921287,625.84671,-811,32501,23.6385,16607,307
2.45698,666.62904,-810,32502,23.9869,16607,307
2.74482,730.71998,-809,32503,23.738,16568,387
1.74966,742.9355,-808,32504,23.9869,16568,387
2.14399,680.96147,-807,32505,24.1363,16568,387
1.46158,607.86747,-806,32506,23.738,16568,387
2.15287,582.85588,-805,32507,23.9869,16568,387
2.22905,588.05719,-804,32508,24.0367,16568,387
2.0716,612.82227,-803,32509,23.9869,16568,387
0.534885,628.32284,-802,32510,24.0367,16568,387
1.73872,634.11224,-801,32511,23.738,16568,387
2.20323,649.37759,-800,32512,24.0367,16568,387
2.77247,639.01705,-799,32513,23.9869,16547,296
1.88099,588.3058,-798,32514,23.9371,16547,296
2.29648,541.59947,-797,32515,23.7878,16547,296
2.67264,523.24303,-796,32516,24.0367,16547,296
2.22905,519.76392,-795,32517,23.9371,16547,296
1.94824,518.08299,-794,32518,23.7878,16547,296
1.88858,520.22662,-793,32519,23.7878,16547,296
1.28447,516.78097,-792,32520,23.8376,16547,296
1.14304,511.35376,-791,32521,24.0367,16547,296
1.06082,501.54294,-790,32522,23.738,16547,296
0.710948,480.76963,-789,32523,24.0367,16547,296
0.683594,484.30224,-788,32524,24.0367,16547,296
0.507437,520.42337,-787,32525,23.8376,16547,296
0.78733,551.10682,-786,32526,23.7878,16547,296
1.01487,572.38212,-785,32527,24.0367,16547,296
1.81913,591.39751,-784,32528,24.1363,16547,296
1.17594,600.14504,-783,32529,23.7878,16547,296
1.57769,552.18255,-782,32530,23.7878,16547,296
1.11773,423.93109,-781,32531,23.8376,16547,296
2.31303,273.01565,-780,32532,24.0367,16547,296
2.91337,202.64352,-779,32533,23.9869,16543,292
3.65788,254.9486,-778,32534,24.0367,16543,292
3.39557,273.3755,-777,32535,24.0367,16543,292
2.88045,207.45594,-776,32536,24.0367,16543,292
3.05868,137.76331,-775,32537,23.8376,16543,292
2.30477,134.23561,-774,32538,24.0367,16543,292
1.45176,150.06146,-773,32539,24.1861,16543,292
1.4219,156.40013,-772,32540,24.0367,16543,292
0.717624,177.90956,-771,32541,23.9869,16543,292
1.69708,207.85244,-770,32542,23.9869,16543,292
1.31383,224.73851,-769,32543,24.0367,16546,392
1.32827,230.44007,-768,32544,23.6385,16546,392
1.29556,246.44968,-767,32545,23.6385,16546,392
1.79804,296.8192,-766,32546,23.9371,16546,392
0.793363,319.44238,-765,32547,23.9869,16546,392
0.569429,296.37659,-764,32548,24.1861,16546,392
1.60168,254.66143,-763,32549,23.7878,16546,392
1.51917,269.04103,-762,32550,23.9869,16546,392
0.966748,272.85492,-761,32551,23.9869,16546,392
0.85693,186.37966,-760,32552,23.7878,16546,392
0.497951,197.69614,-759,32553,23.9869,16547,410
0.85693,331.80894,-758,32554,24.1861,16547,410
0.425674,341.82774,-757,32555,24.0367,16547,410
1.46484,196.2208,-756,32556,23.9371,16547,410
1.94088,139.53294,-755,32557,23.8376,16547,410
1.43857,175.059,-754,32558,23.7878,16547,410
2.28816,190.56333,-753,32559,23.9869,16547,410
1.52856,181.21629,-752,32560,23.7878,16547,410
1.31745,163.76191,-751,32561,23.8376,16547,410
1.49704,167.04487,-750,32562,23.9371,16547,410
1.42525,157.12749,-749,32563,23.9869,16538,281
2.08994,160.62923,-748,32564,23.9869,16538,281
2.60945,224.92511,-747,32565,23.8376,16538,281
1.10916,321.74875,-746,32566,23.7878,16538,281
2.6131,342.01945,-745,32567,23.9869,16538,281
2.48592,329.62413,-744,32568,23.9869,16538,281
1.1596,334.55006,-743,32569,23.7878,16538,281
1.89362,282.22722,-742,32570,23.8376,16538,281
0.655098,223.32373,-741,32571,23.9869,16538,281
1.09619,411.07879,-740,32572,24.0367,16538,281
0.78733,483.68784,-739,32573,23.9869,16525,314
1.70829,343.88992,-738,32574,23.6385,16525,314
0.717624,178.83105,-737,32575,24.1861,16525,314
1.06082,137.68027,-736,32576,23.8376,16525,314
2.52021,171.20882,-735,32577,23.7878,16525,314
2.52588,258.17583,-734,32578,23.7878,16525,314
2.13284,292.99797,-733,32579,23.9869,16525,314
2.44336,316.65086,-732,32580,23.7878,16525,314
2.36602,363.44114,-731,32581,23.8376,16525,314
2.41391,416.90204,-730,32582,24.1363,16525,314
1.98461,449.65724,-729,32583,23.9869,16514,385
2.32332,471.15576,-728,32584,23.7878,16514,385
1.70829,499.5448,-727,32585,23.9869,16514,385
1.56555,531.0136,-726,32586,24.0367,16514,385
2.37005,556.7613,-725,32587,23.9869,16514,385
2.71337,567.68056,-724,32588,24.1861,16514,385
2.56522,562.51241,-723,32589,23.7878,16514,385
2.20539,553.06583,-722,32590,23.8376,16514,385
2.25034,549.18169,-721,32591,23.9371,16514,385
2.19455,541.2211,-720,32592,23.8376,16514,385
2.39407,508.33162,-719,32593,23.9869,16481,287
2.12613,448.39623,-718,32594,23.7878,16481,287
3.11736,396.95633,-717,32595,24.0367,16481,287
2.03444,385.30917,-716,32596,24.1363,16481,287
2.08994,406.65146,-715,32597,23.8376,16481,287
1.68863,436.01414,-714,32598,23.9371,16481,287
2.3539,467.41998,-713,32599,24.0367,16481,287
2.32332,499.80908,-712,32600,24.1363,16481,287
2.29856,527.02979,-711,32601,23.7878,16481,287
1.67446,543.6663,-710,32602,23.8376,16481,287
1.89362,550.69322,-709,32603,23.9869,16516,292
1.91864,554.48043,-708,32604,23.9869,16516,292
1.05631,559.84955,-707,32605,23.7878,16516,292
1.00068,567.82873,-706,32606,23.7878,16516,292
1.89865,576.8729,-705,32607,24.0367,16516,292
1.76323,581.43127,-704,32608,24.1861,16516,292
1.66589,584.30433,-703,32609,23.7878,16516,292
1.94088,586.82078,-702,32610,23.9869,16516,292
1.30655,584.76092,-701,32611,23.7878,16516,292
1.31745,578.45177,-700,32612,23.7878,16516,292
1.45505,571.43012,-699,32613,23.9869,16518,400
2.51073,567.14917,-698,32614,23.9869,16518,400
1.64863,586.89718,-697,32615,23.9869,16518,400
5.57411,575.03143,-696,32616,23.9371,16518,400
10.0135,481.13313,-695,32617,24.1861,16518,400
6.40673,420.43328,-694,32618,24.0367,16518,400
2.96206,328.00809,-693,32619,23.9869,16518,400
1.79539,322.50101,-692,32620,24.0367,16518,400
1.74966,448.85471,-691,32621,23.8376,16518,400
0.690534,538.42316,-690,32622,24.1861,16518,400
0.98628,455.16013,-689,32623,23.9869,16527,373
1.87592,309.07576,-688,32624,24.0367,16527,373
0.889691,306.69553,-687,32625,23.7878,16527,373
0.811194,327.00167,-686,32626,23.9869,16527,373
1.83479,321.86738,-685,32627,23.738,16527,373
0.895034,389.04044,-684,32628,23.9869,16527,373
2.47246,476.32022,-683,32629,24.0367,16527,373
1.958,524.06598,-682,32630,23.9869,16527,373
1.90617,520.56262,-681,32631,23.8376,16527,373
2.04845,495.99073,-680,32632,23.8376,16527,373
1.76323,481.21049,-679,32633,24.0367,16525,297
2.11714,474.96142,-678,32634,23.7878,16525,297
1.51603,478.78418,-677,32635,23.9869,16525,297
1.67446,479.98672,-676,32636,23.7878,16525,297
1.64863,474.08452,-675,32637,23.7878,16525,297
1.97498,449.50528,-674,32638,23.6385,16525,297
2.93944,421.41388,-673,32639,23.8376,16525,297
2.73786,385.67147,-672,32640,23.9869,16525,297
1.47134,344.68755,-671,32641,23.9869,16525,297
1.68298,351.01944,-670,32642,24.1363,16525,297
1.28447,342.24488,-669,32643,23.9869,16528,281
0.525895,314.07237,-668,32644,23.9371,16528,281
1.32827,323.47633,-667,32645,23.8376,16528,281
1.25821,345.70185,-666,32646,23.9869,16528,281
1.28447,343.02099,-665,32647,24.2856,16528,281
2.23332,330.31624,-664,32648,23.8376,16528,281
1.12623,316.11728,-663,32649,23.9371,16528,281
1.31745,301.80563,-662,32650,23.8376,16528,281
1.39139,300.42692,-661,32651,23.9869,16528,281
1.38452,303.80272,-660,32652,24.0367,16528,281
1.90867,302.72773,-659,32653,23.7878,16533,368
2.39208,292.92081,-658,32654,23.7878,16533,368
1.76323,275.89427,-657,32655,23.7878,16533,368
2.37206,258.69487,-656,32656,23.9869,16533,368
1.4118,249.75219,-655,32657,23.7878,16533,368
1.77132,240.43136,-654,32658,23.8376,16533,368
1.23912,231.66366,-653,32659,24.0367,16533,368
1.7767,234.5169,-652,32660,24.0367,16533,368
1.27702,238.58798,-651,32661,23.9869,16533,368
0.921287,224.73818,-650,32662,23.8376,16533,368
2.37809,211.22567,-649,32663,23.9869,16517,301
1.25821,205.67511,-648,32664,23.9869,16517,301
1.95556,202.55074,-647,32665,23.7878,16517,301
1.67446,198.78955,-646,32666,24.0367,16517,301
2.67264,202.68264,-645,32667,24.0367,16517,301
1.83998,205.35862,-644,32668,24.1363,16517,301
2.1771,215.3322,-643,32669,23.7878,16517,301
1.56555,236.5883,-642,32670,23.8376,16517,301
1.69708,262.01889,-641,32671,23.8376,16517,301
1.42859,286.2364,-640,32672,23.9869,16517,301
2.11488,315.54859,-639,32673,23.8376,16533,281
1.27328,357.72103,-638,32674,24.0367,16533,281
2.19672,399.56218,-637,32675,24.0367,16533,281
1.77401,437.96074,-636,32676,24.0367,16533,281
1.96529,466.08917,-635,32677,24.0367,16533,281
1.4118,490.76354,-634,32678,23.9869,16533,281
2.11714,501.6723,-633,32679,23.7878,16533,281
3.05712,494.46382,-632,32680,23.738,16533,281
2.82191,480.57312,-631,32681,23.9869,16533,281
2.56336,449.96821,-630,32682,23.7878,16533,281
2.60762,418.59163,-629,32683,23.9371,16526,332
2.78277,392.85331,-628,32684,23.7878,16526,332
2.62948,382.76051,-627,32685,24.0367,16526,332
2.954,395.46897,-626,32686,24.1861,16526,332
2.70985,422.39189,-625,32687,23.9869,16526,332
2.63129,444.67402,-624,32688,23.7878,16526,332
2.62403,457.3712,-623,32689,23.7878,16526,332
3.02104,449.29414,-622,32690,23.8376,16526,332
2.77935,432.34913,-621,32691,24.1363,16526,332
2.69574,421.08948,-620,32692,24.0367,16526,332
2.47246,418.93996,-619,32693,23.8376,16528,370
3.18695,429.75663,-618,32694,23.8376,16528,370
3.48703,452.74943,-617,32695,23.7878,16528,370
1.82698,467.64654,-616,32696,24.0367,16528,370
2.53342,465.10285,-615,32697,23.7878,16528,370
1.79804,468.28961,-614,32698,23.7878,16528,370
2.0716,461.45362,-613,32699,23.9869,16528,370
2.55777,448.70121,-612,32700,23.9869,16528,370
2.0716,451.25837,-611,32701,23.9869,16528,370
1.13045,453.48965,-610,32702,23.8376,16528,370
1.96287,468.52466,-609,32703,23.9869,16536,295
1.91864,499.09207,-608,32704,23.9869,16536,295
0.828641,508.20246,-607,32705,23.7878,16536,295
0.577742,498.72153,-606,32706,23.9869,16536,295
0.632885,462.77868,-605,32707,23.9869,16536,295
1.09619,366.57867,-604,32708,23.9869,16536,295
0.338291,270.12629,-603,32709,23.9869,16536,295
0.195313,213.83656,-602,32710,23.9869,16536,295
1.17594,199.58851,-601,32711,24.0367,16536,295
1.27702,206.38282,-600,32712,23.7878,16536,295
0.921287,218.61972,-599,32713,23.6385,16530,292
1.40163,232.25445,-598,32714,23.8376,16530,292
1.33185,249.23102,-597,32715,23.9869,16530,292
1.60168,270.96744,-596,32716,23.7878,16530,292
1.64863,292.73291,-595,32717,23.7878,16530,292
1.80334,300.62253,-594,32718,23.9869,16530,292
1.97739,292.0676,-593,32719,23.8376,16530,292
1.11773,280.80908,-592,32720,23.9869,16530,292
1.77938,262.34697,-591,32721,23.7878,16530,292
2.70985,235.59567,-590,32722,23.8376,16530,292
2.20323,200.9597,-589,32723,23.9371,16530,292
3.65527,155.26374,-588,32724,23.8376,16530,292
3.233,86.373696,-587,32725,23.9371,16530,292
2.99568,43.507065,-586,32726,24.0367,16530,292
3.12042,114.68706,-585,32727,24.1861,16530,292
3.02734,160.02636,-584,32728,23.9371,16530,292
2.38609,144.62015,-583,32729,24.1861,16530,292
1.57769,141.89853,-582,32730,23.9869,16530,292
2.53718,192.82361,-581,32731,23.6385,16530,292
2.03444,220.83309,-580,32732,23.6385,16530,292
3.03364,245.73894,-579,32733,23.9869,16526,331
2.93131,317.02537,-578,32734,23.8376,16526,331
2.09449,347.42225,-577,32735,23.9869,16526,331
1.05631,312.74826,-576,32736,23.9869,16526,331
1.25061,283.21723,-575,32737,24.0367,16526,331
2.78277,264.05708,-574,32738,23.7878,16526,331
2.58559,284.87144,-573,32739,23.9869,16526,331
2.79815,293.99871,-572,32740,24.0367,16526,331
2.75176,283.97546,-571,32741,24.0367,16526,331
1.84257,284.99329,-570,32742,24.0367,16526,331
1.53789,258.51262,-569,32743,23.7878,16529,310
2.52777,202.79707,-568,32744,24.0367,16529,310
2.22262,173.45603,-567,32745,24.0367,16529,310
1.99897,222.86014,-566,32746,23.8376,16529,310
1.90617,298.34933,-565,32747,23.738,16529,310
3.56278,319.72009,-564,32748,23.9869,16529,310
2.8986,295.77015,-563,32749,23.9869,16529,310
3.6146,273.83606,-562,32750,24.0367,16529,310
2.33764,276.81731,-561,32751,23.7878,16529,310
2.10585,298.04964,-560,32752,24.0367,16529,310
1.79007,329.03042,-559,32753,23.9869,16529,273
2.83876,355.47892,-558,32754,23.8376,16529,273
2.3027,365.65772,-557,32755,24.1363,16529,273
2.88871,362.48699,-556,32756,24.0367,16529,273
1.66303,356.17802,-555,32757,23.8376,16529,273
1.4219,353.28273,-554,32758,23.9869,16529,273
2.79645,353.68682,-553,32759,23.8376,16529,273
1.24296,353.34422,-552,32760,23.9869,16529,273
1.78473,350.34667,-551,32761,23.738,16529,273
0.926449,342.9407,-550,32762,23.9371,16529,273
1.40163,329.51266,-549,32763,24.0367,16532,344
2.17929,312.51919,-548,32764,24.0367,16532,344
1.9798,292.81729,-547,32765,24.0367,16532,344
2.15066,270.71062,-546,32766,23.8376,16532,344
2.26091,246.82403,-545,32767,24.0367,16532,344
2.20323,222.88822,-544,32768,23.9869,16532,344
1.97739,199.0353,-543,32769,24.1363,16532,344
1.76052,176.92149,-542,32770,23.6385,16532,344
2.11037,164.16914,-541,32771,23.9371,16532,344
2.20539,162.25735,-540,32772,23.738,16532,344
1.57466,170.13151,-539,32773,24.3354,16538,345
1.61355,183.49945,-538,32774,23.9869,16538,345
1.33185,194.92917,-537,32775,24.0367,16538,345
1.70549,206.02912,-536,32776,23.8376,16538,345
1.68298,220.32031,-535,32777,23.7878,16538,345
1.60466,234.45783,-534,32778,23.738,16538,345
1.07865,248.92427,-533,32779,23.9869,16538,345
1.52856,261.58329,-532,32780,23.7878,16538,345
0.308816,269.76249,-531,32781,23.738,16538,345
1.09619,267.79667,-530,32782,23.8376,16538,345
0.85693,248.88463,-529,32783,24.0367,16537,292
1.25821,245.63244,-528,32784,23.9869,16537,292
1.9335,306.14933,-527,32785,23.6385,16537,292
1.66875,405.17673,-526,32786,23.9869,16537,292
1.05631,513.56739,-525,32787,24.0367,16537,292
2.28816,561.46349,-524,32788,23.7878,16537,292
2.23332,491.91449,-523,32789,24.1363,16537,292
3.42911,377.07883,-522,32790,23.8376,16537,292
2.31097,292.9705,-521,32791,24.0367,16537,292
2.81345,260.87208,-520,32792,23.6385,16537,292
1.27328,274.42864,-519,32793,24.0367,16548,336
2.33151,298.05626,-518,32794,24.1861,16548,336
2.40401,297.60517,-517,32795,23.9869,16548,336
2.21187,319.03164,-516,32796,23.7878,16548,336
1.92856,380.84224,-515,32797,23.8376,16548,336
1.26577,449.98101,-514,32798,23.7878,16548,336
1.73047,515.4394,-513,32799,24.0367,16548,336
1.92608,562.75719,-512,32800,24.1861,16548,336
1.89614,565.1514,-511,32801,24.0367,16548,336
1.90617,514.67732,-510,32802,24.1363,16548,336
1.73323,437.03983,-509,32803,24.1363,16547,328
1.67161,383.4988,-508,32804,23.7878,16547,328
1.69708,382.02778,-507,32805,23.8376,16547,328
1.68014,425.27545,-506,32806,24.0367,16547,328
1.69708,477.89879,-505,32807,23.9371,16547,328
1.72772,508.97503,-504,32808,23.7878,16547,328
1.31383,512.46637,-503,32809,23.9869,16547,328
1.83739,506.04904,-502,32810,23.9869,16547,328
0.941763,507.61824,-501,32811,23.7878,16547,328
2.02504,518.9307,-500,32812,23.8376,16547,328
1.14304,549.79517,-499,32813,23.7878,16556,285
2.34782,591.16782,-498,32814,23.9371,16556,285
2.47246,611.92461,-497,32815,23.9869,16556,285
0.921287,608.17832,-496,32816,23.7878,16556,285
0.981433,598.79725,-495,32817,23.9869,16556,285
1.22752,615.34049,-494,32818,24.0367,16556,285
1.01487,656.49247,-493,32819,23.7878,16556,285
1.45176,700.5059,-492,32820,24.0367,16556,285
1.39139,702.38984,-491,32821,23.9869,16556,285
1.54717,683.6578,-490,32822,23.9869,16556,285
0.840071,679.13223,-489,32823,23.9869,16549,312
1.64863,739.76597,-488,32824,23.8376,16549,312
0.878906,817.8312,-487,32825,23.8376,16549,312
1.19205,825.10555,-486,32826,23.7878,16549,312
1.0381,774.3549,-485,32827,24.0367,16549,312
1.68298,726.89495,-484,32828,24.1861,16549,312
1.27328,753.21227,-483,32829,23.9371,16549,312
1.52544,776.42513,-482,32830,24.0367,16549,312
2.42966,784.43575,-481,32831,24.0367,16549,312
3.20931,795.55418,-480,32832,24.1363,16549,312
2.43358,897.94373,-479,32833,23.8376,16543,351
1.94824,1098.15,-478,32834,23.738,16543,351
1.06082,1220.0123,-477,32835,23.7878,16543,351
1.77132,1178.0677,-476,32836,23.9869,16543,351
1.99897,1071.6471,-475,32837,23.8376,16543,351
3.09433,999.34153,-474,32838,24.1363,16543,351
2.71337,1025.529,-473,32839,24.0367,16543,351
4.07941,1073.9749,-472,32840,23.9869,16543,351
5.46352,1039.0606,-471,32841,23.9869,16543,351
5.39236,944.34728,-470,32842,23.9869,16543,351
5.89669,881.09579,-469,32843,23.8376,16535,293
6.51961,873.74959,-468,32844,24.1861,16535,293
6.90189,912.40634,-467,32845,23.8376,16535,293
6.96995,969.84926,-466,32846,23.8376,16535,293
8.01793,1010.8516,-465,32847,23.7878,16535,293
7.82409,1014.5633,-464,32848,24.1363,16535,293
6.91155,1021.0188,-463,32849,24.0367,16535,293
6.74677,1034.3326,-462,32850,24.1363,16535,293
5.10995,1044.7687,-461,32851,23.8376,16535,293
3.20634,1061.2965,-460,32852,24.1363,16535,293
3.18096,1079.2276,-459,32853,23.9869,16527,308
4.04302,1103.0112,-458,32854,24.0367,16527,308
3.40679,1148.4136,-457,32855,23.9371,16527,308
2.15951,1184.0442,-456,32856,23.9869,16527,308
2.32332,1225.249,-455,32857,23.9869,16527,308
1.86572,1265.282,-454,32858,23.8376,16527,308
1.77132,1292.7981,-453,32859,23.9371,16527,308
2.77763,1307.8905,-452,32860,23.7878,16527,308
3.53995,1320.8131,-451,32861,23.7878,16527,308
4.03357,1350.5353,-450,32862,23.7878,16527,308
3.17045,1429.3031,-449,32863,23.9869,16570,362
2.56336,1581.6057,-448,32864,23.9371,16570,362
2.7028,1829.5252,-447,32865,23.8376,16570,362
1.74966,2180.9681,-446,32866,23.9869,16570,362
5.19234,2528.9928,-445,32867,23.738,16570,362
10.555,2292.8348,-444,32868,23.7878,16570,362
12.7904,1543.0154,-443,32869,24.0367,16570,362
13.345,841.23719,-442,32870,24.0367,16570,362
12.0125,1440.7554,-441,32871,24.0367,16570,362
9.0299,2048.6792,-440,32872,24.0367,16570,362
5.93217,1962.1733,-439,32873,24.0367,16543,376
5.40384,1345.8244,-438,32874,23.7878,16543,376
5.42058,913.97931,-437,32875,23.8376,16543,376
4.2891,1177.5329,-436,32876,24.0367,16543,376
4.41402,1441.8497,-435,32877,23.7878,16543,376
4.1259,1441.1486,-434,32878,24.0367,16543,376
4.03711,1282.8629,-433,32879,24.0367,16543,376
3.05868,1134.0168,-432,32880,23.7878,16543,376
3.03835,1084.5125,-431,32881,23.6385,16543,376
3.32175,1116.7085,-430,32882,23.7878,16543,376
2.95239,1170.8127,-429,32883,24.0367,16542,260
2.50693,1193.1859,-428,32884,24.0367,16542,260
0.662337,1174.1481,-427,32885,24.0367,16542,260
0.640375,1123.4832,-426,32886,24.0367,16542,260
0.697405,1068.7329,-425,32887,24.0367,16542,260
0.655098,1035.2852,-424,32888,24.1363,16542,260
1.28817,1015.3449,-423,32889,23.7878,16542,260
1.50657,996.00544,-422,32890,23.738,16542,260
1.53789,979.86004,-421,32891,23.738,16542,260
1.80334,981.22621,-420,32892,24.0367,16542,260
1.88099,994.55928,-419,32893,23.9869,16539,285
1.55638,1007.1193,-418,32894,24.0367,16539,285
2.40203,1017.8688,-417,32895,24.1861,16539,285
2.0716,1014.2152,-416,32896,24.1861,16539,285
2.45115,1004.1461,-415,32897,24.0367,16539,285
4.57319,998.17708,-414,32898,23.8376,16539,285
3.39557,985.74193,-413,32899,23.9869,16539,285
3.10817,958.87903,-412,32900,23.9869,16539,285
3.80859,934.73156,-411,32901,24.0367,16539,285
3.94754,924.44721,-410,32902,23.9869,16539,285
4.75316,920.11988,-409,32903,23.7878,16542,334
4.6415,909.23274,-408,32904,23.9869,16542,334
4.37387,881.06932,-407,32905,23.8376,16542,334
4.24103,854.64436,-406,32906,23.9371,16542,334
3.986,842.80983,-405,32907,24.0367,16542,334
4.1547,844.27578,-404,32908,24.0367,16542,334
3.56679,849.57488,-403,32909,23.9869,16542,334
4.08409,844.06978,-402,32910,23.6385,16542,334
3.16442,809.37426,-401,32911,23.7878,16542,334
3.20038,764.37597,-400,32912,23.9371,16542,334
2.82529,739.05245,-399,32913,23.7878,16530,266
2.56336,731.46767,-398,32914,23.8376,16530,266
2.08079,720.57441,-397,32915,24.0367,16530,266
2.34985,695.10344,-396,32916,23.9869,16530,266
1.05631,662.07527,-395,32917,23.9869,16530,266
1.72495,632.35329,-394,32918,24.0367,16530,266
1.37415,611.00258,-393,32919,23.738,16530,266
1.98461,593.58992,-392,32920,24.0367,16530,266
1.40163,572.14762,-391,32921,24.0367,16530,266
1.37067,545.76147,-390,32922,23.738,16530,266
1.6165,517.27351,-389,32923,23.9869,16530,266
1.24296,486.97722,-388,32924,23.9869,16530,266
1.14304,455.66207,-387,32925,23.7878,16530,266
2.21187,423.72024,-386,32926,23.8376,16530,266
0.817051,394.53261,-385,32927,23.8376,16530,266
0.617632,373.37144,-384,32928,23.7878,16530,266
1.25821,361.57146,-383,32929,23.6385,16530,266
0.971667,357.37901,-382,32930,23.7878,16530,266
2.03912,356.70765,-381,32931,23.9869,16530,266
1.39139,359.8097,-380,32932,24.1861,16530,266
1.11773,366.98758,-379,32933,23.9869,16528,262
1.06977,375.94384,-378,32934,24.0367,16528,262
1.90617,382.85829,-377,32935,23.9371,16528,262
2.01324,391.30895,-376,32936,24.0367,16528,262
1.40163,403.7148,-375,32937,24.1363,16528,262
1.07865,418.80447,-374,32938,23.9869,16528,262
1.79539,433.43973,-373,32939,23.7878,16528,262
1.32467,445.26953,-372,32940,23.738,16528,262
1.54099,452.15531,-371,32941,24.0367,16528,262
2.54844,451.47168,-370,32942,23.9869,16528,262
1.31745,446.45893,-369,32943,23.8376,16533,313
2.73786,437.89241,-368,32944,23.9869,16533,313
2.55217,424.91152,-367,32945,23.9869,16533,313
2.3539,415.00203,-366,32946,23.7878,16533,313
2.4974,418.57661,-365,32947,23.9869,16533,313
2.18584,434.08509,-364,32948,24.0367,16533,313
2.13284,445.9232,-363,32949,24.0367,16533,313
1.7551,441.30169,-362,32950,23.9371,16533,313
1.83479,426.86454,-361,32951,23.7878,16533,313
1.94824,422.88902,-360,32952,23.8376,16533,313
1.85804,437.2092,-359,32953,23.9869,16542,294
2.67264,474.68475,-358,32954,23.6385,16542,294
2.20323,539.62793,-357,32955,23.9371,16542,294
2.14399,624.6328,-356,32956,24.0367,16542,294
2.80496,699.65419,-355,32957,23.9869,16542,294
2.73786,726.70417,-354,32958,23.9869,16542,294
3.0163,684.5491,-353,32959,23.9371,16542,294
3.25211,578.52837,-352,32960,24.0367,16542,294
2.89366,446.35258,-351,32961,23.9869,16542,294
2.71688,349.19569,-350,32962,23.7878,16542,294
2.52588,344.61697,-349,32963,23.9869,16546,274
2.44921,394.22522,-348,32964,23.9869,16546,274
2.41983,422.75628,-347,32965,23.738,16546,274
2.03444,402.44218,-346,32966,23.9869,16546,274
3.35034,356.02036,-345,32967,23.9869,16546,274
1.49385,339.34831,-344,32968,24.0367,16546,274
3.18545,387.81521,-343,32969,23.8376,16546,274
2.64575,473.75407,-342,32970,24.0367,16546,274
3.59476,553.20481,-341,32971,23.8376,16546,274
1.48103,598.70918,-340,32972,23.8376,16546,274
2.93944,599.4288,-339,32973,23.7878,16559,271
2.93944,563.15039,-338,32974,24.0367,16559,271
1.81651,504.90303,-337,32975,23.7878,16559,271
2.18584,436.99298,-336,32976,23.9869,16559,271
1.87592,369.69737,-335,32977,23.7878,16559,271
1.65152,312.59862,-334,32978,23.9869,16559,271
2.60945,272.79115,-333,32979,23.7878,16559,271
2.02033,247.92628,-332,32980,24.0367,16559,271
1.63993,230.88663,-331,32981,23.7878,16559,271
1.44518,219.38277,-330,32982,23.9869,16559,271
2.25668,213.65325,-329,32983,24.0367,16567,304
2.05311,216.79474,-328,32984,23.9371,16567,304
1.56859,227.8302,-327,32985,23.9371,16567,304
1.68863,242.61059,-326,32986,23.9869,16567,304
1.54099,256.49006,-325,32987,24.0367,16567,304
1.62239,265.72758,-324,32988,23.8376,16567,304
1.55638,266.97093,-323,32989,23.8376,16567,304
1.4118,258.53074,-322,32990,23.7878,16567,304
1.6341,243.38736,-321,32991,23.7878,16567,304
1.43857,224.08978,-320,32992,23.9371,16567,304
1.52856,202.6619,-319,32993,23.9869,16571,290
2.00136,181.51724,-318,32994,23.9869,16571,290
1.9918,162.24251,-317,32995,23.9371,16571,290
2.03444,146.44424,-316,32996,24.1363,16571,290
1.38796,136.41356,-315,32997,23.9869,16571,290
1.87592,135.81736,-314,32998,24.0367,16571,290
1.62826,141.62839,-313,32999,23.7878,16571,290
2.0785,150.29057,-312,33000,23.9869,16571,290
1.99897,159.44238,-311,33001,23.9869,16571,290
2.48016,167.16824,-310,33002,24.1363,16571,290
1.43525,172.68463,-309,33003,23.9371,16589,273
2.58005,176.14336,-308,33004,24.1363,16589,273
1.7551,176.70849,-307,33005,23.7878,16589,273
1.3029,172.66081,-306,33006,23.8376,16589,273
0.981433,166.15918,-305,33007,23.7878,16589,273
1.58673,161.65474,-304,33008,23.9869,16589,273
2.27352,158.15744,-303,33009,24.0367,16589,273
1.40163,155.49544,-302,33010,23.7878,16589,273
1.27328,152.15387,-301,33011,24.0367,16589,273
1.75781,148.20226,-300,33012,23.7878,16589,273
1.33185,147.31591,-299,33013,24.0367,16593,304
2.03912,151.81371,-298,33014,24.0367,16593,304
1.96772,159.80645,-297,33015,24.0367,16593,304
1.27328,168.557,-296,33016,24.0367,16593,304
2.43358,177.03196,-295,33017,23.9371,16593,304
1.27702,182.87498,-294,33018,24.0367,16593,304
1.5034,185.91966,-293,33019,23.9869,16593,304
1.19604,187.81738,-292,33020,24.0367,16593,304
0.811194,190.77012,-291,33021,23.9869,16593,304
1.62826,194.71837,-290,33022,23.7878,16593,304
1.73323,198.16152,-289,33023,24.0367,16590,310
1.33185,199.84446,-288,33024,23.9869,16590,310
1.80334,197.45732,-287,33025,23.7878,16590,310
2.11714,190.10099,-286,33026,24.0367,16590,310
2.18366,181.08097,-285,33027,24.0367,16590,310
2.46667,173.02553,-284,33028,23.8376,16590,310
2.76559,166.96296,-283,33029,24.0367,16590,310
2.26722,161.30902,-282,33030,23.7878,16590,310
2.75176,155.49884,-281,33031,23.8376,16590,310
1.80069,146.35416,-280,33032,23.9869,16590,310
1.8606,136.53492,-279,33033,24.0367,16586,279
2.36401,126.76671,-278,33034,23.9869,16586,279
2.34782,118.15202,-277,33035,23.9869,16586,279
2.31715,110.99414,-276,33036,24.1861,16586,279
2.57079,105.7837,-275,33037,24.1363,16586,279
2.47439,103.0374,-274,33038,24.0367,16586,279
2.88871,100.98853,-273,33039,24.1861,16586,279
3.30015,98.448099,-272,33040,23.9869,16586,279
2.41391,94.782547,-271,33041,23.8376,16586,279
2.74308,93.942524,-270,33042,24.0367,16586,279
3.13262,98.375798,-269,33043,24.0367,16580,273
1.83479,103.96643,-268,33044,23.7878,16580,273
3.33464,108.70771,-267,33045,23.7878,16580,273
2.45892,116.82971,-266,33046,23.8376,16580,273
2.66729,131.94943,-265,33047,24.1861,16580,273
2.30063,152.15637,-264,33048,23.9869,16580,273
3.1097,159.19995,-263,33049,24.1861,16580,273
3.24036,145.51078,-262,33050,24.0367,16580,273
3.18695,145.3616,-261,33051,23.9869,16580,273
2.86218,166.40736,-260,33052,23.9869,16580,273
2.57079,201.75619,-259,33053,23.7878,16577,306
2.72914,231.46524,-258,33054,23.7878,16577,306
2.94592,241.19651,-257,33055,23.7878,16577,306
3.19293,248.11649,-256,33056,24.1861,16577,306
3.31744,272.13812,-255,33057,23.7878,16577,306
4.70476,308.79579,-254,33058,23.8376,16577,306
3.97402,344.86317,-253,33059,23.7878,16577,306
2.78449,371.87927,-252,33060,24.1363,16577,306
3.22266,386.97356,-251,33061,23.9869,16577,306
2.63129,392.93436,-250,33062,23.7878,16577,306
3.14022,394.63861,-249,33063,23.7878,16570,278
3.64612,392.63796,-248,33064,24.0367,16570,278
2.80326,389.77273,-247,33065,23.9869,16570,278
2.22262,390.89897,-246,33066,24.0367,16570,278
2.3539,399.17214,-245,33067,23.9869,16570,278
2.63129,409.11929,-244,33068,23.7878,16570,278
2.40203,418.98364,-243,33069,23.7878,16570,278
2.39407,433.61812,-242,33070,24.0367,16570,278
2.87216,451.8783,-241,33071,23.6385,16570,278
2.9701,474.9212,-240,33072,23.7878,16570,278
3.71736,498.0259,-239,33073,24.0367,16568,277
2.79304,515.14629,-238,33074,24.1861,16568,277
2.23972,527.65214,-237,33075,23.9869,16568,277
3.17345,541.52157,-236,33076,24.1861,16568,277
2.79986,555.42471,-235,33077,23.9869,16568,277
2.40401,564.18383,-234,33078,23.9869,16568,277
2.72564,569.98524,-233,33079,24.0367,16568,277
2.35593,573.75621,-232,33080,24.1363,16568,277
2.65474,573.69324,-231,33081,24.0367,16568,277
1.71942,570.43765,-230,33082,23.9869,16568,277
1.74966,568.66294,-229,33083,23.8376,16561,309
2.18366,567.55919,-228,33084,24.0367,16561,309
1.69146,564.09921,-227,33085,24.0367,16561,309
2.65833,558.44149,-226,33086,23.7878,16561,309
1.97498,551.46085,-225,33087,23.8376,16561,309
2.17052,543.2395,-224,33088,23.9869,16561,309
2.65115,534.51657,-223,33089,24.1861,16561,309
2.01324,526.21771,-222,33090,23.9869,16561,309
2.52021,518.50137,-221,33091,23.9869,16561,309
1.5034,510.62365,-220,33092,23.9869,16561,309
1.07865,501.56988,-219,33093,24.0367,16562,299
1.91864,492.41811,-218,33094,23.9869,16562,299
1.66303,482.80639,-217,33095,24.0367,16562,299
1.4118,472.43834,-216,33096,23.7878,16562,299
1.28817,461.83497,-215,33097,23.9869,16562,299
1.27702,450.78246,-214,33098,24.0367,16562,299
0.690534,439.77022,-213,33099,23.7878,16562,299
0.750112,426.74856,-212,33100,23.9371,16562,299
1.01016,412.34054,-211,33101,24.1861,16562,299
1.52856,398.41302,-210,33102,24.0367,16562,299
1.46484,384.4861,-209,33103,23.9869,16572,267
0.941763,371.97036,-208,33104,23.9869,16572,267
1.61945,361.55345,-207,33105,23.7878,16572,267
1.73047,353.26252,-206,33106,23.9869,16572,267
0.601994,348.36091,-205,33107,23.9869,16572,267
0.497951,345.14618,-204,33108,23.9371,16572,267
0.497951,341.94015,-203,33109,23.9371,16572,267
0.690534,337.86692,-202,33110,23.7878,16572,267
1.41854,332.6788,-201,33111,23.6385,16572,267
0.323889,325.20844,-200,33112,23.9371,16572,267
1.01016,314.12195,-199,33113,23.8376,16575,276
1.13045,304.31666,-198,33114,24.0367,16575,276
1.1596,297.14534,-197,33115,23.9869,16575,276
1.89362,290.14668,-196,33116,24.0367,16575,276
1.70829,285.13655,-195,33117,23.8376,16575,276
1.11773,283.61802,-194,33118,23.9869,16575,276
1.22752,284.55902,-193,33119,23.9869,16575,276
1.90617,287.41817,-192,33120,23.8376,16575,276
1.38796,292.75212,-191,33121,23.9869,16575,276
1.07865,296.34451,-190,33122,23.8376,16575,276
0.981433,297.36644,-189,33123,24.0367,16575,276
1.54717,298.67522,-188,33124,24.1363,16575,276
1.54408,300.05995,-187,33125,23.9869,16575,276
1.16371,300.78249,-186,33126,23.8376,16575,276
1.09183,301.374,-185,33127,24.0367,16575,276
1.23912,308.98477,-184,33128,24.1363,16575,276
1.67446,315.08469,-183,33129,24.0367,16575,276
1.40163,305.28897,-182,33130,24.1363,16575,276
1.46484,294.3994,-181,33131,23.7878,16575,276
1.36019,296.12985,-180,33132,24.1861,16575,276
1.90116,310.35471,-179,33133,23.9869,16588,304
1.37415,322.77304,-178,33134,23.9371,16588,304
1.01956,326.82547,-177,33135,24.0367,16588,304
1.86572,323.92424,-176,33136,24.0367,16588,304
1.49704,321.6826,-175,33137,23.9869,16588,304
2.0156,323.81745,-174,33138,24.1861,16588,304
2.35997,327.19965,-173,33139,23.9869,16588,304
1.65152,329.3614,-172,33140,23.9869,16588,304
1.24296,330.80564,-171,33141,24.0367,16588,304
1.67161,328.96892,-170,33142,23.9869,16588,304
1.77401,320.65715,-169,33143,24.1363,16609,261
2.83876,308.92562,-168,33144,23.7878,16609,261
1.99659,300.86234,-167,33145,23.7878,16609,261
1.9335,298.98618,-166,33146,24.0367,16609,261
1.67161,298.96879,-165,33147,23.8376,16609,261
2.95239,295.33004,-164,33148,24.0367,16609,261
2.69397,288.61279,-163,33149,23.8376,16609,261
2.52021,280.87222,-162,33150,23.8376,16609,261
2.03444,273.20768,-161,33151,23.9371,16609,261
2.20323,266.52559,-160,33152,23.9869,16609,261
2.95239,261.61719,-159,33153,24.1861,16629,275
2.27981,257.36362,-158,33154,24.1861,16629,275
2.23972,251.35513,-157,33155,24.1363,16629,275
2.37608,242.83148,-156,33156,24.0367,16629,275
3.62908,232.79932,-155,33157,23.9869,16629,275
3.27112,223.20492,-154,33158,23.7878,16629,275
2.75349,214.29919,-153,33159,23.8376,16629,275
3.19442,206.60637,-152,33160,24.0367,16629,275
2.45892,199.30497,-151,33161,23.8376,16629,275
2.62403,191.80975,-150,33162,23.8376,16629,275
3.03992,184.42211,-149,33163,23.9869,16650,302
2.68333,177.90826,-148,33164,23.7878,16650,302
2.15951,172.8354,-147,33165,24.0367,16650,302
2.70985,167.7867,-146,33166,23.7878,16650,302
2.75868,163.05843,-145,33167,23.7878,16650,302
2.68865,160.52409,-144,33168,24.0367,16650,302
3.63433,159.62177,-143,33169,24.0367,16650,302
3.37586,159.32514,-142,33170,24.1363,16650,302
3.20485,159.91272,-141,33171,23.8376,16650,302
3.18695,161.94388,-140,33172,23.9869,16650,302
3.77716,165.51533,-139,33173,24.1363,16656,307
3.71992,168.99968,-138,33174,23.8376,16656,307
3.7442,172.17895,-137,33175,23.8376,16656,307
2.84882,176.18925,-136,33176,23.9371,16656,307
2.03444,180.10423,-135,33177,23.8376,16656,307
2.3539,182.23045,-134,33178,23.9869,16656,307
2.40203,184.71098,-133,33179,23.9371,16656,307
2.65833,188.47945,-132,33180,24.0367,16656,307
2.56336,190.41224,-131,33181,24.0367,16656,307
2.90681,192.57701,-130,33182,24.1363,16656,307
3.15083,198.66882,-129,33183,24.0367,16642,292
2.25668,202.91428,-128,33184,23.9869,16642,292
2.10585,201.63067,-127,33185,23.7878,16642,292
2.33968,200.21917,-126,33186,23.8376,16642,292
1.9942,203.83754,-125,33187,24.1861,16642,292
2.57635,209.68699,-124,33188,24.1861,16642,292
2.8354,212.41392,-123,33189,23.8376,16642,292
2.60213,212.37716,-122,33190,24.0367,16642,292
2.85884,213.11764,-121,33191,23.8376,16642,292
2.46667,216.66053,-120,33192,23.9869,16642,292
3.24771,221.75677,-119,33193,24.0367,16628,296
3.15537,226.74271,-118,33194,24.0367,16628,296
3.13414,219.53788,-117,33195,23.9371,16628,296
2.48784,212.7424,-116,33196,24.1861,16628,296
3.22561,231.93167,-115,33197,24.1861,16628,296
2.27981,254.8789,-114,33198,23.8376,16628,296
2.52021,257.29706,-113,33199,23.6385,16628,296
2.66907,245.12755,-112,33200,24.0367,16628,296
1.958,237.08286,-111,33201,24.0367,16628,296
2.47246,247.03295,-110,33202,23.8376,16628,296
2.53718,263.09936,-109,33203,24.1363,16607,297
1.95556,266.13103,-108,33204,24.0367,16607,297
2.76386,259.11548,-107,33205,24.0367,16607,297
1.88099,252.03514,-106,33206,24.0367,16607,297
1.76863,249.10543,-105,33207,23.9869,16607,297
1.34255,255.52533,-104,33208,24.0367,16607,297
2.39606,274.64914,-103,33209,24.0367,16607,297
2.7028,287.86646,-102,33210,24.0367,16607,297
2.0716,277.62691,-101,33211,24.0367,16607,297
2.46473,256.34635,-100,33212,24.0367,16607,297
1.31745,242.9582,-99,33213,24.1861,16596,286
1.9798,242.65014,-98,33214,23.8376,16596,286
1.62239,247.89126,-97,33215,24.1861,16596,286
1.71108,245.42284,-96,33216,23.9869,16596,286
2.13508,230.25703,-95,33217,23.9869,16596,286
1.76323,212.15395,-94,33218,23.9869,16596,286
2.41983,203.4911,-93,33219,24.0367,16596,286
2.12613,203.25546,-92,33220,23.9869,16596,286
0.488281,197.94227,-91,33221,24.0367,16596,286
1.1472,184.56147,-90,33222,24.0367,16596,286
2.00136,176.54111,-89,33223,23.9869,16588,269
1.25061,172.72552,-88,33224,24.0367,16588,269
0.76272,161.31563,-87,33225,24.0367,16588,269
0.525895,138.41105,-86,33226,23.9869,16588,269
0.632885,123.35771,-85,33227,23.8376,16588,269
1.38452,122.20555,-84,33228,23.7878,16588,269
1.48103,118.0743,-83,33229,23.9371,16588,269
1.07865,103.17787,-82,33230,24.0367,16588,269
1.52856,87.377875,-81,33231,24.0367,16588,269
0.817051,78.884439,-80,33232,23.9869,16588,269
0.981433,75.249986,-79,33233,24.0367,16592,310
1.36719,73.816615,-78,33234,24.0367,16592,310
1.64863,74.884242,-77,33235,23.7878,16592,310
1.07422,81.90163,-76,33236,23.6385,16592,310
0.76272,94.406137,-75,33237,24.0367,16592,310
1.57466,106.47792,-74,33238,23.9869,16592,310
1.28817,109.28477,-73,33239,23.9869,16592,310
1.958,106.23751,-72,33240,24.0367,16592,310
1.39481,108.64573,-71,33241,23.8376,16592,310
0.569429,118.94003,-70,33242,23.8376,16592,310
1.10916,130.71827,-69,33243,24.0367,16593,281
0.704209,141.67784,-68,33244,23.9869,16593,281
1.45176,151.70963,-67,33245,24.0367,16593,281
0.971667,148.37299,-66,33246,24.0367,16593,281
1.42525,139.10366,-65,33247,23.9371,16593,281
0.655098,140.44491,-64,33248,24.0367,16593,281
1.71108,153.45695,-63,33249,23.8376,16593,281
2.21187,166.09688,-62,33250,23.8376,16593,281
1.32827,172.664,-61,33251,24.0367,16593,281
1.01956,178.74921,-60,33252,23.9371,16593,281
1.26953,193.27991,-59,33253,23.9869,16612,276
2.05543,220.23091,-58,33254,23.7878,16612,276
2.19672,218.04444,-57,33255,23.8376,16612,276
0.941763,193.94622,-56,33256,24.0367,16612,276
1.44518,184.88124,-55,33257,23.6385,16612,276
1.48103,200.50211,-54,33258,23.9869,16612,276
1.98701,222.15623,-53,33259,24.0367,16612,276
0.750112,232.81683,-52,33260,24.0367,16612,276
2.00612,235.61234,-51,33261,24.0367,16612,276
1.3102,255.48692,-50,33262,24.1363,16612,276
1.88606,288.8391,-49,33263,23.7878,16619,317
2.11714,273.54451,-48,33264,23.7878,16619,317
1.92112,236.93499,-47,33265,23.8376,16619,317
1.83739,222.49842,-46,33266,24.0367,16619,317
1.46484,235.69249,-45,33267,24.1861,16619,317
1.64283,249.19105,-44,33268,23.7878,16619,317
2.04845,263.07537,-43,33269,23.7878,16619,317
3.12805,302.43988,-42,33270,23.9869,16619,317
2.12613,363.86435,-41,33271,24.0367,16619,317
2.90517,438.32431,-40,33272,24.0367,16619,317
2.87216,526.31013,-39,33273,23.8376,16614,296
3.88299,629.0473,-38,33274,24.0367,16614,296
3.42911,757.00698,-37,33275,24.0367,16614,296
4.44524,864.34115,-36,33276,23.7878,16614,296
3.14022,948.69757,-35,33277,24.0367,16614,296
3.56412,1011.5065,-34,33278,23.9869,16614,296
3.24183,1063.3353,-33,33279,23.9869,16614,296
2.95077,1112.0667,-32,33280,23.8376,16614,296
3.80358,1151.7667,-31,33281,23.8376,16614,296
3.53995,1175.0128,-30,33282,24.1363,16614,296
3.916,1184.0871,-29,33283,23.9869,16581,270
4.08292,1174.6497,-28,33284,23.9371,16581,270
4.2444,1154.9497,-27,33285,23.8376,16581,270
3.68774,1142.1589,-26,33286,24.0367,16581,270
3.2108,1164.052,-25,33287,23.9869,16581,270
2.29648,1221.4812,-24,33288,23.9869,16581,270
1.43857,1296.7193,-23,33289,23.9869,16581,270
1.19604,1379.5097,-22,33290,23.9869,16581,270
1.99897,1463.8346,-21,33291,24.0367,16581,270
1.74966,1550.8912,-20,33292,23.9869,16581,270
1.12623,1647.6178,-19,33293,24.1363,16559,284
1.66016,1756.9563,-18,33294,23.7878,16559,284
3.054,1869.3073,-17,33295,23.9869,16559,284
2.30684,1982.5795,-16,33296,24.0367,16559,284
2.87382,2104.2828,-15,33297,23.9371,16559,284
4.43342,2237.3861,-14,33298,24.0367,16559,284
3.66439,2364.886,-13,33299,24.1861,16559,284
2.97972,2471.4004,-12,33300,24.2856,16559,284
2.19672,2548.5048,-11,33301,23.8376,16559,284
2.47246,2597.5933,-10,33302,23.9869,16559,284
1.53789,2631.6296,-9,33303,24.0367,16557,307
0.946812,2675.9775,-8,33304,23.9371,16557,307
1.64863,2745.2353,-7,33305,23.9371,16557,307
2.21402,2886.2405,-6,33306,24.0367,16557,307
3.20038,3264.2984,-5,33307,23.9869,16557,307
1.96772,3475.9507,-4,33308,24.0367,16557,307
5.52945,3139.4616,-3,33309,23.8376,16557,307
8.41319,2212.9,-2,33310,23.9371,16557,307
9.98484,967.02615,-1,33311,23.9869,16557,307
10.1656,1288.694,0,33312,23.9869,16557,307
8.55538,2513.0909,1,33313,24.0367,16548,285
5.33189,3131.3758,2,33314,23.9869,16548,285
5.12765,2985.769,3,33315,24.0367,16548,285
6.53422,2257.069,4,33316,24.0367,16548,285
8.43809,1247.9181,5,33317,23.9869,16548,285
8.41489,430.60714,6,33318,23.9869,16548,285
7.75737,991.55727,7,33319,24.0367,16548,285
6.43198,1713.309,8,33320,23.7878,16548,285
4.58673,2225.9178,9,33321,24.1363,16548,285
2.95239,2511.4082,10,33322,24.0367,16548,285
1.33543,2561.3628,11,33323,23.9869,16552,285
2.79645,2371.0176,12,33324,24.0367,16552,285
3.62645,1971.7165,13,33325,23.9371,16552,285
4.32894,1440.7535,14,33326,23.9869,16552,285
4.92753,915.70435,15,33327,24.0367,16552,285
3.54265,615.60407,16,33328,24.1861,16552,285
3.77211,607.43457,17,33329,24.0367,16552,285
3.79354,630.09671,18,33330,23.8376,16552,285
3.61592,574.53199,19,33331,24.1861,16552,285
4.24103,486.66526,20,33332,24.0367,16552,285
3.15839,450.56948,21,33333,24.2856,16552,271
3.62645,501.25033,22,33334,24.1861,16552,271
3.73144,588.19331,23,33335,23.9869,16552,271
2.8705,643.4341,24,33336,24.1861,16552,271
2.82529,634.98186,25,33337,24.0367,16552,271
2.51263,563.44017,26,33338,23.8376,16552,271
2.57079,457.14877,27,33339,24.0367,16552,271
2.48784,364.98446,28,33340,24.0367,16552,271
1.77401,325.62413,29,33341,23.8376,16552,271
2.38409,321.92846,30,33342,23.7878,16552,271
2.0156,311.34762,31,33343,23.8376,16566,293
1.4219,289.46364,32,33344,23.8376,16566,293
2.24609,283.82461,33,33345,24.0367,16566,293
2.05078,311.93797,34,33346,23.9869,16566,293
1.77132,358.35923,35,33347,24.1861,16566,293
1.90116,393.18507,36,33348,24.0367,16566,293
2.77075,395.91095,37,33349,23.9371,16566,293
2.62221,366.26076,38,33350,24.0367,16566,293
2.02975,327.99075,39,33351,23.8376,16566,293
2.45115,294.00135,40,33352,23.9869,16566,293
2.05078,259.29631,41,33353,24.0367,16570,322
1.56555,233.04454,42,33354,23.738,16570,322
2.02269,232.58963,43,33355,24.0367,16570,322
1.19205,252.13817,44,33356,24.0367,16570,322
1.99897,259.34886,45,33357,23.7878,16570,322
2.67264,246.07383,46,33358,24.0367,16570,322
2.62221,229.77077,47,33359,23.8376,16570,322
2.84547,219.10349,48,33360,23.9869,16570,322
3.50204,219.99831,49,33361,23.9869,16570,322
2.51832,242.50984,50,33362,24.0367,16570,322
2.64575,259.62496,51,33363,24.0367,16561,291
2.43358,259.73766,52,33364,24.0367,16561,291
2.98451,250.98232,53,33365,23.7878,16561,291
3.36028,248.84221,54,33366,24.0367,16561,291
2.17052,259.83133,55,33367,23.9869,16561,291
3.70708,275.51894,56,33368,24.0367,16561,291
3.40259,289.86921,57,33369,23.7878,16561,291
4.00033,308.13444,58,33370,24.1861,16561,291
3.75945,320.66347,59,33371,23.8376,16561,291
4.06302,323.63133,60,33372,23.9869,16561,291
3.43883,329.28511,61,33373,23.9869,16568,268
4.19467,321.60116,62,33374,24.0367,16568,268
3.92937,298.59179,63,33375,23.9869,16568,268
3.8111,265.40467,64,33376,24.1861,16568,268
4.07474,262.18103,65,33377,23.7878,16568,268
5.04042,308.07938,66,33378,24.1363,16568,268
3.72376,340.91548,67,33379,23.9869,16568,268
3.24477,327.71669,68,33380,24.1861,16568,268
4.27239,319.85546,69,33381,24.0367,16568,268
3.44576,333.37961,70,33382,24.1861,16568,268
3.28712,362.21084,71,33383,23.8376,16590,307
3.83977,392.49438,72,33384,23.9371,16590,307
2.4974,409.3762,73,33385,24.0367,16590,307
2.17929,402.12082,74,33386,23.7878,16590,307
2.25457,403.07382,75,33387,24.0367,16590,307
3.46232,440.9548,76,33388,23.7878,16590,307
2.33764,488.51298,77,33389,23.6385,16590,307
2.47246,459.90576,78,33390,24.1861,16590,307
3.22857,461.95479,79,33391,23.7878,16590,307
3.02892,488.95152,80,33392,23.9869,16590,307
3.90747,509.30404,81,33393,23.8376,16662,288
3.53995,438.65068,82,33394,23.9371,16662,288
2.85384,347.15041,83,33395,24.0367,16662,288
3.19442,364.57126,84,33396,24.1363,16662,288
3.67219,431.48418,85,33397,24.0367,16662,288
3.95598,570.32575,86,33398,24.1363,16662,288
2.5819,863.73367,87,33399,23.8376,16662,288
3.53456,1161.2789,88,33400,23.9869,16662,288
4.4205,1263.9985,89,33401,23.7878,16662,288
4.39887,1149.3558,90,33402,24.1861,16662,288
6.2416,887.84085,91,33403,24.0367,17115,280
4.42265,663.13776,92,33404,23.9869,17115,280
2.93131,576.52076,93,33405,24.0367,17115,280
2.87382,574.34251,94,33406,23.8376,17115,280
3.16894,614.33865,95,33407,24.1363,17115,280
3.71992,665.86228,96,33408,24.0367,17115,280
13.4911,523.32033,97,33409,23.9371,17115,280
17.7278,1827.1373,98,33410,24.2856,17115,280
13.4454,3921.8593,99,33411,23.9869,17115,280
8.72645,5654.4839,100,33412,23.8376,17115,280
