Linear acceleration,Rotational velocity,Time values,Absolute time values,Temperature,Ambient light,Reflected light
1.53168,2.9398424,-2000,51618,24.883,17185,325
2.54094,3.0223189,-1999,51619,24.9328,17185,325
1.27702,3.197217,-1998,51620,24.9328,17185,325
1.69146,3.3408038,-1997,51621,24.883,17185,325
1.38796,3.185544,-1996,51622,24.7337,17185,325
2.25034,3.0809154,-1995,51623,24.883,17181,290
1.20399,3.2065248,-1994,51624,24.9328,17181,290
1.59273,3.3004165,-1993,51625,24.9328,17181,290
2.55777,3.4223256,-1992,51626,24.7337,17181,290
1.58973,3.3608154,-1991,51627,24.8332,17181,290
1.70829,3.3004165,-1990,51628,24.9328,17181,290
2.48784,3.2845762,-1989,51629,24.8332,17181,290
2.38009,2.9423757,-1988,51630,24.9328,17181,290
1.26953,2.8523734,-1987,51631,25.0324,17181,290
2.59295,3.0247831,-1986,51632,24.8332,17181,290
2.52021,3.1948858,-1985,51633,24.883,17180,259
2.4974,3.2042004,-1984,51634,24.8332,17180,259
1.73047,3.0419765,-1983,51635,25.2813,17180,259
2.14399,2.9499624,-1982,51636,24.9328,17180,259
1.23912,3.0346198,-1981,51637,24.883,17180,259
2.36401,3.3206715,-1980,51638,24.7337,17180,259
1.97256,3.2503728,-1979,51639,24.883,17180,259
1.69427,3.3408038,-1978,51640,24.8332,17180,259
1.28447,3.2434888,-1977,51641,24.8332,17180,259
2.22047,3.4223256,-1976,51642,24.7337,17180,259
3.43606,3.2273692,-1975,51643,24.7337,17179,322
1.37067,3.0809154,-1974,51644,24.9328,17179,322
2.45892,3.2042004,-1973,51645,24.8332,17179,322
1.57769,3.2800363,-1972,51646,24.6839,17179,322
1.97739,3.2936371,-1971,51647,24.7337,17179,322
1.93842,3.2134879,-1970,51648,24.7337,17179,322
2.0785,2.7863067,-1969,51649,24.7337,17179,322
1.63702,2.7350289,-1968,51650,24.9328,17179,322
1.17998,2.8261321,-1967,51651,25.0324,17179,322
2.0156,3.0223189,-1966,51652,24.883,17179,322
1.66875,3.1217558,-1965,51653,24.9328,17170,283
1.49385,3.0223189,-1964,51654,24.7337,17170,283
1.46484,3.1265255,-1963,51655,24.7337,17170,283
1.67446,3.1193682,-1962,51656,24.6839,17170,283
1.51917,3.1761748,-1961,51657,24.9328,17170,283
1.6165,3.3341065,-1960,51658,25.0324,17170,283
1.76323,3.4418633,-1959,51659,24.7337,17170,283
1.23912,3.4998221,-1958,51660,24.8332,17170,283
1.66303,3.185544,-1957,51661,24.6839,17170,283
1.98701,3.0517578,-1956,51662,24.7337,17170,283
1.28447,3.1336664,-1955,51663,24.8332,17181,273
1.52856,2.9423757,-1954,51664,24.9328,17181,273
1.81125,3.1948858,-1953,51665,24.883,17181,273
2.08537,3.2845762,-1952,51666,25.0324,17181,273
2.37809,3.1121945,-1951,51667,24.7337,17181,273
1.67446,3.0247831,-1950,51668,25.0324,17181,273
1.39139,2.9041448,-1949,51669,24.7337,17181,273
1.19205,2.7350289,-1948,51670,24.883,17181,273
2.34782,2.6910898,-1947,51671,24.6839,17181,273
1.67446,2.9423757,-1946,51672,24.8332,17181,273
1.65152,2.8628026,-1945,51673,24.9328,17181,311
1.63702,3.1289076,-1944,51674,24.883,17181,311
2.28607,3.1526298,-1943,51675,24.883,17181,311
1.80334,3.4004854,-1942,51676,24.7337,17181,311
1.32827,3.3608154,-1941,51677,24.7337,17181,311
1.8529,3.1526298,-1940,51678,24.9328,17181,311
1.36019,3.2526642,-1939,51679,24.7337,17181,311
1.37067,3.1526298,-1938,51680,24.9328,17181,311
2.32946,3.2250598,-1937,51681,24.883,17181,311
2.2819,3.1289076,-1936,51682,24.7337,17181,311
1.94333,3.1948858,-1935,51683,24.8332,17184,311
2.51643,3.3961005,-1934,51684,24.9328,17184,311
2.00136,3.2800363,-1933,51685,24.9328,17184,311
1.53168,2.937307,-1932,51686,24.7337,17184,311
1.83739,2.8523734,-1931,51687,24.8332,17184,311
2.30477,2.8523734,-1930,51688,24.7337,17184,311
1.23912,3.0223189,-1929,51689,24.883,17184,311
2.01087,3.0223189,-1928,51690,24.9328,17184,311
2.18584,3.0541982,-1927,51691,24.883,17184,311
0.534885,3.1478996,-1926,51692,24.883,17184,311
1.98701,3.3961005,-1925,51693,24.8332,17184,311
1.31745,3.2868438,-1924,51694,24.883,17184,311
1.73047,3.3408038,-1923,51695,24.9328,17184,311
2.44921,3.2250598,-1922,51696,24.7337,17184,311
1.81388,3.0517578,-1921,51697,24.7337,17184,311
1.68014,3.0517578,-1920,51698,24.6839,17184,311
1.47134,3.2042004,-1919,51699,24.9328,17184,311
2.7028,3.1074028,-1918,51700,24.6839,17184,311
1.42859,3.0247831,-1917,51701,24.8332,17184,311
2.04146,2.9423757,-1916,51702,24.883,17184,311
1.59273,2.7621359,-1915,51703,24.883,17173,294
1.19205,2.8628026,-1914,51704,25.0324,17173,294
1.76052,3.2891098,-1913,51705,24.883,17173,294
0.845728,3.1169788,-1912,51706,24.9328,17173,294
1.51917,2.9398424,-1911,51707,24.8332,17173,294
1.99897,3.1074028,-1910,51708,24.883,17173,294
1.12198,3.2868438,-1909,51709,24.8332,17173,294
2.0693,3.2434888,-1908,51710,24.7337,17173,294
2.02504,3.1360431,-1907,51711,24.883,17173,294
1.09183,3.231983,-1906,51712,24.883,17173,294
2.23118,3.1360431,-1905,51713,24.7337,17179,287
1.98701,3.1289076,-1904,51714,24.9328,17179,287
1.93596,3.2434888,-1903,51715,24.9328,17179,287
1.83479,3.3296342,-1902,51716,24.7337,17179,287
2.3539,3.1265255,-1901,51717,24.9328,17179,287
3.23005,3.0346198,-1900,51718,24.8332,17179,287
0.995902,3.2134879,-1899,51719,24.7337,17179,287
1.27328,3.1074028,-1898,51720,24.7337,17179,287
2.11714,3.1097996,-1897,51721,24.883,17179,287
2.08994,2.9499624,-1896,51722,24.8332,17179,287
2.43358,2.8731939,-1895,51723,24.9328,17181,296
2.50693,2.8523734,-1894,51724,24.7337,17181,296
2.06237,2.9398424,-1893,51725,24.8332,17181,296
1.66875,3.2042004,-1892,51726,24.8332,17181,296
2.41983,3.0247831,-1891,51727,24.8332,17181,296
2.71688,2.7702162,-1890,51728,24.7337,17181,296
2.15066,2.7702162,-1889,51729,24.9328,17181,296
2.16832,2.9550094,-1888,51730,24.7337,17181,296
2.31303,3.1502656,-1887,51731,24.7337,17181,296
1.10916,3.3541581,-1886,51732,25.0324,17181,296
1.78206,3.4548271,-1885,51733,25.0324,17174,280
1.81651,3.5231615,-1884,51734,24.7337,17174,280
1.80334,3.3519361,-1883,51735,24.883,17174,280
1.69427,3.1597117,-1882,51736,24.7337,17174,280
1.87846,2.9625637,-1881,51737,24.883,17174,280
1.79804,2.9499624,-1880,51738,24.8332,17174,280
1.11773,3.2042004,-1879,51739,24.9328,17174,280
1.39139,3.2042004,-1878,51740,24.8332,17174,280
1.88099,3.1145876,-1877,51741,24.7337,17174,280
1.61355,3.2065248,-1876,51742,24.8332,17174,280
0.878906,3.2042004,-1875,51743,25.0324,17178,281
1.34255,3.2158056,-1874,51744,24.9328,17178,281
2.40401,3.0321637,-1873,51745,24.8332,17178,281
2.915,3.0223189,-1872,51746,24.8332,17178,281
2.32332,3.1360431,-1871,51747,24.8332,17178,281
1.58673,3.0541982,-1870,51748,25.0324,17178,281
2.22905,3.3229145,-1869,51749,24.8332,17178,281
1.48103,3.3229145,-1868,51750,24.8332,17178,281
2.45698,3.1597117,-1867,51751,24.8332,17178,281
2.0739,3.185544,-1866,51752,25.0324,17178,281
1.54717,3.0833327,-1865,51753,24.8332,17179,320
1.09619,3.1265255,-1864,51754,24.9328,17179,320
1.14304,3.2981582,-1863,51755,24.9328,17179,320
1.93596,3.2042004,-1862,51756,24.883,17179,320
1.61945,3.0321637,-1861,51757,24.8332,17179,320
1.76323,2.9449068,-1860,51758,24.883,17179,320
1.22752,3.0419765,-1859,51759,25.0324,17179,320
2.0693,3.0419765,-1858,51760,25.0324,17179,320
1.31383,3.0247831,-1857,51761,24.8332,17179,320
1.78206,3.0223189,-1856,51762,24.883,17179,320
1.93596,2.937307,-1855,51763,25.0821,17179,311
1.45176,3.1121945,-1854,51764,25.1319,17179,311
1.90867,3.1360431,-1853,51765,24.883,17179,311
1.68863,2.9550094,-1852,51766,25.0324,17179,311
1.09183,3.0541982,-1851,51767,24.9328,17179,311
2.54282,3.2709377,-1850,51768,24.8332,17179,311
1.80069,3.0541982,-1849,51769,24.883,17179,311
1.99897,3.1360431,-1848,51770,25.0821,17179,311
2.13954,3.0541982,-1847,51771,24.883,17179,311
1.40163,3.2227487,-1846,51772,24.7337,17179,311
2.40203,3.2250598,-1845,51773,24.883,17174,264
1.53168,3.4026757,-1844,51774,24.9328,17174,264
1.46484,3.4720368,-1843,51775,25.1319,17174,264
1.99897,3.2042004,-1842,51776,24.8332,17174,264
1.93596,3.0346198,-1841,51777,24.9328,17174,264
2.47246,2.8523734,-1840,51778,24.9328,17174,264
1.98461,2.6799925,-1839,51779,24.7337,17174,264
1.80334,2.9398424,-1838,51780,25.0821,17174,264
1.34255,2.9398424,-1837,51781,24.9328,17174,264
1.84516,2.8809628,-1836,51782,24.6839,17174,264
1.85804,2.8497601,-1835,51783,24.8332,17178,296
2.41983,2.8628026,-1834,51784,24.8332,17178,296
0.921287,2.9826152,-1833,51785,24.7337,17178,296
2.67443,3.1265255,-1832,51786,24.6839,17178,296
1.60168,2.9575296,-1831,51787,24.9328,17178,296
1.4681,3.1526298,-1830,51788,24.883,17178,296
2.21832,3.5400391,-1829,51789,24.9328,17178,296
1.62826,3.5984871,-1828,51790,24.883,17178,296
3.20038,3.3229145,-1827,51791,25.0324,17178,296
2.22262,3.1714798,-1826,51792,24.8332,17178,296
1.96772,2.8835478,-1825,51793,24.9328,17183,332
1.6341,2.9143888,-1824,51794,24.7337,17183,332
2.64575,3.0541982,-1823,51795,24.8332,17183,332
1.25821,3.0247831,-1822,51796,24.6839,17183,332
2.73786,3.0321637,-1821,51797,25.0324,17183,332
1.93596,3.0247831,-1820,51798,24.7337,17183,332
1.3461,2.7729045,-1819,51799,24.883,17183,332
0.931581,2.8523734,-1818,51800,24.883,17183,332
2.04146,3.0321637,-1817,51801,24.7337,17183,332
1.21581,3.0444248,-1816,51802,24.6839,17183,332
1.97739,3.1145876,-1815,51803,24.5345,17177,264
2.04146,3.2134879,-1814,51804,24.9328,17177,264
2.48016,3.3071819,-1813,51805,24.9328,17177,264
2.58559,3.393906,-1812,51806,24.9328,17177,264
1.92856,3.2250598,-1811,51807,25.0324,17177,264
2.14177,3.2042004,-1810,51808,24.9328,17177,264
1.91864,3.2042004,-1809,51809,24.883,17177,264
2.46473,3.1360431,-1808,51810,24.7337,17177,264
2.25668,3.1526298,-1807,51811,24.883,17177,264
1.64863,3.0223189,-1806,51812,25.0324,17177,264
1.9335,3.1097996,-1805,51813,24.8332,17180,276
1.06082,3.1478996,-1804,51814,24.9328,17180,276
1.66303,3.1597117,-1803,51815,25.0324,17180,276
1.4219,3.0247831,-1802,51816,24.8332,17180,276
1.56555,3.1097996,-1801,51817,24.883,17180,276
2.54844,3.2845762,-1800,51818,24.8332,17180,276
1.9798,3.1289076,-1799,51819,24.8332,17180,276
2.05078,3.1265255,-1798,51820,24.6839,17180,276
1.93596,3.3184271,-1797,51821,24.8332,17180,276
1.36019,3.1360431,-1796,51822,24.9328,17180,276
2.63491,3.0541982,-1795,51823,24.7337,17176,307
1.89614,2.8601989,-1794,51824,24.8332,17176,307
1.53789,2.9650776,-1793,51825,24.883,17176,307
1.38452,3.1360431,-1792,51826,24.9328,17176,307
1.50022,3.1145876,-1791,51827,24.883,17176,307
1.69146,3.1097996,-1790,51828,24.6839,17176,307
1.68298,3.2065248,-1789,51829,24.9328,17176,307
1.60466,3.1145876,-1788,51830,24.9328,17176,307
1.36019,3.1948858,-1787,51831,24.6839,17176,307
2.70985,3.1169788,-1786,51832,24.7337,17176,307
1.66589,3.1145876,-1785,51833,24.9328,17180,321
1.48103,3.2042004,-1784,51834,24.9328,17180,321
1.59273,3.197217,-1783,51835,25.0324,17180,321
1.27328,3.0223189,-1782,51836,24.8332,17180,321
1.90867,2.8601989,-1781,51837,25.0324,17180,321
1.9918,2.9826152,-1780,51838,24.883,17180,321
2.12164,3.2526642,-1779,51839,25.0324,17180,321
1.95556,3.2434888,-1778,51840,24.9328,17180,321
1.51917,2.9575296,-1777,51841,25.0324,17180,321
1.40842,2.7702162,-1776,51842,24.883,17180,321
2.12164,3.0541982,-1775,51843,24.883,17174,282
1.89362,3.4891616,-1774,51844,24.9328,17174,282
1.68863,3.376298,-1773,51845,24.8332,17174,282
2.09222,3.2845762,-1772,51846,24.7337,17174,282
2.14399,3.0346198,-1771,51847,24.7337,17174,282
1.38452,2.7702162,-1770,51848,24.9328,17174,282
2.04146,2.9423757,-1769,51849,24.883,17174,282
2.00612,3.2042004,-1768,51850,24.8332,17174,282
1.57163,3.1265255,-1767,51851,24.8332,17174,282
2.50693,3.2065248,-1766,51852,24.8332,17174,282
1.43857,3.0247831,-1765,51853,24.6839,17175,264
2.17052,3.3674595,-1764,51854,24.8332,17175,264
1.77132,3.197217,-1763,51855,24.883,17175,264
2.23332,3.1145876,-1762,51856,24.7337,17175,264
1.51917,3.1948858,-1761,51857,24.7337,17175,264
1.48103,3.376298,-1760,51858,24.9328,17175,264
1.92608,3.2227487,-1759,51859,25.0821,17175,264
0.845728,3.0517578,-1758,51860,24.6839,17175,264
2.37005,3.0517578,-1757,51861,24.8332,17175,264
1.54099,3.185544,-1756,51862,24.883,17175,264
1.1596,3.0615079,-1755,51863,24.8332,17181,319
1.77132,3.1597117,-1754,51864,24.6839,17181,319
1.82437,3.1502656,-1753,51865,24.883,17181,319
2.9717,2.8835478,-1752,51866,24.9328,17181,319
2.0762,3.0321637,-1751,51867,24.9328,17181,319
2.20539,3.2042004,-1750,51868,24.8332,17181,319
1.34255,2.9398424,-1749,51869,24.9328,17181,319
1.15135,2.9347694,-1748,51870,24.8332,17181,319
1.95556,3.0223189,-1747,51871,24.883,17181,319
2.85884,2.9347694,-1746,51872,24.6839,17181,319
0.799351,3.2158056,-1745,51873,25.0324,17181,332
1.84257,3.1145876,-1744,51874,24.8332,17181,332
2.15066,3.2250598,-1743,51875,24.7337,17181,332
1.09619,3.2503728,-1742,51876,24.883,17181,332
2.13284,3.2868438,-1741,51877,24.7337,17181,332
1.5034,3.3004165,-1740,51878,24.883,17181,332
2.31303,3.2250598,-1739,51879,25.0324,17181,332
2.53342,3.3004165,-1738,51880,25.0324,17181,332
1.89865,3.2868438,-1737,51881,25.0324,17181,332
2.06237,3.2981582,-1736,51882,24.7337,17181,332
0.743728,3.1145876,-1735,51883,24.9328,17171,271
1.1472,2.8601989,-1734,51884,25.0324,17171,271
1.91864,2.9347694,-1733,51885,25.0324,17171,271
1.75781,2.937307,-1732,51886,24.8332,17171,271
1.58973,2.9449068,-1731,51887,24.883,17171,271
2.43358,3.2981582,-1730,51888,24.8332,17171,271
2.18366,3.1502656,-1729,51889,24.7337,17171,271
2.16832,2.9650776,-1728,51890,24.9328,17171,271
1.84257,3.0247831,-1727,51891,25.0324,17171,271
1.37415,3.1145876,-1726,51892,24.6839,17171,271
2.1573,3.0419765,-1725,51893,24.6839,17180,314
2.72214,3.0346198,-1724,51894,25.0324,17180,314
2.22905,3.2250598,-1723,51895,24.8332,17180,314
1.5034,3.231983,-1722,51896,24.883,17180,314
1.33185,3.1289076,-1721,51897,24.883,17180,314
1.80334,3.231983,-1720,51898,24.8332,17180,314
2.19889,3.2868438,-1719,51899,24.9328,17180,314
1.73323,3.197217,-1718,51900,24.7337,17180,314
0.905627,3.1121945,-1717,51901,24.5345,17180,314
1.93596,3.0247831,-1716,51902,24.7337,17180,314
1.46484,2.9449068,-1715,51903,24.883,17180,314
1.23912,2.9449068,-1714,51904,24.883,17180,314
2.93294,2.8523734,-1713,51905,24.6839,17180,314
2.04379,3.0321637,-1712,51906,24.8332,17180,314
1.6165,3.0346198,-1711,51907,24.8332,17180,314
2.72914,3.1169788,-1710,51908,24.883,17180,314
1.62826,3.1121945,-1709,51909,24.8332,17180,314
1.9942,3.2526642,-1708,51910,24.883,17180,314
1.77132,3.1217558,-1707,51911,24.7337,17180,314
1.98701,3.0833327,-1706,51912,24.883,17180,314
2.09677,3.1526298,-1705,51913,24.8332,17171,308
2.56336,3.2250598,-1704,51914,24.7337,17171,308
2.33151,3.2891098,-1703,51915,25.0324,17171,308
1.3029,3.2891098,-1702,51916,24.9328,17171,308
1.44518,3.2250598,-1701,51917,25.0324,17171,308
2.71512,2.9398424,-1700,51918,24.9328,17171,308
1.28817,2.9499624,-1699,51919,24.9328,17171,308
2.08079,2.9347694,-1698,51920,24.8332,17171,308
1.80334,3.0419765,-1697,51921,24.883,17171,308
1.88099,3.1360431,-1696,51922,24.8332,17171,308
1.59273,3.1169788,-1695,51923,24.9328,17182,290
2.06237,2.7729045,-1694,51924,24.8332,17182,290
1.37067,2.8705996,-1693,51925,24.9328,17182,290
1.41517,2.9550094,-1692,51926,24.5843,17182,290
2.21832,3.2065248,-1691,51927,24.5843,17182,290
2.30477,3.456983,-1690,51928,24.9328,17182,290
1.3637,3.5672947,-1689,51929,24.883,17182,290
1.62239,3.3608154,-1688,51930,24.883,17182,290
2.0156,3.2595288,-1687,51931,24.7337,17182,290
1.52231,3.1217558,-1686,51932,24.883,17182,290
1.63993,3.0833327,-1685,51933,24.7337,17173,282
1.76323,3.3206715,-1684,51934,25.1319,17173,282
1.74146,3.2065248,-1683,51935,24.9328,17173,282
1.95556,2.8523734,-1682,51936,24.883,17173,282
1.64283,2.5895024,-1681,51937,24.9328,17173,282
2.32332,2.8601989,-1680,51938,24.883,17173,282
2.20323,3.1097996,-1679,51939,24.9328,17173,282
1.27702,3.1145876,-1678,51940,25.0324,17173,282
1.68014,2.9575296,-1677,51941,24.9328,17173,282
2.01324,2.8497601,-1676,51942,24.883,17173,282
1.59273,3.0223189,-1675,51943,25.0324,17175,301
2.84547,3.0346198,-1674,51944,24.9328,17175,301
1.52856,3.2250598,-1673,51945,24.883,17175,301
1.84516,3.4418633,-1672,51946,25.0324,17175,301
1.98461,3.3851134,-1671,51947,24.8332,17175,301
1.43525,3.1691296,-1670,51948,25.0821,17175,301
1.88606,3.3341065,-1669,51949,24.883,17175,301
1.8529,3.3541581,-1668,51950,25.0324,17175,301
2.41391,3.3004165,-1667,51951,25.0324,17175,301
1.18402,3.3696713,-1666,51952,24.9328,17175,301
2.22905,3.2042004,-1665,51953,24.883,17181,318
1.12623,3.197217,-1664,51954,24.883,17181,318
1.98461,2.9575296,-1663,51955,24.8332,17181,318
1.88099,2.9220481,-1662,51956,24.9328,17181,318
2.00612,2.9143888,-1661,51957,24.9328,17181,318
2.55031,2.9575296,-1660,51958,25.0821,17181,318
1.63993,2.7131483,-1659,51959,24.883,17181,318
1.05179,2.7863067,-1658,51960,24.7337,17181,318
2.62221,2.8523734,-1657,51961,24.8332,17181,318
1.52856,3.1265255,-1656,51962,24.9328,17181,318
2.41983,3.3206715,-1655,51963,24.883,17181,290
2.16171,3.4026757,-1654,51964,25.0324,17181,290
1.63993,3.4634426,-1653,51965,24.8332,17181,290
2.30684,3.4048647,-1652,51966,24.8332,17181,290
2.11488,3.6150129,-1651,51967,24.8332,17181,290
1.69708,3.6600743,-1650,51968,24.8332,17181,290
1.57466,3.4998221,-1649,51969,24.6839,17181,290
1.9942,3.2065248,-1648,51970,24.7337,17181,290
1.89614,3.0247831,-1647,51971,24.9328,17181,290
0.828641,2.8523734,-1646,51972,24.8332,17181,290
1.5034,2.8705996,-1645,51973,24.7337,17176,308
2.21402,2.9650776,-1644,51974,24.7337,17176,308
1.96287,2.9398424,-1643,51975,24.8332,17176,308
2.09677,2.8628026,-1642,51976,24.7337,17176,308
1.14304,3.0615079,-1641,51977,25.0324,17176,308
1.09619,2.7863067,-1640,51978,24.9328,17176,308
1.47458,2.9499624,-1639,51979,25.0324,17176,308
1.4118,2.937307,-1638,51980,24.7337,17176,308
1.88858,2.9575296,-1637,51981,24.8332,17176,308
1.58673,2.9826152,-1636,51982,24.9328,17176,308
2.36199,3.2595288,-1635,51983,24.8332,17178,321
1.68014,3.439698,-1634,51984,25.0821,17178,321
2.00136,3.4634426,-1633,51985,25.0324,17178,321
2.80496,3.4548271,-1632,51986,24.7337,17178,321
1.44188,3.4223256,-1631,51987,25.0324,17178,321
1.43525,3.3519361,-1630,51988,24.883,17178,321
2.30684,3.4548271,-1629,51989,24.5843,17178,321
2.46667,3.2503728,-1628,51990,25.0324,17178,321
2.28816,3.0346198,-1627,51991,24.883,17178,321
2.03444,3.1265255,-1626,51992,25.0324,17178,321
1.97739,3.0346198,-1625,51993,24.7337,17178,276
1.83479,3.0419765,-1624,51994,24.883,17178,276
2.31715,3.1217558,-1623,51995,24.7337,17178,276
2.48784,3.2936371,-1622,51996,24.883,17178,276
1.88858,3.2891098,-1621,51997,24.883,17178,276
2.40995,3.1265255,-1620,51998,24.8332,17178,276
1.52231,2.9900998,-1619,51999,25.0324,17178,276
1.81125,3.2526642,-1618,52000,24.883,17178,276
1.86316,3.3608154,-1617,52001,24.3852,17178,276
1.56859,3.3541581,-1616,52002,24.883,17178,276
1.66303,3.4634426,-1615,52003,24.7337,17184,277
0.710948,3.4998221,-1614,52004,24.883,17184,277
2.06237,3.3408038,-1613,52005,24.8332,17184,277
1.7767,3.2526642,-1612,52006,24.8332,17184,277
2.26091,3.1289076,-1611,52007,24.7337,17184,277
1.57769,3.0247831,-1610,52008,24.8332,17184,277
2.09677,3.1074028,-1609,52009,24.8332,17184,277
1.38796,3.1145876,-1608,52010,24.8332,17184,277
1.42525,2.9220481,-1607,52011,25.0324,17184,277
2.13284,2.7459038,-1606,52012,25.0324,17184,277
1.31745,2.7540318,-1605,52013,24.883,17178,321
2.41391,3.0541982,-1604,52014,25.0324,17178,321
2.8986,3.282307,-1603,52015,24.8332,17178,321
0.946812,3.1145876,-1602,52016,24.9328,17178,321
0.995902,3.0541982,-1601,52017,24.9328,17178,321
1.49066,3.0736519,-1600,52018,24.8332,17178,321
1.42525,3.3541581,-1599,52019,24.8332,17178,321
1.20794,3.5672947,-1598,52020,24.6839,17178,321
1.92608,3.7782684,-1597,52021,24.7337,17178,321
1.88858,3.7206422,-1596,52022,24.9328,17178,321
1.81125,3.3341065,-1595,52023,24.7337,17177,305
2.76386,2.9801161,-1594,52024,24.9328,17177,305
2.03444,2.8912889,-1593,52025,24.7337,17177,305
0.921287,3.0223189,-1592,52026,24.883,17177,305
1.13045,3.2868438,-1591,52027,25.0324,17177,305
1.81125,3.1526298,-1590,52028,24.883,17177,305
2.14399,2.7213741,-1589,52029,24.8332,17177,305
1.92608,2.652046,-1588,52030,24.8332,17177,305
1.4118,2.8575928,-1587,52031,24.9328,17177,305
2.0693,2.8575928,-1586,52032,24.7337,17177,305
2.27981,2.9499624,-1585,52033,24.8332,17182,293
2.05543,2.8731939,-1584,52034,24.9328,17182,293
2.09677,2.9423757,-1583,52035,25.0324,17182,293
1.33185,3.1526298,-1582,52036,25.0324,17182,293
2.17929,3.185544,-1581,52037,24.8332,17182,293
2.59479,3.1761748,-1580,52038,24.9328,17182,293
2.31097,3.2342874,-1579,52039,24.7337,17182,293
1.75238,3.5168116,-1578,52040,25.0324,17182,293
1.21188,3.5168116,-1577,52041,24.6839,17182,293
1.89865,3.2891098,-1576,52042,24.8332,17182,293
1.64283,3.3519361,-1575,52043,24.883,17179,306
1.95556,3.3206715,-1574,52044,24.883,17179,306
2.00612,3.0247831,-1573,52045,24.883,17179,306
1.22752,2.7782731,-1572,52046,24.883,17179,306
1.54717,2.8835478,-1571,52047,25.0324,17179,306
3.12042,3.0541982,-1570,52048,25.0324,17179,306
1.17998,3.1289076,-1569,52049,24.883,17179,306
2.26722,3.1360431,-1568,52050,24.883,17179,306
1.74966,2.9041448,-1567,52051,24.883,17179,306
2.01324,2.6910898,-1566,52052,24.883,17179,306
2.71688,2.8523734,-1565,52053,24.9328,17170,299
0.799351,3.1145876,-1564,52054,24.8332,17170,299
1.80334,3.1526298,-1563,52055,24.9328,17170,299
2.71512,3.0833327,-1562,52056,24.9328,17170,299
2.19672,3.0809154,-1561,52057,25.0324,17170,299
1.98701,3.185544,-1560,52058,24.7337,17170,299
1.4219,3.4004854,-1559,52059,24.8332,17170,299
1.67446,3.6253033,-1558,52060,24.7337,17170,299
0.966748,3.5672947,-1557,52061,24.8332,17170,299
2.1771,3.1217558,-1556,52062,24.8332,17170,299
1.90617,2.7621359,-1555,52063,24.883,17177,286
1.92608,2.8601989,-1554,52064,25.0324,17177,286
1.00068,3.0321637,-1553,52065,24.8332,17177,286
1.46158,3.1097996,-1552,52066,24.8332,17177,286
1.83998,3.0247831,-1551,52067,24.9328,17177,286
2.14399,2.7702162,-1550,52068,24.883,17177,286
1.42525,3.0247831,-1549,52069,24.9328,17177,286
1.13045,3.0321637,-1548,52070,24.8332,17177,286
1.56555,3.0321637,-1547,52071,24.7337,17177,286
2.61493,3.2065248,-1546,52072,24.883,17177,286
2.19455,3.4223256,-1545,52073,24.7337,17183,289
1.47134,3.2754902,-1544,52074,24.6839,17183,289
2.44921,3.3341065,-1543,52075,24.7337,17183,289
2.28816,3.393906,-1542,52076,24.6839,17183,289
1.96529,3.1832043,-1541,52077,24.7337,17183,289
1.60466,2.9575296,-1540,52078,24.8332,17183,289
1.76323,3.2065248,-1539,52079,25.0324,17183,289
1.54408,3.5652055,-1538,52080,25.0324,17183,289
2.41983,3.2800363,-1537,52081,24.8332,17183,289
1.85804,2.9575296,-1536,52082,24.8332,17183,289
1.92112,2.977615,-1535,52083,24.883,17178,310
1.81388,3.0321637,-1534,52084,24.9328,17178,310
1.09183,3.0223189,-1533,52085,24.883,17178,310
1.3461,3.0247831,-1532,52086,24.9328,17178,310
2.77075,3.1121945,-1531,52087,24.883,17178,310
0.845728,3.1948858,-1530,52088,24.8332,17178,310
1.92608,3.0517578,-1529,52089,24.8332,17178,310
2.38009,3.1265255,-1528,52090,24.8332,17178,310
1.86827,3.0321637,-1527,52091,24.7337,17178,310
1.53789,3.0833327,-1526,52092,24.8332,17178,310
1.40163,3.3341065,-1525,52093,24.5843,17171,309
2.1771,3.4418633,-1524,52094,24.9328,17171,309
1.20794,3.3541581,-1523,52095,24.8332,17171,309
2.09677,3.2227487,-1522,52096,24.7337,17171,309
1.73323,3.1265255,-1521,52097,24.883,17171,309
1.41854,3.2227487,-1520,52098,25.0324,17171,309
1.71386,3.2065248,-1519,52099,24.8332,17171,309
1.20399,3.0321637,-1518,52100,24.883,17171,309
1.23912,3.0223189,-1517,52101,25.0324,17171,309
1.77938,3.0321637,-1516,52102,24.5843,17171,309
2.36602,2.9550094,-1515,52103,24.883,17174,269
2.18802,2.9423757,-1514,52104,25.0324,17174,269
2.16832,2.8523734,-1513,52105,24.9328,17174,269
1.32827,2.9575296,-1512,52106,24.883,17174,269
1.82437,2.8835478,-1511,52107,24.7337,17174,269
1.57163,3.1597117,-1510,52108,24.883,17174,269
1.70549,2.9575296,-1509,52109,24.6839,17174,269
2.03678,3.0517578,-1508,52110,25.0324,17174,269
1.21188,2.9826152,-1507,52111,25.0324,17174,269
1.81651,2.8912889,-1506,52112,24.6839,17174,269
2.27981,3.2526642,-1505,52113,24.8332,17174,269
1.68014,3.3541581,-1504,52114,24.883,17174,269
2.31509,3.1502656,-1503,52115,24.8332,17174,269
1.77132,3.1145876,-1502,52116,24.6839,17174,269
1.40163,2.9423757,-1501,52117,24.7337,17174,269
1.39481,2.9575296,-1500,52118,24.7337,17174,269
1.63993,3.0223189,-1499,52119,24.9328,17174,269
1.51603,2.9449068,-1498,52120,24.8332,17174,269
1.92856,3.0419765,-1497,52121,24.9328,17174,269
1.17998,2.8835478,-1496,52122,24.883,17174,269
1.60466,2.9950791,-1495,52123,24.883,17166,302
1.40163,3.0321637,-1494,52124,24.8332,17166,302
1.54717,3.1265255,-1493,52125,24.883,17166,302
1.57466,3.1145876,-1492,52126,24.883,17166,302
1.76052,2.8497601,-1491,52127,25.0821,17166,302
1.87592,2.8628026,-1490,52128,24.5843,17166,302
1.66303,3.1265255,-1489,52129,24.6839,17166,302
1.34255,3.3541581,-1488,52130,24.8332,17166,302
1.59273,3.2273692,-1487,52131,24.9328,17166,302
2.0156,3.2595288,-1486,52132,24.7337,17166,302
1.8529,3.2434888,-1485,52133,24.8332,17174,325
2.35593,3.0541982,-1484,52134,25.0324,17174,325
1.75238,2.9423757,-1483,52135,25.0324,17174,325
2.60945,3.1097996,-1482,52136,24.9328,17174,325
1.72772,3.1121945,-1481,52137,24.7337,17174,325
1.96044,3.0321637,-1480,52138,24.8332,17174,325
1.37415,3.0346198,-1479,52139,24.9328,17174,325
2.24822,2.977615,-1478,52140,24.883,17174,325
1.94824,2.9625637,-1477,52141,24.9328,17174,325
2.03444,2.937307,-1476,52142,24.9328,17174,325
1.74966,2.7702162,-1475,52143,24.9328,17169,263
1.1596,3.0346198,-1474,52144,24.8332,17169,263
1.08306,3.1502656,-1473,52145,24.883,17169,263
1.45176,3.2503728,-1472,52146,24.7337,17169,263
2.1771,3.3541581,-1471,52147,24.6839,17169,263
2.0693,3.2868438,-1470,52148,24.9328,17169,263
1.86827,3.3519361,-1469,52149,25.0821,17169,263
1.55638,3.0541982,-1468,52150,24.9328,17169,263
2.29024,2.9826152,-1467,52151,24.883,17169,263
1.57466,3.2227487,-1466,52152,24.883,17169,263
2.44726,3.2981582,-1465,52153,24.7337,17171,274
2.31097,3.3004165,-1464,52154,24.8332,17171,274
2.11488,3.282307,-1463,52155,24.9328,17171,274
1.81125,3.1289076,-1462,52156,24.7337,17171,274
1.96529,3.0419765,-1461,52157,24.9328,17171,274
1.45176,3.1145876,-1460,52158,24.7337,17171,274
2.93131,3.0223189,-1459,52159,24.9328,17171,274
1.60466,3.2042004,-1458,52160,24.8332,17171,274
1.1596,3.2250598,-1457,52161,24.7337,17171,274
2.17052,2.9801161,-1456,52162,24.9328,17171,274
2.5353,3.2065248,-1455,52163,25.0324,17178,323
2.23545,3.3851134,-1454,52164,24.5843,17178,323
2.14399,3.4698902,-1453,52165,24.7337,17178,323
1.90867,3.2042004,-1452,52166,24.6839,17178,323
1.96044,3.231983,-1451,52167,24.8332,17178,323
1.45176,3.0517578,-1450,52168,24.9328,17178,323
2.79474,3.0541982,-1449,52169,24.883,17178,323
1.45505,3.0346198,-1448,52170,24.7337,17178,323
1.74693,3.1336664,-1447,52171,24.7337,17178,323
2.22047,3.0321637,-1446,52172,24.6839,17178,323
1.67446,3.1121945,-1445,52173,24.8332,17173,322
1.28447,2.9347694,-1444,52174,24.7337,17173,322
1.83219,2.937307,-1443,52175,24.8332,17173,322
2.11488,2.9449068,-1442,52176,24.9328,17173,322
1.40163,2.9347694,-1441,52177,24.9328,17173,322
1.64863,3.197217,-1440,52178,24.883,17173,322
2.09449,3.1121945,-1439,52179,24.8332,17173,322
1.38452,3.0346198,-1438,52180,24.883,17173,322
2.28607,3.0346198,-1437,52181,24.9328,17173,322
2.08994,3.1502656,-1436,52182,24.883,17173,322
1.54099,3.2227487,-1435,52183,24.9328,17178,277
1.38796,3.3071819,-1434,52184,24.883,17178,277
1.49704,3.439698,-1433,52185,24.8332,17178,277
2.33151,3.1925529,-1432,52186,24.6839,17178,277
1.78473,2.9801161,-1431,52187,25.1319,17178,277
1.40163,3.1360431,-1430,52188,24.8332,17178,277
1.64863,3.197217,-1429,52189,25.0324,17178,277
2.34782,3.2800363,-1428,52190,24.883,17178,277
2.42966,3.2065248,-1427,52191,24.7337,17178,277
2.56708,3.0419765,-1426,52192,24.7337,17178,277
1.46158,2.8497601,-1425,52193,24.5345,17177,264
2.30684,2.677211,-1424,52194,24.883,17177,264
1.90617,2.8497601,-1423,52195,24.8332,17177,264
1.8529,3.1121945,-1422,52196,24.7337,17177,264
1.06082,3.2042004,-1421,52197,24.8332,17177,264
1.54717,3.0346198,-1420,52198,24.7337,17177,264
2.01324,3.1289076,-1419,52199,24.9328,17177,264
1.62826,3.3004165,-1418,52200,24.9328,17177,264
1.5807,3.2595288,-1417,52201,24.883,17177,264
2.29024,3.2250598,-1416,52202,24.6839,17177,264
2.18802,3.2065248,-1415,52203,24.883,17181,336
1.47781,3.2981582,-1414,52204,24.9328,17181,336
1.1596,3.1502656,-1413,52205,24.8332,17181,336
1.66303,2.8601989,-1412,52206,24.8332,17181,336
1.9918,3.1097996,-1411,52207,24.7337,17181,336
1.74966,3.197217,-1410,52208,24.7337,17181,336
1.66303,3.1217558,-1409,52209,24.6839,17181,336
2.60945,3.1121945,-1408,52210,24.6839,17181,336
1.59572,3.197217,-1407,52211,24.9328,17181,336
2.17052,3.376298,-1406,52212,24.7337,17181,336
1.47134,3.3696713,-1405,52213,24.7337,17173,297
1.57769,3.2042004,-1404,52214,24.9328,17173,297
1.28817,3.1289076,-1403,52215,24.9328,17173,297
1.70549,3.2503728,-1402,52216,24.883,17173,297
1.98701,3.0833327,-1401,52217,24.8332,17173,297
0.292969,3.0615079,-1400,52218,25.0324,17173,297
1.66589,2.9015782,-1399,52219,24.8332,17173,297
1.84516,3.0321637,-1398,52220,24.9328,17173,297
1.68863,3.1074028,-1397,52221,24.9328,17173,297
1.25061,3.2868438,-1396,52222,24.8332,17173,297
1.75238,3.197217,-1395,52223,24.9328,17176,268
1.53789,2.9398424,-1394,52224,24.8332,17176,268
1.8529,3.0541982,-1393,52225,25.0324,17176,268
2.58005,2.977615,-1392,52226,24.8332,17176,268
2.79815,2.8601989,-1391,52227,24.8332,17176,268
1.11773,3.1217558,-1390,52228,24.883,17176,268
2.03678,3.2042004,-1389,52229,24.8332,17176,268
1.87592,3.1145876,-1388,52230,24.9328,17176,268
1.69146,3.1145876,-1387,52231,24.8332,17176,268
1.60466,3.1948858,-1386,52232,24.883,17176,268
1.96287,3.3541581,-1385,52233,25.0324,17191,307
2.28607,3.2891098,-1384,52234,24.9328,17191,307
2.45115,3.185544,-1383,52235,25.1319,17191,307
2.34985,3.1502656,-1382,52236,24.8332,17191,307
2.56708,2.9575296,-1381,52237,24.9328,17191,307
1.80598,2.7702162,-1380,52238,24.7337,17191,307
2.08079,3.2868438,-1379,52239,24.9328,17191,307
1.88606,3.1289076,-1378,52240,24.9328,17191,307
1.89865,2.9398424,-1377,52241,24.8332,17191,307
2.21402,2.8523734,-1376,52242,24.7337,17191,307
1.36019,3.1097996,-1375,52243,24.883,17172,324
1.17998,3.2134879,-1374,52244,25.0324,17172,324
1.66303,3.2134879,-1373,52245,24.9328,17172,324
1.61355,3.2250598,-1372,52246,25.0324,17172,324
1.57466,3.1145876,-1371,52247,24.9328,17172,324
1.53168,2.8497601,-1370,52248,24.8332,17172,324
1.96529,2.7702162,-1369,52249,24.883,17172,324
1.88099,2.8705996,-1368,52250,24.7337,17172,324
1.58973,2.9423757,-1367,52251,25.0324,17172,324
1.15135,2.7863067,-1366,52252,24.883,17172,324
1.27702,3.1526298,-1365,52253,25.0821,17178,285
2.33764,3.2526642,-1364,52254,24.9328,17178,285
2.48976,3.2595288,-1363,52255,24.883,17178,285
1.958,3.3296342,-1362,52256,24.9328,17178,285
0.878906,3.0517578,-1361,52257,24.883,17178,285
2.0716,3.1265255,-1360,52258,24.7337,17178,285
1.70269,3.0517578,-1359,52259,24.7337,17178,285
2.11488,3.1502656,-1358,52260,24.8332,17178,285
1.23912,3.2227487,-1357,52261,24.5345,17178,285
2.15287,3.2868438,-1356,52262,24.8332,17178,285
1.83998,3.1121945,-1355,52263,24.9328,17174,287
2.2819,3.0247831,-1354,52264,24.7337,17174,287
1.85804,2.7648319,-1353,52265,24.9328,17174,287
1.54717,2.592378,-1352,52266,24.883,17174,287
1.52856,2.8523734,-1351,52267,24.7337,17174,287
2.18584,3.197217,-1350,52268,24.9328,17174,287
1.18402,3.3296342,-1349,52269,24.6839,17174,287
1.32467,3.185544,-1348,52270,24.8332,17174,287
2.74134,3.2595288,-1347,52271,24.5345,17174,287
1.63993,3.0736519,-1346,52272,24.883,17174,287
1.14304,3.1289076,-1345,52273,24.9328,17180,296
2.31921,3.1265255,-1344,52274,24.8332,17180,296
1.76323,3.3004165,-1343,52275,24.9328,17180,296
1.78473,3.2250598,-1342,52276,24.9328,17180,296
2.35187,3.1502656,-1341,52277,24.9328,17180,296
1.97498,3.1265255,-1340,52278,24.5843,17180,296
1.06977,3.1502656,-1339,52279,24.7337,17180,296
1.72772,3.1265255,-1338,52280,24.9328,17180,296
1.6341,3.2042004,-1337,52281,24.883,17180,296
1.39822,3.4223256,-1336,52282,25.2315,17180,296
1.3637,3.2936371,-1335,52283,24.8332,17181,290
2.27352,3.0247831,-1334,52284,24.7337,17181,290
1.67446,3.0247831,-1333,52285,24.883,17181,290
1.70549,3.1217558,-1332,52286,24.883,17181,290
1.74693,2.977615,-1331,52287,24.9328,17181,290
1.78206,2.9575296,-1330,52288,24.9328,17181,290
1.68014,3.1526298,-1329,52289,24.9328,17181,290
1.52231,3.4223256,-1328,52290,24.9328,17181,290
1.71108,3.1526298,-1327,52291,24.8332,17181,290
1.83739,3.0736519,-1326,52292,24.8332,17181,290
2.53342,2.977615,-1325,52293,24.8332,17175,294
1.59273,3.2250598,-1324,52294,24.883,17175,294
1.69146,3.2065248,-1323,52295,24.7337,17175,294
1.5807,3.1145876,-1322,52296,24.6839,17175,294
2.01324,3.3071819,-1321,52297,24.8332,17175,294
1.98701,3.378504,-1320,52298,24.883,17175,294
2.36401,3.197217,-1319,52299,24.8332,17175,294
1.36019,2.7863067,-1318,52300,24.7337,17175,294
1.91864,3.0346198,-1317,52301,24.6839,17175,294
2.10585,3.1121945,-1316,52302,24.9328,17175,294
1.77132,3.197217,-1315,52303,24.6839,17175,312
2.2944,3.2158056,-1314,52304,24.9328,17175,312
2.40995,3.2042004,-1313,52305,24.883,17175,312
1.3637,2.9449068,-1312,52306,24.6839,17175,312
1.87592,2.9398424,-1311,52307,24.7337,17175,312
1.81125,3.0346198,-1310,52308,25.0821,17175,312
1.62826,3.1289076,-1309,52309,24.7337,17175,312
2.29024,3.0809154,-1308,52310,24.9328,17175,312
2.42573,3.1193682,-1307,52311,24.6839,17175,312
1.94088,3.0149143,-1306,52312,25.0821,17175,312
2.06237,3.3206715,-1305,52313,24.883,17177,311
2.18584,3.1360431,-1304,52314,24.9328,17177,311
1.59572,3.1121945,-1303,52315,24.883,17177,311
1.88858,3.1502656,-1302,52316,24.7337,17177,311
2.54656,3.0321637,-1301,52317,24.9328,17177,311
2.15951,3.0247831,-1300,52318,24.8332,17177,311
1.17998,2.977615,-1299,52319,24.8332,17177,311
1.24296,2.977615,-1298,52320,24.7337,17177,311
2.5353,2.9575296,-1297,52321,24.883,17177,311
2.7028,3.0541982,-1296,52322,24.9328,17177,311
1.77132,3.0247831,-1295,52323,24.8332,17177,311
1.68863,3.0247831,-1294,52324,24.9328,17177,311
1.00068,2.9398424,-1293,52325,24.883,17177,311
2.55777,2.8835478,-1292,52326,25.0324,17177,311
2.64394,3.0615079,-1291,52327,24.9328,17177,311
1.68014,2.9826152,-1290,52328,24.883,17177,311
2.44921,2.9826152,-1289,52329,24.9328,17177,311
1.91864,3.0736519,-1288,52330,24.9328,17177,311
1.89865,3.2595288,-1287,52331,24.8332,17177,311
1.96772,3.3961005,-1286,52332,24.7337,17177,311
1.07865,3.2042004,-1285,52333,24.7337,17174,261
1.56555,2.9423757,-1284,52334,25.0324,17174,261
0.85693,2.7863067,-1283,52335,24.883,17174,261
2.56893,3.0419765,-1282,52336,24.883,17174,261
1.37067,2.9550094,-1281,52337,24.8332,17174,261
0.625305,3.197217,-1280,52338,24.6839,17174,261
1.66016,2.8523734,-1279,52339,24.9328,17174,261
1.66589,2.7836314,-1278,52340,24.7337,17174,261
3.08971,3.0905735,-1277,52341,24.7337,17174,261
1.89362,3.2595288,-1276,52342,24.8332,17174,261
1.58973,3.1502656,-1275,52343,24.8332,17178,284
2.13508,2.9550094,-1274,52344,24.8332,17178,284
1.80598,2.9801161,-1273,52345,24.9328,17178,284
2.77935,3.2526642,-1272,52346,24.8332,17178,284
1.24679,3.5231615,-1271,52347,24.9328,17178,284
1.77132,3.3519361,-1270,52348,24.6839,17178,284
1.09619,3.1193682,-1269,52349,24.7337,17178,284
1.49385,3.1289076,-1268,52350,25.0324,17178,284
1.61355,3.197217,-1267,52351,24.883,17178,284
0.78733,3.0247831,-1266,52352,25.0324,17178,284
1.57163,2.9423757,-1265,52353,24.7337,17177,332
2.05078,2.8523734,-1264,52354,24.883,17177,332
2.0716,2.592378,-1263,52355,24.9328,17177,332
1.59572,2.8523734,-1262,52356,24.9328,17177,332
1.59572,3.0321637,-1261,52357,24.7337,17177,332
1.24679,3.0517578,-1260,52358,24.8332,17177,332
1.51917,3.1289076,-1259,52359,25.0821,17177,332
1.27702,3.2250598,-1258,52360,24.7337,17177,332
2.23545,3.2958984,-1257,52361,25.0324,17177,332
2.09904,3.2457851,-1256,52362,24.7337,17177,332
1.60466,3.3071819,-1255,52363,24.7337,17180,296
1.93842,3.456983,-1254,52364,24.9328,17180,296
1.94824,3.2526642,-1253,52365,25.0324,17180,296
0.995902,3.0833327,-1252,52366,24.7337,17180,296
1.88858,3.2868438,-1251,52367,24.7337,17180,296
2.09677,3.3229145,-1250,52368,24.9328,17180,296
1.69146,3.197217,-1249,52369,24.8332,17180,296
1.99897,3.0541982,-1248,52370,24.883,17180,296
2.31303,2.8208545,-1247,52371,24.883,17180,296
2.02504,2.7213741,-1246,52372,24.7337,17180,296
1.88099,2.8523734,-1245,52373,24.9328,17174,265
2.88541,2.9423757,-1244,52374,25.0324,17174,265
0.683594,2.937307,-1243,52375,24.7337,17174,265
1.28075,2.9650776,-1242,52376,24.8332,17174,265
2.08994,2.977615,-1241,52377,24.8332,17174,265
1.45505,3.1145876,-1240,52378,24.883,17174,265
1.75781,3.1526298,-1239,52379,24.883,17174,265
1.73047,3.2958984,-1238,52380,24.9328,17174,265
1.4118,3.2273692,-1237,52381,24.8332,17174,265
1.11773,3.1289076,-1236,52382,24.883,17174,265
1.80598,3.1217558,-1235,52383,25.0324,17177,290
1.83739,3.3519361,-1234,52384,24.7337,17177,290
2.31921,3.3229145,-1233,52385,24.8332,17177,290
1.94088,3.2065248,-1232,52386,24.883,17177,290
1.55638,2.8523734,-1231,52387,24.7337,17177,290
1.36719,2.7131483,-1230,52388,25.0324,17177,290
2.23118,2.8809628,-1229,52389,24.7337,17177,290
2.11488,2.9550094,-1228,52390,25.0324,17177,290
2.2819,3.0346198,-1227,52391,24.883,17177,290
1.5034,2.9499624,-1226,52392,25.0324,17177,290
2.23332,3.0321637,-1225,52393,24.9328,17181,327
2.33764,2.9801161,-1224,52394,24.7337,17181,327
2.13284,3.0541982,-1223,52395,24.8332,17181,327
1.61355,3.2250598,-1222,52396,24.9328,17181,327
1.79539,3.393906,-1221,52397,24.9328,17181,327
1.51917,3.5295001,-1220,52398,24.9328,17181,327
1.91615,3.2526642,-1219,52399,25.0324,17181,327
2.0693,2.9900998,-1218,52400,24.883,17181,327
1.43857,3.0321637,-1217,52401,24.8332,17181,327
1.57466,3.2042004,-1216,52402,24.883,17181,327
1.72495,3.0223189,-1215,52403,25.0324,17176,287
0.811194,2.8497601,-1214,52404,24.883,17176,287
1.28447,3.0247831,-1213,52405,24.883,17176,287
1.19604,3.0247831,-1212,52406,24.7337,17176,287
1.31745,2.9423757,-1211,52407,25.0324,17176,287
1.38107,2.7782731,-1210,52408,24.8332,17176,287
2.2944,2.8731939,-1209,52409,24.9328,17176,287
2.19238,3.0247831,-1208,52410,24.8332,17176,287
1.98701,3.0247831,-1207,52411,24.883,17176,287
2.44336,3.0223189,-1206,52412,24.8332,17176,287
1.45176,2.9499624,-1205,52413,24.8332,17184,263
1.9335,2.8601989,-1204,52414,24.8332,17184,263
1.53168,2.9550094,-1203,52415,24.8332,17184,263
1.59273,3.2250598,-1202,52416,24.8332,17184,263
0.662337,3.197217,-1201,52417,24.9328,17184,263
2.26722,3.1169788,-1200,52418,24.6839,17184,263
1.34255,3.4136063,-1199,52419,24.8332,17184,263
3.32318,3.2981582,-1198,52420,24.5345,17184,263
2.41391,3.2042004,-1197,52421,24.8332,17184,263
1.57769,3.197217,-1196,52422,24.9328,17184,263
1.82437,3.1121945,-1195,52423,24.9328,17175,303
1.14304,3.1289076,-1194,52424,25.0324,17175,303
2.52021,3.0346198,-1193,52425,24.8332,17175,303
1.31745,2.9423757,-1192,52426,24.883,17175,303
1.37415,2.9347694,-1191,52427,24.9328,17175,303
1.89614,3.1121945,-1190,52428,24.7337,17175,303
1.61945,3.0419765,-1189,52429,24.883,17175,303
1.94824,3.0346198,-1188,52430,24.8332,17175,303
1.79539,3.1289076,-1187,52431,24.8332,17175,303
2.04146,3.3206715,-1186,52432,25.0324,17175,303
2.10811,3.2250598,-1185,52433,25.0324,17178,340
1.66303,3.3071819,-1184,52434,24.8332,17178,340
1.71942,3.2981582,-1183,52435,24.8332,17178,340
2.93619,3.378504,-1182,52436,25.0324,17178,340
1.4118,3.0517578,-1181,52437,25.0324,17178,340
2.39407,2.9550094,-1180,52438,24.7337,17178,340
2.24822,3.1526298,-1179,52439,24.7337,17178,340
2.31303,3.3184271,-1178,52440,24.883,17178,340
2.20323,3.2134879,-1177,52441,24.9328,17178,340
1.98701,3.0247831,-1176,52442,24.6839,17178,340
1.4118,2.8497601,-1175,52443,24.8332,17180,273
1.40163,2.8601989,-1174,52444,24.7337,17180,273
2.28399,3.0247831,-1173,52445,24.9328,17180,273
1.43857,3.1265255,-1172,52446,24.9328,17180,273
2.09677,3.2250598,-1171,52447,25.0324,17180,273
0.793363,3.2227487,-1170,52448,24.8332,17180,273
1.00068,3.0541982,-1169,52449,24.7337,17180,273
1.82437,2.9801161,-1168,52450,24.9328,17180,273
2.47246,2.9650776,-1167,52451,24.883,17180,273
2.43358,3.0419765,-1166,52452,24.7337,17180,273
1.60168,2.9423757,-1165,52453,24.7337,17175,256
2.03209,2.8497601,-1164,52454,25.0324,17175,256
1.87846,2.9423757,-1163,52455,24.8332,17175,256
1.19205,3.0223189,-1162,52456,24.9328,17175,256
2.11488,2.9423757,-1161,52457,24.7337,17175,256
1.98701,2.8705996,-1160,52458,24.8332,17175,256
0.840071,2.9423757,-1159,52459,24.8332,17175,256
2.50693,3.1265255,-1158,52460,24.7337,17175,256
2.71512,3.4634426,-1157,52461,24.8332,17175,256
1.53789,3.2526642,-1156,52462,24.9328,17175,256
2.59479,3.1597117,-1155,52463,25.0324,17178,664
1.52231,3.1360431,-1154,52464,24.883,17178,664
2.25668,3.4223256,-1153,52465,24.883,17178,664
1.76052,3.3961005,-1152,52466,24.7337,17178,664
1.54099,3.4934297,-1151,52467,25.0324,17178,664
1.59273,3.3004165,-1150,52468,24.7337,17178,664
2.33151,2.9423757,-1149,52469,24.7337,17178,664
2.1771,2.8523734,-1148,52470,24.9328,17178,664
1.96772,2.9449068,-1147,52471,24.7337,17178,664
0.981433,3.071227,-1146,52472,24.883,17178,664
2.17052,3.2042004,-1145,52473,25.0324,17165,276
1.91864,3.2936371,-1144,52474,24.7337,17165,276
1.74146,2.937307,-1143,52475,24.883,17165,276
1.74693,3.0346198,-1142,52476,24.7337,17165,276
2.10585,3.231983,-1141,52477,24.883,17165,276
2.09677,3.3961005,-1140,52478,24.6839,17165,276
2.23545,3.2250598,-1139,52479,24.8332,17165,276
2.0156,3.2158056,-1138,52480,25.0324,17165,276
1.73047,3.197217,-1137,52481,24.883,17165,276
1.51917,3.2411909,-1136,52482,24.8332,17165,276
2.27981,2.9751117,-1135,52483,24.8332,17378,287
2.77763,2.7863067,-1134,52484,24.7337,17378,287
1.34255,3.0247831,-1133,52485,25.0324,17378,287
1.37067,3.1289076,-1132,52486,24.9328,17378,287
1.89865,3.1526298,-1131,52487,24.883,17378,287
1.68863,3.185544,-1130,52488,24.9328,17378,287
1.87592,3.2958984,-1129,52489,24.9328,17378,287
1.41854,3.1714798,-1128,52490,24.9328,17378,287
1.81651,3.0615079,-1127,52491,24.8332,17378,287
0.352105,3.0419765,-1126,52492,24.8332,17378,287
2.32946,2.977615,-1125,52493,24.883,17116,310
1.09619,3.0541982,-1124,52494,24.7337,17116,310
1.11773,3.2042004,-1123,52495,24.883,17116,310
2.50693,3.2868438,-1122,52496,24.883,17116,310
2.27981,3.282307,-1121,52497,24.8332,17116,310
1.82698,3.197217,-1120,52498,24.9328,17116,310
1.88858,3.0321637,-1119,52499,24.883,17116,310
1.32467,3.0321637,-1118,52500,24.7337,17116,310
1.70829,3.1074028,-1117,52501,24.8332,17116,310
2.28816,3.0223189,-1116,52502,24.7337,17116,310
1.66016,3.2158056,-1115,52503,24.6839,17178,315
2.6655,3.2042004,-1114,52504,24.6839,17178,315
1.77938,3.1265255,-1113,52505,24.883,17178,315
2.09904,3.3229145,-1112,52506,24.9328,17178,315
1.67446,3.0321637,-1111,52507,24.883,17178,315
2.40995,3.1526298,-1110,52508,24.8332,17178,315
2.97651,3.0833327,-1109,52509,24.9328,17178,315
2.56893,3.2503728,-1108,52510,24.7337,17178,315
1.07422,3.1289076,-1107,52511,25.0324,17178,315
2.12388,3.1121945,-1106,52512,24.883,17178,315
1.46484,3.0247831,-1105,52513,24.9328,17181,287
1.39822,2.6910898,-1104,52514,25.0324,17181,287
1.57163,2.8809628,-1103,52515,24.9328,17181,287
1.3461,3.1289076,-1102,52516,24.8332,17181,287
2.22905,3.2042004,-1101,52517,24.9328,17181,287
2.08537,3.2042004,-1100,52518,25.0324,17181,287
2.0156,3.2227487,-1099,52519,24.9328,17181,287
1.55332,2.9650776,-1098,52520,24.8332,17181,287
2.0785,2.9575296,-1097,52521,24.8332,17181,287
1.88858,3.2250598,-1096,52522,24.8332,17181,287
2.95561,3.2250598,-1095,52523,24.883,17176,280
1.01016,3.2868438,-1094,52524,24.883,17176,280
1.24679,3.2134879,-1093,52525,25.0324,17176,280
2.21832,3.231983,-1092,52526,24.8332,17176,280
2.14399,3.2526642,-1091,52527,24.7337,17176,280
2.47824,3.1145876,-1090,52528,24.6839,17176,280
1.59273,3.0247831,-1089,52529,25.0324,17176,280
2.16171,3.0223189,-1088,52530,24.883,17176,280
1.40163,3.3004165,-1087,52531,24.8332,17176,280
1.61059,3.3961005,-1086,52532,24.9328,17176,280
1.79007,3.1265255,-1085,52533,25.0324,17176,280
1.78473,3.2526642,-1084,52534,24.883,17176,280
2.51832,3.3296342,-1083,52535,24.7337,17176,280
2.22047,3.231983,-1082,52536,24.6839,17176,280
1.48103,3.2250598,-1081,52537,24.9328,17176,280
2.32332,3.1502656,-1080,52538,24.9328,17176,280
1.52856,2.9801161,-1079,52539,24.7337,17176,280
1.5034,2.9801161,-1078,52540,24.883,17176,280
2.02269,3.1526298,-1077,52541,24.9328,17176,280
1.63702,3.1360431,-1076,52542,24.9328,17176,280
1.74966,3.1265255,-1075,52543,25.0324,17176,307
1.71664,3.0419765,-1074,52544,24.8332,17176,307
1.82437,3.1289076,-1073,52545,24.8332,17176,307
1.7767,3.1289076,-1072,52546,24.9328,17176,307
2.24822,3.2042004,-1071,52547,24.8332,17176,307
1.68863,3.0247831,-1070,52548,24.7337,17176,307
1.55332,2.8523734,-1069,52549,24.883,17176,307
1.67446,3.0419765,-1068,52550,25.0324,17176,307
1.57769,3.2250598,-1067,52551,24.7337,17176,307
2.15066,3.2042004,-1066,52552,24.9328,17176,307
1.19205,3.1478996,-1065,52553,24.7337,17178,288
1.82437,3.0346198,-1064,52554,24.7337,17178,288
2.27981,3.0321637,-1063,52555,24.9328,17178,288
1.13045,3.378504,-1062,52556,24.883,17178,288
1.68014,3.3004165,-1061,52557,24.883,17178,288
1.35668,3.1145876,-1060,52558,24.883,17178,288
1.60466,3.1097996,-1059,52559,24.9328,17178,288
2.24822,3.0223189,-1058,52560,24.9328,17178,288
1.98701,2.8523734,-1057,52561,24.9328,17178,288
1.90617,3.0321637,-1056,52562,24.8332,17178,288
1.79539,3.3229145,-1055,52563,25.0324,17180,272
2.20323,3.3229145,-1054,52564,24.7337,17180,272
2.20323,3.2042004,-1053,52565,24.883,17180,272
1.51917,3.0223189,-1052,52566,24.883,17180,272
1.54408,2.8601989,-1051,52567,24.8332,17180,272
2.0693,2.8628026,-1050,52568,24.7337,17180,272
2.81853,2.9650776,-1049,52569,24.883,17180,272
2.4277,3.1289076,-1048,52570,24.7337,17180,272
1.42859,2.9575296,-1047,52571,24.7337,17180,272
1.77132,2.9398424,-1046,52572,24.7337,17180,272
2.13284,2.9575296,-1045,52573,24.7337,17175,328
1.86572,2.8835478,-1044,52574,24.9328,17175,328
1.39139,3.1526298,-1043,52575,24.7337,17175,328
1.21188,3.2227487,-1042,52576,24.8332,17175,328
1.74966,3.3206715,-1041,52577,24.8332,17175,328
1.11773,3.1289076,-1040,52578,25.0324,17175,328
1.94824,2.8601989,-1039,52579,24.8332,17175,328
0.931581,2.9423757,-1038,52580,24.8332,17175,328
1.67446,2.9575296,-1037,52581,24.883,17175,328
1.56555,2.9575296,-1036,52582,24.6839,17175,328
1.57769,2.9423757,-1035,52583,24.883,17179,319
1.54717,3.2891098,-1034,52584,24.7337,17179,319
1.6165,3.282307,-1033,52585,24.8332,17179,319
1.66303,3.2845762,-1032,52586,24.8332,17179,319
2.24397,3.0247831,-1031,52587,24.6839,17179,319
2.1771,2.9449068,-1030,52588,24.7337,17179,319
2.38009,3.0346198,-1029,52589,25.0324,17179,319
1.63993,2.9575296,-1028,52590,25.0324,17179,319
1.21188,2.8628026,-1027,52591,24.7337,17179,319
1.63702,2.9423757,-1026,52592,24.9328,17179,319
1.65152,3.1289076,-1025,52593,24.7337,17175,284
2.14844,3.1526298,-1024,52594,24.883,17175,284
1.88858,3.0541982,-1023,52595,24.7337,17175,284
2.45698,3.0541982,-1022,52596,25.0324,17175,284
1.89614,2.9801161,-1021,52597,24.9328,17175,284
1.39139,3.0541982,-1020,52598,24.883,17175,284
1.85547,3.0517578,-1019,52599,25.0324,17175,284
2.85384,3.0247831,-1018,52600,24.9328,17175,284
0.995902,3.0419765,-1017,52601,24.9328,17175,284
2.29648,3.1074028,-1016,52602,25.0324,17175,284
1.33185,3.2042004,-1015,52603,24.8332,17180,285
1.60168,2.9347694,-1014,52604,25.0324,17180,285
1.52231,2.8601989,-1013,52605,24.7337,17180,285
2.14399,3.0223189,-1012,52606,24.9328,17180,285
2.14399,2.8497601,-1011,52607,24.7337,17180,285
2.11488,2.8523734,-1010,52608,24.7337,17180,285
2.35997,2.9650776,-1009,52609,25.0324,17180,285
1.62826,3.0541982,-1008,52610,24.883,17180,285
1.61355,3.2042004,-1007,52611,24.8332,17180,285
1.96772,3.1217558,-1006,52612,25.1319,17180,285
2.23332,2.9650776,-1005,52613,24.8332,17180,298
1.53789,3.0809154,-1004,52614,24.9328,17180,298
1.9942,3.3004165,-1003,52615,25.0324,17180,298
1.82698,3.2868438,-1002,52616,24.8332,17180,298
1.91615,3.1097996,-1001,52617,25.0324,17180,298
2.34985,3.0419765,-1000,52618,24.8332,17180,298
1.96529,3.1526298,-999,52619,24.883,17180,298
2.06237,3.0541982,-998,52620,24.8332,17180,298
1.45505,2.9423757,-997,52621,24.883,17180,298
1.50022,2.9449068,-996,52622,25.0324,17180,298
2.38009,3.1145876,-995,52623,24.9328,17175,274
2.70809,3.0541982,-994,52624,24.7337,17175,274
1.66589,2.9575296,-993,52625,24.8332,17175,274
1.68014,3.1121945,-992,52626,24.883,17175,274
1.31383,3.2065248,-991,52627,24.9328,17175,274
1.73047,3.3071819,-990,52628,24.9328,17175,274
1.69427,3.1145876,-989,52629,24.9328,17175,274
1.60466,3.0247831,-988,52630,24.6839,17175,274
2.54094,2.9550094,-987,52631,24.9328,17175,274
2.08994,3.2250598,-986,52632,24.7337,17175,274
1.77401,3.2042004,-985,52633,24.9328,17177,299
1.81125,3.378504,-984,52634,24.9328,17177,299
1.20794,3.2936371,-983,52635,25.0821,17177,299
2.22262,3.1217558,-982,52636,24.8332,17177,299
1.81651,2.8835478,-981,52637,24.883,17177,299
1.74146,2.8628026,-980,52638,24.9328,17177,299
1.25442,2.7675254,-979,52639,24.8332,17177,299
0.966748,3.0346198,-978,52640,24.6839,17177,299
1.93596,3.2227487,-977,52641,24.9328,17177,299
2.01087,3.2868438,-976,52642,24.8332,17177,299
1.28447,3.1265255,-975,52643,24.9328,17177,307
1.91864,3.2065248,-974,52644,24.8332,17177,307
2.1771,3.1360431,-973,52645,24.7337,17177,307
2.01324,3.1502656,-972,52646,24.9328,17177,307
2.02269,3.231983,-971,52647,24.9328,17177,307
1.4118,3.0444248,-970,52648,24.8332,17177,307
1.81125,3.1289076,-969,52649,24.8332,17177,307
2.60762,3.1289076,-968,52650,25.0324,17177,307
1.95556,3.0247831,-967,52651,24.9328,17177,307
2.26091,2.9423757,-966,52652,24.8332,17177,307
2.12613,2.9423757,-965,52653,25.0324,17177,311
1.81125,2.9575296,-964,52654,25.0324,17177,311
1.4118,2.9650776,-963,52655,25.0324,17177,311
2.05543,3.1289076,-962,52656,24.8332,17177,311
2.0156,3.1289076,-961,52657,24.8332,17177,311
1.05631,3.0517578,-960,52658,24.9328,17177,311
1.40163,3.1502656,-959,52659,24.7337,17177,311
1.30655,3.0541982,-958,52660,24.9328,17177,311
1.91615,2.9041448,-957,52661,24.8332,17177,311
2.0156,3.0615079,-956,52662,25.0821,17177,311
2.4974,3.231983,-955,52663,25.0324,17176,284
1.92608,3.3341065,-954,52664,25.0324,17176,284
2.1573,3.2868438,-953,52665,24.8332,17176,284
1.25442,3.197217,-952,52666,24.883,17176,284
1.62826,3.0247831,-951,52667,24.7337,17176,284
1.63993,2.9499624,-950,52668,24.8332,17176,284
1.61355,2.9499624,-949,52669,24.883,17176,284
2.30684,3.1217558,-948,52670,25.0324,17176,284
1.83739,3.2526642,-947,52671,24.8332,17176,284
1.36019,3.3363404,-946,52672,24.9328,17176,284
1.45505,3.0321637,-945,52673,24.9328,17173,289
2.09222,2.9423757,-944,52674,24.883,17173,289
2.37005,2.8628026,-943,52675,25.0324,17173,289
2.41391,2.8809628,-942,52676,24.883,17173,289
1.73047,3.2042004,-941,52677,24.9328,17173,289
1.53168,3.0025327,-940,52678,24.9328,17173,289
2.32946,2.8835478,-939,52679,24.9328,17173,289
2.31715,3.0736519,-938,52680,25.0324,17173,289
2.41983,3.231983,-937,52681,24.9328,17173,289
1.98701,2.977615,-936,52682,24.9328,17173,289
2.49549,2.6799925,-935,52683,24.7337,17173,322
1.83479,2.8497601,-934,52684,24.9328,17173,322
1.11773,3.2158056,-933,52685,24.883,17173,322
1.96529,3.4784685,-932,52686,24.6839,17173,322
2.18584,3.2065248,-931,52687,24.883,17173,322
2.11488,2.7702162,-930,52688,24.883,17173,322
2.0156,2.6993829,-929,52689,24.883,17173,322
1.22363,3.0321637,-928,52690,25.0324,17173,322
2.52777,3.0321637,-927,52691,24.7337,17173,322
1.96287,3.3408038,-926,52692,24.883,17173,322
2.22905,3.1714798,-925,52693,25.0324,17170,262
2.22047,2.9625637,-924,52694,24.8332,17170,262
1.67161,3.1145876,-923,52695,24.9328,17170,262
1.88858,2.937307,-922,52696,24.9328,17170,262
1.97498,2.8628026,-921,52697,24.6839,17170,262
1.26577,3.1526298,-920,52698,25.0324,17170,262
2.28816,3.2526642,-919,52699,24.8332,17170,262
1.28447,3.2981582,-918,52700,24.7337,17170,262
1.38452,3.0517578,-917,52701,24.883,17170,262
1.71942,2.9143888,-916,52702,24.7337,17170,262
1.76052,2.8912889,-915,52703,24.9328,17180,264
0.458048,3.1360431,-914,52704,24.8332,17180,264
2.19238,3.3071819,-913,52705,24.8332,17180,264
1.62532,3.2250598,-912,52706,24.883,17180,264
1.37067,3.1526298,-911,52707,24.9328,17180,264
2.03444,2.9398424,-910,52708,24.7337,17180,264
1.80334,2.9423757,-909,52709,24.9328,17180,264
2.44921,3.0223189,-908,52710,24.883,17180,264
1.62826,3.0247831,-907,52711,24.883,17180,264
1.78473,3.1217558,-906,52712,24.9328,17180,264
1.74966,3.4026757,-905,52713,24.9328,17178,336
1.54717,3.2936371,-904,52714,24.883,17178,336
1.10916,3.197217,-903,52715,24.883,17178,336
1.74146,3.0321637,-902,52716,24.8332,17178,336
2.02269,3.0321637,-901,52717,24.7337,17178,336
1.21581,3.3004165,-900,52718,25.0324,17178,336
1.8529,3.2042004,-899,52719,24.5843,17178,336
1.44518,3.2227487,-898,52720,24.883,17178,336
1.70269,3.0541982,-897,52721,24.9328,17178,336
1.20399,3.231983,-896,52722,24.8332,17178,336
1.31745,3.2134879,-895,52723,25.0324,17175,320
1.79804,3.1360431,-894,52724,24.883,17175,320
1.11773,3.0541982,-893,52725,24.8332,17175,320
2.76731,3.2065248,-892,52726,24.8332,17175,320
1.49385,3.2065248,-891,52727,24.883,17175,320
1.37415,3.3071819,-890,52728,24.9328,17175,320
1.76323,3.3184271,-889,52729,24.8332,17175,320
1.13886,3.2042004,-888,52730,24.8332,17175,320
1.79273,3.1097996,-887,52731,24.8332,17175,320
2.23545,3.282307,-886,52732,24.7337,17175,320
1.90617,3.378504,-885,52733,24.883,17173,279
1.55638,3.4288506,-884,52734,24.8332,17173,279
1.5034,3.4483513,-883,52735,24.9328,17173,279
2.63491,3.3184271,-882,52736,24.7337,17173,279
2.01324,3.378504,-881,52737,24.883,17173,279
1.10485,3.3206715,-880,52738,25.0324,17173,279
1.84516,3.2250598,-879,52739,24.7337,17173,279
2.0156,3.2250598,-878,52740,24.8332,17173,279
1.02423,3.0346198,-877,52741,24.883,17173,279
1.51917,2.9423757,-876,52742,24.8332,17173,279
1.97739,3.197217,-875,52743,24.883,17173,279
1.51917,2.9423757,-874,52744,25.1319,17173,279
1.34255,2.8731939,-873,52745,24.9328,17173,279
0.793363,3.1289076,-872,52746,24.7337,17173,279
1.3637,3.2042004,-871,52747,25.0324,17173,279
0.625305,3.2042004,-870,52748,24.7337,17173,279
1.49066,2.9423757,-869,52749,24.6839,17173,279
2.32332,2.8705996,-868,52750,24.6839,17173,279
1.88858,2.9143888,-867,52751,24.7337,17173,279
1.71386,3.0905735,-866,52752,24.9328,17173,279
1.53168,3.0517578,-865,52753,24.8332,17178,273
2.4974,3.0346198,-864,52754,24.9328,17178,273
2.5353,3.2158056,-863,52755,24.7337,17178,273
1.59273,3.2158056,-862,52756,24.7337,17178,273
1.53168,3.1121945,-861,52757,24.7337,17178,273
2.22047,3.0223189,-860,52758,24.6839,17178,273
2.36401,3.1948858,-859,52759,24.883,17178,273
2.15287,3.2868438,-858,52760,24.9328,17178,273
2.44921,3.197217,-857,52761,24.883,17178,273
1.79539,3.1217558,-856,52762,24.9328,17178,273
1.49385,3.1217558,-855,52763,24.8332,17174,324
2.39606,3.197217,-854,52764,24.883,17174,324
1.85547,3.0247831,-853,52765,24.6839,17174,324
1.19205,2.8731939,-852,52766,24.8332,17174,324
1.80334,2.6993829,-851,52767,25.0324,17174,324
1.46484,2.9423757,-850,52768,24.9328,17174,324
1.25442,3.2868438,-849,52769,24.9328,17174,324
1.19604,3.1145876,-848,52770,24.7337,17174,324
1.74966,3.0541982,-847,52771,25.0324,17174,324
1.28075,3.0833327,-846,52772,25.0324,17174,324
2.23972,3.0419765,-845,52773,24.883,17176,331
2.33151,3.282307,-844,52774,24.9328,17176,331
1.40163,3.1074028,-843,52775,24.7337,17176,331
2.13284,3.3206715,-842,52776,24.7337,17176,331
1.28817,3.2250598,-841,52777,24.9328,17176,331
1.89865,3.0444248,-840,52778,25.0324,17176,331
1.31745,2.9801161,-839,52779,24.8332,17176,331
2.1771,2.9499624,-838,52780,25.0324,17176,331
1.80334,3.0247831,-837,52781,24.9328,17176,331
1.54099,3.0223189,-836,52782,24.7337,17176,331
1.67161,3.0346198,-835,52783,24.8332,17173,260
1.94088,3.1265255,-834,52784,24.6839,17173,260
1.89614,3.3229145,-833,52785,24.8332,17173,260
1.66016,3.4026757,-832,52786,24.8332,17173,260
1.46158,3.2434888,-831,52787,25.0324,17173,260
1.45176,3.2250598,-830,52788,24.7337,17173,260
2.05078,3.2227487,-829,52789,24.883,17173,260
1.63702,3.1145876,-828,52790,24.7337,17173,260
2.06237,3.1336664,-827,52791,25.0324,17173,260
1.61355,3.0419765,-826,52792,24.9328,17173,260
1.70549,3.0321637,-825,52793,25.0324,17177,295
0.834375,3.0247831,-824,52794,24.6839,17177,295
1.61945,3.0247831,-823,52795,24.7337,17177,295
1.83739,2.937307,-822,52796,24.883,17177,295
1.85804,3.2042004,-821,52797,25.0324,17177,295
2.58559,3.0247831,-820,52798,24.7337,17177,295
1.76323,2.9398424,-819,52799,25.0324,17177,295
1.57769,2.7702162,-818,52800,24.883,17177,295
2.23545,3.0223189,-817,52801,24.5843,17177,295
1.98701,3.1289076,-816,52802,24.7337,17177,295
2.31303,3.3519361,-815,52803,24.883,17175,340
1.59273,3.2273692,-814,52804,24.6839,17175,340
1.86572,2.9900998,-813,52805,25.0324,17175,340
1.52856,3.1714798,-812,52806,24.9328,17175,340
1.80598,3.3851134,-811,52807,25.0821,17175,340
0.834375,3.1502656,-810,52808,25.0324,17175,340
1.32827,3.0346198,-809,52809,24.8332,17175,340
1.84516,2.9347694,-808,52810,24.9328,17175,340
2.03444,2.8497601,-807,52811,25.0324,17175,340
1.40163,2.937307,-806,52812,24.9328,17175,340
2.81853,3.0321637,-805,52813,24.9328,17175,282
0.811194,3.1217558,-804,52814,24.883,17175,282
2.42573,3.1478996,-803,52815,24.6839,17175,282
1.51917,3.231983,-802,52816,24.7337,17175,282
2.25668,3.0517578,-801,52817,25.0324,17175,282
1.1472,3.0905735,-800,52818,24.7337,17175,282
1.74966,2.9575296,-799,52819,24.9328,17175,282
2.0785,3.0247831,-798,52820,24.9328,17175,282
1.89865,3.1360431,-797,52821,24.8332,17175,282
1.94088,3.1217558,-796,52822,24.8332,17175,282
1.87592,2.8601989,-795,52823,24.7337,17176,286
1.54717,2.9575296,-794,52824,24.7337,17176,286
2.5819,3.0833327,-793,52825,24.883,17176,286
0.981433,2.8835478,-792,52826,24.9328,17176,286
1.42525,3.0321637,-791,52827,24.8332,17176,286
1.04725,3.0321637,-790,52828,25.0324,17176,286
2.31509,3.0444248,-789,52829,24.7337,17176,286
2.00374,3.1360431,-788,52830,24.7337,17176,286
1.85804,3.2503728,-787,52831,24.9328,17176,286
0.617632,3.185544,-786,52832,24.883,17176,286
1.3637,3.2042004,-785,52833,24.7337,17175,312
2.30684,3.1407911,-784,52834,24.7337,17175,312
1.42525,3.0905735,-783,52835,24.8332,17175,312
1.62239,3.0833327,-782,52836,24.6839,17175,312
1.48103,3.3541581,-781,52837,24.6839,17175,312
2.58005,3.2981582,-780,52838,24.883,17175,312
1.57466,3.2411909,-779,52839,24.6839,17175,312
1.22752,3.071227,-778,52840,24.9328,17175,312
1.42525,2.9625637,-777,52841,24.8332,17175,312
1.88858,3.0444248,-776,52842,25.0324,17175,312
2.0693,3.071227,-775,52843,24.883,17173,309
1.24679,2.9650776,-774,52844,25.0324,17173,309
1.87846,2.8705996,-773,52845,24.883,17173,309
1.20794,3.0541982,-772,52846,24.8332,17173,309
2.27352,3.0419765,-771,52847,25.0324,17173,309
2.60945,3.0247831,-770,52848,24.9328,17173,309
1.89614,3.0346198,-769,52849,24.883,17173,309
2.86551,3.1597117,-768,52850,25.0324,17173,309
0.78733,3.2526642,-767,52851,25.0324,17173,309
1.63993,3.3608154,-766,52852,24.9328,17173,309
1.59273,3.2595288,-765,52853,24.7337,17179,297
0.625305,3.3541581,-764,52854,25.0324,17179,297
1.63702,3.1925529,-763,52855,24.883,17179,297
1.04725,3.1289076,-762,52856,24.9328,17179,297
1.47781,3.0517578,-761,52857,24.9328,17179,297
1.30655,3.0541982,-760,52858,25.0324,17179,297
2.17052,3.0444248,-759,52859,25.1319,17179,297
1.89865,3.138418,-758,52860,24.9328,17179,297
2.06006,2.8523734,-757,52861,24.9328,17179,297
1.72772,2.7431891,-756,52862,24.8332,17179,297
1.79539,3.0149143,-755,52863,24.8332,17173,300
2.63853,3.1193682,-754,52864,24.9328,17173,300
2.19455,3.1832043,-753,52865,24.9328,17173,300
1.83219,2.7863067,-752,52866,24.883,17173,300
1.5034,3.0223189,-751,52867,24.883,17173,300
1.51603,3.2065248,-750,52868,24.8332,17173,300
2.61128,3.3873137,-749,52869,24.8332,17173,300
1.84774,3.5922703,-748,52870,24.883,17173,300
1.66303,3.3430332,-747,52871,24.8332,17173,300
1.57769,3.4288506,-746,52872,25.0324,17173,300
2.35187,3.5231615,-745,52873,24.8332,17177,293
2.42376,3.2595288,-744,52874,25.0324,17177,293
1.87846,2.9900998,-743,52875,24.7337,17177,293
0.921287,2.8705996,-742,52876,24.9328,17177,293
1.39481,2.9575296,-741,52877,24.5843,17177,293
2.37809,2.9801161,-740,52878,24.8332,17177,293
2.4974,2.7131483,-739,52879,24.8332,17177,293
2.13284,2.7782731,-738,52880,25.0324,17177,293
1.4219,3.1455319,-737,52881,24.8332,17177,293
1.45505,3.1502656,-736,52882,24.7337,17177,293
2.36602,3.0517578,-735,52883,24.7337,17174,288
2.08994,3.0025327,-734,52884,24.9328,17174,288
1.87592,3.0198528,-733,52885,24.7337,17174,288
1.14304,3.3873137,-732,52886,24.8332,17174,288
1.60168,3.6232476,-731,52887,25.0324,17174,288
2.50313,3.6232476,-730,52888,24.7337,17174,288
2.59295,3.5922703,-729,52889,24.9328,17174,288
1.66303,3.4288506,-728,52890,24.9328,17174,288
1.20794,3.1265255,-727,52891,24.8332,17174,288
1.13886,2.8497601,-726,52892,24.883,17174,288
1.45176,3.2042004,-725,52893,24.883,17176,282
2.66729,3.3206715,-724,52894,24.8332,17176,282
2.08537,3.231983,-723,52895,24.883,17176,282
1.47781,3.1478996,-722,52896,24.883,17176,282
1.49385,3.0346198,-721,52897,24.7337,17176,282
2.30477,3.1145876,-720,52898,24.7337,17176,282
1.79273,3.0321637,-719,52899,25.0324,17176,282
1.83739,3.1336664,-718,52900,24.6839,17176,282
1.33185,2.9499624,-717,52901,24.7337,17176,282
2.41983,3.1478996,-716,52902,24.9328,17176,282
1.23912,3.2891098,-715,52903,24.7337,17179,323
1.98701,3.39171,-714,52904,24.8332,17179,323
1.6165,3.185544,-713,52905,24.7337,17179,323
1.5034,3.1193682,-712,52906,24.9328,17179,323
1.68298,3.3408038,-711,52907,24.8332,17179,323
1.93596,3.6232476,-710,52908,24.7337,17179,323
0.941763,3.3608154,-709,52909,24.883,17179,323
1.56555,2.9650776,-708,52910,24.883,17179,323
1.28447,3.3071819,-707,52911,24.7337,17179,323
1.54408,3.2065248,-706,52912,24.7337,17179,323
1.4118,3.0444248,-705,52913,24.9328,17180,306
2.05311,2.7702162,-704,52914,24.9328,17180,306
1.57466,2.8601989,-703,52915,24.8332,17180,306
2.72214,3.0419765,-702,52916,24.883,17180,306
1.17998,3.0541982,-701,52917,24.9328,17180,306
1.37415,2.9550094,-700,52918,24.883,17180,306
1.77401,2.8601989,-699,52919,24.8332,17180,306
1.09619,3.0321637,-698,52920,24.8332,17180,306
1.93842,3.1121945,-697,52921,24.883,17180,306
1.80334,2.9550094,-696,52922,24.7337,17180,306
1.4681,3.0615079,-695,52923,24.8332,17175,271
1.70829,3.2709377,-694,52924,24.883,17175,271
1.99897,3.2526642,-693,52925,24.9328,17175,271
2.22905,3.4288506,-692,52926,25.0324,17175,271
1.55638,3.5252757,-691,52927,24.9328,17175,271
1.94088,3.3408038,-690,52928,24.8332,17175,271
2.04379,3.0833327,-689,52929,25.0324,17175,271
0.941763,2.9423757,-688,52930,24.7337,17175,271
2.01087,3.0223189,-687,52931,25.0324,17175,271
2.55777,2.937307,-686,52932,24.8332,17175,271
1.54408,2.7702162,-685,52933,24.6839,17178,292
1.42525,2.6799925,-684,52934,24.9328,17178,292
1.80598,2.7621359,-683,52935,24.9328,17178,292
1.86316,2.9423757,-682,52936,24.883,17178,292
1.86827,3.2042004,-681,52937,24.8332,17178,292
1.59273,3.378504,-680,52938,24.7337,17178,292
1.86572,3.2227487,-679,52939,24.7337,17178,292
2.90024,3.1265255,-678,52940,24.8332,17178,292
1.34255,3.1289076,-677,52941,24.9328,17178,292
1.86572,3.2981582,-676,52942,24.8332,17178,292
1.74146,3.1265255,-675,52943,24.8332,17176,292
1.20794,3.0419765,-674,52944,24.6839,17176,292
2.17052,2.9650776,-673,52945,24.7337,17176,292
1.23912,3.0247831,-672,52946,25.0324,17176,292
2.0762,3.1217558,-671,52947,24.8332,17176,292
1.25442,3.1217558,-670,52948,24.8332,17176,292
0.966748,2.9625637,-669,52949,25.0821,17176,292
1.43525,2.8601989,-668,52950,24.7337,17176,292
1.83739,3.1097996,-667,52951,24.9328,17176,292
1.99897,2.937307,-666,52952,24.8332,17176,292
1.56859,2.677211,-665,52953,24.5843,17176,309
1.73872,2.5952504,-664,52954,24.9328,17176,309
1.33185,2.5076463,-663,52955,24.7337,17176,309
2.08537,2.7675254,-662,52956,24.7337,17176,309
1.73047,3.0517578,-661,52957,24.883,17176,309
1.39139,3.0173845,-660,52958,24.883,17176,309
1.16371,2.9118312,-659,52959,24.7337,17176,309
2.43554,2.9826152,-658,52960,24.9328,17176,309
1.38796,3.0833327,-657,52961,24.883,17176,309
2.05311,3.1925529,-656,52962,24.8332,17176,309
1.57163,3.2595288,-655,52963,24.8332,17173,276
1.96529,3.0541982,-654,52964,25.0324,17173,276
1.50022,3.0541982,-653,52965,24.9328,17173,276
1.25442,3.231983,-652,52966,24.8332,17173,276
1.81913,3.282307,-651,52967,24.8332,17173,276
0.966748,3.1097996,-650,52968,24.7337,17173,276
2.41983,3.1169788,-649,52969,24.8332,17173,276
1.5034,3.1169788,-648,52970,25.0324,17173,276
2.63129,2.9423757,-647,52971,25.0324,17173,276
2.02975,2.8628026,-646,52972,25.1319,17173,276
1.66016,2.9423757,-645,52973,24.9328,17177,287
1.60168,2.8497601,-644,52974,24.9328,17177,287
2.03209,2.7621359,-643,52975,24.8332,17177,287
0.981433,2.6351359,-642,52976,24.883,17177,287
2.0739,2.9423757,-641,52977,24.8332,17177,287
1.89865,3.3206715,-640,52978,24.883,17177,287
1.29923,3.3229145,-639,52979,24.9328,17177,287
1.78473,3.411423,-638,52980,24.8332,17177,287
1.41517,3.4591375,-637,52981,24.9328,17177,287
1.04268,3.411423,-636,52982,24.883,17177,287
2.19238,3.3519361,-635,52983,24.6839,17177,313
1.86316,3.3408038,-634,52984,24.9328,17177,313
1.52544,3.2273692,-633,52985,24.883,17177,313
2.48784,3.5652055,-632,52986,24.8332,17177,313
1.82698,3.2868438,-631,52987,24.9328,17177,313
1.33185,3.1948858,-630,52988,24.8332,17177,313
1.97498,3.0223189,-629,52989,24.8332,17177,313
0.662337,3.1948858,-628,52990,25.0821,17177,313
1.24679,3.2800363,-627,52991,24.883,17177,313
2.04379,3.1336664,-626,52992,24.883,17177,313
2.22905,3.1145876,-625,52993,24.8332,17178,318
1.4219,3.456983,-624,52994,24.6839,17178,318
1.60168,3.6600743,-623,52995,24.8332,17178,318
1.45176,4.5198996,-622,52996,24.8332,17178,318
2.30477,5.1240459,-621,52997,24.9328,17178,318
2.06237,5.1254997,-620,52998,24.8332,17178,318
1.19205,4.2162881,-619,52999,24.883,17178,318
1.88606,4.4097636,-618,53000,24.9328,17178,318
1.31383,5.0478694,-617,53001,24.883,17178,318
1.09619,7.6017566,-616,53002,24.6839,17178,318
1.74146,11.503791,-615,53003,25.0821,17180,285
1.36019,8.5884078,-614,53004,25.0324,17180,285
1.54717,10.662127,-613,53005,24.8332,17180,285
1.71664,11.481101,-612,53006,24.883,17180,285
2.44336,25.533713,-611,53007,24.7337,17180,285
1.6165,38.067544,-610,53008,24.6839,17180,285
1.15548,43.976836,-609,53009,24.9328,17180,285
1.6165,51.758676,-608,53010,24.7337,17180,285
0.717624,64.882295,-607,53011,25.0324,17180,285
1.87592,79.751255,-606,53012,24.9328,17180,285
2.05543,88.100776,-605,53013,24.883,17173,273
2.02504,85.822722,-604,53014,24.8332,17173,273
2.09222,75.912131,-603,53015,24.7337,17173,273
2.40995,63.511531,-602,53016,24.9328,17173,273
2.31303,48.17387,-601,53017,24.6839,17173,273
1.94824,33.779747,-600,53018,24.883,17173,273
1.60466,29.843882,-599,53019,24.6839,17173,273
1.29923,27.471245,-598,53020,24.9328,17173,273
1.88606,24.009713,-597,53021,24.8332,17173,273
2.19672,24.691719,-596,53022,24.883,17173,273
2.95561,30.201981,-595,53023,24.7337,17181,325
2.50693,33.149676,-594,53024,24.883,17181,325
1.28817,31.346411,-593,53025,24.9328,17181,325
1.44518,32.554347,-592,53026,24.8332,17181,325
1.82437,36.18762,-591,53027,24.7337,17181,325
1.79539,43.414663,-590,53028,24.6839,17181,325
2.36602,55.046538,-589,53029,25.0324,17181,325
2.0762,61.813759,-588,53030,24.9328,17181,325
1.62826,57.307299,-587,53031,24.7337,17181,325
0.921287,42.398132,-586,53032,24.9328,17181,325
1.51917,26.843537,-585,53033,25.0324,17176,259
1.92856,25.541882,-584,53034,24.7337,17176,259
1.75238,35.499382,-583,53035,24.9328,17176,259
2.08765,55.256877,-582,53036,24.9328,17176,259
1.04268,71.238147,-581,53037,25.0821,17176,259
2.26722,84.123541,-580,53038,24.8332,17176,259
1.73047,98.632661,-579,53039,25.0324,17176,259
2.21187,100.74566,-578,53040,24.9328,17176,259
2.72039,85.664315,-577,53041,24.9328,17176,259
2.5353,77.519358,-576,53042,25.0324,17176,259
0.981433,85.733605,-575,53043,24.9328,17184,271
1.66303,85.646744,-574,53044,24.7337,17184,271
1.77132,42.240914,-573,53045,24.9328,17184,271
1.90617,23.234121,-572,53046,24.8332,17184,271
1.4681,51.433193,-571,53047,24.8332,17184,271
1.34255,39.649557,-570,53048,24.9328,17184,271
1.74966,28.216996,-569,53049,24.4848,17184,271
1.95556,23.728786,-568,53050,24.7337,17184,271
1.35668,23.102593,-567,53051,24.6839,17184,271
1.76052,45.662782,-566,53052,24.9328,17184,271
2.13284,56.444156,-565,53053,24.9328,17164,325
1.56859,47.785032,-564,53054,25.0324,17164,325
2.55404,36.11755,-563,53055,24.9328,17164,325
2.08765,32.856195,-562,53056,24.7337,17164,325
2.1573,35.924569,-561,53057,24.8332,17164,325
1.13045,38.292155,-560,53058,24.9328,17164,325
1.86827,32.715299,-559,53059,24.8332,17164,325
2.53718,20.195167,-558,53060,24.883,17164,325
1.89362,10.052844,-557,53061,24.5345,17164,325
2.04845,11.299914,-556,53062,24.7337,17164,325
2.02504,15.596841,-555,53063,25.0821,17167,320
2.08994,15.251952,-554,53064,24.8332,17167,320
1.66589,15.489467,-553,53065,24.7337,17167,320
1.66303,22.076172,-552,53066,24.7337,17167,320
1.77132,29.527141,-551,53067,24.9328,17167,320
1.69146,28.982896,-550,53068,24.7337,17167,320
1.57163,22.693918,-549,53069,24.8332,17167,320
2.10585,19.425679,-548,53070,24.7337,17167,320
1.12198,22.148615,-547,53071,24.6839,17167,320
2.36602,27.267896,-546,53072,24.7337,17167,320
2.27981,25.486691,-545,53073,24.9328,17164,274
2.37206,16.021467,-544,53074,24.9328,17164,274
2.33151,8.090785,-543,53075,24.7337,17164,274
1.22363,8.1787109,-542,53076,24.883,17164,274
1.4118,9.6443273,-541,53077,24.8332,17164,274
1.49066,8.5396887,-540,53078,24.7337,17164,274
1.22752,6.4431852,-539,53079,24.8332,17164,274
1.26953,4.4013077,-538,53080,25.0324,17164,274
1.49066,4.6786543,-537,53081,24.9328,17164,274
1.59273,6.0446379,-536,53082,24.883,17164,274
1.73047,7.6476832,-535,53083,24.8332,17165,283
1.39139,8.4748804,-534,53084,25.0324,17165,283
2.42573,8.739757,-533,53085,24.7337,17165,283
2.46667,8.6428885,-532,53086,24.8332,17165,283
2.02033,8.2792114,-531,53087,24.6839,17165,283
1.52231,10.179522,-530,53088,24.883,17165,283
1.82437,14.812316,-529,53089,24.9328,17165,283
1.25061,18.539422,-528,53090,24.9328,17165,283
2.33151,17.590836,-527,53091,25.0821,17165,283
1.6165,12.075093,-526,53092,24.8332,17165,283
1.36019,6.3253156,-525,53093,24.8332,17164,323
2.11488,9.0735283,-524,53094,25.0324,17164,323
2.15066,7.3018049,-523,53095,24.8332,17164,323
0.995902,4.0209153,-522,53096,24.883,17164,323
1.4681,6.260196,-521,53097,24.8332,17164,323
0.966748,5.4714196,-520,53098,24.6839,17164,323
1.68863,23.073872,-519,53099,25.0324,17164,323
2.0716,41.369771,-518,53100,24.9328,17164,323
1.96044,54.171031,-517,53101,24.7337,17164,323
1.88858,58.994323,-516,53102,24.7337,17164,323
1.83739,57.349277,-515,53103,24.7337,17174,291
1.60168,53.806982,-514,53104,24.883,17174,291
1.00068,52.673587,-513,53105,24.883,17174,291
2.88541,54.087067,-512,53106,24.883,17174,291
2.55217,56.914751,-511,53107,24.883,17174,291
2.08765,60.301375,-510,53108,24.8332,17174,291
1.8529,63.698483,-509,53109,24.9328,17174,291
1.41517,66.068238,-508,53110,25.0324,17174,291
1.28447,66.072636,-507,53111,24.9328,17174,291
2.31921,62.90519,-506,53112,24.8332,17174,291
1.4681,62.877706,-505,53113,24.7337,17198,259
1.82698,70.853589,-504,53114,25.0324,17198,259
0.534885,84.831841,-503,53115,24.9328,17198,259
0.577742,96.073912,-502,53116,24.7337,17198,259
1.79804,99.873063,-501,53117,24.883,17198,259
1.86572,100.31365,-500,53118,24.6839,17198,259
1.68298,102.80944,-499,53119,24.7337,17198,259
2.26512,107.91464,-498,53120,25.0324,17198,259
1.23912,113.07869,-497,53121,24.9328,17198,259
1.73047,116.4163,-496,53122,25.0324,17198,259
2.06237,118.73037,-495,53123,24.9328,17273,310
2.44921,121.49848,-494,53124,24.7337,17273,310
1.49385,123.29688,-493,53125,24.8332,17273,310
1.49385,123.54276,-492,53126,24.883,17273,310
1.3029,123.2091,-491,53127,24.8332,17273,310
1.60168,124.10961,-490,53128,24.7337,17273,310
0.817051,125.89374,-489,53129,24.883,17273,310
0.926449,125.78118,-488,53130,24.883,17273,310
1.1596,125.39408,-487,53131,24.6839,17273,310
1.26577,125.2768,-486,53132,25.0324,17273,310
1.8606,121.01651,-485,53133,24.9328,17368,329
2.05078,112.04599,-484,53134,24.883,17368,329
2.09222,101.39238,-483,53135,24.9328,17368,329
2.80666,91.633916,-482,53136,24.9328,17368,329
1.93596,84.61278,-481,53137,24.8332,17368,329
1.04268,81.655915,-480,53138,25.0324,17368,329
2.14177,81.962193,-479,53139,24.883,17368,329
2.60945,86.37499,-478,53140,24.883,17368,329
1.52856,92.064407,-477,53141,24.5843,17368,329
2.45504,89.725084,-476,53142,24.9328,17368,329
2.05543,87.385549,-475,53143,24.9328,17421,286
2.64575,93.594263,-474,53144,24.8332,17421,286
2.82698,115.03765,-473,53145,24.883,17421,286
2.43358,124.90257,-472,53146,24.9328,17421,286
2.37809,113.62615,-471,53147,24.7337,17421,286
1.39139,96.10105,-470,53148,24.883,17421,286
0.478416,83.055729,-469,53149,24.8332,17421,286
1.66303,74.617919,-468,53150,24.7337,17421,286
2.22905,71.703399,-467,53151,24.8332,17421,286
1.91864,82.273308,-466,53152,24.883,17421,286
2.17929,103.11438,-465,53153,24.883,17441,286
1.59273,124.2346,-464,53154,25.0324,17441,286
2.81175,131.41644,-463,53155,24.9328,17441,286
2.65833,121.78886,-462,53156,24.7337,17441,286
2.76903,100.1554,-461,53157,24.883,17441,286
2.70985,79.466273,-460,53158,25.0324,17441,286
3.07113,73.12674,-459,53159,24.883,17441,286
3.20485,90.444217,-458,53160,24.7337,17441,286
2.65833,111.79568,-457,53161,24.883,17441,286
2.32332,114.4088,-456,53162,25.0324,17441,286
1.51917,113.05919,-455,53163,24.883,17441,269
1.82698,125.30498,-454,53164,25.0324,17441,269
1.88858,141.14739,-453,53165,24.9328,17441,269
1.75781,155.40102,-452,53166,24.883,17441,269
1.37067,167.56555,-451,53167,25.0324,17441,269
1.86316,176.92785,-450,53168,24.7337,17441,269
1.57769,181.89529,-449,53169,24.883,17441,269
1.77132,179.96087,-448,53170,24.8332,17441,269
1.62826,172.39985,-447,53171,24.883,17441,269
1.65152,160.91247,-446,53172,25.0324,17441,269
1.68863,147.03393,-445,53173,24.883,17439,311
1.92361,131.62701,-444,53174,24.8332,17439,311
2.41391,115.77222,-443,53175,25.0324,17439,311
2.51832,96.769272,-442,53176,24.883,17439,311
2.44726,76.936745,-441,53177,24.6839,17439,311
2.11714,64.470462,-440,53178,24.7337,17439,311
1.68863,74.291996,-439,53179,24.883,17439,311
1.84516,82.197203,-438,53180,24.7337,17439,311
2.25668,69.786435,-437,53181,24.883,17439,311
1.60466,58.803057,-436,53182,24.7337,17439,311
1.39822,63.085909,-435,53183,24.7337,17335,286
2.31303,76.721264,-434,53184,24.8332,17335,286
2.06006,79.236516,-433,53185,24.9328,17335,286
1.67161,90.327495,-432,53186,24.7337,17335,286
1.49385,128.82612,-431,53187,25.0324,17335,286
1.87592,194.66728,-430,53188,25.0324,17335,286
1.68298,268.5616,-429,53189,24.8332,17335,286
2.44726,328.035,-428,53190,24.883,17335,286
1.83739,372.43742,-427,53191,25.0324,17335,286
0.730792,414.02601,-426,53192,24.6839,17335,286
1.23912,450.53497,-425,53193,24.883,17267,296
2.28816,478.59241,-424,53194,24.9328,17267,296
1.68863,497.76331,-423,53195,24.7337,17267,296
1.53789,508.38383,-422,53196,24.8332,17267,296
1.95556,510.10997,-421,53197,24.6839,17267,296
1.37415,504.51202,-420,53198,24.8332,17267,296
1.65152,493.40127,-419,53199,24.9328,17267,296
2.11488,478.30091,-418,53200,24.883,17267,296
2.22905,454.41649,-417,53201,25.0324,17267,296
2.59295,413.38298,-416,53202,24.883,17267,296
5.96982,435.22004,-415,53203,24.8332,17256,295
3.98002,439.59269,-414,53204,24.9328,17256,295
3.15537,465.66447,-413,53205,25.1319,17256,295
3.08353,408.84788,-412,53206,24.9328,17256,295
2.16832,193.84181,-411,53207,25.0324,17256,295
1.60466,102.50687,-410,53208,24.8332,17256,295
2.43358,87.290602,-409,53209,24.7337,17256,295
2.14622,99.003765,-408,53210,24.9328,17256,295
2.67443,147.1799,-407,53211,24.9328,17256,295
2.14622,144.53321,-406,53212,24.883,17256,295
2.25245,147.84307,-405,53213,24.883,17196,293
1.98701,176.30508,-404,53214,24.8332,17196,293
2.44336,155.99124,-403,53215,24.9328,17196,293
1.30655,106.80741,-402,53216,24.883,17196,293
1.52231,79.966211,-401,53217,24.9328,17196,293
2.67264,47.030667,-400,53218,24.883,17196,293
1.24296,100.17191,-399,53219,24.8332,17196,293
2.21187,176.22109,-398,53220,24.9328,17196,293
3.05244,171.07487,-397,53221,24.9328,17196,293
2.37005,94.037331,-396,53222,24.883,17196,293
2.39407,136.84697,-395,53223,24.8332,17113,295
1.98701,199.88942,-394,53224,24.7337,17113,295
1.62239,261.42394,-393,53225,24.7337,17113,295
2.01324,331.20276,-392,53226,24.7337,17113,295
1.1472,415.33625,-391,53227,25.0821,17113,295
1.73047,497.26389,-390,53228,25.0324,17113,295
1.25442,537.4186,-389,53229,24.7337,17113,295
1.88858,527.99758,-388,53230,24.8332,17113,295
1.11345,496.67322,-387,53231,24.8332,17113,295
1.99897,463.14636,-386,53232,24.6839,17113,295
2.17052,427.22471,-385,53233,24.8332,17063,281
1.97739,376.71755,-384,53234,24.883,17063,281
2.69574,325.43929,-383,53235,25.0324,17063,281
2.66729,316.88948,-382,53236,24.883,17063,281
2.98132,271.81912,-381,53237,24.6839,17063,281
3.21821,148.08955,-380,53238,24.8332,17063,281
3.05244,61.082501,-379,53239,24.883,17063,281
1.85804,72.040413,-378,53240,24.7337,17063,281
1.17594,73.299335,-377,53241,24.7337,17063,281
1.40163,86.52185,-376,53242,24.6839,17063,281
1.66589,119.91835,-375,53243,24.6839,17064,304
1.42525,132.87184,-374,53244,25.0324,17064,304
1.72495,123.94562,-373,53245,24.8332,17064,304
1.66303,114.34451,-372,53246,24.8332,17064,304
1.19604,129.15674,-371,53247,24.9328,17064,304
1.62239,159.18011,-370,53248,24.9328,17064,304
1.18402,185.71982,-369,53249,24.8332,17064,304
1.38107,209.82928,-368,53250,24.883,17064,304
2.02269,230.89689,-367,53251,24.9328,17064,304
1.79539,237.54484,-366,53252,24.8332,17064,304
2.27981,227.49279,-365,53253,24.8332,17023,306
2.48016,207.10911,-364,53254,25.0324,17023,306
2.84044,184.8082,-363,53255,24.883,17023,306
2.03209,155.85951,-362,53256,24.8332,17023,306
2.21617,121.13724,-361,53257,24.9328,17023,306
1.88099,90.45649,-360,53258,24.883,17023,306
2.81853,68.964649,-359,53259,24.9328,17023,306
2.68865,51.123274,-358,53260,25.0821,17023,306
2.75349,40.272289,-357,53261,24.7337,17023,306
1.77132,45.442467,-356,53262,24.8332,17023,306
1.99897,70.896794,-355,53263,24.7337,17000,266
1.73323,106.30923,-354,53264,24.883,17000,266
1.79804,138.86881,-353,53265,24.9328,17000,266
0.793363,164.48385,-352,53266,24.8332,17000,266
1.8529,175.64595,-351,53267,24.7337,17000,266
2.45115,166.55249,-350,53268,24.9328,17000,266
2.08994,143.11644,-349,53269,24.883,17000,266
1.01956,132.5135,-348,53270,24.9328,17000,266
2.01324,167.67352,-347,53271,24.883,17000,266
3.96561,303.94844,-346,53272,24.8332,17000,266
5.03096,285.33178,-345,53273,24.8332,17005,330
3.87438,325.93224,-344,53274,24.9328,17005,330
2.13284,388.79766,-343,53275,24.8332,17005,330
1.56859,285.39071,-342,53276,24.883,17005,330
1.1472,203.02935,-341,53277,24.9328,17005,330
1.31383,187.94979,-340,53278,25.0821,17005,330
2.82191,132.9006,-339,53279,25.0324,17005,330
1.78206,150.28219,-338,53280,24.7337,17005,330
2.77935,238.71779,-337,53281,24.7337,17005,330
3.08043,481.6148,-336,53282,24.8332,17005,330
5.68087,902.88967,-335,53283,24.9328,17010,304
8.10135,1390.6929,-334,53284,24.7337,17010,304
8.43978,1677.7855,-333,53285,25.0821,17010,304
9.15107,1271.1275,-332,53286,24.9328,17010,304
9.32349,229.80066,-331,53287,24.883,17010,304
8.16233,582.16317,-330,53288,25.0821,17010,304
7.96542,619.41866,-329,53289,25.0324,17010,304
6.15777,388.15904,-328,53290,24.9328,17010,304
4.51865,549.24887,-327,53291,24.883,17010,304
4.17188,473.63171,-326,53292,24.9328,17010,304
22.149,337.19261,-325,53293,24.9328,17004,267
37.7576,1214.4353,-324,53294,24.883,17004,267
8.52075,1655.0929,-323,53295,25.0324,17004,267
26.9338,716.42485,-322,53296,24.8332,17004,267
9.62843,775.61454,-321,53297,24.7337,17004,267
9.00664,1271.7507,-320,53298,24.6839,17004,267
7.02107,843.31209,-319,53299,24.7337,17004,267
5.8805,526.8957,-318,53300,24.883,17004,267
5.95223,485.96463,-317,53301,25.0821,17004,267
6.05311,236.38011,-316,53302,24.9328,17004,267
4.85244,323.38603,-315,53303,24.9328,16976,303
5.21982,349.86989,-314,53304,25.0324,16976,303
5.33099,570.9273,-313,53305,25.0821,16976,303
6.63847,772.67458,-312,53306,24.7337,16976,303
3.93665,622.35151,-311,53307,24.9328,16976,303
1.80334,426.06306,-310,53308,24.883,16976,303
2.54656,421.23883,-309,53309,24.9328,16976,303
2.91827,533.14836,-308,53310,24.9328,16976,303
4.79809,693.74537,-307,53311,25.0324,16976,303
4.67732,766.23026,-306,53312,24.883,16976,303
5.2671,717.79893,-305,53313,25.0324,16969,323
5.64467,624.98467,-304,53314,25.1319,16969,323
6.5313,508.6929,-303,53315,24.9328,16969,323
4.9159,473.90712,-302,53316,24.9328,16969,323
4.811,585.93805,-301,53317,25.0324,16969,323
3.75183,714.43958,-300,53318,24.7337,16969,323
3.51563,736.05649,-299,53319,24.8332,16969,323
4.45167,662.55865,-298,53320,24.9328,16969,323
3.50884,576.40546,-297,53321,24.883,16969,323
3.09433,521.46902,-296,53322,24.9328,16969,323
2.70809,477.99433,-295,53323,24.8332,17315,335
2.67977,433.78212,-294,53324,24.8332,17315,335
3.2108,402.96993,-293,53325,24.9328,17315,335
2.38409,385.12891,-292,53326,24.9328,17315,335
2.49549,377.69748,-291,53327,25.0324,17315,335
1.30655,386.53468,-290,53328,24.7337,17315,335
1.88606,405.19259,-289,53329,24.9328,17315,335
1.25061,439.02842,-288,53330,24.8332,17315,335
2.6922,487.17026,-287,53331,24.8332,17315,335
1.43857,549.61799,-286,53332,24.9328,17315,335
1.28817,624.24913,-285,53333,25.0821,18711,295
0.750112,701.05525,-284,53334,25.0324,18711,295
1.83479,763.86081,-283,53335,24.8332,18711,295
2.15287,814.00027,-282,53336,25.0324,18711,295
0.946812,857.12618,-281,53337,25.0324,18711,295
2.0693,898.69379,-280,53338,24.9328,18711,295
1.80334,936.48479,-279,53339,24.9328,18711,295
2.0762,968.21925,-278,53340,24.7337,18711,295
1.07422,988.04638,-277,53341,24.8332,18711,295
2.05311,985.73937,-276,53342,24.9328,18711,295
2.63853,950.85969,-275,53343,24.883,17780,278
2.22047,884.18017,-274,53344,25.0821,17780,278
1.62532,792.83347,-273,53345,24.9328,17780,278
2.31509,686.77254,-272,53346,24.8332,17780,278
1.65152,590.60692,-271,53347,24.9328,17780,278
2.21832,547.45681,-270,53348,24.883,17780,278
3.06024,585.89123,-269,53349,24.883,17780,278
2.20539,690.16418,-268,53350,24.7337,17780,278
0.900346,813.8609,-267,53351,25.0324,17780,278
1.66303,928.38986,-266,53352,24.6839,17780,278
1.63702,1019.3326,-265,53353,24.6839,16870,337
2.05311,1078.2397,-264,53354,24.9328,16870,337
1.50022,1106.4157,-263,53355,24.883,16870,337
1.86316,1101.3016,-262,53356,24.7337,16870,337
1.46484,1067.3994,-261,53357,24.6839,16870,337
1.10916,1013.825,-260,53358,24.8332,16870,337
1.68863,953.34899,-259,53359,24.6839,16870,337
1.48103,885.00349,-258,53360,24.883,16870,337
1.92856,803.77833,-257,53361,24.7337,16870,337
1.01956,729.12451,-256,53362,24.6839,16870,337
2.41391,686.88134,-255,53363,24.8332,16588,337
2.11037,709.83426,-254,53364,24.883,16588,337
2.1771,784.21187,-253,53365,24.7337,16588,337
1.5034,826.70826,-252,53366,24.8332,16588,337
2.08537,813.56593,-251,53367,24.9328,16588,337
1.73047,773.43736,-250,53368,24.8332,16588,337
2.95239,728.02432,-249,53369,25.0324,16588,337
2.00612,684.26839,-248,53370,24.883,16588,337
3.04775,646.9175,-247,53371,24.9328,16588,337
3.27695,623.38923,-246,53372,24.7337,16588,337
3.5224,621.97748,-245,53373,24.6839,16588,285
1.45505,638.05026,-244,53374,24.883,16588,285
2.22262,649.32766,-243,53375,24.9328,16588,285
3.64612,636.31419,-242,53376,24.6839,16588,285
3.27985,597.15931,-241,53377,24.9328,16588,285
2.7862,547.24839,-240,53378,24.9328,16588,285
3.00362,506.66311,-239,53379,24.8332,16588,285
2.77935,481.53423,-238,53380,24.9328,16588,285
2.43358,464.85441,-237,53381,24.9328,16588,285
2.72564,446.90608,-236,53382,24.7337,16588,285
1.958,425.08292,-235,53383,24.7337,16502,282
2.79304,403.25488,-234,53384,24.8332,16502,282
2.28816,385.02312,-233,53385,24.883,16502,282
3.45819,367.90672,-232,53386,24.883,16502,282
3.054,351.69311,-231,53387,24.8332,16502,282
3.73016,332.82508,-230,53388,25.0821,16502,282
3.16292,309.54206,-229,53389,24.9328,16502,282
3.88422,285.4427,-228,53390,25.0324,16502,282
3.58812,260.45732,-227,53391,24.8332,16502,282
3.2987,236.68212,-226,53392,24.8332,16502,282
2.87382,213.99956,-225,53393,24.9328,16474,351
2.86051,192.6454,-224,53394,25.0324,16474,351
3.33893,174.08528,-223,53395,24.8332,16474,351
3.69678,158.14726,-222,53396,24.8332,16474,351
3.37868,147.38184,-221,53397,24.9328,16474,351
2.95239,144.50614,-220,53398,24.6839,16474,351
3.37444,148.25689,-219,53399,24.9328,16474,351
3.36595,156.05318,-218,53400,24.8332,16474,351
3.37444,169.41763,-217,53401,24.9328,16474,351
3.7276,187.42934,-216,53402,24.9328,16474,351
3.44576,210.02934,-215,53403,24.6839,16464,306
2.83371,234.2014,-214,53404,24.9328,16464,306
2.83876,258.15837,-213,53405,24.8332,16464,306
3.67997,281.3234,-212,53406,24.9328,16464,306
3.57614,303.75433,-211,53407,24.9328,16464,306
2.67264,326.57678,-210,53408,24.6839,16464,306
3.91965,349.50564,-209,53409,24.7337,16464,306
3.39557,373.84957,-208,53410,24.883,16464,306
3.26528,395.29575,-207,53411,24.8332,16464,306
2.75176,417.60654,-206,53412,24.8332,16464,306
3.39136,439.80136,-205,53413,24.883,16455,324
2.84547,461.71415,-204,53414,24.9328,16455,324
3.48429,483.32471,-203,53415,24.7337,16455,324
2.61675,505.45614,-202,53416,24.9328,16455,324
2.42573,528.3205,-201,53417,24.883,16455,324
2.52021,551.1804,-200,53418,24.8332,16455,324
3.15386,573.32562,-199,53419,24.883,16455,324
2.53718,593.92613,-198,53420,24.883,16455,324
3.12805,612.65457,-197,53421,24.8332,16455,324
3.00838,631.39091,-196,53422,24.9328,16455,324
1.63702,649.91686,-195,53423,24.8332,16461,315
2.35997,666.12536,-194,53424,24.7337,16461,315
2.18584,680.8545,-193,53425,24.883,16461,315
3.27549,694.62939,-192,53426,24.7337,16461,315
1.80334,706.80641,-191,53427,24.7337,16461,315
2.48784,717.00016,-190,53428,24.8332,16461,315
2.0762,725.29251,-189,53429,24.7337,16461,315
2.24822,731.62294,-188,53430,24.8332,16461,315
1.59572,736.04724,-187,53431,24.9328,16461,315
1.7767,740.19326,-186,53432,24.883,16461,315
2.22905,744.77103,-185,53433,24.883,16465,317
2.49549,749.40457,-184,53434,24.8332,16465,317
2.27352,752.93227,-183,53435,24.8332,16465,317
1.63993,755.82868,-182,53436,25.0324,16465,317
1.41854,757.75386,-181,53437,24.9328,16465,317
2.12613,758.44498,-180,53438,24.883,16465,317
2.33968,758.35939,-179,53439,24.8332,16465,317
2.61493,757.04085,-178,53440,24.9328,16465,317
2.67443,755.5678,-177,53441,25.0821,16465,317
1.50022,753.90224,-176,53442,24.883,16465,317
2.38009,750.91817,-175,53443,24.9328,16459,316
2.11037,745.59265,-174,53444,24.7337,16459,316
1.66589,739.82636,-173,53445,24.6839,16459,316
2.35593,735.21014,-172,53446,24.883,16459,316
1.96772,730.61574,-171,53447,24.8332,16459,316
2.91173,697.38814,-170,53448,24.8332,16459,316
28.4671,412.0856,-169,53449,25.0324,16459,316
21.6614,263.90512,-168,53450,24.6839,16459,316
5.03001,465.60158,-167,53451,24.5843,16459,316
3.91357,549.77689,-166,53452,24.883,16459,316
3.33178,461.39052,-165,53453,24.883,16501,281
3.38432,268.19651,-164,53454,24.9328,16501,281
4.01817,224.89904,-163,53455,25.1319,16501,281
4.70679,209.0325,-162,53456,24.9328,16501,281
4.48475,139.71618,-161,53457,24.9328,16501,281
3.84473,117.90684,-160,53458,24.7337,16501,281
3.77464,138.88389,-159,53459,24.7337,16501,281
4.10156,195.2178,-158,53460,24.7337,16501,281
3.08198,222.75049,-157,53461,24.883,16501,281
2.65474,203.74003,-156,53462,24.9328,16501,281
2.61128,200.29804,-155,53463,24.7337,16493,316
3.01313,204.08484,-154,53464,24.7337,16493,316
1.6165,189.61956,-153,53465,24.6839,16493,316
2.14177,173.98035,-152,53466,24.883,16493,316
1.09183,158.79734,-151,53467,24.7337,16493,316
0.323889,145.21976,-150,53468,24.5843,16493,316
1.19604,137.07436,-149,53469,24.8332,16493,316
0.905627,131.29257,-148,53470,25.0324,16493,316
4.33444,150.64629,-147,53471,24.9328,16493,316
2.25668,255.80824,-146,53472,24.9328,16493,316
0.59402,327.98239,-145,53473,25.0324,16495,366
0.436732,270.05336,-144,53474,25.0324,16495,366
0.690534,204.89803,-143,53475,24.9328,16495,366
0.458048,229.89444,-142,53476,24.9328,16495,366
0.799351,315.66526,-141,53477,24.883,16495,366
1.63993,380.20437,-140,53478,25.0324,16495,366
1.70829,356.5836,-139,53479,25.0324,16495,366
0.425674,289.46465,-138,53480,24.9328,16495,366
1.89614,257.02008,-137,53481,24.9328,16495,366
1.43857,260.33274,-136,53482,24.883,16495,366
2.16392,273.2007,-135,53483,24.883,16476,278
2.43358,287.26843,-134,53484,24.7337,16476,278
2.08994,295.03725,-133,53485,25.0821,16476,278
2.09677,298.93552,-132,53486,24.9328,16476,278
1.34255,301.69897,-131,53487,24.9328,16476,278
2.09222,297.17485,-130,53488,24.7337,16476,278
2.27352,281.74436,-129,53489,24.883,16476,278
3.40259,260.25033,-128,53490,24.883,16476,278
2.51643,239.41773,-127,53491,24.9328,16476,278
2.31715,217.63579,-126,53492,24.6839,16476,278
1.36019,199.04372,-125,53493,24.7337,16455,322
2.05078,185.44128,-124,53494,25.0324,16455,322
2.03444,180.60182,-123,53495,24.9328,16455,322
1.31383,183.03034,-122,53496,24.8332,16455,322
2.23759,189.78495,-121,53497,24.883,16455,322
2.2819,198.23715,-120,53498,24.883,16455,322
2.53342,203.95922,-119,53499,24.6839,16455,322
2.04146,206.13581,-118,53500,24.6839,16455,322
1.58673,209.55775,-117,53501,24.8332,16455,322
1.86572,218.05124,-116,53502,25.0324,16455,322
0.78733,231.87531,-115,53503,24.9328,16440,352
1.3029,244.95001,-114,53504,25.1319,16440,352
0.926449,251.52851,-113,53505,25.0324,16440,352
1.09619,253.05341,-112,53506,24.7337,16440,352
1.69708,252.33375,-111,53507,25.0324,16440,352
2.05078,250.09326,-110,53508,24.9328,16440,352
1.64863,245.88955,-109,53509,24.883,16440,352
1.74966,240.30179,-108,53510,24.883,16440,352
2.44531,235.39455,-107,53511,24.7337,16440,352
1.43525,232.91393,-106,53512,24.8332,16440,352
1.96287,231.12192,-105,53513,25.0324,16443,294
2.24822,228.76019,-104,53514,25.0821,16443,294
1.67446,226.69709,-103,53515,24.9328,16443,294
2.81853,224.41199,-102,53516,24.883,16443,294
1.12623,222.3139,-101,53517,24.9328,16443,294
2.21832,222.34463,-100,53518,24.9328,16443,294
1.97739,221.54299,-99,53519,24.9328,16443,294
1.98701,219.08309,-98,53520,24.9328,16443,294
2.48016,217.55855,-97,53521,24.9328,16443,294
2.0739,217.87349,-96,53522,24.6839,16443,294
2.54282,218.94685,-95,53523,25.0324,16436,321
1.98701,217.29469,-94,53524,25.0324,16436,321
2.29024,214.06006,-93,53525,24.8332,16436,321
2.15287,211.25808,-92,53526,24.883,16436,321
2.84547,210.1569,-91,53527,24.8332,16436,321
2.77763,208.43759,-90,53528,24.7337,16436,321
2.48208,206.92344,-89,53529,24.7337,16436,321
2.48016,205.55086,-88,53530,24.8332,16436,321
2.96367,203.41522,-87,53531,24.9328,16436,321
2.62948,202.84534,-86,53532,24.8332,16436,321
2.24822,203.47613,-85,53533,24.6839,16432,314
2.77763,204.07137,-84,53534,24.9328,16432,314
1.97256,203.98482,-83,53535,24.883,16432,314
2.36401,203.61507,-82,53536,24.883,16432,314
2.4974,203.07397,-81,53537,24.8332,16432,314
2.77247,202.89103,-80,53538,24.9328,16432,314
1.13045,202.99812,-79,53539,24.9328,16432,314
2.56336,203.06557,-78,53540,25.0324,16432,314
1.95556,202.5209,-77,53541,24.6839,16432,314
2.80496,202.14729,-76,53542,25.0324,16432,314
1.65728,202.19767,-75,53543,24.7337,16433,302
2.8986,203.07837,-74,53544,24.883,16433,302
2.14399,204.54333,-73,53545,24.8332,16433,302
2.30477,206.54676,-72,53546,24.8332,16433,302
1.31745,209.11443,-71,53547,25.0324,16433,302
2.05543,211.76483,-70,53548,24.8332,16433,302
2.21832,214.99687,-69,53549,24.883,16433,302
1.93842,218.41231,-68,53550,25.0324,16433,302
1.31745,221.37232,-67,53551,24.7337,16433,302
2.1771,224.93958,-66,53552,24.883,16433,302
2.50313,228.94732,-65,53553,24.9328,16436,333
2.46473,233.86423,-64,53554,25.0324,16436,333
3.03521,238.63026,-63,53555,24.883,16436,333
3.04305,242.46452,-62,53556,24.9328,16436,333
2.67264,245.51284,-61,53557,24.7337,16436,333
2.46667,249.63812,-60,53558,25.0324,16436,333
2.50313,256.35873,-59,53559,25.0324,16436,333
1.58973,264.21865,-58,53560,25.1319,16436,333
1.9798,270.81683,-57,53561,24.9328,16436,333
2.02269,275.87958,-56,53562,24.9328,16436,333
1.76323,280.30366,-55,53563,24.9328,16434,282
1.90867,286.12789,-54,53564,24.8332,16434,282
2.08765,293.81657,-53,53565,24.883,16434,282
2.23118,303.08242,-52,53566,24.883,16434,282
2.87382,314.26276,-51,53567,24.7337,16434,282
2.99568,324.4915,-50,53568,24.7337,16434,282
2.51073,331.3881,-49,53569,24.9328,16434,282
2.0693,337.74453,-48,53570,24.7337,16434,282
1.0381,345.19017,-47,53571,25.0324,16434,282
2.71161,352.6606,-46,53572,24.883,16434,282
2.80666,359.83191,-45,53573,25.1319,16434,282
1.54408,368.22513,-44,53574,24.9328,16434,282
2.10585,377.40354,-43,53575,25.0324,16434,282
2.51073,385.45036,-42,53576,25.0324,16434,282
2.36199,394.12442,-41,53577,24.9328,16434,282
1.21581,403.3548,-40,53578,24.8332,16434,282
1.53789,411.38224,-39,53579,24.883,16434,282
1.69708,418.14672,-38,53580,24.8332,16434,282
1.96287,426.88259,-37,53581,24.8332,16434,282
1.74966,435.67033,-36,53582,24.9328,16434,282
3.34606,443.42217,-35,53583,24.9328,16430,339
1.48103,450.58003,-34,53584,25.0324,16430,339
2.05543,456.39119,-33,53585,24.9328,16430,339
2.79304,462.86136,-32,53586,24.8332,16430,339
1.92608,470.62184,-31,53587,24.7337,16430,339
2.28399,477.87233,-30,53588,25.0324,16430,339
0.840071,483.90732,-29,53589,24.9328,16430,339
1.63702,488.70497,-28,53590,24.9328,16430,339
1.73872,493.00278,-27,53591,24.8332,16430,339
1.6165,498.52371,-26,53592,25.0324,16430,339
2.49167,505.26967,-25,53593,24.7337,16437,294
1.57769,510.54003,-24,53594,24.8332,16437,294
1.23912,513.79499,-23,53595,24.8332,16437,294
1.87846,516.86067,-22,53596,24.7337,16437,294
1.958,521.55144,-21,53597,24.5843,16437,294
1.49385,526.26066,-20,53598,25.0324,16437,294
1.05631,529.20828,-19,53599,24.9328,16437,294
1.62239,529.74905,-18,53600,24.883,16437,294
1.80598,529.13252,-17,53601,24.7337,16437,294
0.750112,529.29579,-16,53602,24.9328,16437,294
2.39407,529.75056,-15,53603,24.9328,16447,299
1.79273,530.02726,-14,53604,24.883,16447,299
1.53168,530.02216,-13,53605,24.6839,16447,299
2.36199,529.68482,-12,53606,24.9328,16447,299
2.30477,528.74436,-11,53607,24.8332,16447,299
1.25821,528.9696,-10,53608,24.5345,16447,299
2.2819,530.26755,-9,53609,25.0324,16447,299
2.59479,531.6869,-8,53610,24.8332,16447,299
2.28816,531.75994,-7,53611,24.883,16447,299
1.60168,530.37927,-6,53612,24.9328,16447,299
1.83479,528.74843,-5,53613,24.8332,16475,363
1.4681,527.293,-4,53614,24.883,16475,363
1.86827,525.97333,-3,53615,24.9328,16475,363
2.03912,523.63198,-2,53616,24.8332,16475,363
5.66154,508.37742,-1,53617,24.883,16475,363
18.4475,410.4449,0,53618,24.8332,16475,363
9.43432,498.20144,1,53619,24.8332,16475,363
3.05868,701.15701,2,53620,25.0324,16475,363
2.39208,590.73381,3,53621,24.883,16475,363
1.68298,331.68321,4,53622,24.8332,16475,363
1.97498,241.90286,5,53623,24.5345,16513,314
1.22752,334.42674,6,53624,24.7337,16513,314
1.88606,460.68104,7,53625,25.0821,16513,314
2.10585,459.42472,8,53626,24.883,16513,314
1.76052,339.97706,9,53627,24.7337,16513,314
2.12837,249.44826,10,53628,24.9328,16513,314
1.90617,254.42042,11,53629,24.8332,16513,314
2.18366,270.35477,12,53630,24.9328,16513,314
1.76323,301.94249,13,53631,24.883,16513,314
0.717624,335.35268,14,53632,25.1319,16513,314
1.07865,336.36186,15,53633,24.883,16483,264
1.10916,322.11527,16,53634,24.9328,16483,264
1.49066,310.65069,17,53635,25.0324,16483,264
0.308816,306.54792,18,53636,24.8332,16483,264
1.09183,314.57131,19,53637,24.9328,16483,264
1.23912,328.52623,20,53638,24.883,16483,264
1.30655,336.3437,21,53639,24.883,16483,264
1.09619,335.94098,22,53640,24.8332,16483,264
1.98461,337.48026,23,53641,24.883,16483,264
1.28817,354.10687,24,53642,25.0324,16483,264
0.601994,386.83491,25,53643,24.9328,16456,333
1.02423,423.78532,26,53644,24.7337,16456,333
1.62239,450.94218,27,53645,24.9328,16456,333
0.811194,461.90792,28,53646,24.883,16456,333
0.717624,460.80668,29,53647,24.7337,16456,333
1.56859,453.95632,30,53648,24.883,16456,333
0.737289,442.38532,31,53649,24.883,16456,333
1.73047,424.46419,32,53650,24.7337,16456,333
2.03209,401.47447,33,53651,24.9328,16456,333
1.4118,377.08351,34,53652,24.883,16456,333
1.10916,356.28627,35,53653,24.9328,16431,347
0.793363,341.55232,36,53654,25.1319,16431,347
1.33185,332.89682,37,53655,24.883,16431,347
1.32827,327.68697,38,53656,24.8332,16431,347
1.45505,322.42079,39,53657,24.8332,16431,347
1.45505,316.8326,40,53658,24.7337,16431,347
1.32827,311.08893,41,53659,24.9328,16431,347
1.36019,306.18782,42,53660,24.8332,16431,347
1.45176,302.49078,43,53661,24.883,16431,347
0.85693,298.69191,44,53662,24.8332,16431,347
1.61355,293.09664,45,53663,24.7337,16426,353
2.23759,287.5219,46,53664,24.9328,16426,353
1.77938,284.58465,47,53665,24.5843,16426,353
1.73047,284.91844,48,53666,24.883,16426,353
1.21581,287.12578,49,53667,24.7337,16426,353
1.45505,289.09162,50,53668,24.7337,16426,353
1.34255,290.10679,51,53669,24.883,16426,353
1.04268,288.92787,52,53670,25.0324,16426,353
1.00543,284.85818,53,53671,24.9328,16426,353
0.921287,278.86452,54,53672,24.7337,16426,353
1.09183,271.60123,55,53673,24.8332,16425,306
0.921287,263.57287,56,53674,24.7337,16425,306
1.71108,255.65091,57,53675,24.883,16425,306
2.27352,247.89478,58,53676,25.0324,16425,306
1.08306,239.8859,59,53677,24.9328,16425,306
0.971667,232.81279,60,53678,24.9328,16425,306
1.39139,227.27991,61,53679,24.9328,16425,306
0.834375,222.63798,62,53680,24.9328,16425,306
1.1472,217.57632,63,53681,25.0324,16425,306
1.1596,212.76453,64,53682,25.0324,16425,306
1.86572,208.72403,65,53683,24.9328,16418,353
1.01956,204.34913,66,53684,24.5843,16418,353
1.39139,199.94856,67,53685,24.9328,16418,353
1.17594,195.80097,68,53686,25.0324,16418,353
1.17188,192.89605,69,53687,24.883,16418,353
1.22363,191.73753,70,53688,24.9328,16418,353
1.69427,190.60117,71,53689,24.883,16418,353
1.28447,188.82234,72,53690,24.9328,16418,353
1.06977,187.27714,73,53691,24.8332,16418,353
1.34255,186.21069,74,53692,24.7337,16418,353
0.981433,185.95063,75,53693,24.9328,16420,400
1.69427,185.96502,76,53694,25.0324,16420,400
1.78473,184.96992,77,53695,24.883,16420,400
1.61355,183.45105,78,53696,25.0324,16420,400
1.3029,182.75039,79,53697,25.0324,16420,400
1.44518,183.24807,80,53698,24.883,16420,400
1.00543,184.37164,81,53699,24.8332,16420,400
1.3637,185.57727,82,53700,24.9328,16420,400
1.70829,186.64124,83,53701,24.9328,16420,400
1.54099,187.11436,84,53702,25.0324,16420,400
1.3029,187.05195,85,53703,24.9328,16427,285
1.43857,186.30773,86,53704,24.9328,16427,285
1.55332,185.4647,87,53705,24.7337,16427,285
1.36019,185.624,88,53706,24.8332,16427,285
1.60168,186.25854,89,53707,24.883,16427,285
0.601994,186.36495,90,53708,24.883,16427,285
1.22752,185.85429,91,53709,25.0821,16427,285
0.625305,185.05143,92,53710,24.883,16427,285
1.01487,184.50305,93,53711,24.9328,16427,285
1.20399,184.23464,94,53712,24.6839,16427,285
0.862477,184.39399,95,53713,24.883,16423,264
1.9798,184.24248,96,53714,25.0324,16423,264
1.24296,183.68702,97,53715,24.9328,16423,264
1.44518,182.91571,98,53716,24.8332,16423,264
1.48103,182.09278,99,53717,25.0324,16423,264
1.01956,182.04793,100,53718,24.6839,16423,264
