Linear acceleration,Rotational velocity,Time values,Absolute time values,Temperature,Ambient light,Reflected light
1.54099,3.1097996,-2000,51449,24.7337,17183,289
1.57769,3.197217,-1999,51450,24.8332,17183,289
1.96287,3.197217,-1998,51451,24.8332,17183,289
0.931581,3.0444248,-1997,51452,24.8332,17183,289
1.66303,3.3184271,-1996,51453,24.9328,17180,329
1.68298,3.0541982,-1995,51454,24.7337,17180,329
2.17052,2.7702162,-1994,51455,24.9328,17180,329
1.28447,2.7621359,-1993,51456,24.883,17180,329
1.46484,3.0321637,-1992,51457,25.0324,17180,329
2.25668,3.0346198,-1991,51458,24.9328,17180,329
1.33185,2.9575296,-1990,51459,24.9328,17180,329
1.11773,3.0173845,-1989,51460,24.5843,17180,329
2.1771,3.2503728,-1988,51461,24.9328,17180,329
1.4118,3.2503728,-1987,51462,24.6839,17180,329
3.27695,3.187882,-1986,51463,24.8332,17178,316
1.94088,3.1714798,-1985,51464,24.6839,17178,316
1.28447,3.2227487,-1984,51465,24.883,17178,316
1.66016,3.378504,-1983,51466,24.9328,17178,316
2.47246,3.1097996,-1982,51467,24.7337,17178,316
2.51263,2.8628026,-1981,51468,24.883,17178,316
1.4219,2.8601989,-1980,51469,24.9328,17178,316
1.71386,2.8628026,-1979,51470,25.0324,17178,316
2.29024,2.7675254,-1978,51471,24.9328,17178,316
0.895034,3.1145876,-1977,51472,24.8332,17178,316
1.71664,3.1145876,-1976,51473,24.8332,17172,271
2.0156,3.231983,-1975,51474,24.7337,17172,271
1.83479,3.3851134,-1974,51475,24.7337,17172,271
2.3539,3.0346198,-1973,51476,24.8332,17172,271
1.56859,2.8912889,-1972,51477,24.7337,17172,271
2.11037,2.9143888,-1971,51478,24.883,17172,271
2.22905,3.2250598,-1970,51479,24.883,17172,271
1.52856,3.4288506,-1969,51480,24.883,17172,271
1.22752,3.3541581,-1968,51481,24.9328,17172,271
1.55332,3.3541581,-1967,51482,24.8332,17172,271
2.21187,3.2250598,-1966,51483,24.8332,17174,271
2.09904,3.1289076,-1965,51484,24.883,17174,271
2.45115,3.1217558,-1964,51485,24.8332,17174,271
1.57769,3.197217,-1963,51486,24.883,17174,271
1.44188,3.0321637,-1962,51487,24.8332,17174,271
1.66016,2.8601989,-1961,51488,24.8332,17174,271
1.92608,2.8628026,-1960,51489,24.9328,17174,271
1.37415,2.9347694,-1959,51490,24.9328,17174,271
1.67446,2.8497601,-1958,51491,25.0324,17174,271
1.4219,3.1121945,-1957,51492,24.8332,17174,271
1.25061,3.2526642,-1956,51493,24.7337,17174,311
1.84257,3.0025327,-1955,51494,24.7337,17174,311
1.97498,3.2250598,-1954,51495,24.6839,17174,311
2.0716,3.2526642,-1953,51496,24.9328,17174,311
1.39139,3.4004854,-1952,51497,24.5345,17174,311
2.08994,3.4998221,-1951,51498,24.883,17174,311
2.32332,3.456983,-1950,51499,24.883,17174,311
1.32827,3.2250598,-1949,51500,24.7337,17174,311
1.37067,2.9398424,-1948,51501,24.9328,17174,311
2.3539,2.9347694,-1947,51502,24.883,17174,311
1.67446,3.0247831,-1946,51503,24.6839,17178,312
2.01324,3.0321637,-1945,51504,24.7337,17178,312
2.15951,2.9398424,-1944,51505,24.883,17178,312
1.79539,2.9423757,-1943,51506,24.8332,17178,312
1.99897,3.0223189,-1942,51507,24.8332,17178,312
1.66589,3.1074028,-1941,51508,24.8332,17178,312
2.50883,3.1074028,-1940,51509,24.8332,17178,312
1.20794,3.378504,-1939,51510,24.883,17178,312
1.48103,3.4223256,-1938,51511,25.0324,17178,312
2.50313,3.3519361,-1937,51512,24.883,17178,312
1.75781,3.0833327,-1936,51513,24.8332,17177,288
1.87592,2.9143888,-1935,51514,24.8332,17177,288
1.89865,2.9143888,-1934,51515,24.9328,17177,288
1.94579,3.4223256,-1933,51516,24.7337,17177,288
2.51263,3.3004165,-1932,51517,24.7337,17177,288
1.04725,3.1336664,-1931,51518,24.9328,17177,288
1.40163,3.1074028,-1930,51519,24.9328,17177,288
1.58673,3.0615079,-1929,51520,24.8332,17177,288
1.33185,3.3206715,-1928,51521,24.9328,17177,288
1.83998,3.231983,-1927,51522,24.7337,17177,288
2.15287,3.1597117,-1926,51523,25.0821,17176,274
0.560992,3.0541982,-1925,51524,24.8332,17176,274
1.58673,2.9499624,-1924,51525,24.8332,17176,274
1.06082,2.7675254,-1923,51526,24.6839,17176,274
1.89865,2.8809628,-1922,51527,24.6839,17176,274
1.45176,3.2868438,-1921,51528,24.883,17176,274
2.26301,3.3873137,-1920,51529,25.0324,17176,274
1.83998,3.2845762,-1919,51530,25.0324,17176,274
1.98461,3.2958984,-1918,51531,24.883,17176,274
1.74146,3.456983,-1917,51532,24.7337,17176,274
1.43857,3.3519361,-1916,51533,24.9328,17179,322
1.24296,3.2134879,-1915,51534,24.7337,17179,322
1.62826,3.2042004,-1914,51535,24.7337,17179,322
1.89865,3.376298,-1913,51536,24.7337,17179,322
2.08079,3.456983,-1912,51537,24.7337,17179,322
2.32946,3.3696713,-1911,51538,24.883,17179,322
2.05543,2.9499624,-1910,51539,24.7337,17179,322
1.74693,2.8208545,-1909,51540,24.9328,17179,322
1.48103,2.9575296,-1908,51541,24.9328,17179,322
1.45505,2.8523734,-1907,51542,24.883,17179,322
1.83998,2.8601989,-1906,51543,24.8332,17178,318
1.74146,2.9575296,-1905,51544,25.0324,17178,318
1.86572,2.7836314,-1904,51545,24.883,17178,318
1.85804,2.9826152,-1903,51546,24.7337,17178,318
0.905627,3.0517578,-1902,51547,24.7337,17178,318
1.88353,3.0541982,-1901,51548,24.8332,17178,318
1.76323,3.1832043,-1900,51549,24.8332,17178,318
1.70549,3.456983,-1899,51550,24.8332,17178,318
2.02504,3.5610235,-1898,51551,24.883,17178,318
0.851347,3.1526298,-1897,51552,24.883,17178,318
1.27702,3.1289076,-1896,51553,24.6839,17176,277
1.77132,3.0223189,-1895,51554,24.883,17176,277
1.1596,3.1121945,-1894,51555,25.0324,17176,277
1.58973,3.0247831,-1893,51556,24.7337,17176,277
1.77938,2.9398424,-1892,51557,25.0324,17176,277
1.86572,2.9347694,-1891,51558,24.9328,17176,277
2.40797,2.7675254,-1890,51559,24.8332,17176,277
1.69427,2.9423757,-1889,51560,24.8332,17176,277
1.21581,3.197217,-1888,51561,24.9328,17176,277
1.62826,3.0247831,-1887,51562,24.8332,17176,277
2.24822,3.1121945,-1886,51563,24.6839,17179,286
1.45176,2.9575296,-1885,51564,24.7337,17179,286
2.77247,2.9650776,-1884,51565,25.0324,17179,286
1.3029,2.9575296,-1883,51566,24.9328,17179,286
1.88099,3.1360431,-1882,51567,24.5843,17179,286
1.76323,3.231983,-1881,51568,25.0324,17179,286
1.31383,3.3229145,-1880,51569,24.9328,17179,286
1.64283,3.2891098,-1879,51570,24.8332,17179,286
1.54717,3.185544,-1878,51571,24.7337,17179,286
1.90617,3.0517578,-1877,51572,24.9328,17179,286
1.31383,3.0321637,-1876,51573,25.0324,17180,310
1.79804,3.0517578,-1875,51574,24.883,17180,310
2.09904,3.0615079,-1874,51575,24.8332,17180,310
2.13508,3.1097996,-1873,51576,24.7337,17180,310
1.93596,3.2868438,-1872,51577,24.7337,17180,310
2.20323,3.197217,-1871,51578,24.9328,17180,310
1.20794,2.9625637,-1870,51579,24.8332,17180,310
2.15951,2.9625637,-1869,51580,24.9328,17180,310
1.40163,3.2065248,-1868,51581,25.0324,17180,310
1.83739,3.2845762,-1867,51582,24.9328,17180,310
2.19672,3.3004165,-1866,51583,24.9328,17178,274
1.90617,3.4223256,-1865,51584,24.883,17178,274
2.51832,3.4548271,-1864,51585,24.9328,17178,274
2.1771,3.1526298,-1863,51586,24.8332,17178,274
0.931581,3.1597117,-1862,51587,25.0324,17178,274
2.20323,3.3296342,-1861,51588,24.8332,17178,274
2.30684,3.0541982,-1860,51589,25.0324,17178,274
1.58673,3.1455319,-1859,51590,24.7337,17178,274
1.85547,3.0321637,-1858,51591,24.8332,17178,274
2.38409,3.2250598,-1857,51592,24.8332,17178,274
1.96287,3.1289076,-1856,51593,25.0324,17182,284
1.92112,3.0346198,-1855,51594,24.7337,17182,284
2.9443,2.9550094,-1854,51595,24.883,17182,284
2.27143,2.8628026,-1853,51596,24.9328,17182,284
1.49385,2.937307,-1852,51597,24.7337,17182,284
1.61355,3.1169788,-1851,51598,24.6839,17182,284
1.58673,3.1217558,-1850,51599,24.9328,17182,284
2.0716,3.231983,-1849,51600,24.6839,17182,284
1.86827,3.0419765,-1848,51601,24.7337,17182,284
2.25034,2.9423757,-1847,51602,24.883,17182,284
1.51603,3.0321637,-1846,51603,24.6839,17178,309
1.88099,3.0321637,-1845,51604,24.7337,17178,309
1.93596,2.9398424,-1844,51605,25.0324,17178,309
2.49549,3.1502656,-1843,51606,24.7337,17178,309
2.44141,3.2868438,-1842,51607,24.883,17178,309
2.50313,3.3519361,-1841,51608,24.7337,17178,309
2.41588,3.2595288,-1840,51609,24.9328,17178,309
2.03209,3.1336664,-1839,51610,25.0324,17178,309
2.06237,2.9575296,-1838,51611,24.8332,17178,309
2.53154,2.8731939,-1837,51612,24.9328,17178,309
1.75781,3.0321637,-1836,51613,25.0324,17185,325
1.71108,3.2845762,-1835,51614,24.8332,17185,325
1.40163,3.1097996,-1834,51615,25.0324,17185,325
2.22905,3.197217,-1833,51616,24.9328,17185,325
2.09222,3.1097996,-1832,51617,24.9328,17185,325
1.53168,2.9398424,-1831,51618,24.883,17185,325
2.54094,3.0223189,-1830,51619,24.9328,17185,325
1.27702,3.197217,-1829,51620,24.9328,17185,325
1.69146,3.3408038,-1828,51621,24.883,17185,325
1.38796,3.185544,-1827,51622,24.7337,17185,325
2.25034,3.0809154,-1826,51623,24.883,17181,290
1.20399,3.2065248,-1825,51624,24.9328,17181,290
1.59273,3.3004165,-1824,51625,24.9328,17181,290
2.55777,3.4223256,-1823,51626,24.7337,17181,290
1.58973,3.3608154,-1822,51627,24.8332,17181,290
1.70829,3.3004165,-1821,51628,24.9328,17181,290
2.48784,3.2845762,-1820,51629,24.8332,17181,290
2.38009,2.9423757,-1819,51630,24.9328,17181,290
1.26953,2.8523734,-1818,51631,25.0324,17181,290
2.59295,3.0247831,-1817,51632,24.8332,17181,290
2.52021,3.1948858,-1816,51633,24.883,17180,259
2.4974,3.2042004,-1815,51634,24.8332,17180,259
1.73047,3.0419765,-1814,51635,25.2813,17180,259
2.14399,2.9499624,-1813,51636,24.9328,17180,259
1.23912,3.0346198,-1812,51637,24.883,17180,259
2.36401,3.3206715,-1811,51638,24.7337,17180,259
1.97256,3.2503728,-1810,51639,24.883,17180,259
1.69427,3.3408038,-1809,51640,24.8332,17180,259
1.28447,3.2434888,-1808,51641,24.8332,17180,259
2.22047,3.4223256,-1807,51642,24.7337,17180,259
3.43606,3.2273692,-1806,51643,24.7337,17179,322
1.37067,3.0809154,-1805,51644,24.9328,17179,322
2.45892,3.2042004,-1804,51645,24.8332,17179,322
1.57769,3.2800363,-1803,51646,24.6839,17179,322
1.97739,3.2936371,-1802,51647,24.7337,17179,322
1.93842,3.2134879,-1801,51648,24.7337,17179,322
2.0785,2.7863067,-1800,51649,24.7337,17179,322
1.63702,2.7350289,-1799,51650,24.9328,17179,322
1.17998,2.8261321,-1798,51651,25.0324,17179,322
2.0156,3.0223189,-1797,51652,24.883,17179,322
1.66875,3.1217558,-1796,51653,24.9328,17170,283
1.49385,3.0223189,-1795,51654,24.7337,17170,283
1.46484,3.1265255,-1794,51655,24.7337,17170,283
1.67446,3.1193682,-1793,51656,24.6839,17170,283
1.51917,3.1761748,-1792,51657,24.9328,17170,283
1.6165,3.3341065,-1791,51658,25.0324,17170,283
1.76323,3.4418633,-1790,51659,24.7337,17170,283
1.23912,3.4998221,-1789,51660,24.8332,17170,283
1.66303,3.185544,-1788,51661,24.6839,17170,283
1.98701,3.0517578,-1787,51662,24.7337,17170,283
1.28447,3.1336664,-1786,51663,24.8332,17181,273
1.52856,2.9423757,-1785,51664,24.9328,17181,273
1.81125,3.1948858,-1784,51665,24.883,17181,273
2.08537,3.2845762,-1783,51666,25.0324,17181,273
2.37809,3.1121945,-1782,51667,24.7337,17181,273
1.67446,3.0247831,-1781,51668,25.0324,17181,273
1.39139,2.9041448,-1780,51669,24.7337,17181,273
1.19205,2.7350289,-1779,51670,24.883,17181,273
2.34782,2.6910898,-1778,51671,24.6839,17181,273
1.67446,2.9423757,-1777,51672,24.8332,17181,273
1.65152,2.8628026,-1776,51673,24.9328,17181,311
1.63702,3.1289076,-1775,51674,24.883,17181,311
2.28607,3.1526298,-1774,51675,24.883,17181,311
1.80334,3.4004854,-1773,51676,24.7337,17181,311
1.32827,3.3608154,-1772,51677,24.7337,17181,311
1.8529,3.1526298,-1771,51678,24.9328,17181,311
1.36019,3.2526642,-1770,51679,24.7337,17181,311
1.37067,3.1526298,-1769,51680,24.9328,17181,311
2.32946,3.2250598,-1768,51681,24.883,17181,311
2.2819,3.1289076,-1767,51682,24.7337,17181,311
1.94333,3.1948858,-1766,51683,24.8332,17184,311
2.51643,3.3961005,-1765,51684,24.9328,17184,311
2.00136,3.2800363,-1764,51685,24.9328,17184,311
1.53168,2.937307,-1763,51686,24.7337,17184,311
1.83739,2.8523734,-1762,51687,24.8332,17184,311
2.30477,2.8523734,-1761,51688,24.7337,17184,311
1.23912,3.0223189,-1760,51689,24.883,17184,311
2.01087,3.0223189,-1759,51690,24.9328,17184,311
2.18584,3.0541982,-1758,51691,24.883,17184,311
0.534885,3.1478996,-1757,51692,24.883,17184,311
1.98701,3.3961005,-1756,51693,24.8332,17184,311
1.31745,3.2868438,-1755,51694,24.883,17184,311
1.73047,3.3408038,-1754,51695,24.9328,17184,311
2.44921,3.2250598,-1753,51696,24.7337,17184,311
1.81388,3.0517578,-1752,51697,24.7337,17184,311
1.68014,3.0517578,-1751,51698,24.6839,17184,311
1.47134,3.2042004,-1750,51699,24.9328,17184,311
2.7028,3.1074028,-1749,51700,24.6839,17184,311
1.42859,3.0247831,-1748,51701,24.8332,17184,311
2.04146,2.9423757,-1747,51702,24.883,17184,311
1.59273,2.7621359,-1746,51703,24.883,17173,294
1.19205,2.8628026,-1745,51704,25.0324,17173,294
1.76052,3.2891098,-1744,51705,24.883,17173,294
0.845728,3.1169788,-1743,51706,24.9328,17173,294
1.51917,2.9398424,-1742,51707,24.8332,17173,294
1.99897,3.1074028,-1741,51708,24.883,17173,294
1.12198,3.2868438,-1740,51709,24.8332,17173,294
2.0693,3.2434888,-1739,51710,24.7337,17173,294
2.02504,3.1360431,-1738,51711,24.883,17173,294
1.09183,3.231983,-1737,51712,24.883,17173,294
2.23118,3.1360431,-1736,51713,24.7337,17179,287
1.98701,3.1289076,-1735,51714,24.9328,17179,287
1.93596,3.2434888,-1734,51715,24.9328,17179,287
1.83479,3.3296342,-1733,51716,24.7337,17179,287
2.3539,3.1265255,-1732,51717,24.9328,17179,287
3.23005,3.0346198,-1731,51718,24.8332,17179,287
0.995902,3.2134879,-1730,51719,24.7337,17179,287
1.27328,3.1074028,-1729,51720,24.7337,17179,287
2.11714,3.1097996,-1728,51721,24.883,17179,287
2.08994,2.9499624,-1727,51722,24.8332,17179,287
2.43358,2.8731939,-1726,51723,24.9328,17181,296
2.50693,2.8523734,-1725,51724,24.7337,17181,296
2.06237,2.9398424,-1724,51725,24.8332,17181,296
1.66875,3.2042004,-1723,51726,24.8332,17181,296
2.41983,3.0247831,-1722,51727,24.8332,17181,296
2.71688,2.7702162,-1721,51728,24.7337,17181,296
2.15066,2.7702162,-1720,51729,24.9328,17181,296
2.16832,2.9550094,-1719,51730,24.7337,17181,296
2.31303,3.1502656,-1718,51731,24.7337,17181,296
1.10916,3.3541581,-1717,51732,25.0324,17181,296
1.78206,3.4548271,-1716,51733,25.0324,17174,280
1.81651,3.5231615,-1715,51734,24.7337,17174,280
1.80334,3.3519361,-1714,51735,24.883,17174,280
1.69427,3.1597117,-1713,51736,24.7337,17174,280
1.87846,2.9625637,-1712,51737,24.883,17174,280
1.79804,2.9499624,-1711,51738,24.8332,17174,280
1.11773,3.2042004,-1710,51739,24.9328,17174,280
1.39139,3.2042004,-1709,51740,24.8332,17174,280
1.88099,3.1145876,-1708,51741,24.7337,17174,280
1.61355,3.2065248,-1707,51742,24.8332,17174,280
0.878906,3.2042004,-1706,51743,25.0324,17178,281
1.34255,3.2158056,-1705,51744,24.9328,17178,281
2.40401,3.0321637,-1704,51745,24.8332,17178,281
2.915,3.0223189,-1703,51746,24.8332,17178,281
2.32332,3.1360431,-1702,51747,24.8332,17178,281
1.58673,3.0541982,-1701,51748,25.0324,17178,281
2.22905,3.3229145,-1700,51749,24.8332,17178,281
1.48103,3.3229145,-1699,51750,24.8332,17178,281
2.45698,3.1597117,-1698,51751,24.8332,17178,281
2.0739,3.185544,-1697,51752,25.0324,17178,281
1.54717,3.0833327,-1696,51753,24.8332,17179,320
1.09619,3.1265255,-1695,51754,24.9328,17179,320
1.14304,3.2981582,-1694,51755,24.9328,17179,320
1.93596,3.2042004,-1693,51756,24.883,17179,320
1.61945,3.0321637,-1692,51757,24.8332,17179,320
1.76323,2.9449068,-1691,51758,24.883,17179,320
1.22752,3.0419765,-1690,51759,25.0324,17179,320
2.0693,3.0419765,-1689,51760,25.0324,17179,320
1.31383,3.0247831,-1688,51761,24.8332,17179,320
1.78206,3.0223189,-1687,51762,24.883,17179,320
1.93596,2.937307,-1686,51763,25.0821,17179,311
1.45176,3.1121945,-1685,51764,25.1319,17179,311
1.90867,3.1360431,-1684,51765,24.883,17179,311
1.68863,2.9550094,-1683,51766,25.0324,17179,311
1.09183,3.0541982,-1682,51767,24.9328,17179,311
2.54282,3.2709377,-1681,51768,24.8332,17179,311
1.80069,3.0541982,-1680,51769,24.883,17179,311
1.99897,3.1360431,-1679,51770,25.0821,17179,311
2.13954,3.0541982,-1678,51771,24.883,17179,311
1.40163,3.2227487,-1677,51772,24.7337,17179,311
2.40203,3.2250598,-1676,51773,24.883,17174,264
1.53168,3.4026757,-1675,51774,24.9328,17174,264
1.46484,3.4720368,-1674,51775,25.1319,17174,264
1.99897,3.2042004,-1673,51776,24.8332,17174,264
1.93596,3.0346198,-1672,51777,24.9328,17174,264
2.47246,2.8523734,-1671,51778,24.9328,17174,264
1.98461,2.6799925,-1670,51779,24.7337,17174,264
1.80334,2.9398424,-1669,51780,25.0821,17174,264
1.34255,2.9398424,-1668,51781,24.9328,17174,264
1.84516,2.8809628,-1667,51782,24.6839,17174,264
1.85804,2.8497601,-1666,51783,24.8332,17178,296
2.41983,2.8628026,-1665,51784,24.8332,17178,296
0.921287,2.9826152,-1664,51785,24.7337,17178,296
2.67443,3.1265255,-1663,51786,24.6839,17178,296
1.60168,2.9575296,-1662,51787,24.9328,17178,296
1.4681,3.1526298,-1661,51788,24.883,17178,296
2.21832,3.5400391,-1660,51789,24.9328,17178,296
1.62826,3.5984871,-1659,51790,24.883,17178,296
3.20038,3.3229145,-1658,51791,25.0324,17178,296
2.22262,3.1714798,-1657,51792,24.8332,17178,296
1.96772,2.8835478,-1656,51793,24.9328,17183,332
1.6341,2.9143888,-1655,51794,24.7337,17183,332
2.64575,3.0541982,-1654,51795,24.8332,17183,332
1.25821,3.0247831,-1653,51796,24.6839,17183,332
2.73786,3.0321637,-1652,51797,25.0324,17183,332
1.93596,3.0247831,-1651,51798,24.7337,17183,332
1.3461,2.7729045,-1650,51799,24.883,17183,332
0.931581,2.8523734,-1649,51800,24.883,17183,332
2.04146,3.0321637,-1648,51801,24.7337,17183,332
1.21581,3.0444248,-1647,51802,24.6839,17183,332
1.97739,3.1145876,-1646,51803,24.5345,17177,264
2.04146,3.2134879,-1645,51804,24.9328,17177,264
2.48016,3.3071819,-1644,51805,24.9328,17177,264
2.58559,3.393906,-1643,51806,24.9328,17177,264
1.92856,3.2250598,-1642,51807,25.0324,17177,264
2.14177,3.2042004,-1641,51808,24.9328,17177,264
1.91864,3.2042004,-1640,51809,24.883,17177,264
2.46473,3.1360431,-1639,51810,24.7337,17177,264
2.25668,3.1526298,-1638,51811,24.883,17177,264
1.64863,3.0223189,-1637,51812,25.0324,17177,264
1.9335,3.1097996,-1636,51813,24.8332,17180,276
1.06082,3.1478996,-1635,51814,24.9328,17180,276
1.66303,3.1597117,-1634,51815,25.0324,17180,276
1.4219,3.0247831,-1633,51816,24.8332,17180,276
1.56555,3.1097996,-1632,51817,24.883,17180,276
2.54844,3.2845762,-1631,51818,24.8332,17180,276
1.9798,3.1289076,-1630,51819,24.8332,17180,276
2.05078,3.1265255,-1629,51820,24.6839,17180,276
1.93596,3.3184271,-1628,51821,24.8332,17180,276
1.36019,3.1360431,-1627,51822,24.9328,17180,276
2.63491,3.0541982,-1626,51823,24.7337,17176,307
1.89614,2.8601989,-1625,51824,24.8332,17176,307
1.53789,2.9650776,-1624,51825,24.883,17176,307
1.38452,3.1360431,-1623,51826,24.9328,17176,307
1.50022,3.1145876,-1622,51827,24.883,17176,307
1.69146,3.1097996,-1621,51828,24.6839,17176,307
1.68298,3.2065248,-1620,51829,24.9328,17176,307
1.60466,3.1145876,-1619,51830,24.9328,17176,307
1.36019,3.1948858,-1618,51831,24.6839,17176,307
2.70985,3.1169788,-1617,51832,24.7337,17176,307
1.66589,3.1145876,-1616,51833,24.9328,17180,321
1.48103,3.2042004,-1615,51834,24.9328,17180,321
1.59273,3.197217,-1614,51835,25.0324,17180,321
1.27328,3.0223189,-1613,51836,24.8332,17180,321
1.90867,2.8601989,-1612,51837,25.0324,17180,321
1.9918,2.9826152,-1611,51838,24.883,17180,321
2.12164,3.2526642,-1610,51839,25.0324,17180,321
1.95556,3.2434888,-1609,51840,24.9328,17180,321
1.51917,2.9575296,-1608,51841,25.0324,17180,321
1.40842,2.7702162,-1607,51842,24.883,17180,321
2.12164,3.0541982,-1606,51843,24.883,17174,282
1.89362,3.4891616,-1605,51844,24.9328,17174,282
1.68863,3.376298,-1604,51845,24.8332,17174,282
2.09222,3.2845762,-1603,51846,24.7337,17174,282
2.14399,3.0346198,-1602,51847,24.7337,17174,282
1.38452,2.7702162,-1601,51848,24.9328,17174,282
2.04146,2.9423757,-1600,51849,24.883,17174,282
2.00612,3.2042004,-1599,51850,24.8332,17174,282
1.57163,3.1265255,-1598,51851,24.8332,17174,282
2.50693,3.2065248,-1597,51852,24.8332,17174,282
1.43857,3.0247831,-1596,51853,24.6839,17175,264
2.17052,3.3674595,-1595,51854,24.8332,17175,264
1.77132,3.197217,-1594,51855,24.883,17175,264
2.23332,3.1145876,-1593,51856,24.7337,17175,264
1.51917,3.1948858,-1592,51857,24.7337,17175,264
1.48103,3.376298,-1591,51858,24.9328,17175,264
1.92608,3.2227487,-1590,51859,25.0821,17175,264
0.845728,3.0517578,-1589,51860,24.6839,17175,264
2.37005,3.0517578,-1588,51861,24.8332,17175,264
1.54099,3.185544,-1587,51862,24.883,17175,264
1.1596,3.0615079,-1586,51863,24.8332,17181,319
1.77132,3.1597117,-1585,51864,24.6839,17181,319
1.82437,3.1502656,-1584,51865,24.883,17181,319
2.9717,2.8835478,-1583,51866,24.9328,17181,319
2.0762,3.0321637,-1582,51867,24.9328,17181,319
2.20539,3.2042004,-1581,51868,24.8332,17181,319
1.34255,2.9398424,-1580,51869,24.9328,17181,319
1.15135,2.9347694,-1579,51870,24.8332,17181,319
1.95556,3.0223189,-1578,51871,24.883,17181,319
2.85884,2.9347694,-1577,51872,24.6839,17181,319
0.799351,3.2158056,-1576,51873,25.0324,17181,332
1.84257,3.1145876,-1575,51874,24.8332,17181,332
2.15066,3.2250598,-1574,51875,24.7337,17181,332
1.09619,3.2503728,-1573,51876,24.883,17181,332
2.13284,3.2868438,-1572,51877,24.7337,17181,332
1.5034,3.3004165,-1571,51878,24.883,17181,332
2.31303,3.2250598,-1570,51879,25.0324,17181,332
2.53342,3.3004165,-1569,51880,25.0324,17181,332
1.89865,3.2868438,-1568,51881,25.0324,17181,332
2.06237,3.2981582,-1567,51882,24.7337,17181,332
0.743728,3.1145876,-1566,51883,24.9328,17171,271
1.1472,2.8601989,-1565,51884,25.0324,17171,271
1.91864,2.9347694,-1564,51885,25.0324,17171,271
1.75781,2.937307,-1563,51886,24.8332,17171,271
1.58973,2.9449068,-1562,51887,24.883,17171,271
2.43358,3.2981582,-1561,51888,24.8332,17171,271
2.18366,3.1502656,-1560,51889,24.7337,17171,271
2.16832,2.9650776,-1559,51890,24.9328,17171,271
1.84257,3.0247831,-1558,51891,25.0324,17171,271
1.37415,3.1145876,-1557,51892,24.6839,17171,271
2.1573,3.0419765,-1556,51893,24.6839,17180,314
2.72214,3.0346198,-1555,51894,25.0324,17180,314
2.22905,3.2250598,-1554,51895,24.8332,17180,314
1.5034,3.231983,-1553,51896,24.883,17180,314
1.33185,3.1289076,-1552,51897,24.883,17180,314
1.80334,3.231983,-1551,51898,24.8332,17180,314
2.19889,3.2868438,-1550,51899,24.9328,17180,314
1.73323,3.197217,-1549,51900,24.7337,17180,314
0.905627,3.1121945,-1548,51901,24.5345,17180,314
1.93596,3.0247831,-1547,51902,24.7337,17180,314
1.46484,2.9449068,-1546,51903,24.883,17180,314
1.23912,2.9449068,-1545,51904,24.883,17180,314
2.93294,2.8523734,-1544,51905,24.6839,17180,314
2.04379,3.0321637,-1543,51906,24.8332,17180,314
1.6165,3.0346198,-1542,51907,24.8332,17180,314
2.72914,3.1169788,-1541,51908,24.883,17180,314
1.62826,3.1121945,-1540,51909,24.8332,17180,314
1.9942,3.2526642,-1539,51910,24.883,17180,314
1.77132,3.1217558,-1538,51911,24.7337,17180,314
1.98701,3.0833327,-1537,51912,24.883,17180,314
2.09677,3.1526298,-1536,51913,24.8332,17171,308
2.56336,3.2250598,-1535,51914,24.7337,17171,308
2.33151,3.2891098,-1534,51915,25.0324,17171,308
1.3029,3.2891098,-1533,51916,24.9328,17171,308
1.44518,3.2250598,-1532,51917,25.0324,17171,308
2.71512,2.9398424,-1531,51918,24.9328,17171,308
1.28817,2.9499624,-1530,51919,24.9328,17171,308
2.08079,2.9347694,-1529,51920,24.8332,17171,308
1.80334,3.0419765,-1528,51921,24.883,17171,308
1.88099,3.1360431,-1527,51922,24.8332,17171,308
1.59273,3.1169788,-1526,51923,24.9328,17182,290
2.06237,2.7729045,-1525,51924,24.8332,17182,290
1.37067,2.8705996,-1524,51925,24.9328,17182,290
1.41517,2.9550094,-1523,51926,24.5843,17182,290
2.21832,3.2065248,-1522,51927,24.5843,17182,290
2.30477,3.456983,-1521,51928,24.9328,17182,290
1.3637,3.5672947,-1520,51929,24.883,17182,290
1.62239,3.3608154,-1519,51930,24.883,17182,290
2.0156,3.2595288,-1518,51931,24.7337,17182,290
1.52231,3.1217558,-1517,51932,24.883,17182,290
1.63993,3.0833327,-1516,51933,24.7337,17173,282
1.76323,3.3206715,-1515,51934,25.1319,17173,282
1.74146,3.2065248,-1514,51935,24.9328,17173,282
1.95556,2.8523734,-1513,51936,24.883,17173,282
1.64283,2.5895024,-1512,51937,24.9328,17173,282
2.32332,2.8601989,-1511,51938,24.883,17173,282
2.20323,3.1097996,-1510,51939,24.9328,17173,282
1.27702,3.1145876,-1509,51940,25.0324,17173,282
1.68014,2.9575296,-1508,51941,24.9328,17173,282
2.01324,2.8497601,-1507,51942,24.883,17173,282
1.59273,3.0223189,-1506,51943,25.0324,17175,301
2.84547,3.0346198,-1505,51944,24.9328,17175,301
1.52856,3.2250598,-1504,51945,24.883,17175,301
1.84516,3.4418633,-1503,51946,25.0324,17175,301
1.98461,3.3851134,-1502,51947,24.8332,17175,301
1.43525,3.1691296,-1501,51948,25.0821,17175,301
1.88606,3.3341065,-1500,51949,24.883,17175,301
1.8529,3.3541581,-1499,51950,25.0324,17175,301
2.41391,3.3004165,-1498,51951,25.0324,17175,301
1.18402,3.3696713,-1497,51952,24.9328,17175,301
2.22905,3.2042004,-1496,51953,24.883,17181,318
1.12623,3.197217,-1495,51954,24.883,17181,318
1.98461,2.9575296,-1494,51955,24.8332,17181,318
1.88099,2.9220481,-1493,51956,24.9328,17181,318
2.00612,2.9143888,-1492,51957,24.9328,17181,318
2.55031,2.9575296,-1491,51958,25.0821,17181,318
1.63993,2.7131483,-1490,51959,24.883,17181,318
1.05179,2.7863067,-1489,51960,24.7337,17181,318
2.62221,2.8523734,-1488,51961,24.8332,17181,318
1.52856,3.1265255,-1487,51962,24.9328,17181,318
2.41983,3.3206715,-1486,51963,24.883,17181,290
2.16171,3.4026757,-1485,51964,25.0324,17181,290
1.63993,3.4634426,-1484,51965,24.8332,17181,290
2.30684,3.4048647,-1483,51966,24.8332,17181,290
2.11488,3.6150129,-1482,51967,24.8332,17181,290
1.69708,3.6600743,-1481,51968,24.8332,17181,290
1.57466,3.4998221,-1480,51969,24.6839,17181,290
1.9942,3.2065248,-1479,51970,24.7337,17181,290
1.89614,3.0247831,-1478,51971,24.9328,17181,290
0.828641,2.8523734,-1477,51972,24.8332,17181,290
1.5034,2.8705996,-1476,51973,24.7337,17176,308
2.21402,2.9650776,-1475,51974,24.7337,17176,308
1.96287,2.9398424,-1474,51975,24.8332,17176,308
2.09677,2.8628026,-1473,51976,24.7337,17176,308
1.14304,3.0615079,-1472,51977,25.0324,17176,308
1.09619,2.7863067,-1471,51978,24.9328,17176,308
1.47458,2.9499624,-1470,51979,25.0324,17176,308
1.4118,2.937307,-1469,51980,24.7337,17176,308
1.88858,2.9575296,-1468,51981,24.8332,17176,308
1.58673,2.9826152,-1467,51982,24.9328,17176,308
2.36199,3.2595288,-1466,51983,24.8332,17178,321
1.68014,3.439698,-1465,51984,25.0821,17178,321
2.00136,3.4634426,-1464,51985,25.0324,17178,321
2.80496,3.4548271,-1463,51986,24.7337,17178,321
1.44188,3.4223256,-1462,51987,25.0324,17178,321
1.43525,3.3519361,-1461,51988,24.883,17178,321
2.30684,3.4548271,-1460,51989,24.5843,17178,321
2.46667,3.2503728,-1459,51990,25.0324,17178,321
2.28816,3.0346198,-1458,51991,24.883,17178,321
2.03444,3.1265255,-1457,51992,25.0324,17178,321
1.97739,3.0346198,-1456,51993,24.7337,17178,276
1.83479,3.0419765,-1455,51994,24.883,17178,276
2.31715,3.1217558,-1454,51995,24.7337,17178,276
2.48784,3.2936371,-1453,51996,24.883,17178,276
1.88858,3.2891098,-1452,51997,24.883,17178,276
2.40995,3.1265255,-1451,51998,24.8332,17178,276
1.52231,2.9900998,-1450,51999,25.0324,17178,276
1.81125,3.2526642,-1449,52000,24.883,17178,276
1.86316,3.3608154,-1448,52001,24.3852,17178,276
1.56859,3.3541581,-1447,52002,24.883,17178,276
1.66303,3.4634426,-1446,52003,24.7337,17184,277
0.710948,3.4998221,-1445,52004,24.883,17184,277
2.06237,3.3408038,-1444,52005,24.8332,17184,277
1.7767,3.2526642,-1443,52006,24.8332,17184,277
2.26091,3.1289076,-1442,52007,24.7337,17184,277
1.57769,3.0247831,-1441,52008,24.8332,17184,277
2.09677,3.1074028,-1440,52009,24.8332,17184,277
1.38796,3.1145876,-1439,52010,24.8332,17184,277
1.42525,2.9220481,-1438,52011,25.0324,17184,277
2.13284,2.7459038,-1437,52012,25.0324,17184,277
1.31745,2.7540318,-1436,52013,24.883,17178,321
2.41391,3.0541982,-1435,52014,25.0324,17178,321
2.8986,3.282307,-1434,52015,24.8332,17178,321
0.946812,3.1145876,-1433,52016,24.9328,17178,321
0.995902,3.0541982,-1432,52017,24.9328,17178,321
1.49066,3.0736519,-1431,52018,24.8332,17178,321
1.42525,3.3541581,-1430,52019,24.8332,17178,321
1.20794,3.5672947,-1429,52020,24.6839,17178,321
1.92608,3.7782684,-1428,52021,24.7337,17178,321
1.88858,3.7206422,-1427,52022,24.9328,17178,321
1.81125,3.3341065,-1426,52023,24.7337,17177,305
2.76386,2.9801161,-1425,52024,24.9328,17177,305
2.03444,2.8912889,-1424,52025,24.7337,17177,305
0.921287,3.0223189,-1423,52026,24.883,17177,305
1.13045,3.2868438,-1422,52027,25.0324,17177,305
1.81125,3.1526298,-1421,52028,24.883,17177,305
2.14399,2.7213741,-1420,52029,24.8332,17177,305
1.92608,2.652046,-1419,52030,24.8332,17177,305
1.4118,2.8575928,-1418,52031,24.9328,17177,305
2.0693,2.8575928,-1417,52032,24.7337,17177,305
2.27981,2.9499624,-1416,52033,24.8332,17182,293
2.05543,2.8731939,-1415,52034,24.9328,17182,293
2.09677,2.9423757,-1414,52035,25.0324,17182,293
1.33185,3.1526298,-1413,52036,25.0324,17182,293
2.17929,3.185544,-1412,52037,24.8332,17182,293
2.59479,3.1761748,-1411,52038,24.9328,17182,293
2.31097,3.2342874,-1410,52039,24.7337,17182,293
1.75238,3.5168116,-1409,52040,25.0324,17182,293
1.21188,3.5168116,-1408,52041,24.6839,17182,293
1.89865,3.2891098,-1407,52042,24.8332,17182,293
1.64283,3.3519361,-1406,52043,24.883,17179,306
1.95556,3.3206715,-1405,52044,24.883,17179,306
2.00612,3.0247831,-1404,52045,24.883,17179,306
1.22752,2.7782731,-1403,52046,24.883,17179,306
1.54717,2.8835478,-1402,52047,25.0324,17179,306
3.12042,3.0541982,-1401,52048,25.0324,17179,306
1.17998,3.1289076,-1400,52049,24.883,17179,306
2.26722,3.1360431,-1399,52050,24.883,17179,306
1.74966,2.9041448,-1398,52051,24.883,17179,306
2.01324,2.6910898,-1397,52052,24.883,17179,306
2.71688,2.8523734,-1396,52053,24.9328,17170,299
0.799351,3.1145876,-1395,52054,24.8332,17170,299
1.80334,3.1526298,-1394,52055,24.9328,17170,299
2.71512,3.0833327,-1393,52056,24.9328,17170,299
2.19672,3.0809154,-1392,52057,25.0324,17170,299
1.98701,3.185544,-1391,52058,24.7337,17170,299
1.4219,3.4004854,-1390,52059,24.8332,17170,299
1.67446,3.6253033,-1389,52060,24.7337,17170,299
0.966748,3.5672947,-1388,52061,24.8332,17170,299
2.1771,3.1217558,-1387,52062,24.8332,17170,299
1.90617,2.7621359,-1386,52063,24.883,17177,286
1.92608,2.8601989,-1385,52064,25.0324,17177,286
1.00068,3.0321637,-1384,52065,24.8332,17177,286
1.46158,3.1097996,-1383,52066,24.8332,17177,286
1.83998,3.0247831,-1382,52067,24.9328,17177,286
2.14399,2.7702162,-1381,52068,24.883,17177,286
1.42525,3.0247831,-1380,52069,24.9328,17177,286
1.13045,3.0321637,-1379,52070,24.8332,17177,286
1.56555,3.0321637,-1378,52071,24.7337,17177,286
2.61493,3.2065248,-1377,52072,24.883,17177,286
2.19455,3.4223256,-1376,52073,24.7337,17183,289
1.47134,3.2754902,-1375,52074,24.6839,17183,289
2.44921,3.3341065,-1374,52075,24.7337,17183,289
2.28816,3.393906,-1373,52076,24.6839,17183,289
1.96529,3.1832043,-1372,52077,24.7337,17183,289
1.60466,2.9575296,-1371,52078,24.8332,17183,289
1.76323,3.2065248,-1370,52079,25.0324,17183,289
1.54408,3.5652055,-1369,52080,25.0324,17183,289
2.41983,3.2800363,-1368,52081,24.8332,17183,289
1.85804,2.9575296,-1367,52082,24.8332,17183,289
1.92112,2.977615,-1366,52083,24.883,17178,310
1.81388,3.0321637,-1365,52084,24.9328,17178,310
1.09183,3.0223189,-1364,52085,24.883,17178,310
1.3461,3.0247831,-1363,52086,24.9328,17178,310
2.77075,3.1121945,-1362,52087,24.883,17178,310
0.845728,3.1948858,-1361,52088,24.8332,17178,310
1.92608,3.0517578,-1360,52089,24.8332,17178,310
2.38009,3.1265255,-1359,52090,24.8332,17178,310
1.86827,3.0321637,-1358,52091,24.7337,17178,310
1.53789,3.0833327,-1357,52092,24.8332,17178,310
1.40163,3.3341065,-1356,52093,24.5843,17171,309
2.1771,3.4418633,-1355,52094,24.9328,17171,309
1.20794,3.3541581,-1354,52095,24.8332,17171,309
2.09677,3.2227487,-1353,52096,24.7337,17171,309
1.73323,3.1265255,-1352,52097,24.883,17171,309
1.41854,3.2227487,-1351,52098,25.0324,17171,309
1.71386,3.2065248,-1350,52099,24.8332,17171,309
1.20399,3.0321637,-1349,52100,24.883,17171,309
1.23912,3.0223189,-1348,52101,25.0324,17171,309
1.77938,3.0321637,-1347,52102,24.5843,17171,309
2.36602,2.9550094,-1346,52103,24.883,17174,269
2.18802,2.9423757,-1345,52104,25.0324,17174,269
2.16832,2.8523734,-1344,52105,24.9328,17174,269
1.32827,2.9575296,-1343,52106,24.883,17174,269
1.82437,2.8835478,-1342,52107,24.7337,17174,269
1.57163,3.1597117,-1341,52108,24.883,17174,269
1.70549,2.9575296,-1340,52109,24.6839,17174,269
2.03678,3.0517578,-1339,52110,25.0324,17174,269
1.21188,2.9826152,-1338,52111,25.0324,17174,269
1.81651,2.8912889,-1337,52112,24.6839,17174,269
2.27981,3.2526642,-1336,52113,24.8332,17174,269
1.68014,3.3541581,-1335,52114,24.883,17174,269
2.31509,3.1502656,-1334,52115,24.8332,17174,269
1.77132,3.1145876,-1333,52116,24.6839,17174,269
1.40163,2.9423757,-1332,52117,24.7337,17174,269
1.39481,2.9575296,-1331,52118,24.7337,17174,269
1.63993,3.0223189,-1330,52119,24.9328,17174,269
1.51603,2.9449068,-1329,52120,24.8332,17174,269
1.92856,3.0419765,-1328,52121,24.9328,17174,269
1.17998,2.8835478,-1327,52122,24.883,17174,269
1.60466,2.9950791,-1326,52123,24.883,17166,302
1.40163,3.0321637,-1325,52124,24.8332,17166,302
1.54717,3.1265255,-1324,52125,24.883,17166,302
1.57466,3.1145876,-1323,52126,24.883,17166,302
1.76052,2.8497601,-1322,52127,25.0821,17166,302
1.87592,2.8628026,-1321,52128,24.5843,17166,302
1.66303,3.1265255,-1320,52129,24.6839,17166,302
1.34255,3.3541581,-1319,52130,24.8332,17166,302
1.59273,3.2273692,-1318,52131,24.9328,17166,302
2.0156,3.2595288,-1317,52132,24.7337,17166,302
1.8529,3.2434888,-1316,52133,24.8332,17174,325
2.35593,3.0541982,-1315,52134,25.0324,17174,325
1.75238,2.9423757,-1314,52135,25.0324,17174,325
2.60945,3.1097996,-1313,52136,24.9328,17174,325
1.72772,3.1121945,-1312,52137,24.7337,17174,325
1.96044,3.0321637,-1311,52138,24.8332,17174,325
1.37415,3.0346198,-1310,52139,24.9328,17174,325
2.24822,2.977615,-1309,52140,24.883,17174,325
1.94824,2.9625637,-1308,52141,24.9328,17174,325
2.03444,2.937307,-1307,52142,24.9328,17174,325
1.74966,2.7702162,-1306,52143,24.9328,17169,263
1.1596,3.0346198,-1305,52144,24.8332,17169,263
1.08306,3.1502656,-1304,52145,24.883,17169,263
1.45176,3.2503728,-1303,52146,24.7337,17169,263
2.1771,3.3541581,-1302,52147,24.6839,17169,263
2.0693,3.2868438,-1301,52148,24.9328,17169,263
1.86827,3.3519361,-1300,52149,25.0821,17169,263
1.55638,3.0541982,-1299,52150,24.9328,17169,263
2.29024,2.9826152,-1298,52151,24.883,17169,263
1.57466,3.2227487,-1297,52152,24.883,17169,263
2.44726,3.2981582,-1296,52153,24.7337,17171,274
2.31097,3.3004165,-1295,52154,24.8332,17171,274
2.11488,3.282307,-1294,52155,24.9328,17171,274
1.81125,3.1289076,-1293,52156,24.7337,17171,274
1.96529,3.0419765,-1292,52157,24.9328,17171,274
1.45176,3.1145876,-1291,52158,24.7337,17171,274
2.93131,3.0223189,-1290,52159,24.9328,17171,274
1.60466,3.2042004,-1289,52160,24.8332,17171,274
1.1596,3.2250598,-1288,52161,24.7337,17171,274
2.17052,2.9801161,-1287,52162,24.9328,17171,274
2.5353,3.2065248,-1286,52163,25.0324,17178,323
2.23545,3.3851134,-1285,52164,24.5843,17178,323
2.14399,3.4698902,-1284,52165,24.7337,17178,323
1.90867,3.2042004,-1283,52166,24.6839,17178,323
1.96044,3.231983,-1282,52167,24.8332,17178,323
1.45176,3.0517578,-1281,52168,24.9328,17178,323
2.79474,3.0541982,-1280,52169,24.883,17178,323
1.45505,3.0346198,-1279,52170,24.7337,17178,323
1.74693,3.1336664,-1278,52171,24.7337,17178,323
2.22047,3.0321637,-1277,52172,24.6839,17178,323
1.67446,3.1121945,-1276,52173,24.8332,17173,322
1.28447,2.9347694,-1275,52174,24.7337,17173,322
1.83219,2.937307,-1274,52175,24.8332,17173,322
2.11488,2.9449068,-1273,52176,24.9328,17173,322
1.40163,2.9347694,-1272,52177,24.9328,17173,322
1.64863,3.197217,-1271,52178,24.883,17173,322
2.09449,3.1121945,-1270,52179,24.8332,17173,322
1.38452,3.0346198,-1269,52180,24.883,17173,322
2.28607,3.0346198,-1268,52181,24.9328,17173,322
2.08994,3.1502656,-1267,52182,24.883,17173,322
1.54099,3.2227487,-1266,52183,24.9328,17178,277
1.38796,3.3071819,-1265,52184,24.883,17178,277
1.49704,3.439698,-1264,52185,24.8332,17178,277
2.33151,3.1925529,-1263,52186,24.6839,17178,277
1.78473,2.9801161,-1262,52187,25.1319,17178,277
1.40163,3.1360431,-1261,52188,24.8332,17178,277
1.64863,3.197217,-1260,52189,25.0324,17178,277
2.34782,3.2800363,-1259,52190,24.883,17178,277
2.42966,3.2065248,-1258,52191,24.7337,17178,277
2.56708,3.0419765,-1257,52192,24.7337,17178,277
1.46158,2.8497601,-1256,52193,24.5345,17177,264
2.30684,2.677211,-1255,52194,24.883,17177,264
1.90617,2.8497601,-1254,52195,24.8332,17177,264
1.8529,3.1121945,-1253,52196,24.7337,17177,264
1.06082,3.2042004,-1252,52197,24.8332,17177,264
1.54717,3.0346198,-1251,52198,24.7337,17177,264
2.01324,3.1289076,-1250,52199,24.9328,17177,264
1.62826,3.3004165,-1249,52200,24.9328,17177,264
1.5807,3.2595288,-1248,52201,24.883,17177,264
2.29024,3.2250598,-1247,52202,24.6839,17177,264
2.18802,3.2065248,-1246,52203,24.883,17181,336
1.47781,3.2981582,-1245,52204,24.9328,17181,336
1.1596,3.1502656,-1244,52205,24.8332,17181,336
1.66303,2.8601989,-1243,52206,24.8332,17181,336
1.9918,3.1097996,-1242,52207,24.7337,17181,336
1.74966,3.197217,-1241,52208,24.7337,17181,336
1.66303,3.1217558,-1240,52209,24.6839,17181,336
2.60945,3.1121945,-1239,52210,24.6839,17181,336
1.59572,3.197217,-1238,52211,24.9328,17181,336
2.17052,3.376298,-1237,52212,24.7337,17181,336
1.47134,3.3696713,-1236,52213,24.7337,17173,297
1.57769,3.2042004,-1235,52214,24.9328,17173,297
1.28817,3.1289076,-1234,52215,24.9328,17173,297
1.70549,3.2503728,-1233,52216,24.883,17173,297
1.98701,3.0833327,-1232,52217,24.8332,17173,297
0.292969,3.0615079,-1231,52218,25.0324,17173,297
1.66589,2.9015782,-1230,52219,24.8332,17173,297
1.84516,3.0321637,-1229,52220,24.9328,17173,297
1.68863,3.1074028,-1228,52221,24.9328,17173,297
1.25061,3.2868438,-1227,52222,24.8332,17173,297
1.75238,3.197217,-1226,52223,24.9328,17176,268
1.53789,2.9398424,-1225,52224,24.8332,17176,268
1.8529,3.0541982,-1224,52225,25.0324,17176,268
2.58005,2.977615,-1223,52226,24.8332,17176,268
2.79815,2.8601989,-1222,52227,24.8332,17176,268
1.11773,3.1217558,-1221,52228,24.883,17176,268
2.03678,3.2042004,-1220,52229,24.8332,17176,268
1.87592,3.1145876,-1219,52230,24.9328,17176,268
1.69146,3.1145876,-1218,52231,24.8332,17176,268
1.60466,3.1948858,-1217,52232,24.883,17176,268
1.96287,3.3541581,-1216,52233,25.0324,17191,307
2.28607,3.2891098,-1215,52234,24.9328,17191,307
2.45115,3.185544,-1214,52235,25.1319,17191,307
2.34985,3.1502656,-1213,52236,24.8332,17191,307
2.56708,2.9575296,-1212,52237,24.9328,17191,307
1.80598,2.7702162,-1211,52238,24.7337,17191,307
2.08079,3.2868438,-1210,52239,24.9328,17191,307
1.88606,3.1289076,-1209,52240,24.9328,17191,307
1.89865,2.9398424,-1208,52241,24.8332,17191,307
2.21402,2.8523734,-1207,52242,24.7337,17191,307
1.36019,3.1097996,-1206,52243,24.883,17172,324
1.17998,3.2134879,-1205,52244,25.0324,17172,324
1.66303,3.2134879,-1204,52245,24.9328,17172,324
1.61355,3.2250598,-1203,52246,25.0324,17172,324
1.57466,3.1145876,-1202,52247,24.9328,17172,324
1.53168,2.8497601,-1201,52248,24.8332,17172,324
1.96529,2.7702162,-1200,52249,24.883,17172,324
1.88099,2.8705996,-1199,52250,24.7337,17172,324
1.58973,2.9423757,-1198,52251,25.0324,17172,324
1.15135,2.7863067,-1197,52252,24.883,17172,324
1.27702,3.1526298,-1196,52253,25.0821,17178,285
2.33764,3.2526642,-1195,52254,24.9328,17178,285
2.48976,3.2595288,-1194,52255,24.883,17178,285
1.958,3.3296342,-1193,52256,24.9328,17178,285
0.878906,3.0517578,-1192,52257,24.883,17178,285
2.0716,3.1265255,-1191,52258,24.7337,17178,285
1.70269,3.0517578,-1190,52259,24.7337,17178,285
2.11488,3.1502656,-1189,52260,24.8332,17178,285
1.23912,3.2227487,-1188,52261,24.5345,17178,285
2.15287,3.2868438,-1187,52262,24.8332,17178,285
1.83998,3.1121945,-1186,52263,24.9328,17174,287
2.2819,3.0247831,-1185,52264,24.7337,17174,287
1.85804,2.7648319,-1184,52265,24.9328,17174,287
1.54717,2.592378,-1183,52266,24.883,17174,287
1.52856,2.8523734,-1182,52267,24.7337,17174,287
2.18584,3.197217,-1181,52268,24.9328,17174,287
1.18402,3.3296342,-1180,52269,24.6839,17174,287
1.32467,3.185544,-1179,52270,24.8332,17174,287
2.74134,3.2595288,-1178,52271,24.5345,17174,287
1.63993,3.0736519,-1177,52272,24.883,17174,287
1.14304,3.1289076,-1176,52273,24.9328,17180,296
2.31921,3.1265255,-1175,52274,24.8332,17180,296
1.76323,3.3004165,-1174,52275,24.9328,17180,296
1.78473,3.2250598,-1173,52276,24.9328,17180,296
2.35187,3.1502656,-1172,52277,24.9328,17180,296
1.97498,3.1265255,-1171,52278,24.5843,17180,296
1.06977,3.1502656,-1170,52279,24.7337,17180,296
1.72772,3.1265255,-1169,52280,24.9328,17180,296
1.6341,3.2042004,-1168,52281,24.883,17180,296
1.39822,3.4223256,-1167,52282,25.2315,17180,296
1.3637,3.2936371,-1166,52283,24.8332,17181,290
2.27352,3.0247831,-1165,52284,24.7337,17181,290
1.67446,3.0247831,-1164,52285,24.883,17181,290
1.70549,3.1217558,-1163,52286,24.883,17181,290
1.74693,2.977615,-1162,52287,24.9328,17181,290
1.78206,2.9575296,-1161,52288,24.9328,17181,290
1.68014,3.1526298,-1160,52289,24.9328,17181,290
1.52231,3.4223256,-1159,52290,24.9328,17181,290
1.71108,3.1526298,-1158,52291,24.8332,17181,290
1.83739,3.0736519,-1157,52292,24.8332,17181,290
2.53342,2.977615,-1156,52293,24.8332,17175,294
1.59273,3.2250598,-1155,52294,24.883,17175,294
1.69146,3.2065248,-1154,52295,24.7337,17175,294
1.5807,3.1145876,-1153,52296,24.6839,17175,294
2.01324,3.3071819,-1152,52297,24.8332,17175,294
1.98701,3.378504,-1151,52298,24.883,17175,294
2.36401,3.197217,-1150,52299,24.8332,17175,294
1.36019,2.7863067,-1149,52300,24.7337,17175,294
1.91864,3.0346198,-1148,52301,24.6839,17175,294
2.10585,3.1121945,-1147,52302,24.9328,17175,294
1.77132,3.197217,-1146,52303,24.6839,17175,312
2.2944,3.2158056,-1145,52304,24.9328,17175,312
2.40995,3.2042004,-1144,52305,24.883,17175,312
1.3637,2.9449068,-1143,52306,24.6839,17175,312
1.87592,2.9398424,-1142,52307,24.7337,17175,312
1.81125,3.0346198,-1141,52308,25.0821,17175,312
1.62826,3.1289076,-1140,52309,24.7337,17175,312
2.29024,3.0809154,-1139,52310,24.9328,17175,312
2.42573,3.1193682,-1138,52311,24.6839,17175,312
1.94088,3.0149143,-1137,52312,25.0821,17175,312
2.06237,3.3206715,-1136,52313,24.883,17177,311
2.18584,3.1360431,-1135,52314,24.9328,17177,311
1.59572,3.1121945,-1134,52315,24.883,17177,311
1.88858,3.1502656,-1133,52316,24.7337,17177,311
2.54656,3.0321637,-1132,52317,24.9328,17177,311
2.15951,3.0247831,-1131,52318,24.8332,17177,311
1.17998,2.977615,-1130,52319,24.8332,17177,311
1.24296,2.977615,-1129,52320,24.7337,17177,311
2.5353,2.9575296,-1128,52321,24.883,17177,311
2.7028,3.0541982,-1127,52322,24.9328,17177,311
1.77132,3.0247831,-1126,52323,24.8332,17177,311
1.68863,3.0247831,-1125,52324,24.9328,17177,311
1.00068,2.9398424,-1124,52325,24.883,17177,311
2.55777,2.8835478,-1123,52326,25.0324,17177,311
2.64394,3.0615079,-1122,52327,24.9328,17177,311
1.68014,2.9826152,-1121,52328,24.883,17177,311
2.44921,2.9826152,-1120,52329,24.9328,17177,311
1.91864,3.0736519,-1119,52330,24.9328,17177,311
1.89865,3.2595288,-1118,52331,24.8332,17177,311
1.96772,3.3961005,-1117,52332,24.7337,17177,311
1.07865,3.2042004,-1116,52333,24.7337,17174,261
1.56555,2.9423757,-1115,52334,25.0324,17174,261
0.85693,2.7863067,-1114,52335,24.883,17174,261
2.56893,3.0419765,-1113,52336,24.883,17174,261
1.37067,2.9550094,-1112,52337,24.8332,17174,261
0.625305,3.197217,-1111,52338,24.6839,17174,261
1.66016,2.8523734,-1110,52339,24.9328,17174,261
1.66589,2.7836314,-1109,52340,24.7337,17174,261
3.08971,3.0905735,-1108,52341,24.7337,17174,261
1.89362,3.2595288,-1107,52342,24.8332,17174,261
1.58973,3.1502656,-1106,52343,24.8332,17178,284
2.13508,2.9550094,-1105,52344,24.8332,17178,284
1.80598,2.9801161,-1104,52345,24.9328,17178,284
2.77935,3.2526642,-1103,52346,24.8332,17178,284
1.24679,3.5231615,-1102,52347,24.9328,17178,284
1.77132,3.3519361,-1101,52348,24.6839,17178,284
1.09619,3.1193682,-1100,52349,24.7337,17178,284
1.49385,3.1289076,-1099,52350,25.0324,17178,284
1.61355,3.197217,-1098,52351,24.883,17178,284
0.78733,3.0247831,-1097,52352,25.0324,17178,284
1.57163,2.9423757,-1096,52353,24.7337,17177,332
2.05078,2.8523734,-1095,52354,24.883,17177,332
2.0716,2.592378,-1094,52355,24.9328,17177,332
1.59572,2.8523734,-1093,52356,24.9328,17177,332
1.59572,3.0321637,-1092,52357,24.7337,17177,332
1.24679,3.0517578,-1091,52358,24.8332,17177,332
1.51917,3.1289076,-1090,52359,25.0821,17177,332
1.27702,3.2250598,-1089,52360,24.7337,17177,332
2.23545,3.2958984,-1088,52361,25.0324,17177,332
2.09904,3.2457851,-1087,52362,24.7337,17177,332
1.60466,3.3071819,-1086,52363,24.7337,17180,296
1.93842,3.456983,-1085,52364,24.9328,17180,296
1.94824,3.2526642,-1084,52365,25.0324,17180,296
0.995902,3.0833327,-1083,52366,24.7337,17180,296
1.88858,3.2868438,-1082,52367,24.7337,17180,296
2.09677,3.3229145,-1081,52368,24.9328,17180,296
1.69146,3.197217,-1080,52369,24.8332,17180,296
1.99897,3.0541982,-1079,52370,24.883,17180,296
2.31303,2.8208545,-1078,52371,24.883,17180,296
2.02504,2.7213741,-1077,52372,24.7337,17180,296
1.88099,2.8523734,-1076,52373,24.9328,17174,265
2.88541,2.9423757,-1075,52374,25.0324,17174,265
0.683594,2.937307,-1074,52375,24.7337,17174,265
1.28075,2.9650776,-1073,52376,24.8332,17174,265
2.08994,2.977615,-1072,52377,24.8332,17174,265
1.45505,3.1145876,-1071,52378,24.883,17174,265
1.75781,3.1526298,-1070,52379,24.883,17174,265
1.73047,3.2958984,-1069,52380,24.9328,17174,265
1.4118,3.2273692,-1068,52381,24.8332,17174,265
1.11773,3.1289076,-1067,52382,24.883,17174,265
1.80598,3.1217558,-1066,52383,25.0324,17177,290
1.83739,3.3519361,-1065,52384,24.7337,17177,290
2.31921,3.3229145,-1064,52385,24.8332,17177,290
1.94088,3.2065248,-1063,52386,24.883,17177,290
1.55638,2.8523734,-1062,52387,24.7337,17177,290
1.36719,2.7131483,-1061,52388,25.0324,17177,290
2.23118,2.8809628,-1060,52389,24.7337,17177,290
2.11488,2.9550094,-1059,52390,25.0324,17177,290
2.2819,3.0346198,-1058,52391,24.883,17177,290
1.5034,2.9499624,-1057,52392,25.0324,17177,290
2.23332,3.0321637,-1056,52393,24.9328,17181,327
2.33764,2.9801161,-1055,52394,24.7337,17181,327
2.13284,3.0541982,-1054,52395,24.8332,17181,327
1.61355,3.2250598,-1053,52396,24.9328,17181,327
1.79539,3.393906,-1052,52397,24.9328,17181,327
1.51917,3.5295001,-1051,52398,24.9328,17181,327
1.91615,3.2526642,-1050,52399,25.0324,17181,327
2.0693,2.9900998,-1049,52400,24.883,17181,327
1.43857,3.0321637,-1048,52401,24.8332,17181,327
1.57466,3.2042004,-1047,52402,24.883,17181,327
1.72495,3.0223189,-1046,52403,25.0324,17176,287
0.811194,2.8497601,-1045,52404,24.883,17176,287
1.28447,3.0247831,-1044,52405,24.883,17176,287
1.19604,3.0247831,-1043,52406,24.7337,17176,287
1.31745,2.9423757,-1042,52407,25.0324,17176,287
1.38107,2.7782731,-1041,52408,24.8332,17176,287
2.2944,2.8731939,-1040,52409,24.9328,17176,287
2.19238,3.0247831,-1039,52410,24.8332,17176,287
1.98701,3.0247831,-1038,52411,24.883,17176,287
2.44336,3.0223189,-1037,52412,24.8332,17176,287
1.45176,2.9499624,-1036,52413,24.8332,17184,263
1.9335,2.8601989,-1035,52414,24.8332,17184,263
1.53168,2.9550094,-1034,52415,24.8332,17184,263
1.59273,3.2250598,-1033,52416,24.8332,17184,263
0.662337,3.197217,-1032,52417,24.9328,17184,263
2.26722,3.1169788,-1031,52418,24.6839,17184,263
1.34255,3.4136063,-1030,52419,24.8332,17184,263
3.32318,3.2981582,-1029,52420,24.5345,17184,263
2.41391,3.2042004,-1028,52421,24.8332,17184,263
1.57769,3.197217,-1027,52422,24.9328,17184,263
1.82437,3.1121945,-1026,52423,24.9328,17175,303
1.14304,3.1289076,-1025,52424,25.0324,17175,303
2.52021,3.0346198,-1024,52425,24.8332,17175,303
1.31745,2.9423757,-1023,52426,24.883,17175,303
1.37415,2.9347694,-1022,52427,24.9328,17175,303
1.89614,3.1121945,-1021,52428,24.7337,17175,303
1.61945,3.0419765,-1020,52429,24.883,17175,303
1.94824,3.0346198,-1019,52430,24.8332,17175,303
1.79539,3.1289076,-1018,52431,24.8332,17175,303
2.04146,3.3206715,-1017,52432,25.0324,17175,303
2.10811,3.2250598,-1016,52433,25.0324,17178,340
1.66303,3.3071819,-1015,52434,24.8332,17178,340
1.71942,3.2981582,-1014,52435,24.8332,17178,340
2.93619,3.378504,-1013,52436,25.0324,17178,340
1.4118,3.0517578,-1012,52437,25.0324,17178,340
2.39407,2.9550094,-1011,52438,24.7337,17178,340
2.24822,3.1526298,-1010,52439,24.7337,17178,340
2.31303,3.3184271,-1009,52440,24.883,17178,340
2.20323,3.2134879,-1008,52441,24.9328,17178,340
1.98701,3.0247831,-1007,52442,24.6839,17178,340
1.4118,2.8497601,-1006,52443,24.8332,17180,273
1.40163,2.8601989,-1005,52444,24.7337,17180,273
2.28399,3.0247831,-1004,52445,24.9328,17180,273
1.43857,3.1265255,-1003,52446,24.9328,17180,273
2.09677,3.2250598,-1002,52447,25.0324,17180,273
0.793363,3.2227487,-1001,52448,24.8332,17180,273
1.00068,3.0541982,-1000,52449,24.7337,17180,273
1.82437,2.9801161,-999,52450,24.9328,17180,273
2.47246,2.9650776,-998,52451,24.883,17180,273
2.43358,3.0419765,-997,52452,24.7337,17180,273
1.60168,2.9423757,-996,52453,24.7337,17175,256
2.03209,2.8497601,-995,52454,25.0324,17175,256
1.87846,2.9423757,-994,52455,24.8332,17175,256
1.19205,3.0223189,-993,52456,24.9328,17175,256
2.11488,2.9423757,-992,52457,24.7337,17175,256
1.98701,2.8705996,-991,52458,24.8332,17175,256
0.840071,2.9423757,-990,52459,24.8332,17175,256
2.50693,3.1265255,-989,52460,24.7337,17175,256
2.71512,3.4634426,-988,52461,24.8332,17175,256
1.53789,3.2526642,-987,52462,24.9328,17175,256
2.59479,3.1597117,-986,52463,25.0324,17178,664
1.52231,3.1360431,-985,52464,24.883,17178,664
2.25668,3.4223256,-984,52465,24.883,17178,664
1.76052,3.3961005,-983,52466,24.7337,17178,664
1.54099,3.4934297,-982,52467,25.0324,17178,664
1.59273,3.3004165,-981,52468,24.7337,17178,664
2.33151,2.9423757,-980,52469,24.7337,17178,664
2.1771,2.8523734,-979,52470,24.9328,17178,664
1.96772,2.9449068,-978,52471,24.7337,17178,664
0.981433,3.071227,-977,52472,24.883,17178,664
2.17052,3.2042004,-976,52473,25.0324,17165,276
1.91864,3.2936371,-975,52474,24.7337,17165,276
1.74146,2.937307,-974,52475,24.883,17165,276
1.74693,3.0346198,-973,52476,24.7337,17165,276
2.10585,3.231983,-972,52477,24.883,17165,276
2.09677,3.3961005,-971,52478,24.6839,17165,276
2.23545,3.2250598,-970,52479,24.8332,17165,276
2.0156,3.2158056,-969,52480,25.0324,17165,276
1.73047,3.197217,-968,52481,24.883,17165,276
1.51917,3.2411909,-967,52482,24.8332,17165,276
2.27981,2.9751117,-966,52483,24.8332,17378,287
2.77763,2.7863067,-965,52484,24.7337,17378,287
1.34255,3.0247831,-964,52485,25.0324,17378,287
1.37067,3.1289076,-963,52486,24.9328,17378,287
1.89865,3.1526298,-962,52487,24.883,17378,287
1.68863,3.185544,-961,52488,24.9328,17378,287
1.87592,3.2958984,-960,52489,24.9328,17378,287
1.41854,3.1714798,-959,52490,24.9328,17378,287
1.81651,3.0615079,-958,52491,24.8332,17378,287
0.352105,3.0419765,-957,52492,24.8332,17378,287
2.32946,2.977615,-956,52493,24.883,17116,310
1.09619,3.0541982,-955,52494,24.7337,17116,310
1.11773,3.2042004,-954,52495,24.883,17116,310
2.50693,3.2868438,-953,52496,24.883,17116,310
2.27981,3.282307,-952,52497,24.8332,17116,310
1.82698,3.197217,-951,52498,24.9328,17116,310
1.88858,3.0321637,-950,52499,24.883,17116,310
1.32467,3.0321637,-949,52500,24.7337,17116,310
1.70829,3.1074028,-948,52501,24.8332,17116,310
2.28816,3.0223189,-947,52502,24.7337,17116,310
1.66016,3.2158056,-946,52503,24.6839,17178,315
2.6655,3.2042004,-945,52504,24.6839,17178,315
1.77938,3.1265255,-944,52505,24.883,17178,315
2.09904,3.3229145,-943,52506,24.9328,17178,315
1.67446,3.0321637,-942,52507,24.883,17178,315
2.40995,3.1526298,-941,52508,24.8332,17178,315
2.97651,3.0833327,-940,52509,24.9328,17178,315
2.56893,3.2503728,-939,52510,24.7337,17178,315
1.07422,3.1289076,-938,52511,25.0324,17178,315
2.12388,3.1121945,-937,52512,24.883,17178,315
1.46484,3.0247831,-936,52513,24.9328,17181,287
1.39822,2.6910898,-935,52514,25.0324,17181,287
1.57163,2.8809628,-934,52515,24.9328,17181,287
1.3461,3.1289076,-933,52516,24.8332,17181,287
2.22905,3.2042004,-932,52517,24.9328,17181,287
2.08537,3.2042004,-931,52518,25.0324,17181,287
2.0156,3.2227487,-930,52519,24.9328,17181,287
1.55332,2.9650776,-929,52520,24.8332,17181,287
2.0785,2.9575296,-928,52521,24.8332,17181,287
1.88858,3.2250598,-927,52522,24.8332,17181,287
2.95561,3.2250598,-926,52523,24.883,17176,280
1.01016,3.2868438,-925,52524,24.883,17176,280
1.24679,3.2134879,-924,52525,25.0324,17176,280
2.21832,3.231983,-923,52526,24.8332,17176,280
2.14399,3.2526642,-922,52527,24.7337,17176,280
2.47824,3.1145876,-921,52528,24.6839,17176,280
1.59273,3.0247831,-920,52529,25.0324,17176,280
2.16171,3.0223189,-919,52530,24.883,17176,280
1.40163,3.3004165,-918,52531,24.8332,17176,280
1.61059,3.3961005,-917,52532,24.9328,17176,280
1.79007,3.1265255,-916,52533,25.0324,17176,280
1.78473,3.2526642,-915,52534,24.883,17176,280
2.51832,3.3296342,-914,52535,24.7337,17176,280
2.22047,3.231983,-913,52536,24.6839,17176,280
1.48103,3.2250598,-912,52537,24.9328,17176,280
2.32332,3.1502656,-911,52538,24.9328,17176,280
1.52856,2.9801161,-910,52539,24.7337,17176,280
1.5034,2.9801161,-909,52540,24.883,17176,280
2.02269,3.1526298,-908,52541,24.9328,17176,280
1.63702,3.1360431,-907,52542,24.9328,17176,280
1.74966,3.1265255,-906,52543,25.0324,17176,307
1.71664,3.0419765,-905,52544,24.8332,17176,307
1.82437,3.1289076,-904,52545,24.8332,17176,307
1.7767,3.1289076,-903,52546,24.9328,17176,307
2.24822,3.2042004,-902,52547,24.8332,17176,307
1.68863,3.0247831,-901,52548,24.7337,17176,307
1.55332,2.8523734,-900,52549,24.883,17176,307
1.67446,3.0419765,-899,52550,25.0324,17176,307
1.57769,3.2250598,-898,52551,24.7337,17176,307
2.15066,3.2042004,-897,52552,24.9328,17176,307
1.19205,3.1478996,-896,52553,24.7337,17178,288
1.82437,3.0346198,-895,52554,24.7337,17178,288
2.27981,3.0321637,-894,52555,24.9328,17178,288
1.13045,3.378504,-893,52556,24.883,17178,288
1.68014,3.3004165,-892,52557,24.883,17178,288
1.35668,3.1145876,-891,52558,24.883,17178,288
1.60466,3.1097996,-890,52559,24.9328,17178,288
2.24822,3.0223189,-889,52560,24.9328,17178,288
1.98701,2.8523734,-888,52561,24.9328,17178,288
1.90617,3.0321637,-887,52562,24.8332,17178,288
1.79539,3.3229145,-886,52563,25.0324,17180,272
2.20323,3.3229145,-885,52564,24.7337,17180,272
2.20323,3.2042004,-884,52565,24.883,17180,272
1.51917,3.0223189,-883,52566,24.883,17180,272
1.54408,2.8601989,-882,52567,24.8332,17180,272
2.0693,2.8628026,-881,52568,24.7337,17180,272
2.81853,2.9650776,-880,52569,24.883,17180,272
2.4277,3.1289076,-879,52570,24.7337,17180,272
1.42859,2.9575296,-878,52571,24.7337,17180,272
1.77132,2.9398424,-877,52572,24.7337,17180,272
2.13284,2.9575296,-876,52573,24.7337,17175,328
1.86572,2.8835478,-875,52574,24.9328,17175,328
1.39139,3.1526298,-874,52575,24.7337,17175,328
1.21188,3.2227487,-873,52576,24.8332,17175,328
1.74966,3.3206715,-872,52577,24.8332,17175,328
1.11773,3.1289076,-871,52578,25.0324,17175,328
1.94824,2.8601989,-870,52579,24.8332,17175,328
0.931581,2.9423757,-869,52580,24.8332,17175,328
1.67446,2.9575296,-868,52581,24.883,17175,328
1.56555,2.9575296,-867,52582,24.6839,17175,328
1.57769,2.9423757,-866,52583,24.883,17179,319
1.54717,3.2891098,-865,52584,24.7337,17179,319
1.6165,3.282307,-864,52585,24.8332,17179,319
1.66303,3.2845762,-863,52586,24.8332,17179,319
2.24397,3.0247831,-862,52587,24.6839,17179,319
2.1771,2.9449068,-861,52588,24.7337,17179,319
2.38009,3.0346198,-860,52589,25.0324,17179,319
1.63993,2.9575296,-859,52590,25.0324,17179,319
1.21188,2.8628026,-858,52591,24.7337,17179,319
1.63702,2.9423757,-857,52592,24.9328,17179,319
1.65152,3.1289076,-856,52593,24.7337,17175,284
2.14844,3.1526298,-855,52594,24.883,17175,284
1.88858,3.0541982,-854,52595,24.7337,17175,284
2.45698,3.0541982,-853,52596,25.0324,17175,284
1.89614,2.9801161,-852,52597,24.9328,17175,284
1.39139,3.0541982,-851,52598,24.883,17175,284
1.85547,3.0517578,-850,52599,25.0324,17175,284
2.85384,3.0247831,-849,52600,24.9328,17175,284
0.995902,3.0419765,-848,52601,24.9328,17175,284
2.29648,3.1074028,-847,52602,25.0324,17175,284
1.33185,3.2042004,-846,52603,24.8332,17180,285
1.60168,2.9347694,-845,52604,25.0324,17180,285
1.52231,2.8601989,-844,52605,24.7337,17180,285
2.14399,3.0223189,-843,52606,24.9328,17180,285
2.14399,2.8497601,-842,52607,24.7337,17180,285
2.11488,2.8523734,-841,52608,24.7337,17180,285
2.35997,2.9650776,-840,52609,25.0324,17180,285
1.62826,3.0541982,-839,52610,24.883,17180,285
1.61355,3.2042004,-838,52611,24.8332,17180,285
1.96772,3.1217558,-837,52612,25.1319,17180,285
2.23332,2.9650776,-836,52613,24.8332,17180,298
1.53789,3.0809154,-835,52614,24.9328,17180,298
1.9942,3.3004165,-834,52615,25.0324,17180,298
1.82698,3.2868438,-833,52616,24.8332,17180,298
1.91615,3.1097996,-832,52617,25.0324,17180,298
2.34985,3.0419765,-831,52618,24.8332,17180,298
1.96529,3.1526298,-830,52619,24.883,17180,298
2.06237,3.0541982,-829,52620,24.8332,17180,298
1.45505,2.9423757,-828,52621,24.883,17180,298
1.50022,2.9449068,-827,52622,25.0324,17180,298
2.38009,3.1145876,-826,52623,24.9328,17175,274
2.70809,3.0541982,-825,52624,24.7337,17175,274
1.66589,2.9575296,-824,52625,24.8332,17175,274
1.68014,3.1121945,-823,52626,24.883,17175,274
1.31383,3.2065248,-822,52627,24.9328,17175,274
1.73047,3.3071819,-821,52628,24.9328,17175,274
1.69427,3.1145876,-820,52629,24.9328,17175,274
1.60466,3.0247831,-819,52630,24.6839,17175,274
2.54094,2.9550094,-818,52631,24.9328,17175,274
2.08994,3.2250598,-817,52632,24.7337,17175,274
1.77401,3.2042004,-816,52633,24.9328,17177,299
1.81125,3.378504,-815,52634,24.9328,17177,299
1.20794,3.2936371,-814,52635,25.0821,17177,299
2.22262,3.1217558,-813,52636,24.8332,17177,299
1.81651,2.8835478,-812,52637,24.883,17177,299
1.74146,2.8628026,-811,52638,24.9328,17177,299
1.25442,2.7675254,-810,52639,24.8332,17177,299
0.966748,3.0346198,-809,52640,24.6839,17177,299
1.93596,3.2227487,-808,52641,24.9328,17177,299
2.01087,3.2868438,-807,52642,24.8332,17177,299
1.28447,3.1265255,-806,52643,24.9328,17177,307
1.91864,3.2065248,-805,52644,24.8332,17177,307
2.1771,3.1360431,-804,52645,24.7337,17177,307
2.01324,3.1502656,-803,52646,24.9328,17177,307
2.02269,3.231983,-802,52647,24.9328,17177,307
1.4118,3.0444248,-801,52648,24.8332,17177,307
1.81125,3.1289076,-800,52649,24.8332,17177,307
2.60762,3.1289076,-799,52650,25.0324,17177,307
1.95556,3.0247831,-798,52651,24.9328,17177,307
2.26091,2.9423757,-797,52652,24.8332,17177,307
2.12613,2.9423757,-796,52653,25.0324,17177,311
1.81125,2.9575296,-795,52654,25.0324,17177,311
1.4118,2.9650776,-794,52655,25.0324,17177,311
2.05543,3.1289076,-793,52656,24.8332,17177,311
2.0156,3.1289076,-792,52657,24.8332,17177,311
1.05631,3.0517578,-791,52658,24.9328,17177,311
1.40163,3.1502656,-790,52659,24.7337,17177,311
1.30655,3.0541982,-789,52660,24.9328,17177,311
1.91615,2.9041448,-788,52661,24.8332,17177,311
2.0156,3.0615079,-787,52662,25.0821,17177,311
2.4974,3.231983,-786,52663,25.0324,17176,284
1.92608,3.3341065,-785,52664,25.0324,17176,284
2.1573,3.2868438,-784,52665,24.8332,17176,284
1.25442,3.197217,-783,52666,24.883,17176,284
1.62826,3.0247831,-782,52667,24.7337,17176,284
1.63993,2.9499624,-781,52668,24.8332,17176,284
1.61355,2.9499624,-780,52669,24.883,17176,284
2.30684,3.1217558,-779,52670,25.0324,17176,284
1.83739,3.2526642,-778,52671,24.8332,17176,284
1.36019,3.3363404,-777,52672,24.9328,17176,284
1.45505,3.0321637,-776,52673,24.9328,17173,289
2.09222,2.9423757,-775,52674,24.883,17173,289
2.37005,2.8628026,-774,52675,25.0324,17173,289
2.41391,2.8809628,-773,52676,24.883,17173,289
1.73047,3.2042004,-772,52677,24.9328,17173,289
1.53168,3.0025327,-771,52678,24.9328,17173,289
2.32946,2.8835478,-770,52679,24.9328,17173,289
2.31715,3.0736519,-769,52680,25.0324,17173,289
2.41983,3.231983,-768,52681,24.9328,17173,289
1.98701,2.977615,-767,52682,24.9328,17173,289
2.49549,2.6799925,-766,52683,24.7337,17173,322
1.83479,2.8497601,-765,52684,24.9328,17173,322
1.11773,3.2158056,-764,52685,24.883,17173,322
1.96529,3.4784685,-763,52686,24.6839,17173,322
2.18584,3.2065248,-762,52687,24.883,17173,322
2.11488,2.7702162,-761,52688,24.883,17173,322
2.0156,2.6993829,-760,52689,24.883,17173,322
1.22363,3.0321637,-759,52690,25.0324,17173,322
2.52777,3.0321637,-758,52691,24.7337,17173,322
1.96287,3.3408038,-757,52692,24.883,17173,322
2.22905,3.1714798,-756,52693,25.0324,17170,262
2.22047,2.9625637,-755,52694,24.8332,17170,262
1.67161,3.1145876,-754,52695,24.9328,17170,262
1.88858,2.937307,-753,52696,24.9328,17170,262
1.97498,2.8628026,-752,52697,24.6839,17170,262
1.26577,3.1526298,-751,52698,25.0324,17170,262
2.28816,3.2526642,-750,52699,24.8332,17170,262
1.28447,3.2981582,-749,52700,24.7337,17170,262
1.38452,3.0517578,-748,52701,24.883,17170,262
1.71942,2.9143888,-747,52702,24.7337,17170,262
1.76052,2.8912889,-746,52703,24.9328,17180,264
0.458048,3.1360431,-745,52704,24.8332,17180,264
2.19238,3.3071819,-744,52705,24.8332,17180,264
1.62532,3.2250598,-743,52706,24.883,17180,264
1.37067,3.1526298,-742,52707,24.9328,17180,264
2.03444,2.9398424,-741,52708,24.7337,17180,264
1.80334,2.9423757,-740,52709,24.9328,17180,264
2.44921,3.0223189,-739,52710,24.883,17180,264
1.62826,3.0247831,-738,52711,24.883,17180,264
1.78473,3.1217558,-737,52712,24.9328,17180,264
1.74966,3.4026757,-736,52713,24.9328,17178,336
1.54717,3.2936371,-735,52714,24.883,17178,336
1.10916,3.197217,-734,52715,24.883,17178,336
1.74146,3.0321637,-733,52716,24.8332,17178,336
2.02269,3.0321637,-732,52717,24.7337,17178,336
1.21581,3.3004165,-731,52718,25.0324,17178,336
1.8529,3.2042004,-730,52719,24.5843,17178,336
1.44518,3.2227487,-729,52720,24.883,17178,336
1.70269,3.0541982,-728,52721,24.9328,17178,336
1.20399,3.231983,-727,52722,24.8332,17178,336
1.31745,3.2134879,-726,52723,25.0324,17175,320
1.79804,3.1360431,-725,52724,24.883,17175,320
1.11773,3.0541982,-724,52725,24.8332,17175,320
2.76731,3.2065248,-723,52726,24.8332,17175,320
1.49385,3.2065248,-722,52727,24.883,17175,320
1.37415,3.3071819,-721,52728,24.9328,17175,320
1.76323,3.3184271,-720,52729,24.8332,17175,320
1.13886,3.2042004,-719,52730,24.8332,17175,320
1.79273,3.1097996,-718,52731,24.8332,17175,320
2.23545,3.282307,-717,52732,24.7337,17175,320
1.90617,3.378504,-716,52733,24.883,17173,279
1.55638,3.4288506,-715,52734,24.8332,17173,279
1.5034,3.4483513,-714,52735,24.9328,17173,279
2.63491,3.3184271,-713,52736,24.7337,17173,279
2.01324,3.378504,-712,52737,24.883,17173,279
1.10485,3.3206715,-711,52738,25.0324,17173,279
1.84516,3.2250598,-710,52739,24.7337,17173,279
2.0156,3.2250598,-709,52740,24.8332,17173,279
1.02423,3.0346198,-708,52741,24.883,17173,279
1.51917,2.9423757,-707,52742,24.8332,17173,279
1.97739,3.197217,-706,52743,24.883,17173,279
1.51917,2.9423757,-705,52744,25.1319,17173,279
1.34255,2.8731939,-704,52745,24.9328,17173,279
0.793363,3.1289076,-703,52746,24.7337,17173,279
1.3637,3.2042004,-702,52747,25.0324,17173,279
0.625305,3.2042004,-701,52748,24.7337,17173,279
1.49066,2.9423757,-700,52749,24.6839,17173,279
2.32332,2.8705996,-699,52750,24.6839,17173,279
1.88858,2.9143888,-698,52751,24.7337,17173,279
1.71386,3.0905735,-697,52752,24.9328,17173,279
1.53168,3.0517578,-696,52753,24.8332,17178,273
2.4974,3.0346198,-695,52754,24.9328,17178,273
2.5353,3.2158056,-694,52755,24.7337,17178,273
1.59273,3.2158056,-693,52756,24.7337,17178,273
1.53168,3.1121945,-692,52757,24.7337,17178,273
2.22047,3.0223189,-691,52758,24.6839,17178,273
2.36401,3.1948858,-690,52759,24.883,17178,273
2.15287,3.2868438,-689,52760,24.9328,17178,273
2.44921,3.197217,-688,52761,24.883,17178,273
1.79539,3.1217558,-687,52762,24.9328,17178,273
1.49385,3.1217558,-686,52763,24.8332,17174,324
2.39606,3.197217,-685,52764,24.883,17174,324
1.85547,3.0247831,-684,52765,24.6839,17174,324
1.19205,2.8731939,-683,52766,24.8332,17174,324
1.80334,2.6993829,-682,52767,25.0324,17174,324
1.46484,2.9423757,-681,52768,24.9328,17174,324
1.25442,3.2868438,-680,52769,24.9328,17174,324
1.19604,3.1145876,-679,52770,24.7337,17174,324
1.74966,3.0541982,-678,52771,25.0324,17174,324
1.28075,3.0833327,-677,52772,25.0324,17174,324
2.23972,3.0419765,-676,52773,24.883,17176,331
2.33151,3.282307,-675,52774,24.9328,17176,331
1.40163,3.1074028,-674,52775,24.7337,17176,331
2.13284,3.3206715,-673,52776,24.7337,17176,331
1.28817,3.2250598,-672,52777,24.9328,17176,331
1.89865,3.0444248,-671,52778,25.0324,17176,331
1.31745,2.9801161,-670,52779,24.8332,17176,331
2.1771,2.9499624,-669,52780,25.0324,17176,331
1.80334,3.0247831,-668,52781,24.9328,17176,331
1.54099,3.0223189,-667,52782,24.7337,17176,331
1.67161,3.0346198,-666,52783,24.8332,17173,260
1.94088,3.1265255,-665,52784,24.6839,17173,260
1.89614,3.3229145,-664,52785,24.8332,17173,260
1.66016,3.4026757,-663,52786,24.8332,17173,260
1.46158,3.2434888,-662,52787,25.0324,17173,260
1.45176,3.2250598,-661,52788,24.7337,17173,260
2.05078,3.2227487,-660,52789,24.883,17173,260
1.63702,3.1145876,-659,52790,24.7337,17173,260
2.06237,3.1336664,-658,52791,25.0324,17173,260
1.61355,3.0419765,-657,52792,24.9328,17173,260
1.70549,3.0321637,-656,52793,25.0324,17177,295
0.834375,3.0247831,-655,52794,24.6839,17177,295
1.61945,3.0247831,-654,52795,24.7337,17177,295
1.83739,2.937307,-653,52796,24.883,17177,295
1.85804,3.2042004,-652,52797,25.0324,17177,295
2.58559,3.0247831,-651,52798,24.7337,17177,295
1.76323,2.9398424,-650,52799,25.0324,17177,295
1.57769,2.7702162,-649,52800,24.883,17177,295
2.23545,3.0223189,-648,52801,24.5843,17177,295
1.98701,3.1289076,-647,52802,24.7337,17177,295
2.31303,3.3519361,-646,52803,24.883,17175,340
1.59273,3.2273692,-645,52804,24.6839,17175,340
1.86572,2.9900998,-644,52805,25.0324,17175,340
1.52856,3.1714798,-643,52806,24.9328,17175,340
1.80598,3.3851134,-642,52807,25.0821,17175,340
0.834375,3.1502656,-641,52808,25.0324,17175,340
1.32827,3.0346198,-640,52809,24.8332,17175,340
1.84516,2.9347694,-639,52810,24.9328,17175,340
2.03444,2.8497601,-638,52811,25.0324,17175,340
1.40163,2.937307,-637,52812,24.9328,17175,340
2.81853,3.0321637,-636,52813,24.9328,17175,282
0.811194,3.1217558,-635,52814,24.883,17175,282
2.42573,3.1478996,-634,52815,24.6839,17175,282
1.51917,3.231983,-633,52816,24.7337,17175,282
2.25668,3.0517578,-632,52817,25.0324,17175,282
1.1472,3.0905735,-631,52818,24.7337,17175,282
1.74966,2.9575296,-630,52819,24.9328,17175,282
2.0785,3.0247831,-629,52820,24.9328,17175,282
1.89865,3.1360431,-628,52821,24.8332,17175,282
1.94088,3.1217558,-627,52822,24.8332,17175,282
1.87592,2.8601989,-626,52823,24.7337,17176,286
1.54717,2.9575296,-625,52824,24.7337,17176,286
2.5819,3.0833327,-624,52825,24.883,17176,286
0.981433,2.8835478,-623,52826,24.9328,17176,286
1.42525,3.0321637,-622,52827,24.8332,17176,286
1.04725,3.0321637,-621,52828,25.0324,17176,286
2.31509,3.0444248,-620,52829,24.7337,17176,286
2.00374,3.1360431,-619,52830,24.7337,17176,286
1.85804,3.2503728,-618,52831,24.9328,17176,286
0.617632,3.185544,-617,52832,24.883,17176,286
1.3637,3.2042004,-616,52833,24.7337,17175,312
2.30684,3.1407911,-615,52834,24.7337,17175,312
1.42525,3.0905735,-614,52835,24.8332,17175,312
1.62239,3.0833327,-613,52836,24.6839,17175,312
1.48103,3.3541581,-612,52837,24.6839,17175,312
2.58005,3.2981582,-611,52838,24.883,17175,312
1.57466,3.2411909,-610,52839,24.6839,17175,312
1.22752,3.071227,-609,52840,24.9328,17175,312
1.42525,2.9625637,-608,52841,24.8332,17175,312
1.88858,3.0444248,-607,52842,25.0324,17175,312
2.0693,3.071227,-606,52843,24.883,17173,309
1.24679,2.9650776,-605,52844,25.0324,17173,309
1.87846,2.8705996,-604,52845,24.883,17173,309
1.20794,3.0541982,-603,52846,24.8332,17173,309
2.27352,3.0419765,-602,52847,25.0324,17173,309
2.60945,3.0247831,-601,52848,24.9328,17173,309
1.89614,3.0346198,-600,52849,24.883,17173,309
2.86551,3.1597117,-599,52850,25.0324,17173,309
0.78733,3.2526642,-598,52851,25.0324,17173,309
1.63993,3.3608154,-597,52852,24.9328,17173,309
1.59273,3.2595288,-596,52853,24.7337,17179,297
0.625305,3.3541581,-595,52854,25.0324,17179,297
1.63702,3.1925529,-594,52855,24.883,17179,297
1.04725,3.1289076,-593,52856,24.9328,17179,297
1.47781,3.0517578,-592,52857,24.9328,17179,297
1.30655,3.0541982,-591,52858,25.0324,17179,297
2.17052,3.0444248,-590,52859,25.1319,17179,297
1.89865,3.138418,-589,52860,24.9328,17179,297
2.06006,2.8523734,-588,52861,24.9328,17179,297
1.72772,2.7431891,-587,52862,24.8332,17179,297
1.79539,3.0149143,-586,52863,24.8332,17173,300
2.63853,3.1193682,-585,52864,24.9328,17173,300
2.19455,3.1832043,-584,52865,24.9328,17173,300
1.83219,2.7863067,-583,52866,24.883,17173,300
1.5034,3.0223189,-582,52867,24.883,17173,300
1.51603,3.2065248,-581,52868,24.8332,17173,300
2.61128,3.3873137,-580,52869,24.8332,17173,300
1.84774,3.5922703,-579,52870,24.883,17173,300
1.66303,3.3430332,-578,52871,24.8332,17173,300
1.57769,3.4288506,-577,52872,25.0324,17173,300
2.35187,3.5231615,-576,52873,24.8332,17177,293
2.42376,3.2595288,-575,52874,25.0324,17177,293
1.87846,2.9900998,-574,52875,24.7337,17177,293
0.921287,2.8705996,-573,52876,24.9328,17177,293
1.39481,2.9575296,-572,52877,24.5843,17177,293
2.37809,2.9801161,-571,52878,24.8332,17177,293
2.4974,2.7131483,-570,52879,24.8332,17177,293
2.13284,2.7782731,-569,52880,25.0324,17177,293
1.4219,3.1455319,-568,52881,24.8332,17177,293
1.45505,3.1502656,-567,52882,24.7337,17177,293
2.36602,3.0517578,-566,52883,24.7337,17174,288
2.08994,3.0025327,-565,52884,24.9328,17174,288
1.87592,3.0198528,-564,52885,24.7337,17174,288
1.14304,3.3873137,-563,52886,24.8332,17174,288
1.60168,3.6232476,-562,52887,25.0324,17174,288
2.50313,3.6232476,-561,52888,24.7337,17174,288
2.59295,3.5922703,-560,52889,24.9328,17174,288
1.66303,3.4288506,-559,52890,24.9328,17174,288
1.20794,3.1265255,-558,52891,24.8332,17174,288
1.13886,2.8497601,-557,52892,24.883,17174,288
1.45176,3.2042004,-556,52893,24.883,17176,282
2.66729,3.3206715,-555,52894,24.8332,17176,282
2.08537,3.231983,-554,52895,24.883,17176,282
1.47781,3.1478996,-553,52896,24.883,17176,282
1.49385,3.0346198,-552,52897,24.7337,17176,282
2.30477,3.1145876,-551,52898,24.7337,17176,282
1.79273,3.0321637,-550,52899,25.0324,17176,282
1.83739,3.1336664,-549,52900,24.6839,17176,282
1.33185,2.9499624,-548,52901,24.7337,17176,282
2.41983,3.1478996,-547,52902,24.9328,17176,282
1.23912,3.2891098,-546,52903,24.7337,17179,323
1.98701,3.39171,-545,52904,24.8332,17179,323
1.6165,3.185544,-544,52905,24.7337,17179,323
1.5034,3.1193682,-543,52906,24.9328,17179,323
1.68298,3.3408038,-542,52907,24.8332,17179,323
1.93596,3.6232476,-541,52908,24.7337,17179,323
0.941763,3.3608154,-540,52909,24.883,17179,323
1.56555,2.9650776,-539,52910,24.883,17179,323
1.28447,3.3071819,-538,52911,24.7337,17179,323
1.54408,3.2065248,-537,52912,24.7337,17179,323
1.4118,3.0444248,-536,52913,24.9328,17180,306
2.05311,2.7702162,-535,52914,24.9328,17180,306
1.57466,2.8601989,-534,52915,24.8332,17180,306
2.72214,3.0419765,-533,52916,24.883,17180,306
1.17998,3.0541982,-532,52917,24.9328,17180,306
1.37415,2.9550094,-531,52918,24.883,17180,306
1.77401,2.8601989,-530,52919,24.8332,17180,306
1.09619,3.0321637,-529,52920,24.8332,17180,306
1.93842,3.1121945,-528,52921,24.883,17180,306
1.80334,2.9550094,-527,52922,24.7337,17180,306
1.4681,3.0615079,-526,52923,24.8332,17175,271
1.70829,3.2709377,-525,52924,24.883,17175,271
1.99897,3.2526642,-524,52925,24.9328,17175,271
2.22905,3.4288506,-523,52926,25.0324,17175,271
1.55638,3.5252757,-522,52927,24.9328,17175,271
1.94088,3.3408038,-521,52928,24.8332,17175,271
2.04379,3.0833327,-520,52929,25.0324,17175,271
0.941763,2.9423757,-519,52930,24.7337,17175,271
2.01087,3.0223189,-518,52931,25.0324,17175,271
2.55777,2.937307,-517,52932,24.8332,17175,271
1.54408,2.7702162,-516,52933,24.6839,17178,292
1.42525,2.6799925,-515,52934,24.9328,17178,292
1.80598,2.7621359,-514,52935,24.9328,17178,292
1.86316,2.9423757,-513,52936,24.883,17178,292
1.86827,3.2042004,-512,52937,24.8332,17178,292
1.59273,3.378504,-511,52938,24.7337,17178,292
1.86572,3.2227487,-510,52939,24.7337,17178,292
2.90024,3.1265255,-509,52940,24.8332,17178,292
1.34255,3.1289076,-508,52941,24.9328,17178,292
1.86572,3.2981582,-507,52942,24.8332,17178,292
1.74146,3.1265255,-506,52943,24.8332,17176,292
1.20794,3.0419765,-505,52944,24.6839,17176,292
2.17052,2.9650776,-504,52945,24.7337,17176,292
1.23912,3.0247831,-503,52946,25.0324,17176,292
2.0762,3.1217558,-502,52947,24.8332,17176,292
1.25442,3.1217558,-501,52948,24.8332,17176,292
0.966748,2.9625637,-500,52949,25.0821,17176,292
1.43525,2.8601989,-499,52950,24.7337,17176,292
1.83739,3.1097996,-498,52951,24.9328,17176,292
1.99897,2.937307,-497,52952,24.8332,17176,292
1.56859,2.677211,-496,52953,24.5843,17176,309
1.73872,2.5952504,-495,52954,24.9328,17176,309
1.33185,2.5076463,-494,52955,24.7337,17176,309
2.08537,2.7675254,-493,52956,24.7337,17176,309
1.73047,3.0517578,-492,52957,24.883,17176,309
1.39139,3.0173845,-491,52958,24.883,17176,309
1.16371,2.9118312,-490,52959,24.7337,17176,309
2.43554,2.9826152,-489,52960,24.9328,17176,309
1.38796,3.0833327,-488,52961,24.883,17176,309
2.05311,3.1925529,-487,52962,24.8332,17176,309
1.57163,3.2595288,-486,52963,24.8332,17173,276
1.96529,3.0541982,-485,52964,25.0324,17173,276
1.50022,3.0541982,-484,52965,24.9328,17173,276
1.25442,3.231983,-483,52966,24.8332,17173,276
1.81913,3.282307,-482,52967,24.8332,17173,276
0.966748,3.1097996,-481,52968,24.7337,17173,276
2.41983,3.1169788,-480,52969,24.8332,17173,276
1.5034,3.1169788,-479,52970,25.0324,17173,276
2.63129,2.9423757,-478,52971,25.0324,17173,276
2.02975,2.8628026,-477,52972,25.1319,17173,276
1.66016,2.9423757,-476,52973,24.9328,17177,287
1.60168,2.8497601,-475,52974,24.9328,17177,287
2.03209,2.7621359,-474,52975,24.8332,17177,287
0.981433,2.6351359,-473,52976,24.883,17177,287
2.0739,2.9423757,-472,52977,24.8332,17177,287
1.89865,3.3206715,-471,52978,24.883,17177,287
1.29923,3.3229145,-470,52979,24.9328,17177,287
1.78473,3.411423,-469,52980,24.8332,17177,287
1.41517,3.4591375,-468,52981,24.9328,17177,287
1.04268,3.411423,-467,52982,24.883,17177,287
2.19238,3.3519361,-466,52983,24.6839,17177,313
1.86316,3.3408038,-465,52984,24.9328,17177,313
1.52544,3.2273692,-464,52985,24.883,17177,313
2.48784,3.5652055,-463,52986,24.8332,17177,313
1.82698,3.2868438,-462,52987,24.9328,17177,313
1.33185,3.1948858,-461,52988,24.8332,17177,313
1.97498,3.0223189,-460,52989,24.8332,17177,313
0.662337,3.1948858,-459,52990,25.0821,17177,313
1.24679,3.2800363,-458,52991,24.883,17177,313
2.04379,3.1336664,-457,52992,24.883,17177,313
2.22905,3.1145876,-456,52993,24.8332,17178,318
1.4219,3.456983,-455,52994,24.6839,17178,318
1.60168,3.6600743,-454,52995,24.8332,17178,318
1.45176,4.5198996,-453,52996,24.8332,17178,318
2.30477,5.1240459,-452,52997,24.9328,17178,318
2.06237,5.1254997,-451,52998,24.8332,17178,318
1.19205,4.2162881,-450,52999,24.883,17178,318
1.88606,4.4097636,-449,53000,24.9328,17178,318
1.31383,5.0478694,-448,53001,24.883,17178,318
1.09619,7.6017566,-447,53002,24.6839,17178,318
1.74146,11.503791,-446,53003,25.0821,17180,285
1.36019,8.5884078,-445,53004,25.0324,17180,285
1.54717,10.662127,-444,53005,24.8332,17180,285
1.71664,11.481101,-443,53006,24.883,17180,285
2.44336,25.533713,-442,53007,24.7337,17180,285
1.6165,38.067544,-441,53008,24.6839,17180,285
1.15548,43.976836,-440,53009,24.9328,17180,285
1.6165,51.758676,-439,53010,24.7337,17180,285
0.717624,64.882295,-438,53011,25.0324,17180,285
1.87592,79.751255,-437,53012,24.9328,17180,285
2.05543,88.100776,-436,53013,24.883,17173,273
2.02504,85.822722,-435,53014,24.8332,17173,273
2.09222,75.912131,-434,53015,24.7337,17173,273
2.40995,63.511531,-433,53016,24.9328,17173,273
2.31303,48.17387,-432,53017,24.6839,17173,273
1.94824,33.779747,-431,53018,24.883,17173,273
1.60466,29.843882,-430,53019,24.6839,17173,273
1.29923,27.471245,-429,53020,24.9328,17173,273
1.88606,24.009713,-428,53021,24.8332,17173,273
2.19672,24.691719,-427,53022,24.883,17173,273
2.95561,30.201981,-426,53023,24.7337,17181,325
2.50693,33.149676,-425,53024,24.883,17181,325
1.28817,31.346411,-424,53025,24.9328,17181,325
1.44518,32.554347,-423,53026,24.8332,17181,325
1.82437,36.18762,-422,53027,24.7337,17181,325
1.79539,43.414663,-421,53028,24.6839,17181,325
2.36602,55.046538,-420,53029,25.0324,17181,325
2.0762,61.813759,-419,53030,24.9328,17181,325
1.62826,57.307299,-418,53031,24.7337,17181,325
0.921287,42.398132,-417,53032,24.9328,17181,325
1.51917,26.843537,-416,53033,25.0324,17176,259
1.92856,25.541882,-415,53034,24.7337,17176,259
1.75238,35.499382,-414,53035,24.9328,17176,259
2.08765,55.256877,-413,53036,24.9328,17176,259
1.04268,71.238147,-412,53037,25.0821,17176,259
2.26722,84.123541,-411,53038,24.8332,17176,259
1.73047,98.632661,-410,53039,25.0324,17176,259
2.21187,100.74566,-409,53040,24.9328,17176,259
2.72039,85.664315,-408,53041,24.9328,17176,259
2.5353,77.519358,-407,53042,25.0324,17176,259
0.981433,85.733605,-406,53043,24.9328,17184,271
1.66303,85.646744,-405,53044,24.7337,17184,271
1.77132,42.240914,-404,53045,24.9328,17184,271
1.90617,23.234121,-403,53046,24.8332,17184,271
1.4681,51.433193,-402,53047,24.8332,17184,271
1.34255,39.649557,-401,53048,24.9328,17184,271
1.74966,28.216996,-400,53049,24.4848,17184,271
1.95556,23.728786,-399,53050,24.7337,17184,271
1.35668,23.102593,-398,53051,24.6839,17184,271
1.76052,45.662782,-397,53052,24.9328,17184,271
2.13284,56.444156,-396,53053,24.9328,17164,325
1.56859,47.785032,-395,53054,25.0324,17164,325
2.55404,36.11755,-394,53055,24.9328,17164,325
2.08765,32.856195,-393,53056,24.7337,17164,325
2.1573,35.924569,-392,53057,24.8332,17164,325
1.13045,38.292155,-391,53058,24.9328,17164,325
1.86827,32.715299,-390,53059,24.8332,17164,325
2.53718,20.195167,-389,53060,24.883,17164,325
1.89362,10.052844,-388,53061,24.5345,17164,325
2.04845,11.299914,-387,53062,24.7337,17164,325
2.02504,15.596841,-386,53063,25.0821,17167,320
2.08994,15.251952,-385,53064,24.8332,17167,320
1.66589,15.489467,-384,53065,24.7337,17167,320
1.66303,22.076172,-383,53066,24.7337,17167,320
1.77132,29.527141,-382,53067,24.9328,17167,320
1.69146,28.982896,-381,53068,24.7337,17167,320
1.57163,22.693918,-380,53069,24.8332,17167,320
2.10585,19.425679,-379,53070,24.7337,17167,320
1.12198,22.148615,-378,53071,24.6839,17167,320
2.36602,27.267896,-377,53072,24.7337,17167,320
2.27981,25.486691,-376,53073,24.9328,17164,274
2.37206,16.021467,-375,53074,24.9328,17164,274
2.33151,8.090785,-374,53075,24.7337,17164,274
1.22363,8.1787109,-373,53076,24.883,17164,274
1.4118,9.6443273,-372,53077,24.8332,17164,274
1.49066,8.5396887,-371,53078,24.7337,17164,274
1.22752,6.4431852,-370,53079,24.8332,17164,274
1.26953,4.4013077,-369,53080,25.0324,17164,274
1.49066,4.6786543,-368,53081,24.9328,17164,274
1.59273,6.0446379,-367,53082,24.883,17164,274
1.73047,7.6476832,-366,53083,24.8332,17165,283
1.39139,8.4748804,-365,53084,25.0324,17165,283
2.42573,8.739757,-364,53085,24.7337,17165,283
2.46667,8.6428885,-363,53086,24.8332,17165,283
2.02033,8.2792114,-362,53087,24.6839,17165,283
1.52231,10.179522,-361,53088,24.883,17165,283
1.82437,14.812316,-360,53089,24.9328,17165,283
1.25061,18.539422,-359,53090,24.9328,17165,283
2.33151,17.590836,-358,53091,25.0821,17165,283
1.6165,12.075093,-357,53092,24.8332,17165,283
1.36019,6.3253156,-356,53093,24.8332,17164,323
2.11488,9.0735283,-355,53094,25.0324,17164,323
2.15066,7.3018049,-354,53095,24.8332,17164,323
0.995902,4.0209153,-353,53096,24.883,17164,323
1.4681,6.260196,-352,53097,24.8332,17164,323
0.966748,5.4714196,-351,53098,24.6839,17164,323
1.68863,23.073872,-350,53099,25.0324,17164,323
2.0716,41.369771,-349,53100,24.9328,17164,323
1.96044,54.171031,-348,53101,24.7337,17164,323
1.88858,58.994323,-347,53102,24.7337,17164,323
1.83739,57.349277,-346,53103,24.7337,17174,291
1.60168,53.806982,-345,53104,24.883,17174,291
1.00068,52.673587,-344,53105,24.883,17174,291
2.88541,54.087067,-343,53106,24.883,17174,291
2.55217,56.914751,-342,53107,24.883,17174,291
2.08765,60.301375,-341,53108,24.8332,17174,291
1.8529,63.698483,-340,53109,24.9328,17174,291
1.41517,66.068238,-339,53110,25.0324,17174,291
1.28447,66.072636,-338,53111,24.9328,17174,291
2.31921,62.90519,-337,53112,24.8332,17174,291
1.4681,62.877706,-336,53113,24.7337,17198,259
1.82698,70.853589,-335,53114,25.0324,17198,259
0.534885,84.831841,-334,53115,24.9328,17198,259
0.577742,96.073912,-333,53116,24.7337,17198,259
1.79804,99.873063,-332,53117,24.883,17198,259
1.86572,100.31365,-331,53118,24.6839,17198,259
1.68298,102.80944,-330,53119,24.7337,17198,259
2.26512,107.91464,-329,53120,25.0324,17198,259
1.23912,113.07869,-328,53121,24.9328,17198,259
1.73047,116.4163,-327,53122,25.0324,17198,259
2.06237,118.73037,-326,53123,24.9328,17273,310
2.44921,121.49848,-325,53124,24.7337,17273,310
1.49385,123.29688,-324,53125,24.8332,17273,310
1.49385,123.54276,-323,53126,24.883,17273,310
1.3029,123.2091,-322,53127,24.8332,17273,310
1.60168,124.10961,-321,53128,24.7337,17273,310
0.817051,125.89374,-320,53129,24.883,17273,310
0.926449,125.78118,-319,53130,24.883,17273,310
1.1596,125.39408,-318,53131,24.6839,17273,310
1.26577,125.2768,-317,53132,25.0324,17273,310
1.8606,121.01651,-316,53133,24.9328,17368,329
2.05078,112.04599,-315,53134,24.883,17368,329
2.09222,101.39238,-314,53135,24.9328,17368,329
2.80666,91.633916,-313,53136,24.9328,17368,329
1.93596,84.61278,-312,53137,24.8332,17368,329
1.04268,81.655915,-311,53138,25.0324,17368,329
2.14177,81.962193,-310,53139,24.883,17368,329
2.60945,86.37499,-309,53140,24.883,17368,329
1.52856,92.064407,-308,53141,24.5843,17368,329
2.45504,89.725084,-307,53142,24.9328,17368,329
2.05543,87.385549,-306,53143,24.9328,17421,286
2.64575,93.594263,-305,53144,24.8332,17421,286
2.82698,115.03765,-304,53145,24.883,17421,286
2.43358,124.90257,-303,53146,24.9328,17421,286
2.37809,113.62615,-302,53147,24.7337,17421,286
1.39139,96.10105,-301,53148,24.883,17421,286
0.478416,83.055729,-300,53149,24.8332,17421,286
1.66303,74.617919,-299,53150,24.7337,17421,286
2.22905,71.703399,-298,53151,24.8332,17421,286
1.91864,82.273308,-297,53152,24.883,17421,286
2.17929,103.11438,-296,53153,24.883,17441,286
1.59273,124.2346,-295,53154,25.0324,17441,286
2.81175,131.41644,-294,53155,24.9328,17441,286
2.65833,121.78886,-293,53156,24.7337,17441,286
2.76903,100.1554,-292,53157,24.883,17441,286
2.70985,79.466273,-291,53158,25.0324,17441,286
3.07113,73.12674,-290,53159,24.883,17441,286
3.20485,90.444217,-289,53160,24.7337,17441,286
2.65833,111.79568,-288,53161,24.883,17441,286
2.32332,114.4088,-287,53162,25.0324,17441,286
1.51917,113.05919,-286,53163,24.883,17441,269
1.82698,125.30498,-285,53164,25.0324,17441,269
1.88858,141.14739,-284,53165,24.9328,17441,269
1.75781,155.40102,-283,53166,24.883,17441,269
1.37067,167.56555,-282,53167,25.0324,17441,269
1.86316,176.92785,-281,53168,24.7337,17441,269
1.57769,181.89529,-280,53169,24.883,17441,269
1.77132,179.96087,-279,53170,24.8332,17441,269
1.62826,172.39985,-278,53171,24.883,17441,269
1.65152,160.91247,-277,53172,25.0324,17441,269
1.68863,147.03393,-276,53173,24.883,17439,311
1.92361,131.62701,-275,53174,24.8332,17439,311
2.41391,115.77222,-274,53175,25.0324,17439,311
2.51832,96.769272,-273,53176,24.883,17439,311
2.44726,76.936745,-272,53177,24.6839,17439,311
2.11714,64.470462,-271,53178,24.7337,17439,311
1.68863,74.291996,-270,53179,24.883,17439,311
1.84516,82.197203,-269,53180,24.7337,17439,311
2.25668,69.786435,-268,53181,24.883,17439,311
1.60466,58.803057,-267,53182,24.7337,17439,311
1.39822,63.085909,-266,53183,24.7337,17335,286
2.31303,76.721264,-265,53184,24.8332,17335,286
2.06006,79.236516,-264,53185,24.9328,17335,286
1.67161,90.327495,-263,53186,24.7337,17335,286
1.49385,128.82612,-262,53187,25.0324,17335,286
1.87592,194.66728,-261,53188,25.0324,17335,286
1.68298,268.5616,-260,53189,24.8332,17335,286
2.44726,328.035,-259,53190,24.883,17335,286
1.83739,372.43742,-258,53191,25.0324,17335,286
0.730792,414.02601,-257,53192,24.6839,17335,286
1.23912,450.53497,-256,53193,24.883,17267,296
2.28816,478.59241,-255,53194,24.9328,17267,296
1.68863,497.76331,-254,53195,24.7337,17267,296
1.53789,508.38383,-253,53196,24.8332,17267,296
1.95556,510.10997,-252,53197,24.6839,17267,296
1.37415,504.51202,-251,53198,24.8332,17267,296
1.65152,493.40127,-250,53199,24.9328,17267,296
2.11488,478.30091,-249,53200,24.883,17267,296
2.22905,454.41649,-248,53201,25.0324,17267,296
2.59295,413.38298,-247,53202,24.883,17267,296
5.96982,435.22004,-246,53203,24.8332,17256,295
3.98002,439.59269,-245,53204,24.9328,17256,295
3.15537,465.66447,-244,53205,25.1319,17256,295
3.08353,408.84788,-243,53206,24.9328,17256,295
2.16832,193.84181,-242,53207,25.0324,17256,295
1.60466,102.50687,-241,53208,24.8332,17256,295
2.43358,87.290602,-240,53209,24.7337,17256,295
2.14622,99.003765,-239,53210,24.9328,17256,295
2.67443,147.1799,-238,53211,24.9328,17256,295
2.14622,144.53321,-237,53212,24.883,17256,295
2.25245,147.84307,-236,53213,24.883,17196,293
1.98701,176.30508,-235,53214,24.8332,17196,293
2.44336,155.99124,-234,53215,24.9328,17196,293
1.30655,106.80741,-233,53216,24.883,17196,293
1.52231,79.966211,-232,53217,24.9328,17196,293
2.67264,47.030667,-231,53218,24.883,17196,293
1.24296,100.17191,-230,53219,24.8332,17196,293
2.21187,176.22109,-229,53220,24.9328,17196,293
3.05244,171.07487,-228,53221,24.9328,17196,293
2.37005,94.037331,-227,53222,24.883,17196,293
2.39407,136.84697,-226,53223,24.8332,17113,295
1.98701,199.88942,-225,53224,24.7337,17113,295
1.62239,261.42394,-224,53225,24.7337,17113,295
2.01324,331.20276,-223,53226,24.7337,17113,295
1.1472,415.33625,-222,53227,25.0821,17113,295
1.73047,497.26389,-221,53228,25.0324,17113,295
1.25442,537.4186,-220,53229,24.7337,17113,295
1.88858,527.99758,-219,53230,24.8332,17113,295
1.11345,496.67322,-218,53231,24.8332,17113,295
1.99897,463.14636,-217,53232,24.6839,17113,295
2.17052,427.22471,-216,53233,24.8332,17063,281
1.97739,376.71755,-215,53234,24.883,17063,281
2.69574,325.43929,-214,53235,25.0324,17063,281
2.66729,316.88948,-213,53236,24.883,17063,281
2.98132,271.81912,-212,53237,24.6839,17063,281
3.21821,148.08955,-211,53238,24.8332,17063,281
3.05244,61.082501,-210,53239,24.883,17063,281
1.85804,72.040413,-209,53240,24.7337,17063,281
1.17594,73.299335,-208,53241,24.7337,17063,281
1.40163,86.52185,-207,53242,24.6839,17063,281
1.66589,119.91835,-206,53243,24.6839,17064,304
1.42525,132.87184,-205,53244,25.0324,17064,304
1.72495,123.94562,-204,53245,24.8332,17064,304
1.66303,114.34451,-203,53246,24.8332,17064,304
1.19604,129.15674,-202,53247,24.9328,17064,304
1.62239,159.18011,-201,53248,24.9328,17064,304
1.18402,185.71982,-200,53249,24.8332,17064,304
1.38107,209.82928,-199,53250,24.883,17064,304
2.02269,230.89689,-198,53251,24.9328,17064,304
1.79539,237.54484,-197,53252,24.8332,17064,304
2.27981,227.49279,-196,53253,24.8332,17023,306
2.48016,207.10911,-195,53254,25.0324,17023,306
2.84044,184.8082,-194,53255,24.883,17023,306
2.03209,155.85951,-193,53256,24.8332,17023,306
2.21617,121.13724,-192,53257,24.9328,17023,306
1.88099,90.45649,-191,53258,24.883,17023,306
2.81853,68.964649,-190,53259,24.9328,17023,306
2.68865,51.123274,-189,53260,25.0821,17023,306
2.75349,40.272289,-188,53261,24.7337,17023,306
1.77132,45.442467,-187,53262,24.8332,17023,306
1.99897,70.896794,-186,53263,24.7337,17000,266
1.73323,106.30923,-185,53264,24.883,17000,266
1.79804,138.86881,-184,53265,24.9328,17000,266
0.793363,164.48385,-183,53266,24.8332,17000,266
1.8529,175.64595,-182,53267,24.7337,17000,266
2.45115,166.55249,-181,53268,24.9328,17000,266
2.08994,143.11644,-180,53269,24.883,17000,266
1.01956,132.5135,-179,53270,24.9328,17000,266
2.01324,167.67352,-178,53271,24.883,17000,266
3.96561,303.94844,-177,53272,24.8332,17000,266
5.03096,285.33178,-176,53273,24.8332,17005,330
3.87438,325.93224,-175,53274,24.9328,17005,330
2.13284,388.79766,-174,53275,24.8332,17005,330
1.56859,285.39071,-173,53276,24.883,17005,330
1.1472,203.02935,-172,53277,24.9328,17005,330
1.31383,187.94979,-171,53278,25.0821,17005,330
2.82191,132.9006,-170,53279,25.0324,17005,330
1.78206,150.28219,-169,53280,24.7337,17005,330
2.77935,238.71779,-168,53281,24.7337,17005,330
3.08043,481.6148,-167,53282,24.8332,17005,330
5.68087,902.88967,-166,53283,24.9328,17010,304
8.10135,1390.6929,-165,53284,24.7337,17010,304
8.43978,1677.7855,-164,53285,25.0821,17010,304
9.15107,1271.1275,-163,53286,24.9328,17010,304
9.32349,229.80066,-162,53287,24.883,17010,304
8.16233,582.16317,-161,53288,25.0821,17010,304
7.96542,619.41866,-160,53289,25.0324,17010,304
6.15777,388.15904,-159,53290,24.9328,17010,304
4.51865,549.24887,-158,53291,24.883,17010,304
4.17188,473.63171,-157,53292,24.9328,17010,304
22.149,337.19261,-156,53293,24.9328,17004,267
37.7576,1214.4353,-155,53294,24.883,17004,267
8.52075,1655.0929,-154,53295,25.0324,17004,267
26.9338,716.42485,-153,53296,24.8332,17004,267
9.62843,775.61454,-152,53297,24.7337,17004,267
9.00664,1271.7507,-151,53298,24.6839,17004,267
7.02107,843.31209,-150,53299,24.7337,17004,267
5.8805,526.8957,-149,53300,24.883,17004,267
5.95223,485.96463,-148,53301,25.0821,17004,267
6.05311,236.38011,-147,53302,24.9328,17004,267
4.85244,323.38603,-146,53303,24.9328,16976,303
5.21982,349.86989,-145,53304,25.0324,16976,303
5.33099,570.9273,-144,53305,25.0821,16976,303
6.63847,772.67458,-143,53306,24.7337,16976,303
3.93665,622.35151,-142,53307,24.9328,16976,303
1.80334,426.06306,-141,53308,24.883,16976,303
2.54656,421.23883,-140,53309,24.9328,16976,303
2.91827,533.14836,-139,53310,24.9328,16976,303
4.79809,693.74537,-138,53311,25.0324,16976,303
4.67732,766.23026,-137,53312,24.883,16976,303
5.2671,717.79893,-136,53313,25.0324,16969,323
5.64467,624.98467,-135,53314,25.1319,16969,323
6.5313,508.6929,-134,53315,24.9328,16969,323
4.9159,473.90712,-133,53316,24.9328,16969,323
4.811,585.93805,-132,53317,25.0324,16969,323
3.75183,714.43958,-131,53318,24.7337,16969,323
3.51563,736.05649,-130,53319,24.8332,16969,323
4.45167,662.55865,-129,53320,24.9328,16969,323
3.50884,576.40546,-128,53321,24.883,16969,323
3.09433,521.46902,-127,53322,24.9328,16969,323
2.70809,477.99433,-126,53323,24.8332,17315,335
2.67977,433.78212,-125,53324,24.8332,17315,335
3.2108,402.96993,-124,53325,24.9328,17315,335
2.38409,385.12891,-123,53326,24.9328,17315,335
2.49549,377.69748,-122,53327,25.0324,17315,335
1.30655,386.53468,-121,53328,24.7337,17315,335
1.88606,405.19259,-120,53329,24.9328,17315,335
1.25061,439.02842,-119,53330,24.8332,17315,335
2.6922,487.17026,-118,53331,24.8332,17315,335
1.43857,549.61799,-117,53332,24.9328,17315,335
1.28817,624.24913,-116,53333,25.0821,18711,295
0.750112,701.05525,-115,53334,25.0324,18711,295
1.83479,763.86081,-114,53335,24.8332,18711,295
2.15287,814.00027,-113,53336,25.0324,18711,295
0.946812,857.12618,-112,53337,25.0324,18711,295
2.0693,898.69379,-111,53338,24.9328,18711,295
1.80334,936.48479,-110,53339,24.9328,18711,295
2.0762,968.21925,-109,53340,24.7337,18711,295
1.07422,988.04638,-108,53341,24.8332,18711,295
2.05311,985.73937,-107,53342,24.9328,18711,295
2.63853,950.85969,-106,53343,24.883,17780,278
2.22047,884.18017,-105,53344,25.0821,17780,278
1.62532,792.83347,-104,53345,24.9328,17780,278
2.31509,686.77254,-103,53346,24.8332,17780,278
1.65152,590.60692,-102,53347,24.9328,17780,278
2.21832,547.45681,-101,53348,24.883,17780,278
3.06024,585.89123,-100,53349,24.883,17780,278
2.20539,690.16418,-99,53350,24.7337,17780,278
0.900346,813.8609,-98,53351,25.0324,17780,278
1.66303,928.38986,-97,53352,24.6839,17780,278
1.63702,1019.3326,-96,53353,24.6839,16870,337
2.05311,1078.2397,-95,53354,24.9328,16870,337
1.50022,1106.4157,-94,53355,24.883,16870,337
1.86316,1101.3016,-93,53356,24.7337,16870,337
1.46484,1067.3994,-92,53357,24.6839,16870,337
1.10916,1013.825,-91,53358,24.8332,16870,337
1.68863,953.34899,-90,53359,24.6839,16870,337
1.48103,885.00349,-89,53360,24.883,16870,337
1.92856,803.77833,-88,53361,24.7337,16870,337
1.01956,729.12451,-87,53362,24.6839,16870,337
2.41391,686.88134,-86,53363,24.8332,16588,337
2.11037,709.83426,-85,53364,24.883,16588,337
2.1771,784.21187,-84,53365,24.7337,16588,337
1.5034,826.70826,-83,53366,24.8332,16588,337
2.08537,813.56593,-82,53367,24.9328,16588,337
1.73047,773.43736,-81,53368,24.8332,16588,337
2.95239,728.02432,-80,53369,25.0324,16588,337
2.00612,684.26839,-79,53370,24.883,16588,337
3.04775,646.9175,-78,53371,24.9328,16588,337
3.27695,623.38923,-77,53372,24.7337,16588,337
3.5224,621.97748,-76,53373,24.6839,16588,285
1.45505,638.05026,-75,53374,24.883,16588,285
2.22262,649.32766,-74,53375,24.9328,16588,285
3.64612,636.31419,-73,53376,24.6839,16588,285
3.27985,597.15931,-72,53377,24.9328,16588,285
2.7862,547.24839,-71,53378,24.9328,16588,285
3.00362,506.66311,-70,53379,24.8332,16588,285
2.77935,481.53423,-69,53380,24.9328,16588,285
2.43358,464.85441,-68,53381,24.9328,16588,285
2.72564,446.90608,-67,53382,24.7337,16588,285
1.958,425.08292,-66,53383,24.7337,16502,282
2.79304,403.25488,-65,53384,24.8332,16502,282
2.28816,385.02312,-64,53385,24.883,16502,282
3.45819,367.90672,-63,53386,24.883,16502,282
3.054,351.69311,-62,53387,24.8332,16502,282
3.73016,332.82508,-61,53388,25.0821,16502,282
3.16292,309.54206,-60,53389,24.9328,16502,282
3.88422,285.4427,-59,53390,25.0324,16502,282
3.58812,260.45732,-58,53391,24.8332,16502,282
3.2987,236.68212,-57,53392,24.8332,16502,282
2.87382,213.99956,-56,53393,24.9328,16474,351
2.86051,192.6454,-55,53394,25.0324,16474,351
3.33893,174.08528,-54,53395,24.8332,16474,351
3.69678,158.14726,-53,53396,24.8332,16474,351
3.37868,147.38184,-52,53397,24.9328,16474,351
2.95239,144.50614,-51,53398,24.6839,16474,351
3.37444,148.25689,-50,53399,24.9328,16474,351
3.36595,156.05318,-49,53400,24.8332,16474,351
3.37444,169.41763,-48,53401,24.9328,16474,351
3.7276,187.42934,-47,53402,24.9328,16474,351
3.44576,210.02934,-46,53403,24.6839,16464,306
2.83371,234.2014,-45,53404,24.9328,16464,306
2.83876,258.15837,-44,53405,24.8332,16464,306
3.67997,281.3234,-43,53406,24.9328,16464,306
3.57614,303.75433,-42,53407,24.9328,16464,306
2.67264,326.57678,-41,53408,24.6839,16464,306
3.91965,349.50564,-40,53409,24.7337,16464,306
3.39557,373.84957,-39,53410,24.883,16464,306
3.26528,395.29575,-38,53411,24.8332,16464,306
2.75176,417.60654,-37,53412,24.8332,16464,306
3.39136,439.80136,-36,53413,24.883,16455,324
2.84547,461.71415,-35,53414,24.9328,16455,324
3.48429,483.32471,-34,53415,24.7337,16455,324
2.61675,505.45614,-33,53416,24.9328,16455,324
2.42573,528.3205,-32,53417,24.883,16455,324
2.52021,551.1804,-31,53418,24.8332,16455,324
3.15386,573.32562,-30,53419,24.883,16455,324
2.53718,593.92613,-29,53420,24.883,16455,324
3.12805,612.65457,-28,53421,24.8332,16455,324
3.00838,631.39091,-27,53422,24.9328,16455,324
1.63702,649.91686,-26,53423,24.8332,16461,315
2.35997,666.12536,-25,53424,24.7337,16461,315
2.18584,680.8545,-24,53425,24.883,16461,315
3.27549,694.62939,-23,53426,24.7337,16461,315
1.80334,706.80641,-22,53427,24.7337,16461,315
2.48784,717.00016,-21,53428,24.8332,16461,315
2.0762,725.29251,-20,53429,24.7337,16461,315
2.24822,731.62294,-19,53430,24.8332,16461,315
1.59572,736.04724,-18,53431,24.9328,16461,315
1.7767,740.19326,-17,53432,24.883,16461,315
2.22905,744.77103,-16,53433,24.883,16465,317
2.49549,749.40457,-15,53434,24.8332,16465,317
2.27352,752.93227,-14,53435,24.8332,16465,317
1.63993,755.82868,-13,53436,25.0324,16465,317
1.41854,757.75386,-12,53437,24.9328,16465,317
2.12613,758.44498,-11,53438,24.883,16465,317
2.33968,758.35939,-10,53439,24.8332,16465,317
2.61493,757.04085,-9,53440,24.9328,16465,317
2.67443,755.5678,-8,53441,25.0821,16465,317
1.50022,753.90224,-7,53442,24.883,16465,317
2.38009,750.91817,-6,53443,24.9328,16459,316
2.11037,745.59265,-5,53444,24.7337,16459,316
1.66589,739.82636,-4,53445,24.6839,16459,316
2.35593,735.21014,-3,53446,24.883,16459,316
1.96772,730.61574,-2,53447,24.8332,16459,316
2.91173,697.38814,-1,53448,24.8332,16459,316
28.4671,412.0856,0,53449,25.0324,16459,316
21.6614,263.90512,1,53450,24.6839,16459,316
5.03001,465.60158,2,53451,24.5843,16459,316
3.91357,549.77689,3,53452,24.883,16459,316
3.33178,461.39052,4,53453,24.883,16501,281
3.38432,268.19651,5,53454,24.9328,16501,281
4.01817,224.89904,6,53455,25.1319,16501,281
4.70679,209.0325,7,53456,24.9328,16501,281
4.48475,139.71618,8,53457,24.9328,16501,281
3.84473,117.90684,9,53458,24.7337,16501,281
3.77464,138.88389,10,53459,24.7337,16501,281
4.10156,195.2178,11,53460,24.7337,16501,281
3.08198,222.75049,12,53461,24.883,16501,281
2.65474,203.74003,13,53462,24.9328,16501,281
2.61128,200.29804,14,53463,24.7337,16493,316
3.01313,204.08484,15,53464,24.7337,16493,316
1.6165,189.61956,16,53465,24.6839,16493,316
2.14177,173.98035,17,53466,24.883,16493,316
1.09183,158.79734,18,53467,24.7337,16493,316
0.323889,145.21976,19,53468,24.5843,16493,316
1.19604,137.07436,20,53469,24.8332,16493,316
0.905627,131.29257,21,53470,25.0324,16493,316
4.33444,150.64629,22,53471,24.9328,16493,316
2.25668,255.80824,23,53472,24.9328,16493,316
0.59402,327.98239,24,53473,25.0324,16495,366
0.436732,270.05336,25,53474,25.0324,16495,366
0.690534,204.89803,26,53475,24.9328,16495,366
0.458048,229.89444,27,53476,24.9328,16495,366
0.799351,315.66526,28,53477,24.883,16495,366
1.63993,380.20437,29,53478,25.0324,16495,366
1.70829,356.5836,30,53479,25.0324,16495,366
0.425674,289.46465,31,53480,24.9328,16495,366
1.89614,257.02008,32,53481,24.9328,16495,366
1.43857,260.33274,33,53482,24.883,16495,366
2.16392,273.2007,34,53483,24.883,16476,278
2.43358,287.26843,35,53484,24.7337,16476,278
2.08994,295.03725,36,53485,25.0821,16476,278
2.09677,298.93552,37,53486,24.9328,16476,278
1.34255,301.69897,38,53487,24.9328,16476,278
2.09222,297.17485,39,53488,24.7337,16476,278
2.27352,281.74436,40,53489,24.883,16476,278
3.40259,260.25033,41,53490,24.883,16476,278
2.51643,239.41773,42,53491,24.9328,16476,278
2.31715,217.63579,43,53492,24.6839,16476,278
1.36019,199.04372,44,53493,24.7337,16455,322
2.05078,185.44128,45,53494,25.0324,16455,322
2.03444,180.60182,46,53495,24.9328,16455,322
1.31383,183.03034,47,53496,24.8332,16455,322
2.23759,189.78495,48,53497,24.883,16455,322
2.2819,198.23715,49,53498,24.883,16455,322
2.53342,203.95922,50,53499,24.6839,16455,322
2.04146,206.13581,51,53500,24.6839,16455,322
1.58673,209.55775,52,53501,24.8332,16455,322
1.86572,218.05124,53,53502,25.0324,16455,322
0.78733,231.87531,54,53503,24.9328,16440,352
1.3029,244.95001,55,53504,25.1319,16440,352
0.926449,251.52851,56,53505,25.0324,16440,352
1.09619,253.05341,57,53506,24.7337,16440,352
1.69708,252.33375,58,53507,25.0324,16440,352
2.05078,250.09326,59,53508,24.9328,16440,352
1.64863,245.88955,60,53509,24.883,16440,352
1.74966,240.30179,61,53510,24.883,16440,352
2.44531,235.39455,62,53511,24.7337,16440,352
1.43525,232.91393,63,53512,24.8332,16440,352
1.96287,231.12192,64,53513,25.0324,16443,294
2.24822,228.76019,65,53514,25.0821,16443,294
1.67446,226.69709,66,53515,24.9328,16443,294
2.81853,224.41199,67,53516,24.883,16443,294
1.12623,222.3139,68,53517,24.9328,16443,294
2.21832,222.34463,69,53518,24.9328,16443,294
1.97739,221.54299,70,53519,24.9328,16443,294
1.98701,219.08309,71,53520,24.9328,16443,294
2.48016,217.55855,72,53521,24.9328,16443,294
2.0739,217.87349,73,53522,24.6839,16443,294
2.54282,218.94685,74,53523,25.0324,16436,321
1.98701,217.29469,75,53524,25.0324,16436,321
2.29024,214.06006,76,53525,24.8332,16436,321
2.15287,211.25808,77,53526,24.883,16436,321
2.84547,210.1569,78,53527,24.8332,16436,321
2.77763,208.43759,79,53528,24.7337,16436,321
2.48208,206.92344,80,53529,24.7337,16436,321
2.48016,205.55086,81,53530,24.8332,16436,321
2.96367,203.41522,82,53531,24.9328,16436,321
2.62948,202.84534,83,53532,24.8332,16436,321
2.24822,203.47613,84,53533,24.6839,16432,314
2.77763,204.07137,85,53534,24.9328,16432,314
1.97256,203.98482,86,53535,24.883,16432,314
2.36401,203.61507,87,53536,24.883,16432,314
2.4974,203.07397,88,53537,24.8332,16432,314
2.77247,202.89103,89,53538,24.9328,16432,314
1.13045,202.99812,90,53539,24.9328,16432,314
2.56336,203.06557,91,53540,25.0324,16432,314
1.95556,202.5209,92,53541,24.6839,16432,314
2.80496,202.14729,93,53542,25.0324,16432,314
1.65728,202.19767,94,53543,24.7337,16433,302
2.8986,203.07837,95,53544,24.883,16433,302
2.14399,204.54333,96,53545,24.8332,16433,302
2.30477,206.54676,97,53546,24.8332,16433,302
1.31745,209.11443,98,53547,25.0324,16433,302
2.05543,211.76483,99,53548,24.8332,16433,302
2.21832,214.99687,100,53549,24.883,16433,302
