Linear acceleration,Rotational velocity,Time values,Absolute time values,Temperature,Ambient light,Reflected light
1.74966,12.07509,-2000,27814,26.3267,17524,431
2.03444,11.84208,-1999,27815,26.5258,17524,431
1.14304,11.75493,-1998,27816,26.3765,17524,431
1.86572,11.73781,-1997,27817,26.3267,17524,431
0.817051,11.6358,-1996,27818,26.3267,17524,431
2.01087,11.06068,-1995,27819,26.3765,17524,431
1.56555,10.39033,-1994,27820,26.6752,17524,431
1.42525,10.01125,-1993,27821,26.5258,17524,431
1.84257,9.827987,-1992,27822,26.5756,17524,431
1.53168,9.50974,-1991,27823,26.3267,17531,405
1.60168,8.68331,-1990,27824,26.3267,17531,405
1.71664,8.209626,-1989,27825,26.3267,17531,405
2.06237,7.524919,-1988,27826,26.3765,17531,405
1.4681,7.087441,-1987,27827,26.5258,17531,405
1.27702,6.562344,-1986,27828,26.476,17531,405
1.49385,6.422337,-1985,27829,26.5258,17531,405
1.38107,6.135172,-1984,27830,26.5258,17531,405
1.70549,6.166665,-1983,27831,26.3267,17531,405
1.05179,6.120582,-1982,27832,26.5258,17531,405
1.84516,6.34296,-1981,27833,26.3267,17523,341
1.07865,6.589536,-1980,27834,26.3765,17523,341
1.73047,6.564614,-1979,27835,26.3267,17523,341
1.66589,6.66486,-1978,27836,26.3267,17523,341
1.01016,6.772427,-1977,27837,26.476,17523,341
1.28447,6.882644,-1976,27838,26.2271,17523,341
1.37067,7.030445,-1975,27839,26.3765,17523,341
1.16371,6.736025,-1974,27840,26.3267,17523,341
1.34255,6.701649,-1973,27841,26.1773,17523,341
1.39139,6.641343,-1972,27842,26.5258,17523,341
1.64863,6.573688,-1971,27843,26.5258,17528,281
0.840071,6.580484,-1970,27844,26.3267,17528,281
0.138107,6.334732,-1969,27845,26.2271,17528,281
1.4118,5.800588,-1968,27846,26.3267,17528,281
1.62239,5.42355,-1967,27847,26.3765,17528,281
1.9942,5.368319,-1966,27848,26.3765,17528,281
1.52856,5.58063,-1965,27849,26.5258,17528,281
1.44518,5.277336,-1964,27850,26.5258,17528,281
1.5807,5.695597,-1963,27851,26.3267,17528,281
1.83998,6.040939,-1962,27852,26.3765,17528,281
1.4118,6.679377,-1961,27853,26.5258,17557,457
1.61945,7.168968,-1960,27854,26.5258,17557,457
1.42525,7.741606,-1959,27855,26.476,17557,457
1.13045,8.106425,-1958,27856,26.3765,17557,457
1.73323,8.41223,-1957,27857,26.5258,17557,457
0.655098,8.695314,-1956,27858,26.5258,17557,457
1.99659,8.804308,-1955,27859,26.3267,17557,457
1.59273,8.632538,-1954,27860,26.3765,17557,457
2.13954,8.642888,-1953,27861,26.3765,17557,457
1.70829,8.953672,-1952,27862,26.3267,17557,457
0.828641,9.327003,-1951,27863,26.3267,17525,373
2.11037,9.367654,-1950,27864,26.5258,17525,373
0.625305,9.576881,-1949,27865,26.5258,17525,373
0.976563,9.705166,-1948,27866,26.476,17525,373
1.88858,9.682107,-1947,27867,26.3267,17525,373
1.07865,9.929052,-1946,27868,26.3267,17525,373
2.30684,10.49876,-1945,27869,26.3267,17525,373
1.54099,10.80098,-1944,27870,26.2271,17525,373
1.02423,10.70397,-1943,27871,26.3765,17525,373
2.34578,11.22317,-1942,27872,26.2271,17525,373
1.31745,11.73082,-1941,27873,26.3267,17520,339
1.28817,11.98094,-1940,27874,26.3765,17520,339
1.02423,12.48106,-1939,27875,26.1773,17520,339
0.805294,12.93081,-1938,27876,26.3267,17520,339
1.66303,13.26079,-1937,27877,26.2271,17520,339
1.34255,13.6211,-1936,27878,26.2271,17520,339
1.46484,13.6893,-1935,27879,26.3765,17520,339
0.655098,14.02747,-1934,27880,26.3267,17520,339
1.3029,14.01897,-1933,27881,26.3267,17520,339
1.75781,14.11958,-1932,27882,26.5258,17520,339
1.42859,14.45593,-1931,27883,26.3267,17525,367
1.65152,14.50995,-1930,27884,26.476,17525,367
1.95556,14.35819,-1929,27885,26.3267,17525,367
1.19604,14.157,-1928,27886,26.3267,17525,367
0.995902,14.11219,-1927,27887,26.3765,17525,367
1.32827,14.04392,-1926,27888,26.3267,17525,367
1.21581,13.88385,-1925,27889,26.3765,17525,367
1.39822,13.65715,-1924,27890,26.5258,17525,367
1.51917,13.16776,-1923,27891,26.3267,17525,367
2.1573,12.96993,-1922,27892,26.2271,17525,367
1.69708,13.1139,-1921,27893,26.5258,17521,290
1.3637,13.23098,-1920,27894,26.2271,17521,290
1.18402,13.36489,-1919,27895,26.3765,17521,290
1.80334,13.26641,-1918,27896,26.3765,17521,290
1.00068,12.91755,-1917,27897,26.2271,17521,290
1.34255,12.65652,-1916,27898,26.3765,17521,290
1.73323,12.46493,-1915,27899,26.3267,17521,290
1.92112,11.49407,-1914,27900,26.3765,17521,290
1.4681,10.33785,-1913,27901,26.5258,17521,290
1.00068,9.18209,-1912,27902,26.1773,17521,290
1.75781,8.652366,-1911,27903,26.3267,17519,421
1.60466,8.43346,-1910,27904,26.5258,17519,421
2.18584,8.124786,-1909,27905,26.5258,17519,421
1.21188,7.802957,-1908,27906,26.2271,17519,421
1.90867,7.847707,-1907,27907,26.5756,17519,421
1.33543,8.709869,-1906,27908,26.2271,17519,421
1.25442,10.30392,-1905,27909,26.3267,17519,421
2.19672,11.93171,-1904,27910,26.476,17519,421
1.25821,13.41941,-1903,27911,26.3267,17519,421
1.23912,14.20324,-1902,27912,26.5756,17519,421
2.09904,14.25455,-1901,27913,26.3765,17524,379
1.07422,13.90584,-1900,27914,26.1773,17524,379
1.17594,13.1139,-1899,27915,26.3267,17524,379
1.98701,11.54323,-1898,27916,26.3267,17524,379
1.69708,10.01423,-1897,27917,26.3267,17524,379
0.569429,9.006771,-1896,27918,26.3267,17524,379
2.5782,8.233188,-1895,27919,26.3267,17524,379
1.7767,7.604696,-1894,27920,26.2271,17524,379
1.26577,7.343521,-1893,27921,26.3267,17524,379
1.33543,7.578197,-1892,27922,26.3765,17524,379
1.19205,7.731013,-1891,27923,26.3267,17495,342
2.65294,8.024208,-1890,27924,26.3267,17495,342
1.54717,8.200545,-1889,27925,26.3765,17495,342
2.58559,8.291801,-1888,27926,26.3267,17495,342
1.24296,8.312442,-1887,27927,26.3267,17495,342
1.42525,8.841464,-1886,27928,26.3267,17495,342
0.840071,9.35253,-1885,27929,26.3267,17495,342
1.87592,9.852972,-1884,27930,26.3267,17495,342
1.57769,10.24082,-1883,27931,26.3765,17495,342
1.24296,10.64324,-1882,27932,26.3267,17495,342
1.13045,10.63764,-1881,27933,26.2271,17520,293
2.18584,10.93262,-1880,27934,26.5258,17520,293
1.52544,11.12247,-1879,27935,26.3267,17520,293
0.534885,10.97411,-1878,27936,26.5756,17520,293
1.98461,10.83267,-1877,27937,26.3267,17520,293
1.45176,10.76228,-1876,27938,26.3765,17520,293
1.50022,10.7408,-1875,27939,26.3267,17520,293
1.25821,10.80098,-1874,27940,26.3765,17520,293
1.39139,10.74773,-1873,27941,26.3765,17520,293
0.805294,10.32198,-1872,27942,26.476,17520,293
2.0693,9.727403,-1871,27943,26.5756,17524,297
2.44336,9.255635,-1870,27944,26.3765,17524,297
1.97498,9.10386,-1869,27945,26.3267,17524,297
2.19672,8.995182,-1868,27946,26.3267,17524,297
1.58673,9.090756,-1867,27947,26.1773,17524,297
2.03209,9.273327,-1866,27948,26.5258,17524,297
0.878906,9.464189,-1865,27949,26.3267,17524,297
1.3461,9.7763,-1864,27950,26.3267,17524,297
1.28817,10.05803,-1863,27951,26.3765,17524,297
1.68298,10.48455,-1862,27952,26.476,17524,297
1.44518,10.62643,-1861,27953,26.3765,17526,449
1.72495,10.77819,-1860,27954,26.3765,17526,449
1.42859,10.98972,-1859,27955,26.3765,17526,449
0.768946,10.73664,-1858,27956,26.3267,17526,449
1.86572,10.49876,-1857,27957,26.3267,17526,449
1.77401,10.62643,-1856,27958,26.3765,17526,449
1.71664,10.70397,-1855,27959,26.3267,17526,449
1.31383,10.80305,-1854,27960,26.5258,17526,449
0.840071,10.15607,-1853,27961,26.3267,17526,449
1.67161,9.726637,-1852,27962,26.3765,17526,449
2.23332,9.450797,-1851,27963,26.1773,17526,449
1.84257,9.213681,-1850,27964,26.3267,17526,449
2.35593,9.020823,-1849,27965,26.5258,17526,449
1.50657,9.033203,-1848,27966,26.3267,17526,449
1.17998,8.718419,-1847,27967,26.3765,17526,449
1.71108,8.324086,-1846,27968,26.2271,17526,449
1.4118,7.991644,-1845,27969,26.2271,17526,449
1.39139,8.298986,-1844,27970,26.476,17526,449
1.93596,8.588408,-1843,27971,26.476,17526,449
1.30655,8.642026,-1842,27972,26.3267,17526,449
1.29923,8.688457,-1841,27973,26.3765,17517,400
1.83739,9.156087,-1840,27974,26.2271,17517,400
1.86316,9.729701,-1839,27975,26.2271,17517,400
1.17998,9.705166,-1838,27976,26.5258,17517,400
1.79273,10.10017,-1837,27977,26.3267,17517,400
1.80598,10.57864,-1836,27978,26.1773,17517,400
1.44188,10.73803,-1835,27979,26.3765,17517,400
1.21188,10.91079,-1834,27980,26.3765,17517,400
1.58673,10.90601,-1833,27981,26.3267,17517,400
1.78473,10.84435,-1832,27982,26.2271,17517,400
1.67446,10.78718,-1831,27983,26.3765,17523,320
1.68863,10.74011,-1830,27984,26.5258,17523,320
1.52856,11.35385,-1829,27985,26.476,17523,320
1.61355,11.40427,-1828,27986,26.2271,17523,320
1.86827,11.22914,-1827,27987,26.3267,17523,320
1.77132,11.31639,-1826,27988,26.2271,17523,320
1.19205,11.57675,-1825,27989,26.3267,17523,320
1.43525,11.87914,-1824,27990,26.1773,17523,320
1.73047,12.31035,-1823,27991,26.3765,17523,320
1.70829,12.75737,-1822,27992,26.3267,17523,320
1.38452,12.77488,-1821,27993,26.476,17524,263
1.85804,12.48822,-1820,27994,26.1773,17524,263
1.36019,12.46433,-1819,27995,26.3267,17524,263
2.28816,12.4404,-1818,27996,26.3765,17524,263
2.15951,12.02377,-1817,27997,26.476,17524,263
1.38452,11.61786,-1816,27998,26.476,17524,263
1.47134,11.25764,-1815,27999,26.3267,17524,263
1.56859,10.96936,-1814,28000,26.3267,17524,263
1.45505,10.85053,-1813,28001,26.3765,17524,263
1.44188,10.79615,-1812,28002,26.5258,17524,263
1.66303,10.73456,-1811,28003,26.3765,17527,465
1.48103,10.56737,-1810,28004,26.5258,17527,465
1.48103,10.64884,-1809,28005,26.2271,17527,465
1.3461,10.91898,-1808,28006,26.2271,17527,465
1.7551,10.98972,-1807,28007,26.1773,17527,465
1.39822,10.71024,-1806,28008,26.476,17527,465
1.09183,10.52427,-1805,28009,26.3765,17527,465
1.86827,10.31909,-1804,28010,26.476,17527,465
1.40163,10.52144,-1803,28011,26.5756,17527,465
0.878906,10.43041,-1802,28012,26.3267,17527,465
1.13045,10.41897,-1801,28013,26.3267,17493,386
1.63702,10.18538,-1800,28014,26.5258,17493,386
1.90617,9.709003,-1799,28015,26.3267,17493,386
0.926449,9.929803,-1798,28016,26.476,17493,386
0.905627,9.709003,-1797,28017,26.3267,17493,386
1.37415,9.556632,-1796,28018,26.3267,17493,386
1.31745,9.393864,-1795,28019,26.3765,17493,386
1.60168,9.233875,-1794,28020,26.3765,17493,386
0.862477,8.770393,-1793,28021,26.3267,17493,386
1.66016,8.884337,-1792,28022,26.3765,17493,386
1.36719,9.172347,-1791,28023,26.3267,17517,374
1.4681,9.479135,-1790,28024,26.3267,17517,374
1.23912,9.688262,-1789,28025,26.5258,17517,374
1.27702,10.17659,-1788,28026,26.3765,17517,374
1.31745,10.67191,-1787,28027,26.5258,17517,374
1.33185,10.67958,-1786,28028,26.5258,17517,374
1.83479,10.46321,-1785,28029,26.3267,17517,374
1.72495,10.15754,-1784,28030,26.3267,17517,374
0.884315,10.06247,-1783,28031,26.3267,17517,374
1.07865,10.16634,-1782,28032,26.1773,17517,374
0.85693,10.03207,-1781,28033,26.5258,17524,372
2.48016,10.06988,-1780,28034,26.5258,17524,372
1.90867,10.22334,-1779,28035,26.3765,17524,372
1.41517,10.22771,-1778,28036,26.1773,17524,372
1.25821,10.49592,-1777,28037,26.3765,17524,372
2.04146,10.39033,-1776,28038,26.3765,17524,372
1.25821,10.63764,-1775,28039,26.476,17524,372
1.72772,10.58639,-1774,28040,26.1276,17524,372
1.21581,10.80719,-1773,28041,26.3765,17524,372
2.6851,10.97344,-1772,28042,26.5258,17524,372
1.56555,10.87659,-1771,28043,26.3765,17521,284
1.4118,10.57019,-1770,28044,26.3267,17521,284
0.552427,9.984426,-1769,28045,26.5258,17521,284
1.47781,9.393071,-1768,28046,26.476,17521,284
2.19672,8.727814,-1767,28047,26.3267,17521,284
1.60466,8.324086,-1766,28048,26.3267,17521,284
1.25442,8.098149,-1765,28049,26.5258,17521,284
0.625305,8.106425,-1764,28050,26.5258,17521,284
1.60168,8.14585,-1763,28051,26.5258,17521,284
1.56555,8.757641,-1762,28052,26.2271,17521,284
2.03209,9.29259,-1761,28053,26.3267,17562,439
2.43358,9.809016,-1760,28054,26.3267,17562,439
0.655098,9.987411,-1759,28055,26.3765,17562,439
1.34255,10.1502,-1758,28056,26.476,17562,439
1.17594,10.54196,-1757,28057,26.476,17562,439
1.34255,10.57301,-1756,28058,26.3765,17562,439
0.889691,10.49663,-1755,28059,26.5258,17562,439
0.900346,10.50514,-1754,28060,26.3765,17562,439
1.36019,10.35297,-1753,28061,26.3267,17562,439
2.18802,10.09648,-1752,28062,26.2271,17562,439
1.49385,10.16121,-1751,28063,26.3267,17525,384
0.845728,10.53701,-1750,28064,26.3765,17525,384
1.83479,10.87111,-1749,28065,26.6752,17525,384
1.7551,10.99582,-1748,28066,26.3267,17525,384
0.525895,11.07616,-1747,28067,26.3765,17525,384
1.07865,11.00801,-1746,28068,26.3267,17525,384
1.19205,10.90806,-1745,28069,26.2271,17525,384
1.87592,10.99243,-1744,28070,26.2271,17525,384
1.07865,11.03032,-1743,28071,26.476,17525,384
1.13045,10.88139,-1742,28072,26.1773,17525,384
1.27328,10.61591,-1741,28073,26.476,17556,405
1.73047,10.45039,-1740,28074,26.3765,17556,405
1.54099,10.30247,-1739,28075,26.3765,17556,405
1.31383,10.21897,-1738,28076,26.5258,17556,405
1.63702,10.36807,-1737,28077,26.5258,17556,405
1.23912,10.70397,-1736,28078,26.3267,17556,405
1.77401,10.77405,-1735,28079,26.5258,17556,405
1.11773,11.14055,-1734,28080,26.3267,17556,405
1.54717,11.29464,-1733,28081,26.3267,17556,405
2.11714,11.34991,-1732,28082,26.3765,17556,405
1.31745,11.39969,-1731,28083,26.3267,17523,301
1.59273,11.45251,-1730,28084,26.3765,17523,301
1.97256,11.32165,-1729,28085,26.3267,17523,301
1.63993,11.22383,-1728,28086,26.5258,17523,301
1.31745,11.02221,-1727,28087,26.3267,17523,301
0.768946,10.97411,-1726,28088,26.3765,17523,301
1.60168,10.50869,-1725,28089,26.3267,17523,301
1.77132,10.59553,-1724,28090,26.476,17523,301
1.57769,10.89097,-1723,28091,26.3765,17523,301
1.37067,10.9442,-1722,28092,26.3765,17523,301
1.62532,11.031,-1721,28093,26.1773,17519,295
1.40842,11.19192,-1720,28094,26.3765,17519,295
1.23912,10.81201,-1719,28095,26.5756,17519,295
1.66303,10.34649,-1718,28096,26.3267,17519,295
1.80334,10.25826,-1717,28097,26.3765,17519,295
1.25061,10.04395,-1716,28098,26.3267,17519,295
1.79539,9.984426,-1715,28099,26.1773,17519,295
0.497951,9.871104,-1714,28100,26.5258,17519,295
1.3461,9.704398,-1713,28101,26.476,17519,295
1.47458,9.66285,-1712,28102,26.3765,17519,295
1.36019,9.861287,-1711,28103,26.028,17530,440
1.99897,10.03801,-1710,28104,26.1773,17530,440
1.93596,9.990394,-1709,28105,26.2271,17530,440
2.05311,10.16634,-1708,28106,26.5258,17530,440
1.36019,10.49663,-1707,28107,26.5756,17530,440
1.45505,10.82854,-1706,28108,26.3765,17530,440
1.88858,10.79753,-1705,28109,26.3267,17530,440
2.01324,10.53489,-1704,28110,26.3765,17530,440
1.90617,10.89781,-1703,28111,26.3765,17530,440
1.54408,11.253,-1702,28112,26.3267,17530,440
1.69427,11.1218,-1701,28113,26.3267,17521,401
1.13045,11.48499,-1700,28114,26.3765,17521,401
0.981433,11.75557,-1699,28115,26.5258,17521,401
1.3029,11.7929,-1698,28116,26.3765,17521,401
1.22752,11.69202,-1697,28117,26.3765,17521,401
2.52021,11.71493,-1696,28118,26.2271,17521,401
1.5807,11.75113,-1695,28119,26.3765,17521,401
1.88606,11.60503,-1694,28120,26.3267,17521,401
1.09183,11.29266,-1693,28121,26.3267,17521,401
1.33185,10.93126,-1692,28122,26.476,17521,401
1.16371,10.69562,-1691,28123,26.3267,17512,322
0.750112,10.45752,-1690,28124,26.3765,17512,322
1.47781,10.38961,-1689,28125,26.3267,17512,322
1.92856,10.1722,-1688,28126,26.5258,17512,322
1.76323,9.760283,-1687,28127,26.3765,17512,322
2.23759,9.451585,-1686,28128,26.5258,17512,322
1.83739,9.390691,-1685,28129,26.3267,17512,322
1.06082,9.365267,-1684,28130,26.2271,17512,322
1.36019,9.546492,-1683,28131,26.3267,17512,322
2.36804,9.871104,-1682,28132,26.3267,17512,322
1.57769,10.10828,-1681,28133,26.5258,17523,264
1.1596,10.34721,-1680,28134,26.3267,17523,264
1.70829,10.35441,-1679,28135,26.3267,17523,264
1.91864,10.08097,-1678,28136,26.3765,17523,264
1.55638,9.471272,-1677,28137,26.5258,17523,264
2.18366,9.044743,-1676,28138,26.5258,17523,264
1.38452,8.288206,-1675,28139,26.5258,17523,264
1.45176,8.092626,-1674,28140,26.3267,17523,264
1.80598,7.802957,-1673,28141,26.3267,17523,264
1.50022,7.939264,-1672,28142,26.3267,17523,264
1.11773,7.974845,-1671,28143,26.476,17528,358
1.38796,8.288206,-1670,28144,26.1773,17528,358
1.4681,8.645474,-1669,28145,26.3267,17528,358
1.3029,8.75679,-1668,28146,26.3267,17528,358
1.66303,8.927005,-1667,28147,26.3765,17528,358
1.53168,8.861666,-1666,28148,26.3267,17528,358
1.81388,8.545794,-1665,28149,26.3267,17528,358
1.91864,8.54928,-1664,28150,26.3765,17528,358
1.39481,8.102747,-1663,28151,26.3267,17528,358
1.80598,7.954265,-1662,28152,26.3267,17528,358
1.10916,8.226851,-1661,28153,26.3267,17518,414
0.730792,8.301679,-1660,28154,26.476,17518,414
2.20539,8.666132,-1659,28155,26.5756,17518,414
1.01956,9.019171,-1658,28156,26.2271,17518,414
0.717624,9.523049,-1657,28157,26.3267,17518,414
1.19205,9.723573,-1656,28158,26.5258,17518,414
1.88099,9.761046,-1655,28159,26.3765,17518,414
1.67161,9.604071,-1654,28160,26.2271,17518,414
1.4118,9.375604,-1653,28161,26.2271,17518,414
1.57769,9.506605,-1652,28162,26.5258,17518,414
1.96529,9.699022,-1651,28163,26.3765,17523,392
1.93842,9.475204,-1650,28164,26.5258,17523,392
1.32827,9.424745,-1649,28165,26.3765,17523,392
1.60466,9.460252,-1648,28166,26.5258,17523,392
0.971667,9.754938,-1647,28167,26.5756,17523,392
1.17594,9.885434,-1646,28168,26.476,17523,392
1.04268,9.911779,-1645,28169,26.3765,17523,392
1.73872,10.14727,-1644,28170,26.3267,17523,392
0.995902,10.31909,-1643,28171,26.5258,17523,392
1.45505,10.83817,-1642,28172,26.5258,17523,392
0.805294,11.52256,-1641,28173,26.3267,17521,362
1.51603,11.876,-1640,28174,26.3765,17521,362
1.95556,12.33394,-1639,28175,26.3267,17521,362
1.92608,12.54952,-1638,28176,26.2271,17521,362
0.966748,12.75503,-1637,28177,26.5258,17521,362
1.80598,12.82436,-1636,28178,26.3267,17521,362
1.18402,12.67769,-1635,28179,26.5258,17521,362
1.31745,12.41102,-1634,28180,26.1773,17521,362
0.292969,12.06275,-1633,28181,26.2271,17521,362
1.32827,11.21188,-1632,28182,26.3267,17521,362
1.31745,10.84779,-1631,28183,26.5258,17523,284
0.966748,10.46891,-1630,28184,26.3765,17523,284
1.36019,10.21459,-1629,28185,26.476,17523,284
1.18402,10.37239,-1628,28186,26.5258,17523,284
2.00374,10.23791,-1627,28187,26.476,17523,284
1.19604,10.05581,-1626,28188,26.3267,17523,284
1.20399,10.01423,-1625,28189,26.2271,17523,284
1.54099,10.27931,-1624,28190,26.1773,17523,284
1.30655,10.5582,-1623,28191,26.3267,17523,284
1.69708,10.41611,-1622,28192,26.3267,17523,284
1.98461,10.31404,-1621,28193,26.3267,17526,352
1.23912,10.3328,-1620,28194,26.5756,17526,352
1.92361,9.882419,-1619,28195,26.3765,17526,352
0.995902,9.28858,-1618,28196,26.3765,17526,352
0.956832,8.691886,-1617,28197,26.3765,17526,352
1.32827,8.28371,-1616,28198,26.3267,17526,352
1.38452,7.810592,-1615,28199,26.5258,17526,352
1.82437,7.599796,-1614,28200,26.3765,17526,352
1.60168,7.635008,-1613,28201,26.3765,17526,352
1.48103,7.968303,-1612,28202,26.3765,17526,352
1.32827,8.269306,-1611,28203,26.2271,17520,373
0.889691,8.204179,-1610,28204,26.3765,17520,373
1.4219,7.912944,-1609,28205,26.3765,17520,373
1.43857,7.459285,-1608,28206,26.3765,17520,373
1.84257,7.26908,-1607,28207,26.2271,17520,373
1.80334,6.488126,-1606,28208,26.3267,17520,373
1.38796,5.880952,-1605,28209,26.3267,17520,373
1.52231,5.532358,-1604,28210,26.3765,17520,373
1.48103,5.099267,-1603,28211,26.3267,17520,373
1.82698,4.839899,-1602,28212,26.5258,17520,373
1.77132,4.730914,-1601,28213,26.3765,17527,443
1.25821,5.105108,-1600,28214,26.3765,17527,443
0.905627,5.467333,-1599,28215,26.3267,17527,443
1.23526,5.664115,-1598,28216,26.3765,17527,443
1.72772,5.823662,-1597,28217,26.5258,17527,443
0.85693,5.963981,-1596,28218,26.476,17527,443
2.11714,6.102295,-1595,28219,26.476,17527,443
1.37415,6.216004,-1594,28220,26.3765,17527,443
2.47246,6.648071,-1593,28221,26.3267,17527,443
1.39139,6.345308,-1592,28222,26.3267,17527,443
2.30684,5.649627,-1591,28223,26.3267,17521,363
2.48976,5.174687,-1590,28224,26.3765,17521,363
1.96287,4.397921,-1589,28225,26.3765,17521,363
2.11488,3.678349,-1588,28226,26.2271,17521,363
1.56859,3.076075,-1587,28227,26.1773,17521,363
0.840071,3.024783,-1586,28228,26.5258,17521,363
0.946812,3.454827,-1585,28229,26.3765,17521,363
1.4681,4.096182,-1584,28230,26.1773,17521,363
1.46158,4.611286,-1583,28231,26.3765,17521,363
1.22752,5.099267,-1582,28232,26.5258,17521,363
1.79804,5.592632,-1581,28233,26.5258,17511,363
2.17929,5.936434,-1580,28234,26.3267,17511,363
2.10585,6.354695,-1579,28235,26.2271,17511,363
1.39139,6.66486,-1578,28236,26.5258,17511,363
0.710948,7.222809,-1577,28237,26.3765,17511,363
1.27702,7.682675,-1576,28238,26.3267,17511,363
0.805294,8.047388,-1575,28239,26.476,17511,363
1.72772,8.415772,-1574,28240,26.3267,17511,363
2.54844,8.865028,-1573,28241,26.476,17511,363
1.71942,9.233068,-1572,28242,26.5258,17511,363
1.89614,9.451585,-1571,28243,26.6752,17511,274
1.09183,9.554293,-1570,28244,26.5258,17511,274
1.49066,9.984426,-1569,28245,26.3765,17511,274
2.24822,10.80719,-1568,28246,26.5258,17511,274
1.62826,11.22051,-1567,28247,26.2271,17511,274
1.72772,11.43233,-1566,28248,26.5756,17511,274
1.36019,12.00144,-1565,28249,26.3765,17511,274
0.85693,12.77838,-1564,28250,26.3267,17511,274
2.06237,13.10992,-1563,28251,26.3765,17511,274
2.03209,13.57398,-1562,28252,26.5258,17511,274
1.36719,14.17541,-1561,28253,26.3765,17522,420
1.48746,14.37841,-1560,28254,26.3765,17522,420
1.09619,14.38463,-1559,28255,26.3765,17522,420
1.46484,14.57194,-1558,28256,26.476,17522,420
1.88099,15.00075,-1557,28257,26.5258,17522,420
1.61945,15.30218,-1556,28258,26.3267,17522,420
1.40163,15.37311,-1555,28259,26.3267,17522,420
1.17998,15.42633,-1554,28260,26.5258,17522,420
0.905627,15.44515,-1553,28261,26.476,17522,420
1.6341,15.37505,-1552,28262,26.3765,17522,420
0.946812,15.43164,-1551,28263,26.3267,17523,400
1.38452,15.7622,-1550,28264,26.3765,17523,400
2.04146,15.64644,-1549,28265,26.5258,17523,400
0.941763,15.49139,-1548,28266,26.3765,17523,400
1.70829,15.51974,-1547,28267,26.3267,17523,400
1.57163,15.63644,-1546,28268,26.3267,17523,400
1.4219,15.59302,-1545,28269,26.6752,17523,400
1.21188,15.40458,-1544,28270,26.5258,17523,400
1.45176,15.28806,-1543,28271,26.3267,17523,400
1.19604,15.23338,-1542,28272,26.3267,17523,400
1.4219,15.07259,-1541,28273,26.476,17521,431
1.50022,14.90408,-1540,28274,26.5258,17521,431
0.926449,14.7483,-1539,28275,26.5258,17521,431
1.11773,14.44613,-1538,28276,26.3765,17521,431
1.56555,14.29318,-1537,28277,26.476,17521,431
1.28447,13.91869,-1536,28278,26.2271,17521,431
1.75781,13.60742,-1535,28279,26.3765,17521,431
1.24296,13.20674,-1534,28280,26.3267,17521,431
1.36019,12.56554,-1533,28281,26.5258,17521,431
1.26577,11.77457,-1532,28282,26.6752,17521,431
1.4118,11.15391,-1531,28283,26.3267,17520,263
1.5987,10.63834,-1530,28284,26.3765,17520,263
1.58673,10.04098,-1529,28285,26.3765,17520,263
0.834375,9.569877,-1528,28286,26.5756,17520,263
1.84516,9.447643,-1527,28287,26.476,17520,263
1.63702,9.488562,-1526,28288,26.3765,17520,263
1.71108,9.412088,-1525,28289,26.5258,17520,263
1.20399,9.464189,-1524,28290,26.5756,17520,263
2.17052,9.412088,-1523,28291,26.3765,17520,263
1.02423,9.368449,-1522,28292,26.3267,17520,263
1.32827,9.019171,-1521,28293,26.5756,17519,302
1.51917,8.851571,-1520,28294,26.3765,17519,302
0.946812,8.813612,-1519,28295,26.5258,17519,302
1.6341,8.798382,-1518,28296,26.3267,17519,302
1.95556,8.891882,-1517,28297,26.3765,17519,302
0.905627,8.766144,-1516,28298,26.3765,17519,302
1.25821,8.406028,-1515,28299,26.5258,17519,302
1.39139,7.996304,-1514,28300,26.3267,17519,302
1.09619,7.80773,-1513,28301,26.3765,17519,302
1.49385,7.481227,-1512,28302,26.476,17519,302
0.41432,7.202148,-1511,28303,26.3267,17522,436
0.717624,7.093745,-1510,28304,26.5756,17522,436
1.41854,7.039976,-1509,28305,26.3267,17522,436
1.30655,6.828304,-1508,28306,26.476,17522,436
2.10585,6.868557,-1507,28307,26.1773,17522,436
1.81651,6.871811,-1506,28308,26.2271,17522,436
1.00068,7.084286,-1505,28309,26.3267,17522,436
1.79804,7.018778,-1504,28310,26.3765,17522,436
1.56859,6.99645,-1503,28311,26.3267,17522,436
1.34255,7.184541,-1502,28312,26.5258,17522,436
1.37067,7.42324,-1501,28313,26.476,17531,389
0.828641,7.530858,-1500,28314,26.3267,17531,389
0.840071,7.530858,-1499,28315,26.3267,17531,389
1.77132,7.498139,-1498,28316,26.476,17531,389
2.09222,7.390044,-1497,28317,26.3267,17531,389
1.71108,7.286483,-1496,28318,26.5258,17531,389
1.20399,7.310983,-1495,28319,26.3267,17531,389
1.56555,7.034682,-1494,28320,26.5756,17531,389
1.10916,6.570286,-1493,28321,26.3765,17531,389
1.05179,6.320602,-1492,28322,26.3267,17531,389
1.74966,6.288695,-1491,28323,26.476,17517,352
1.84257,6.17753,-1490,28324,26.5258,17517,352
0.828641,6.312345,-1489,28325,26.3765,17517,352
1.1596,6.465118,-1488,28326,26.3267,17517,352
1.19604,6.833757,-1487,28327,26.476,17517,352
1.31745,6.804257,-1486,28328,26.5258,17517,352
1.82437,6.60309,-1485,28329,26.3765,17517,352
1.25821,6.376933,-1484,28330,26.1773,17517,352
1.57769,6.400257,-1483,28331,26.5258,17517,352
1.4219,6.406075,-1482,28332,26.3267,17517,352
1.26953,6.17753,-1481,28333,26.3267,17521,287
1.45176,6.06064,-1480,28334,26.5258,17521,287
1.52544,6.016221,-1479,28335,26.3765,17521,287
0.981433,5.80829,-1478,28336,26.3765,17521,287
1.40163,5.725605,-1477,28337,26.5258,17521,287
2.40203,5.487736,-1476,28338,26.3267,17521,287
1.5034,5.40704,-1475,28339,26.3267,17521,287
1.80598,5.308304,-1474,28340,26.2271,17521,287
1.31745,5.214846,-1473,28341,26.2271,17521,287
1.9335,5.151599,-1472,28342,26.3267,17521,287
1.40163,5.639067,-1471,28343,26.3267,17521,351
1.02423,6.153361,-1470,28344,26.3267,17521,351
2.06237,6.415373,-1469,28345,26.5258,17521,351
1.40163,6.742658,-1468,28346,26.3267,17521,351
1.5034,7.292616,-1467,28347,26.3267,17521,351
0.926449,7.980449,-1466,28348,26.5258,17521,351
2.65294,8.279211,-1465,28349,26.3765,17521,351
0.966748,8.092626,-1464,28350,26.3267,17521,351
0.76272,8.341968,-1463,28351,26.3765,17521,351
1.20399,8.175978,-1462,28352,26.1773,17521,351
1.36719,8.421967,-1461,28353,26.1773,17509,360
1.53168,8.574516,-1460,28354,26.3267,17509,360
1.39139,8.634264,-1459,28355,26.3267,17509,360
1.12623,8.818682,-1458,28356,26.476,17509,360
1.13045,8.966976,-1457,28357,26.2271,17509,360
2.01797,9.136537,-1456,28358,26.3267,17509,360
1.27328,9.743475,-1455,28359,26.5258,17509,360
1.3637,9.965753,-1454,28360,26.5258,17509,360
1.67161,10.10312,-1453,28361,26.2271,17509,360
1.27328,10.30826,-1452,28362,26.2271,17509,360
1.5807,10.62012,-1451,28363,26.6752,17523,382
1.29556,10.95509,-1450,28364,26.3765,17523,382
0.78733,11.15992,-1449,28365,26.2271,17523,382
1.5034,11.32034,-1448,28366,26.3765,17523,382
2.0716,11.4811,-1447,28367,26.1773,17523,382
1.79804,11.91859,-1446,28368,26.3267,17523,382
0.921287,12.38999,-1445,28369,26.5258,17523,382
0.851347,12.45177,-1444,28370,26.3267,17523,382
2.31303,12.01695,-1443,28371,26.3267,17523,382
1.38452,11.93608,-1442,28372,26.1773,17523,382
1.60168,12.04791,-1441,28373,26.3765,17488,364
1.3029,12.17831,-1440,28374,26.3765,17488,364
1.76323,12.23751,-1439,28375,26.5258,17488,364
1.62826,12.29036,-1438,28376,26.476,17488,364
1.49385,12.40261,-1437,28377,26.2271,17488,364
1.96287,12.65829,-1436,28378,26.5258,17488,364
1.66303,12.70822,-1435,28379,26.3267,17488,364
1.60168,12.87596,-1434,28380,26.2271,17488,364
1.33543,12.65652,-1433,28381,26.5258,17488,364
1.70549,12.33877,-1432,28382,26.3267,17488,364
1.12198,12.24299,-1431,28383,26.476,17522,284
1.41517,12.26306,-1430,28384,26.3267,17522,284
0.76272,12.08743,-1429,28385,26.3765,17522,284
0.926449,11.73273,-1428,28386,26.3267,17522,284
1.99897,11.51997,-1427,28387,26.3267,17522,284
2.14177,11.31639,-1426,28388,26.5756,17522,284
1.60168,11.06674,-1425,28389,26.1773,17522,284
1.53789,11.38138,-1424,28390,26.1773,17522,284
1.63702,10.84023,-1423,28391,26.476,17522,284
1.73323,10.5264,-1422,28392,26.5258,17522,284
1.25821,10.42898,-1421,28393,26.3267,17517,329
0.966748,10.10607,-1420,28394,26.5258,17517,329
1.69146,9.869594,-1419,28395,26.476,17517,329
1.54099,9.472058,-1418,28396,26.3765,17517,329
1.17998,9.35253,-1417,28397,26.1773,17517,329
1.17594,9.37163,-1416,28398,26.5258,17517,329
1.70549,9.603296,-1415,28399,26.028,17517,329
1.31745,10.2248,-1414,28400,26.1773,17517,329
1.96529,10.43897,-1413,28401,26.3765,17517,329
1.42525,10.52215,-1412,28402,26.3765,17517,329
1.41854,10.4111,-1411,28403,26.3765,17523,386
1.71386,10.44754,-1410,28404,26.476,17523,386
1.62826,10.29307,-1409,28405,26.1773,17523,386
2.12613,10.30175,-1408,28406,26.2271,17523,386
1.40163,10.11491,-1407,28407,26.5258,17523,386
1.23912,9.715141,-1406,28408,26.2271,17523,386
1.01956,9.638145,-1405,28409,26.3765,17523,386
1.1596,10.04914,-1404,28410,26.3267,17523,386
0.905627,10.46891,-1403,28411,26.3765,17523,386
1.96287,10.59905,-1402,28412,26.3765,17523,386
1.80334,10.63484,-1401,28413,26.5258,17555,426
1.01956,10.87591,-1400,28414,26.3267,17555,426
1.10916,11.12984,-1399,28415,26.5258,17555,426
2.16171,11.24174,-1398,28416,26.5258,17555,426
1.91864,11.54581,-1397,28417,26.3267,17555,426
1.80334,11.54581,-1396,28418,26.476,17555,426
1.39822,11.53484,-1395,28419,26.476,17555,426
1.55638,11.42255,-1394,28420,26.3765,17555,426
1.51917,11.48889,-1393,28421,26.5258,17555,426
1.48103,11.53484,-1392,28422,26.476,17555,426
1.37415,11.65819,-1391,28423,26.3765,17519,305
1.26953,11.71684,-1390,28424,26.3267,17519,305
1.10916,12.08434,-1389,28425,26.476,17519,305
1.63702,12.30672,-1388,28426,26.3267,17519,305
1.33185,12.28673,-1387,28427,26.3267,17519,305
1.4681,12.06522,-1386,28428,26.5258,17519,305
1.56555,12.00082,-1385,28429,26.3267,17519,305
2.36199,12.03059,-1384,28430,26.3765,17519,305
2.05078,12.11267,-1383,28431,26.3765,17519,305
1.73047,12.10467,-1382,28432,26.3765,17519,305
1.73323,11.74542,-1381,28433,26.3267,17525,306
1.56555,11.74542,-1380,28434,26.2271,17525,306
1.54717,11.4421,-1379,28435,26.5258,17525,306
1.88858,11.15792,-1378,28436,26.3267,17525,306
1.76863,11.11979,-1377,28437,26.2271,17525,306
1.84516,10.94624,-1376,28438,26.2271,17525,306
2.23759,10.31837,-1375,28439,26.3765,17525,306
1.10485,9.523049,-1374,28440,26.3765,17525,306
0.625305,9.342168,-1373,28441,26.3765,17525,306
1.13886,9.469698,-1372,28442,26.1773,17525,306
1.38107,9.413671,-1371,28443,26.476,17526,449
0.921287,9.158528,-1370,28444,26.3267,17526,449
1.07422,9.658994,-1369,28445,26.3765,17526,449
0.793363,10.17074,-1368,28446,26.3765,17526,449
1.78206,10.3328,-1367,28447,26.3765,17526,449
0.85693,10.47389,-1366,28448,26.3267,17526,449
0.717624,10.55397,-1365,28449,26.5258,17526,449
1.34255,10.64044,-1364,28450,26.476,17526,449
1.19604,11.07683,-1363,28451,26.2271,17526,449
1.05631,11.46746,-1362,28452,26.5258,17526,449
1.68581,11.7359,-1361,28453,26.476,17519,389
1.36019,11.59732,-1360,28454,26.2271,17519,389
0.966748,11.99896,-1359,28455,26.5258,17519,389
0.905627,12.63767,-1358,28456,26.3267,17519,389
0.569429,13.13433,-1357,28457,26.5756,17519,389
1.11345,13.43106,-1356,28458,26.476,17519,389
0.730792,13.45988,-1355,28459,26.5258,17519,389
1.37067,13.72518,-1354,28460,26.5258,17519,389
1.49385,14.11008,-1353,28461,26.5756,17519,389
1.70269,14.57194,-1352,28462,26.2271,17519,389
1.89865,14.42549,-1351,28463,26.3267,17519,425
1.66303,14.52021,-1350,28464,26.3267,17519,425
1.45176,14.78664,-1349,28465,26.2271,17519,425
1.09619,14.84748,-1348,28466,26.476,17519,425
2.18366,14.61024,-1347,28467,26.3267,17519,425
1.09183,14.34469,-1346,28468,26.3267,17519,425
1.28447,14.14647,-1345,28469,26.3267,17519,425
1.4118,14.22054,-1344,28470,26.3267,17519,425
0.926449,14.5612,-1343,28471,26.5258,17519,425
0.971667,14.40378,-1342,28472,26.3267,17519,425
1.87592,14.35507,-1341,28473,26.2271,17521,276
1.61945,14.15753,-1340,28474,26.3267,17521,276
1.3102,13.96412,-1339,28475,26.5258,17521,276
0.840071,13.77449,-1338,28476,26.3267,17521,276
1.88858,13.50133,-1337,28477,26.3765,17521,276
0.845728,13.28885,-1336,28478,26.3267,17521,276
1.42525,13.00206,-1335,28479,26.1773,17521,276
1.47458,12.79469,-1334,28480,26.3267,17521,276
1.44518,12.62351,-1333,28481,26.3267,17521,276
1.3637,12.38698,-1332,28482,26.476,17521,276
2.39407,12.21252,-1331,28483,26.3765,17523,354
0.85693,11.98902,-1330,28484,26.476,17523,354
1.60168,11.84397,-1329,28485,26.476,17523,354
1.58673,11.78279,-1328,28486,26.2271,17523,354
1.66589,11.52708,-1327,28487,26.3765,17523,354
3.00204,11.0445,-1326,28488,26.3267,17523,354
0.793363,10.47389,-1325,28489,26.5258,17523,354
1.49385,10.25173,-1324,28490,26.3267,17523,354
1.94333,9.671328,-1323,28491,26.476,17523,354
2.11714,8.964483,-1322,28492,26.3267,17523,354
1.47781,8.535325,-1321,28493,26.3267,17559,444
0.926449,7.903522,-1320,28494,26.2271,17559,444
1.22752,7.76467,-1319,28495,26.476,17559,444
1.09183,7.589004,-1318,28496,26.3267,17559,444
1.6165,7.394076,-1317,28497,26.476,17559,444
1.19205,7.285461,-1316,28498,26.2271,17559,444
0.577742,7.018778,-1315,28499,26.3765,17559,444
1.36019,6.810823,-1314,28500,26.3267,17559,444
0.768946,6.982593,-1313,28501,26.476,17559,444
1.92608,7.215584,-1312,28502,26.5258,17559,444
1.68014,7.153362,-1311,28503,26.3267,17524,378
1.00543,6.57822,-1310,28504,26.5258,17524,378
1.1472,6.401421,-1309,28505,26.2271,17524,378
1.84516,6.406075,-1308,28506,26.3765,17524,378
0.78733,6.359383,-1307,28507,26.3765,17524,378
1.71386,6.367579,-1306,28508,26.3765,17524,378
0.931581,6.401421,-1305,28509,26.3267,17524,378
2.36401,6.462813,-1304,28510,26.5258,17524,378
1.50657,6.481232,-1303,28511,26.5258,17524,378
1.79539,6.880479,-1302,28512,26.5258,17524,378
1.18402,7.62915,-1301,28513,26.3267,17524,378
1.24679,8.130286,-1300,28514,26.3267,17524,378
1.66016,8.885176,-1299,28515,26.3765,17524,378
1.97739,9.730466,-1298,28516,26.3267,17524,378
1.35668,10.49663,-1297,28517,26.3267,17524,378
1.47134,11.07683,-1296,28518,26.2271,17524,378
1.85547,11.33283,-1295,28519,26.5258,17524,378
2.29648,11.5329,-1294,28520,26.3267,17524,378
2.21617,11.41602,-1293,28521,26.3765,17524,378
1.85547,11.80048,-1292,28522,26.5258,17524,378
1.07865,12.02315,-1291,28523,26.1773,17512,363
1.77938,12.24421,-1290,28524,26.1773,17512,363
1.49066,12.62587,-1289,28525,26.3267,17512,363
1.51917,13.34871,-1288,28526,26.2271,17512,363
1.90116,13.91013,-1287,28527,26.3267,17512,363
0.926449,14.2488,-1286,28528,26.3765,17512,363
1.5034,14.42187,-1285,28529,26.1773,17512,363
1.6341,14.67588,-1284,28530,26.3765,17512,363
1.79539,14.70631,-1283,28531,26.3267,17512,363
1.30655,15.10173,-1282,28532,26.3765,17512,363
1.54099,15.33623,-1281,28533,26.3765,17516,279
1.27702,15.35856,-1280,28534,26.3267,17516,279
0.840071,15.42681,-1279,28535,26.3267,17516,279
1.65728,15.54373,-1278,28536,26.3267,17516,279
1.21581,15.79054,-1277,28537,26.3267,17516,279
1.33185,16.04331,-1276,28538,26.3267,17516,279
1.67446,16.41744,-1275,28539,26.3267,17516,279
1.53168,16.51066,-1274,28540,26.3765,17516,279
1.00068,16.71472,-1273,28541,26.2271,17516,279
1.68298,16.69643,-1272,28542,26.3765,17516,279
1.40163,16.69643,-1271,28543,26.3267,17530,352
1.90617,16.73477,-1270,28544,26.3267,17530,352
0.85693,16.65444,-1269,28545,26.476,17530,352
1.32827,16.89076,-1268,28546,26.3765,17530,352
1.1472,17.14599,-1267,28547,26.5258,17530,352
1.38796,16.92337,-1266,28548,26.5756,17530,352
2.16171,16.59618,-1265,28549,26.3765,17530,352
1.42525,16.86913,-1264,28550,26.1773,17530,352
2.41588,17.63483,-1263,28551,26.2271,17530,352
2.20323,17.43556,-1262,28552,26.3765,17530,352
1.19604,15.879,-1261,28553,26.3267,17523,389
1.54717,15.11702,-1260,28554,26.3267,17523,389
0.840071,17.05406,-1259,28555,26.2271,17523,389
0.961803,19.34805,-1258,28556,26.3765,17523,389
0.717624,17.98084,-1257,28557,26.3267,17523,389
1.89865,14.55916,-1256,28558,26.5258,17523,389
1.3461,13.01123,-1255,28559,26.3267,17523,389
1.10916,13.99237,-1254,28560,26.476,17523,389
2.21617,14.92306,-1253,28561,26.3267,17523,389
1.64863,14.50995,-1252,28562,26.3267,17523,389
1.05631,14.26761,-1251,28563,26.6752,17521,432
2.0716,15.03052,-1250,28564,26.3267,17521,432
1.24679,15.27538,-1249,28565,26.3267,17521,432
1.60168,13.89029,-1248,28566,26.476,17521,432
1.49385,11.96912,-1247,28567,26.3765,17521,432
1.24679,10.66562,-1246,28568,26.3765,17521,432
0.921287,10.08466,-1245,28569,26.3765,17521,432
1.00543,9.411297,-1244,28570,26.2271,17521,432
0.585938,8.635989,-1243,28571,26.2271,17521,432
1.46484,8.429925,-1242,28572,26.3765,17521,432
1.5807,9.236295,-1241,28573,26.5756,17495,367
2.00612,10.16341,-1240,28574,26.1773,17495,367
0.834375,10.77819,-1239,28575,26.6752,17495,367
1.65152,11.48045,-1238,28576,26.5258,17495,367
1.62239,12.22045,-1237,28577,26.3267,17495,367
1.4219,12.58982,-1236,28578,26.3765,17495,367
2.06237,11.9523,-1235,28579,26.2271,17495,367
2.14399,11.06808,-1234,28580,26.3267,17495,367
0.981433,10.29162,-1233,28581,26.3267,17495,367
2.02269,10.03133,-1232,28582,26.5258,17495,367
0.884315,9.472845,-1231,28583,26.6752,17525,283
1.24296,9.239521,-1230,28584,26.3765,17525,283
0.946812,8.954504,-1229,28585,26.3765,17525,283
1.5807,8.915312,-1228,28586,26.2271,17525,283
1.14304,9.191011,-1227,28587,26.3267,17525,283
1.71942,9.771727,-1226,28588,26.3765,17525,283
1.52856,10.13478,-1225,28589,26.3765,17525,283
1.39822,10.6117,-1224,28590,26.3765,17525,283
1.51603,10.93262,-1223,28591,26.1773,17525,283
2.05543,10.81821,-1222,28592,26.5258,17525,283
1.32827,10.47389,-1221,28593,26.5258,17519,332
1.60168,10.07284,-1220,28594,26.476,17519,332
0.534885,9.546492,-1219,28595,26.3267,17519,332
1.46484,8.846519,-1218,28596,26.3267,17519,332
1.38452,8.331243,-1217,28597,26.5258,17519,332
1.40163,8.025137,-1216,28598,26.5258,17519,332
1.52856,8.112856,-1215,28599,26.3765,17519,332
0.995902,8.290902,-1214,28600,26.2271,17519,332
0.497951,8.574516,-1213,28601,26.3267,17519,332
1.38452,8.769543,-1212,28602,26.3267,17519,332
2.10358,9.135721,-1211,28603,26.3765,17523,393
1.08306,9.50974,-1210,28604,26.5756,17523,393
1.09619,9.347749,-1209,28605,26.3267,17523,393
1.68298,9.109587,-1208,28606,26.3765,17523,393
1.94824,8.952008,-1207,28607,26.3765,17523,393
0.447517,8.695314,-1206,28608,26.3765,17523,393
1.46484,8.698741,-1205,28609,26.3765,17523,393
1.63702,8.564083,-1204,28610,26.5756,17523,393
1.74966,8.818682,-1203,28611,26.3765,17523,393
0.76272,8.777187,-1202,28612,26.1773,17523,393
1.1472,8.735493,-1201,28613,26.476,17523,424
1.70549,8.871749,-1200,28614,26.5258,17523,424
1.88099,9.107133,-1199,28615,26.6752,17523,424
1.82437,9.122663,-1198,28616,26.3267,17523,424
0.862477,8.778035,-1197,28617,26.3267,17523,424
0.41432,8.790758,-1196,28618,26.3267,17523,424
1.63702,8.416657,-1195,28619,26.476,17523,424
1.27702,7.400119,-1194,28620,26.5258,17523,424
1.52231,6.574821,-1193,28621,26.1773,17523,424
1.68298,6.302896,-1192,28622,26.3267,17523,424
1.45176,6.256625,-1191,28623,26.3267,17523,265
1.48103,5.997616,-1190,28624,26.3765,17523,265
1.57769,5.851741,-1189,28625,26.5258,17523,265
1.43525,5.830056,-1188,28626,26.3267,17523,265
1.70829,6.102295,-1187,28627,26.3765,17523,265
1.01487,6.653672,-1186,28628,26.3267,17523,265
1.87592,6.841385,-1185,28629,26.5258,17523,265
0.799351,6.894542,-1184,28630,26.3267,17523,265
0.560992,6.975119,-1183,28631,26.3765,17523,265
1.89614,7.0368,-1182,28632,26.5756,17523,265
1.92856,7.590968,-1181,28633,26.2271,17527,303
1.71108,7.928934,-1180,28634,26.1773,17527,303
1.4118,8.225945,-1179,28635,26.3267,17527,303
1.66303,8.480154,-1178,28636,26.5258,17527,303
1.50022,8.632538,-1177,28637,26.3765,17527,303
1.38452,9.043919,-1176,28638,26.3267,17527,303
1.78206,9.658994,-1175,28639,26.2271,17527,303
1.23912,10.01721,-1174,28640,26.3765,17527,303
1.70829,10.08688,-1173,28641,26.476,17527,303
1.54099,10.34433,-1172,28642,26.5258,17527,303
2.0716,10.5892,-1171,28643,26.5258,17525,431
0.931581,10.56666,-1170,28644,26.5258,17525,431
1.51603,10.83198,-1169,28645,26.3267,17525,431
1.36019,11.19924,-1168,28646,26.2271,17525,431
1.48103,11.42581,-1167,28647,26.3267,17525,431
1.67446,11.61466,-1166,28648,26.5258,17525,431
2.10585,12.18382,-1165,28649,26.3267,17525,431
1.62532,12.41402,-1164,28650,26.2271,17525,431
2.13954,12.30551,-1163,28651,26.2271,17525,431
1.80334,12.41822,-1162,28652,26.3765,17525,431
1.40163,13.07578,-1161,28653,26.1773,17526,399
1.70829,13.6375,-1160,28654,26.3765,17526,399
1.57769,14.05771,-1159,28655,26.3765,17526,399
1.37067,14.02162,-1158,28656,26.1773,17526,399
1.73047,14.06566,-1157,28657,26.3765,17526,399
1.71386,14.40119,-1156,28658,26.3267,17526,399
1.60168,14.42032,-1155,28659,26.1773,17526,399
1.04725,14.62961,-1154,28660,26.2271,17526,399
1.70829,14.21215,-1153,28661,26.5258,17526,399
1.69146,14.08048,-1152,28662,26.5258,17526,399
1.4681,14.03384,-1151,28663,26.3765,17523,434
1.01956,14.01365,-1150,28664,26.5258,17523,434
0.921287,13.84355,-1149,28665,26.476,17523,434
1.66016,13.74362,-1148,28666,26.3267,17523,434
1.49385,13.65715,-1147,28667,26.3267,17523,434
1.86827,13.29502,-1146,28668,26.2271,17523,434
1.94088,12.85279,-1145,28669,26.3267,17523,434
1.33185,12.62056,-1144,28670,26.3765,17523,434
1.33185,12.20032,-1143,28671,26.3765,17523,434
2.45115,11.5012,-1142,28672,26.3765,17523,434
2.33151,10.94352,-1141,28673,26.476,17521,273
1.45176,10.58991,-1140,28674,26.3765,17521,273
1.44188,10.243,-1139,28675,26.3267,17521,273
2.31303,10.25173,-1138,28676,26.3765,17521,273
1.34255,10.03356,-1137,28677,26.3765,17521,273
2.11263,10.05284,-1136,28678,26.3267,17521,273
1.74693,9.965006,-1135,28679,26.3267,17521,273
1.86827,10.31909,-1134,28680,26.1773,17521,273
0.921287,10.43255,-1133,28681,26.5258,17521,273
1.88099,10.01274,-1132,28682,26.3765,17521,273
1.56555,9.751882,-1131,28683,26.476,17522,364
1.28817,9.469698,-1130,28684,26.5258,17522,364
1.68298,9.188579,-1129,28685,26.5258,17522,364
1.57769,8.806846,-1128,28686,26.5258,17522,364
2.0156,8.492445,-1127,28687,26.3765,17522,364
1.41517,8.466964,-1126,28688,26.2271,17522,364
0.889691,8.462563,-1125,28689,26.5258,17522,364
1.89362,8.577123,-1124,28690,26.1773,17522,364
1.02423,9.215298,-1123,28691,26.2271,17522,364
2.44531,9.122663,-1122,28692,26.5756,17522,364
1.17594,8.857461,-1121,28693,26.3765,17494,378
1.76323,8.916984,-1120,28694,26.3765,17494,378
1.84774,8.891044,-1119,28695,26.3267,17494,378
2.5353,8.847361,-1118,28696,26.5258,17494,378
0.793363,8.760193,-1117,28697,26.3267,17494,378
1.01956,8.455517,-1116,28698,26.1773,17494,378
1.94579,7.802957,-1115,28699,26.3765,17494,378
1.77132,6.740448,-1114,28700,26.476,17494,378
1.88858,5.690362,-1113,28701,26.3267,17494,378
1.74966,4.528134,-1112,28702,26.3765,17494,378
1.34255,4.146799,-1111,28703,26.3765,17523,381
0.534885,4.463502,-1110,28704,26.5258,17523,381
2.91827,4.773246,-1109,28705,26.6752,17523,381
1.60168,4.970526,-1108,28706,26.5258,17523,381
1.05631,5.359985,-1107,28707,26.5258,17523,381
1.74966,5.726906,-1106,28708,26.2271,17523,381
1.57769,6.334732,-1105,28709,26.5258,17523,381
1.64283,6.682723,-1104,28710,26.5258,17523,381
1.40163,6.624494,-1103,28711,26.2271,17523,381
1.39139,6.211208,-1102,28712,26.3765,17523,381
0.961803,5.962732,-1101,28713,26.476,17520,462
1.19205,6.05326,-1100,28714,26.3267,17520,462
1.54099,5.991402,-1099,28715,26.2271,17520,462
1.20794,6.027357,-1098,28716,26.5258,17520,462
2.18584,5.865729,-1097,28717,26.3267,17520,462
1.78473,5.855559,-1096,28718,26.1276,17520,462
1.01016,6.302896,-1095,28719,26.3267,17520,462
1.94088,6.34883,-1094,28720,26.2271,17520,462
1.74693,6.268522,-1093,28721,26.3267,17520,462
0.966748,6.335908,-1092,28722,26.3765,17520,462
1.61945,5.993889,-1091,28723,26.3765,17525,277
1.09183,5.491808,-1090,28724,26.028,17525,277
1.70829,4.830654,-1089,28725,26.3765,17525,277
0.905627,4.315837,-1088,28726,26.2271,17525,277
1.66589,3.696534,-1087,28727,26.3765,17525,277
1.84257,3.64784,-1086,28728,26.3267,17525,277
0.921287,3.36746,-1085,28729,26.1773,17525,277
1.60168,3.211169,-1084,28730,26.5258,17525,277
1.23912,2.962564,-1083,28731,26.3267,17525,277
0.961803,3.356379,-1082,28732,26.3267,17525,277
1.02423,3.678349,-1081,28733,26.6752,17519,322
1.78473,3.833086,-1080,28734,26.3267,17519,322
0.552427,4.458492,-1079,28735,26.5258,17519,322
1.77938,5.306901,-1078,28736,26.3267,17519,322
2.48592,6.416534,-1077,28737,26.3765,17519,322
1.38452,7.608614,-1076,28738,26.476,17519,322
2.41193,8.430809,-1075,28739,26.3765,17519,322
1.9942,9.348546,-1074,28740,26.3267,17519,322
1.70549,10.43398,-1073,28741,26.3765,17519,322
1.48103,11.20988,-1072,28742,26.3267,17519,322
1.42525,12.32668,-1071,28743,26.6752,17517,395
0.683594,12.68181,-1070,28744,26.3267,17517,395
2.26091,13.05696,-1069,28745,26.1773,17517,395
1.56859,13.42884,-1068,28746,26.3267,17517,395
1.71664,13.4133,-1067,28747,26.3267,17517,395
1.90617,13.29782,-1066,28748,26.3267,17517,395
1.84257,12.96764,-1065,28749,26.5258,17517,395
2.27352,12.30491,-1064,28750,26.5756,17517,395
1.24296,11.88165,-1063,28751,26.3765,17517,395
0.534885,11.79669,-1062,28752,26.3765,17517,395
1.97498,12.12497,-1061,28753,26.1773,17552,433
1.3029,12.41402,-1060,28754,26.2271,17552,433
2.2819,12.7334,-1059,28755,26.3765,17552,433
1.80334,13.1932,-1058,28756,26.2271,17552,433
1.48103,13.67514,-1057,28757,26.5756,17552,433
0.676582,14.46057,-1056,28758,26.3267,17552,433
0.402647,14.79823,-1055,28759,26.3765,17552,433
1.89614,15.28221,-1054,28760,26.5258,17552,433
1.66303,15.19469,-1053,28761,26.2271,17552,433
1.61945,15.31532,-1052,28762,26.1773,17552,433
1.51917,15.4548,-1051,28763,26.3267,17524,280
2.15287,15.32894,-1050,28764,26.3765,17524,280
1.19604,14.26813,-1049,28765,26.3765,17524,280
1.15548,13.45766,-1048,28766,26.1773,17524,280
1.59273,12.76262,-1047,28767,26.3765,17524,280
1.45505,12.34179,-1046,28768,26.476,17524,280
1.20399,12.11575,-1045,28769,26.5258,17524,280
1.50022,11.97223,-1044,28770,26.3765,17524,280
1.4681,11.48045,-1043,28771,26.3765,17524,280
1.05179,11.39446,-1042,28772,26.5258,17524,280
1.34255,11.2039,-1041,28773,26.3267,17526,296
1.33185,10.43469,-1040,28774,26.2271,17526,296
1.93596,8.320504,-1039,28775,26.1773,17526,296
1.64863,6.218401,-1038,28776,26.5756,17526,296
1.53168,5.267444,-1037,28777,26.476,17526,296
1.57466,6.758111,-1036,28778,26.6752,17526,296
1.73047,8.891044,-1035,28779,26.2271,17526,296
1.65152,8.742314,-1034,28780,26.3765,17526,296
1.21188,7.660338,-1033,28781,26.3267,17526,296
1.94088,6.58388,-1032,28782,26.3267,17526,296
1.70549,5.892343,-1031,28783,26.3267,17526,296
0.889691,5.368319,-1030,28784,26.3267,17526,296
2.01087,5.884751,-1029,28785,26.3267,17526,296
0.577742,6.741553,-1028,28786,26.5258,17526,296
2.2944,7.227965,-1027,28787,26.3267,17526,296
1.13045,7.140852,-1026,28788,26.1773,17526,296
1.54717,6.553255,-1025,28789,26.2271,17526,296
0.966748,5.426297,-1024,28790,26.5258,17526,296
1.78206,4.483488,-1023,28791,26.5258,17526,296
1.20399,4.130597,-1022,28792,26.5258,17526,296
1.43857,4.094363,-1021,28793,26.3765,17518,351
1.31745,4.195029,-1020,28794,26.3765,17518,351
2.00612,4.62097,-1019,28795,26.2271,17518,351
1.53168,4.239198,-1018,28796,26.2271,17518,351
0.905627,3.407052,-1017,28797,26.5258,17518,351
1.90116,3.102604,-1016,28798,26.5258,17518,351
1.23912,3.22506,-1015,28799,26.3267,17518,351
1.54717,3.478468,-1014,28800,26.3765,17518,351
1.28447,3.908157,-1013,28801,26.3267,17518,351
1.34255,4.355362,-1012,28802,26.5258,17518,351
0.889691,4.646696,-1011,28803,26.5258,17528,398
1.37067,4.861403,-1010,28804,26.2271,17528,398
0.817051,4.97502,-1009,28805,26.3765,17528,398
1.23526,5.151599,-1008,28806,26.3267,17528,398
1.6165,5.526968,-1007,28807,26.5258,17528,398
1.61059,6.06064,-1006,28808,26.5258,17528,398
1.85804,6.790007,-1005,28809,26.3267,17528,398
2.24609,7.482223,-1004,28810,26.2271,17528,398
1.24679,8.073269,-1003,28811,26.3765,17528,398
1.71108,7.995373,-1002,28812,26.5258,17528,398
1.99897,7.581146,-1001,28813,26.1773,17523,437
1.88858,7.237236,-1000,28814,26.3267,17523,437
2.15287,6.784518,-999,28815,26.1773,17523,437
0.966748,6.594057,-998,28816,26.3765,17523,437
1.25821,6.744868,-997,28817,26.3267,17523,437
1.56555,6.985793,-996,28818,26.3267,17523,437
1.21581,7.227965,-995,28819,26.5258,17523,437
1.22752,7.227965,-994,28820,26.1773,17523,437
1.40163,7.16481,-993,28821,26.3267,17523,437
1.53168,7.215584,-992,28822,26.1773,17523,437
1.3029,7.173124,-991,28823,26.5258,17529,274
2.37809,7.35062,-990,28824,26.5258,17529,274
1.49066,7.558509,-989,28825,26.5258,17529,274
1.90617,7.965497,-988,28826,26.3765,17529,274
1.64863,8.844834,-987,28827,26.3267,17529,274
1.47781,9.834807,-986,28828,26.3267,17529,274
0.981433,10.62362,-985,28829,26.6752,17529,274
0.921287,11.64924,-984,28830,26.3765,17529,274
2.2819,12.57502,-983,28831,26.2271,17529,274
2.48784,13.2518,-982,28832,26.2271,17529,274
1.61945,13.76096,-981,28833,26.3765,17527,362
1.41517,13.84785,-980,28834,26.2271,17527,362
1.54099,13.38216,-979,28835,26.3267,17527,362
1.18804,11.84522,-978,28836,26.3765,17527,362
1.39139,10.45395,-977,28837,26.5258,17527,362
1.10916,9.043919,-976,28838,26.3267,17527,362
1.68014,7.920473,-975,28839,26.5258,17527,362
1.38452,7.507076,-974,28840,26.3267,17527,362
1.38452,7.698176,-973,28841,26.3765,17527,362
0.941763,8.190545,-972,28842,26.3765,17527,362
1.13045,8.080649,-971,28843,26.3267,17520,332
1.33185,7.700112,-970,28844,26.5258,17520,332
1.88099,7.503105,-969,28845,26.476,17520,332
1.74966,7.410181,-968,28846,26.3765,17520,332
0.737289,7.836306,-967,28847,26.1773,17520,332
2.11488,8.597945,-966,28848,26.2271,17520,332
1.51917,9.453162,-965,28849,26.5258,17520,332
1.52856,10.54973,-964,28850,26.3765,17520,332
1.73047,11.61209,-963,28851,26.3267,17520,332
1.66589,12.36109,-962,28852,26.1773,17520,332
2.0156,13.56904,-961,28853,26.3765,17531,376
1.11345,14.29995,-960,28854,26.5258,17531,376
1.62826,14.70783,-959,28855,26.476,17531,376
1.1596,14.96942,-958,28856,26.5258,17531,376
1.11345,15.02804,-957,28857,26.3765,17531,376
1.76323,15.32943,-956,28858,26.3267,17531,376
1.65152,15.18782,-955,28859,26.2271,17531,376
2.02504,15.48754,-954,28860,26.3765,17531,376
1.69708,15.8061,-953,28861,26.3765,17531,376
1.62826,15.62166,-952,28862,26.3765,17531,376
1.65152,15.50533,-951,28863,26.5756,17525,471
1.74966,15.46443,-950,28864,26.3765,17525,471
1.31383,15.42633,-949,28865,26.3267,17525,471
0.817051,15.28708,-948,28866,26.3765,17525,471
1.34255,14.60259,-947,28867,26.3267,17525,471
1.13045,13.93153,-946,28868,26.5756,17525,471
1.64863,13.47482,-945,28869,26.476,17525,471
2.48592,13.50243,-944,28870,26.5756,17525,471
1.19604,13.44825,-943,28871,26.5258,17525,471
1.05179,13.48311,-942,28872,26.3267,17525,471
1.49066,13.35318,-941,28873,26.3267,17529,280
1.37415,11.72384,-940,28874,26.3267,17529,280
0.292969,10.35873,-939,28875,26.2271,17529,280
1.55638,12.01571,-938,28876,26.5756,17529,280
0.717624,13.49691,-937,28877,26.3765,17529,280
0.750112,12.91525,-936,28878,26.3765,17529,280
1.58973,10.92239,-935,28879,26.3765,17529,280
2.17052,10.28655,-934,28880,26.2271,17529,280
1.0381,12.44938,-933,28881,26.476,17529,280
1.68863,16.27706,-932,28882,26.3267,17529,280
1.4681,19.06369,-931,28883,26.476,17528,321
1.25442,19.68552,-930,28884,26.3267,17528,321
0.365396,17.70861,-929,28885,26.3267,17528,321
1.97256,13.02268,-928,28886,26.3267,17528,321
0.85693,6.612111,-927,28887,26.5258,17528,321
1.45505,4.93442,-926,28888,26.3267,17528,321
1.33185,12.88521,-925,28889,26.3765,17528,321
1.43525,19.87198,-924,28890,26.476,17528,321
1.27702,24.39727,-923,28891,26.3765,17528,321
1.29556,26.12219,-922,28892,26.3765,17528,321
1.43525,24.64097,-921,28893,26.3267,17527,394
1.90116,21.12804,-920,28894,26.2271,17527,394
0.884315,16.092,-919,28895,26.3267,17527,394
1.26953,11.4811,-918,28896,26.3267,17527,394
1.32467,8.327665,-917,28897,26.3765,17527,394
1.40163,7.882756,-916,28898,26.3765,17527,394
1.13886,8.778884,-915,28899,26.3267,17527,394
1.94333,9.35492,-914,28900,26.3267,17527,394
1.97256,9.143058,-913,28901,26.3267,17527,394
1.15135,8.762744,-912,28902,26.2271,17527,394
1.25061,9.675949,-911,28903,26.3765,17530,445
1.40163,11.8735,-910,28904,26.5258,17530,445
0.488281,14.48888,-909,28905,26.1773,17530,445
2.27352,17.87153,-908,28906,26.1773,17530,445
2.23545,22.57839,-907,28907,26.3267,17530,445
1.55638,25.63883,-906,28908,26.3267,17530,445
1.55638,24.50909,-905,28909,26.3267,17530,445
1.73047,18.78812,-904,28910,26.3267,17530,445
1.55638,13.71812,-903,28911,26.3267,17530,445
0.743728,11.02762,-902,28912,26.476,17530,445
2.11488,11.13586,-901,28913,26.3765,17536,447
2.44921,12.24481,-900,28914,26.1773,17536,447
1.43857,13.22084,-899,28915,26.3765,17536,447
1.54408,13.16776,-898,28916,26.476,17536,447
1.68014,13.02497,-897,28917,26.2271,17536,447
1.4681,12.80808,-896,28918,26.476,17536,447
1.52856,12.83423,-895,28919,26.3267,17536,447
1.41517,13.76583,-894,28920,26.3267,17536,447
1.49385,14.96694,-893,28921,26.3765,17536,447
0.828641,15.35808,-892,28922,26.3267,17536,447
2.09222,14.91757,-891,28923,26.6752,17517,295
1.4118,14.64691,-890,28924,26.5258,17517,295
1.67161,14.79067,-889,28925,26.3267,17517,295
1.00068,15.46829,-888,28926,26.476,17517,295
1.79539,16.32186,-887,28927,26.3765,17517,295
2.05311,16.95547,-886,28928,26.3765,17517,295
0.78733,17.60438,-885,28929,26.3267,17517,295
1.70549,18.3585,-884,28930,26.1773,17517,295
1.60466,18.55268,-883,28931,26.2271,17517,295
1.94824,18.5984,-882,28932,26.3765,17517,295
1.76863,18.70745,-881,28933,26.3765,17528,350
1.44188,18.84514,-880,28934,26.3765,17528,350
1.23912,19.20853,-879,28935,26.3765,17528,350
1.45505,19.55489,-878,28936,26.5258,17528,350
1.48746,20.37441,-877,28937,26.3267,17528,350
1.84257,20.80431,-876,28938,26.3765,17528,350
1.22752,20.96875,-875,28939,26.5258,17528,350
1.67161,21.38043,-874,28940,26.5258,17528,350
1.37415,21.38461,-873,28941,26.476,17528,350
1.33185,20.82686,-872,28942,26.3765,17528,350
1.82437,19.9543,-871,28943,26.3765,17518,395
1.31383,18.89134,-870,28944,26.3765,17518,395
1.64863,17.91442,-869,28945,26.3267,17518,395
1.40163,17.22576,-868,28946,26.3765,17518,395
1.99659,16.15991,-867,28947,26.3267,17518,395
1.91864,15.25586,-866,28948,26.476,17518,395
1.45176,14.54072,-865,28949,26.3267,17518,395
2.32946,13.62657,-864,28950,26.3765,17518,395
1.60168,12.3942,-863,28951,26.3267,17518,395
1.73047,10.39893,-862,28952,26.3267,17518,395
1.65152,8.681594,-861,28953,26.5258,17524,415
1.75238,9.083377,-860,28954,26.3765,17524,415
2.18584,11.93358,-859,28955,26.2271,17524,415
1.07865,16.16591,-858,28956,26.5258,17524,415
1.56859,20.57238,-857,28957,26.3267,17524,415
1.07865,23.14158,-856,28958,26.476,17524,415
1.22752,22.22551,-855,28959,26.3765,17524,415
1.6165,18.68394,-854,28960,26.5258,17524,415
1.62239,13.77719,-853,28961,26.3765,17524,415
0.981433,9.937303,-852,28962,26.3267,17524,415
1.17998,7.44729,-851,28963,26.5258,17519,274
1.24296,7.697208,-850,28964,26.5258,17519,274
2.04146,10.29596,-849,28965,26.3267,17519,274
1.35668,12.95902,-848,28966,26.2271,17519,274
0.478416,14.65098,-847,28967,26.3765,17519,274
1.51603,15.74944,-846,28968,26.1773,17519,274
1.71386,16.11929,-845,28969,26.3765,17519,274
1.01016,16.16222,-844,28970,26.5756,17519,274
1.54099,16.27248,-843,28971,26.3765,17519,274
1.66303,15.87571,-842,28972,26.2271,17519,274
1.61059,15.32991,-841,28973,26.5258,17529,299
2.01797,14.81835,-840,28974,26.3765,17529,299
1.49385,14.76849,-839,28975,26.5258,17529,299
1.32827,14.70175,-838,28976,26.5756,17529,299
1.01956,14.42859,-837,28977,26.5258,17529,299
1.27702,14.3036,-836,28978,26.6752,17529,299
1.51917,14.01897,-835,28979,26.3765,17529,299
1.19205,14.05983,-834,28980,26.2271,17529,299
1.16371,14.66674,-833,28981,26.1773,17529,299
1.59273,15.22017,-832,28982,26.3765,17529,299
1.97739,15.85317,-831,28983,26.3765,17527,330
0.961803,16.9502,-830,28984,26.3765,17527,330
1.56859,18.16101,-829,28985,26.3267,17527,330
1.47134,19.24341,-828,28986,26.476,17527,330
1.71664,20.12273,-827,28987,26.5258,17527,330
1.89614,20.95738,-826,28988,26.3267,17527,330
2.0156,21.65914,-825,28989,26.2271,17527,330
1.82698,21.57953,-824,28990,26.3765,17527,330
1.10485,20.9826,-823,28991,26.3267,17527,330
0.900346,20.06934,-822,28992,26.3765,17527,330
0.704209,17.92647,-821,28993,26.3765,17526,362
1.68298,15.69826,-820,28994,26.3267,17526,362
1.24296,13.54155,-819,28995,26.5258,17526,362
1.40163,11.30321,-818,28996,26.1773,17526,362
1.36019,10.32631,-817,28997,26.1773,17526,362
1.13045,10.70954,-816,28998,26.3765,17526,362
1.45505,11.01274,-815,28999,26.3765,17526,362
1.19205,11.28408,-814,29000,26.3267,17526,362
1.21581,11.849,-813,29001,26.3267,17526,362
1.94824,12.68651,-812,29002,26.5258,17526,362
1.63702,13.5597,-811,29003,26.5258,17533,466
1.98461,14.4482,-810,29004,26.5756,17533,466
1.45505,14.97938,-809,29005,26.2271,17533,466
1.83998,14.73516,-808,29006,26.5258,17533,466
2.58005,14.27231,-807,29007,26.3267,17533,466
1.33185,13.2518,-806,29008,26.5258,17533,466
1.96772,12.55901,-805,29009,26.5258,17533,466
1.00068,11.67607,-804,29010,26.5258,17533,466
0.625305,10.9299,-803,29011,26.5756,17533,466
1.47781,9.78011,-802,29012,26.3765,17533,466
1.85547,8.668711,-801,29013,26.3267,17514,281
1.52544,7.639885,-800,29014,26.6752,17514,281
0.905627,7.039976,-799,29015,26.6752,17514,281
0.862477,6.804257,-798,29016,26.476,17514,281
1.67161,6.66486,-797,29017,26.3765,17514,281
1.37415,6.692749,-796,29018,26.3267,17514,281
1.89865,6.489274,-795,29019,26.3267,17514,281
1.32827,8.102747,-794,29020,26.3765,17514,281
1.85547,12.45177,-793,29021,26.1773,17514,281
1.0381,17.35675,-792,29022,26.3267,17514,281
1.72772,18.90869,-791,29023,26.5258,17541,340
1.38107,16.86427,-790,29024,26.5258,17541,340
1.17594,15.23729,-789,29025,26.3267,17541,340
1.22363,15.14951,-788,29026,26.3765,17541,340
1.61059,15.58203,-787,29027,26.2271,17541,340
0.828641,16.54942,-786,29028,26.3765,17541,340
2.33764,18.18028,-785,29029,26.5756,17541,340
1.49385,20.55752,-784,29030,26.3267,17541,340
1.53168,23.13611,-783,29031,26.3765,17541,340
1.83479,25.98378,-782,29032,26.3765,17541,340
1.3102,29.38651,-781,29033,26.3765,17505,291
1.21188,33.19303,-780,29034,26.3267,17505,291
1.88858,36.23947,-779,29035,26.3267,17505,291
1.48103,38.34893,-778,29036,26.3267,17505,291
1.40163,40.63842,-777,29037,26.3267,17505,291
1.27702,43.17149,-776,29038,26.3765,17505,291
1.99659,44.23158,-775,29039,26.3765,17505,291
1.39822,42.62649,-774,29040,26.476,17505,291
1.47134,38.38,-773,29041,26.3267,17505,291
1.02423,33.02538,-772,29042,26.3267,17505,291
1.68014,30.12269,-771,29043,26.3765,17532,388
1.73323,31.43873,-770,29044,26.028,17532,388
1.84257,34.47962,-769,29045,26.3267,17532,388
1.77938,35.80241,-768,29046,26.3267,17532,388
1.74146,35.12508,-767,29047,26.2271,17532,388
1.61059,33.40425,-766,29048,26.5756,17532,388
1.4118,31.14133,-765,29049,26.3765,17532,388
1.68863,29.52007,-764,29050,26.3267,17532,388
1.66875,29.32661,-763,29051,26.3765,17532,388
1.19604,30.61751,-762,29052,26.1773,17532,388
1.31745,32.26007,-761,29053,26.3267,17529,388
1.59273,33.16496,-760,29054,26.1773,17529,388
1.25442,33.44949,-759,29055,26.2271,17529,388
2.37809,33.45283,-758,29056,26.3765,17529,388
1.10916,33.01996,-757,29057,26.3267,17529,388
1.34255,32.56098,-756,29058,26.3267,17529,388
1.47781,32.52939,-755,29059,26.3267,17529,388
1.4219,32.38408,-754,29060,26.3267,17529,388
1.36019,32.08313,-753,29061,26.476,17529,388
2.04146,31.71691,-752,29062,26.476,17529,388
1.13045,31.41692,-751,29063,26.476,17529,458
1.78473,31.06899,-750,29064,26.3765,17529,458
1.47134,30.84637,-749,29065,26.3267,17529,458
0.845728,30.52563,-748,29066,26.5258,17529,458
1.23912,29.53118,-747,29067,26.3765,17529,458
1.08306,27.73146,-746,29068,26.5258,17529,458
1.36019,25.04495,-745,29069,26.2271,17529,458
1.79273,22.26269,-744,29070,26.3267,17529,458
1.6341,20.04371,-743,29071,26.3267,17529,458
1.27702,18.58197,-742,29072,26.3765,17529,458
1.11773,18.1606,-741,29073,26.476,17531,276
1.37067,17.65974,-740,29074,26.5258,17531,276
1.95556,16.49621,-739,29075,26.5258,17531,276
2.25034,15.69826,-738,29076,26.476,17531,276
1.34255,14.75082,-737,29077,26.3765,17531,276
1.55638,14.3317,-736,29078,26.3267,17531,276
1.45505,14.08736,-735,29079,26.476,17531,276
0.478416,13.81392,-734,29080,26.3267,17531,276
0.78733,13.82847,-733,29081,26.476,17531,276
0.941763,14.87506,-732,29082,26.1773,17531,276
1.20399,16.08644,-731,29083,26.5756,17528,331
1.38452,16.86559,-730,29084,26.3765,17528,331
1.01956,17.43427,-729,29085,26.3765,17528,331
1.27702,17.74476,-728,29086,26.476,17528,331
1.72772,17.8832,-727,29087,26.3765,17528,331
0.805294,17.69177,-726,29088,26.5258,17528,331
1.4118,17.50933,-725,29089,26.3765,17528,331
1.39481,17.4616,-724,29090,26.3267,17528,331
1.37415,17.79047,-723,29091,26.3267,17528,331
1.83739,18.49033,-722,29092,26.3765,17528,331
1.54099,19.86936,-721,29093,26.3267,17528,386
1.06977,21.33438,-720,29094,26.3765,17528,386
1.83739,22.72935,-719,29095,26.3267,17528,386
1.96529,23.6057,-718,29096,26.5258,17528,386
1.64863,24.3303,-717,29097,26.3267,17528,386
2.13284,24.86462,-716,29098,26.3765,17528,386
1.19604,25.33657,-715,29099,26.3765,17528,386
1.96044,25.98808,-714,29100,26.3267,17528,386
1.3461,26.9145,-713,29101,26.476,17528,386
1.48103,28.19745,-712,29102,26.1773,17528,386
2.03209,29.56119,-711,29103,26.5258,17549,420
0.884315,31.56904,-710,29104,26.3765,17549,420
1.3102,33.37524,-709,29105,26.3765,17549,420
1.53168,35.14671,-708,29106,26.3267,17549,420
1.62826,36.52555,-707,29107,26.1773,17549,420
1.38107,37.86246,-706,29108,26.5258,17549,420
2.03209,39.5843,-705,29109,26.2271,17549,420
0.926449,41.41081,-704,29110,26.1773,17549,420
1.76323,42.85798,-703,29111,26.3267,17549,420
2.03209,44.17883,-702,29112,26.3267,17549,420
1.60168,45.80126,-701,29113,26.476,17526,374
1.27328,47.38467,-700,29114,26.3267,17526,374
1.62532,49.89616,-699,29115,26.2271,17526,374
2.41983,54.63748,-698,29116,26.5258,17526,374
1.10916,66.00427,-697,29117,26.476,17526,374
1.45176,80.40969,-696,29118,26.2271,17526,374
1.47781,72.81758,-695,29119,26.3765,17526,374
1.34255,52.61797,-694,29120,26.5258,17526,374
1.28447,49.36684,-693,29121,26.3267,17526,374
1.85547,55.78947,-692,29122,26.3267,17526,374
1.28817,63.03345,-691,29123,26.1773,17521,314
0.85693,62.93598,-690,29124,26.5258,17521,314
1.56859,60.79065,-689,29125,26.1773,17521,314
1.85804,63.92791,-688,29126,26.2271,17521,314
1.54099,70.51756,-687,29127,26.3267,17521,314
1.40163,73.2369,-686,29128,26.5258,17521,314
1.33543,70.99583,-685,29129,26.476,17521,314
1.64283,70.27646,-684,29130,26.1773,17521,314
1.4681,72.92575,-683,29131,26.3267,17521,314
1.45176,73.97874,-682,29132,26.5756,17521,314
1.15548,71.54497,-681,29133,26.476,17525,341
1.10916,69.16746,-680,29134,26.2271,17525,341
1.55638,69.60031,-679,29135,26.5258,17525,341
1.45505,71.16752,-678,29136,26.5258,17525,341
2.22691,71.54674,-677,29137,26.3765,17525,341
1.62239,71.49299,-676,29138,26.3267,17525,341
1.43525,72.1927,-675,29139,26.3267,17525,341
1.38452,74.44778,-674,29140,26.5258,17525,341
1.27702,76.99512,-673,29141,26.3765,17525,341
1.17998,78.96081,-672,29142,26.3267,17525,341
1.27702,80.52802,-671,29143,26.3765,17557,386
2.28607,82.30581,-670,29144,26.476,17557,386
1.15548,83.44932,-669,29145,26.1773,17557,386
2.23759,83.54587,-668,29146,26.5258,17557,386
1.24679,83.50537,-667,29147,26.3267,17557,386
1.06082,83.82365,-666,29148,26.476,17557,386
1.97498,84.08066,-665,29149,26.3765,17557,386
1.75781,84.19826,-664,29150,26.3267,17557,386
1.27328,84.73808,-663,29151,26.3267,17557,386
1.17594,85.70223,-662,29152,26.476,17557,386
2.52021,86.75292,-661,29153,26.3267,17519,441
1.02423,87.39118,-660,29154,26.3267,17519,441
1.20794,87.73459,-659,29155,26.3267,17519,441
0.811194,88.34062,-658,29156,26.3267,17519,441
1.37415,88.88102,-657,29157,26.5258,17519,441
1.15548,89.77141,-656,29158,26.3267,17519,441
1.71108,90.43927,-655,29159,26.5258,17519,441
1.32827,91.29692,-654,29160,26.476,17519,441
1.81651,92.27829,-653,29161,26.1773,17519,441
0.577742,92.85805,-652,29162,26.5258,17519,441
2.41983,92.7642,-651,29163,26.3267,17516,274
1.57769,91.95971,-650,29164,26.5258,17516,274
1.42859,91.34792,-649,29165,26.3765,17516,274
1.26577,91.1096,-648,29166,26.1773,17516,274
2.20539,90.87157,-647,29167,26.3267,17516,274
1.17188,90.969,-646,29168,26.476,17516,274
1.45176,91.15081,-645,29169,26.3267,17516,274
2.02269,91.31945,-644,29170,26.1773,17516,274
1.60466,91.72875,-643,29171,26.5258,17516,274
1.93842,91.7242,-642,29172,26.5258,17516,274
0.458048,91.10601,-641,29173,26.3267,17524,339
1.48103,89.79489,-640,29174,26.3267,17524,339
1.7767,88.18015,-639,29175,26.3765,17524,339
1.73047,86.48206,-638,29176,26.5258,17524,339
1.49385,84.93787,-637,29177,26.3267,17524,339
1.46484,84.0664,-636,29178,26.3267,17524,339
1.53789,82.84726,-635,29179,26.3765,17524,339
1.82437,81.66723,-634,29180,26.5258,17524,339
1.39822,80.7886,-633,29181,26.3267,17524,339
1.32827,80.27541,-632,29182,26.1773,17524,339
1.43525,79.40728,-631,29183,26.3765,17520,273
1.38107,78.43519,-630,29184,26.3765,17520,273
0.966748,77.12806,-629,29185,26.3765,17520,273
0.697405,76.01727,-628,29186,26.3765,17520,273
0.768946,75.04644,-627,29187,26.1773,17520,273
1.52856,74.18883,-626,29188,26.3267,17520,273
0.793363,73.08842,-625,29189,26.5756,17520,273
1.41854,72.5677,-624,29190,26.3765,17520,273
1.89865,72.50545,-623,29191,26.2271,17520,273
1.80598,72.45045,-622,29192,26.3267,17520,273
2.20323,72.58381,-621,29193,26.2271,17514,392
1.89362,72.79332,-620,29194,26.3267,17514,392
1.49385,73.63754,-619,29195,26.3267,17514,392
1.14304,74.16362,-618,29196,26.5258,17514,392
2.19672,74.55189,-617,29197,26.1773,17514,392
2.19889,74.37419,-616,29198,26.3267,17514,392
1.37067,74.14463,-615,29199,26.3765,17514,392
1.74966,73.39858,-614,29200,26.3765,17514,392
1.08306,72.60331,-613,29201,26.3267,17514,392
1.02423,71.59307,-612,29202,26.476,17514,392
1.3029,70.93651,-611,29203,26.3765,17518,462
1.57163,70.45361,-610,29204,26.3267,17518,462
1.38107,69.97888,-609,29205,26.3765,17518,462
0.905627,69.31337,-608,29206,26.3267,17518,462
1.68298,69.28875,-607,29207,26.3765,17518,462
1.80334,69.59357,-606,29208,26.476,17518,462
1.96529,69.65125,-605,29209,26.476,17518,462
1.21188,68.97826,-604,29210,26.3765,17518,462
1.47134,68.68676,-603,29211,26.1773,17518,462
2.32126,68.87233,-602,29212,26.5258,17518,462
0.926449,69.21602,-601,29213,26.2271,17481,277
2.16171,69.65681,-600,29214,26.5258,17481,277
2.42376,69.99016,-599,29215,26.3267,17481,277
1.31745,70.61385,-598,29216,26.6752,17481,277
1.17998,71.12186,-597,29217,26.3267,17481,277
0.905627,71.6954,-596,29218,26.5756,17481,277
1.4118,72.21468,-595,29219,26.5258,17481,277
1.68863,72.44325,-594,29220,26.1773,17481,277
1.74966,72.6545,-593,29221,26.3267,17481,277
1.04268,72.63861,-592,29222,26.3267,17481,277
1.23912,72.38214,-591,29223,26.3267,17523,337
0.76272,71.91433,-590,29224,26.2271,17523,337
1.3029,71.82186,-589,29225,26.3765,17523,337
1.57466,71.81947,-588,29226,26.2271,17523,337
1.90617,71.40331,-587,29227,26.3765,17523,337
0.981433,70.80278,-586,29228,26.3267,17523,337
0.525895,69.71636,-585,29229,26.2271,17523,337
2.11488,68.50766,-584,29230,26.3267,17523,337
1.58673,67.42935,-583,29231,26.476,17523,337
1.34255,66.47566,-582,29232,26.2271,17523,337
1.48103,65.6399,-581,29233,26.3765,17524,288
0.625305,65.23102,-580,29234,26.3765,17524,288
2.02033,65.06806,-579,29235,26.5258,17524,288
2.27772,65.12265,-578,29236,26.6752,17524,288
1.06977,64.92374,-577,29237,26.3765,17524,288
1.44188,64.47208,-576,29238,26.6752,17524,288
1.94088,64.25712,-575,29239,26.5258,17524,288
1.70829,64.39357,-574,29240,26.476,17524,288
1.15135,64.78335,-573,29241,26.1773,17524,288
0.601994,65.34423,-572,29242,26.476,17524,288
1.79273,65.8422,-571,29243,26.3267,17526,428
1.90867,66.14094,-570,29244,26.2271,17526,428
1.81125,66.79031,-569,29245,26.3267,17526,428
0.961803,67.66374,-568,29246,26.3765,17526,428
0.981433,68.19853,-567,29247,26.3765,17526,428
1.43857,69.16433,-566,29248,26.5258,17526,428
1.62826,69.74489,-565,29249,26.5258,17526,428
1.4118,69.84822,-564,29250,26.3267,17526,428
2.15287,69.49854,-563,29251,26.3267,17526,428
1.33185,68.54506,-562,29252,26.3765,17526,428
2.1771,67.60282,-561,29253,26.5756,17538,447
2.14399,66.20556,-560,29254,26.3267,17538,447
1.07865,64.97329,-559,29255,26.2271,17538,447
1.958,64.6536,-558,29256,26.3765,17538,447
1.42859,64.20956,-557,29257,26.1773,17538,447
1.79539,63.95704,-556,29258,26.3267,17538,447
1.94579,63.90728,-555,29259,26.2271,17538,447
1.17594,64.61084,-554,29260,26.2271,17538,447
1.6165,64.75401,-553,29261,26.3267,17538,447
1.37415,64.73744,-552,29262,26.3765,17538,447
1.71386,65.74005,-551,29263,26.028,17543,292
1.22752,67.01215,-550,29264,26.5258,17543,292
2.0693,67.66792,-549,29265,26.3267,17543,292
1.51603,67.90775,-548,29266,26.3267,17543,292
1.73047,68.90337,-547,29267,26.5258,17543,292
1.65152,69.90505,-546,29268,26.476,17543,292
2.02975,71.21775,-545,29269,26.5258,17543,292
1.8529,72.51901,-544,29270,26.3267,17543,292
1.76052,74.36176,-543,29271,26.5756,17543,292
1.52544,76.10484,-542,29272,26.3765,17543,292
1.54408,77.9435,-541,29273,26.5258,17540,342
1.56555,80.01567,-540,29274,26.5756,17540,342
1.48103,81.94083,-539,29275,26.3267,17540,342
1.83479,84.23082,-538,29276,26.5258,17540,342
1.57466,85.3756,-537,29277,26.3267,17540,342
1.38796,86.09116,-536,29278,26.3765,17540,342
2.09222,86.63802,-535,29279,26.3267,17540,342
1.53168,87.17949,-534,29280,26.3765,17540,342
1.82437,87.8997,-533,29281,26.3267,17540,342
0.534885,89.56909,-532,29282,26.3765,17540,342
1.71386,91.93742,-531,29283,26.3267,17544,293
1.56555,94.63536,-530,29284,26.5258,17544,293
1.54717,97.71216,-529,29285,26.1773,17544,293
1.39822,99.77365,-528,29286,26.6752,17544,293
1.23912,102.5944,-527,29287,26.3267,17544,293
1.87592,105.2542,-526,29288,26.5756,17544,293
1.61945,106.996,-525,29289,26.2271,17544,293
1.31383,109.1195,-524,29290,26.3765,17544,293
0.793363,110.551,-523,29291,26.5258,17544,293
1.95556,111.4954,-522,29292,26.3267,17544,293
2.34578,112.2483,-521,29293,26.3267,17545,422
2.02269,111.8703,-520,29294,26.6752,17545,422
0.862477,112.9596,-519,29295,26.3765,17545,422
1.40163,116.4571,-518,29296,26.476,17545,422
1.47781,113.6621,-517,29297,26.5258,17545,422
2.43554,112.5971,-516,29298,26.3267,17545,422
1.3102,112.5045,-515,29299,26.3765,17545,422
1.36019,113.0107,-514,29300,26.3765,17545,422
1.62826,112.0665,-513,29301,26.5258,17545,422
1.5807,109.8507,-512,29302,26.3267,17545,422
2.08079,108.9574,-511,29303,26.3765,17548,366
0.447517,108.9017,-510,29304,26.3765,17548,366
1.84257,107.6844,-509,29305,26.3765,17548,366
2.2944,105.3077,-508,29306,26.5258,17548,366
2.21832,103.2121,-507,29307,26.5756,17548,366
1.69708,102.0824,-506,29308,26.3267,17548,366
1.10916,100.9471,-505,29309,26.3765,17548,366
1.24296,99.78888,-504,29310,26.3267,17548,366
1.05631,98.47844,-503,29311,26.3267,17548,366
0.717624,97.15056,-502,29312,26.3267,17548,366
1.31383,96.13469,-501,29313,26.3765,17555,322
2.29856,94.3879,-500,29314,26.2271,17555,322
1.91864,91.90962,-499,29315,26.3267,17555,322
1.43525,89.9225,-498,29316,26.3765,17555,322
1.25442,88.57806,-497,29317,26.5258,17555,322
1.92112,86.82366,-496,29318,26.3267,17555,322
1.31745,84.70105,-495,29319,26.2271,17555,322
1.93596,82.32835,-494,29320,26.3765,17555,322
0.981433,79.9184,-493,29321,26.1773,17555,322
0.710948,77.89741,-492,29322,26.3267,17555,322
0.577742,75.93107,-491,29323,26.5258,17553,339
1.13045,73.12032,-490,29324,26.3765,17553,339
1.71108,70.70327,-489,29325,26.3267,17553,339
1.09619,68.9158,-488,29326,26.2271,17553,339
1.66303,67.25011,-487,29327,26.3267,17553,339
1.27328,65.94791,-486,29328,26.476,17553,339
1.23912,65.04366,-485,29329,26.3765,17553,339
0.601994,64.23242,-484,29330,26.3267,17553,339
1.01487,63.60262,-483,29331,26.3267,17553,339
1.12623,62.46959,-482,29332,26.3267,17553,339
1.87592,61.46552,-481,29333,26.3267,17553,339
1.54717,60.46129,-480,29334,26.6752,17553,339
1.1472,59.37802,-479,29335,26.3267,17553,339
1.56555,58.4569,-478,29336,26.5756,17553,339
1.9335,57.64343,-477,29337,26.3765,17553,339
2.18148,57.28844,-476,29338,26.3267,17553,339
1.53789,56.74497,-475,29339,26.5756,17553,339
1.57466,56.22342,-474,29340,26.3765,17553,339
1.92608,56.04463,-473,29341,26.3267,17553,339
1.16371,56.32616,-472,29342,26.3765,17553,339
0.805294,56.8448,-471,29343,26.3267,17559,368
1.66016,57.02996,-470,29344,26.5258,17559,368
1.53168,57.763,-469,29345,26.2271,17559,368
0.750112,58.83169,-468,29346,26.3765,17559,368
0.931581,59.93851,-467,29347,26.2271,17559,368
1.33185,61.05969,-466,29348,26.476,17559,368
1.13045,62.24437,-465,29349,26.5258,17559,368
1.58673,63.67754,-464,29350,26.2271,17559,368
1.28447,65.30499,-463,29351,26.3765,17559,368
2.38009,67.37065,-462,29352,26.3267,17559,368
1.3637,70.14817,-461,29353,26.1276,17571,433
1.40163,72.91298,-460,29354,26.1773,17571,433
1.76863,75.41664,-459,29355,26.3267,17571,433
0.76272,78.0647,-458,29356,26.3267,17571,433
1.6165,80.43933,-457,29357,26.2271,17571,433
1.16371,82.65395,-456,29358,26.5258,17571,433
1.22363,84.23559,-455,29359,26.5258,17571,433
1.86572,84.5119,-454,29360,26.5258,17571,433
1.52856,84.36834,-453,29361,26.3765,17571,433
0.577742,84.05337,-452,29362,26.2271,17571,433
2.0156,83.43977,-451,29363,26.3267,17573,355
1.63993,82.3697,-450,29364,26.3267,17573,355
1.81125,81.82809,-449,29365,26.3765,17573,355
1.66016,82.15704,-448,29366,26.3267,17573,355
1.9918,82.95116,-447,29367,26.3267,17573,355
0.971667,84.46569,-446,29368,26.3267,17573,355
1.10485,86.48516,-445,29369,26.5756,17573,355
1.41854,89.50018,-444,29370,26.3267,17573,355
1.30655,93.0561,-443,29371,26.3267,17573,355
1.44518,96.72846,-442,29372,26.476,17573,355
2.02269,99.96634,-441,29373,26.5258,17583,341
1.71664,102.6899,-440,29374,26.3267,17583,341
1.42525,104.8547,-439,29375,26.2271,17583,341
1.85804,106.5178,-438,29376,26.5258,17583,341
1.29923,107.5858,-437,29377,26.5258,17583,341
2.40203,108.4306,-436,29378,26.3267,17583,341
1.42525,109.4187,-435,29379,26.3765,17583,341
0.710948,110.6183,-434,29380,26.3267,17583,341
2.01324,111.8003,-433,29381,26.2271,17583,341
1.73047,112.9889,-432,29382,26.476,17583,341
0.840071,114.1073,-431,29383,26.2271,17571,288
1.22363,115.2739,-430,29384,26.2271,17571,288
0.617632,116.6181,-429,29385,26.476,17571,288
1.66303,118.6868,-428,29386,26.3267,17571,288
1.57163,122.0768,-427,29387,26.3765,17571,288
1.75781,127.0853,-426,29388,26.2271,17571,288
1.69708,133.466,-425,29389,26.5258,17571,288
1.46484,140.866,-424,29390,26.1773,17571,288
1.47458,149.2078,-423,29391,26.3267,17571,288
1.3461,152.4256,-422,29392,26.2271,17571,288
0.976563,145.226,-421,29393,26.476,17609,358
0.710948,132.1904,-420,29394,26.476,17609,358
1.75238,118.1172,-419,29395,26.2271,17609,358
1.52544,105.8482,-418,29396,26.2271,17609,358
0.889691,98.4963,-417,29397,26.2271,17609,358
1.37067,90.34985,-416,29398,26.5258,17609,358
1.05179,81.40662,-415,29399,26.3267,17609,358
1.10916,81.20144,-414,29400,26.3267,17609,358
1.10916,89.44106,-413,29401,26.3267,17609,358
1.17998,102.1341,-412,29402,26.3765,17609,358
0.840071,119.5637,-411,29403,26.5258,17631,414
0.352105,136.6545,-410,29404,26.3267,17631,414
0.768946,146.9054,-409,29405,26.3765,17631,414
1.26953,145.3495,-408,29406,26.3765,17631,414
0.676582,131.5955,-407,29407,26.3765,17631,414
0.834375,115.6508,-406,29408,26.3267,17631,414
1.44188,102.2875,-405,29409,26.2271,17631,414
1.08306,91.71048,-404,29410,26.3267,17631,414
1.17998,85.76723,-403,29411,26.5258,17631,414
1.36019,84.0905,-402,29412,26.3765,17631,414
0.655098,84.16489,-401,29413,26.5258,17656,279
1.60168,82.37259,-400,29414,26.3765,17656,279
0.905627,78.68651,-399,29415,26.3267,17656,279
1.52856,75.24345,-398,29416,26.3765,17656,279
1.21581,75.04098,-397,29417,26.5258,17656,279
2.12837,79.16521,-396,29418,26.476,17656,279
1.3102,82.33079,-395,29419,26.5258,17656,279
0.921287,81.96028,-394,29420,26.3267,17656,279
1.00543,81.41028,-393,29421,26.3267,17656,279
1.8529,82.98717,-392,29422,26.5258,17656,279
1.42859,83.26904,-391,29423,26.3267,17693,333
0.697405,76.85691,-390,29424,26.3267,17693,333
1.83479,65.93616,-389,29425,26.3267,17693,333
1.97498,59.30821,-388,29426,26.3267,17693,333
1.28447,57.43548,-387,29427,26.3765,17693,333
1.958,56.41049,-386,29428,26.2271,17693,333
1.91615,56.74642,-385,29429,26.5258,17693,333
1.62239,57.12486,-384,29430,26.3267,17693,333
1.49385,56.70097,-383,29431,26.3765,17693,333
1.54408,55.37258,-382,29432,26.3267,17693,333
1.43525,53.00017,-381,29433,26.3765,17737,293
2.44921,50.30334,-380,29434,26.2271,17737,293
2.13508,45.963,-379,29435,26.3267,17737,293
1.07865,41.42017,-378,29436,26.5258,17737,293
1.87846,38.55355,-377,29437,26.476,17737,293
1.77132,42.79518,-376,29438,26.2271,17737,293
1.9798,45.89746,-375,29439,26.5756,17737,293
1.28075,45.37372,-374,29440,26.3765,17737,293
1.65728,45.21861,-373,29441,26.3765,17737,293
1.69146,45.67926,-372,29442,26.3267,17737,293
1.60466,43.27836,-371,29443,26.476,17785,384
1.18804,38.0832,-370,29444,26.476,17785,384
1.70549,34.89461,-369,29445,26.5258,17785,384
1.87592,35.74139,-368,29446,26.1773,17785,384
2.3539,38.87896,-367,29447,26.3765,17785,384
2.12613,41.7575,-366,29448,26.3765,17785,384
1.47458,44.36479,-365,29449,26.3267,17785,384
1.54099,48.57647,-364,29450,26.3765,17785,384
1.42525,54.59887,-363,29451,26.1773,17785,384
1.25061,59.62007,-362,29452,26.3765,17785,384
2.6851,62.96296,-361,29453,26.2271,17843,323
2.16392,68.29275,-360,29454,26.3267,17843,323
1.02423,80.44619,-359,29455,26.3765,17843,323
1.55332,107.8588,-358,29456,26.3267,17843,323
1.28447,103.6406,-357,29457,26.476,17843,323
1.33185,96.14314,-356,29458,26.476,17843,323
0.845728,102.3655,-355,29459,26.3267,17843,323
0.717624,100.5058,-354,29460,26.3765,17843,323
1.19604,96.57374,-353,29461,26.2271,17843,323
1.01487,93.88009,-352,29462,26.3267,17843,323
1.36019,96.98999,-351,29463,26.1773,17881,289
1.36719,105.751,-350,29464,26.3765,17881,289
1.94579,109.5075,-349,29465,26.3765,17881,289
2.23972,111.597,-348,29466,26.3267,17881,289
2.34578,115.7732,-347,29467,26.3267,17881,289
2.39805,122.0035,-346,29468,26.3765,17881,289
1.6341,128.3756,-345,29469,26.476,17881,289
2.12837,130.9955,-344,29470,26.476,17881,289
1.52856,131.4196,-343,29471,26.3765,17881,289
2.52021,131.961,-342,29472,26.3267,17881,289
1.96287,132.2008,-341,29473,26.3267,17911,336
1.80598,132.9628,-340,29474,26.2271,17911,336
2.96528,135.6603,-339,29475,26.3765,17911,336
2.58743,139.3094,-338,29476,26.2271,17911,336
2.61675,143.6523,-337,29477,26.476,17911,336
2.02269,147.941,-336,29478,26.3267,17911,336
1.3461,151.4687,-335,29479,26.5258,17911,336
1.43857,154.6049,-334,29480,26.3267,17911,336
0.916097,156.602,-333,29481,26.3765,17911,336
1.10916,157.2877,-332,29482,26.3267,17911,336
0.793363,157.0668,-331,29483,26.5756,17917,276
1.31383,156.256,-330,29484,26.6752,17917,276
1.31745,155.3616,-329,29485,26.3267,17917,276
1.77132,153.2027,-328,29486,26.5258,17917,276
1.00543,149.97,-327,29487,26.3267,17917,276
1.06082,146.0333,-326,29488,26.3765,17917,276
1.19205,141.9146,-325,29489,26.5258,17917,276
0.956832,138.1752,-324,29490,26.3765,17917,276
2.47246,133.5483,-323,29491,26.3765,17917,276
1.56859,128.8661,-322,29492,26.3267,17917,276
1.26953,124.9512,-321,29493,26.3267,17931,390
1.17998,122.2038,-320,29494,26.3765,17931,390
0.577742,120.4497,-319,29495,26.3267,17931,390
1.32827,118.972,-318,29496,26.3267,17931,390
1.26577,116.7386,-317,29497,26.3765,17931,390
1.44518,113.9126,-316,29498,26.3267,17931,390
0.41432,110.9888,-315,29499,26.1276,17931,390
0.632885,107.8741,-314,29500,26.3267,17931,390
0.601994,103.3869,-313,29501,26.3765,17931,390
1.3461,98.16533,-312,29502,26.5756,17931,390
1.28447,94.32908,-311,29503,26.476,17979,334
1.07865,92.97512,-310,29504,26.3765,17979,334
0.85693,93.3011,-309,29505,26.3267,17979,334
1.25821,95.17618,-308,29506,26.3765,17979,334
0.926449,98.43758,-307,29507,26.3267,17979,334
1.19604,101.9104,-306,29508,26.2271,17979,334
1.57769,105.4666,-305,29509,26.3267,17979,334
1.32827,109.5894,-304,29510,26.3765,17979,334
1.56555,115.0891,-303,29511,26.3267,17979,334
1.72495,119.7197,-302,29512,26.476,17979,334
1.63702,120.2038,-301,29513,26.3267,18078,328
2.36199,118.5042,-300,29514,26.3267,18078,328
1.89362,118.965,-299,29515,26.3267,18078,328
1.31745,120.7974,-298,29516,26.1773,18078,328
2.11488,122.4711,-297,29517,26.3267,18078,328
1.4118,124.3933,-296,29518,26.3267,18078,328
1.88099,126.6407,-295,29519,26.3267,18078,328
2.20539,127.2962,-294,29520,26.3765,18078,328
1.18402,126.9467,-293,29521,26.1773,18078,328
2.06237,128.2082,-292,29522,26.5258,18078,328
1.8529,131.5654,-291,29523,26.3267,18255,274
1.5807,134.3791,-290,29524,26.5258,18255,274
1.60466,132.1126,-289,29525,26.1773,18255,274
1.92608,127.8931,-288,29526,26.6752,18255,274
1.53168,127.3987,-287,29527,26.3267,18255,274
1.16371,128.9064,-286,29528,26.3267,18255,274
0.76272,131.2937,-285,29529,26.3267,18255,274
1.38107,134.8245,-284,29530,26.5258,18255,274
1.3029,138.4855,-283,29531,26.3765,18255,274
1.7767,139.4264,-282,29532,26.476,18255,274
1.40163,138.8506,-281,29533,26.3267,18540,328
1.8606,138.8382,-280,29534,26.5258,18540,328
1.51917,140.0898,-279,29535,26.5756,18540,328
1.99659,141.4016,-278,29536,26.3267,18540,328
2.22905,141.3296,-277,29537,26.3267,18540,328
2.42573,139.5919,-276,29538,26.3267,18540,328
1.17998,136.0228,-275,29539,26.3765,18540,328
2.0693,130.9128,-274,29540,26.476,18540,328
1.38107,124.6774,-273,29541,26.2271,18540,328
1.4118,117.4714,-272,29542,26.3765,18540,328
2.14622,111.5544,-271,29543,26.3765,18941,386
1.958,105.7268,-270,29544,26.3267,18941,386
2.26301,97.7332,-269,29545,26.3765,18941,386
2.24822,91.54964,-268,29546,26.3267,18941,386
2.11263,88.24155,-267,29547,26.5258,18941,386
1.74966,84.08093,-266,29548,26.3765,18941,386
1.17594,79.08216,-265,29549,26.3267,18941,386
2.03444,74.9629,-264,29550,26.3765,18941,386
1.06082,69.5562,-263,29551,26.3765,18941,386
2.34782,63.54566,-262,29552,26.5756,18941,386
1.59273,60.18376,-261,29553,26.3765,19362,310
1.62239,58.00832,-260,29554,26.3765,19362,310
1.00068,54.89759,-259,29555,26.3267,19362,310
1.71664,51.88864,-258,29556,26.5258,19362,310
1.42859,52.16575,-257,29557,26.2271,19362,310
1.47781,55.17808,-256,29558,26.3765,19362,310
5.18499,202.1212,-255,29559,26.2271,19362,310
1.05631,412.8901,-254,29560,26.3267,19362,310
1.06082,197.1548,-253,29561,26.3765,19362,310
1.19205,329.3538,-252,29562,26.3267,19362,310
1.54717,159.4968,-251,29563,26.3267,19589,320
1.52856,78.58949,-250,29564,26.3267,19589,320
1.42525,53.64737,-249,29565,26.3267,19589,320
1.57466,191.0415,-248,29566,26.3765,19589,320
1.02423,336.193,-247,29567,26.3765,19589,320
1.48103,257.4267,-246,29568,26.5258,19589,320
1.1596,107.1321,-245,29569,26.3267,19589,320
1.9798,98.04078,-244,29570,26.3267,19589,320
1.41854,173.4294,-243,29571,26.1773,19589,320
0.981433,202.6554,-242,29572,26.1276,19589,320
1.07865,147.2987,-241,29573,26.3267,19515,289
1.43857,118.4551,-240,29574,26.476,19515,289
1.62826,133.1236,-239,29575,26.3267,19515,289
2.30477,150.1469,-238,29576,26.5258,19515,289
1.23912,147.0025,-237,29577,26.3267,19515,289
0.834375,130.3822,-236,29578,26.3267,19515,289
1.25821,118.7162,-235,29579,26.3765,19515,289
2.19238,124.4286,-234,29580,26.3267,19515,289
1.9942,142.5241,-233,29581,26.2271,19515,289
1.31745,143.3407,-232,29582,26.1773,19515,289
1.75238,134.1757,-231,29583,26.1773,19406,377
1.80069,134.6706,-230,29584,26.3267,19406,377
2.29024,143.341,-229,29585,26.3267,19406,377
1.21581,142.4471,-228,29586,26.5258,19406,377
1.4118,126.7671,-227,29587,26.3267,19406,377
1.15135,111.9356,-226,29588,26.2271,19406,377
1.23912,106.8947,-225,29589,26.3765,19406,377
1.56555,106.9398,-224,29590,26.2271,19406,377
1.11773,105.1256,-223,29591,26.1773,19406,377
1.17594,98.65796,-222,29592,26.3267,19406,377
1.43857,92.05599,-221,29593,26.5258,19322,368
0.817051,88.24392,-220,29594,26.476,19322,368
1.11773,86.16686,-219,29595,26.6752,19322,368
2.76731,84.899,-218,29596,26.3765,19322,368
2.11488,82.97504,-217,29597,26.3267,19322,368
1.39822,81.68876,-216,29598,26.3765,19322,368
1.17998,82.81245,-215,29599,26.2271,19322,368
1.43857,83.25831,-214,29600,26.3765,19322,368
1.70549,79.10203,-213,29601,26.5258,19322,368
1.37415,70.79457,-212,29602,26.3765,19322,368
0.710948,63.5602,-211,29603,26.2271,19322,368
1.31383,59.6814,-210,29604,26.5258,19322,368
0.525895,57.62042,-209,29605,26.5258,19322,368
13.5826,86.75833,-208,29606,26.2271,19322,368
0.905627,181.3185,-207,29607,26.1773,19322,368
3.33464,136.5773,-206,29608,26.3267,19322,368
1.40163,148.1812,-205,29609,26.3765,19322,368
1.07422,98.04518,-204,29610,26.3267,19322,368
1.49385,51.40073,-203,29611,26.3267,19322,368
1.84257,41.80636,-202,29612,26.3765,19322,368
2.03209,120.6953,-201,29613,26.5258,19366,276
1.3102,195.1731,-200,29614,26.5258,19366,276
1.28447,194.6445,-199,29615,26.5258,19366,276
0.840071,141.6128,-198,29616,26.5258,19366,276
1.68863,126.3281,-197,29617,26.3267,19366,276
1.0381,159.4672,-196,29618,26.5258,19366,276
1.5034,179.7178,-195,29619,26.5258,19366,276
1.27702,159.531,-194,29620,26.5258,19366,276
1.28817,133.8706,-193,29621,26.1773,19366,276
1.95556,98.99865,-192,29622,26.476,19366,276
2.55777,97.33942,-191,29623,26.2271,19388,332
2.70985,125.7358,-190,29624,26.3765,19388,332
0.926449,134.4134,-189,29625,26.3267,19388,332
0.76272,120.9411,-188,29626,26.5258,19388,332
0.931581,109.3287,-187,29627,26.3765,19388,332
1.32827,108.0715,-186,29628,26.3267,19388,332
2.19672,113.0562,-185,29629,26.5258,19388,332
1.5807,117.9485,-184,29630,26.3765,19388,332
1.49385,112.7251,-183,29631,26.3267,19388,332
1.11345,91.80377,-182,29632,26.3267,19388,332
1.09183,85.62186,-181,29633,26.3267,19333,273
2.27352,95.14948,-180,29634,26.3765,19333,273
1.04268,104.6556,-179,29635,26.476,19333,273
1.27702,98.73866,-178,29636,26.476,19333,273
1.80334,90.05298,-177,29637,26.3765,19333,273
1.12623,83.59187,-176,29638,26.476,19333,273
2.62403,78.7573,-175,29639,26.476,19333,273
1.4681,81.53027,-174,29640,26.3765,19333,273
1.01016,92.5784,-173,29641,26.3267,19333,273
0.655098,97.03484,-172,29642,26.1773,19333,273
1.83739,77.87904,-171,29643,26.5258,19302,375
1.55332,64.90985,-170,29644,26.3765,19302,375
1.36019,76.09907,-169,29645,26.5258,19302,375
2.26512,93.30405,-168,29646,26.5258,19302,375
1.5034,82.15949,-167,29647,26.3267,19302,375
1.44518,73.11135,-166,29648,26.5258,19302,375
1.12623,74.95962,-165,29649,26.2271,19302,375
0.85693,79.86226,-164,29650,26.2271,19302,375
2.15066,84.52565,-163,29651,26.1773,19302,375
1.11345,70.02932,-162,29652,26.5258,19302,375
1.11773,59.08342,-161,29653,26.3267,19257,329
1.57769,60.3451,-160,29654,26.5258,19257,329
1.40163,71.96084,-159,29655,26.3267,19257,329
1.22363,67.05928,-158,29656,26.3267,19257,329
1.52231,56.56981,-157,29657,26.3267,19257,329
1.30655,50.58205,-156,29658,26.5756,19257,329
2.05311,53.92994,-155,29659,26.2271,19257,329
1.81651,62.33157,-154,29660,26.5258,19257,329
0.697405,61.20898,-153,29661,26.3267,19257,329
1.19205,59.94237,-152,29662,26.2271,19257,329
1.66875,55.60581,-151,29663,26.476,19255,277
0.916097,51.04743,-150,29664,26.3267,19255,277
1.68581,53.0457,-149,29665,26.6752,19255,277
1.27328,60.26603,-148,29666,26.3267,19255,277
1.56555,71.90573,-147,29667,26.3765,19255,277
1.77132,62.75815,-146,29668,26.476,19255,277
1.62532,46.30731,-145,29669,26.3267,19255,277
1.48103,50.7585,-144,29670,26.5258,19255,277
1.7767,61.11104,-143,29671,26.5258,19255,277
1.73047,76.74418,-142,29672,26.3267,19255,277
1.31383,74.27705,-141,29673,26.3765,19259,319
1.12198,51.26212,-140,29674,26.3765,19259,319
1.1596,48.52414,-139,29675,26.3267,19259,319
1.22752,57.93738,-138,29676,26.2271,19259,319
1.80598,70.05836,-137,29677,26.5258,19259,319
0.601994,81.10661,-136,29678,26.3765,19259,319
1.72772,80.95222,-135,29679,26.3765,19259,319
1.28447,66.66615,-134,29680,26.3765,19259,319
1.62532,64.27324,-133,29681,26.5258,19259,319
1.10916,65.59085,-132,29682,26.1773,19259,319
1.25442,67.96434,-131,29683,26.3765,19246,270
1.3029,71.67763,-130,29684,26.2271,19246,270
1.19604,81.72605,-129,29685,26.3765,19246,270
0.961803,88.11583,-128,29686,26.5258,19246,270
1.39822,80.79598,-127,29687,26.3267,19246,270
1.51917,79.30297,-126,29688,26.3267,19246,270
1.30655,79.40437,-125,29689,26.2271,19246,270
1.25442,78.21555,-124,29690,26.3267,19246,270
0.560992,75.89446,-123,29691,26.3267,19246,270
1.11345,78.31141,-122,29692,26.476,19246,270
1.94333,70.3536,-121,29693,26.5258,19239,381
2.01324,63.57625,-120,29694,26.2271,19239,381
1.32827,62.34005,-119,29695,26.3765,19239,381
1.29556,74.86424,-118,29696,26.3765,19239,381
1.51917,91.65205,-117,29697,26.2271,19239,381
0.768946,86.47775,-116,29698,26.3267,19239,381
1.46484,64.99554,-115,29699,26.3267,19239,381
1.09183,65.02086,-114,29700,26.476,19239,381
1.13886,75.66341,-113,29701,26.476,19239,381
0.704209,82.30373,-112,29702,26.5258,19239,381
1.60466,79.14102,-111,29703,26.476,19230,305
2.01324,72.20137,-110,29704,26.6752,19230,305
1.07865,72.15275,-109,29705,26.1773,19230,305
1.63993,82.33333,-108,29706,26.476,19230,305
1.1472,83.97604,-107,29707,26.3765,19230,305
1.40163,87.27114,-106,29708,26.2271,19230,305
1.11773,83.79209,-105,29709,26.5258,19230,305
2.26301,81.00154,-104,29710,26.3267,19230,305
1.04268,87.03947,-103,29711,26.3765,19230,305
2.26722,83.80009,-102,29712,26.2271,19230,305
0.577742,84.33522,-101,29713,26.5258,19237,310
1.25821,85.55222,-100,29714,26.3267,19237,310
1.19205,81.28068,-99,29715,26.3267,19237,310
0.840071,82.71027,-98,29716,26.3765,19237,310
1.28447,92.72026,-97,29717,26.2271,19237,310
0.552427,89.48986,-96,29718,26.5258,19237,310
0.577742,85.92588,-95,29719,26.3267,19237,310
1.84257,88.44742,-94,29720,26.3765,19237,310
1.40842,90.59904,-93,29721,26.3267,19237,310
1.42859,98.76145,-92,29722,26.5258,19237,310
0.840071,113.8295,-91,29723,26.3267,19223,283
0.625305,118.1099,-90,29724,26.3267,19223,283
1.33185,105.2332,-89,29725,26.476,19223,283
1.1596,96.31789,-88,29726,26.5258,19223,283
2.37809,102.128,-87,29727,26.3765,19223,283
1.61355,106.1633,-86,29728,26.2271,19223,283
2.04379,115.0504,-85,29729,26.3267,19223,283
0.632885,120.0533,-84,29730,26.3267,19223,283
1.07865,108.705,-83,29731,26.3267,19223,283
1.64863,99.99079,-82,29732,26.2271,19223,283
1.07865,98.03964,-81,29733,26.3267,19222,310
1.74966,102.6637,-80,29734,26.3267,19222,310
1.77401,105.264,-79,29735,26.3267,19222,310
0.805294,105.7804,-78,29736,26.5258,19222,310
0.889691,112.5192,-77,29737,26.5258,19222,310
0.85693,117.7998,-76,29738,26.3267,19222,310
2.06237,101.7538,-75,29739,26.3267,19222,310
1.5034,93.1782,-74,29740,26.3765,19222,310
1.60168,101.3934,-73,29741,26.1773,19222,310
1.46484,120.4616,-72,29742,26.3765,19222,310
1.56859,116.6125,-71,29743,26.5258,19238,352
0.840071,104.2601,-70,29744,26.3267,19238,352
1.10916,112.7911,-69,29745,26.3765,19238,352
1.07865,118.2272,-68,29746,26.2271,19238,352
1.48746,109.031,-67,29747,26.2271,19238,352
1.25821,106.5793,-66,29748,26.2271,19238,352
1.05631,106.103,-65,29749,26.5258,19238,352
1.04725,112.8117,-64,29750,26.476,19238,352
0.921287,120.9031,-63,29751,26.3765,19238,352
0.921287,114.4645,-62,29752,26.3267,19238,352
1.42859,108.8231,-61,29753,26.5258,19274,294
0.569429,109.5531,-60,29754,26.5258,19274,294
1.32827,107.7362,-59,29755,26.3267,19274,294
1.33185,109.4246,-58,29756,26.3267,19274,294
1.54099,111.3319,-57,29757,26.476,19274,294
1.39481,116.5224,-56,29758,26.3267,19274,294
1.52544,121.8893,-55,29759,26.5258,19274,294
1.06977,116.6157,-54,29760,26.5258,19274,294
0.76272,113.7093,-53,29761,26.3765,19274,294
0.961803,115.5872,-52,29762,26.3267,19274,294
1.79804,119.443,-51,29763,26.5258,19316,327
1.4118,120.6442,-50,29764,26.5756,19316,327
1.56555,117.9688,-49,29765,26.3765,19316,327
1.76052,112.3544,-48,29766,26.5258,19316,327
1.66016,111.1136,-47,29767,26.476,19316,327
1.32827,112.7463,-46,29768,26.3267,19316,327
0.365396,113.1216,-45,29769,26.3267,19316,327
1.07865,113.0716,-44,29770,26.3765,19316,327
1.38796,112.762,-43,29771,26.3765,19316,327
0.793363,112.5795,-42,29772,26.5258,19316,327
1.32827,112.258,-41,29773,26.3267,19367,263
2.15066,110.5894,-40,29774,26.3765,19367,263
1.30655,109.851,-39,29775,26.3765,19367,263
1.07422,111.5425,-38,29776,26.1773,19367,263
1.29923,113.9751,-37,29777,26.2271,19367,263
0.921287,113.5003,-36,29778,26.476,19367,263
1.28817,114.7813,-35,29779,26.2271,19367,263
1.32827,118.2005,-34,29780,26.3765,19367,263
0.805294,122.7349,-33,29781,26.3267,19367,263
1.22752,126.4551,-32,29782,26.3267,19367,263
0.995902,124.8875,-31,29783,26.476,19428,336
0.905627,122.4638,-30,29784,26.5258,19428,336
1.50657,121.4966,-29,29785,26.3765,19428,336
1.46484,121.5131,-28,29786,26.476,19428,336
0.840071,124.05,-27,29787,26.3267,19428,336
1.00543,127.1622,-26,29788,26.3765,19428,336
1.27328,124.9116,-25,29789,26.1773,19428,336
1.79539,123.081,-24,29790,26.2271,19428,336
1.46158,123.4028,-23,29791,26.1773,19428,336
0.85693,122.2458,-22,29792,26.3765,19428,336
1.38452,122.7846,-21,29793,26.3267,19505,343
1.81651,129.2199,-20,29794,26.3267,19505,343
1.46158,157.4484,-19,29795,26.3765,19505,343
1.56859,197.7283,-18,29796,26.3765,19505,343
1.69708,230.5177,-17,29797,26.3267,19505,343
1.20794,254.3521,-16,29798,26.2271,19505,343
0.817051,265.7821,-15,29799,26.3765,19505,343
1.45176,262.5367,-14,29800,26.3765,19505,343
2.0716,240.1015,-13,29801,26.3267,19505,343
1.81651,185.0326,-12,29802,26.2271,19505,343
1.77132,430.9235,-11,29803,26.476,19592,298
1.45176,763.7481,-10,29804,26.3765,19592,298
0.730792,659.725,-9,29805,26.3267,19592,298
0.478416,355.0411,-8,29806,26.6752,19592,298
1.81388,371.2551,-7,29807,26.2271,19592,298
1.86572,389.725,-6,29808,26.3267,19592,298
1.3637,538.2112,-5,29809,26.3765,19592,298
1.44518,535.6214,-4,29810,26.5258,19592,298
1.25821,450.1249,-3,29811,26.3267,19592,298
1.4118,447.1608,-2,29812,26.5258,19592,298
1.8606,477.9885,-1,29813,26.3765,19600,320
12.0782,578.9481,0,29814,26.3267,19600,320
2.29024,703.6,1,29815,26.3765,19600,320
3.72376,526.2035,2,29816,26.3765,19600,320
3.36879,376.8772,3,29817,26.3267,19600,320
2.12613,411.3807,4,29818,26.5258,19600,320
1.27328,509.76,5,29819,26.3765,19600,320
0.730792,527.6743,6,29820,26.3267,19600,320
1.44188,438.7775,7,29821,26.3765,19600,320
1.19205,366.8073,8,29822,26.5756,19600,320
1.55638,368.6681,9,29823,26.5258,19580,268
1.3102,389.8549,10,29824,26.3267,19580,268
1.4681,398.4811,11,29825,26.476,19580,268
1.33185,393.1995,12,29826,26.1773,19580,268
1.45505,385.2196,13,29827,26.3765,19580,268
1.78206,375.6564,14,29828,26.3765,19580,268
1.42525,382.4118,15,29829,26.5258,19580,268
1.40842,382.2524,16,29830,26.3267,19580,268
1.43857,371.1603,17,29831,26.3267,19580,268
1.79804,370.0063,18,29832,26.3765,19580,268
0.525895,353.2752,19,29833,26.476,19548,360
1.21581,336.8934,20,29834,26.5258,19548,360
1.23912,342.362,21,29835,26.3765,19548,360
1.37415,355.045,22,29836,26.3765,19548,360
0.905627,362.6469,23,29837,26.5258,19548,360
1.41854,362.1728,24,29838,26.2271,19548,360
0.402647,353.0588,25,29839,26.6752,19548,360
0.793363,343.0841,26,29840,26.3765,19548,360
1.07865,339.3913,27,29841,26.5258,19548,360
0.840071,321.9443,28,29842,26.3267,19548,360
0.851347,304.3082,29,29843,26.3267,19570,284
1.10916,297.241,30,29844,26.476,19570,284
0.292969,295.3088,31,29845,26.3267,19570,284
1.66303,296.3399,32,29846,26.476,19570,284
0.478416,293.2551,33,29847,26.3267,19570,284
0.889691,288.6069,34,29848,26.476,19570,284
0.921287,280.6077,35,29849,26.3765,19570,284
1.17594,267.2992,36,29850,26.3765,19570,284
1.26953,255.6436,37,29851,26.3765,19570,284
0.560992,246.7744,38,29852,26.3267,19570,284
0.625305,237.4156,39,29853,26.1773,19614,303
1.46158,230.3499,40,29854,26.3267,19614,303
1.30655,225.2904,41,29855,26.3267,19614,303
1.28447,223.5746,42,29856,26.3267,19614,303
1.10916,222.7861,43,29857,26.476,19614,303
0.617632,220.3952,44,29858,26.1773,19614,303
0.655098,211.7792,45,29859,26.2271,19614,303
1.54099,196.3796,46,29860,26.3765,19614,303
1.35668,183.051,47,29861,26.5258,19614,303
0.966748,187.6552,48,29862,26.476,19614,303
0.905627,204.6643,49,29863,26.3765,19672,317
1.20399,209.2019,50,29864,26.3765,19672,317
4.64458,109.7902,51,29865,26.3765,19672,317
1.66303,118.5456,52,29866,26.5756,19672,317
0.971667,208.3335,53,29867,26.5756,19672,317
1.52856,247.1645,54,29868,26.3267,19672,317
0.402647,288.9766,55,29869,26.2271,19672,317
1.43525,258.1391,56,29870,26.5258,19672,317
0.845728,222.2449,57,29871,26.3765,19672,317
1.3029,237.7955,58,29872,26.3765,19672,317
1.75238,239.4671,59,29873,26.1773,19662,317
1.21581,196.6632,60,29874,26.3267,19662,317
2.18366,160.4877,61,29875,26.3267,19662,317
1.81388,112.3404,62,29876,26.3267,19662,317
1.42525,69.24153,63,29877,26.5258,19662,317
1.20794,89.26404,64,29878,26.6752,19662,317
0.601994,103.9813,65,29879,26.3267,19662,317
1.02423,112.4645,66,29880,26.476,19662,317
1.06082,112.5613,67,29881,26.5258,19662,317
1.02423,103.4175,68,29882,26.5756,19662,317
1.40163,112.7671,69,29883,26.476,19662,277
1.23912,115.9545,70,29884,26.476,19662,277
1.22752,104.6806,71,29885,26.2271,19662,277
0.976563,91.63001,72,29886,26.3267,19662,277
1.96529,83.56148,73,29887,26.3267,19662,277
1.17998,78.97591,74,29888,26.3267,19662,277
1.23912,78.35611,75,29889,26.3765,19662,277
0.966748,79.77881,76,29890,26.1773,19662,277
1.04268,81.98119,77,29891,26.1773,19662,277
1.20794,84.88136,78,29892,26.476,19662,277
0.840071,88.85117,79,29893,26.3267,19652,356
2.02504,95.6014,80,29894,26.2271,19652,356
0.78733,105.3909,81,29895,26.3765,19652,356
1.39822,118.6416,82,29896,26.3765,19652,356
0.41432,134.33,83,29897,26.2271,19652,356
1.49066,147.3955,84,29898,26.3765,19652,356
1.17998,154.7815,85,29899,26.5258,19652,356
2.01324,160.6756,86,29900,26.3267,19652,356
1.05631,165.8069,87,29901,26.3267,19652,356
1.00543,175.9941,88,29902,26.1773,19652,356
1.51917,173.7832,89,29903,26.2271,19641,288
1.21581,165.688,90,29904,26.3765,19641,288
1.48103,156.7393,91,29905,26.3267,19641,288
1.12198,151.7688,92,29906,26.476,19641,288
1.16371,151.9832,93,29907,26.5258,19641,288
1.60466,155.9177,94,29908,26.2271,19641,288
1.3102,152.1002,95,29909,26.5258,19641,288
1.68298,142.1417,96,29910,26.476,19641,288
0.662337,129.5716,97,29911,26.5756,19641,288
1.25442,127.095,98,29912,26.1773,19641,288
0.845728,133.1874,99,29913,26.476,19679,344
1.43857,132.538,100,29914,26.2271,19679,344
