Linear acceleration,Rotational velocity,Time values,Absolute time values,Temperature,Ambient light,Reflected light
0.730792,9.557412,-2000,27606,26.3267,17520,397
1.49385,9.459465,-1999,27607,26.476,17520,397
1.63702,9.374014,-1998,27608,26.3267,17520,397
0.507437,9.270917,-1997,27609,26.1773,17520,397
2.16171,9.103041,-1996,27610,26.3765,17520,397
1.58673,9.200733,-1995,27611,26.1773,17520,397
2.10358,9.138983,-1994,27612,26.5258,17520,397
0.710948,9.032378,-1993,27613,26.3267,17522,425
1.39822,8.947846,-1992,27614,26.5258,17522,425
1.14304,8.942015,-1991,27615,26.5258,17522,425
1.78206,8.905278,-1990,27616,26.3267,17522,425
1.87846,8.737199,-1989,27617,26.2271,17522,425
1.04268,8.119282,-1988,27618,26.476,17522,425
1.42859,7.578197,-1987,27619,26.3765,17522,425
1.26953,7.364796,-1986,27620,26.476,17522,425
1.98461,7.232087,-1985,27621,26.3267,17522,425
1.4118,6.889136,-1984,27622,26.5258,17522,425
1.05631,7.28955,-1983,27623,26.3267,17525,386
1.97739,7.470264,-1982,27624,26.3267,17525,386
1.02423,7.603717,-1981,27625,26.3765,17525,386
2.04146,7.410181,-1980,27626,26.5258,17525,386
1.05179,7.442286,-1979,27627,26.3267,17525,386
1.57769,7.348592,-1978,27628,26.2271,17525,386
0.900346,7.097945,-1977,27629,26.2271,17525,386
1.4681,6.651432,-1976,27630,26.3267,17525,386
2.05078,6.201604,-1975,27631,26.2271,17525,386
1.39139,5.422176,-1974,27632,26.2271,17525,386
1.13886,5.216275,-1973,27633,26.3765,17518,340
2.22262,5.267444,-1972,27634,26.1773,17518,340
1.57466,5.308304,-1971,27635,26.5258,17518,340
1.62532,5.43864,-1970,27636,26.1773,17518,340
0.956832,5.384948,-1969,27637,26.3267,17518,340
0.85693,5.828778,-1968,27638,26.3765,17518,340
1.55638,6.249475,-1967,27639,26.2271,17518,340
1.67161,6.92581,-1966,27640,26.2271,17518,340
1.75781,7.369853,-1965,27641,26.2271,17518,340
0.995902,7.600776,-1964,27642,26.3267,17518,340
2.12837,7.597835,-1963,27643,26.1773,17521,271
1.02423,7.862882,-1962,27644,26.3267,17521,271
2.25668,8.331243,-1961,27645,26.3267,17521,271
1.79273,8.387394,-1960,27646,26.5258,17521,271
1.36019,8.486301,-1959,27647,26.3267,17521,271
1.52856,8.361594,-1958,27648,26.2271,17521,271
1.25442,8.317818,-1957,27649,26.3765,17521,271
0.981433,8.19691,-1956,27650,26.3267,17521,271
0.560992,8.352678,-1955,27651,26.3765,17521,271
1.34255,8.783127,-1954,27652,26.3267,17521,271
1.93596,9.090756,-1953,27653,26.3267,17515,447
1.28817,9.544931,-1952,27654,26.476,17515,447
2.19238,9.99934,-1951,27655,26.5258,17515,447
1.06977,10.39821,-1950,27656,26.2271,17515,447
1.28817,10.56102,-1949,27657,26.3765,17515,447
1.67161,10.89986,-1948,27658,26.476,17515,447
1.41517,11.2821,-1947,27659,26.3765,17515,447
2.12613,11.34269,-1946,27660,26.2271,17515,447
1.71942,11.26624,-1945,27661,26.5258,17515,447
0.895034,11.30321,-1944,27662,26.3267,17515,447
1.40163,11.09027,-1943,27663,26.3267,17522,380
1.38107,11.41537,-1942,27664,26.2271,17522,380
1.53168,11.98716,-1941,27665,26.6752,17522,380
1.74966,12.64415,-1940,27666,26.3267,17522,380
1.11345,13.22028,-1939,27667,26.3765,17522,380
1.38452,13.66479,-1938,27668,26.3765,17522,380
1.73047,13.75717,-1937,27669,26.3267,17522,380
0.840071,13.90745,-1936,27670,26.3267,17522,380
1.69708,14.17961,-1935,27671,26.1773,17522,380
0.966748,14.24671,-1934,27672,26.3765,17522,380
0.710948,14.19904,-1933,27673,26.3765,17527,281
1.36019,14.15016,-1932,27674,26.5258,17527,281
1.63702,14.37375,-1931,27675,26.1773,17527,281
0.840071,14.66928,-1930,27676,26.3765,17527,281
1.1472,15.01316,-1929,27677,26.476,17527,281
1.90617,15.04291,-1928,27678,26.1773,17527,281
1.27328,15.14312,-1927,27679,26.3765,17527,281
1.15548,15.04093,-1926,27680,26.5258,17527,281
1.52231,15.21282,-1925,27681,26.476,17527,281
2.12837,15.26514,-1924,27682,26.3765,17527,281
1.01016,15.27099,-1923,27683,26.3765,17519,355
1.0381,15.2456,-1922,27684,26.3267,17519,355
1.25442,15.08396,-1921,27685,26.5258,17519,355
0.447517,14.92306,-1920,27686,26.3267,17519,355
2.05543,14.3924,-1919,27687,26.3267,17519,355
1.90617,13.98118,-1918,27688,26.476,17519,355
1.19604,13.64842,-1917,27689,26.5756,17519,355
1.32827,13.58056,-1916,27690,26.3765,17519,355
0.750112,13.14171,-1915,27691,26.3765,17519,355
1.88099,12.78945,-1914,27692,26.3765,17519,355
1.96529,12.57857,-1913,27693,26.3267,17519,355
1.13886,12.33696,-1912,27694,26.3267,17519,355
0.966748,11.96351,-1911,27695,26.5258,17519,355
1.49066,11.42059,-1910,27696,26.3765,17519,355
1.88858,10.97615,-1909,27697,26.3267,17519,355
0.921287,10.41325,-1908,27698,26.3267,17519,355
1.11773,9.754174,-1907,27699,26.3765,17519,355
1.81651,9.528524,-1906,27700,26.2271,17519,355
1.01956,9.612601,-1905,27701,26.5258,17519,355
0.834375,9.812054,-1904,27702,26.2271,17519,355
1.69708,9.973227,-1903,27703,26.5258,17516,275
2.70104,10.44254,-1902,27704,26.5258,17516,275
1.12623,11.09699,-1901,27705,26.5258,17516,275
1.42859,11.401,-1900,27706,26.3267,17516,275
1.56555,11.93421,-1899,27707,26.476,17516,275
1.6165,12.27338,-1898,27708,26.3267,17516,275
1.66303,11.89418,-1897,27709,26.3267,17516,275
1.25821,11.46227,-1896,27710,26.2271,17516,275
2.02269,10.67679,-1895,27711,26.3267,17516,275
2.09222,9.968743,-1894,27712,26.2271,17516,275
0.921287,9.015039,-1893,27713,26.3765,17525,450
1.97498,7.998168,-1892,27714,26.3267,17525,450
0.76272,7.255743,-1891,27715,26.3765,17525,450
1.12623,6.326493,-1890,27716,26.2271,17525,450
1.01016,5.841546,-1889,27717,26.3267,17525,450
1.79539,5.941452,-1888,27718,26.5258,17525,450
1.73047,6.207608,-1887,27719,26.5258,17525,450
1.07865,6.353522,-1886,27720,26.3267,17525,450
1.49385,6.523628,-1885,27721,26.3765,17525,450
1.01956,6.741553,-1884,27722,26.476,17525,450
1.47458,6.95158,-1883,27723,26.3765,17522,389
2.08765,7.156486,-1882,27724,26.3267,17522,389
1.40163,7.666171,-1881,27725,26.476,17522,389
1.16371,7.975779,-1880,27726,26.3267,17522,389
1.19604,8.17142,-1879,27727,26.3267,17522,389
1.55638,8.288206,-1878,27728,26.3267,17522,389
2.46086,8.417542,-1877,27729,26.2271,17522,389
1.958,8.58754,-1876,27730,26.476,17522,389
0.697405,8.906951,-1875,27731,26.3765,17522,389
0.85693,9.547272,-1874,27732,26.3267,17522,389
1.46158,10.09352,-1873,27733,26.2271,17552,321
1.66589,10.50727,-1872,27734,26.3267,17552,321
1.53789,11.04922,-1871,27735,26.2271,17552,321
1.95556,11.47915,-1870,27736,26.1773,17552,321
1.86572,11.71748,-1869,27737,26.476,17552,321
0.873464,11.85905,-1868,27738,26.1773,17552,321
1.04268,11.8534,-1867,27739,26.476,17552,321
1.69427,11.84397,-1866,27740,26.476,17552,321
1.00068,11.86533,-1865,27741,26.3267,17552,321
1.49385,12.04482,-1864,27742,26.3267,17552,321
1.41854,12.01013,-1863,27743,26.3267,17523,309
1.46158,11.84334,-1862,27744,26.5258,17523,309
1.02423,11.52256,-1861,27745,26.3267,17523,309
1.4681,11.55871,-1860,27746,26.5258,17523,309
1.64863,11.90358,-1859,27747,26.2271,17523,309
1.36019,12.14707,-1858,27748,26.3267,17523,309
1.13045,12.52039,-1857,27749,26.476,17523,309
1.68581,12.78246,-1856,27750,26.3267,17523,309
1.38452,13.19997,-1855,27751,26.5258,17523,309
1.70549,13.85431,-1854,27752,26.3765,17523,309
1.56555,13.87365,-1853,27753,26.3267,17517,288
1.30655,13.86076,-1852,27754,26.5258,17517,288
0.78733,13.83063,-1851,27755,26.5258,17517,288
2.01324,13.72735,-1850,27756,26.476,17517,288
2.14399,13.89297,-1849,27757,26.2271,17517,288
1.54099,13.80366,-1848,27758,26.5756,17517,288
1.06977,13.44437,-1847,27759,26.3765,17517,288
1.28447,13.01123,-1846,27760,26.2271,17517,288
1.04268,12.71056,-1845,27761,26.3267,17517,288
1.33185,12.66535,-1844,27762,26.3267,17517,288
1.43857,12.70529,-1843,27763,26.3267,17520,428
1.18402,12.67534,-1842,27764,26.3765,17520,428
1.70549,12.4906,-1841,27765,26.2271,17520,428
1.60466,12.144,-1840,27766,26.3765,17520,428
1.5625,11.99585,-1839,27767,26.5258,17520,428
1.68581,11.92234,-1838,27768,26.3765,17520,428
1.05631,11.55742,-1837,27769,26.3765,17520,428
2.1771,11.55742,-1836,27770,26.5258,17520,428
1.94824,11.38531,-1835,27771,26.3267,17520,428
1.56555,11.21786,-1834,27772,26.3267,17520,428
1.51917,11.14389,-1833,27773,26.476,17524,388
0.878906,10.90054,-1832,27774,26.476,17524,388
1.87846,10.47104,-1831,27775,26.5756,17524,388
1.95556,10.23791,-1830,27776,26.3267,17524,388
1.73323,10.12889,-1829,27777,26.3765,17524,388
1.95556,9.954533,-1828,27778,26.3765,17524,388
1.66303,9.929803,-1827,27779,26.5258,17524,388
1.36019,9.917039,-1826,27780,26.2271,17524,388
1.47134,10.09574,-1825,27781,26.3765,17524,388
1.47134,10.13845,-1824,27782,26.3765,17524,388
1.34255,10.24664,-1823,27783,26.3267,17523,339
0.981433,10.51861,-1822,27784,26.3267,17523,339
1.1596,11.031,-1821,27785,26.3267,17523,339
1.3461,11.44796,-1820,27786,26.3267,17523,339
2.0693,11.88353,-1819,27787,26.3267,17523,339
1.85804,12.5762,-1818,27788,26.476,17523,339
1.28447,12.55961,-1817,27789,26.5258,17523,339
0.750112,12.65829,-1816,27790,26.476,17523,339
1.76052,12.78712,-1815,27791,26.3267,17523,339
1.89614,12.81796,-1814,27792,26.3267,17523,339
1.27702,13.06266,-1813,27793,26.3267,17526,274
1.5034,13.25911,-1812,27794,26.476,17526,274
1.4118,12.97108,-1811,27795,26.3267,17526,274
1.21188,12.62764,-1810,27796,26.1773,17526,274
1.00068,12.60284,-1809,27797,26.3765,17526,274
2.56522,12.87307,-1808,27798,26.3765,17526,274
1.37067,12.97223,-1807,27799,26.6752,17526,274
2.22691,12.81506,-1806,27800,26.2271,17526,274
1.73872,13.00149,-1805,27801,26.3267,17526,274
1.43525,13.07976,-1804,27802,26.6752,17526,274
1.3029,13.33028,-1803,27803,26.3267,17523,451
1.70549,13.48974,-1802,27804,26.3267,17523,451
1.17998,13.39607,-1801,27805,26.5258,17523,451
1.4118,13.51457,-1800,27806,26.3267,17523,451
1.25821,13.7344,-1799,27807,26.3267,17523,451
1.05179,13.90852,-1798,27808,26.3765,17523,451
1.60466,13.69692,-1797,27809,26.3267,17523,451
1.4219,13.07293,-1796,27810,26.3267,17523,451
1.52856,12.59042,-1795,27811,26.2271,17523,451
1.66016,12.51206,-1794,27812,26.3267,17523,451
1.92112,12.23447,-1793,27813,26.3765,17524,431
1.74966,12.07509,-1792,27814,26.3267,17524,431
2.03444,11.84208,-1791,27815,26.5258,17524,431
1.14304,11.75493,-1790,27816,26.3765,17524,431
1.86572,11.73781,-1789,27817,26.3267,17524,431
0.817051,11.6358,-1788,27818,26.3267,17524,431
2.01087,11.06068,-1787,27819,26.3765,17524,431
1.56555,10.39033,-1786,27820,26.6752,17524,431
1.42525,10.01125,-1785,27821,26.5258,17524,431
1.84257,9.827987,-1784,27822,26.5756,17524,431
1.53168,9.50974,-1783,27823,26.3267,17531,405
1.60168,8.68331,-1782,27824,26.3267,17531,405
1.71664,8.209626,-1781,27825,26.3267,17531,405
2.06237,7.524919,-1780,27826,26.3765,17531,405
1.4681,7.087441,-1779,27827,26.5258,17531,405
1.27702,6.562344,-1778,27828,26.476,17531,405
1.49385,6.422337,-1777,27829,26.5258,17531,405
1.38107,6.135172,-1776,27830,26.5258,17531,405
1.70549,6.166665,-1775,27831,26.3267,17531,405
1.05179,6.120582,-1774,27832,26.5258,17531,405
1.84516,6.34296,-1773,27833,26.3267,17523,341
1.07865,6.589536,-1772,27834,26.3765,17523,341
1.73047,6.564614,-1771,27835,26.3267,17523,341
1.66589,6.66486,-1770,27836,26.3267,17523,341
1.01016,6.772427,-1769,27837,26.476,17523,341
1.28447,6.882644,-1768,27838,26.2271,17523,341
1.37067,7.030445,-1767,27839,26.3765,17523,341
1.16371,6.736025,-1766,27840,26.3267,17523,341
1.34255,6.701649,-1765,27841,26.1773,17523,341
1.39139,6.641343,-1764,27842,26.5258,17523,341
1.64863,6.573688,-1763,27843,26.5258,17528,281
0.840071,6.580484,-1762,27844,26.3267,17528,281
0.138107,6.334732,-1761,27845,26.2271,17528,281
1.4118,5.800588,-1760,27846,26.3267,17528,281
1.62239,5.42355,-1759,27847,26.3765,17528,281
1.9942,5.368319,-1758,27848,26.3765,17528,281
1.52856,5.58063,-1757,27849,26.5258,17528,281
1.44518,5.277336,-1756,27850,26.5258,17528,281
1.5807,5.695597,-1755,27851,26.3267,17528,281
1.83998,6.040939,-1754,27852,26.3765,17528,281
1.4118,6.679377,-1753,27853,26.5258,17557,457
1.61945,7.168968,-1752,27854,26.5258,17557,457
1.42525,7.741606,-1751,27855,26.476,17557,457
1.13045,8.106425,-1750,27856,26.3765,17557,457
1.73323,8.41223,-1749,27857,26.5258,17557,457
0.655098,8.695314,-1748,27858,26.5258,17557,457
1.99659,8.804308,-1747,27859,26.3267,17557,457
1.59273,8.632538,-1746,27860,26.3765,17557,457
2.13954,8.642888,-1745,27861,26.3765,17557,457
1.70829,8.953672,-1744,27862,26.3267,17557,457
0.828641,9.327003,-1743,27863,26.3267,17525,373
2.11037,9.367654,-1742,27864,26.5258,17525,373
0.625305,9.576881,-1741,27865,26.5258,17525,373
0.976563,9.705166,-1740,27866,26.476,17525,373
1.88858,9.682107,-1739,27867,26.3267,17525,373
1.07865,9.929052,-1738,27868,26.3267,17525,373
2.30684,10.49876,-1737,27869,26.3267,17525,373
1.54099,10.80098,-1736,27870,26.2271,17525,373
1.02423,10.70397,-1735,27871,26.3765,17525,373
2.34578,11.22317,-1734,27872,26.2271,17525,373
1.31745,11.73082,-1733,27873,26.3267,17520,339
1.28817,11.98094,-1732,27874,26.3765,17520,339
1.02423,12.48106,-1731,27875,26.1773,17520,339
0.805294,12.93081,-1730,27876,26.3267,17520,339
1.66303,13.26079,-1729,27877,26.2271,17520,339
1.34255,13.6211,-1728,27878,26.2271,17520,339
1.46484,13.6893,-1727,27879,26.3765,17520,339
0.655098,14.02747,-1726,27880,26.3267,17520,339
1.3029,14.01897,-1725,27881,26.3267,17520,339
1.75781,14.11958,-1724,27882,26.5258,17520,339
1.42859,14.45593,-1723,27883,26.3267,17525,367
1.65152,14.50995,-1722,27884,26.476,17525,367
1.95556,14.35819,-1721,27885,26.3267,17525,367
1.19604,14.157,-1720,27886,26.3267,17525,367
0.995902,14.11219,-1719,27887,26.3765,17525,367
1.32827,14.04392,-1718,27888,26.3267,17525,367
1.21581,13.88385,-1717,27889,26.3765,17525,367
1.39822,13.65715,-1716,27890,26.5258,17525,367
1.51917,13.16776,-1715,27891,26.3267,17525,367
2.1573,12.96993,-1714,27892,26.2271,17525,367
1.69708,13.1139,-1713,27893,26.5258,17521,290
1.3637,13.23098,-1712,27894,26.2271,17521,290
1.18402,13.36489,-1711,27895,26.3765,17521,290
1.80334,13.26641,-1710,27896,26.3765,17521,290
1.00068,12.91755,-1709,27897,26.2271,17521,290
1.34255,12.65652,-1708,27898,26.3765,17521,290
1.73323,12.46493,-1707,27899,26.3267,17521,290
1.92112,11.49407,-1706,27900,26.3765,17521,290
1.4681,10.33785,-1705,27901,26.5258,17521,290
1.00068,9.18209,-1704,27902,26.1773,17521,290
1.75781,8.652366,-1703,27903,26.3267,17519,421
1.60466,8.43346,-1702,27904,26.5258,17519,421
2.18584,8.124786,-1701,27905,26.5258,17519,421
1.21188,7.802957,-1700,27906,26.2271,17519,421
1.90867,7.847707,-1699,27907,26.5756,17519,421
1.33543,8.709869,-1698,27908,26.2271,17519,421
1.25442,10.30392,-1697,27909,26.3267,17519,421
2.19672,11.93171,-1696,27910,26.476,17519,421
1.25821,13.41941,-1695,27911,26.3267,17519,421
1.23912,14.20324,-1694,27912,26.5756,17519,421
2.09904,14.25455,-1693,27913,26.3765,17524,379
1.07422,13.90584,-1692,27914,26.1773,17524,379
1.17594,13.1139,-1691,27915,26.3267,17524,379
1.98701,11.54323,-1690,27916,26.3267,17524,379
1.69708,10.01423,-1689,27917,26.3267,17524,379
0.569429,9.006771,-1688,27918,26.3267,17524,379
2.5782,8.233188,-1687,27919,26.3267,17524,379
1.7767,7.604696,-1686,27920,26.2271,17524,379
1.26577,7.343521,-1685,27921,26.3267,17524,379
1.33543,7.578197,-1684,27922,26.3765,17524,379
1.19205,7.731013,-1683,27923,26.3267,17495,342
2.65294,8.024208,-1682,27924,26.3267,17495,342
1.54717,8.200545,-1681,27925,26.3765,17495,342
2.58559,8.291801,-1680,27926,26.3267,17495,342
1.24296,8.312442,-1679,27927,26.3267,17495,342
1.42525,8.841464,-1678,27928,26.3267,17495,342
0.840071,9.35253,-1677,27929,26.3267,17495,342
1.87592,9.852972,-1676,27930,26.3267,17495,342
1.57769,10.24082,-1675,27931,26.3765,17495,342
1.24296,10.64324,-1674,27932,26.3267,17495,342
1.13045,10.63764,-1673,27933,26.2271,17520,293
2.18584,10.93262,-1672,27934,26.5258,17520,293
1.52544,11.12247,-1671,27935,26.3267,17520,293
0.534885,10.97411,-1670,27936,26.5756,17520,293
1.98461,10.83267,-1669,27937,26.3267,17520,293
1.45176,10.76228,-1668,27938,26.3765,17520,293
1.50022,10.7408,-1667,27939,26.3267,17520,293
1.25821,10.80098,-1666,27940,26.3765,17520,293
1.39139,10.74773,-1665,27941,26.3765,17520,293
0.805294,10.32198,-1664,27942,26.476,17520,293
2.0693,9.727403,-1663,27943,26.5756,17524,297
2.44336,9.255635,-1662,27944,26.3765,17524,297
1.97498,9.10386,-1661,27945,26.3267,17524,297
2.19672,8.995182,-1660,27946,26.3267,17524,297
1.58673,9.090756,-1659,27947,26.1773,17524,297
2.03209,9.273327,-1658,27948,26.5258,17524,297
0.878906,9.464189,-1657,27949,26.3267,17524,297
1.3461,9.7763,-1656,27950,26.3267,17524,297
1.28817,10.05803,-1655,27951,26.3765,17524,297
1.68298,10.48455,-1654,27952,26.476,17524,297
1.44518,10.62643,-1653,27953,26.3765,17526,449
1.72495,10.77819,-1652,27954,26.3765,17526,449
1.42859,10.98972,-1651,27955,26.3765,17526,449
0.768946,10.73664,-1650,27956,26.3267,17526,449
1.86572,10.49876,-1649,27957,26.3267,17526,449
1.77401,10.62643,-1648,27958,26.3765,17526,449
1.71664,10.70397,-1647,27959,26.3267,17526,449
1.31383,10.80305,-1646,27960,26.5258,17526,449
0.840071,10.15607,-1645,27961,26.3267,17526,449
1.67161,9.726637,-1644,27962,26.3765,17526,449
2.23332,9.450797,-1643,27963,26.1773,17526,449
1.84257,9.213681,-1642,27964,26.3267,17526,449
2.35593,9.020823,-1641,27965,26.5258,17526,449
1.50657,9.033203,-1640,27966,26.3267,17526,449
1.17998,8.718419,-1639,27967,26.3765,17526,449
1.71108,8.324086,-1638,27968,26.2271,17526,449
1.4118,7.991644,-1637,27969,26.2271,17526,449
1.39139,8.298986,-1636,27970,26.476,17526,449
1.93596,8.588408,-1635,27971,26.476,17526,449
1.30655,8.642026,-1634,27972,26.3267,17526,449
1.29923,8.688457,-1633,27973,26.3765,17517,400
1.83739,9.156087,-1632,27974,26.2271,17517,400
1.86316,9.729701,-1631,27975,26.2271,17517,400
1.17998,9.705166,-1630,27976,26.5258,17517,400
1.79273,10.10017,-1629,27977,26.3267,17517,400
1.80598,10.57864,-1628,27978,26.1773,17517,400
1.44188,10.73803,-1627,27979,26.3765,17517,400
1.21188,10.91079,-1626,27980,26.3765,17517,400
1.58673,10.90601,-1625,27981,26.3267,17517,400
1.78473,10.84435,-1624,27982,26.2271,17517,400
1.67446,10.78718,-1623,27983,26.3765,17523,320
1.68863,10.74011,-1622,27984,26.5258,17523,320
1.52856,11.35385,-1621,27985,26.476,17523,320
1.61355,11.40427,-1620,27986,26.2271,17523,320
1.86827,11.22914,-1619,27987,26.3267,17523,320
1.77132,11.31639,-1618,27988,26.2271,17523,320
1.19205,11.57675,-1617,27989,26.3267,17523,320
1.43525,11.87914,-1616,27990,26.1773,17523,320
1.73047,12.31035,-1615,27991,26.3765,17523,320
1.70829,12.75737,-1614,27992,26.3267,17523,320
1.38452,12.77488,-1613,27993,26.476,17524,263
1.85804,12.48822,-1612,27994,26.1773,17524,263
1.36019,12.46433,-1611,27995,26.3267,17524,263
2.28816,12.4404,-1610,27996,26.3765,17524,263
2.15951,12.02377,-1609,27997,26.476,17524,263
1.38452,11.61786,-1608,27998,26.476,17524,263
1.47134,11.25764,-1607,27999,26.3267,17524,263
1.56859,10.96936,-1606,28000,26.3267,17524,263
1.45505,10.85053,-1605,28001,26.3765,17524,263
1.44188,10.79615,-1604,28002,26.5258,17524,263
1.66303,10.73456,-1603,28003,26.3765,17527,465
1.48103,10.56737,-1602,28004,26.5258,17527,465
1.48103,10.64884,-1601,28005,26.2271,17527,465
1.3461,10.91898,-1600,28006,26.2271,17527,465
1.7551,10.98972,-1599,28007,26.1773,17527,465
1.39822,10.71024,-1598,28008,26.476,17527,465
1.09183,10.52427,-1597,28009,26.3765,17527,465
1.86827,10.31909,-1596,28010,26.476,17527,465
1.40163,10.52144,-1595,28011,26.5756,17527,465
0.878906,10.43041,-1594,28012,26.3267,17527,465
1.13045,10.41897,-1593,28013,26.3267,17493,386
1.63702,10.18538,-1592,28014,26.5258,17493,386
1.90617,9.709003,-1591,28015,26.3267,17493,386
0.926449,9.929803,-1590,28016,26.476,17493,386
0.905627,9.709003,-1589,28017,26.3267,17493,386
1.37415,9.556632,-1588,28018,26.3267,17493,386
1.31745,9.393864,-1587,28019,26.3765,17493,386
1.60168,9.233875,-1586,28020,26.3765,17493,386
0.862477,8.770393,-1585,28021,26.3267,17493,386
1.66016,8.884337,-1584,28022,26.3765,17493,386
1.36719,9.172347,-1583,28023,26.3267,17517,374
1.4681,9.479135,-1582,28024,26.3267,17517,374
1.23912,9.688262,-1581,28025,26.5258,17517,374
1.27702,10.17659,-1580,28026,26.3765,17517,374
1.31745,10.67191,-1579,28027,26.5258,17517,374
1.33185,10.67958,-1578,28028,26.5258,17517,374
1.83479,10.46321,-1577,28029,26.3267,17517,374
1.72495,10.15754,-1576,28030,26.3267,17517,374
0.884315,10.06247,-1575,28031,26.3267,17517,374
1.07865,10.16634,-1574,28032,26.1773,17517,374
0.85693,10.03207,-1573,28033,26.5258,17524,372
2.48016,10.06988,-1572,28034,26.5258,17524,372
1.90867,10.22334,-1571,28035,26.3765,17524,372
1.41517,10.22771,-1570,28036,26.1773,17524,372
1.25821,10.49592,-1569,28037,26.3765,17524,372
2.04146,10.39033,-1568,28038,26.3765,17524,372
1.25821,10.63764,-1567,28039,26.476,17524,372
1.72772,10.58639,-1566,28040,26.1276,17524,372
1.21581,10.80719,-1565,28041,26.3765,17524,372
2.6851,10.97344,-1564,28042,26.5258,17524,372
1.56555,10.87659,-1563,28043,26.3765,17521,284
1.4118,10.57019,-1562,28044,26.3267,17521,284
0.552427,9.984426,-1561,28045,26.5258,17521,284
1.47781,9.393071,-1560,28046,26.476,17521,284
2.19672,8.727814,-1559,28047,26.3267,17521,284
1.60466,8.324086,-1558,28048,26.3267,17521,284
1.25442,8.098149,-1557,28049,26.5258,17521,284
0.625305,8.106425,-1556,28050,26.5258,17521,284
1.60168,8.14585,-1555,28051,26.5258,17521,284
1.56555,8.757641,-1554,28052,26.2271,17521,284
2.03209,9.29259,-1553,28053,26.3267,17562,439
2.43358,9.809016,-1552,28054,26.3267,17562,439
0.655098,9.987411,-1551,28055,26.3765,17562,439
1.34255,10.1502,-1550,28056,26.476,17562,439
1.17594,10.54196,-1549,28057,26.476,17562,439
1.34255,10.57301,-1548,28058,26.3765,17562,439
0.889691,10.49663,-1547,28059,26.5258,17562,439
0.900346,10.50514,-1546,28060,26.3765,17562,439
1.36019,10.35297,-1545,28061,26.3267,17562,439
2.18802,10.09648,-1544,28062,26.2271,17562,439
1.49385,10.16121,-1543,28063,26.3267,17525,384
0.845728,10.53701,-1542,28064,26.3765,17525,384
1.83479,10.87111,-1541,28065,26.6752,17525,384
1.7551,10.99582,-1540,28066,26.3267,17525,384
0.525895,11.07616,-1539,28067,26.3765,17525,384
1.07865,11.00801,-1538,28068,26.3267,17525,384
1.19205,10.90806,-1537,28069,26.2271,17525,384
1.87592,10.99243,-1536,28070,26.2271,17525,384
1.07865,11.03032,-1535,28071,26.476,17525,384
1.13045,10.88139,-1534,28072,26.1773,17525,384
1.27328,10.61591,-1533,28073,26.476,17556,405
1.73047,10.45039,-1532,28074,26.3765,17556,405
1.54099,10.30247,-1531,28075,26.3765,17556,405
1.31383,10.21897,-1530,28076,26.5258,17556,405
1.63702,10.36807,-1529,28077,26.5258,17556,405
1.23912,10.70397,-1528,28078,26.3267,17556,405
1.77401,10.77405,-1527,28079,26.5258,17556,405
1.11773,11.14055,-1526,28080,26.3267,17556,405
1.54717,11.29464,-1525,28081,26.3267,17556,405
2.11714,11.34991,-1524,28082,26.3765,17556,405
1.31745,11.39969,-1523,28083,26.3267,17523,301
1.59273,11.45251,-1522,28084,26.3765,17523,301
1.97256,11.32165,-1521,28085,26.3267,17523,301
1.63993,11.22383,-1520,28086,26.5258,17523,301
1.31745,11.02221,-1519,28087,26.3267,17523,301
0.768946,10.97411,-1518,28088,26.3765,17523,301
1.60168,10.50869,-1517,28089,26.3267,17523,301
1.77132,10.59553,-1516,28090,26.476,17523,301
1.57769,10.89097,-1515,28091,26.3765,17523,301
1.37067,10.9442,-1514,28092,26.3765,17523,301
1.62532,11.031,-1513,28093,26.1773,17519,295
1.40842,11.19192,-1512,28094,26.3765,17519,295
1.23912,10.81201,-1511,28095,26.5756,17519,295
1.66303,10.34649,-1510,28096,26.3267,17519,295
1.80334,10.25826,-1509,28097,26.3765,17519,295
1.25061,10.04395,-1508,28098,26.3267,17519,295
1.79539,9.984426,-1507,28099,26.1773,17519,295
0.497951,9.871104,-1506,28100,26.5258,17519,295
1.3461,9.704398,-1505,28101,26.476,17519,295
1.47458,9.66285,-1504,28102,26.3765,17519,295
1.36019,9.861287,-1503,28103,26.028,17530,440
1.99897,10.03801,-1502,28104,26.1773,17530,440
1.93596,9.990394,-1501,28105,26.2271,17530,440
2.05311,10.16634,-1500,28106,26.5258,17530,440
1.36019,10.49663,-1499,28107,26.5756,17530,440
1.45505,10.82854,-1498,28108,26.3765,17530,440
1.88858,10.79753,-1497,28109,26.3267,17530,440
2.01324,10.53489,-1496,28110,26.3765,17530,440
1.90617,10.89781,-1495,28111,26.3765,17530,440
1.54408,11.253,-1494,28112,26.3267,17530,440
1.69427,11.1218,-1493,28113,26.3267,17521,401
1.13045,11.48499,-1492,28114,26.3765,17521,401
0.981433,11.75557,-1491,28115,26.5258,17521,401
1.3029,11.7929,-1490,28116,26.3765,17521,401
1.22752,11.69202,-1489,28117,26.3765,17521,401
2.52021,11.71493,-1488,28118,26.2271,17521,401
1.5807,11.75113,-1487,28119,26.3765,17521,401
1.88606,11.60503,-1486,28120,26.3267,17521,401
1.09183,11.29266,-1485,28121,26.3267,17521,401
1.33185,10.93126,-1484,28122,26.476,17521,401
1.16371,10.69562,-1483,28123,26.3267,17512,322
0.750112,10.45752,-1482,28124,26.3765,17512,322
1.47781,10.38961,-1481,28125,26.3267,17512,322
1.92856,10.1722,-1480,28126,26.5258,17512,322
1.76323,9.760283,-1479,28127,26.3765,17512,322
2.23759,9.451585,-1478,28128,26.5258,17512,322
1.83739,9.390691,-1477,28129,26.3267,17512,322
1.06082,9.365267,-1476,28130,26.2271,17512,322
1.36019,9.546492,-1475,28131,26.3267,17512,322
2.36804,9.871104,-1474,28132,26.3267,17512,322
1.57769,10.10828,-1473,28133,26.5258,17523,264
1.1596,10.34721,-1472,28134,26.3267,17523,264
1.70829,10.35441,-1471,28135,26.3267,17523,264
1.91864,10.08097,-1470,28136,26.3765,17523,264
1.55638,9.471272,-1469,28137,26.5258,17523,264
2.18366,9.044743,-1468,28138,26.5258,17523,264
1.38452,8.288206,-1467,28139,26.5258,17523,264
1.45176,8.092626,-1466,28140,26.3267,17523,264
1.80598,7.802957,-1465,28141,26.3267,17523,264
1.50022,7.939264,-1464,28142,26.3267,17523,264
1.11773,7.974845,-1463,28143,26.476,17528,358
1.38796,8.288206,-1462,28144,26.1773,17528,358
1.4681,8.645474,-1461,28145,26.3267,17528,358
1.3029,8.75679,-1460,28146,26.3267,17528,358
1.66303,8.927005,-1459,28147,26.3765,17528,358
1.53168,8.861666,-1458,28148,26.3267,17528,358
1.81388,8.545794,-1457,28149,26.3267,17528,358
1.91864,8.54928,-1456,28150,26.3765,17528,358
1.39481,8.102747,-1455,28151,26.3267,17528,358
1.80598,7.954265,-1454,28152,26.3267,17528,358
1.10916,8.226851,-1453,28153,26.3267,17518,414
0.730792,8.301679,-1452,28154,26.476,17518,414
2.20539,8.666132,-1451,28155,26.5756,17518,414
1.01956,9.019171,-1450,28156,26.2271,17518,414
0.717624,9.523049,-1449,28157,26.3267,17518,414
1.19205,9.723573,-1448,28158,26.5258,17518,414
1.88099,9.761046,-1447,28159,26.3765,17518,414
1.67161,9.604071,-1446,28160,26.2271,17518,414
1.4118,9.375604,-1445,28161,26.2271,17518,414
1.57769,9.506605,-1444,28162,26.5258,17518,414
1.96529,9.699022,-1443,28163,26.3765,17523,392
1.93842,9.475204,-1442,28164,26.5258,17523,392
1.32827,9.424745,-1441,28165,26.3765,17523,392
1.60466,9.460252,-1440,28166,26.5258,17523,392
0.971667,9.754938,-1439,28167,26.5756,17523,392
1.17594,9.885434,-1438,28168,26.476,17523,392
1.04268,9.911779,-1437,28169,26.3765,17523,392
1.73872,10.14727,-1436,28170,26.3267,17523,392
0.995902,10.31909,-1435,28171,26.5258,17523,392
1.45505,10.83817,-1434,28172,26.5258,17523,392
0.805294,11.52256,-1433,28173,26.3267,17521,362
1.51603,11.876,-1432,28174,26.3765,17521,362
1.95556,12.33394,-1431,28175,26.3267,17521,362
1.92608,12.54952,-1430,28176,26.2271,17521,362
0.966748,12.75503,-1429,28177,26.5258,17521,362
1.80598,12.82436,-1428,28178,26.3267,17521,362
1.18402,12.67769,-1427,28179,26.5258,17521,362
1.31745,12.41102,-1426,28180,26.1773,17521,362
0.292969,12.06275,-1425,28181,26.2271,17521,362
1.32827,11.21188,-1424,28182,26.3267,17521,362
1.31745,10.84779,-1423,28183,26.5258,17523,284
0.966748,10.46891,-1422,28184,26.3765,17523,284
1.36019,10.21459,-1421,28185,26.476,17523,284
1.18402,10.37239,-1420,28186,26.5258,17523,284
2.00374,10.23791,-1419,28187,26.476,17523,284
1.19604,10.05581,-1418,28188,26.3267,17523,284
1.20399,10.01423,-1417,28189,26.2271,17523,284
1.54099,10.27931,-1416,28190,26.1773,17523,284
1.30655,10.5582,-1415,28191,26.3267,17523,284
1.69708,10.41611,-1414,28192,26.3267,17523,284
1.98461,10.31404,-1413,28193,26.3267,17526,352
1.23912,10.3328,-1412,28194,26.5756,17526,352
1.92361,9.882419,-1411,28195,26.3765,17526,352
0.995902,9.28858,-1410,28196,26.3765,17526,352
0.956832,8.691886,-1409,28197,26.3765,17526,352
1.32827,8.28371,-1408,28198,26.3267,17526,352
1.38452,7.810592,-1407,28199,26.5258,17526,352
1.82437,7.599796,-1406,28200,26.3765,17526,352
1.60168,7.635008,-1405,28201,26.3765,17526,352
1.48103,7.968303,-1404,28202,26.3765,17526,352
1.32827,8.269306,-1403,28203,26.2271,17520,373
0.889691,8.204179,-1402,28204,26.3765,17520,373
1.4219,7.912944,-1401,28205,26.3765,17520,373
1.43857,7.459285,-1400,28206,26.3765,17520,373
1.84257,7.26908,-1399,28207,26.2271,17520,373
1.80334,6.488126,-1398,28208,26.3267,17520,373
1.38796,5.880952,-1397,28209,26.3267,17520,373
1.52231,5.532358,-1396,28210,26.3765,17520,373
1.48103,5.099267,-1395,28211,26.3267,17520,373
1.82698,4.839899,-1394,28212,26.5258,17520,373
1.77132,4.730914,-1393,28213,26.3765,17527,443
1.25821,5.105108,-1392,28214,26.3765,17527,443
0.905627,5.467333,-1391,28215,26.3267,17527,443
1.23526,5.664115,-1390,28216,26.3765,17527,443
1.72772,5.823662,-1389,28217,26.5258,17527,443
0.85693,5.963981,-1388,28218,26.476,17527,443
2.11714,6.102295,-1387,28219,26.476,17527,443
1.37415,6.216004,-1386,28220,26.3765,17527,443
2.47246,6.648071,-1385,28221,26.3267,17527,443
1.39139,6.345308,-1384,28222,26.3267,17527,443
2.30684,5.649627,-1383,28223,26.3267,17521,363
2.48976,5.174687,-1382,28224,26.3765,17521,363
1.96287,4.397921,-1381,28225,26.3765,17521,363
2.11488,3.678349,-1380,28226,26.2271,17521,363
1.56859,3.076075,-1379,28227,26.1773,17521,363
0.840071,3.024783,-1378,28228,26.5258,17521,363
0.946812,3.454827,-1377,28229,26.3765,17521,363
1.4681,4.096182,-1376,28230,26.1773,17521,363
1.46158,4.611286,-1375,28231,26.3765,17521,363
1.22752,5.099267,-1374,28232,26.5258,17521,363
1.79804,5.592632,-1373,28233,26.5258,17511,363
2.17929,5.936434,-1372,28234,26.3267,17511,363
2.10585,6.354695,-1371,28235,26.2271,17511,363
1.39139,6.66486,-1370,28236,26.5258,17511,363
0.710948,7.222809,-1369,28237,26.3765,17511,363
1.27702,7.682675,-1368,28238,26.3267,17511,363
0.805294,8.047388,-1367,28239,26.476,17511,363
1.72772,8.415772,-1366,28240,26.3267,17511,363
2.54844,8.865028,-1365,28241,26.476,17511,363
1.71942,9.233068,-1364,28242,26.5258,17511,363
1.89614,9.451585,-1363,28243,26.6752,17511,274
1.09183,9.554293,-1362,28244,26.5258,17511,274
1.49066,9.984426,-1361,28245,26.3765,17511,274
2.24822,10.80719,-1360,28246,26.5258,17511,274
1.62826,11.22051,-1359,28247,26.2271,17511,274
1.72772,11.43233,-1358,28248,26.5756,17511,274
1.36019,12.00144,-1357,28249,26.3765,17511,274
0.85693,12.77838,-1356,28250,26.3267,17511,274
2.06237,13.10992,-1355,28251,26.3765,17511,274
2.03209,13.57398,-1354,28252,26.5258,17511,274
1.36719,14.17541,-1353,28253,26.3765,17522,420
1.48746,14.37841,-1352,28254,26.3765,17522,420
1.09619,14.38463,-1351,28255,26.3765,17522,420
1.46484,14.57194,-1350,28256,26.476,17522,420
1.88099,15.00075,-1349,28257,26.5258,17522,420
1.61945,15.30218,-1348,28258,26.3267,17522,420
1.40163,15.37311,-1347,28259,26.3267,17522,420
1.17998,15.42633,-1346,28260,26.5258,17522,420
0.905627,15.44515,-1345,28261,26.476,17522,420
1.6341,15.37505,-1344,28262,26.3765,17522,420
0.946812,15.43164,-1343,28263,26.3267,17523,400
1.38452,15.7622,-1342,28264,26.3765,17523,400
2.04146,15.64644,-1341,28265,26.5258,17523,400
0.941763,15.49139,-1340,28266,26.3765,17523,400
1.70829,15.51974,-1339,28267,26.3267,17523,400
1.57163,15.63644,-1338,28268,26.3267,17523,400
1.4219,15.59302,-1337,28269,26.6752,17523,400
1.21188,15.40458,-1336,28270,26.5258,17523,400
1.45176,15.28806,-1335,28271,26.3267,17523,400
1.19604,15.23338,-1334,28272,26.3267,17523,400
1.4219,15.07259,-1333,28273,26.476,17521,431
1.50022,14.90408,-1332,28274,26.5258,17521,431
0.926449,14.7483,-1331,28275,26.5258,17521,431
1.11773,14.44613,-1330,28276,26.3765,17521,431
1.56555,14.29318,-1329,28277,26.476,17521,431
1.28447,13.91869,-1328,28278,26.2271,17521,431
1.75781,13.60742,-1327,28279,26.3765,17521,431
1.24296,13.20674,-1326,28280,26.3267,17521,431
1.36019,12.56554,-1325,28281,26.5258,17521,431
1.26577,11.77457,-1324,28282,26.6752,17521,431
1.4118,11.15391,-1323,28283,26.3267,17520,263
1.5987,10.63834,-1322,28284,26.3765,17520,263
1.58673,10.04098,-1321,28285,26.3765,17520,263
0.834375,9.569877,-1320,28286,26.5756,17520,263
1.84516,9.447643,-1319,28287,26.476,17520,263
1.63702,9.488562,-1318,28288,26.3765,17520,263
1.71108,9.412088,-1317,28289,26.5258,17520,263
1.20399,9.464189,-1316,28290,26.5756,17520,263
2.17052,9.412088,-1315,28291,26.3765,17520,263
1.02423,9.368449,-1314,28292,26.3267,17520,263
1.32827,9.019171,-1313,28293,26.5756,17519,302
1.51917,8.851571,-1312,28294,26.3765,17519,302
0.946812,8.813612,-1311,28295,26.5258,17519,302
1.6341,8.798382,-1310,28296,26.3267,17519,302
1.95556,8.891882,-1309,28297,26.3765,17519,302
0.905627,8.766144,-1308,28298,26.3765,17519,302
1.25821,8.406028,-1307,28299,26.5258,17519,302
1.39139,7.996304,-1306,28300,26.3267,17519,302
1.09619,7.80773,-1305,28301,26.3765,17519,302
1.49385,7.481227,-1304,28302,26.476,17519,302
0.41432,7.202148,-1303,28303,26.3267,17522,436
0.717624,7.093745,-1302,28304,26.5756,17522,436
1.41854,7.039976,-1301,28305,26.3267,17522,436
1.30655,6.828304,-1300,28306,26.476,17522,436
2.10585,6.868557,-1299,28307,26.1773,17522,436
1.81651,6.871811,-1298,28308,26.2271,17522,436
1.00068,7.084286,-1297,28309,26.3267,17522,436
1.79804,7.018778,-1296,28310,26.3765,17522,436
1.56859,6.99645,-1295,28311,26.3267,17522,436
1.34255,7.184541,-1294,28312,26.5258,17522,436
1.37067,7.42324,-1293,28313,26.476,17531,389
0.828641,7.530858,-1292,28314,26.3267,17531,389
0.840071,7.530858,-1291,28315,26.3267,17531,389
1.77132,7.498139,-1290,28316,26.476,17531,389
2.09222,7.390044,-1289,28317,26.3267,17531,389
1.71108,7.286483,-1288,28318,26.5258,17531,389
1.20399,7.310983,-1287,28319,26.3267,17531,389
1.56555,7.034682,-1286,28320,26.5756,17531,389
1.10916,6.570286,-1285,28321,26.3765,17531,389
1.05179,6.320602,-1284,28322,26.3267,17531,389
1.74966,6.288695,-1283,28323,26.476,17517,352
1.84257,6.17753,-1282,28324,26.5258,17517,352
0.828641,6.312345,-1281,28325,26.3765,17517,352
1.1596,6.465118,-1280,28326,26.3267,17517,352
1.19604,6.833757,-1279,28327,26.476,17517,352
1.31745,6.804257,-1278,28328,26.5258,17517,352
1.82437,6.60309,-1277,28329,26.3765,17517,352
1.25821,6.376933,-1276,28330,26.1773,17517,352
1.57769,6.400257,-1275,28331,26.5258,17517,352
1.4219,6.406075,-1274,28332,26.3267,17517,352
1.26953,6.17753,-1273,28333,26.3267,17521,287
1.45176,6.06064,-1272,28334,26.5258,17521,287
1.52544,6.016221,-1271,28335,26.3765,17521,287
0.981433,5.80829,-1270,28336,26.3765,17521,287
1.40163,5.725605,-1269,28337,26.5258,17521,287
2.40203,5.487736,-1268,28338,26.3267,17521,287
1.5034,5.40704,-1267,28339,26.3267,17521,287
1.80598,5.308304,-1266,28340,26.2271,17521,287
1.31745,5.214846,-1265,28341,26.2271,17521,287
1.9335,5.151599,-1264,28342,26.3267,17521,287
1.40163,5.639067,-1263,28343,26.3267,17521,351
1.02423,6.153361,-1262,28344,26.3267,17521,351
2.06237,6.415373,-1261,28345,26.5258,17521,351
1.40163,6.742658,-1260,28346,26.3267,17521,351
1.5034,7.292616,-1259,28347,26.3267,17521,351
0.926449,7.980449,-1258,28348,26.5258,17521,351
2.65294,8.279211,-1257,28349,26.3765,17521,351
0.966748,8.092626,-1256,28350,26.3267,17521,351
0.76272,8.341968,-1255,28351,26.3765,17521,351
1.20399,8.175978,-1254,28352,26.1773,17521,351
1.36719,8.421967,-1253,28353,26.1773,17509,360
1.53168,8.574516,-1252,28354,26.3267,17509,360
1.39139,8.634264,-1251,28355,26.3267,17509,360
1.12623,8.818682,-1250,28356,26.476,17509,360
1.13045,8.966976,-1249,28357,26.2271,17509,360
2.01797,9.136537,-1248,28358,26.3267,17509,360
1.27328,9.743475,-1247,28359,26.5258,17509,360
1.3637,9.965753,-1246,28360,26.5258,17509,360
1.67161,10.10312,-1245,28361,26.2271,17509,360
1.27328,10.30826,-1244,28362,26.2271,17509,360
1.5807,10.62012,-1243,28363,26.6752,17523,382
1.29556,10.95509,-1242,28364,26.3765,17523,382
0.78733,11.15992,-1241,28365,26.2271,17523,382
1.5034,11.32034,-1240,28366,26.3765,17523,382
2.0716,11.4811,-1239,28367,26.1773,17523,382
1.79804,11.91859,-1238,28368,26.3267,17523,382
0.921287,12.38999,-1237,28369,26.5258,17523,382
0.851347,12.45177,-1236,28370,26.3267,17523,382
2.31303,12.01695,-1235,28371,26.3267,17523,382
1.38452,11.93608,-1234,28372,26.1773,17523,382
1.60168,12.04791,-1233,28373,26.3765,17488,364
1.3029,12.17831,-1232,28374,26.3765,17488,364
1.76323,12.23751,-1231,28375,26.5258,17488,364
1.62826,12.29036,-1230,28376,26.476,17488,364
1.49385,12.40261,-1229,28377,26.2271,17488,364
1.96287,12.65829,-1228,28378,26.5258,17488,364
1.66303,12.70822,-1227,28379,26.3267,17488,364
1.60168,12.87596,-1226,28380,26.2271,17488,364
1.33543,12.65652,-1225,28381,26.5258,17488,364
1.70549,12.33877,-1224,28382,26.3267,17488,364
1.12198,12.24299,-1223,28383,26.476,17522,284
1.41517,12.26306,-1222,28384,26.3267,17522,284
0.76272,12.08743,-1221,28385,26.3765,17522,284
0.926449,11.73273,-1220,28386,26.3267,17522,284
1.99897,11.51997,-1219,28387,26.3267,17522,284
2.14177,11.31639,-1218,28388,26.5756,17522,284
1.60168,11.06674,-1217,28389,26.1773,17522,284
1.53789,11.38138,-1216,28390,26.1773,17522,284
1.63702,10.84023,-1215,28391,26.476,17522,284
1.73323,10.5264,-1214,28392,26.5258,17522,284
1.25821,10.42898,-1213,28393,26.3267,17517,329
0.966748,10.10607,-1212,28394,26.5258,17517,329
1.69146,9.869594,-1211,28395,26.476,17517,329
1.54099,9.472058,-1210,28396,26.3765,17517,329
1.17998,9.35253,-1209,28397,26.1773,17517,329
1.17594,9.37163,-1208,28398,26.5258,17517,329
1.70549,9.603296,-1207,28399,26.028,17517,329
1.31745,10.2248,-1206,28400,26.1773,17517,329
1.96529,10.43897,-1205,28401,26.3765,17517,329
1.42525,10.52215,-1204,28402,26.3765,17517,329
1.41854,10.4111,-1203,28403,26.3765,17523,386
1.71386,10.44754,-1202,28404,26.476,17523,386
1.62826,10.29307,-1201,28405,26.1773,17523,386
2.12613,10.30175,-1200,28406,26.2271,17523,386
1.40163,10.11491,-1199,28407,26.5258,17523,386
1.23912,9.715141,-1198,28408,26.2271,17523,386
1.01956,9.638145,-1197,28409,26.3765,17523,386
1.1596,10.04914,-1196,28410,26.3267,17523,386
0.905627,10.46891,-1195,28411,26.3765,17523,386
1.96287,10.59905,-1194,28412,26.3765,17523,386
1.80334,10.63484,-1193,28413,26.5258,17555,426
1.01956,10.87591,-1192,28414,26.3267,17555,426
1.10916,11.12984,-1191,28415,26.5258,17555,426
2.16171,11.24174,-1190,28416,26.5258,17555,426
1.91864,11.54581,-1189,28417,26.3267,17555,426
1.80334,11.54581,-1188,28418,26.476,17555,426
1.39822,11.53484,-1187,28419,26.476,17555,426
1.55638,11.42255,-1186,28420,26.3765,17555,426
1.51917,11.48889,-1185,28421,26.5258,17555,426
1.48103,11.53484,-1184,28422,26.476,17555,426
1.37415,11.65819,-1183,28423,26.3765,17519,305
1.26953,11.71684,-1182,28424,26.3267,17519,305
1.10916,12.08434,-1181,28425,26.476,17519,305
1.63702,12.30672,-1180,28426,26.3267,17519,305
1.33185,12.28673,-1179,28427,26.3267,17519,305
1.4681,12.06522,-1178,28428,26.5258,17519,305
1.56555,12.00082,-1177,28429,26.3267,17519,305
2.36199,12.03059,-1176,28430,26.3765,17519,305
2.05078,12.11267,-1175,28431,26.3765,17519,305
1.73047,12.10467,-1174,28432,26.3765,17519,305
1.73323,11.74542,-1173,28433,26.3267,17525,306
1.56555,11.74542,-1172,28434,26.2271,17525,306
1.54717,11.4421,-1171,28435,26.5258,17525,306
1.88858,11.15792,-1170,28436,26.3267,17525,306
1.76863,11.11979,-1169,28437,26.2271,17525,306
1.84516,10.94624,-1168,28438,26.2271,17525,306
2.23759,10.31837,-1167,28439,26.3765,17525,306
1.10485,9.523049,-1166,28440,26.3765,17525,306
0.625305,9.342168,-1165,28441,26.3765,17525,306
1.13886,9.469698,-1164,28442,26.1773,17525,306
1.38107,9.413671,-1163,28443,26.476,17526,449
0.921287,9.158528,-1162,28444,26.3267,17526,449
1.07422,9.658994,-1161,28445,26.3765,17526,449
0.793363,10.17074,-1160,28446,26.3765,17526,449
1.78206,10.3328,-1159,28447,26.3765,17526,449
0.85693,10.47389,-1158,28448,26.3267,17526,449
0.717624,10.55397,-1157,28449,26.5258,17526,449
1.34255,10.64044,-1156,28450,26.476,17526,449
1.19604,11.07683,-1155,28451,26.2271,17526,449
1.05631,11.46746,-1154,28452,26.5258,17526,449
1.68581,11.7359,-1153,28453,26.476,17519,389
1.36019,11.59732,-1152,28454,26.2271,17519,389
0.966748,11.99896,-1151,28455,26.5258,17519,389
0.905627,12.63767,-1150,28456,26.3267,17519,389
0.569429,13.13433,-1149,28457,26.5756,17519,389
1.11345,13.43106,-1148,28458,26.476,17519,389
0.730792,13.45988,-1147,28459,26.5258,17519,389
1.37067,13.72518,-1146,28460,26.5258,17519,389
1.49385,14.11008,-1145,28461,26.5756,17519,389
1.70269,14.57194,-1144,28462,26.2271,17519,389
1.89865,14.42549,-1143,28463,26.3267,17519,425
1.66303,14.52021,-1142,28464,26.3267,17519,425
1.45176,14.78664,-1141,28465,26.2271,17519,425
1.09619,14.84748,-1140,28466,26.476,17519,425
2.18366,14.61024,-1139,28467,26.3267,17519,425
1.09183,14.34469,-1138,28468,26.3267,17519,425
1.28447,14.14647,-1137,28469,26.3267,17519,425
1.4118,14.22054,-1136,28470,26.3267,17519,425
0.926449,14.5612,-1135,28471,26.5258,17519,425
0.971667,14.40378,-1134,28472,26.3267,17519,425
1.87592,14.35507,-1133,28473,26.2271,17521,276
1.61945,14.15753,-1132,28474,26.3267,17521,276
1.3102,13.96412,-1131,28475,26.5258,17521,276
0.840071,13.77449,-1130,28476,26.3267,17521,276
1.88858,13.50133,-1129,28477,26.3765,17521,276
0.845728,13.28885,-1128,28478,26.3267,17521,276
1.42525,13.00206,-1127,28479,26.1773,17521,276
1.47458,12.79469,-1126,28480,26.3267,17521,276
1.44518,12.62351,-1125,28481,26.3267,17521,276
1.3637,12.38698,-1124,28482,26.476,17521,276
2.39407,12.21252,-1123,28483,26.3765,17523,354
0.85693,11.98902,-1122,28484,26.476,17523,354
1.60168,11.84397,-1121,28485,26.476,17523,354
1.58673,11.78279,-1120,28486,26.2271,17523,354
1.66589,11.52708,-1119,28487,26.3765,17523,354
3.00204,11.0445,-1118,28488,26.3267,17523,354
0.793363,10.47389,-1117,28489,26.5258,17523,354
1.49385,10.25173,-1116,28490,26.3267,17523,354
1.94333,9.671328,-1115,28491,26.476,17523,354
2.11714,8.964483,-1114,28492,26.3267,17523,354
1.47781,8.535325,-1113,28493,26.3267,17559,444
0.926449,7.903522,-1112,28494,26.2271,17559,444
1.22752,7.76467,-1111,28495,26.476,17559,444
1.09183,7.589004,-1110,28496,26.3267,17559,444
1.6165,7.394076,-1109,28497,26.476,17559,444
1.19205,7.285461,-1108,28498,26.2271,17559,444
0.577742,7.018778,-1107,28499,26.3765,17559,444
1.36019,6.810823,-1106,28500,26.3267,17559,444
0.768946,6.982593,-1105,28501,26.476,17559,444
1.92608,7.215584,-1104,28502,26.5258,17559,444
1.68014,7.153362,-1103,28503,26.3267,17524,378
1.00543,6.57822,-1102,28504,26.5258,17524,378
1.1472,6.401421,-1101,28505,26.2271,17524,378
1.84516,6.406075,-1100,28506,26.3765,17524,378
0.78733,6.359383,-1099,28507,26.3765,17524,378
1.71386,6.367579,-1098,28508,26.3765,17524,378
0.931581,6.401421,-1097,28509,26.3267,17524,378
2.36401,6.462813,-1096,28510,26.5258,17524,378
1.50657,6.481232,-1095,28511,26.5258,17524,378
1.79539,6.880479,-1094,28512,26.5258,17524,378
1.18402,7.62915,-1093,28513,26.3267,17524,378
1.24679,8.130286,-1092,28514,26.3267,17524,378
1.66016,8.885176,-1091,28515,26.3765,17524,378
1.97739,9.730466,-1090,28516,26.3267,17524,378
1.35668,10.49663,-1089,28517,26.3267,17524,378
1.47134,11.07683,-1088,28518,26.2271,17524,378
1.85547,11.33283,-1087,28519,26.5258,17524,378
2.29648,11.5329,-1086,28520,26.3267,17524,378
2.21617,11.41602,-1085,28521,26.3765,17524,378
1.85547,11.80048,-1084,28522,26.5258,17524,378
1.07865,12.02315,-1083,28523,26.1773,17512,363
1.77938,12.24421,-1082,28524,26.1773,17512,363
1.49066,12.62587,-1081,28525,26.3267,17512,363
1.51917,13.34871,-1080,28526,26.2271,17512,363
1.90116,13.91013,-1079,28527,26.3267,17512,363
0.926449,14.2488,-1078,28528,26.3765,17512,363
1.5034,14.42187,-1077,28529,26.1773,17512,363
1.6341,14.67588,-1076,28530,26.3765,17512,363
1.79539,14.70631,-1075,28531,26.3267,17512,363
1.30655,15.10173,-1074,28532,26.3765,17512,363
1.54099,15.33623,-1073,28533,26.3765,17516,279
1.27702,15.35856,-1072,28534,26.3267,17516,279
0.840071,15.42681,-1071,28535,26.3267,17516,279
1.65728,15.54373,-1070,28536,26.3267,17516,279
1.21581,15.79054,-1069,28537,26.3267,17516,279
1.33185,16.04331,-1068,28538,26.3267,17516,279
1.67446,16.41744,-1067,28539,26.3267,17516,279
1.53168,16.51066,-1066,28540,26.3765,17516,279
1.00068,16.71472,-1065,28541,26.2271,17516,279
1.68298,16.69643,-1064,28542,26.3765,17516,279
1.40163,16.69643,-1063,28543,26.3267,17530,352
1.90617,16.73477,-1062,28544,26.3267,17530,352
0.85693,16.65444,-1061,28545,26.476,17530,352
1.32827,16.89076,-1060,28546,26.3765,17530,352
1.1472,17.14599,-1059,28547,26.5258,17530,352
1.38796,16.92337,-1058,28548,26.5756,17530,352
2.16171,16.59618,-1057,28549,26.3765,17530,352
1.42525,16.86913,-1056,28550,26.1773,17530,352
2.41588,17.63483,-1055,28551,26.2271,17530,352
2.20323,17.43556,-1054,28552,26.3765,17530,352
1.19604,15.879,-1053,28553,26.3267,17523,389
1.54717,15.11702,-1052,28554,26.3267,17523,389
0.840071,17.05406,-1051,28555,26.2271,17523,389
0.961803,19.34805,-1050,28556,26.3765,17523,389
0.717624,17.98084,-1049,28557,26.3267,17523,389
1.89865,14.55916,-1048,28558,26.5258,17523,389
1.3461,13.01123,-1047,28559,26.3267,17523,389
1.10916,13.99237,-1046,28560,26.476,17523,389
2.21617,14.92306,-1045,28561,26.3267,17523,389
1.64863,14.50995,-1044,28562,26.3267,17523,389
1.05631,14.26761,-1043,28563,26.6752,17521,432
2.0716,15.03052,-1042,28564,26.3267,17521,432
1.24679,15.27538,-1041,28565,26.3267,17521,432
1.60168,13.89029,-1040,28566,26.476,17521,432
1.49385,11.96912,-1039,28567,26.3765,17521,432
1.24679,10.66562,-1038,28568,26.3765,17521,432
0.921287,10.08466,-1037,28569,26.3765,17521,432
1.00543,9.411297,-1036,28570,26.2271,17521,432
0.585938,8.635989,-1035,28571,26.2271,17521,432
1.46484,8.429925,-1034,28572,26.3765,17521,432
1.5807,9.236295,-1033,28573,26.5756,17495,367
2.00612,10.16341,-1032,28574,26.1773,17495,367
0.834375,10.77819,-1031,28575,26.6752,17495,367
1.65152,11.48045,-1030,28576,26.5258,17495,367
1.62239,12.22045,-1029,28577,26.3267,17495,367
1.4219,12.58982,-1028,28578,26.3765,17495,367
2.06237,11.9523,-1027,28579,26.2271,17495,367
2.14399,11.06808,-1026,28580,26.3267,17495,367
0.981433,10.29162,-1025,28581,26.3267,17495,367
2.02269,10.03133,-1024,28582,26.5258,17495,367
0.884315,9.472845,-1023,28583,26.6752,17525,283
1.24296,9.239521,-1022,28584,26.3765,17525,283
0.946812,8.954504,-1021,28585,26.3765,17525,283
1.5807,8.915312,-1020,28586,26.2271,17525,283
1.14304,9.191011,-1019,28587,26.3267,17525,283
1.71942,9.771727,-1018,28588,26.3765,17525,283
1.52856,10.13478,-1017,28589,26.3765,17525,283
1.39822,10.6117,-1016,28590,26.3765,17525,283
1.51603,10.93262,-1015,28591,26.1773,17525,283
2.05543,10.81821,-1014,28592,26.5258,17525,283
1.32827,10.47389,-1013,28593,26.5258,17519,332
1.60168,10.07284,-1012,28594,26.476,17519,332
0.534885,9.546492,-1011,28595,26.3267,17519,332
1.46484,8.846519,-1010,28596,26.3267,17519,332
1.38452,8.331243,-1009,28597,26.5258,17519,332
1.40163,8.025137,-1008,28598,26.5258,17519,332
1.52856,8.112856,-1007,28599,26.3765,17519,332
0.995902,8.290902,-1006,28600,26.2271,17519,332
0.497951,8.574516,-1005,28601,26.3267,17519,332
1.38452,8.769543,-1004,28602,26.3267,17519,332
2.10358,9.135721,-1003,28603,26.3765,17523,393
1.08306,9.50974,-1002,28604,26.5756,17523,393
1.09619,9.347749,-1001,28605,26.3267,17523,393
1.68298,9.109587,-1000,28606,26.3765,17523,393
1.94824,8.952008,-999,28607,26.3765,17523,393
0.447517,8.695314,-998,28608,26.3765,17523,393
1.46484,8.698741,-997,28609,26.3765,17523,393
1.63702,8.564083,-996,28610,26.5756,17523,393
1.74966,8.818682,-995,28611,26.3765,17523,393
0.76272,8.777187,-994,28612,26.1773,17523,393
1.1472,8.735493,-993,28613,26.476,17523,424
1.70549,8.871749,-992,28614,26.5258,17523,424
1.88099,9.107133,-991,28615,26.6752,17523,424
1.82437,9.122663,-990,28616,26.3267,17523,424
0.862477,8.778035,-989,28617,26.3267,17523,424
0.41432,8.790758,-988,28618,26.3267,17523,424
1.63702,8.416657,-987,28619,26.476,17523,424
1.27702,7.400119,-986,28620,26.5258,17523,424
1.52231,6.574821,-985,28621,26.1773,17523,424
1.68298,6.302896,-984,28622,26.3267,17523,424
1.45176,6.256625,-983,28623,26.3267,17523,265
1.48103,5.997616,-982,28624,26.3765,17523,265
1.57769,5.851741,-981,28625,26.5258,17523,265
1.43525,5.830056,-980,28626,26.3267,17523,265
1.70829,6.102295,-979,28627,26.3765,17523,265
1.01487,6.653672,-978,28628,26.3267,17523,265
1.87592,6.841385,-977,28629,26.5258,17523,265
0.799351,6.894542,-976,28630,26.3267,17523,265
0.560992,6.975119,-975,28631,26.3765,17523,265
1.89614,7.0368,-974,28632,26.5756,17523,265
1.92856,7.590968,-973,28633,26.2271,17527,303
1.71108,7.928934,-972,28634,26.1773,17527,303
1.4118,8.225945,-971,28635,26.3267,17527,303
1.66303,8.480154,-970,28636,26.5258,17527,303
1.50022,8.632538,-969,28637,26.3765,17527,303
1.38452,9.043919,-968,28638,26.3267,17527,303
1.78206,9.658994,-967,28639,26.2271,17527,303
1.23912,10.01721,-966,28640,26.3765,17527,303
1.70829,10.08688,-965,28641,26.476,17527,303
1.54099,10.34433,-964,28642,26.5258,17527,303
2.0716,10.5892,-963,28643,26.5258,17525,431
0.931581,10.56666,-962,28644,26.5258,17525,431
1.51603,10.83198,-961,28645,26.3267,17525,431
1.36019,11.19924,-960,28646,26.2271,17525,431
1.48103,11.42581,-959,28647,26.3267,17525,431
1.67446,11.61466,-958,28648,26.5258,17525,431
2.10585,12.18382,-957,28649,26.3267,17525,431
1.62532,12.41402,-956,28650,26.2271,17525,431
2.13954,12.30551,-955,28651,26.2271,17525,431
1.80334,12.41822,-954,28652,26.3765,17525,431
1.40163,13.07578,-953,28653,26.1773,17526,399
1.70829,13.6375,-952,28654,26.3765,17526,399
1.57769,14.05771,-951,28655,26.3765,17526,399
1.37067,14.02162,-950,28656,26.1773,17526,399
1.73047,14.06566,-949,28657,26.3765,17526,399
1.71386,14.40119,-948,28658,26.3267,17526,399
1.60168,14.42032,-947,28659,26.1773,17526,399
1.04725,14.62961,-946,28660,26.2271,17526,399
1.70829,14.21215,-945,28661,26.5258,17526,399
1.69146,14.08048,-944,28662,26.5258,17526,399
1.4681,14.03384,-943,28663,26.3765,17523,434
1.01956,14.01365,-942,28664,26.5258,17523,434
0.921287,13.84355,-941,28665,26.476,17523,434
1.66016,13.74362,-940,28666,26.3267,17523,434
1.49385,13.65715,-939,28667,26.3267,17523,434
1.86827,13.29502,-938,28668,26.2271,17523,434
1.94088,12.85279,-937,28669,26.3267,17523,434
1.33185,12.62056,-936,28670,26.3765,17523,434
1.33185,12.20032,-935,28671,26.3765,17523,434
2.45115,11.5012,-934,28672,26.3765,17523,434
2.33151,10.94352,-933,28673,26.476,17521,273
1.45176,10.58991,-932,28674,26.3765,17521,273
1.44188,10.243,-931,28675,26.3267,17521,273
2.31303,10.25173,-930,28676,26.3765,17521,273
1.34255,10.03356,-929,28677,26.3765,17521,273
2.11263,10.05284,-928,28678,26.3267,17521,273
1.74693,9.965006,-927,28679,26.3267,17521,273
1.86827,10.31909,-926,28680,26.1773,17521,273
0.921287,10.43255,-925,28681,26.5258,17521,273
1.88099,10.01274,-924,28682,26.3765,17521,273
1.56555,9.751882,-923,28683,26.476,17522,364
1.28817,9.469698,-922,28684,26.5258,17522,364
1.68298,9.188579,-921,28685,26.5258,17522,364
1.57769,8.806846,-920,28686,26.5258,17522,364
2.0156,8.492445,-919,28687,26.3765,17522,364
1.41517,8.466964,-918,28688,26.2271,17522,364
0.889691,8.462563,-917,28689,26.5258,17522,364
1.89362,8.577123,-916,28690,26.1773,17522,364
1.02423,9.215298,-915,28691,26.2271,17522,364
2.44531,9.122663,-914,28692,26.5756,17522,364
1.17594,8.857461,-913,28693,26.3765,17494,378
1.76323,8.916984,-912,28694,26.3765,17494,378
1.84774,8.891044,-911,28695,26.3267,17494,378
2.5353,8.847361,-910,28696,26.5258,17494,378
0.793363,8.760193,-909,28697,26.3267,17494,378
1.01956,8.455517,-908,28698,26.1773,17494,378
1.94579,7.802957,-907,28699,26.3765,17494,378
1.77132,6.740448,-906,28700,26.476,17494,378
1.88858,5.690362,-905,28701,26.3267,17494,378
1.74966,4.528134,-904,28702,26.3765,17494,378
1.34255,4.146799,-903,28703,26.3765,17523,381
0.534885,4.463502,-902,28704,26.5258,17523,381
2.91827,4.773246,-901,28705,26.6752,17523,381
1.60168,4.970526,-900,28706,26.5258,17523,381
1.05631,5.359985,-899,28707,26.5258,17523,381
1.74966,5.726906,-898,28708,26.2271,17523,381
1.57769,6.334732,-897,28709,26.5258,17523,381
1.64283,6.682723,-896,28710,26.5258,17523,381
1.40163,6.624494,-895,28711,26.2271,17523,381
1.39139,6.211208,-894,28712,26.3765,17523,381
0.961803,5.962732,-893,28713,26.476,17520,462
1.19205,6.05326,-892,28714,26.3267,17520,462
1.54099,5.991402,-891,28715,26.2271,17520,462
1.20794,6.027357,-890,28716,26.5258,17520,462
2.18584,5.865729,-889,28717,26.3267,17520,462
1.78473,5.855559,-888,28718,26.1276,17520,462
1.01016,6.302896,-887,28719,26.3267,17520,462
1.94088,6.34883,-886,28720,26.2271,17520,462
1.74693,6.268522,-885,28721,26.3267,17520,462
0.966748,6.335908,-884,28722,26.3765,17520,462
1.61945,5.993889,-883,28723,26.3765,17525,277
1.09183,5.491808,-882,28724,26.028,17525,277
1.70829,4.830654,-881,28725,26.3765,17525,277
0.905627,4.315837,-880,28726,26.2271,17525,277
1.66589,3.696534,-879,28727,26.3765,17525,277
1.84257,3.64784,-878,28728,26.3267,17525,277
0.921287,3.36746,-877,28729,26.1773,17525,277
1.60168,3.211169,-876,28730,26.5258,17525,277
1.23912,2.962564,-875,28731,26.3267,17525,277
0.961803,3.356379,-874,28732,26.3267,17525,277
1.02423,3.678349,-873,28733,26.6752,17519,322
1.78473,3.833086,-872,28734,26.3267,17519,322
0.552427,4.458492,-871,28735,26.5258,17519,322
1.77938,5.306901,-870,28736,26.3267,17519,322
2.48592,6.416534,-869,28737,26.3765,17519,322
1.38452,7.608614,-868,28738,26.476,17519,322
2.41193,8.430809,-867,28739,26.3765,17519,322
1.9942,9.348546,-866,28740,26.3267,17519,322
1.70549,10.43398,-865,28741,26.3765,17519,322
1.48103,11.20988,-864,28742,26.3267,17519,322
1.42525,12.32668,-863,28743,26.6752,17517,395
0.683594,12.68181,-862,28744,26.3267,17517,395
2.26091,13.05696,-861,28745,26.1773,17517,395
1.56859,13.42884,-860,28746,26.3267,17517,395
1.71664,13.4133,-859,28747,26.3267,17517,395
1.90617,13.29782,-858,28748,26.3267,17517,395
1.84257,12.96764,-857,28749,26.5258,17517,395
2.27352,12.30491,-856,28750,26.5756,17517,395
1.24296,11.88165,-855,28751,26.3765,17517,395
0.534885,11.79669,-854,28752,26.3765,17517,395
1.97498,12.12497,-853,28753,26.1773,17552,433
1.3029,12.41402,-852,28754,26.2271,17552,433
2.2819,12.7334,-851,28755,26.3765,17552,433
1.80334,13.1932,-850,28756,26.2271,17552,433
1.48103,13.67514,-849,28757,26.5756,17552,433
0.676582,14.46057,-848,28758,26.3267,17552,433
0.402647,14.79823,-847,28759,26.3765,17552,433
1.89614,15.28221,-846,28760,26.5258,17552,433
1.66303,15.19469,-845,28761,26.2271,17552,433
1.61945,15.31532,-844,28762,26.1773,17552,433
1.51917,15.4548,-843,28763,26.3267,17524,280
2.15287,15.32894,-842,28764,26.3765,17524,280
1.19604,14.26813,-841,28765,26.3765,17524,280
1.15548,13.45766,-840,28766,26.1773,17524,280
1.59273,12.76262,-839,28767,26.3765,17524,280
1.45505,12.34179,-838,28768,26.476,17524,280
1.20399,12.11575,-837,28769,26.5258,17524,280
1.50022,11.97223,-836,28770,26.3765,17524,280
1.4681,11.48045,-835,28771,26.3765,17524,280
1.05179,11.39446,-834,28772,26.5258,17524,280
1.34255,11.2039,-833,28773,26.3267,17526,296
1.33185,10.43469,-832,28774,26.2271,17526,296
1.93596,8.320504,-831,28775,26.1773,17526,296
1.64863,6.218401,-830,28776,26.5756,17526,296
1.53168,5.267444,-829,28777,26.476,17526,296
1.57466,6.758111,-828,28778,26.6752,17526,296
1.73047,8.891044,-827,28779,26.2271,17526,296
1.65152,8.742314,-826,28780,26.3765,17526,296
1.21188,7.660338,-825,28781,26.3267,17526,296
1.94088,6.58388,-824,28782,26.3267,17526,296
1.70549,5.892343,-823,28783,26.3267,17526,296
0.889691,5.368319,-822,28784,26.3267,17526,296
2.01087,5.884751,-821,28785,26.3267,17526,296
0.577742,6.741553,-820,28786,26.5258,17526,296
2.2944,7.227965,-819,28787,26.3267,17526,296
1.13045,7.140852,-818,28788,26.1773,17526,296
1.54717,6.553255,-817,28789,26.2271,17526,296
0.966748,5.426297,-816,28790,26.5258,17526,296
1.78206,4.483488,-815,28791,26.5258,17526,296
1.20399,4.130597,-814,28792,26.5258,17526,296
1.43857,4.094363,-813,28793,26.3765,17518,351
1.31745,4.195029,-812,28794,26.3765,17518,351
2.00612,4.62097,-811,28795,26.2271,17518,351
1.53168,4.239198,-810,28796,26.2271,17518,351
0.905627,3.407052,-809,28797,26.5258,17518,351
1.90116,3.102604,-808,28798,26.5258,17518,351
1.23912,3.22506,-807,28799,26.3267,17518,351
1.54717,3.478468,-806,28800,26.3765,17518,351
1.28447,3.908157,-805,28801,26.3267,17518,351
1.34255,4.355362,-804,28802,26.5258,17518,351
0.889691,4.646696,-803,28803,26.5258,17528,398
1.37067,4.861403,-802,28804,26.2271,17528,398
0.817051,4.97502,-801,28805,26.3765,17528,398
1.23526,5.151599,-800,28806,26.3267,17528,398
1.6165,5.526968,-799,28807,26.5258,17528,398
1.61059,6.06064,-798,28808,26.5258,17528,398
1.85804,6.790007,-797,28809,26.3267,17528,398
2.24609,7.482223,-796,28810,26.2271,17528,398
1.24679,8.073269,-795,28811,26.3765,17528,398
1.71108,7.995373,-794,28812,26.5258,17528,398
1.99897,7.581146,-793,28813,26.1773,17523,437
1.88858,7.237236,-792,28814,26.3267,17523,437
2.15287,6.784518,-791,28815,26.1773,17523,437
0.966748,6.594057,-790,28816,26.3765,17523,437
1.25821,6.744868,-789,28817,26.3267,17523,437
1.56555,6.985793,-788,28818,26.3267,17523,437
1.21581,7.227965,-787,28819,26.5258,17523,437
1.22752,7.227965,-786,28820,26.1773,17523,437
1.40163,7.16481,-785,28821,26.3267,17523,437
1.53168,7.215584,-784,28822,26.1773,17523,437
1.3029,7.173124,-783,28823,26.5258,17529,274
2.37809,7.35062,-782,28824,26.5258,17529,274
1.49066,7.558509,-781,28825,26.5258,17529,274
1.90617,7.965497,-780,28826,26.3765,17529,274
1.64863,8.844834,-779,28827,26.3267,17529,274
1.47781,9.834807,-778,28828,26.3267,17529,274
0.981433,10.62362,-777,28829,26.6752,17529,274
0.921287,11.64924,-776,28830,26.3765,17529,274
2.2819,12.57502,-775,28831,26.2271,17529,274
2.48784,13.2518,-774,28832,26.2271,17529,274
1.61945,13.76096,-773,28833,26.3765,17527,362
1.41517,13.84785,-772,28834,26.2271,17527,362
1.54099,13.38216,-771,28835,26.3267,17527,362
1.18804,11.84522,-770,28836,26.3765,17527,362
1.39139,10.45395,-769,28837,26.5258,17527,362
1.10916,9.043919,-768,28838,26.3267,17527,362
1.68014,7.920473,-767,28839,26.5258,17527,362
1.38452,7.507076,-766,28840,26.3267,17527,362
1.38452,7.698176,-765,28841,26.3765,17527,362
0.941763,8.190545,-764,28842,26.3765,17527,362
1.13045,8.080649,-763,28843,26.3267,17520,332
1.33185,7.700112,-762,28844,26.5258,17520,332
1.88099,7.503105,-761,28845,26.476,17520,332
1.74966,7.410181,-760,28846,26.3765,17520,332
0.737289,7.836306,-759,28847,26.1773,17520,332
2.11488,8.597945,-758,28848,26.2271,17520,332
1.51917,9.453162,-757,28849,26.5258,17520,332
1.52856,10.54973,-756,28850,26.3765,17520,332
1.73047,11.61209,-755,28851,26.3267,17520,332
1.66589,12.36109,-754,28852,26.1773,17520,332
2.0156,13.56904,-753,28853,26.3765,17531,376
1.11345,14.29995,-752,28854,26.5258,17531,376
1.62826,14.70783,-751,28855,26.476,17531,376
1.1596,14.96942,-750,28856,26.5258,17531,376
1.11345,15.02804,-749,28857,26.3765,17531,376
1.76323,15.32943,-748,28858,26.3267,17531,376
1.65152,15.18782,-747,28859,26.2271,17531,376
2.02504,15.48754,-746,28860,26.3765,17531,376
1.69708,15.8061,-745,28861,26.3765,17531,376
1.62826,15.62166,-744,28862,26.3765,17531,376
1.65152,15.50533,-743,28863,26.5756,17525,471
1.74966,15.46443,-742,28864,26.3765,17525,471
1.31383,15.42633,-741,28865,26.3267,17525,471
0.817051,15.28708,-740,28866,26.3765,17525,471
1.34255,14.60259,-739,28867,26.3267,17525,471
1.13045,13.93153,-738,28868,26.5756,17525,471
1.64863,13.47482,-737,28869,26.476,17525,471
2.48592,13.50243,-736,28870,26.5756,17525,471
1.19604,13.44825,-735,28871,26.5258,17525,471
1.05179,13.48311,-734,28872,26.3267,17525,471
1.49066,13.35318,-733,28873,26.3267,17529,280
1.37415,11.72384,-732,28874,26.3267,17529,280
0.292969,10.35873,-731,28875,26.2271,17529,280
1.55638,12.01571,-730,28876,26.5756,17529,280
0.717624,13.49691,-729,28877,26.3765,17529,280
0.750112,12.91525,-728,28878,26.3765,17529,280
1.58973,10.92239,-727,28879,26.3765,17529,280
2.17052,10.28655,-726,28880,26.2271,17529,280
1.0381,12.44938,-725,28881,26.476,17529,280
1.68863,16.27706,-724,28882,26.3267,17529,280
1.4681,19.06369,-723,28883,26.476,17528,321
1.25442,19.68552,-722,28884,26.3267,17528,321
0.365396,17.70861,-721,28885,26.3267,17528,321
1.97256,13.02268,-720,28886,26.3267,17528,321
0.85693,6.612111,-719,28887,26.5258,17528,321
1.45505,4.93442,-718,28888,26.3267,17528,321
1.33185,12.88521,-717,28889,26.3765,17528,321
1.43525,19.87198,-716,28890,26.476,17528,321
1.27702,24.39727,-715,28891,26.3765,17528,321
1.29556,26.12219,-714,28892,26.3765,17528,321
1.43525,24.64097,-713,28893,26.3267,17527,394
1.90116,21.12804,-712,28894,26.2271,17527,394
0.884315,16.092,-711,28895,26.3267,17527,394
1.26953,11.4811,-710,28896,26.3267,17527,394
1.32467,8.327665,-709,28897,26.3765,17527,394
1.40163,7.882756,-708,28898,26.3765,17527,394
1.13886,8.778884,-707,28899,26.3267,17527,394
1.94333,9.35492,-706,28900,26.3267,17527,394
1.97256,9.143058,-705,28901,26.3267,17527,394
1.15135,8.762744,-704,28902,26.2271,17527,394
1.25061,9.675949,-703,28903,26.3765,17530,445
1.40163,11.8735,-702,28904,26.5258,17530,445
0.488281,14.48888,-701,28905,26.1773,17530,445
2.27352,17.87153,-700,28906,26.1773,17530,445
2.23545,22.57839,-699,28907,26.3267,17530,445
1.55638,25.63883,-698,28908,26.3267,17530,445
1.55638,24.50909,-697,28909,26.3267,17530,445
1.73047,18.78812,-696,28910,26.3267,17530,445
1.55638,13.71812,-695,28911,26.3267,17530,445
0.743728,11.02762,-694,28912,26.476,17530,445
2.11488,11.13586,-693,28913,26.3765,17536,447
2.44921,12.24481,-692,28914,26.1773,17536,447
1.43857,13.22084,-691,28915,26.3765,17536,447
1.54408,13.16776,-690,28916,26.476,17536,447
1.68014,13.02497,-689,28917,26.2271,17536,447
1.4681,12.80808,-688,28918,26.476,17536,447
1.52856,12.83423,-687,28919,26.3267,17536,447
1.41517,13.76583,-686,28920,26.3267,17536,447
1.49385,14.96694,-685,28921,26.3765,17536,447
0.828641,15.35808,-684,28922,26.3267,17536,447
2.09222,14.91757,-683,28923,26.6752,17517,295
1.4118,14.64691,-682,28924,26.5258,17517,295
1.67161,14.79067,-681,28925,26.3267,17517,295
1.00068,15.46829,-680,28926,26.476,17517,295
1.79539,16.32186,-679,28927,26.3765,17517,295
2.05311,16.95547,-678,28928,26.3765,17517,295
0.78733,17.60438,-677,28929,26.3267,17517,295
1.70549,18.3585,-676,28930,26.1773,17517,295
1.60466,18.55268,-675,28931,26.2271,17517,295
1.94824,18.5984,-674,28932,26.3765,17517,295
1.76863,18.70745,-673,28933,26.3765,17528,350
1.44188,18.84514,-672,28934,26.3765,17528,350
1.23912,19.20853,-671,28935,26.3765,17528,350
1.45505,19.55489,-670,28936,26.5258,17528,350
1.48746,20.37441,-669,28937,26.3267,17528,350
1.84257,20.80431,-668,28938,26.3765,17528,350
1.22752,20.96875,-667,28939,26.5258,17528,350
1.67161,21.38043,-666,28940,26.5258,17528,350
1.37415,21.38461,-665,28941,26.476,17528,350
1.33185,20.82686,-664,28942,26.3765,17528,350
1.82437,19.9543,-663,28943,26.3765,17518,395
1.31383,18.89134,-662,28944,26.3765,17518,395
1.64863,17.91442,-661,28945,26.3267,17518,395
1.40163,17.22576,-660,28946,26.3765,17518,395
1.99659,16.15991,-659,28947,26.3267,17518,395
1.91864,15.25586,-658,28948,26.476,17518,395
1.45176,14.54072,-657,28949,26.3267,17518,395
2.32946,13.62657,-656,28950,26.3765,17518,395
1.60168,12.3942,-655,28951,26.3267,17518,395
1.73047,10.39893,-654,28952,26.3267,17518,395
1.65152,8.681594,-653,28953,26.5258,17524,415
1.75238,9.083377,-652,28954,26.3765,17524,415
2.18584,11.93358,-651,28955,26.2271,17524,415
1.07865,16.16591,-650,28956,26.5258,17524,415
1.56859,20.57238,-649,28957,26.3267,17524,415
1.07865,23.14158,-648,28958,26.476,17524,415
1.22752,22.22551,-647,28959,26.3765,17524,415
1.6165,18.68394,-646,28960,26.5258,17524,415
1.62239,13.77719,-645,28961,26.3765,17524,415
0.981433,9.937303,-644,28962,26.3267,17524,415
1.17998,7.44729,-643,28963,26.5258,17519,274
1.24296,7.697208,-642,28964,26.5258,17519,274
2.04146,10.29596,-641,28965,26.3267,17519,274
1.35668,12.95902,-640,28966,26.2271,17519,274
0.478416,14.65098,-639,28967,26.3765,17519,274
1.51603,15.74944,-638,28968,26.1773,17519,274
1.71386,16.11929,-637,28969,26.3765,17519,274
1.01016,16.16222,-636,28970,26.5756,17519,274
1.54099,16.27248,-635,28971,26.3765,17519,274
1.66303,15.87571,-634,28972,26.2271,17519,274
1.61059,15.32991,-633,28973,26.5258,17529,299
2.01797,14.81835,-632,28974,26.3765,17529,299
1.49385,14.76849,-631,28975,26.5258,17529,299
1.32827,14.70175,-630,28976,26.5756,17529,299
1.01956,14.42859,-629,28977,26.5258,17529,299
1.27702,14.3036,-628,28978,26.6752,17529,299
1.51917,14.01897,-627,28979,26.3765,17529,299
1.19205,14.05983,-626,28980,26.2271,17529,299
1.16371,14.66674,-625,28981,26.1773,17529,299
1.59273,15.22017,-624,28982,26.3765,17529,299
1.97739,15.85317,-623,28983,26.3765,17527,330
0.961803,16.9502,-622,28984,26.3765,17527,330
1.56859,18.16101,-621,28985,26.3267,17527,330
1.47134,19.24341,-620,28986,26.476,17527,330
1.71664,20.12273,-619,28987,26.5258,17527,330
1.89614,20.95738,-618,28988,26.3267,17527,330
2.0156,21.65914,-617,28989,26.2271,17527,330
1.82698,21.57953,-616,28990,26.3765,17527,330
1.10485,20.9826,-615,28991,26.3267,17527,330
0.900346,20.06934,-614,28992,26.3765,17527,330
0.704209,17.92647,-613,28993,26.3765,17526,362
1.68298,15.69826,-612,28994,26.3267,17526,362
1.24296,13.54155,-611,28995,26.5258,17526,362
1.40163,11.30321,-610,28996,26.1773,17526,362
1.36019,10.32631,-609,28997,26.1773,17526,362
1.13045,10.70954,-608,28998,26.3765,17526,362
1.45505,11.01274,-607,28999,26.3765,17526,362
1.19205,11.28408,-606,29000,26.3267,17526,362
1.21581,11.849,-605,29001,26.3267,17526,362
1.94824,12.68651,-604,29002,26.5258,17526,362
1.63702,13.5597,-603,29003,26.5258,17533,466
1.98461,14.4482,-602,29004,26.5756,17533,466
1.45505,14.97938,-601,29005,26.2271,17533,466
1.83998,14.73516,-600,29006,26.5258,17533,466
2.58005,14.27231,-599,29007,26.3267,17533,466
1.33185,13.2518,-598,29008,26.5258,17533,466
1.96772,12.55901,-597,29009,26.5258,17533,466
1.00068,11.67607,-596,29010,26.5258,17533,466
0.625305,10.9299,-595,29011,26.5756,17533,466
1.47781,9.78011,-594,29012,26.3765,17533,466
1.85547,8.668711,-593,29013,26.3267,17514,281
1.52544,7.639885,-592,29014,26.6752,17514,281
0.905627,7.039976,-591,29015,26.6752,17514,281
0.862477,6.804257,-590,29016,26.476,17514,281
1.67161,6.66486,-589,29017,26.3765,17514,281
1.37415,6.692749,-588,29018,26.3267,17514,281
1.89865,6.489274,-587,29019,26.3267,17514,281
1.32827,8.102747,-586,29020,26.3765,17514,281
1.85547,12.45177,-585,29021,26.1773,17514,281
1.0381,17.35675,-584,29022,26.3267,17514,281
1.72772,18.90869,-583,29023,26.5258,17541,340
1.38107,16.86427,-582,29024,26.5258,17541,340
1.17594,15.23729,-581,29025,26.3267,17541,340
1.22363,15.14951,-580,29026,26.3765,17541,340
1.61059,15.58203,-579,29027,26.2271,17541,340
0.828641,16.54942,-578,29028,26.3765,17541,340
2.33764,18.18028,-577,29029,26.5756,17541,340
1.49385,20.55752,-576,29030,26.3267,17541,340
1.53168,23.13611,-575,29031,26.3765,17541,340
1.83479,25.98378,-574,29032,26.3765,17541,340
1.3102,29.38651,-573,29033,26.3765,17505,291
1.21188,33.19303,-572,29034,26.3267,17505,291
1.88858,36.23947,-571,29035,26.3267,17505,291
1.48103,38.34893,-570,29036,26.3267,17505,291
1.40163,40.63842,-569,29037,26.3267,17505,291
1.27702,43.17149,-568,29038,26.3765,17505,291
1.99659,44.23158,-567,29039,26.3765,17505,291
1.39822,42.62649,-566,29040,26.476,17505,291
1.47134,38.38,-565,29041,26.3267,17505,291
1.02423,33.02538,-564,29042,26.3267,17505,291
1.68014,30.12269,-563,29043,26.3765,17532,388
1.73323,31.43873,-562,29044,26.028,17532,388
1.84257,34.47962,-561,29045,26.3267,17532,388
1.77938,35.80241,-560,29046,26.3267,17532,388
1.74146,35.12508,-559,29047,26.2271,17532,388
1.61059,33.40425,-558,29048,26.5756,17532,388
1.4118,31.14133,-557,29049,26.3765,17532,388
1.68863,29.52007,-556,29050,26.3267,17532,388
1.66875,29.32661,-555,29051,26.3765,17532,388
1.19604,30.61751,-554,29052,26.1773,17532,388
1.31745,32.26007,-553,29053,26.3267,17529,388
1.59273,33.16496,-552,29054,26.1773,17529,388
1.25442,33.44949,-551,29055,26.2271,17529,388
2.37809,33.45283,-550,29056,26.3765,17529,388
1.10916,33.01996,-549,29057,26.3267,17529,388
1.34255,32.56098,-548,29058,26.3267,17529,388
1.47781,32.52939,-547,29059,26.3267,17529,388
1.4219,32.38408,-546,29060,26.3267,17529,388
1.36019,32.08313,-545,29061,26.476,17529,388
2.04146,31.71691,-544,29062,26.476,17529,388
1.13045,31.41692,-543,29063,26.476,17529,458
1.78473,31.06899,-542,29064,26.3765,17529,458
1.47134,30.84637,-541,29065,26.3267,17529,458
0.845728,30.52563,-540,29066,26.5258,17529,458
1.23912,29.53118,-539,29067,26.3765,17529,458
1.08306,27.73146,-538,29068,26.5258,17529,458
1.36019,25.04495,-537,29069,26.2271,17529,458
1.79273,22.26269,-536,29070,26.3267,17529,458
1.6341,20.04371,-535,29071,26.3267,17529,458
1.27702,18.58197,-534,29072,26.3765,17529,458
1.11773,18.1606,-533,29073,26.476,17531,276
1.37067,17.65974,-532,29074,26.5258,17531,276
1.95556,16.49621,-531,29075,26.5258,17531,276
2.25034,15.69826,-530,29076,26.476,17531,276
1.34255,14.75082,-529,29077,26.3765,17531,276
1.55638,14.3317,-528,29078,26.3267,17531,276
1.45505,14.08736,-527,29079,26.476,17531,276
0.478416,13.81392,-526,29080,26.3267,17531,276
0.78733,13.82847,-525,29081,26.476,17531,276
0.941763,14.87506,-524,29082,26.1773,17531,276
1.20399,16.08644,-523,29083,26.5756,17528,331
1.38452,16.86559,-522,29084,26.3765,17528,331
1.01956,17.43427,-521,29085,26.3765,17528,331
1.27702,17.74476,-520,29086,26.476,17528,331
1.72772,17.8832,-519,29087,26.3765,17528,331
0.805294,17.69177,-518,29088,26.5258,17528,331
1.4118,17.50933,-517,29089,26.3765,17528,331
1.39481,17.4616,-516,29090,26.3267,17528,331
1.37415,17.79047,-515,29091,26.3267,17528,331
1.83739,18.49033,-514,29092,26.3765,17528,331
1.54099,19.86936,-513,29093,26.3267,17528,386
1.06977,21.33438,-512,29094,26.3765,17528,386
1.83739,22.72935,-511,29095,26.3267,17528,386
1.96529,23.6057,-510,29096,26.5258,17528,386
1.64863,24.3303,-509,29097,26.3267,17528,386
2.13284,24.86462,-508,29098,26.3765,17528,386
1.19604,25.33657,-507,29099,26.3765,17528,386
1.96044,25.98808,-506,29100,26.3267,17528,386
1.3461,26.9145,-505,29101,26.476,17528,386
1.48103,28.19745,-504,29102,26.1773,17528,386
2.03209,29.56119,-503,29103,26.5258,17549,420
0.884315,31.56904,-502,29104,26.3765,17549,420
1.3102,33.37524,-501,29105,26.3765,17549,420
1.53168,35.14671,-500,29106,26.3267,17549,420
1.62826,36.52555,-499,29107,26.1773,17549,420
1.38107,37.86246,-498,29108,26.5258,17549,420
2.03209,39.5843,-497,29109,26.2271,17549,420
0.926449,41.41081,-496,29110,26.1773,17549,420
1.76323,42.85798,-495,29111,26.3267,17549,420
2.03209,44.17883,-494,29112,26.3267,17549,420
1.60168,45.80126,-493,29113,26.476,17526,374
1.27328,47.38467,-492,29114,26.3267,17526,374
1.62532,49.89616,-491,29115,26.2271,17526,374
2.41983,54.63748,-490,29116,26.5258,17526,374
1.10916,66.00427,-489,29117,26.476,17526,374
1.45176,80.40969,-488,29118,26.2271,17526,374
1.47781,72.81758,-487,29119,26.3765,17526,374
1.34255,52.61797,-486,29120,26.5258,17526,374
1.28447,49.36684,-485,29121,26.3267,17526,374
1.85547,55.78947,-484,29122,26.3267,17526,374
1.28817,63.03345,-483,29123,26.1773,17521,314
0.85693,62.93598,-482,29124,26.5258,17521,314
1.56859,60.79065,-481,29125,26.1773,17521,314
1.85804,63.92791,-480,29126,26.2271,17521,314
1.54099,70.51756,-479,29127,26.3267,17521,314
1.40163,73.2369,-478,29128,26.5258,17521,314
1.33543,70.99583,-477,29129,26.476,17521,314
1.64283,70.27646,-476,29130,26.1773,17521,314
1.4681,72.92575,-475,29131,26.3267,17521,314
1.45176,73.97874,-474,29132,26.5756,17521,314
1.15548,71.54497,-473,29133,26.476,17525,341
1.10916,69.16746,-472,29134,26.2271,17525,341
1.55638,69.60031,-471,29135,26.5258,17525,341
1.45505,71.16752,-470,29136,26.5258,17525,341
2.22691,71.54674,-469,29137,26.3765,17525,341
1.62239,71.49299,-468,29138,26.3267,17525,341
1.43525,72.1927,-467,29139,26.3267,17525,341
1.38452,74.44778,-466,29140,26.5258,17525,341
1.27702,76.99512,-465,29141,26.3765,17525,341
1.17998,78.96081,-464,29142,26.3267,17525,341
1.27702,80.52802,-463,29143,26.3765,17557,386
2.28607,82.30581,-462,29144,26.476,17557,386
1.15548,83.44932,-461,29145,26.1773,17557,386
2.23759,83.54587,-460,29146,26.5258,17557,386
1.24679,83.50537,-459,29147,26.3267,17557,386
1.06082,83.82365,-458,29148,26.476,17557,386
1.97498,84.08066,-457,29149,26.3765,17557,386
1.75781,84.19826,-456,29150,26.3267,17557,386
1.27328,84.73808,-455,29151,26.3267,17557,386
1.17594,85.70223,-454,29152,26.476,17557,386
2.52021,86.75292,-453,29153,26.3267,17519,441
1.02423,87.39118,-452,29154,26.3267,17519,441
1.20794,87.73459,-451,29155,26.3267,17519,441
0.811194,88.34062,-450,29156,26.3267,17519,441
1.37415,88.88102,-449,29157,26.5258,17519,441
1.15548,89.77141,-448,29158,26.3267,17519,441
1.71108,90.43927,-447,29159,26.5258,17519,441
1.32827,91.29692,-446,29160,26.476,17519,441
1.81651,92.27829,-445,29161,26.1773,17519,441
0.577742,92.85805,-444,29162,26.5258,17519,441
2.41983,92.7642,-443,29163,26.3267,17516,274
1.57769,91.95971,-442,29164,26.5258,17516,274
1.42859,91.34792,-441,29165,26.3765,17516,274
1.26577,91.1096,-440,29166,26.1773,17516,274
2.20539,90.87157,-439,29167,26.3267,17516,274
1.17188,90.969,-438,29168,26.476,17516,274
1.45176,91.15081,-437,29169,26.3267,17516,274
2.02269,91.31945,-436,29170,26.1773,17516,274
1.60466,91.72875,-435,29171,26.5258,17516,274
1.93842,91.7242,-434,29172,26.5258,17516,274
0.458048,91.10601,-433,29173,26.3267,17524,339
1.48103,89.79489,-432,29174,26.3267,17524,339
1.7767,88.18015,-431,29175,26.3765,17524,339
1.73047,86.48206,-430,29176,26.5258,17524,339
1.49385,84.93787,-429,29177,26.3267,17524,339
1.46484,84.0664,-428,29178,26.3267,17524,339
1.53789,82.84726,-427,29179,26.3765,17524,339
1.82437,81.66723,-426,29180,26.5258,17524,339
1.39822,80.7886,-425,29181,26.3267,17524,339
1.32827,80.27541,-424,29182,26.1773,17524,339
1.43525,79.40728,-423,29183,26.3765,17520,273
1.38107,78.43519,-422,29184,26.3765,17520,273
0.966748,77.12806,-421,29185,26.3765,17520,273
0.697405,76.01727,-420,29186,26.3765,17520,273
0.768946,75.04644,-419,29187,26.1773,17520,273
1.52856,74.18883,-418,29188,26.3267,17520,273
0.793363,73.08842,-417,29189,26.5756,17520,273
1.41854,72.5677,-416,29190,26.3765,17520,273
1.89865,72.50545,-415,29191,26.2271,17520,273
1.80598,72.45045,-414,29192,26.3267,17520,273
2.20323,72.58381,-413,29193,26.2271,17514,392
1.89362,72.79332,-412,29194,26.3267,17514,392
1.49385,73.63754,-411,29195,26.3267,17514,392
1.14304,74.16362,-410,29196,26.5258,17514,392
2.19672,74.55189,-409,29197,26.1773,17514,392
2.19889,74.37419,-408,29198,26.3267,17514,392
1.37067,74.14463,-407,29199,26.3765,17514,392
1.74966,73.39858,-406,29200,26.3765,17514,392
1.08306,72.60331,-405,29201,26.3267,17514,392
1.02423,71.59307,-404,29202,26.476,17514,392
1.3029,70.93651,-403,29203,26.3765,17518,462
1.57163,70.45361,-402,29204,26.3267,17518,462
1.38107,69.97888,-401,29205,26.3765,17518,462
0.905627,69.31337,-400,29206,26.3267,17518,462
1.68298,69.28875,-399,29207,26.3765,17518,462
1.80334,69.59357,-398,29208,26.476,17518,462
1.96529,69.65125,-397,29209,26.476,17518,462
1.21188,68.97826,-396,29210,26.3765,17518,462
1.47134,68.68676,-395,29211,26.1773,17518,462
2.32126,68.87233,-394,29212,26.5258,17518,462
0.926449,69.21602,-393,29213,26.2271,17481,277
2.16171,69.65681,-392,29214,26.5258,17481,277
2.42376,69.99016,-391,29215,26.3267,17481,277
1.31745,70.61385,-390,29216,26.6752,17481,277
1.17998,71.12186,-389,29217,26.3267,17481,277
0.905627,71.6954,-388,29218,26.5756,17481,277
1.4118,72.21468,-387,29219,26.5258,17481,277
1.68863,72.44325,-386,29220,26.1773,17481,277
1.74966,72.6545,-385,29221,26.3267,17481,277
1.04268,72.63861,-384,29222,26.3267,17481,277
1.23912,72.38214,-383,29223,26.3267,17523,337
0.76272,71.91433,-382,29224,26.2271,17523,337
1.3029,71.82186,-381,29225,26.3765,17523,337
1.57466,71.81947,-380,29226,26.2271,17523,337
1.90617,71.40331,-379,29227,26.3765,17523,337
0.981433,70.80278,-378,29228,26.3267,17523,337
0.525895,69.71636,-377,29229,26.2271,17523,337
2.11488,68.50766,-376,29230,26.3267,17523,337
1.58673,67.42935,-375,29231,26.476,17523,337
1.34255,66.47566,-374,29232,26.2271,17523,337
1.48103,65.6399,-373,29233,26.3765,17524,288
0.625305,65.23102,-372,29234,26.3765,17524,288
2.02033,65.06806,-371,29235,26.5258,17524,288
2.27772,65.12265,-370,29236,26.6752,17524,288
1.06977,64.92374,-369,29237,26.3765,17524,288
1.44188,64.47208,-368,29238,26.6752,17524,288
1.94088,64.25712,-367,29239,26.5258,17524,288
1.70829,64.39357,-366,29240,26.476,17524,288
1.15135,64.78335,-365,29241,26.1773,17524,288
0.601994,65.34423,-364,29242,26.476,17524,288
1.79273,65.8422,-363,29243,26.3267,17526,428
1.90867,66.14094,-362,29244,26.2271,17526,428
1.81125,66.79031,-361,29245,26.3267,17526,428
0.961803,67.66374,-360,29246,26.3765,17526,428
0.981433,68.19853,-359,29247,26.3765,17526,428
1.43857,69.16433,-358,29248,26.5258,17526,428
1.62826,69.74489,-357,29249,26.5258,17526,428
1.4118,69.84822,-356,29250,26.3267,17526,428
2.15287,69.49854,-355,29251,26.3267,17526,428
1.33185,68.54506,-354,29252,26.3765,17526,428
2.1771,67.60282,-353,29253,26.5756,17538,447
2.14399,66.20556,-352,29254,26.3267,17538,447
1.07865,64.97329,-351,29255,26.2271,17538,447
1.958,64.6536,-350,29256,26.3765,17538,447
1.42859,64.20956,-349,29257,26.1773,17538,447
1.79539,63.95704,-348,29258,26.3267,17538,447
1.94579,63.90728,-347,29259,26.2271,17538,447
1.17594,64.61084,-346,29260,26.2271,17538,447
1.6165,64.75401,-345,29261,26.3267,17538,447
1.37415,64.73744,-344,29262,26.3765,17538,447
1.71386,65.74005,-343,29263,26.028,17543,292
1.22752,67.01215,-342,29264,26.5258,17543,292
2.0693,67.66792,-341,29265,26.3267,17543,292
1.51603,67.90775,-340,29266,26.3267,17543,292
1.73047,68.90337,-339,29267,26.5258,17543,292
1.65152,69.90505,-338,29268,26.476,17543,292
2.02975,71.21775,-337,29269,26.5258,17543,292
1.8529,72.51901,-336,29270,26.3267,17543,292
1.76052,74.36176,-335,29271,26.5756,17543,292
1.52544,76.10484,-334,29272,26.3765,17543,292
1.54408,77.9435,-333,29273,26.5258,17540,342
1.56555,80.01567,-332,29274,26.5756,17540,342
1.48103,81.94083,-331,29275,26.3267,17540,342
1.83479,84.23082,-330,29276,26.5258,17540,342
1.57466,85.3756,-329,29277,26.3267,17540,342
1.38796,86.09116,-328,29278,26.3765,17540,342
2.09222,86.63802,-327,29279,26.3267,17540,342
1.53168,87.17949,-326,29280,26.3765,17540,342
1.82437,87.8997,-325,29281,26.3267,17540,342
0.534885,89.56909,-324,29282,26.3765,17540,342
1.71386,91.93742,-323,29283,26.3267,17544,293
1.56555,94.63536,-322,29284,26.5258,17544,293
1.54717,97.71216,-321,29285,26.1773,17544,293
1.39822,99.77365,-320,29286,26.6752,17544,293
1.23912,102.5944,-319,29287,26.3267,17544,293
1.87592,105.2542,-318,29288,26.5756,17544,293
1.61945,106.996,-317,29289,26.2271,17544,293
1.31383,109.1195,-316,29290,26.3765,17544,293
0.793363,110.551,-315,29291,26.5258,17544,293
1.95556,111.4954,-314,29292,26.3267,17544,293
2.34578,112.2483,-313,29293,26.3267,17545,422
2.02269,111.8703,-312,29294,26.6752,17545,422
0.862477,112.9596,-311,29295,26.3765,17545,422
1.40163,116.4571,-310,29296,26.476,17545,422
1.47781,113.6621,-309,29297,26.5258,17545,422
2.43554,112.5971,-308,29298,26.3267,17545,422
1.3102,112.5045,-307,29299,26.3765,17545,422
1.36019,113.0107,-306,29300,26.3765,17545,422
1.62826,112.0665,-305,29301,26.5258,17545,422
1.5807,109.8507,-304,29302,26.3267,17545,422
2.08079,108.9574,-303,29303,26.3765,17548,366
0.447517,108.9017,-302,29304,26.3765,17548,366
1.84257,107.6844,-301,29305,26.3765,17548,366
2.2944,105.3077,-300,29306,26.5258,17548,366
2.21832,103.2121,-299,29307,26.5756,17548,366
1.69708,102.0824,-298,29308,26.3267,17548,366
1.10916,100.9471,-297,29309,26.3765,17548,366
1.24296,99.78888,-296,29310,26.3267,17548,366
1.05631,98.47844,-295,29311,26.3267,17548,366
0.717624,97.15056,-294,29312,26.3267,17548,366
1.31383,96.13469,-293,29313,26.3765,17555,322
2.29856,94.3879,-292,29314,26.2271,17555,322
1.91864,91.90962,-291,29315,26.3267,17555,322
1.43525,89.9225,-290,29316,26.3765,17555,322
1.25442,88.57806,-289,29317,26.5258,17555,322
1.92112,86.82366,-288,29318,26.3267,17555,322
1.31745,84.70105,-287,29319,26.2271,17555,322
1.93596,82.32835,-286,29320,26.3765,17555,322
0.981433,79.9184,-285,29321,26.1773,17555,322
0.710948,77.89741,-284,29322,26.3267,17555,322
0.577742,75.93107,-283,29323,26.5258,17553,339
1.13045,73.12032,-282,29324,26.3765,17553,339
1.71108,70.70327,-281,29325,26.3267,17553,339
1.09619,68.9158,-280,29326,26.2271,17553,339
1.66303,67.25011,-279,29327,26.3267,17553,339
1.27328,65.94791,-278,29328,26.476,17553,339
1.23912,65.04366,-277,29329,26.3765,17553,339
0.601994,64.23242,-276,29330,26.3267,17553,339
1.01487,63.60262,-275,29331,26.3267,17553,339
1.12623,62.46959,-274,29332,26.3267,17553,339
1.87592,61.46552,-273,29333,26.3267,17553,339
1.54717,60.46129,-272,29334,26.6752,17553,339
1.1472,59.37802,-271,29335,26.3267,17553,339
1.56555,58.4569,-270,29336,26.5756,17553,339
1.9335,57.64343,-269,29337,26.3765,17553,339
2.18148,57.28844,-268,29338,26.3267,17553,339
1.53789,56.74497,-267,29339,26.5756,17553,339
1.57466,56.22342,-266,29340,26.3765,17553,339
1.92608,56.04463,-265,29341,26.3267,17553,339
1.16371,56.32616,-264,29342,26.3765,17553,339
0.805294,56.8448,-263,29343,26.3267,17559,368
1.66016,57.02996,-262,29344,26.5258,17559,368
1.53168,57.763,-261,29345,26.2271,17559,368
0.750112,58.83169,-260,29346,26.3765,17559,368
0.931581,59.93851,-259,29347,26.2271,17559,368
1.33185,61.05969,-258,29348,26.476,17559,368
1.13045,62.24437,-257,29349,26.5258,17559,368
1.58673,63.67754,-256,29350,26.2271,17559,368
1.28447,65.30499,-255,29351,26.3765,17559,368
2.38009,67.37065,-254,29352,26.3267,17559,368
1.3637,70.14817,-253,29353,26.1276,17571,433
1.40163,72.91298,-252,29354,26.1773,17571,433
1.76863,75.41664,-251,29355,26.3267,17571,433
0.76272,78.0647,-250,29356,26.3267,17571,433
1.6165,80.43933,-249,29357,26.2271,17571,433
1.16371,82.65395,-248,29358,26.5258,17571,433
1.22363,84.23559,-247,29359,26.5258,17571,433
1.86572,84.5119,-246,29360,26.5258,17571,433
1.52856,84.36834,-245,29361,26.3765,17571,433
0.577742,84.05337,-244,29362,26.2271,17571,433
2.0156,83.43977,-243,29363,26.3267,17573,355
1.63993,82.3697,-242,29364,26.3267,17573,355
1.81125,81.82809,-241,29365,26.3765,17573,355
1.66016,82.15704,-240,29366,26.3267,17573,355
1.9918,82.95116,-239,29367,26.3267,17573,355
0.971667,84.46569,-238,29368,26.3267,17573,355
1.10485,86.48516,-237,29369,26.5756,17573,355
1.41854,89.50018,-236,29370,26.3267,17573,355
1.30655,93.0561,-235,29371,26.3267,17573,355
1.44518,96.72846,-234,29372,26.476,17573,355
2.02269,99.96634,-233,29373,26.5258,17583,341
1.71664,102.6899,-232,29374,26.3267,17583,341
1.42525,104.8547,-231,29375,26.2271,17583,341
1.85804,106.5178,-230,29376,26.5258,17583,341
1.29923,107.5858,-229,29377,26.5258,17583,341
2.40203,108.4306,-228,29378,26.3267,17583,341
1.42525,109.4187,-227,29379,26.3765,17583,341
0.710948,110.6183,-226,29380,26.3267,17583,341
2.01324,111.8003,-225,29381,26.2271,17583,341
1.73047,112.9889,-224,29382,26.476,17583,341
0.840071,114.1073,-223,29383,26.2271,17571,288
1.22363,115.2739,-222,29384,26.2271,17571,288
0.617632,116.6181,-221,29385,26.476,17571,288
1.66303,118.6868,-220,29386,26.3267,17571,288
1.57163,122.0768,-219,29387,26.3765,17571,288
1.75781,127.0853,-218,29388,26.2271,17571,288
1.69708,133.466,-217,29389,26.5258,17571,288
1.46484,140.866,-216,29390,26.1773,17571,288
1.47458,149.2078,-215,29391,26.3267,17571,288
1.3461,152.4256,-214,29392,26.2271,17571,288
0.976563,145.226,-213,29393,26.476,17609,358
0.710948,132.1904,-212,29394,26.476,17609,358
1.75238,118.1172,-211,29395,26.2271,17609,358
1.52544,105.8482,-210,29396,26.2271,17609,358
0.889691,98.4963,-209,29397,26.2271,17609,358
1.37067,90.34985,-208,29398,26.5258,17609,358
1.05179,81.40662,-207,29399,26.3267,17609,358
1.10916,81.20144,-206,29400,26.3267,17609,358
1.10916,89.44106,-205,29401,26.3267,17609,358
1.17998,102.1341,-204,29402,26.3765,17609,358
0.840071,119.5637,-203,29403,26.5258,17631,414
0.352105,136.6545,-202,29404,26.3267,17631,414
0.768946,146.9054,-201,29405,26.3765,17631,414
1.26953,145.3495,-200,29406,26.3765,17631,414
0.676582,131.5955,-199,29407,26.3765,17631,414
0.834375,115.6508,-198,29408,26.3267,17631,414
1.44188,102.2875,-197,29409,26.2271,17631,414
1.08306,91.71048,-196,29410,26.3267,17631,414
1.17998,85.76723,-195,29411,26.5258,17631,414
1.36019,84.0905,-194,29412,26.3765,17631,414
0.655098,84.16489,-193,29413,26.5258,17656,279
1.60168,82.37259,-192,29414,26.3765,17656,279
0.905627,78.68651,-191,29415,26.3267,17656,279
1.52856,75.24345,-190,29416,26.3765,17656,279
1.21581,75.04098,-189,29417,26.5258,17656,279
2.12837,79.16521,-188,29418,26.476,17656,279
1.3102,82.33079,-187,29419,26.5258,17656,279
0.921287,81.96028,-186,29420,26.3267,17656,279
1.00543,81.41028,-185,29421,26.3267,17656,279
1.8529,82.98717,-184,29422,26.5258,17656,279
1.42859,83.26904,-183,29423,26.3267,17693,333
0.697405,76.85691,-182,29424,26.3267,17693,333
1.83479,65.93616,-181,29425,26.3267,17693,333
1.97498,59.30821,-180,29426,26.3267,17693,333
1.28447,57.43548,-179,29427,26.3765,17693,333
1.958,56.41049,-178,29428,26.2271,17693,333
1.91615,56.74642,-177,29429,26.5258,17693,333
1.62239,57.12486,-176,29430,26.3267,17693,333
1.49385,56.70097,-175,29431,26.3765,17693,333
1.54408,55.37258,-174,29432,26.3267,17693,333
1.43525,53.00017,-173,29433,26.3765,17737,293
2.44921,50.30334,-172,29434,26.2271,17737,293
2.13508,45.963,-171,29435,26.3267,17737,293
1.07865,41.42017,-170,29436,26.5258,17737,293
1.87846,38.55355,-169,29437,26.476,17737,293
1.77132,42.79518,-168,29438,26.2271,17737,293
1.9798,45.89746,-167,29439,26.5756,17737,293
1.28075,45.37372,-166,29440,26.3765,17737,293
1.65728,45.21861,-165,29441,26.3765,17737,293
1.69146,45.67926,-164,29442,26.3267,17737,293
1.60466,43.27836,-163,29443,26.476,17785,384
1.18804,38.0832,-162,29444,26.476,17785,384
1.70549,34.89461,-161,29445,26.5258,17785,384
1.87592,35.74139,-160,29446,26.1773,17785,384
2.3539,38.87896,-159,29447,26.3765,17785,384
2.12613,41.7575,-158,29448,26.3765,17785,384
1.47458,44.36479,-157,29449,26.3267,17785,384
1.54099,48.57647,-156,29450,26.3765,17785,384
1.42525,54.59887,-155,29451,26.1773,17785,384
1.25061,59.62007,-154,29452,26.3765,17785,384
2.6851,62.96296,-153,29453,26.2271,17843,323
2.16392,68.29275,-152,29454,26.3267,17843,323
1.02423,80.44619,-151,29455,26.3765,17843,323
1.55332,107.8588,-150,29456,26.3267,17843,323
1.28447,103.6406,-149,29457,26.476,17843,323
1.33185,96.14314,-148,29458,26.476,17843,323
0.845728,102.3655,-147,29459,26.3267,17843,323
0.717624,100.5058,-146,29460,26.3765,17843,323
1.19604,96.57374,-145,29461,26.2271,17843,323
1.01487,93.88009,-144,29462,26.3267,17843,323
1.36019,96.98999,-143,29463,26.1773,17881,289
1.36719,105.751,-142,29464,26.3765,17881,289
1.94579,109.5075,-141,29465,26.3765,17881,289
2.23972,111.597,-140,29466,26.3267,17881,289
2.34578,115.7732,-139,29467,26.3267,17881,289
2.39805,122.0035,-138,29468,26.3765,17881,289
1.6341,128.3756,-137,29469,26.476,17881,289
2.12837,130.9955,-136,29470,26.476,17881,289
1.52856,131.4196,-135,29471,26.3765,17881,289
2.52021,131.961,-134,29472,26.3267,17881,289
1.96287,132.2008,-133,29473,26.3267,17911,336
1.80598,132.9628,-132,29474,26.2271,17911,336
2.96528,135.6603,-131,29475,26.3765,17911,336
2.58743,139.3094,-130,29476,26.2271,17911,336
2.61675,143.6523,-129,29477,26.476,17911,336
2.02269,147.941,-128,29478,26.3267,17911,336
1.3461,151.4687,-127,29479,26.5258,17911,336
1.43857,154.6049,-126,29480,26.3267,17911,336
0.916097,156.602,-125,29481,26.3765,17911,336
1.10916,157.2877,-124,29482,26.3267,17911,336
0.793363,157.0668,-123,29483,26.5756,17917,276
1.31383,156.256,-122,29484,26.6752,17917,276
1.31745,155.3616,-121,29485,26.3267,17917,276
1.77132,153.2027,-120,29486,26.5258,17917,276
1.00543,149.97,-119,29487,26.3267,17917,276
1.06082,146.0333,-118,29488,26.3765,17917,276
1.19205,141.9146,-117,29489,26.5258,17917,276
0.956832,138.1752,-116,29490,26.3765,17917,276
2.47246,133.5483,-115,29491,26.3765,17917,276
1.56859,128.8661,-114,29492,26.3267,17917,276
1.26953,124.9512,-113,29493,26.3267,17931,390
1.17998,122.2038,-112,29494,26.3765,17931,390
0.577742,120.4497,-111,29495,26.3267,17931,390
1.32827,118.972,-110,29496,26.3267,17931,390
1.26577,116.7386,-109,29497,26.3765,17931,390
1.44518,113.9126,-108,29498,26.3267,17931,390
0.41432,110.9888,-107,29499,26.1276,17931,390
0.632885,107.8741,-106,29500,26.3267,17931,390
0.601994,103.3869,-105,29501,26.3765,17931,390
1.3461,98.16533,-104,29502,26.5756,17931,390
1.28447,94.32908,-103,29503,26.476,17979,334
1.07865,92.97512,-102,29504,26.3765,17979,334
0.85693,93.3011,-101,29505,26.3267,17979,334
1.25821,95.17618,-100,29506,26.3765,17979,334
0.926449,98.43758,-99,29507,26.3267,17979,334
1.19604,101.9104,-98,29508,26.2271,17979,334
1.57769,105.4666,-97,29509,26.3267,17979,334
1.32827,109.5894,-96,29510,26.3765,17979,334
1.56555,115.0891,-95,29511,26.3267,17979,334
1.72495,119.7197,-94,29512,26.476,17979,334
1.63702,120.2038,-93,29513,26.3267,18078,328
2.36199,118.5042,-92,29514,26.3267,18078,328
1.89362,118.965,-91,29515,26.3267,18078,328
1.31745,120.7974,-90,29516,26.1773,18078,328
2.11488,122.4711,-89,29517,26.3267,18078,328
1.4118,124.3933,-88,29518,26.3267,18078,328
1.88099,126.6407,-87,29519,26.3267,18078,328
2.20539,127.2962,-86,29520,26.3765,18078,328
1.18402,126.9467,-85,29521,26.1773,18078,328
2.06237,128.2082,-84,29522,26.5258,18078,328
1.8529,131.5654,-83,29523,26.3267,18255,274
1.5807,134.3791,-82,29524,26.5258,18255,274
1.60466,132.1126,-81,29525,26.1773,18255,274
1.92608,127.8931,-80,29526,26.6752,18255,274
1.53168,127.3987,-79,29527,26.3267,18255,274
1.16371,128.9064,-78,29528,26.3267,18255,274
0.76272,131.2937,-77,29529,26.3267,18255,274
1.38107,134.8245,-76,29530,26.5258,18255,274
1.3029,138.4855,-75,29531,26.3765,18255,274
1.7767,139.4264,-74,29532,26.476,18255,274
1.40163,138.8506,-73,29533,26.3267,18540,328
1.8606,138.8382,-72,29534,26.5258,18540,328
1.51917,140.0898,-71,29535,26.5756,18540,328
1.99659,141.4016,-70,29536,26.3267,18540,328
2.22905,141.3296,-69,29537,26.3267,18540,328
2.42573,139.5919,-68,29538,26.3267,18540,328
1.17998,136.0228,-67,29539,26.3765,18540,328
2.0693,130.9128,-66,29540,26.476,18540,328
1.38107,124.6774,-65,29541,26.2271,18540,328
1.4118,117.4714,-64,29542,26.3765,18540,328
2.14622,111.5544,-63,29543,26.3765,18941,386
1.958,105.7268,-62,29544,26.3267,18941,386
2.26301,97.7332,-61,29545,26.3765,18941,386
2.24822,91.54964,-60,29546,26.3267,18941,386
2.11263,88.24155,-59,29547,26.5258,18941,386
1.74966,84.08093,-58,29548,26.3765,18941,386
1.17594,79.08216,-57,29549,26.3267,18941,386
2.03444,74.9629,-56,29550,26.3765,18941,386
1.06082,69.5562,-55,29551,26.3765,18941,386
2.34782,63.54566,-54,29552,26.5756,18941,386
1.59273,60.18376,-53,29553,26.3765,19362,310
1.62239,58.00832,-52,29554,26.3765,19362,310
1.00068,54.89759,-51,29555,26.3267,19362,310
1.71664,51.88864,-50,29556,26.5258,19362,310
1.42859,52.16575,-49,29557,26.2271,19362,310
1.47781,55.17808,-48,29558,26.3765,19362,310
5.18499,202.1212,-47,29559,26.2271,19362,310
1.05631,412.8901,-46,29560,26.3267,19362,310
1.06082,197.1548,-45,29561,26.3765,19362,310
1.19205,329.3538,-44,29562,26.3267,19362,310
1.54717,159.4968,-43,29563,26.3267,19589,320
1.52856,78.58949,-42,29564,26.3267,19589,320
1.42525,53.64737,-41,29565,26.3267,19589,320
1.57466,191.0415,-40,29566,26.3765,19589,320
1.02423,336.193,-39,29567,26.3765,19589,320
1.48103,257.4267,-38,29568,26.5258,19589,320
1.1596,107.1321,-37,29569,26.3267,19589,320
1.9798,98.04078,-36,29570,26.3267,19589,320
1.41854,173.4294,-35,29571,26.1773,19589,320
0.981433,202.6554,-34,29572,26.1276,19589,320
1.07865,147.2987,-33,29573,26.3267,19515,289
1.43857,118.4551,-32,29574,26.476,19515,289
1.62826,133.1236,-31,29575,26.3267,19515,289
2.30477,150.1469,-30,29576,26.5258,19515,289
1.23912,147.0025,-29,29577,26.3267,19515,289
0.834375,130.3822,-28,29578,26.3267,19515,289
1.25821,118.7162,-27,29579,26.3765,19515,289
2.19238,124.4286,-26,29580,26.3267,19515,289
1.9942,142.5241,-25,29581,26.2271,19515,289
1.31745,143.3407,-24,29582,26.1773,19515,289
1.75238,134.1757,-23,29583,26.1773,19406,377
1.80069,134.6706,-22,29584,26.3267,19406,377
2.29024,143.341,-21,29585,26.3267,19406,377
1.21581,142.4471,-20,29586,26.5258,19406,377
1.4118,126.7671,-19,29587,26.3267,19406,377
1.15135,111.9356,-18,29588,26.2271,19406,377
1.23912,106.8947,-17,29589,26.3765,19406,377
1.56555,106.9398,-16,29590,26.2271,19406,377
1.11773,105.1256,-15,29591,26.1773,19406,377
1.17594,98.65796,-14,29592,26.3267,19406,377
1.43857,92.05599,-13,29593,26.5258,19322,368
0.817051,88.24392,-12,29594,26.476,19322,368
1.11773,86.16686,-11,29595,26.6752,19322,368
2.76731,84.899,-10,29596,26.3765,19322,368
2.11488,82.97504,-9,29597,26.3267,19322,368
1.39822,81.68876,-8,29598,26.3765,19322,368
1.17998,82.81245,-7,29599,26.2271,19322,368
1.43857,83.25831,-6,29600,26.3765,19322,368
1.70549,79.10203,-5,29601,26.5258,19322,368
1.37415,70.79457,-4,29602,26.3765,19322,368
0.710948,63.5602,-3,29603,26.2271,19322,368
1.31383,59.6814,-2,29604,26.5258,19322,368
0.525895,57.62042,-1,29605,26.5258,19322,368
13.5826,86.75833,0,29606,26.2271,19322,368
0.905627,181.3185,1,29607,26.1773,19322,368
3.33464,136.5773,2,29608,26.3267,19322,368
1.40163,148.1812,3,29609,26.3765,19322,368
1.07422,98.04518,4,29610,26.3267,19322,368
1.49385,51.40073,5,29611,26.3267,19322,368
1.84257,41.80636,6,29612,26.3765,19322,368
2.03209,120.6953,7,29613,26.5258,19366,276
1.3102,195.1731,8,29614,26.5258,19366,276
1.28447,194.6445,9,29615,26.5258,19366,276
0.840071,141.6128,10,29616,26.5258,19366,276
1.68863,126.3281,11,29617,26.3267,19366,276
1.0381,159.4672,12,29618,26.5258,19366,276
1.5034,179.7178,13,29619,26.5258,19366,276
1.27702,159.531,14,29620,26.5258,19366,276
1.28817,133.8706,15,29621,26.1773,19366,276
1.95556,98.99865,16,29622,26.476,19366,276
2.55777,97.33942,17,29623,26.2271,19388,332
2.70985,125.7358,18,29624,26.3765,19388,332
0.926449,134.4134,19,29625,26.3267,19388,332
0.76272,120.9411,20,29626,26.5258,19388,332
0.931581,109.3287,21,29627,26.3765,19388,332
1.32827,108.0715,22,29628,26.3267,19388,332
2.19672,113.0562,23,29629,26.5258,19388,332
1.5807,117.9485,24,29630,26.3765,19388,332
1.49385,112.7251,25,29631,26.3267,19388,332
1.11345,91.80377,26,29632,26.3267,19388,332
1.09183,85.62186,27,29633,26.3267,19333,273
2.27352,95.14948,28,29634,26.3765,19333,273
1.04268,104.6556,29,29635,26.476,19333,273
1.27702,98.73866,30,29636,26.476,19333,273
1.80334,90.05298,31,29637,26.3765,19333,273
1.12623,83.59187,32,29638,26.476,19333,273
2.62403,78.7573,33,29639,26.476,19333,273
1.4681,81.53027,34,29640,26.3765,19333,273
1.01016,92.5784,35,29641,26.3267,19333,273
0.655098,97.03484,36,29642,26.1773,19333,273
1.83739,77.87904,37,29643,26.5258,19302,375
1.55332,64.90985,38,29644,26.3765,19302,375
1.36019,76.09907,39,29645,26.5258,19302,375
2.26512,93.30405,40,29646,26.5258,19302,375
1.5034,82.15949,41,29647,26.3267,19302,375
1.44518,73.11135,42,29648,26.5258,19302,375
1.12623,74.95962,43,29649,26.2271,19302,375
0.85693,79.86226,44,29650,26.2271,19302,375
2.15066,84.52565,45,29651,26.1773,19302,375
1.11345,70.02932,46,29652,26.5258,19302,375
1.11773,59.08342,47,29653,26.3267,19257,329
1.57769,60.3451,48,29654,26.5258,19257,329
1.40163,71.96084,49,29655,26.3267,19257,329
1.22363,67.05928,50,29656,26.3267,19257,329
1.52231,56.56981,51,29657,26.3267,19257,329
1.30655,50.58205,52,29658,26.5756,19257,329
2.05311,53.92994,53,29659,26.2271,19257,329
1.81651,62.33157,54,29660,26.5258,19257,329
0.697405,61.20898,55,29661,26.3267,19257,329
1.19205,59.94237,56,29662,26.2271,19257,329
1.66875,55.60581,57,29663,26.476,19255,277
0.916097,51.04743,58,29664,26.3267,19255,277
1.68581,53.0457,59,29665,26.6752,19255,277
1.27328,60.26603,60,29666,26.3267,19255,277
1.56555,71.90573,61,29667,26.3765,19255,277
1.77132,62.75815,62,29668,26.476,19255,277
1.62532,46.30731,63,29669,26.3267,19255,277
1.48103,50.7585,64,29670,26.5258,19255,277
1.7767,61.11104,65,29671,26.5258,19255,277
1.73047,76.74418,66,29672,26.3267,19255,277
1.31383,74.27705,67,29673,26.3765,19259,319
1.12198,51.26212,68,29674,26.3765,19259,319
1.1596,48.52414,69,29675,26.3267,19259,319
1.22752,57.93738,70,29676,26.2271,19259,319
1.80598,70.05836,71,29677,26.5258,19259,319
0.601994,81.10661,72,29678,26.3765,19259,319
1.72772,80.95222,73,29679,26.3765,19259,319
1.28447,66.66615,74,29680,26.3765,19259,319
1.62532,64.27324,75,29681,26.5258,19259,319
1.10916,65.59085,76,29682,26.1773,19259,319
1.25442,67.96434,77,29683,26.3765,19246,270
1.3029,71.67763,78,29684,26.2271,19246,270
1.19604,81.72605,79,29685,26.3765,19246,270
0.961803,88.11583,80,29686,26.5258,19246,270
1.39822,80.79598,81,29687,26.3267,19246,270
1.51917,79.30297,82,29688,26.3267,19246,270
1.30655,79.40437,83,29689,26.2271,19246,270
1.25442,78.21555,84,29690,26.3267,19246,270
0.560992,75.89446,85,29691,26.3267,19246,270
1.11345,78.31141,86,29692,26.476,19246,270
1.94333,70.3536,87,29693,26.5258,19239,381
2.01324,63.57625,88,29694,26.2271,19239,381
1.32827,62.34005,89,29695,26.3765,19239,381
1.29556,74.86424,90,29696,26.3765,19239,381
1.51917,91.65205,91,29697,26.2271,19239,381
0.768946,86.47775,92,29698,26.3267,19239,381
1.46484,64.99554,93,29699,26.3267,19239,381
1.09183,65.02086,94,29700,26.476,19239,381
1.13886,75.66341,95,29701,26.476,19239,381
0.704209,82.30373,96,29702,26.5258,19239,381
1.60466,79.14102,97,29703,26.476,19230,305
2.01324,72.20137,98,29704,26.6752,19230,305
1.07865,72.15275,99,29705,26.1773,19230,305
1.63993,82.33333,100,29706,26.476,19230,305
