Linear acceleration,Rotational velocity,Time values,Absolute time values,Temperature,Ambient light,Reflected light
1.31745,2.078783,-2000,102431,22.3939,28203,257
0.750112,1.831055,-1999,102432,22.5432,28203,257
1.26577,1.945481,-1998,102433,22.6428,28205,250
2.16171,1.990907,-1997,102434,22.6926,28205,250
1.68298,2.121356,-1996,102435,22.6428,28205,250
1.55638,2.176826,-1995,102436,22.7424,28205,250
1.70829,2.060784,-1994,102437,22.6428,28205,250
1.20794,1.851288,-1993,102438,22.6428,28205,250
1.60466,1.831055,-1992,102439,22.6926,28205,250
2.15287,1.863322,-1991,102440,22.7424,28205,250
1.70829,1.975881,-1990,102441,22.7424,28205,250
2.27352,2.166533,-1989,102442,22.6428,28205,250
1.61355,2.046271,-1988,102443,22.6428,28205,248
1.15548,1.831055,-1987,102444,22.8419,28205,248
1.50022,1.972106,-1986,102445,22.5432,28205,248
1.76052,2.016933,-1985,102446,22.5432,28205,248
1.15135,2.121356,-1984,102447,22.6428,28205,248
1.66589,2.1458,-1983,102448,22.6926,28205,248
1.01487,1.964536,-1982,102449,22.6428,28205,248
2.0716,1.831055,-1981,102450,22.4935,28205,248
2.03444,2.117841,-1980,102451,22.6428,28205,248
1.88353,2.273918,-1979,102452,22.6428,28205,248
1.24679,2.273918,-1978,102453,22.6428,28205,248
1.21581,2.370177,-1977,102454,22.6428,28205,248
1.3029,2.035319,-1976,102455,22.6428,28205,248
1.20794,1.87528,-1975,102456,22.5432,28205,248
1.20794,1.945481,-1974,102457,22.8419,28205,248
1.64863,2.257476,-1973,102458,22.6428,28205,248
1.31383,2.117841,-1972,102459,22.6428,28205,248
2.54282,2.078783,-1971,102460,22.6428,28205,248
1.44518,1.964536,-1970,102461,22.5432,28205,248
1.5987,2.053541,-1969,102462,22.6428,28205,248
1.30655,2.187069,-1968,102463,22.5432,28205,252
1.19205,1.945481,-1967,102464,22.6428,28205,252
2.1771,2.031655,-1966,102465,22.5432,28205,252
0.900346,2.078783,-1965,102466,22.6428,28205,252
2.47246,2.214155,-1964,102467,22.6428,28205,252
2.32946,2.280462,-1963,102468,22.6428,28205,252
1.45176,2.280462,-1962,102469,22.6428,28205,252
0.750112,2.142325,-1961,102470,22.6926,28205,252
1.99897,1.87528,-1960,102471,22.6428,28205,252
1.94824,1.910703,-1959,102472,22.6428,28205,252
1.09183,1.883209,-1958,102473,22.5432,28185,248
1.4118,1.930101,-1957,102474,22.6428,28185,248
1.66016,1.990907,-1956,102475,22.7424,28185,248
1.1596,1.945481,-1955,102476,22.6428,28185,248
2.37206,1.987161,-1954,102477,22.6428,28185,248
1.75238,1.933957,-1953,102478,22.6926,28185,248
0.793363,1.945481,-1952,102479,22.4935,28185,248
1.21188,1.964536,-1951,102480,22.6926,28185,248
1.10916,2.089507,-1950,102481,22.4935,28185,248
1.3102,2.078783,-1949,102482,22.6428,28185,248
1.37067,1.990907,-1948,102483,22.6926,28199,255
0.946812,2.046271,-1947,102484,22.6428,28199,255
1.29556,2.103722,-1946,102485,22.4935,28199,255
1.85547,2.142325,-1945,102486,22.5432,28199,255
1.01956,2.117841,-1944,102487,22.6428,28199,255
1.34255,2.100177,-1943,102488,22.6428,28199,255
1.17998,2.060784,-1942,102489,22.6428,28199,255
1.78206,1.930101,-1941,102490,22.6428,28199,255
1.23912,1.717682,-1940,102491,22.5432,28199,255
1.5034,1.930101,-1939,102492,22.6926,28199,255
2.41983,2.103722,-1938,102493,22.6428,28199,255
1.3637,1.956936,-1937,102494,22.5432,28199,255
1.50022,2.027984,-1936,102495,22.8419,28199,255
1.20794,1.883209,-1935,102496,22.6428,28199,255
1.55638,1.851288,-1934,102497,22.6428,28199,255
0.961803,1.990907,-1933,102498,22.8419,28199,255
0.632885,2.078783,-1932,102499,22.5432,28199,255
1.68581,2.027984,-1931,102500,22.5432,28199,255
1.23912,2.166533,-1930,102501,22.6926,28199,255
1.0381,2.273918,-1929,102502,22.6428,28199,255
1.4681,2.197266,-1928,102503,22.6428,28196,259
1.86572,1.975881,-1927,102504,22.6428,28196,259
1.3637,1.945481,-1926,102505,22.6428,28196,259
1.3461,1.930101,-1925,102506,22.6428,28196,259
1.20794,1.814706,-1924,102507,22.6428,28196,259
0.647778,1.945481,-1923,102508,22.4935,28196,259
1.77401,2.089507,-1922,102509,22.8419,28196,259
1.17998,2.060784,-1921,102510,22.6428,28196,259
1.18804,1.898968,-1920,102511,22.6428,28196,259
1.61059,1.933957,-1919,102512,22.6428,28196,259
1.49385,2.163091,-1918,102513,22.6428,28198,254
2.15066,2.193872,-1917,102514,22.7424,28198,254
1.75781,2.027984,-1916,102515,22.5432,28198,254
1.39822,1.964536,-1915,102516,22.6926,28198,254
1.34255,2.00582,-1914,102517,22.5432,28198,254
1.49385,1.964536,-1913,102518,22.6428,28198,254
1.81388,2.078783,-1912,102519,22.3939,28198,254
1.36019,1.945481,-1911,102520,22.6428,28198,254
1.4219,1.945481,-1910,102521,22.4935,28198,254
1.80334,2.020623,-1909,102522,22.3441,28198,254
1.42859,2.1458,-1908,102523,22.6428,28205,252
1.68298,2.247553,-1907,102524,22.4935,28205,252
1.44188,2.163091,-1906,102525,22.6926,28205,252
1.36019,2.078783,-1905,102526,22.3441,28205,252
0.889691,2.214155,-1904,102527,22.6428,28205,252
1.4118,2.10726,-1903,102528,22.3441,28205,252
1.77132,2.031655,-1902,102529,22.6428,28205,252
1.86827,1.879249,-1901,102530,22.6428,28205,252
1.02423,1.895041,-1900,102531,22.6926,28205,252
1.66016,2.078783,-1899,102532,22.4935,28205,252
1.63702,2.071602,-1898,102533,22.6428,28206,250
1.10916,2.071602,-1897,102534,22.6428,28206,250
1.05631,1.945481,-1896,102535,22.6926,28206,250
1.40163,2.100177,-1895,102536,22.6428,28206,250
0.85693,2.163091,-1894,102537,22.6926,28206,250
1.01956,2.078783,-1893,102538,22.5432,28206,250
1.3102,1.768967,-1892,102539,22.7424,28206,250
1.79804,1.930101,-1891,102540,22.8419,28206,250
1.67161,2.046271,-1890,102541,22.6926,28206,250
1.1596,2.163091,-1889,102542,22.7424,28206,250
1.40163,1.910703,-1888,102543,22.6926,28212,243
2.16832,1.964536,-1887,102544,22.6926,28212,243
1.77401,2.046271,-1886,102545,22.5432,28212,243
1.7551,2.163091,-1885,102546,22.6926,28212,243
1.44188,2.187069,-1884,102547,22.5432,28212,243
1.09619,2.254173,-1883,102548,22.6428,28212,243
1.3102,2.187069,-1882,102549,22.5432,28212,243
1.50022,2.031655,-1881,102550,22.5432,28212,243
0.601994,2.193872,-1880,102551,22.7424,28212,243
0.690534,2.138845,-1879,102552,22.6428,28212,243
1.37067,1.956936,-1878,102553,22.3939,28205,248
1.73047,1.895041,-1877,102554,22.6926,28205,248
1.66303,2.031655,-1876,102555,22.5432,28205,248
1.14304,1.990907,-1875,102556,22.6428,28205,248
2.15951,2.135358,-1874,102557,22.6428,28205,248
1.52231,2.217517,-1873,102558,22.6428,28205,248
1.71942,2.071602,-1872,102559,22.6926,28205,248
0.717624,2.214155,-1871,102560,22.6428,28205,248
2.21402,2.176826,-1870,102561,22.6428,28205,248
0.569429,2.100177,-1869,102562,22.6926,28205,248
0.966748,1.914598,-1868,102563,22.6926,28211,252
1.79539,1.879249,-1867,102564,22.4935,28211,252
1.52856,2.071602,-1866,102565,22.6428,28211,252
1.24296,2.33215,-1865,102566,22.5432,28211,252
1.67446,2.138845,-1864,102567,22.6926,28211,252
1.02423,2.193872,-1863,102568,22.5432,28211,252
1.32827,1.964536,-1862,102569,22.4935,28211,252
1.25442,1.990907,-1861,102570,22.7424,28211,252
1.36019,1.990907,-1860,102571,22.5432,28211,252
1.75781,1.814706,-1859,102572,22.4935,28211,252
1.68298,1.879249,-1858,102573,22.6926,28212,256
1.4681,1.843221,-1857,102574,22.5432,28212,256
0.793363,2.046271,-1856,102575,22.3939,28212,256
2.11714,1.910703,-1855,102576,22.6428,28212,256
1.46158,1.987161,-1854,102577,22.1948,28212,256
1.32827,2.230916,-1853,102578,22.6428,28212,256
1.25821,2.296739,-1852,102579,22.6926,28212,256
1.3637,2.142325,-1851,102580,22.5432,28212,256
1.76323,2.103722,-1850,102581,22.7424,28212,256
1.04268,2.046271,-1849,102582,22.6428,28212,256
1.70549,2.163091,-1848,102583,22.7424,28209,250
1.68298,1.930101,-1847,102584,22.6926,28209,250
1.86572,2.00582,-1846,102585,22.6926,28209,250
1.58973,2.1458,-1845,102586,22.6428,28209,250
1.54408,2.407603,-1844,102587,22.3441,28209,250
1.91864,2.344894,-1843,102588,22.5432,28209,250
1.12198,2.020623,-1842,102589,22.5432,28209,250
1.42525,2.046271,-1841,102590,22.3939,28209,250
1.54408,2.296739,-1840,102591,22.5432,28209,250
1.36019,2.325752,-1839,102592,22.6926,28209,250
1.3102,2.325752,-1838,102593,22.5432,28209,251
1.51917,2.193872,-1837,102594,22.6428,28209,251
0.458048,2.264067,-1836,102595,22.6428,28209,251
1.65152,2.193872,-1835,102596,22.6926,28209,251
0.828641,2.187069,-1834,102597,22.5432,28209,251
1.48103,2.163091,-1833,102598,22.3939,28209,251
1.3637,2.078783,-1832,102599,22.3939,28209,251
1.48103,2.217517,-1831,102600,22.6428,28209,251
1.45505,2.187069,-1830,102601,22.6428,28209,251
2.27352,2.187069,-1829,102602,22.6926,28209,251
1.27702,2.163091,-1828,102603,22.7424,28206,251
1.38107,2.176826,-1827,102604,22.5432,28206,251
0.834375,2.309679,-1826,102605,22.5432,28206,251
1.72772,2.163091,-1825,102606,22.6926,28206,251
2.40401,2.027984,-1824,102607,22.6428,28206,251
1.96772,2.214155,-1823,102608,22.4935,28206,251
1.84516,2.407603,-1822,102609,22.4935,28206,251
1.66303,2.187069,-1821,102610,22.4935,28206,251
1.87846,2.187069,-1820,102611,22.8419,28206,251
1.92608,2.283726,-1819,102612,22.6428,28206,251
1.16371,2.1734,-1818,102613,22.6428,28207,248
1.85804,2.00582,-1817,102614,22.6428,28207,248
1.40163,2.193872,-1816,102615,22.6428,28207,248
1.1596,2.138845,-1815,102616,22.8419,28207,248
1.0381,2.33215,-1814,102617,22.8419,28207,248
1.74966,2.1734,-1813,102618,22.4935,28207,248
0.365396,2.187069,-1812,102619,22.6428,28207,248
1.28817,2.078783,-1811,102620,22.6428,28207,248
1.74966,2.163091,-1810,102621,22.3939,28207,248
1.87592,2.344894,-1809,102622,22.5432,28207,248
2.09904,2.370177,-1808,102623,22.6428,28214,252
1.76863,2.254173,-1807,102624,22.6428,28214,252
1.92856,2.283726,-1806,102625,22.6428,28214,252
0.730792,2.360727,-1805,102626,22.7424,28214,252
1.60466,2.176826,-1804,102627,22.8917,28214,252
1.38107,2.193872,-1803,102628,22.7424,28214,252
1.68014,2.078783,-1802,102629,22.5432,28214,252
1.19205,2.187069,-1801,102630,22.6428,28214,252
1.54408,2.163091,-1800,102631,22.6926,28214,252
2.01324,2.193872,-1799,102632,22.6428,28214,252
1.72772,2.117841,-1798,102633,22.5432,28204,254
0.78733,2.193872,-1797,102634,22.6428,28204,254
0.768946,1.945481,-1796,102635,22.8419,28204,254
1.5034,2.071602,-1795,102636,22.5432,28204,254
1.57769,2.142325,-1794,102637,22.6428,28204,254
1.65152,2.280462,-1793,102638,22.6428,28204,254
1.30655,2.33215,-1792,102639,22.6926,28204,254
1.05179,2.273918,-1791,102640,22.4935,28204,254
0.534885,2.187069,-1790,102641,22.6428,28204,254
0.647778,2.046271,-1789,102642,22.5432,28204,254
1.44188,1.956936,-1788,102643,22.6428,28208,245
1.60168,2.078783,-1787,102644,22.6926,28208,245
1.96772,2.214155,-1786,102645,22.7424,28208,245
1.01487,2.078783,-1785,102646,22.6428,28208,245
0.995902,2.135358,-1784,102647,22.5432,28208,245
1.28817,2.1734,-1783,102648,22.3939,28208,245
1.87592,2.1734,-1782,102649,22.3939,28208,245
2.11037,2.230916,-1781,102650,22.6926,28208,245
0.851347,2.217517,-1780,102651,22.7424,28208,245
1.50657,2.280462,-1779,102652,22.3939,28208,245
0.916097,2.280462,-1778,102653,22.8419,28210,250
0.995902,2.280462,-1777,102654,22.8419,28210,250
1.98461,2.303218,-1776,102655,22.6926,28210,250
1.94088,2.217517,-1775,102656,22.6428,28210,250
1.17998,2.193872,-1774,102657,22.7424,28210,250
1.51917,2.193872,-1773,102658,22.6428,28210,250
1.92112,2.217517,-1772,102659,22.5432,28210,250
1.38107,2.071602,-1771,102660,22.3939,28210,250
1.23912,2.020623,-1770,102661,22.6428,28210,250
1.05631,2.217517,-1769,102662,22.6428,28210,250
0.921287,2.283726,-1768,102663,22.6428,28217,244
1.15548,2.540119,-1767,102664,22.6428,28217,244
1.60466,2.33215,-1766,102665,22.4935,28217,244
1.22752,2.187069,-1765,102666,22.6926,28217,244
2.72389,1.930101,-1764,102667,22.4935,28217,244
1.55638,2.309679,-1763,102668,22.6926,28217,244
0.308816,2.447502,-1762,102669,22.6428,28217,244
1.45176,2.193872,-1761,102670,22.5432,28217,244
2.15066,2.214155,-1760,102671,22.7424,28217,244
1.11773,2.367031,-1759,102672,22.6428,28217,244
1.55638,2.319336,-1758,102673,22.6428,28208,244
1.5034,2.135358,-1757,102674,22.6428,28208,244
2.03444,1.990907,-1756,102675,22.4935,28208,244
2.30477,2.117841,-1755,102676,22.4935,28208,244
1.29923,2.309679,-1754,102677,22.5432,28208,244
1.77132,2.163091,-1753,102678,22.6926,28208,244
1.0381,2.217517,-1752,102679,22.8419,28208,244
2.23332,2.247553,-1751,102680,22.6926,28208,244
2.37005,2.103722,-1750,102681,22.6428,28208,244
0.889691,2.046271,-1749,102682,22.6428,28208,244
1.05631,2.447502,-1748,102683,22.6428,28211,257
0.873464,2.563477,-1747,102684,22.5432,28211,257
1.9798,2.447502,-1746,102685,22.6428,28211,257
1.37067,2.367031,-1745,102686,22.6428,28211,257
0.840071,2.254173,-1744,102687,22.6926,28211,257
0.966748,2.293493,-1743,102688,22.6428,28211,257
1.48103,2.344894,-1742,102689,22.3939,28211,257
1.23912,2.33215,-1741,102690,22.4935,28211,257
1.49066,2.046271,-1740,102691,22.8419,28211,257
1.4681,2.193872,-1739,102692,22.5432,28211,257
1.95556,2.426099,-1738,102693,22.6428,28210,251
0.921287,2.41995,-1737,102694,22.6926,28210,251
1.58973,2.33215,-1736,102695,22.3939,28210,251
0.805294,2.283726,-1735,102696,22.6428,28210,251
1.65728,2.254173,-1734,102697,22.4935,28210,251
1.62826,2.193872,-1733,102698,22.5432,28210,251
2.06237,2.254173,-1732,102699,22.6428,28210,251
1.23912,2.519503,-1731,102700,22.6428,28210,251
1.59273,2.507646,-1730,102701,22.3939,28210,251
1.14304,2.367031,-1729,102702,22.3939,28210,251
1.22363,2.247553,-1728,102703,22.5432,28206,256
1.44518,2.187069,-1727,102704,22.4935,28206,256
1.86827,2.138845,-1726,102705,22.5432,28206,256
1.78206,2.1458,-1725,102706,22.6428,28206,256
1.3102,2.309679,-1724,102707,22.5432,28206,256
1.19205,2.367031,-1723,102708,22.6926,28206,256
0.655098,2.507646,-1722,102709,22.6428,28206,256
1.17594,2.426099,-1721,102710,22.5432,28206,256
1.4118,2.344894,-1720,102711,22.4935,28206,256
2.14177,2.193872,-1719,102712,22.5432,28206,256
0.717624,2.33215,-1718,102713,22.6428,28205,256
1.78473,2.429169,-1717,102714,22.6926,28205,256
1.76052,2.210787,-1716,102715,22.3939,28205,256
1.13045,2.344894,-1715,102716,22.6926,28205,256
1.80598,2.303218,-1714,102717,22.7424,28205,256
1.84774,2.230916,-1713,102718,22.4935,28205,256
1.35668,2.142325,-1712,102719,22.6428,28205,256
0.534885,2.319336,-1711,102720,22.3939,28205,256
1.02423,2.577968,-1710,102721,22.6428,28205,256
1.39822,2.395192,-1709,102722,22.6926,28205,256
1.54717,2.193872,-1708,102723,22.7424,28213,255
1.9335,2.214155,-1707,102724,22.8419,28213,255
1.6165,2.187069,-1706,102725,22.5432,28213,255
1.33185,2.283726,-1705,102726,22.6926,28213,255
1.3029,2.360727,-1704,102727,22.6428,28213,255
1.53168,2.247553,-1703,102728,22.8419,28213,255
0.921287,2.303218,-1702,102729,22.6428,28213,255
1.25061,2.280462,-1701,102730,22.6926,28213,255
1.18402,2.254173,-1700,102731,22.6428,28213,255
1.55638,2.407603,-1699,102732,22.7424,28213,255
1.32827,2.385842,-1698,102733,22.6428,28210,247
2.15287,2.193872,-1697,102734,22.6926,28210,247
1.39822,2.33215,-1696,102735,22.6428,28210,247
1.68298,2.367031,-1695,102736,22.6428,28210,247
1.49704,2.395192,-1694,102737,22.6428,28210,247
2.00374,2.193872,-1693,102738,22.4935,28210,247
1.48103,2.33215,-1692,102739,22.6926,28210,247
1.11345,2.507646,-1691,102740,22.6428,28210,247
1.67446,2.407603,-1690,102741,22.6926,28210,247
1.60168,2.33215,-1689,102742,22.6428,28210,247
1.6341,2.367031,-1688,102743,22.3939,28216,249
2.39606,2.303218,-1687,102744,22.8419,28216,249
1.8606,2.33215,-1686,102745,22.4935,28216,249
1.4118,2.459649,-1685,102746,22.5432,28216,249
1.98461,2.273918,-1684,102747,22.6428,28216,249
1.17998,2.395192,-1683,102748,22.3939,28216,249
1.4681,2.217517,-1682,102749,22.5432,28216,249
1.18804,2.280462,-1681,102750,22.5432,28216,249
1.64863,2.41995,-1680,102751,22.6428,28216,249
1.89865,2.426099,-1679,102752,22.6428,28216,249
1.45176,2.370177,-1678,102753,22.5432,28201,254
1.64863,2.306451,-1677,102754,22.6926,28201,254
1.88858,2.328953,-1676,102755,22.6926,28201,254
1.37067,2.33215,-1675,102756,22.6926,28201,254
1.21581,2.474748,-1674,102757,22.6428,28201,254
1.34255,2.474748,-1673,102758,22.7424,28201,254
1.28447,2.480762,-1672,102759,22.7424,28201,254
0.525895,2.612419,-1671,102760,22.5432,28201,254
0.834375,2.309679,-1670,102761,22.4935,28201,254
1.11773,2.217517,-1669,102762,22.6428,28201,254
1.94824,2.480762,-1668,102763,22.6428,28210,254
1.51603,2.563477,-1667,102764,22.6428,28210,254
2.11037,2.293493,-1666,102765,22.6428,28210,254
2.16392,2.187069,-1665,102766,22.6428,28210,254
2.15066,2.429169,-1664,102767,22.8419,28210,254
1.31383,2.447502,-1663,102768,22.6428,28210,254
1.79804,2.33215,-1662,102769,22.6428,28210,254
1.45176,2.407603,-1661,102770,22.6926,28210,254
1.06977,2.230916,-1660,102771,22.8917,28210,254
1.9918,2.257476,-1659,102772,22.6428,28210,254
1.76052,2.407603,-1658,102773,22.8419,28209,251
1.79539,2.360727,-1657,102774,22.6926,28209,251
1.62826,2.367031,-1656,102775,22.8917,28209,251
1.37067,2.519503,-1655,102776,22.6428,28209,251
1.27328,2.273918,-1654,102777,22.6926,28209,251
1.45505,2.230916,-1653,102778,22.8419,28209,251
0.921287,2.214155,-1652,102779,22.6428,28209,251
1.21188,2.117841,-1651,102780,22.4935,28209,251
2.01324,1.902888,-1650,102781,22.6926,28209,251
1.02423,2.138845,-1649,102782,22.5432,28209,251
1.5034,2.303218,-1648,102783,22.6428,28216,253
0.85693,2.563477,-1647,102784,22.6428,28216,253
1.73872,2.657659,-1646,102785,22.8419,28216,253
0.507437,2.540119,-1645,102786,22.6926,28216,253
1.43525,2.283726,-1644,102787,22.8419,28216,253
2.11037,2.33215,-1643,102788,22.3939,28216,253
2.13508,2.33215,-1642,102789,22.3441,28216,253
1.19205,2.501697,-1641,102790,22.6428,28216,253
1.18402,2.54305,-1640,102791,22.6428,28216,253
1.31745,2.444456,-1639,102792,22.6926,28216,253
1.40163,2.459649,-1638,102793,22.6428,28207,250
1.45176,2.426099,-1637,102794,22.5432,28207,250
0.921287,2.447502,-1636,102795,22.6428,28207,250
2.09677,2.480762,-1635,102796,22.4935,28207,250
1.19205,2.480762,-1634,102797,22.5432,28207,250
1.20794,2.193872,-1633,102798,22.8419,28207,250
1.00068,2.142325,-1632,102799,22.6926,28207,250
2.30063,2.435295,-1631,102800,22.6428,28207,250
1.60168,2.395192,-1630,102801,22.3939,28207,250
1.79273,2.480762,-1629,102802,22.4935,28207,250
1.65152,2.612419,-1628,102803,22.3939,28216,253
1.05631,2.575076,-1627,102804,22.8917,28216,253
1.32827,2.519503,-1626,102805,22.3939,28216,253
2.32332,2.545978,-1625,102806,22.6926,28216,253
1.83479,2.474748,-1624,102807,22.6428,28216,253
1.63702,2.360727,-1623,102808,22.6428,28216,253
1.51603,2.217517,-1622,102809,22.7424,28216,253
1.27328,2.33215,-1621,102810,22.5432,28216,253
1.65152,2.426099,-1620,102811,22.6428,28216,253
1.94824,2.480762,-1619,102812,22.8917,28216,253
1.96772,2.217517,-1618,102813,22.8419,28209,253
0.662337,2.273918,-1617,102814,22.8419,28209,253
0.900346,2.370177,-1616,102815,22.6428,28209,253
2.02975,2.735029,-1615,102816,22.4935,28209,253
1.98461,2.84976,-1614,102817,22.6926,28209,253
2.08994,2.710401,-1613,102818,22.6428,28209,253
1.64863,2.498717,-1612,102819,22.6428,28209,253
1.06082,2.385842,-1611,102820,22.6428,28209,253
1.66303,2.459649,-1610,102821,22.5432,28209,253
1.13886,2.444456,-1609,102822,22.6428,28209,253
1.5034,2.410696,-1608,102823,22.6926,28205,250
1.50657,2.33215,-1607,102824,22.7424,28205,250
1.33543,2.360727,-1606,102825,22.5432,28205,250
1.19205,2.328953,-1605,102826,22.8419,28205,250
1.24296,2.575076,-1604,102827,22.3441,28205,250
1.80069,2.447502,-1603,102828,22.6428,28205,250
0.569429,2.303218,-1602,102829,22.6428,28205,250
1.11345,2.575076,-1601,102830,22.5432,28205,250
0.717624,2.767525,-1600,102831,22.8419,28205,250
1.89614,2.674427,-1599,102832,22.6926,28205,250
2.17052,2.545978,-1598,102833,22.6926,28213,256
1.71664,2.283726,-1597,102834,22.7424,28213,256
1.38452,2.367031,-1596,102835,22.6926,28213,256
1.54717,2.54305,-1595,102836,22.3939,28213,256
1.64283,2.480762,-1594,102837,22.6428,28213,256
1.38796,2.385842,-1593,102838,22.3939,28213,256
1.67446,2.589502,-1592,102839,22.6926,28213,256
0.921287,2.560568,-1591,102840,22.6428,28213,256
1.63702,2.563477,-1590,102841,22.5432,28213,256
1.68581,2.480762,-1589,102842,22.5432,28213,256
2.13284,2.453583,-1588,102843,22.6428,28213,256
1.83219,2.54305,-1587,102844,22.5432,28213,256
0.497951,2.640785,-1586,102845,22.6428,28213,256
1.31383,2.480762,-1585,102846,22.6926,28213,256
1.73047,2.447502,-1584,102847,22.3939,28213,256
1.57769,2.360727,-1583,102848,22.6926,28213,256
0.78733,2.41995,-1582,102849,22.6428,28213,256
0.78733,2.563477,-1581,102850,22.6428,28213,256
1.33185,2.498717,-1580,102851,22.6428,28213,256
1.09619,2.504673,-1579,102852,22.4935,28213,256
1.96772,2.432234,-1578,102853,22.6926,28193,257
1.57466,2.257476,-1577,102854,22.6428,28193,257
1.02423,2.407603,-1576,102855,22.6926,28193,257
0.981433,2.612419,-1575,102856,22.5432,28193,257
0.85693,2.59525,-1574,102857,22.6428,28193,257
1.15548,2.519503,-1573,102858,22.5432,28193,257
1.49385,2.699383,-1572,102859,22.5432,28193,257
1.94824,2.545978,-1571,102860,22.5432,28193,257
1.28447,2.447502,-1570,102861,22.3939,28193,257
1.43525,2.426099,-1569,102862,22.6926,28193,257
1.11345,2.426099,-1568,102863,22.8419,28206,248
2.0693,2.860199,-1567,102864,22.7424,28206,248
1.19205,2.632307,-1566,102865,22.4935,28206,248
1.65152,2.453583,-1565,102866,22.6428,28206,248
0.78733,2.322546,-1564,102867,22.6926,28206,248
1.55638,2.370177,-1563,102868,22.6428,28206,248
1.30655,2.59525,-1562,102869,22.5432,28206,248
1.88099,2.632307,-1561,102870,22.4935,28206,248
1.50022,2.519503,-1560,102871,22.5432,28206,248
1.3029,2.385842,-1559,102872,22.4935,28206,248
1.79804,2.483763,-1558,102873,22.4935,28210,256
1.45505,2.754032,-1557,102874,22.6428,28210,256
1.50022,2.726844,-1556,102875,22.6428,28210,256
1.28817,2.620961,-1555,102876,22.7424,28210,256
1.46484,2.59525,-1554,102877,22.6926,28210,256
1.09619,2.519503,-1553,102878,22.6428,28210,256
0.59402,2.589502,-1552,102879,22.6428,28210,256
1.81913,2.531304,-1551,102880,22.5432,28210,256
1.00068,2.230916,-1550,102881,22.6428,28210,256
1.76323,2.293493,-1549,102882,22.7424,28210,256
1.77132,2.528359,-1548,102883,22.7424,28216,254
2.22047,2.444456,-1547,102884,22.8419,28216,254
1.34255,2.273918,-1546,102885,22.8419,28216,254
1.33185,2.416869,-1545,102886,22.6926,28216,254
0.704209,2.528359,-1544,102887,22.7424,28216,254
1.32827,2.589502,-1543,102888,22.6926,28216,254
1.56555,2.519503,-1542,102889,22.8419,28216,254
1.3637,2.410696,-1541,102890,22.5432,28216,254
1.39822,2.385842,-1540,102891,22.8419,28216,254
1.77401,2.612419,-1539,102892,22.6428,28216,254
0.884315,2.745904,-1538,102893,22.5432,28214,258
2.20323,2.770216,-1537,102894,22.5432,28214,258
1.00068,2.612419,-1536,102895,22.6428,28214,258
0.811194,2.370177,-1535,102896,22.5432,28214,258
1.76323,2.498717,-1534,102897,22.8917,28214,258
2.0785,2.632307,-1533,102898,22.6926,28214,258
1.39139,2.612419,-1532,102899,22.5432,28214,258
1.4219,2.657659,-1531,102900,22.6926,28214,258
1.84774,2.480762,-1530,102901,22.6428,28214,258
1.73872,2.575076,-1529,102902,22.6428,28214,258
1.3102,2.754032,-1528,102903,22.6926,28215,255
1.09183,2.786307,-1527,102904,22.5432,28215,255
0.497951,2.507646,-1526,102905,22.5432,28215,255
0.601994,2.745904,-1525,102906,22.6926,28215,255
1.22363,2.612419,-1524,102907,22.4935,28215,255
0.717624,2.459649,-1523,102908,22.6428,28215,255
1.83479,2.519503,-1522,102909,22.3939,28215,255
1.11773,2.575076,-1521,102910,22.7424,28215,255
1.70549,2.677211,-1520,102911,22.6428,28215,255
2.19889,2.677211,-1519,102912,22.3939,28215,255
1.81651,2.328953,-1518,102913,22.6926,28209,250
1.3029,2.444456,-1517,102914,22.6428,28209,250
1.42859,2.370177,-1516,102915,22.5432,28209,250
1.67446,2.480762,-1515,102916,22.6428,28209,250
1.36019,2.679992,-1514,102917,22.4935,28209,250
2.17052,2.59812,-1513,102918,22.7424,28209,250
1.28447,2.575076,-1512,102919,22.6428,28209,250
0.662337,2.612419,-1511,102920,22.8419,28209,250
1.50657,2.498717,-1510,102921,22.8419,28209,250
1.40842,2.545978,-1509,102922,22.8419,28209,250
2.30477,2.632307,-1508,102923,22.5432,28211,250
0.981433,2.841906,-1507,102924,22.5432,28211,250
2.05543,2.794317,-1506,102925,22.6926,28211,250
1.36019,2.756736,-1505,102926,22.5432,28211,250
1.48103,2.677211,-1504,102927,22.6926,28211,250
1.99897,2.81292,-1503,102928,23.0411,28211,250
1.59572,2.654854,-1502,102929,22.2943,28211,250
1.80598,2.459649,-1501,102930,22.4935,28211,250
0.921287,2.459649,-1500,102931,22.4935,28211,250
1.4681,2.679992,-1499,102932,22.6428,28211,250
1.48103,2.726844,-1498,102933,22.6428,28211,252
1.77132,2.726844,-1497,102934,22.6926,28211,252
2.08994,2.745904,-1496,102935,22.5432,28211,252
1.19205,2.745904,-1495,102936,22.6926,28211,252
1.97739,2.657659,-1494,102937,22.5432,28211,252
1.35668,2.459649,-1493,102938,22.3939,28211,252
1.42859,2.69109,-1492,102939,22.7424,28211,252
1.25821,2.69109,-1491,102940,22.6428,28211,252
1.26953,2.426099,-1490,102941,22.8419,28211,252
1.88858,2.385842,-1489,102942,22.7424,28211,252
1.88858,2.59812,-1488,102943,22.6428,28208,255
2.06237,2.704897,-1487,102944,22.8419,28208,255
1.86572,2.767525,-1486,102945,22.5432,28208,255
1.68298,2.674427,-1485,102946,22.6428,28208,255
2.55031,2.702142,-1484,102947,22.5432,28208,255
1.98701,2.702142,-1483,102948,22.3441,28208,255
1.49385,2.713148,-1482,102949,22.8419,28208,255
1.34255,2.560568,-1481,102950,22.3939,28208,255
0.647778,2.612419,-1480,102951,22.6428,28208,255
1.31745,2.767525,-1479,102952,22.5432,28208,255
1.51917,2.59812,-1478,102953,22.6926,28201,250
1.76323,2.257476,-1477,102954,22.6428,28201,250
1.70829,2.745904,-1476,102955,22.5432,28201,250
1.32827,2.745904,-1475,102956,22.8419,28201,250
0.690534,2.767525,-1474,102957,22.6428,28201,250
1.17998,2.654854,-1473,102958,22.6428,28201,250
1.15548,2.528359,-1472,102959,22.6926,28201,250
1.81913,2.69109,-1471,102960,22.8917,28201,250
1.89614,2.899009,-1470,102961,22.7424,28201,250
1.04725,2.880963,-1469,102962,22.6926,28201,250
1.19205,2.59812,-1468,102963,22.6926,28214,246
2.05311,2.713148,-1467,102964,22.3939,28214,246
2.11037,2.563477,-1466,102965,22.4935,28214,246
1.47134,2.575076,-1465,102966,22.5432,28214,246
2.30684,2.726844,-1464,102967,22.5432,28214,246
1.22363,2.754032,-1463,102968,22.5432,28214,246
1.74146,2.59812,-1462,102969,22.5432,28214,246
1.10916,2.612419,-1461,102970,22.8419,28214,246
1.85547,2.726844,-1460,102971,22.4935,28214,246
1.17998,2.81292,-1459,102972,22.6926,28214,246
1.83998,2.880963,-1458,102973,22.5432,28210,249
1.72495,2.726844,-1457,102974,22.5432,28210,249
2.41786,2.560568,-1456,102975,22.6428,28210,249
1.46484,2.528359,-1455,102976,22.5432,28210,249
1.00068,2.713148,-1454,102977,22.6428,28210,249
0.717624,2.668849,-1453,102978,22.3441,28210,249
1.76052,2.704897,-1452,102979,22.5432,28210,249
1.28447,2.474748,-1451,102980,22.7424,28210,249
1.53789,2.710401,-1450,102981,22.6428,28210,249
1.93842,2.699383,-1449,102982,22.6926,28210,249
1.94579,2.563477,-1448,102983,22.5432,28210,251
1.5034,2.59812,-1447,102984,22.7424,28210,251
1.9798,2.841906,-1446,102985,22.6428,28210,251
1.68863,2.841906,-1445,102986,22.6926,28210,251
0.59402,2.860199,-1444,102987,22.5432,28210,251
1.54717,2.632307,-1443,102988,22.5432,28210,251
1.42859,2.679992,-1442,102989,22.3939,28210,251
1.47781,2.68832,-1441,102990,22.6926,28210,251
1.32827,2.721374,-1440,102991,22.6926,28210,251
1.55638,2.786307,-1439,102992,22.8917,28210,251
1.40163,2.677211,-1438,102993,22.5432,28217,251
0.931581,2.54305,-1437,102994,22.6926,28217,251
1.28817,2.426099,-1436,102995,22.6428,28217,251
1.94824,2.54305,-1435,102996,22.6926,28217,251
0.981433,2.799645,-1434,102997,22.4935,28217,251
1.20399,2.677211,-1433,102998,22.6926,28217,251
1.68581,2.637962,-1432,102999,22.6926,28217,251
0.926449,2.69109,-1431,103000,22.4935,28217,251
2.11037,2.640785,-1430,103001,22.5432,28217,251
1.66303,2.640785,-1429,103002,22.5432,28217,251
1.42859,2.612419,-1428,103003,22.8419,28217,251
0.690534,2.560568,-1427,103004,22.4935,28217,251
0.78733,2.59812,-1426,103005,22.6428,28217,251
2.06237,2.726844,-1425,103006,22.5432,28217,251
1.6165,2.770216,-1424,103007,22.5432,28217,251
0.931581,2.612419,-1423,103008,22.6926,28217,251
0.946812,2.483763,-1422,103009,22.5432,28217,251
1.72772,2.632307,-1421,103010,22.6428,28217,251
1.36019,2.786307,-1420,103011,22.5432,28217,251
1.91864,2.745904,-1419,103012,22.4935,28217,251
1.62826,2.69109,-1418,103013,22.6926,28215,252
2.47246,2.868003,-1417,103014,22.5432,28215,252
2.51073,2.799645,-1416,103015,22.8419,28215,252
1.55638,2.726844,-1415,103016,22.6926,28215,252
2.17052,2.710401,-1414,103017,22.6428,28215,252
1.3637,2.59812,-1413,103018,22.5432,28215,252
2.09904,2.586624,-1412,103019,22.6428,28215,252
1.47134,2.612419,-1411,103020,22.7424,28215,252
0.878906,2.69109,-1410,103021,22.8419,28215,252
0.750112,2.632307,-1409,103022,22.5432,28215,252
1.41517,2.640785,-1408,103023,22.5432,28222,255
1.54408,2.828767,-1407,103024,22.6428,28222,255
1.12198,2.975112,-1406,103025,22.6428,28222,255
1.48103,2.745904,-1405,103026,22.6926,28222,255
1.48103,2.483763,-1404,103027,22.4935,28222,255
1.7551,2.483763,-1403,103028,22.4935,28222,255
0.811194,2.629475,-1402,103029,22.6926,28222,255
1.49066,2.679992,-1401,103030,22.6428,28222,255
1.97739,2.899009,-1400,103031,22.6428,28222,255
1.58973,2.654854,-1399,103032,22.6428,28222,255
1.48103,2.483763,-1398,103033,22.6428,28215,252
1.19205,2.459649,-1397,103034,22.7424,28215,252
1.71108,2.745904,-1396,103035,22.5432,28215,252
1.27328,2.911831,-1395,103036,22.8419,28215,252
1.48103,2.899009,-1394,103037,22.7424,28215,252
1.44188,2.794317,-1393,103038,22.6428,28215,252
1.23912,2.668849,-1392,103039,22.6926,28215,252
0.655098,2.589502,-1391,103040,22.6428,28215,252
1.15548,2.81292,-1390,103041,22.5432,28215,252
1.09619,2.81292,-1389,103042,22.5432,28215,252
1.50657,2.794317,-1388,103043,22.6428,28221,253
1.36019,2.69109,-1387,103044,22.6926,28221,253
1.32827,2.726844,-1386,103045,22.5432,28221,253
1.18804,2.674427,-1385,103046,22.6926,28221,253
1.84774,2.654854,-1384,103047,22.6926,28221,253
1.54717,2.702142,-1383,103048,22.8917,28221,253
0.921287,2.68832,-1382,103049,22.6428,28221,253
1.69708,2.868003,-1381,103050,22.4935,28221,253
2.27981,2.745904,-1380,103051,22.6428,28221,253
1.85804,2.629475,-1379,103052,22.6428,28221,253
1.66303,2.704897,-1378,103053,22.6428,28231,254
1.09183,2.786307,-1377,103054,22.8419,28231,254
1.60466,2.745904,-1376,103055,22.6926,28231,254
1.61945,2.745904,-1375,103056,22.3939,28231,254
1.06082,2.726844,-1374,103057,22.8917,28231,254
1.0381,2.81027,-1373,103058,22.3939,28231,254
1.43857,2.786307,-1372,103059,22.6428,28231,254
1.81651,2.995079,-1371,103060,22.6428,28231,254
2.18802,2.95753,-1370,103061,22.5432,28231,254
1.64283,2.828767,-1369,103062,22.7424,28231,254
1.73323,2.702142,-1368,103063,22.4935,28222,243
1.13045,2.726844,-1367,103064,22.6428,28222,243
1.49704,2.745904,-1366,103065,22.6926,28222,243
1.47781,2.745904,-1365,103066,22.6428,28222,243
1.48746,2.726844,-1364,103067,22.6428,28222,243
2.48976,2.745904,-1363,103068,22.6428,28222,243
1.4681,2.629475,-1362,103069,22.6428,28222,243
0.601994,2.677211,-1361,103070,22.4935,28222,243
1.4681,2.911831,-1360,103071,22.3939,28222,243
1.18402,2.828767,-1359,103072,22.4935,28222,243
1.83739,2.880963,-1358,103073,22.6428,28224,251
1.90867,2.786307,-1357,103074,22.6428,28224,251
2.67443,2.767525,-1356,103075,22.6926,28224,251
1.39822,2.640785,-1355,103076,22.5432,28224,251
1.87846,2.799645,-1354,103077,22.8419,28224,251
2.12837,2.59812,-1353,103078,22.8917,28224,251
2.19672,2.860199,-1352,103079,22.5432,28224,251
1.67161,2.975112,-1351,103080,22.6428,28224,251
2.25457,2.924597,-1350,103081,22.4935,28224,251
1.92112,3.024783,-1349,103082,22.4935,28224,251
0.560992,3.024783,-1348,103083,22.6428,28227,255
1.67446,2.911831,-1347,103084,22.3441,28227,255
1.8606,2.640785,-1346,103085,22.6428,28227,255
0.845728,2.654854,-1345,103086,22.5432,28227,255
1.48103,2.69109,-1344,103087,22.6428,28227,255
0.683594,2.612419,-1343,103088,22.6428,28227,255
1.57769,2.754032,-1342,103089,22.3441,28227,255
1.18804,2.745904,-1341,103090,22.6428,28227,255
1.52856,2.589502,-1340,103091,22.5432,28227,255
0.338291,2.560568,-1339,103092,22.3441,28227,255
1.00068,2.612419,-1338,103093,22.6428,28218,252
1.58973,2.767525,-1337,103094,22.6926,28218,252
1.49385,2.860199,-1336,103095,22.6428,28218,252
1.19604,2.95753,-1335,103096,22.6428,28218,252
1.07422,2.911831,-1334,103097,22.4935,28218,252
1.46484,2.726844,-1333,103098,22.6428,28218,252
1.27328,2.702142,-1332,103099,22.6428,28218,252
1.94824,2.860199,-1331,103100,22.6926,28218,252
0.704209,2.754032,-1330,103101,22.6428,28218,252
1.55638,2.68832,-1329,103102,22.6926,28218,252
2.54282,2.68832,-1328,103103,22.4935,28229,251
2.59663,2.589502,-1327,103104,22.5432,28229,251
2.24609,2.586624,-1326,103105,22.6428,28229,251
1.91615,2.745904,-1325,103106,22.8419,28229,251
1.45176,2.799645,-1324,103107,22.6428,28229,251
1.66303,2.713148,-1323,103108,22.8419,28229,251
1.00543,2.702142,-1322,103109,22.6428,28229,251
1.27328,2.904145,-1321,103110,22.3441,28229,251
0.768946,2.786307,-1320,103111,22.6428,28229,251
1.51603,2.637962,-1319,103112,22.6428,28229,251
1.73047,2.754032,-1318,103113,22.5432,28225,256
2.0739,2.713148,-1317,103114,22.6428,28225,256
2.0693,2.942376,-1316,103115,22.6428,28225,256
1.62532,3.012442,-1315,103116,22.6428,28225,256
1.35668,2.868003,-1314,103117,22.6926,28225,256
1.43525,2.868003,-1313,103118,22.8419,28225,256
1.28447,2.754032,-1312,103119,22.4935,28225,256
1.40163,2.860199,-1311,103120,22.8419,28225,256
2.08994,2.975112,-1310,103121,22.3441,28225,256
1.27328,3.037074,-1309,103122,22.2943,28225,256
1.57769,2.904145,-1308,103123,22.6926,28223,250
1.8529,2.560568,-1307,103124,22.4935,28223,250
1.89865,2.713148,-1306,103125,22.6428,28223,250
2.12613,2.860199,-1305,103126,22.5432,28223,250
1.77132,2.788979,-1304,103127,22.6428,28223,250
1.27328,2.788979,-1303,103128,22.6428,28223,250
1.28817,2.860199,-1302,103129,22.6428,28223,250
1.59273,2.841906,-1301,103130,22.6428,28223,250
1.79539,2.726844,-1300,103131,22.6428,28223,250
1.37415,2.519503,-1299,103132,22.7424,28223,250
1.25821,2.474748,-1298,103133,22.6428,28232,250
0.601994,2.901578,-1297,103134,22.3939,28232,250
2.03209,2.934769,-1296,103135,22.6926,28232,250
2.26301,2.702142,-1295,103136,22.4935,28232,250
1.70829,2.911831,-1294,103137,22.5432,28232,250
2.915,2.589502,-1293,103138,22.8419,28232,250
2.05311,2.483763,-1292,103139,22.6428,28232,250
0.78733,2.767525,-1291,103140,22.4935,28232,250
1.20399,2.754032,-1290,103141,22.6428,28232,250
1.88099,2.904145,-1289,103142,22.7424,28232,250
1.22363,2.860199,-1288,103143,22.6428,28218,256
1.62532,2.745904,-1287,103144,22.6428,28218,256
0.900346,2.754032,-1286,103145,22.5432,28218,256
1.51917,2.704897,-1285,103146,22.6428,28218,256
1.28817,2.786307,-1284,103147,22.4935,28218,256
1.92112,2.745904,-1283,103148,22.6428,28218,256
1.10916,2.743189,-1282,103149,22.5432,28218,256
1.80334,2.786307,-1281,103150,22.4935,28218,256
2.52021,2.713148,-1280,103151,22.6428,28218,256
2.10585,2.868003,-1279,103152,22.5432,28218,256
1.54408,2.79165,-1278,103153,22.5432,28219,251
1.70829,2.754032,-1277,103154,22.4935,28219,251
1.09619,2.975112,-1276,103155,22.4935,28219,251
1.68863,2.860199,-1275,103156,22.5432,28219,251
1.00068,2.868003,-1274,103157,22.3939,28219,251
1.69427,2.880963,-1273,103158,22.6428,28219,251
1.75238,2.826132,-1272,103159,22.6428,28219,251
1.01016,2.828767,-1271,103160,22.6428,28219,251
1.958,2.860199,-1270,103161,22.6926,28219,251
2.32126,2.857593,-1269,103162,22.6428,28219,251
1.33185,2.828767,-1268,103163,22.6428,28225,256
0.995902,2.713148,-1267,103164,22.6428,28225,256
1.26953,2.632307,-1266,103165,22.6428,28225,256
2.05543,2.79165,-1265,103166,22.5432,28225,256
1.7551,2.911831,-1264,103167,22.6926,28225,256
1.3029,2.754032,-1263,103168,22.6428,28225,256
0.845728,2.704897,-1262,103169,22.6926,28225,256
1.23912,2.860199,-1261,103170,22.6428,28225,256
1.79273,2.911831,-1260,103171,22.6428,28225,256
1.20399,2.807617,-1259,103172,22.6926,28225,256
0.995902,2.995079,-1258,103173,22.4935,28223,254
1.19205,2.841906,-1257,103174,22.2943,28223,254
1.98461,2.586624,-1256,103175,22.6428,28223,254
1.27702,2.820854,-1255,103176,22.7424,28223,254
1.27328,2.841906,-1254,103177,22.4935,28223,254
1.66303,2.726844,-1253,103178,22.5432,28223,254
1.68298,2.807617,-1252,103179,22.5432,28223,254
2.28399,2.841906,-1251,103180,22.4935,28223,254
0.905627,2.944907,-1250,103181,22.6926,28223,254
1.88858,2.911831,-1249,103182,22.6428,28223,254
1.25821,2.818212,-1248,103183,22.8419,28232,255
1.57769,2.860199,-1247,103184,22.8419,28232,255
1.50657,2.743189,-1246,103185,22.6428,28232,255
1.51603,2.754032,-1245,103186,22.6428,28232,255
1.73047,2.860199,-1244,103187,22.4935,28232,255
1.49704,2.59525,-1243,103188,22.6926,28232,255
2.08765,2.59812,-1242,103189,22.4935,28232,255
1.73047,2.754032,-1241,103190,22.6428,28232,255
1.92361,2.799645,-1240,103191,22.8419,28232,255
1.07865,2.632307,-1239,103192,22.6428,28232,255
1.5034,2.818212,-1238,103193,22.5432,28234,254
2.0716,2.904145,-1237,103194,22.6926,28234,254
1.30655,2.820854,-1236,103195,22.5432,28234,254
1.60168,2.754032,-1235,103196,22.6926,28234,254
1.66589,2.79165,-1234,103197,22.7424,28234,254
0.768946,2.949962,-1233,103198,22.5432,28234,254
1.49066,3.014914,-1232,103199,22.8419,28234,254
0.889691,2.975112,-1231,103200,22.5432,28234,254
1.68581,2.860199,-1230,103201,22.7424,28234,254
2.20539,2.860199,-1229,103202,22.6428,28234,254
1.65152,2.713148,-1228,103203,22.4935,28227,254
1.82437,2.713148,-1227,103204,22.6926,28227,254
1.28817,2.632307,-1226,103205,22.8419,28227,254
1.68863,2.677211,-1225,103206,22.6926,28227,254
1.54408,2.828767,-1224,103207,22.6428,28227,254
1.22752,2.668849,-1223,103208,22.6428,28227,254
0.905627,2.668849,-1222,103209,22.6428,28227,254
0.926449,2.995079,-1221,103210,22.4935,28227,254
1.58673,3.037074,-1220,103211,22.6428,28227,254
2.15951,2.754032,-1219,103212,22.6926,28227,254
0.889691,2.704897,-1218,103213,22.4935,28237,254
0.840071,2.807617,-1217,103214,22.6428,28237,254
1.45505,2.924597,-1216,103215,22.5432,28237,254
0.793363,2.883548,-1215,103216,22.3939,28237,254
1.46484,2.868003,-1214,103217,22.6428,28237,254
1.92856,2.868003,-1213,103218,22.6428,28237,254
1.45505,2.745904,-1212,103219,22.3939,28237,254
1.48103,2.937307,-1211,103220,22.6428,28237,254
1.10485,3.061508,-1210,103221,22.5432,28237,254
1.09619,3.1098,-1209,103222,22.5432,28237,254
1.54717,2.828767,-1208,103223,22.6428,28237,254
1.45176,2.828767,-1207,103224,22.3441,28237,254
0.730792,2.841906,-1206,103225,22.5432,28237,254
1.68014,2.95753,-1205,103226,22.6428,28237,254
1.76323,2.794317,-1204,103227,22.6428,28237,254
1.44188,2.471735,-1203,103228,22.6428,28237,254
0.966748,2.474748,-1202,103229,22.5432,28237,254
0.916097,2.589502,-1201,103230,22.7424,28237,254
1.87592,2.982615,-1200,103231,22.4935,28237,254
1.20794,2.975112,-1199,103232,22.6428,28237,254
1.67161,2.820854,-1198,103233,22.8419,28229,248
2.36199,2.820854,-1197,103234,22.8419,28229,248
1.48103,2.995079,-1196,103235,22.6428,28229,248
1.49066,3.1098,-1195,103236,22.7424,28229,248
2.15287,2.841906,-1194,103237,22.6926,28229,248
1.01016,2.702142,-1193,103238,22.6428,28229,248
1.55638,2.629475,-1192,103239,22.5432,28229,248
1.45505,2.995079,-1191,103240,22.6926,28229,248
1.56859,3.17852,-1190,103241,22.6926,28229,248
1.74146,2.99259,-1189,103242,22.6926,28229,248
1.27328,2.704897,-1188,103243,22.6428,28231,247
1.68863,2.911831,-1187,103244,22.3939,28231,247
1.76052,2.679992,-1186,103245,22.6926,28231,247
1.21581,2.677211,-1185,103246,22.6428,28231,247
1.46484,2.589502,-1184,103247,22.6428,28231,247
1.27702,2.704897,-1183,103248,22.5432,28231,247
1.9798,2.820854,-1182,103249,22.6428,28231,247
1.45176,2.726844,-1181,103250,22.4935,28231,247
1.66875,2.841906,-1180,103251,22.5432,28231,247
1.09183,2.828767,-1179,103252,22.3441,28231,247
2.01324,2.786307,-1178,103253,22.6428,28230,248
0.884315,2.875786,-1177,103254,22.3939,28230,248
2.03678,2.820854,-1176,103255,22.6428,28230,248
1.11773,2.904145,-1175,103256,22.6926,28230,248
1.71386,2.799645,-1174,103257,22.6428,28230,248
0.921287,2.868003,-1173,103258,22.6428,28230,248
2.19238,2.860199,-1172,103259,22.5432,28230,248
1.71386,2.551824,-1171,103260,22.6926,28230,248
1.50657,2.764832,-1170,103261,22.6428,28230,248
1.37067,2.911831,-1169,103262,22.4935,28230,248
1.09619,2.937307,-1168,103263,22.6428,28234,257
0.941763,2.612419,-1167,103264,22.6926,28234,257
1.0381,2.860199,-1166,103265,22.4935,28234,257
1.54717,2.95753,-1165,103266,22.6926,28234,257
1.05631,2.904145,-1164,103267,22.5432,28234,257
1.09183,2.934769,-1163,103268,22.6428,28234,257
1.46484,2.820854,-1162,103269,22.8419,28234,257
1.66303,3.073652,-1161,103270,22.6428,28234,257
1.57769,3.059073,-1160,103271,22.7424,28234,257
2.56336,2.942376,-1159,103272,22.4935,28234,257
1.48103,2.975112,-1158,103273,22.6428,28233,247
1.40163,2.944907,-1157,103274,22.6428,28233,247
1.70549,2.857593,-1156,103275,22.5432,28233,247
1.88858,2.860199,-1155,103276,22.3939,28233,247
1.42525,2.937307,-1154,103277,22.8419,28233,247
1.76323,3.022319,-1153,103278,22.5432,28233,247
1.84774,2.982615,-1152,103279,22.7424,28233,247
1.69708,2.841906,-1151,103280,22.6428,28233,247
1.67446,2.828767,-1150,103281,22.6428,28233,247
1.958,2.756736,-1149,103282,22.4935,28233,247
1.79539,2.637962,-1148,103283,22.5432,28235,256
1.44518,2.828767,-1147,103284,22.4935,28235,256
0.862477,2.820854,-1146,103285,22.6926,28235,256
1.06977,2.820854,-1145,103286,22.4935,28235,256
1.4118,2.743189,-1144,103287,22.6428,28235,256
1.18402,2.828767,-1143,103288,22.6428,28235,256
0.834375,2.820854,-1142,103289,22.4935,28235,256
1.09619,2.783631,-1141,103290,22.6926,28235,256
0.817051,2.818212,-1140,103291,22.6428,28235,256
1.23912,2.767525,-1139,103292,22.6428,28235,256
1.05631,2.860199,-1138,103293,22.4935,28222,249
1.09183,3.029705,-1137,103294,22.5432,28222,249
2.68333,2.828767,-1136,103295,22.6926,28222,249
1.76052,2.828767,-1135,103296,22.6926,28222,249
1.43525,2.982615,-1134,103297,22.3939,28222,249
1.87592,3.097797,-1133,103298,22.6926,28222,249
1.33185,2.95753,-1132,103299,22.6428,28222,249
1.96772,2.868003,-1131,103300,22.6428,28222,249
1.44188,2.799645,-1130,103301,22.6428,28222,249
0.845728,2.982615,-1129,103302,22.5432,28222,249
1.74693,2.904145,-1128,103303,22.5432,28230,250
1.01487,2.783631,-1127,103304,22.5432,28230,250
1.80334,2.704897,-1126,103305,22.6428,28230,250
0.905627,2.799645,-1125,103306,22.6428,28230,250
1.53168,2.68832,-1124,103307,22.4935,28230,250
1.58973,2.713148,-1123,103308,22.8917,28230,250
1.76052,2.646421,-1122,103309,22.6428,28230,250
1.52856,2.911831,-1121,103310,22.6428,28230,250
1.17594,2.904145,-1120,103311,22.5432,28230,250
2.10585,2.783631,-1119,103312,22.8419,28230,250
1.80598,2.560568,-1118,103313,22.7424,28234,253
1.58973,2.59525,-1117,103314,22.5432,28234,253
1.09619,2.767525,-1116,103315,22.5432,28234,253
1.83739,2.937307,-1115,103316,22.5432,28234,253
1.3029,3.190218,-1114,103317,22.8419,28234,253
0.743728,2.924597,-1113,103318,22.4935,28234,253
1.60466,2.713148,-1112,103319,22.6428,28234,253
0.497951,2.860199,-1111,103320,22.6926,28234,253
0.78733,2.937307,-1110,103321,22.7424,28234,253
0.966748,2.975112,-1109,103322,22.6926,28234,253
1.70549,3.037074,-1108,103323,22.5432,28232,255
1.20794,2.767525,-1107,103324,22.6428,28232,255
1.50657,2.754032,-1106,103325,22.6428,28232,255
1.33185,2.982615,-1105,103326,22.5432,28232,255
1.25442,2.975112,-1104,103327,22.6428,28232,255
1.0381,2.820854,-1103,103328,22.7424,28232,255
1.79804,2.646421,-1102,103329,22.5432,28232,255
0.811194,2.807617,-1101,103330,22.6428,28232,255
0.717624,2.828767,-1100,103331,22.3441,28232,255
1.38796,2.799645,-1099,103332,22.6428,28232,255
1.60466,2.84976,-1098,103333,22.6926,28238,249
1.52231,2.745904,-1097,103334,22.3939,28238,249
1.80334,2.677211,-1096,103335,22.6926,28238,249
1.17998,2.740472,-1095,103336,22.5432,28238,249
1.45176,2.612419,-1094,103337,22.6428,28238,249
2.0739,2.637962,-1093,103338,22.6926,28238,249
1.79804,2.754032,-1092,103339,22.5432,28238,249
1.46484,2.783631,-1091,103340,22.5432,28238,249
1.83739,2.828767,-1090,103341,22.6428,28238,249
1.00543,2.982615,-1089,103342,22.5432,28238,249
1.51917,2.820854,-1088,103343,22.8917,28236,248
1.30655,2.635136,-1087,103344,22.8419,28236,248
1.60466,2.677211,-1086,103345,22.5432,28236,248
1.18402,2.713148,-1085,103346,22.5432,28236,248
2.16832,2.754032,-1084,103347,22.6926,28236,248
1.38452,2.975112,-1083,103348,22.5432,28236,248
1.36019,2.937307,-1082,103349,22.5432,28236,248
1.98701,2.860199,-1081,103350,22.7424,28236,248
2.02033,2.860199,-1080,103351,22.5432,28236,248
1.7767,2.743189,-1079,103352,22.4935,28236,248
1.59273,2.857593,-1078,103353,22.5432,28242,253
1.49385,2.860199,-1077,103354,22.6926,28242,253
1.54717,2.860199,-1076,103355,22.5432,28242,253
1.41854,2.841906,-1075,103356,22.6926,28242,253
1.67161,2.868003,-1074,103357,22.8419,28242,253
0.799351,2.786307,-1073,103358,22.6428,28242,253
1.73047,2.519503,-1072,103359,22.4935,28242,253
1.51917,2.786307,-1071,103360,22.6428,28242,253
1.48746,2.883548,-1070,103361,22.5432,28242,253
1.46484,2.794317,-1069,103362,22.6428,28242,253
1.34255,2.875786,-1068,103363,22.6428,28231,253
0.98628,2.904145,-1067,103364,22.5432,28231,253
1.7551,2.868003,-1066,103365,22.5432,28231,253
1.70829,2.767525,-1065,103366,22.6926,28231,253
1.91864,2.59812,-1064,103367,22.5432,28231,253
1.01016,2.704897,-1063,103368,22.6428,28231,253
1.25442,2.754032,-1062,103369,22.6428,28231,253
1.69427,2.828767,-1061,103370,22.6428,28231,253
1.21581,2.904145,-1060,103371,22.6428,28231,253
1.91615,2.904145,-1059,103372,22.6428,28231,253
0.793363,2.904145,-1058,103373,22.6428,28237,251
1.52231,2.786307,-1057,103374,22.6428,28237,251
1.5034,2.702142,-1056,103375,22.5432,28237,251
1.85547,2.704897,-1055,103376,22.6428,28237,251
1.66016,2.820854,-1054,103377,22.6428,28237,251
1.14304,2.794317,-1053,103378,22.4935,28237,251
1.74146,2.764832,-1052,103379,22.4935,28237,251
1.19604,2.740472,-1051,103380,22.6926,28237,251
2.25034,2.924597,-1050,103381,22.6428,28237,251
1.3102,2.828767,-1049,103382,22.8419,28237,251
1.76323,2.904145,-1048,103383,22.8419,28235,251
1.3637,2.637962,-1047,103384,22.6428,28235,251
1.1472,2.679992,-1046,103385,22.6428,28235,251
2.22905,2.69109,-1045,103386,22.6926,28235,251
1.51603,2.828767,-1044,103387,22.5432,28235,251
1.54408,3.029705,-1043,103388,22.6428,28235,251
1.4681,2.875786,-1042,103389,22.8917,28235,251
2.23118,2.95753,-1041,103390,22.8419,28235,251
1.42859,2.710401,-1040,103391,22.3939,28235,251
1.76323,2.575076,-1039,103392,22.8419,28235,251
1.62826,2.677211,-1038,103393,22.6926,28236,253
1.04268,2.794317,-1037,103394,22.6428,28236,253
1.25442,2.937307,-1036,103395,22.6428,28236,253
2.60945,2.860199,-1035,103396,22.6428,28236,253
2.19238,2.677211,-1034,103397,22.6428,28236,253
1.85547,2.660461,-1033,103398,22.5432,28236,253
0.961803,2.778273,-1032,103399,22.6926,28236,253
1.9798,2.914389,-1031,103400,22.6926,28236,253
0.981433,2.911831,-1030,103401,22.4935,28236,253
1.61355,2.820854,-1029,103402,22.4935,28236,253
0.966748,2.783631,-1028,103403,22.5432,28230,249
1.22363,2.756736,-1027,103404,22.6926,28230,249
1.17998,2.754032,-1026,103405,22.6428,28230,249
1.52856,2.756736,-1025,103406,22.8419,28230,249
0.690534,2.975112,-1024,103407,22.6428,28230,249
1.46158,2.841906,-1023,103408,22.6926,28230,249
2.22905,2.560568,-1022,103409,22.5432,28230,249
1.71108,2.713148,-1021,103410,22.8419,28230,249
0.768946,2.944907,-1020,103411,22.6428,28230,249
1.51917,2.944907,-1019,103412,22.6926,28230,249
0.995902,2.828767,-1018,103413,22.8419,28229,257
0.811194,2.794317,-1017,103414,22.6428,28229,257
0.85693,2.668849,-1016,103415,22.5432,28229,257
1.76323,2.677211,-1015,103416,22.8419,28229,257
2.58559,2.767525,-1014,103417,22.5432,28229,257
1.88606,2.924597,-1013,103418,22.5432,28229,257
1.48746,2.754032,-1012,103419,22.6428,28229,257
1.72772,2.904145,-1011,103420,22.5432,28229,257
1.34255,2.786307,-1010,103421,22.6428,28229,257
1.11773,2.786307,-1009,103422,22.5432,28229,257
0.995902,2.794317,-1008,103423,22.6428,28235,249
1.97256,2.726844,-1007,103424,22.6428,28235,249
1.14304,2.841906,-1006,103425,22.5432,28235,249
1.79804,2.826132,-1005,103426,22.5432,28235,249
1.01487,2.942376,-1004,103427,22.3441,28235,249
2.25457,2.726844,-1003,103428,22.6926,28235,249
1.958,2.807617,-1002,103429,22.6428,28235,249
1.30655,2.635136,-1001,103430,22.6428,28235,249
0.447517,2.654854,-1000,103431,22.4935,28235,249
1.49704,2.69109,-999,103432,22.6428,28235,249
1.71942,2.677211,-998,103433,22.6428,28236,255
2.45892,2.551824,-997,103434,22.8419,28236,255
1.38452,2.59812,-996,103435,22.7424,28236,255
0.402647,2.841906,-995,103436,22.6428,28236,255
0.690534,2.911831,-994,103437,22.7424,28236,255
1.8606,2.883548,-993,103438,22.6428,28236,255
1.28817,2.772904,-992,103439,22.6926,28236,255
1.57769,2.713148,-991,103440,22.4935,28236,255
1.07865,2.764832,-990,103441,22.6428,28236,255
0.497951,2.841906,-989,103442,22.6428,28236,255
1.09619,2.767525,-988,103443,22.5432,28239,244
1.00068,2.794317,-987,103444,22.6428,28239,244
1.11345,2.911831,-986,103445,22.6428,28239,244
0.308816,2.937307,-985,103446,22.6926,28239,244
1.28817,2.828767,-984,103447,22.6428,28239,244
1.76052,2.756736,-983,103448,22.8419,28239,244
2.32946,2.612419,-982,103449,22.3939,28239,244
1.21188,2.646421,-981,103450,22.7424,28239,244
2.13508,2.820854,-980,103451,22.6428,28239,244
1.90116,2.901578,-979,103452,22.6428,28239,244
1.7767,2.794317,-978,103453,22.6926,28226,257
1.26953,2.820854,-977,103454,22.6926,28226,257
1.29556,2.965078,-976,103455,22.7424,28226,257
1.29923,2.807617,-975,103456,22.5432,28226,257
0.690534,2.764832,-974,103457,22.5432,28226,257
2.06237,2.740472,-973,103458,22.6428,28226,257
1.63702,2.519503,-972,103459,22.6428,28226,257
2.00136,2.818212,-971,103460,22.6428,28226,257
1.17188,2.904145,-970,103461,22.5432,28226,257
1.98701,2.637962,-969,103462,22.6926,28226,257
1.80334,2.480762,-968,103463,22.4935,28233,251
1.80334,2.756736,-967,103464,22.4935,28233,251
1.86316,2.713148,-966,103465,22.6926,28233,251
2.05543,2.710401,-965,103466,22.6428,28233,251
1.73047,2.796982,-964,103467,22.6926,28233,251
1.50022,2.754032,-963,103468,22.6926,28233,251
2.03444,2.972606,-962,103469,22.6428,28233,251
1.80334,2.904145,-961,103470,22.5432,28233,251
2.38009,2.589502,-960,103471,22.6926,28233,251
1.60168,2.575076,-959,103472,22.6428,28233,251
1.21581,2.563477,-958,103473,22.6428,28234,256
2.02269,2.560568,-957,103474,22.4935,28234,256
1.31383,2.668849,-956,103475,22.7424,28234,256
1.37067,2.637962,-955,103476,22.6428,28234,256
1.33185,2.710401,-954,103477,22.6926,28234,256
1.27328,2.841906,-953,103478,22.6428,28234,256
1.51603,2.635136,-952,103479,22.5432,28234,256
0.905627,2.668849,-951,103480,22.6926,28234,256
1.71942,2.519503,-950,103481,22.8419,28234,256
1.44188,2.786307,-949,103482,22.6926,28234,256
1.80069,2.883548,-948,103483,22.5432,28228,249
1.65152,2.764832,-947,103484,22.6926,28228,249
0.840071,2.575076,-946,103485,22.6926,28228,249
2.13508,2.726844,-945,103486,22.6926,28228,249
1.57769,2.944907,-944,103487,22.6428,28228,249
1.4681,2.756736,-943,103488,22.6926,28228,249
0.905627,2.754032,-942,103489,22.6428,28228,249
1.24296,2.732303,-941,103490,22.5432,28228,249
0.905627,2.772904,-940,103491,22.5432,28228,249
1.76052,2.764832,-939,103492,22.6926,28228,249
1.48103,2.783631,-938,103493,22.8419,28238,251
1.86316,2.646421,-937,103494,22.5432,28238,251
1.31745,2.54305,-936,103495,22.5432,28238,251
1.33185,2.677211,-935,103496,22.6926,28238,251
1.45176,2.807617,-934,103497,22.6428,28238,251
1.47134,2.679992,-933,103498,22.6428,28238,251
1.64283,2.679992,-932,103499,22.8419,28238,251
1.50657,2.679992,-931,103500,22.5432,28238,251
1.3637,2.646421,-930,103501,22.6926,28238,251
1.53789,2.444456,-929,103502,22.5432,28238,251
1.94824,2.426099,-928,103503,22.6428,28246,260
1.14304,2.426099,-927,103504,22.6428,28246,260
1.4681,2.528359,-926,103505,22.6926,28246,260
1.33543,3.029705,-925,103506,22.6428,28246,260
0.889691,2.944907,-924,103507,22.6926,28246,260
1.48103,2.794317,-923,103508,22.4935,28246,260
1.91864,2.646421,-922,103509,22.6428,28246,260
1.49385,2.794317,-921,103510,22.4935,28246,260
1.45176,2.911831,-920,103511,22.6428,28246,260
1.09619,2.794317,-919,103512,22.6428,28246,260
2.11263,2.646421,-918,103513,22.4935,28230,248
1.42525,2.807617,-917,103514,22.6428,28230,248
1.6165,2.575076,-916,103515,22.4935,28230,248
1.67161,2.519503,-915,103516,22.6428,28230,248
1.38452,2.489756,-914,103517,22.4935,28230,248
1.55638,2.560568,-913,103518,22.3939,28230,248
1.78473,2.444456,-912,103519,22.6926,28230,248
1.65152,2.528359,-911,103520,22.7424,28230,248
0.995902,2.489756,-910,103521,22.4935,28230,248
1.22363,2.764832,-909,103522,22.6926,28230,248
1.5034,2.69109,-908,103523,22.6428,28240,257
1.09619,2.435295,-907,103524,22.4935,28240,257
1.86827,2.548903,-906,103525,22.4935,28240,257
1.02423,2.677211,-905,103526,22.6428,28240,257
1.48746,2.660461,-904,103527,22.6926,28240,257
1.64863,2.516544,-903,103528,22.3939,28240,257
1.68863,2.528359,-902,103529,22.4935,28240,257
1.37067,2.794317,-901,103530,22.6926,28240,257
1.60466,2.778273,-900,103531,22.7424,28240,257
0.884315,2.796982,-899,103532,22.6926,28240,257
1.69708,2.660461,-898,103533,22.5432,28233,254
1.32467,2.637962,-897,103534,22.6428,28233,254
1.19205,2.629475,-896,103535,22.6428,28233,254
1.78473,2.677211,-895,103536,22.5432,28233,254
1.10916,2.740472,-894,103537,22.7424,28233,254
2.31715,2.646421,-893,103538,22.5432,28233,254
1.1472,2.778273,-892,103539,22.5432,28233,254
1.89865,2.635136,-891,103540,22.6428,28233,254
1.13886,2.528359,-890,103541,22.8419,28233,254
1.85804,2.677211,-889,103542,22.6428,28233,254
1.61945,2.637962,-888,103543,22.6428,28239,252
2.41588,2.794317,-887,103544,22.6926,28239,252
2.39407,2.794317,-886,103545,22.5432,28239,252
1.79539,2.635136,-885,103546,22.4935,28239,252
1.54408,2.471735,-884,103547,22.6428,28239,252
1.49066,2.620961,-883,103548,22.6926,28239,252
2.23118,2.677211,-882,103549,22.4935,28239,252
1.09183,2.69109,-881,103550,22.5432,28239,252
1.37415,2.501697,-880,103551,22.4935,28239,252
0.458048,2.283726,-879,103552,22.4935,28239,252
1.38452,2.528359,-878,103553,22.4935,28236,250
1.4118,2.646421,-877,103554,22.6428,28236,250
1.43525,2.528359,-876,103555,22.6428,28236,250
1.73872,2.620961,-875,103556,22.6428,28236,250
1.19604,2.646421,-874,103557,22.3939,28236,250
1.54717,2.710401,-873,103558,22.5432,28236,250
1.19205,2.495733,-872,103559,22.7424,28236,250
1.84257,2.528359,-871,103560,22.8419,28236,250
2.48208,2.435295,-870,103561,22.6926,28236,250
1.66589,2.620961,-869,103562,22.6428,28236,250
1.27328,2.778273,-868,103563,22.6428,28246,250
1.59273,2.615269,-867,103564,22.8419,28246,250
1.76052,2.620961,-866,103565,22.4935,28246,250
1.48103,2.646421,-865,103566,22.6428,28246,250
1.44518,2.635136,-864,103567,22.6428,28246,250
2.18366,2.600986,-863,103568,22.6428,28246,250
1.27702,2.501697,-862,103569,22.6428,28246,250
1.70829,2.677211,-861,103570,22.6926,28246,250
1.72772,2.660461,-860,103571,22.8419,28246,250
2.30684,2.660461,-859,103572,22.5432,28246,250
0.690534,2.54305,-858,103573,22.8419,28236,252
0.488281,2.54305,-857,103574,22.6428,28236,252
1.39139,2.646421,-856,103575,22.6926,28236,252
0.862477,2.646421,-855,103576,22.5432,28236,252
1.14304,2.660461,-854,103577,22.6428,28236,252
1.43857,2.660461,-853,103578,22.6428,28236,252
1.74966,2.495733,-852,103579,22.5432,28236,252
1.55638,2.707651,-851,103580,22.6926,28236,252
1.68863,2.975112,-850,103581,22.6926,28236,252
1.3637,2.896438,-849,103582,22.4935,28236,252
1.27702,2.660461,-848,103583,22.5432,28241,247
1.71108,2.401406,-847,103584,22.4935,28241,247
0.981433,2.492746,-846,103585,22.4935,28241,247
1.34255,2.426099,-845,103586,22.6926,28241,247
1.71664,2.59525,-844,103587,22.5432,28241,247
1.92112,2.492746,-843,103588,22.5432,28241,247
1.71664,2.551824,-842,103589,22.6926,28241,247
1.21188,2.528359,-841,103590,22.8917,28241,247
0.946812,2.704897,-840,103591,22.8419,28241,247
0.737289,2.754032,-839,103592,22.7424,28241,247
1.37067,2.754032,-838,103593,22.6428,28235,258
2.0739,2.637962,-837,103594,22.7424,28235,258
2.32332,2.480762,-836,103595,22.5432,28235,258
0.525895,2.679992,-835,103596,22.6428,28235,258
1.33185,2.772904,-834,103597,22.7424,28235,258
1.77132,2.732303,-833,103598,22.6428,28235,258
2.4974,2.668849,-832,103599,22.6926,28235,258
1.49385,2.528359,-831,103600,22.4935,28235,258
0.41432,2.612419,-830,103601,22.6428,28235,258
1.32827,2.612419,-829,103602,22.6926,28235,258
1.88099,2.382717,-828,103603,22.6428,28234,257
2.59479,2.600986,-827,103604,22.6428,28234,257
1.80598,2.635136,-826,103605,22.4935,28234,257
1.52856,2.501697,-825,103606,22.6926,28234,257
1.52856,2.471735,-824,103607,22.6428,28234,257
1.90617,2.635136,-823,103608,22.8419,28234,257
2.08765,2.635136,-822,103609,22.8419,28234,257
1.52856,2.519503,-821,103610,22.8419,28234,257
1.21581,2.620961,-820,103611,22.5432,28234,257
1.958,2.54305,-819,103612,22.7424,28234,257
1.21581,2.410696,-818,103613,22.7424,28234,257
1.62532,2.501697,-817,103614,22.6428,28234,257
1.88606,2.735029,-816,103615,22.6926,28234,257
1.48746,2.516544,-815,103616,22.6428,28234,257
1.40163,2.360727,-814,103617,22.5432,28234,257
1.26953,2.344894,-813,103618,22.6926,28234,257
1.37067,2.398301,-812,103619,22.5432,28234,257
1.94088,2.563477,-811,103620,22.5432,28234,257
2.03444,2.660461,-810,103621,22.4935,28234,257
1.33185,2.660461,-809,103622,22.6926,28234,257
1.04725,2.679992,-808,103623,22.6926,28223,253
2.32946,2.537184,-807,103624,22.4935,28223,253
2.01797,2.54305,-806,103625,22.4935,28223,253
1.51603,2.660461,-805,103626,22.5432,28223,253
0.799351,2.480762,-804,103627,22.6428,28223,253
0.793363,2.495733,-803,103628,22.4935,28223,253
1.85804,2.501697,-802,103629,22.6428,28223,253
1.49066,2.69109,-801,103630,22.6428,28223,253
0.878906,2.563477,-800,103631,22.6926,28223,253
0.507437,2.679992,-799,103632,22.6428,28223,253
0.577742,2.646421,-798,103633,22.3939,28241,249
0.662337,2.600986,-797,103634,22.6926,28241,249
1.74146,2.620961,-796,103635,22.5432,28241,249
1.07422,2.754032,-795,103636,22.6428,28241,249
1.33185,2.635136,-794,103637,22.6428,28241,249
1.31745,2.501697,-793,103638,22.4935,28241,249
1.16371,2.516544,-792,103639,22.6428,28241,249
2.13954,2.646421,-791,103640,22.6428,28241,249
1.19205,2.668849,-790,103641,22.5432,28241,249
1.7551,2.480762,-789,103642,22.6428,28241,249
1.78473,2.410696,-788,103643,22.8419,28235,251
1.19604,2.382717,-787,103644,22.4935,28235,251
0.768946,2.501697,-786,103645,22.6428,28235,251
1.89614,2.620961,-785,103646,22.6428,28235,251
0.577742,2.480762,-784,103647,22.6926,28235,251
1.8606,2.495733,-783,103648,22.5432,28235,251
1.84257,2.528359,-782,103649,22.6428,28235,251
1.39481,2.410696,-781,103650,22.6428,28235,251
1.79539,2.224227,-780,103651,22.4935,28235,251
0.817051,2.121356,-779,103652,22.6926,28235,251
0.905627,2.501697,-778,103653,22.5432,28242,251
1.25821,2.537184,-777,103654,22.6428,28242,251
1.36019,2.820854,-776,103655,22.6428,28242,251
1.74966,2.820854,-775,103656,22.6428,28242,251
1.82698,2.635136,-774,103657,22.5432,28242,251
1.37415,2.376455,-773,103658,22.6926,28242,251
1.59273,2.257476,-772,103659,22.6926,28242,251
2.15287,2.480762,-771,103660,22.5432,28242,251
1.99897,2.660461,-770,103661,22.8419,28242,251
0.834375,2.914389,-769,103662,22.5432,28242,251
1.64863,2.654854,-768,103663,22.5432,28243,253
1.65152,2.1458,-767,103664,22.5432,28243,253
1.32827,2.309679,-766,103665,22.7424,28243,253
1.34255,2.635136,-765,103666,22.6428,28243,253
1.5034,2.480762,-764,103667,22.6428,28243,253
1.74146,2.360727,-763,103668,22.5432,28243,253
1.22752,2.495733,-762,103669,22.5432,28243,253
1.71664,2.382717,-761,103670,22.6926,28243,253
1.48746,2.360727,-760,103671,22.8419,28243,253
1.37067,2.480762,-759,103672,22.5432,28243,253
1.43525,2.495733,-758,103673,22.5432,28240,253
1.37067,2.495733,-757,103674,22.6428,28240,253
1.45176,2.398301,-756,103675,22.6428,28240,253
1.27328,2.516544,-755,103676,22.6428,28240,253
1.41517,2.516544,-754,103677,22.8419,28240,253
1.40163,2.54305,-753,103678,22.1948,28240,253
1.39139,2.679992,-752,103679,22.6926,28240,253
1.3637,2.635136,-751,103680,22.4935,28240,253
2.25034,2.373318,-750,103681,22.8419,28240,253
1.10916,2.495733,-749,103682,22.6428,28240,253
1.07422,2.679992,-748,103683,22.6926,28243,257
0.710948,2.615269,-747,103684,22.6926,28243,257
1.09619,2.335343,-746,103685,22.6926,28243,257
1.76052,2.35124,-745,103686,22.6428,28243,257
1.12623,2.495733,-744,103687,22.5432,28243,257
0.59402,2.382717,-743,103688,22.6428,28243,257
1.7767,2.240913,-742,103689,22.6428,28243,257
1.49385,2.360727,-741,103690,22.3939,28243,257
1.23912,2.41995,-740,103691,22.6926,28243,257
1.94579,2.376455,-739,103692,22.6428,28243,257
0.697405,2.401406,-738,103693,22.7424,28241,260
0.78733,2.501697,-737,103694,22.5432,28241,260
1.55332,2.257476,-736,103695,22.6428,28241,260
1.47781,2.35124,-735,103696,22.6428,28241,260
2.09677,2.495733,-734,103697,22.5432,28241,260
2.01324,2.495733,-733,103698,22.6926,28241,260
1.01956,2.635136,-732,103699,22.6428,28241,260
0.828641,2.635136,-731,103700,22.8917,28241,260
2.09449,2.376455,-730,103701,22.2943,28241,260
1.51603,2.240913,-729,103702,22.3939,28241,260
2.30684,2.376455,-728,103703,22.6926,28234,250
1.73323,2.459649,-727,103704,22.6428,28234,250
1.01956,2.447502,-726,103705,22.4935,28234,250
0.41432,2.257476,-725,103706,22.7424,28234,250
1.38452,2.240913,-724,103707,22.6926,28234,250
2.16171,2.373318,-723,103708,22.6428,28234,250
1.51917,2.471735,-722,103709,22.5432,28234,250
1.28447,2.480762,-721,103710,22.6926,28234,250
2.11488,2.280462,-720,103711,22.6926,28234,250
1.19205,2.41995,-719,103712,22.6428,28234,250
1.12198,2.54305,-718,103713,22.5432,28242,252
1.80334,2.480762,-717,103714,22.4935,28242,252
0.905627,2.373318,-716,103715,22.7424,28242,252
1.44188,2.293493,-715,103716,22.4935,28242,252
1.74966,2.309679,-714,103717,22.8419,28242,252
1.47134,2.376455,-713,103718,22.6428,28242,252
1.66303,2.280462,-712,103719,22.8419,28242,252
1.28447,2.41995,-711,103720,22.6926,28242,252
1.30655,2.501697,-710,103721,22.6428,28242,252
1.33185,2.480762,-709,103722,22.6428,28242,252
1.76052,2.382717,-708,103723,22.6428,28241,254
1.86572,2.360727,-707,103724,22.3939,28241,254
1.11773,2.480762,-706,103725,22.6428,28241,254
1.55638,2.592378,-705,103726,22.6428,28241,254
1.3461,2.492746,-704,103727,22.6428,28241,254
1.98461,2.501697,-703,103728,22.6428,28241,254
2.04845,2.264067,-702,103729,22.6428,28241,254
2.23972,2.398301,-701,103730,22.6428,28241,254
1.11345,2.360727,-700,103731,22.7424,28241,254
1.48103,2.41995,-699,103732,22.4935,28241,254
0.946812,2.635136,-698,103733,22.6428,28245,255
1.10916,2.528359,-697,103734,22.6926,28245,255
0.750112,2.264067,-696,103735,22.8419,28245,255
0.569429,2.257476,-695,103736,22.7424,28245,255
1.14304,2.519503,-694,103737,22.5432,28245,255
2.0739,2.677211,-693,103738,22.6428,28245,255
0.811194,2.360727,-692,103739,22.7424,28245,255
2.11037,2.240913,-691,103740,22.5432,28245,255
1.34255,2.280462,-690,103741,22.4935,28245,255
0.560992,2.264067,-689,103742,22.4935,28245,255
0.534885,2.240913,-688,103743,22.5432,28233,250
0.560992,2.257476,-687,103744,22.4935,28233,250
1.82437,2.110793,-686,103745,22.6428,28233,250
1.77132,2.240913,-685,103746,22.6428,28233,250
1.7767,2.426099,-684,103747,22.6428,28233,250
1.11345,2.410696,-683,103748,22.6428,28233,250
0.569429,2.382717,-682,103749,22.5432,28233,250
1.61355,2.227574,-681,103750,22.5432,28233,250
1.67446,2.35124,-680,103751,22.6428,28233,250
1.47781,2.398301,-679,103752,22.8419,28233,250
1.31383,2.264067,-678,103753,22.6926,28232,258
0.447517,2.224227,-677,103754,22.3939,28232,258
1.76052,2.501697,-676,103755,22.6926,28232,258
2.00136,2.537184,-675,103756,22.5432,28232,258
1.30655,2.537184,-674,103757,22.6428,28232,258
0.840071,2.373318,-673,103758,22.6428,28232,258
0.900346,2.135358,-672,103759,22.8419,28232,258
1.88858,2.002102,-671,103760,22.5432,28232,258
1.62532,2.1458,-670,103761,22.6428,28232,258
1.7551,2.528359,-669,103762,22.4935,28232,258
2.37608,2.519503,-668,103763,22.6428,28236,255
1.40163,2.264067,-667,103764,22.6428,28236,255
0.845728,2.121356,-666,103765,22.6428,28236,255
1.69427,2.426099,-665,103766,22.3939,28236,255
1.9798,2.35124,-664,103767,22.5432,28236,255
1.28075,2.280462,-663,103768,22.4935,28236,255
1.02423,2.398301,-662,103769,22.6428,28236,255
1.38796,2.382717,-661,103770,22.6428,28236,255
2.59479,2.563477,-660,103771,22.6428,28236,255
0.905627,2.33215,-659,103772,22.5432,28236,255
2.05543,2.138845,-658,103773,22.6428,28247,246
2.73612,2.09307,-657,103774,22.5432,28247,246
2.34782,2.230916,-656,103775,22.6428,28247,246
2.09677,2.280462,-655,103776,22.6926,28247,246
1.05631,2.257476,-654,103777,22.6428,28247,246
1.64863,2.376455,-653,103778,22.3939,28247,246
1.51917,2.398301,-652,103779,22.3939,28247,246
2.03444,2.447502,-651,103780,22.7424,28247,246
1.51917,2.426099,-650,103781,22.6428,28247,246
1.25442,2.280462,-649,103782,22.7424,28247,246
1.71386,2.360727,-648,103783,22.7424,28240,252
1.52544,2.382717,-647,103784,22.6926,28240,252
1.11345,2.382717,-646,103785,22.6926,28240,252
1.26953,2.537184,-645,103786,22.8419,28240,252
1.49385,2.398301,-644,103787,22.7424,28240,252
1.34255,2.360727,-643,103788,22.6926,28240,252
0.710948,2.501697,-642,103789,22.5432,28240,252
1.88606,2.59525,-641,103790,22.6926,28240,252
1.45176,2.328953,-640,103791,22.3441,28240,252
1.83479,2.283726,-639,103792,22.6428,28240,252
1.49066,2.135358,-638,103793,22.6428,28234,253
1.20794,2.046271,-637,103794,22.6926,28234,253
1.31745,2.176826,-636,103795,22.8419,28234,253
1.3637,2.283726,-635,103796,22.6428,28234,253
1.21581,2.401406,-634,103797,22.5432,28234,253
1.9798,2.264067,-633,103798,22.4935,28234,253
1.46484,2.41995,-632,103799,22.4935,28234,253
1.9335,2.516544,-631,103800,22.6428,28234,253
0.921287,2.398301,-630,103801,22.6926,28234,253
1.78473,2.280462,-629,103802,22.8419,28234,253
1.71664,2.303218,-628,103803,22.3939,28238,249
1.63993,2.016933,-627,103804,22.6926,28238,249
0.710948,2.193872,-626,103805,22.3441,28238,249
1.94824,2.264067,-625,103806,22.6428,28238,249
1.19205,2.373318,-624,103807,22.4935,28238,249
0.793363,2.401406,-623,103808,22.3939,28238,249
1.90867,2.401406,-622,103809,22.6926,28238,249
1.3102,2.283726,-621,103810,22.4935,28238,249
1.11773,2.135358,-620,103811,22.6926,28238,249
1.28817,2.110793,-619,103812,22.6926,28238,249
1.32467,2.230916,-618,103813,22.6926,28246,253
1.54408,2.398301,-617,103814,22.5432,28246,253
1.28447,2.1458,-616,103815,22.6428,28246,253
0.840071,2.110793,-615,103816,22.8419,28246,253
1.41854,1.987161,-614,103817,22.6428,28246,253
1.47781,1.883209,-613,103818,22.4935,28246,253
1.36019,1.990907,-612,103819,22.6926,28246,253
1.76323,2.121356,-611,103820,22.5432,28246,253
1.17594,2.254173,-610,103821,22.6428,28246,253
1.51917,2.254173,-609,103822,22.4935,28246,253
1.62532,2.280462,-608,103823,22.6926,28242,252
1.70829,2.398301,-607,103824,22.6428,28242,252
0.905627,2.264067,-606,103825,22.6428,28242,252
1.31745,2.35124,-605,103826,22.5432,28242,252
1.07422,2.373318,-604,103827,22.6926,28242,252
2.18802,2.283726,-603,103828,22.7424,28242,252
1.05631,2.230916,-602,103829,22.6428,28242,252
1.85547,2.217517,-601,103830,22.3939,28242,252
1.28817,2.193872,-600,103831,22.6428,28242,252
1.52856,2.135358,-599,103832,22.5432,28242,252
1.19604,2.214155,-598,103833,22.5432,28234,253
1.81125,2.348069,-597,103834,22.6428,28234,253
1.55332,2.163091,-596,103835,22.5432,28234,253
1.00543,2.254173,-595,103836,22.6428,28234,253
1.5987,2.492746,-594,103837,22.3939,28234,253
1.5034,2.121356,-593,103838,22.7424,28234,253
1.65152,2.027984,-592,103839,22.5432,28234,253
1.1472,2.166533,-591,103840,22.6926,28234,253
1.29923,2.10726,-590,103841,22.6926,28234,253
1.18804,2.230916,-589,103842,22.6926,28234,253
2.38609,2.254173,-588,103843,22.6428,28227,254
1.39822,2.230916,-587,103844,22.6926,28227,254
1.02423,2.1458,-586,103845,22.8419,28227,254
1.37415,2.328953,-585,103846,22.8419,28227,254
1.86316,2.328953,-584,103847,22.6926,28227,254
1.17998,2.316121,-583,103848,22.6926,28227,254
1.86572,2.398301,-582,103849,22.6428,28227,254
1.42525,2.293493,-581,103850,22.7424,28227,254
1.27328,2.283726,-580,103851,22.4935,28227,254
1.09619,2.1458,-579,103852,22.5432,28227,254
1.15135,2.176826,-578,103853,22.4935,28229,252
2.04379,2.027984,-577,103854,22.5432,28229,252
1.39822,2.027984,-576,103855,22.5432,28229,252
1.57466,2.131866,-575,103856,22.4935,28229,252
1.18402,2.254173,-574,103857,22.8419,28229,252
1.87846,2.382717,-573,103858,22.6926,28229,252
1.73047,2.401406,-572,103859,22.6428,28229,252
1.25821,2.131866,-571,103860,22.6428,28229,252
1.45505,2.135358,-570,103861,22.8419,28229,252
1.43857,2.166533,-569,103862,22.5432,28229,252
1.43525,2.328953,-568,103863,22.6428,28243,255
2.2819,2.319336,-567,103864,22.6428,28243,255
1.17594,2.046271,-566,103865,22.7424,28243,255
1.52544,2.1458,-565,103866,22.6428,28243,255
2.0693,2.135358,-564,103867,22.6428,28243,255
1.49066,2.280462,-563,103868,22.6926,28243,255
2.25457,2.163091,-562,103869,22.6926,28243,255
2.69397,2.176826,-561,103870,22.4935,28243,255
0.655098,2.1458,-560,103871,22.6926,28243,255
0.921287,2.121356,-559,103872,22.4935,28243,255
1.38796,1.990907,-558,103873,22.6926,28233,252
1.00543,2.163091,-557,103874,22.6428,28233,252
1.37067,2.204037,-556,103875,22.4935,28233,252
1.40163,2.200654,-555,103876,22.6926,28233,252
1.58973,2.204037,-554,103877,22.7424,28233,252
2.11488,2.204037,-553,103878,22.6926,28233,252
1.76323,2.027984,-552,103879,22.6428,28233,252
1.78473,2.264067,-551,103880,22.5432,28233,252
0.78733,2.35124,-550,103881,22.6428,28233,252
1.12198,2.398301,-549,103882,22.4935,28233,252
0.966748,2.013235,-548,103883,22.5432,28240,248
1.80598,1.883209,-547,103884,22.5432,28240,248
1.21581,2.1458,-546,103885,22.6428,28240,248
0.921287,2.283726,-545,103886,22.8419,28240,248
1.46484,2.410696,-544,103887,22.5432,28240,248
1.60168,2.135358,-543,103888,22.6428,28240,248
0.921287,1.990907,-542,103889,22.6926,28240,248
1.59572,2.046271,-541,103890,22.5432,28240,248
1.12623,2.103722,-540,103891,22.5432,28240,248
1.87592,2.293493,-539,103892,22.8917,28240,248
1.71108,2.166533,-538,103893,22.6428,28233,255
0.946812,2.049909,-537,103894,22.5432,28233,255
1.49385,2.049909,-536,103895,22.4935,28233,255
1.71942,2.200654,-535,103896,22.6428,28233,255
1.81388,2.293493,-534,103897,22.6428,28233,255
1.09619,2.254173,-533,103898,22.6428,28233,255
0.59402,2.166533,-532,103899,22.6428,28233,255
1.24296,2.200654,-531,103900,22.6926,28233,255
2.03209,2.135358,-530,103901,22.7424,28233,255
2.17929,2.049909,-529,103902,22.6428,28233,255
0.966748,2.166533,-528,103903,22.6428,28239,252
1.04725,2.110793,-527,103904,22.6428,28239,252
0.793363,1.972106,-526,103905,22.7424,28239,252
1.32827,2.016933,-525,103906,22.6926,28239,252
1.68863,2.283726,-524,103907,22.4935,28239,252
1.29923,2.176826,-523,103908,22.6428,28239,252
1.87592,2.013235,-522,103909,22.6428,28239,252
0.507437,2.163091,-521,103910,22.5432,28239,252
2.08994,2.319336,-520,103911,22.4935,28239,252
1.63702,2.432234,-519,103912,22.6428,28239,252
2.12388,2.283726,-518,103913,22.4935,28245,249
0.690534,2.013235,-517,103914,22.6428,28245,249
0.569429,2.131866,-516,103915,22.5432,28245,249
1.48103,2.280462,-515,103916,22.4935,28245,249
1.83739,2.176826,-514,103917,22.8419,28245,249
1.39822,2.089507,-513,103918,22.6428,28245,249
0.878906,2.135358,-512,103919,22.5432,28245,249
1.38452,2.085938,-511,103920,22.5432,28245,249
2.00612,2.135358,-510,103921,22.6926,28245,249
2.03444,2.240913,-509,103922,22.6926,28245,249
1.51603,2.027984,-508,103923,22.6428,28241,251
1.76052,1.945481,-507,103924,22.6926,28241,251
1.00543,2.085938,-506,103925,22.6926,28241,251
1.49385,2.131866,-505,103926,22.6926,28241,251
1.77938,2.046271,-504,103927,22.5432,28241,251
1.48746,2.135358,-503,103928,22.3939,28241,251
2.39606,2.204037,-502,103929,22.6428,28241,251
1.44518,2.163091,-501,103930,22.5432,28241,251
2.47246,2.166533,-500,103931,22.6428,28241,251
1.37415,2.085938,-499,103932,22.6428,28241,251
2.50122,2.089507,-498,103933,22.6428,28245,249
1.15548,2.00582,-497,103934,22.6428,28245,249
1.07422,1.902888,-496,103935,22.6428,28245,249
1.17594,2.002102,-495,103936,22.6926,28245,249
1.59273,1.867317,-494,103937,22.5432,28245,249
0.617632,2.110793,-493,103938,22.6428,28245,249
1.44518,2.131866,-492,103939,22.6428,28245,249
1.19205,2.046271,-491,103940,22.5432,28245,249
1.13886,2.244235,-490,103941,22.6428,28245,249
1.98701,2.089507,-489,103942,22.7424,28245,249
1.87592,2.046271,-488,103943,22.6926,28245,253
1.80598,2.135358,-487,103944,22.5432,28245,253
1.13045,2.204037,-486,103945,22.6428,28245,253
0.601994,2.135358,-485,103946,22.6428,28245,253
1.51917,2.357569,-484,103947,22.6926,28245,253
1.8606,2.089507,-483,103948,22.7424,28245,253
1.49385,2.016933,-482,103949,22.6428,28245,253
1.40842,2.013235,-481,103950,22.7424,28245,253
1.22363,2.016933,-480,103951,22.8419,28245,253
1.4118,2.176826,-479,103952,22.4935,28245,253
1.14304,2.244235,-478,103953,22.5432,28240,253
0.85693,2.089507,-477,103954,22.6926,28240,253
1.36019,1.933957,-476,103955,22.4935,28240,253
1.53789,1.781558,-475,103956,22.6926,28240,253
1.24296,1.781558,-474,103957,22.6926,28240,253
1.58673,2.214155,-473,103958,22.5432,28240,253
1.30655,2.257476,-472,103959,22.6926,28240,253
1.36019,2.319336,-471,103960,22.5432,28240,253
1.50657,2.089507,-470,103961,22.4935,28240,253
1.70829,1.945481,-469,103962,22.6428,28240,253
1.65152,1.972106,-468,103963,22.6428,28242,255
1.40163,2.100177,-467,103964,22.6926,28242,255
1.85547,2.060784,-466,103965,22.8419,28242,255
1.28447,2.013235,-465,103966,22.4935,28242,255
1.77401,2.049909,-464,103967,22.6926,28242,255
1.89865,2.135358,-463,103968,22.6926,28242,255
1.39822,2.016933,-462,103969,22.6428,28242,255
1.42525,2.089507,-461,103970,22.6428,28242,255
2.22262,2.166533,-460,103971,22.3441,28242,255
1.05631,2.100177,-459,103972,22.6926,28242,255
1.3029,2.049909,-458,103973,22.3939,28247,252
2.27143,1.933957,-457,103974,22.6428,28247,252
1.33185,1.895041,-456,103975,22.3939,28247,252
1.41517,1.898968,-455,103976,22.6428,28247,252
1.55638,2.135358,-454,103977,22.3939,28247,252
1.3461,2.14927,-453,103978,22.7424,28247,252
1.22752,1.85932,-452,103979,22.6428,28247,252
0.617632,1.933957,-451,103980,22.6428,28247,252
1.4118,2.316121,-450,103981,22.8419,28247,252
1.42859,2.432234,-449,103982,22.7424,28247,252
1.51917,2.247553,-448,103983,22.5432,28238,254
1.81913,2.296739,-447,103984,22.6926,28238,254
1.94579,2.244235,-446,103985,22.6926,28238,254
1.17998,2.046271,-445,103986,22.5432,28238,254
2.60213,2.013235,-444,103987,22.6428,28238,254
1.04268,1.930101,-443,103988,22.6926,28238,254
1.53789,1.930101,-442,103989,22.6428,28238,254
1.59273,1.972106,-441,103990,22.6926,28238,254
2.1771,2.131866,-440,103991,22.5432,28238,254
1.47458,1.933957,-439,103992,22.6428,28238,254
1.58973,2.046271,-438,103993,22.7424,28242,254
1.80598,2.085938,-437,103994,22.6926,28242,254
0.931581,2.016933,-436,103995,22.6428,28242,254
1.21188,2.049909,-435,103996,22.6428,28242,254
1.66589,2.016933,-434,103997,22.6428,28242,254
1.55638,2.049909,-433,103998,22.7424,28242,254
1.87592,2.18366,-432,103999,22.3939,28242,254
1.31745,2.18366,-431,104000,22.5432,28242,254
1.32827,2.131866,-430,104001,22.5432,28242,254
1.21188,2.013235,-429,104002,22.4935,28242,254
1.73872,1.781558,-428,104003,22.6926,28242,254
0.921287,1.831055,-427,104004,22.6926,28242,254
1.71942,1.814706,-426,104005,22.6926,28242,254
1.75781,2.085938,-425,104006,22.5432,28242,254
1.80334,2.204037,-424,104007,22.6428,28242,254
1.28447,1.818807,-423,104008,22.6428,28242,254
1.99897,1.818807,-422,104009,22.6428,28242,254
1.73047,1.831055,-421,104010,22.5432,28242,254
1.11345,2.089507,-420,104011,22.7424,28242,254
1.6341,2.135358,-419,104012,22.6428,28242,254
1.62826,2.131866,-418,104013,22.6428,28240,252
1.66303,1.863322,-417,104014,22.4935,28240,252
1.70549,1.747781,-416,104015,22.6428,28240,252
2.05543,1.700243,-415,104016,22.4935,28240,252
1.54408,1.814706,-414,104017,22.6428,28240,252
1.80334,2.089507,-413,104018,22.6428,28240,252
0.926449,2.204037,-412,104019,22.8419,28240,252
1.49066,2.204037,-411,104020,22.6428,28240,252
2.01324,1.933957,-410,104021,22.5432,28240,252
1.23526,2.089507,-409,104022,22.3939,28240,252
1.37415,2.049909,-408,104023,22.6428,28244,248
1.68863,1.975881,-407,104024,22.6428,28244,248
1.00543,2.046271,-406,104025,22.6428,28244,248
0.981433,2.049909,-405,104026,22.6926,28244,248
1.65152,1.930101,-404,104027,22.6926,28244,248
1.46158,2.089507,-403,104028,22.6926,28244,248
1.66303,2.214155,-402,104029,22.6428,28244,248
0.85693,2.280462,-401,104030,22.4935,28244,248
1.79539,2.085938,-400,104031,22.5432,28244,248
1.71664,1.85932,-399,104032,22.3939,28244,248
1.11345,1.85932,-398,104033,22.6926,28239,252
1.6341,2.024307,-397,104034,22.6428,28239,252
2.01324,2.187069,-396,104035,22.6428,28239,252
2.04146,2.360727,-395,104036,22.5432,28239,252
1.14304,2.204037,-394,104037,22.6428,28239,252
0.961803,2.204037,-393,104038,22.6428,28239,252
2.02975,2.020623,-392,104039,22.6428,28239,252
1.57769,1.930101,-391,104040,22.6926,28239,252
2.08994,1.933957,-390,104041,22.5432,28239,252
1.01487,1.930101,-389,104042,22.3939,28239,252
0.585938,1.975881,-388,104043,22.6428,28235,253
1.54717,1.933957,-387,104044,22.6428,28235,253
1.80598,2.049909,-386,104045,22.6428,28235,253
1.81913,1.975881,-385,104046,22.6428,28235,253
0.931581,2.085938,-384,104047,22.6926,28235,253
2.15287,2.163091,-383,104048,22.6428,28235,253
1.68863,2.166533,-382,104049,22.6428,28235,253
1.68863,2.046271,-381,104050,22.6428,28235,253
2.15066,2.060784,-380,104051,22.6926,28235,253
1.72772,1.930101,-379,104052,22.6926,28235,253
1.93596,2.200654,-378,104053,22.3939,28254,256
1.81125,2.244235,-377,104054,22.6428,28254,256
1.23912,2.020623,-376,104055,22.3939,28254,256
0.981433,1.933957,-375,104056,22.6428,28254,256
0.655098,2.049909,-374,104057,22.6926,28254,256
2.03678,1.972106,-373,104058,22.5432,28254,256
1.96287,1.814706,-372,104059,22.3939,28254,256
1.53789,1.898968,-371,104060,22.6926,28254,256
1.68014,2.027984,-370,104061,22.6926,28254,256
0.889691,2.176826,-369,104062,22.6428,28254,256
2.11714,2.049909,-368,104063,22.6428,28237,251
1.0381,1.933957,-367,104064,22.6428,28237,251
1.90867,1.975881,-366,104065,22.4935,28237,251
2.18802,2.089507,-365,104066,22.5432,28237,251
1.07865,2.360727,-364,104067,22.5432,28237,251
1.78473,2.204037,-363,104068,22.5432,28237,251
2.31715,1.926237,-362,104069,22.5432,28237,251
1.94824,1.987161,-361,104070,22.3939,28237,251
1.13045,2.013235,-360,104071,22.6428,28237,251
1.23912,1.930101,-359,104072,22.3939,28237,251
1.24296,2.020623,-358,104073,22.6428,28239,251
1.98461,2.244235,-357,104074,22.6428,28239,251
1.80069,2.075195,-356,104075,22.5432,28239,251
2.1573,2.100177,-355,104076,22.3939,28239,251
1.97498,2.027984,-354,104077,22.5432,28239,251
1.04725,1.975881,-353,104078,22.6428,28239,251
1.33185,2.135358,-352,104079,22.4935,28239,251
1.21188,2.085938,-351,104080,22.6428,28239,251
1.27328,2.085938,-350,104081,22.6428,28239,251
1.44518,2.046271,-349,104082,22.6428,28239,251
0.750112,2.089507,-348,104083,22.5432,28245,256
1.45505,2.024307,-347,104084,22.5432,28245,256
0.931581,2.100177,-346,104085,22.8419,28245,256
1.47781,2.060784,-345,104086,22.3939,28245,256
1.18804,1.781558,-344,104087,22.6428,28245,256
1.08306,1.863322,-343,104088,22.5432,28245,256
2.15287,1.747781,-342,104089,22.6428,28245,256
1.8529,2.075195,-341,104090,22.4935,28245,256
2.38609,1.968325,-340,104091,22.3939,28245,256
0.59402,1.85932,-339,104092,22.6926,28245,256
0.981433,1.975881,-338,104093,22.6428,28240,249
2.14399,1.777371,-337,104094,22.6428,28240,249
1.31745,1.544081,-336,104095,22.6428,28240,249
1.49066,1.700243,-335,104096,22.6428,28240,249
1.90116,1.975881,-334,104097,22.6926,28240,249
1.55638,1.933957,-333,104098,22.5432,28240,249
1.29556,2.024307,-332,104099,22.6428,28240,249
0.895034,2.293493,-331,104100,22.4935,28240,249
0.710948,2.135358,-330,104101,22.5432,28240,249
1.22752,1.814706,-329,104102,22.6428,28240,249
1.30655,2.187069,-328,104103,22.6926,28238,255
2.05311,2.046271,-327,104104,22.6428,28238,255
1.88858,1.975881,-326,104105,22.5432,28238,255
1.34255,2.089507,-325,104106,22.3939,28238,255
2.09222,2.078783,-324,104107,22.6428,28238,255
1.78473,1.968325,-323,104108,22.6428,28238,255
1.09183,1.863322,-322,104109,22.6428,28238,255
1.09619,2.085938,-321,104110,22.6428,28238,255
1.53789,1.975881,-320,104111,22.6926,28238,255
1.64283,1.831055,-319,104112,22.6428,28238,255
1.59273,1.85932,-318,104113,22.6428,28236,251
1.48103,1.926237,-317,104114,22.5432,28236,251
0.981433,2.020623,-316,104115,22.5432,28236,251
1.67161,2.024307,-315,104116,22.5432,28236,251
1.28447,1.814706,-314,104117,22.6428,28236,251
1.21188,1.898968,-313,104118,22.6428,28236,251
1.07865,1.781558,-312,104119,22.6428,28236,251
1.10485,1.945481,-311,104120,22.6428,28236,251
1.55638,1.87528,-310,104121,22.5432,28236,251
1.88099,2.089507,-309,104122,22.6428,28236,251
1.48103,2.085938,-308,104123,22.6428,28241,259
1.1596,1.975881,-307,104124,22.6428,28241,259
1.45176,2.020623,-306,104125,22.6428,28241,259
1.54408,2.035319,-305,104126,22.6428,28241,259
1.42859,2.078783,-304,104127,22.6428,28241,259
1.92608,1.914598,-303,104128,22.5432,28241,259
1.36019,1.968325,-302,104129,22.6428,28241,259
1.92608,2.024307,-301,104130,22.5432,28241,259
1.13045,2.131866,-300,104131,22.8419,28241,259
1.54717,2.020623,-299,104132,22.5432,28241,259
1.54099,2.085938,-298,104133,22.4935,28251,253
1.1596,2.024307,-297,104134,22.6926,28251,253
1.27328,1.975881,-296,104135,22.8419,28251,253
1.57466,1.664817,-295,104136,22.6926,28251,253
1.32467,1.87528,-294,104137,22.8419,28251,253
1.00068,2.089507,-293,104138,22.6428,28251,253
1.65152,2.244235,-292,104139,22.6428,28251,253
1.28447,2.135358,-291,104140,22.6428,28251,253
2.10811,1.972106,-290,104141,22.6926,28251,253
1.45176,1.818807,-289,104142,22.6926,28251,253
1.76863,1.933957,-288,104143,22.4935,28241,249
1.83479,1.85932,-287,104144,22.6428,28241,249
1.21188,1.704619,-286,104145,22.6428,28241,249
1.64283,1.818807,-285,104146,22.5432,28241,249
1.71942,2.089507,-284,104147,22.6926,28241,249
1.73047,2.240913,-283,104148,22.6428,28241,249
1.73047,1.910703,-282,104149,22.3939,28241,249
0.447517,1.863322,-281,104150,22.6926,28241,249
1.61059,1.987161,-280,104151,22.6926,28241,249
2.08079,1.87528,-279,104152,22.6428,28241,249
1.60466,1.818807,-278,104153,22.8419,28246,253
2.06237,1.972106,-277,104154,22.5432,28246,253
1.66303,2.020623,-276,104155,22.5432,28246,253
1.57163,1.752039,-275,104156,22.6926,28246,253
1.27328,1.591602,-274,104157,22.6428,28246,253
1.77132,1.752039,-273,104158,22.4935,28246,253
0.601994,1.863322,-272,104159,22.6428,28246,253
1.33185,1.76475,-271,104160,22.6428,28246,253
2.23332,1.975881,-270,104161,22.5432,28246,253
1.25442,1.933957,-269,104162,22.5432,28246,253
1.11345,2.049909,-268,104163,22.6428,28250,249
2.11037,2.200654,-267,104164,22.6926,28250,249
1.48103,1.818807,-266,104165,22.5432,28250,249
1.81125,1.806476,-265,104166,22.4935,28250,249
1.09183,1.968325,-264,104167,22.6428,28250,249
1.25061,2.131866,-263,104168,22.6428,28250,249
2.4277,2.200654,-262,104169,22.6428,28250,249
1.76323,1.814706,-261,104170,22.6926,28250,249
1.88858,1.802347,-260,104171,22.3939,28250,249
1.70829,2.035319,-259,104172,22.8419,28250,249
2.06006,1.926237,-258,104173,22.5432,28244,251
0.98628,1.806476,-257,104174,22.6926,28244,251
1.00068,1.85932,-256,104175,22.6926,28244,251
1.51917,1.851288,-255,104176,22.6428,28244,251
1.37415,1.922365,-254,104177,22.6428,28244,251
1.50657,1.895041,-253,104178,22.6428,28244,251
1.07865,1.752039,-252,104179,22.8419,28244,251
1.57466,2.024307,-251,104180,22.6428,28244,251
1.46484,2.078783,-250,104181,22.4935,28244,251
1.93596,1.975881,-249,104182,22.6926,28244,251
1.00543,1.975881,-248,104183,22.6926,28242,251
1.28817,1.930101,-247,104184,22.6428,28242,251
1.17594,1.898968,-246,104185,22.5432,28242,251
1.80334,1.87528,-245,104186,22.5432,28242,251
1.45176,1.704619,-244,104187,22.9415,28242,251
1.05631,1.544081,-243,104188,22.8917,28242,251
1.67161,1.85932,-242,104189,22.6428,28242,251
1.55638,1.85932,-241,104190,22.6926,28242,251
1.36019,2.020623,-240,104191,22.9415,28242,251
1.41517,2.078783,-239,104192,22.6428,28242,251
2.15287,1.983408,-238,104193,22.8419,28250,252
1.59273,1.867317,-237,104194,22.4935,28250,252
2.0785,1.700243,-236,104195,22.6926,28250,252
1.77401,1.85932,-235,104196,22.6428,28250,252
1.9798,2.075195,-234,104197,22.6428,28250,252
1.34255,2.020623,-233,104198,22.4935,28250,252
2.34578,1.914598,-232,104199,22.6926,28250,252
2.38809,2.024307,-231,104200,22.7424,28250,252
1.27328,1.910703,-230,104201,22.6428,28250,252
1.90116,1.700243,-229,104202,22.7424,28250,252
1.07865,1.818807,-228,104203,22.6428,28242,256
0.941763,2.1458,-227,104204,22.6926,28242,256
1.54717,2.296739,-226,104205,22.4935,28242,256
1.70549,2.135358,-225,104206,22.5432,28242,256
1.05631,1.910703,-224,104207,22.6428,28242,256
1.72495,1.968325,-223,104208,22.8419,28242,256
1.19604,2.187069,-222,104209,22.5432,28242,256
1.27328,2.089507,-221,104210,22.3939,28242,256
1.27328,1.664817,-220,104211,22.3939,28242,256
0.447517,1.591602,-219,104212,22.6428,28242,256
1.57163,1.695855,-218,104213,22.3939,28246,258
1.38452,2.020623,-217,104214,22.6428,28246,258
1.34255,2.085938,-216,104215,22.6428,28246,258
1.89865,1.930101,-215,104216,22.4935,28246,258
1.34255,1.814706,-214,104217,22.6428,28246,258
1.27328,1.814706,-213,104218,22.6428,28246,258
1.62826,2.135358,-212,104219,22.5432,28246,258
1.36019,2.075195,-211,104220,22.5432,28246,258
1.80069,1.802347,-210,104221,22.4935,28246,258
1.19205,1.802347,-209,104222,22.6428,28246,258
0.873464,1.975881,-208,104223,22.6926,28240,251
1.33185,2.18366,-207,104224,22.5432,28240,251
1.68863,2.075195,-206,104225,22.4935,28240,251
0.921287,1.863322,-205,104226,22.6428,28240,251
1.11345,2.031655,-204,104227,22.7424,28240,251
1.49385,2.078783,-203,104228,22.8419,28240,251
0.900346,1.914598,-202,104229,22.4935,28240,251
0.862477,1.79406,-201,104230,22.6926,28240,251
2.08079,1.930101,-200,104231,22.6428,28240,251
1.20399,1.914598,-199,104232,22.8419,28240,251
1.33543,1.87528,-198,104233,22.6428,28243,247
1.96772,2.020623,-197,104234,22.4935,28243,247
1.92112,1.914598,-196,104235,22.6926,28243,247
2.14399,1.806476,-195,104236,22.4935,28243,247
1.33185,1.863322,-194,104237,22.8419,28243,247
2.23759,2.024307,-193,104238,22.6428,28243,247
1.38452,2.078783,-192,104239,22.6926,28243,247
1.5987,1.910703,-191,104240,22.3939,28243,247
2.32946,1.814706,-190,104241,22.6428,28243,247
1.68298,1.700243,-189,104242,22.6428,28243,247
1.90116,1.863322,-188,104243,22.5432,28251,252
1.41854,1.87528,-187,104244,22.6926,28251,252
1.17998,1.926237,-186,104245,22.6926,28251,252
1.34255,1.914598,-185,104246,22.8419,28251,252
1.66303,2.078783,-184,104247,22.6428,28251,252
1.58973,1.863322,-183,104248,22.8917,28251,252
2.15066,1.863322,-182,104249,22.6428,28251,252
1.02423,2.024307,-181,104250,22.7424,28251,252
1.32827,2.024307,-180,104251,22.7424,28251,252
1.3029,1.863322,-179,104252,22.5432,28251,252
1.09619,1.972106,-178,104253,22.6428,28234,251
1.32827,1.972106,-177,104254,22.5432,28234,251
1.71386,2.020623,-176,104255,22.7424,28234,251
1.36019,2.078783,-175,104256,22.6926,28234,251
1.57769,2.135358,-174,104257,22.5432,28234,251
1.43525,2.085938,-173,104258,22.8419,28234,251
1.21188,1.863322,-172,104259,22.6926,28234,251
1.02423,1.914598,-171,104260,22.8419,28234,251
1.51917,1.972106,-170,104261,22.4935,28234,251
0.730792,2.135358,-169,104262,22.6428,28234,251
1.83998,2.135358,-168,104263,22.6926,28245,247
1.10916,1.863322,-167,104264,22.6428,28245,247
1.80598,1.863322,-166,104265,22.3939,28245,247
1.28447,2.085938,-165,104266,22.3441,28245,247
1.94824,2.089507,-164,104267,22.6926,28245,247
1.39139,2.024307,-163,104268,22.5432,28245,247
1.41517,1.910703,-162,104269,22.3939,28245,247
1.56555,1.85932,-161,104270,22.5432,28245,247
1.15548,1.910703,-160,104271,22.3939,28245,247
1.10916,1.910703,-159,104272,22.6926,28245,247
1.86827,1.85932,-158,104273,22.5432,28249,252
1.29923,1.972106,-157,104274,22.6428,28249,252
1.59273,1.85932,-156,104275,22.5432,28249,252
0.981433,1.85932,-155,104276,22.6926,28249,252
1.39822,1.975881,-154,104277,22.5432,28249,252
1.47134,1.752039,-153,104278,22.5432,28249,252
1.38107,1.85932,-152,104279,22.5432,28249,252
1.3029,1.975881,-151,104280,22.3441,28249,252
1.75781,2.1458,-150,104281,22.6926,28249,252
2.0762,2.078783,-149,104282,22.6926,28249,252
2.01324,2.075195,-148,104283,22.6428,28245,257
1.88858,2.138845,-147,104284,22.5432,28245,257
1.79804,2.024307,-146,104285,22.8419,28245,257
1.76323,1.945481,-145,104286,22.6428,28245,257
1.86572,2.035319,-144,104287,22.6428,28245,257
1.73323,2.078783,-143,104288,22.6428,28245,257
1.61355,2.046271,-142,104289,22.6428,28245,257
0.981433,1.851288,-141,104290,22.8419,28245,257
1.48103,1.990907,-140,104291,22.8419,28245,257
1.22363,1.730645,-139,104292,22.6428,28245,257
0.59402,1.619446,-138,104293,22.6428,28248,249
1.55638,1.519763,-137,104294,22.6428,28248,249
1.54408,1.637745,-136,104295,22.5432,28248,249
1.22363,21.96621,-135,104296,22.3441,28248,249
1.4118,109.8773,-134,104297,22.5432,28248,249
1.82437,128.7197,-133,104298,22.6926,28248,249
0.534885,91.02861,-132,104299,22.6428,28248,249
0.811194,62.12276,-131,104300,22.6428,28248,249
0.85693,82.05613,-130,104301,22.4935,28248,249
0.76272,108.4114,-129,104302,22.3939,28248,249
0.926449,87.82295,-128,104303,22.8419,28249,249
1.86827,75.15458,-127,104304,22.3939,28249,249
1.56859,62.10944,-126,104305,22.5432,28249,249
1.49704,48.46253,-125,104306,22.6926,28249,249
0.862477,37.40096,-124,104307,22.6428,28249,249
1.10916,20.7286,-123,104308,22.6926,28249,249
0.981433,12.28976,-122,104309,22.8419,28249,249
0.662337,12.79353,-121,104310,22.6428,28249,249
1.3029,31.38204,-120,104311,22.5432,28249,249
0.961803,49.65562,-119,104312,22.4935,28249,249
1.80598,60.86757,-118,104313,22.6428,28257,254
1.56859,52.46141,-117,104314,22.6428,28257,254
1.15548,30.48069,-116,104315,22.6428,28257,254
1.11773,18.04577,-115,104316,22.5432,28257,254
1.25821,28.53287,-114,104317,22.6428,28257,254
1.44188,32.73397,-113,104318,22.5432,28257,254
1.69146,27.87109,-112,104319,22.6926,28257,254
1.45505,21.16398,-111,104320,22.4935,28257,254
0.995902,16.53591,-110,104321,22.3939,28257,254
0.768946,13.51953,-109,104322,22.6428,28257,254
1.13886,12.02191,-108,104323,22.6428,28270,244
0.85693,9.570655,-107,104324,22.6428,28270,244
2.52588,8.179622,-106,104325,22.6428,28270,244
1.70269,9.364472,-105,104326,22.5432,28270,244
0.730792,11.51221,-104,104327,22.6428,28270,244
0.497951,11.38531,-103,104328,22.6428,28270,244
1.01956,11.05394,-102,104329,22.8419,28270,244
1.28447,10.23645,-101,104330,22.6926,28270,244
1.02423,8.778035,-100,104331,22.5432,28270,244
1.07865,10.67679,-99,104332,22.4935,28270,244
1.57466,13.33922,-98,104333,22.6428,28267,253
2.03444,15.03696,-97,104334,22.3441,28267,253
1.83739,15.95016,-96,104335,22.6428,28267,253
1.17998,14.05718,-95,104336,22.6926,28267,253
0.662337,10.60116,-94,104337,22.6428,28267,253
1.23912,7.57328,-93,104338,22.6428,28267,253
1.85804,6.919352,-92,104339,22.6428,28267,253
1.8606,7.549632,-91,104340,22.6428,28267,253
0.966748,7.904465,-90,104341,22.6428,28267,253
0.662337,8.017706,-89,104342,22.7424,28267,253
1.23912,7.464278,-88,104343,22.6926,28272,257
0.710948,7.093745,-87,104344,22.3939,28272,257
0.900346,7.052664,-86,104345,22.6428,28272,257
1.23912,7.414201,-85,104346,22.6428,28272,257
1.44518,7.814407,-84,104347,22.6428,28272,257
1.01016,8.382063,-83,104348,22.6926,28272,257
0.655098,8.861666,-82,104349,22.8419,28272,257
1.73872,9.266094,-81,104350,22.6428,28272,257
1.25442,9.431067,-80,104351,22.4935,28272,257
1.02423,9.330996,-79,104352,22.6926,28272,257
1.27702,9.424745,-78,104353,22.4935,28275,258
2.12164,9.311013,-77,104354,22.8419,28275,258
1.54099,9.103041,-76,104355,22.3441,28275,258
1.54408,8.979431,-75,104356,22.6926,28275,258
1.45176,9.006771,-74,104357,22.6428,28275,258
1.11773,9.338977,-73,104358,22.8419,28275,258
2.14177,9.626543,-72,104359,22.6428,28275,258
1.60168,9.725105,-71,104360,22.6428,28275,258
1.27328,9.672099,-70,104361,22.4935,28275,258
1.56859,9.852972,-69,104362,22.6926,28275,258
1.10485,10.03801,-68,104363,22.6428,28277,252
1.3029,10.03356,-67,104364,22.6926,28277,252
2.54282,10.03356,-66,104365,22.3939,28277,252
0.981433,10.25681,-65,104366,22.6926,28277,252
1.68298,10.46891,-64,104367,22.6926,28277,252
1.23526,10.54761,-63,104368,22.6428,28277,252
1.43857,10.35297,-62,104369,22.6926,28277,252
1.76323,10.52144,-61,104370,22.6428,28277,252
1.47134,10.74288,-60,104371,22.6926,28277,252
0.85693,10.95985,-59,104372,22.6926,28277,252
1.27328,10.90396,-58,104373,22.6428,28273,257
1.34255,10.84435,-57,104374,22.6428,28273,257
1.1596,10.99988,-56,104375,22.6428,28273,257
1.09619,11.26624,-55,104376,22.4935,28273,257
0.768946,11.65116,-54,104377,22.5432,28273,257
0.534885,11.76317,-53,104378,22.6926,28273,257
1.64863,11.73971,-52,104379,22.6926,28273,257
0.308816,11.70412,-51,104380,22.6428,28273,257
1.6341,11.80806,-50,104381,22.6428,28273,257
1.7767,11.88917,-49,104382,22.6428,28273,257
0.585938,12.22167,-48,104383,22.4935,28273,257
1.48103,12.16178,-47,104384,22.8419,28273,257
1.00068,12.52099,-46,104385,22.6926,28273,257
0.85693,12.77604,-45,104386,22.3441,28273,257
1.66303,12.84351,-44,104387,22.5432,28273,257
0.662337,12.69707,-43,104388,22.4935,28273,257
1.19205,12.71759,-42,104389,22.7424,28273,257
1.75781,12.7451,-41,104390,22.5432,28273,257
1.02423,13.05867,-40,104391,22.6926,28273,257
0.85693,13.40886,-39,104392,22.5432,28273,257
1.46158,13.52504,-38,104393,22.4935,28261,246
1.28817,13.72572,-37,104394,22.8419,28261,246
1.41517,13.85485,-36,104395,22.5432,28261,246
1.31745,14.00674,-35,104396,22.6428,28261,246
1.01016,14.09106,-34,104397,22.6428,28261,246
1.04725,14.17383,-33,104398,22.3441,28261,246
1.31745,14.25821,-32,104399,22.7424,28261,246
1.13045,14.4549,-31,104400,22.5432,28261,246
1.19205,14.62298,-30,104401,22.6428,28261,246
1.66589,15.01812,-29,104402,22.6428,28261,246
0.845728,14.83493,-28,104403,22.6926,28284,254
1.42525,14.78664,-27,104404,22.3441,28284,254
2.52777,14.98733,-26,104405,22.3939,28284,254
1.07422,15.39054,-25,104406,22.6428,28284,254
1.16371,15.67118,-24,104407,22.5432,28284,254
0.560992,15.7106,-23,104408,22.6428,28284,254
1.19604,15.83859,-22,104409,22.5432,28284,254
1.58673,15.97256,-21,104410,22.8419,28284,254
1.92112,16.10125,-20,104411,22.5432,28284,254
0.625305,16.32916,-19,104412,22.3939,28284,254
0.625305,16.48718,-18,104413,22.5432,28280,257
0.768946,16.48853,-17,104414,22.6428,28280,257
1.57466,16.48763,-16,104415,22.6428,28280,257
1.17998,16.85455,-15,104416,22.8419,28280,257
1.3029,17.17551,-14,104417,22.8419,28280,257
0.534885,17.29569,-13,104418,22.6428,28280,257
0.534885,17.17551,-12,104419,22.6428,28280,257
0.750112,17.21408,-11,104420,22.4935,28280,257
1.01016,17.7456,-10,104421,22.6428,28280,257
1.76323,17.95264,-9,104422,22.7424,28280,257
1.06977,17.87153,-8,104423,22.5432,28283,255
4.23202,75.42829,-7,104424,22.4935,28283,255
5.2006,172.4245,-6,104425,22.5432,28283,255
6.25076,186.0746,-5,104426,22.6926,28283,255
10.8456,300.7024,-4,104427,22.6428,28283,255
16.503,425.1506,-3,104428,22.6926,28283,255
22.6514,573.3675,-2,104429,22.6428,28283,255
23.8061,753.331,-1,104430,22.6428,28283,255
25.5705,948.8858,0,104431,22.8419,28283,255
22.3876,961.7955,1,104432,22.6428,28283,255
18.2065,668.4217,2,104433,22.6926,28278,255
13.1176,243.5994,3,104434,22.5432,28278,255
10.9884,380.4857,4,104435,22.5432,28278,255
9.21753,594.5371,5,104436,22.6926,28278,255
7.6876,574.1884,6,104437,22.4935,28278,255
6.32357,429.0129,7,104438,22.5432,28278,255
4.80504,292.9745,8,104439,22.6926,28278,255
3.74292,221.7222,9,104440,22.6926,28278,255
3.10356,220.9231,10,104441,22.3939,28278,255
2.88706,198.3694,11,104442,22.6428,28278,255
2.26512,160.3471,12,104443,22.6926,28202,253
1.19205,136.2805,13,104444,22.6926,28202,253
2.17929,107.8611,14,104445,22.6926,28202,253
1.36719,84.13337,15,104446,22.6428,28202,253
1.22752,93.4472,16,104447,22.3939,28202,253
1.46158,118.1462,17,104448,22.5432,28202,253
1.79273,166.1202,18,104449,22.6428,28202,253
1.47781,186.6361,19,104450,22.5432,28202,253
2.44921,180.7625,20,104451,22.5432,28202,253
1.97739,175.1205,21,104452,22.7424,28202,253
0.625305,142.6868,22,104453,22.5432,28070,251
1.40163,93.42965,23,104454,22.5432,28070,251
1.73872,28.33925,24,104455,22.6428,28070,251
2.06006,76.66502,25,104456,22.4935,28070,251
1.35668,162.1107,26,104457,22.6428,28070,251
2.19889,202.0785,27,104458,22.7424,28070,251
1.78206,202.9892,28,104459,22.5432,28070,251
1.19205,183.2205,29,104460,22.6428,28070,251
0.916097,151.4822,30,104461,22.5432,28070,251
0.845728,124.0352,31,104462,22.7424,28070,251
1.73872,101.0273,32,104463,22.4935,28126,257
1.83739,78.40165,33,104464,22.6926,28126,257
0.425674,68.30802,34,104465,22.6428,28126,257
1.57163,63.25563,35,104466,22.3441,28126,257
0.921287,52.16575,36,104467,22.3939,28126,257
0.981433,37.89335,37,104468,22.6926,28126,257
1.77132,30.8152,38,104469,22.3939,28126,257
1.56555,32.67907,39,104470,22.3939,28126,257
1.69427,38.67241,40,104471,22.4935,28126,257
1.44188,42.97655,41,104472,22.3441,28126,257
1.20794,49.20554,42,104473,22.6926,28163,254
1.67446,41.83807,43,104474,22.8917,28163,254
1.27328,52.53167,44,104475,22.6428,28163,254
1.49066,52.84742,45,104476,22.6926,28163,254
0.905627,46.58898,46,104477,22.5432,28163,254
1.65152,53.8182,47,104478,22.7424,28163,254
1.51603,56.06803,48,104479,22.3939,28163,254
1.88606,54.97774,49,104480,22.5432,28163,254
0.750112,54.2377,50,104481,22.6926,28163,254
1.24296,51.02568,51,104482,22.6926,28163,254
1.10916,44.75138,52,104483,22.5432,28168,249
1.05631,37.52645,53,104484,22.4935,28168,249
0.717624,32.99965,54,104485,22.6926,28168,249
1.01016,34.68795,55,104486,22.6428,28168,249
0.525895,45.67453,56,104487,22.5432,28168,249
1.20794,60.50281,57,104488,22.4935,28168,249
0.884315,65.33579,58,104489,22.6428,28168,249
1.55638,61.44225,59,104490,22.5432,28168,249
1.44188,56.98514,60,104491,22.4935,28168,249
1.64283,50.07368,61,104492,22.6926,28168,249
1.54717,43.73475,62,104493,22.5432,28173,253
1.51917,40.89228,63,104494,22.5432,28173,253
0.447517,40.22768,64,104495,22.6926,28173,253
2.24822,39.48593,65,104496,22.5432,28173,253
1.66875,39.05277,66,104497,22.6428,28173,253
1.47134,39.41605,67,104498,22.8419,28173,253
1.71108,40.23416,68,104499,22.6428,28173,253
1.59572,40.80619,69,104500,22.6428,28173,253
1.06082,40.99109,70,104501,22.6428,28173,253
1.47134,41.58783,71,104502,22.6926,28173,253
0.750112,42.73594,72,104503,22.7424,28197,252
1.19604,49.62605,73,104504,22.5432,28197,252
1.64863,47.08434,74,104505,22.8419,28197,252
1.9335,41.94727,75,104506,22.6428,28197,252
1.05179,41.90729,76,104507,22.6926,28197,252
1.21581,43.52196,77,104508,22.5432,28197,252
1.21188,42.30789,78,104509,22.6428,28197,252
1.30655,41.37103,79,104510,22.6428,28197,252
1.73323,40.74754,80,104511,22.6926,28197,252
1.09183,39.78106,81,104512,22.5432,28197,252
1.94824,38.81855,82,104513,22.8419,28197,256
1.96772,39.12139,83,104514,22.5432,28197,256
0.840071,40.72175,84,104515,22.7424,28197,256
1.68863,42.71571,85,104516,22.8419,28197,256
0.662337,44.20985,86,104517,22.6428,28197,256
1.04268,44.55968,87,104518,22.6428,28197,256
0.995902,43.86165,88,104519,22.6428,28197,256
0.862477,43.17977,89,104520,22.5432,28197,256
1.31383,42.62929,90,104521,22.5432,28197,256
1.24296,42.21092,91,104522,22.6428,28197,256
1.04268,41.6623,92,104523,22.6428,28202,256
1.68014,41.18838,93,104524,22.6428,28202,256
1.19205,41.14711,94,104525,22.7424,28202,256
1.66303,41.37247,95,104526,22.8419,28202,256
2.05078,41.50067,96,104527,22.6428,28202,256
1.80598,41.31859,97,104528,22.5432,28202,256
1.67446,41.05357,98,104529,22.6926,28202,256
1.4118,40.96146,99,104530,22.6926,28202,256
1.68014,40.69228,100,104531,22.6926,28202,256
