Linear acceleration,Rotational velocity,Time values,Absolute time values,Temperature,Ambient light,Reflected light
1.0381,9.8643085,-2000,48048,27.7704,4033,1572
0.640375,10.094263,-1999,48049,27.9695,4033,1572
0.966748,10.647443,-1998,48050,27.621,4033,1572
0.690534,11.678627,-1997,48051,27.6708,4033,1572
1.74146,12.116977,-1996,48052,27.621,4033,1572
1.18402,11.613372,-1995,48053,27.6708,4031,1569
0.352105,10.526397,-1994,48054,27.8202,4031,1569
1.17594,10.419686,-1993,48055,27.6708,4031,1569
0.921287,11.714935,-1992,48056,27.7704,4031,1569
0.981433,13.018671,-1991,48057,27.8699,4031,1569
1.22752,12.389986,-1990,48058,27.9695,4031,1569
0.878906,10.976151,-1989,48059,27.7704,4031,1569
1.33185,10.114908,-1988,48060,27.8202,4031,1569
0.884315,10.293068,-1987,48061,27.621,4031,1569
0.662337,10.941477,-1986,48062,27.8202,4031,1569
1.65152,11.552909,-1985,48063,27.7704,4031,1569
0.921287,11.481101,-1984,48064,27.8699,4031,1569
1.95556,11.257636,-1983,48065,27.9695,4031,1569
1.33185,12.003305,-1982,48066,27.621,4031,1569
1.09183,12.855111,-1981,48067,27.7704,4031,1569
2.0156,12.3442,-1980,48068,27.7704,4031,1569
0.730792,11.162594,-1979,48069,27.621,4031,1569
0.956832,10.586389,-1978,48070,27.5713,4031,1569
1.07865,10.90806,-1977,48071,27.7704,4031,1569
1.02423,12.120051,-1976,48072,27.8202,4031,1569
0.717624,13.184724,-1975,48073,27.8699,4025,1567
2.21832,12.654164,-1974,48074,27.6708,4025,1567
1.02423,11.391849,-1973,48075,27.7704,4025,1567
1.37067,10.447536,-1972,48076,27.7704,4025,1567
1.01487,10.419686,-1971,48077,27.7704,4025,1567
1.81651,11.062696,-1970,48078,27.8202,4025,1567
2.30477,11.835785,-1969,48079,27.7704,4025,1567
1.73047,11.902951,-1968,48080,27.8699,4025,1567
3.0163,11.938576,-1967,48081,27.8202,4025,1567
1.45176,12.089892,-1966,48082,27.8699,4025,1567
1.14304,12.373137,-1965,48083,27.621,4031,1565
1.38452,12.3442,-1964,48084,27.7704,4031,1565
1.26953,12.015713,-1963,48085,27.7704,4031,1565
1.28447,12.105904,-1962,48086,27.7704,4031,1565
0.976563,13.082612,-1961,48087,27.6708,4031,1565
0.497951,14.468808,-1960,48088,27.8202,4031,1565
0.946812,14.493504,-1959,48089,27.8202,4031,1565
0.921287,13.733317,-1958,48090,27.7704,4031,1565
0.811194,12.217403,-1957,48091,27.7704,4031,1565
1.49066,10.809256,-1956,48092,27.7704,4031,1565
1.3637,10.032813,-1955,48093,27.7704,4031,1565
1.25821,10.055067,-1954,48094,27.8699,4031,1565
0.884315,10.382437,-1953,48095,27.621,4031,1565
1.52231,11.024916,-1952,48096,27.7704,4031,1565
1.13045,11.473311,-1951,48097,27.8699,4031,1565
3.25211,11.615297,-1950,48098,27.621,4031,1565
1.13045,11.235775,-1949,48099,27.7704,4031,1565
1.36019,11.125823,-1948,48100,27.621,4031,1565
1.36019,10.778885,-1947,48101,27.8202,4031,1565
1.00068,10.540544,-1946,48102,27.8202,4031,1565
0.743728,10.841603,-1945,48103,27.5713,4027,1568
2.1573,11.655638,-1944,48104,27.8699,4027,1568
1.87592,12.703526,-1943,48105,27.621,4027,1568
1.4118,12.07756,-1942,48106,27.8202,4027,1568
1.08306,10.867001,-1941,48107,27.6708,4027,1568
1.20794,9.8824193,-1940,48108,27.621,4027,1568
0.811194,9.6844158,-1939,48109,27.8202,4027,1568
0.534885,9.7388855,-1938,48110,27.6708,4027,1568
1.31383,10.394629,-1937,48111,27.7704,4027,1568
1.44188,10.856025,-1936,48112,27.8699,4027,1568
1.36719,11.846482,-1935,48113,27.8202,4027,1568
1.29923,12.454163,-1934,48114,27.8202,4027,1568
2.02033,12.674755,-1933,48115,27.621,4027,1568
1.21188,12.720523,-1932,48116,27.5713,4027,1568
1.13886,12.759122,-1931,48117,27.6708,4027,1568
1.42525,13.096273,-1930,48118,27.8699,4027,1568
1.11773,13.272024,-1929,48119,27.6708,4027,1568
1.38796,13.620006,-1928,48120,27.6708,4027,1568
1.55638,13.096273,-1927,48121,27.7704,4027,1568
0.981433,12.338163,-1926,48122,27.7704,4027,1568
1.71664,11.249029,-1925,48123,27.8202,4029,1565
0.78733,10.043946,-1924,48124,27.7704,4029,1565
1.1596,9.494842,-1923,48125,27.621,4029,1565
0.497951,9.8416232,-1922,48126,27.7704,4029,1565
1.88606,9.9147849,-1921,48127,27.9695,4029,1565
0.873464,10.104591,-1920,48128,27.7704,4029,1565
1.1472,10.650941,-1919,48129,27.621,4029,1565
1.48103,11.562578,-1918,48130,27.8202,4029,1565
0.931581,11.979073,-1917,48131,27.7704,4029,1565
1.67446,11.538066,-1916,48132,27.621,4029,1565
1.67161,11.37876,-1915,48133,27.8699,4027,1568
0.768946,11.647964,-1914,48134,27.7704,4027,1568
1.62239,12.552485,-1913,48135,27.8202,4027,1568
1.57769,12.664758,-1912,48136,27.6708,4027,1568
2.0156,12.236902,-1911,48137,27.6708,4027,1568
1.01016,11.808686,-1910,48138,27.8202,4027,1568
1.81913,11.7733,-1909,48139,27.6708,4027,1568
1.23912,11.615297,-1908,48140,27.7704,4027,1568
1.19205,10.757435,-1907,48141,27.8699,4027,1568
0.828641,10.428978,-1906,48142,27.4717,4027,1568
0.601994,10.553965,-1905,48143,27.8202,4027,1568
1.45505,10.987006,-1904,48144,27.8699,4027,1568
1.6165,11.070775,-1903,48145,27.6708,4027,1568
1.18402,11.072793,-1902,48146,27.7704,4027,1568
0.995902,11.098333,-1901,48147,27.8202,4027,1568
1.84257,10.955088,-1900,48148,27.6708,4027,1568
2.22262,10.671208,-1899,48149,27.7704,4027,1568
0.878906,10.600455,-1898,48150,27.8699,4027,1568
1.21581,11.33612,-1897,48151,27.8699,4027,1568
0.946812,11.775199,-1896,48152,28.0193,4027,1568
1.61059,11.539358,-1895,48153,27.8699,4032,1562
0.926449,10.986328,-1894,48154,27.621,4032,1562
1.38107,10.676792,-1893,48155,27.6708,4032,1562
1.61945,10.821655,-1892,48156,27.7704,4032,1562
0.895034,11.106386,-1891,48157,27.6708,4032,1562
0.560992,11.288699,-1890,48158,27.7704,4032,1562
1.43857,10.549729,-1889,48159,27.6708,4032,1562
0.308816,10.125951,-1888,48160,27.6708,4032,1562
1.26953,10.161941,-1887,48161,27.6708,4032,1562
1.26953,10.433263,-1886,48162,27.621,4032,1562
1.27328,10.647443,-1885,48163,27.621,4032,1562
1.66303,10.508687,-1884,48164,27.8699,4032,1562
1.59273,10.484554,-1883,48165,27.6708,4032,1562
0.878906,11.347288,-1882,48166,27.7704,4032,1562
2.10811,13.355407,-1881,48167,27.8699,4032,1562
1.04725,14.22368,-1880,48168,27.621,4032,1562
0.601994,13.613987,-1879,48169,27.8202,4032,1562
1.21581,12.87538,-1878,48170,27.6708,4032,1562
1.49704,12.466122,-1877,48171,27.8202,4032,1562
1.04725,11.9392,-1876,48172,27.8202,4032,1562
1.37415,11.79606,-1875,48173,27.7704,4032,1564
1.33185,11.845224,-1874,48174,27.8202,4032,1564
1.28817,11.800481,-1873,48175,27.7704,4032,1564
0.981433,10.755357,-1872,48176,27.6708,4032,1564
0.569429,9.9605186,-1871,48177,27.6708,4032,1564
2.13954,9.4830643,-1870,48178,27.8699,4032,1564
1.59273,9.2371018,-1869,48179,27.8699,4032,1564
1.3637,10.09131,-1868,48180,27.8202,4032,1564
1.13045,11.327573,-1867,48181,27.7704,4032,1564
1.69427,12.272165,-1866,48182,27.8202,4032,1564
0.750112,13.384385,-1865,48183,27.7704,4031,1563
0.447517,14.153841,-1864,48184,27.8699,4031,1563
0.873464,13.471497,-1863,48185,27.7704,4031,1563
1.59273,11.268882,-1862,48186,27.9695,4031,1563
2.15951,10.08614,-1861,48187,27.5713,4031,1563
1.13045,9.9365534,-1860,48188,27.8202,4031,1563
1.28447,10.53913,-1859,48189,27.8202,4031,1563
1.9918,10.59905,-1858,48190,27.621,4031,1563
1.28447,10.314038,-1857,48191,27.9695,4031,1563
1.34255,10.736637,-1856,48192,27.621,4031,1563
1.98461,12.116977,-1855,48193,27.7704,4031,1563
1.17594,13.552554,-1854,48194,27.6708,4031,1563
1.06082,13.445478,-1853,48195,27.7704,4031,1563
0.828641,13.578916,-1852,48196,27.6708,4031,1563
1.38107,14.267612,-1851,48197,27.621,4031,1563
0.218366,14.816842,-1850,48198,27.7704,4031,1563
1.88858,13.758792,-1849,48199,28.0193,4031,1563
1.31383,12.312169,-1848,48200,27.621,4031,1563
1.56859,11.716842,-1847,48201,27.8202,4031,1563
1.07865,10.922394,-1846,48202,27.8202,4031,1563
1.59273,10.278581,-1845,48203,27.8699,4028,1567
1.11773,9.8302609,-1844,48204,27.8699,4028,1567
1.19604,9.9694907,-1843,48205,27.621,4028,1567
1.20794,11.154582,-1842,48206,28.0193,4028,1567
0.85693,13.103098,-1841,48207,27.8202,4028,1567
1.10916,14.010992,-1840,48208,27.8699,4028,1567
0.569429,14.240432,-1839,48209,27.8699,4028,1567
1.36719,14.290571,-1838,48210,27.8699,4028,1567
1.39139,13.055247,-1837,48211,27.8699,4028,1567
0.85693,11.447306,-1836,48212,27.8202,4028,1567
1.43857,11.4434,-1835,48213,27.8699,4028,1567
1.31383,12.178311,-1834,48214,27.6708,4028,1567
0.828641,12.452369,-1833,48215,27.8699,4028,1567
1.68014,11.970984,-1832,48216,27.8202,4028,1567
2.01087,10.814768,-1831,48217,27.7704,4028,1567
0.905627,9.2403276,-1830,48218,27.6708,4028,1567
1.13045,8.5003371,-1829,48219,27.8202,4028,1567
1.86572,8.1101002,-1828,48220,27.7704,4028,1567
0.662337,8.4078005,-1827,48221,27.5713,4028,1567
1.32827,9.6443273,-1826,48222,27.8699,4028,1567
0.971667,10.676792,-1825,48223,27.6708,4027,1565
0.926449,10.903961,-1824,48224,27.7704,4027,1565
1.80334,10.527813,-1823,48225,27.6708,4027,1565
0.840071,10.150203,-1822,48226,27.8699,4027,1565
1.83479,10.191957,-1821,48227,27.6708,4027,1565
1.52856,10.62152,-1820,48228,27.6708,4027,1565
1.76323,11.127163,-1819,48229,27.621,4027,1565
1.32827,11.991506,-1818,48230,27.7704,4027,1565
1.05631,12.194207,-1817,48231,28.0193,4027,1565
1.67161,12.26184,-1816,48232,27.8202,4027,1565
2.87216,11.903577,-1815,48233,27.8699,4026,1565
1.20399,11.479154,-1814,48234,27.7704,4026,1565
0.811194,11.022888,-1813,48235,27.7704,4026,1565
1.45176,10.916253,-1812,48236,27.6708,4026,1565
0.458048,11.095648,-1811,48237,27.6708,4026,1565
1.01016,11.596037,-1810,48238,27.8202,4026,1565
1.57163,12.084961,-1809,48239,27.6708,4026,1565
1.10916,12.435005,-1808,48240,27.8202,4026,1565
1.4681,12.362897,-1807,48241,27.5713,4026,1565
0.889691,11.423199,-1806,48242,27.6708,4026,1565
1.1472,11.141884,-1805,48243,27.8699,4026,1565
1.14304,11.245055,-1804,48244,27.8699,4026,1565
1.79539,11.363035,-1803,48245,27.8202,4026,1565
1.28447,11.59411,-1802,48246,27.6708,4026,1565
0.552427,11.760003,-1801,48247,27.7704,4026,1565
1.54717,12.073241,-1800,48248,27.7704,4026,1565
1.49066,12.120051,-1799,48249,27.8699,4026,1565
1.06977,11.727648,-1798,48250,27.6708,4026,1565
0.768946,11.436887,-1797,48251,27.7704,4026,1565
1.17594,11.409494,-1796,48252,27.6708,4026,1565
1.24296,11.586396,-1795,48253,27.7704,4022,1559
0.601994,12.280662,-1794,48254,27.621,4022,1559
0.425674,12.706458,-1793,48255,27.8699,4022,1559
0.569429,12.74393,-1792,48256,27.7704,4022,1559
0.560992,12.382768,-1791,48257,27.621,4022,1559
1.39822,12.144002,-1790,48258,27.8202,4022,1559
0.85693,11.991506,-1789,48259,27.8202,4022,1559
1.5034,11.453813,-1788,48260,27.7704,4022,1559
0.560992,11.676713,-1787,48261,27.7704,4022,1559
0.497951,12.231421,-1786,48262,27.6708,4022,1559
1.4681,12.455958,-1785,48263,27.6708,4022,1559
0.921287,11.516737,-1784,48264,27.7704,4022,1559
0.926449,10.399646,-1783,48265,27.6708,4022,1559
1.40842,9.5768809,-1782,48266,27.8202,4022,1559
1.98461,9.3429654,-1781,48267,27.6708,4022,1559
1.53789,9.7113052,-1780,48268,27.8202,4022,1559
1.79804,9.9777081,-1779,48269,27.8202,4022,1559
1.27328,10.30392,-1778,48270,27.6708,4022,1559
1.48103,10.726223,-1777,48271,27.7704,4022,1559
0.323889,11.163262,-1776,48272,27.8202,4022,1559
1.57769,11.125823,-1775,48273,27.8202,4030,1555
1.28447,10.997173,-1774,48274,27.621,4030,1555
1.09619,10.906011,-1773,48275,27.7704,4030,1555
0.585938,11.231796,-1772,48276,27.8699,4030,1555
1.69427,11.311776,-1771,48277,27.7704,4030,1555
1.3029,11.449258,-1770,48278,27.6708,4030,1555
1.35668,11.205895,-1769,48279,27.6708,4030,1555
1.55638,11.01748,-1768,48280,27.621,4030,1555
1.48103,10.87865,-1767,48281,27.8699,4030,1555
1.01487,10.828538,-1766,48282,27.8699,4030,1555
1.39481,10.812012,-1765,48283,27.8699,4032,1548
1.77401,10.979544,-1764,48284,27.8699,4032,1548
1.02423,11.853398,-1763,48285,27.7704,4032,1548
0.497951,12.018193,-1762,48286,27.8202,4032,1548
0.59402,12.454163,-1761,48287,27.6708,4032,1548
1.82698,12.984288,-1760,48288,27.621,4032,1548
1.38796,13.428844,-1759,48289,27.8202,4032,1548
0.811194,13.375475,-1758,48290,27.8202,4032,1548
1.39481,12.967637,-1757,48291,27.6708,4032,1548
0.577742,12.768461,-1756,48292,27.8202,4032,1548
1.36019,12.513249,-1755,48293,27.6708,4032,1548
1.35668,12.358677,-1754,48294,27.6708,4032,1548
0.737289,11.428415,-1753,48295,27.7704,4032,1548
1.25442,11.099004,-1752,48296,27.621,4032,1548
1.45505,11.276152,-1751,48297,27.6708,4032,1548
1.26953,11.376141,-1750,48298,27.7704,4032,1548
1.54099,11.340063,-1749,48299,27.6708,4032,1548
1.21188,11.296617,-1748,48300,27.7704,4032,1548
1.4118,11.87224,-1747,48301,27.8202,4032,1548
0.931581,12.148909,-1746,48302,27.7704,4032,1548
1.85804,12.554859,-1745,48303,27.7704,4032,1545
1.55638,12.482846,-1744,48304,27.8699,4032,1545
2.38009,12.351441,-1743,48305,27.8699,4032,1545
1.23912,12.191152,-1742,48306,27.7704,4032,1545
2.03678,12.005787,-1741,48307,27.8202,4032,1545
1.3029,12.044821,-1740,48308,27.8202,4032,1545
1.04268,11.363691,-1739,48309,27.8699,4032,1545
0.534885,11.401655,-1738,48310,27.8699,4032,1545
0.169146,11.59668,-1737,48311,27.6708,4032,1545
0.690534,11.884158,-1736,48312,27.6708,4032,1545
1.51917,11.711118,-1735,48313,27.8699,4032,1545
1.25821,11.540649,-1734,48314,27.8202,4032,1545
1.0381,11.366313,-1733,48315,27.6708,4032,1545
0.840071,11.060675,-1732,48316,27.8699,4032,1545
1.79273,10.790629,-1731,48317,27.621,4032,1545
2.14177,10.680978,-1730,48318,27.7704,4032,1545
1.51603,10.867001,-1729,48319,27.7704,4032,1545
1.71942,10.795461,-1728,48320,27.7704,4032,1545
1.57466,10.749121,-1727,48321,27.8699,4032,1545
1.04268,10.538423,-1726,48322,27.8699,4032,1545
1.11345,10.479578,-1725,48323,27.8202,4031,1542
0.710948,10.389611,-1724,48324,27.6708,4031,1542
1.09619,10.448249,-1723,48325,27.7704,4031,1542
1.25442,10.598347,-1722,48326,27.9695,4031,1542
1.22752,10.497337,-1721,48327,27.6708,4031,1542
1.60168,10.549729,-1720,48328,27.7704,4031,1542
0.425674,10.632738,-1719,48329,27.8699,4031,1542
1.06082,10.701884,-1718,48330,27.8202,4031,1542
1.3102,10.487396,-1717,48331,27.8699,4031,1542
1.31745,11.170601,-1716,48332,27.7704,4031,1542
0.981433,12.251506,-1715,48333,27.8699,4027,1542
1.37415,12.320638,-1714,48334,27.8699,4027,1542
2.20323,11.699024,-1713,48335,27.7704,4027,1542
1.36019,10.993108,-1712,48336,27.7704,4027,1542
1.80598,10.378848,-1711,48337,27.5713,4027,1542
0.730792,11.001915,-1710,48338,28.0193,4027,1542
1.40163,11.640286,-1709,48339,27.8202,4027,1542
1.05179,11.119795,-1708,48340,27.8202,4027,1542
1.76863,10.27133,-1707,48341,27.621,4027,1542
1.41517,10.56737,-1706,48342,27.7704,4027,1542
1.16371,11.442098,-1705,48343,27.8202,4027,1542
1.1472,11.617221,-1704,48344,27.8699,4027,1542
1.49385,10.701884,-1703,48345,27.8699,4027,1542
0.85693,10.202917,-1702,48346,27.8202,4027,1542
1.23912,11.13854,-1701,48347,27.621,4027,1542
2.0739,13.080903,-1700,48348,27.6708,4027,1542
1.05179,13.45268,-1699,48349,27.7704,4027,1542
0.743728,11.401001,-1698,48350,27.8699,4027,1542
3.05556,9.840109,-1697,48351,27.5713,4027,1542
1.4681,9.7579926,-1696,48352,27.7704,4027,1542
0.889691,11.278795,-1695,48353,27.8202,4025,1542
1.24296,12.623511,-1694,48354,27.6708,4025,1542
1.66303,12.450573,-1693,48355,27.8202,4025,1542
1.61059,11.555488,-1692,48356,27.8202,4025,1542
0.690534,11.485642,-1691,48357,27.6708,4025,1542
0.76272,12.589823,-1690,48358,27.8202,4025,1542
1.24296,12.940029,-1689,48359,27.9695,4025,1542
1.1596,12.609337,-1688,48360,27.6708,4025,1542
1.4219,12.124354,-1687,48361,27.8202,4025,1542
1.26953,11.860939,-1686,48362,27.7704,4025,1542
2.12613,11.755568,-1685,48363,27.621,4025,1542
1.5034,11.7733,-1684,48364,27.8202,4025,1542
1.63702,11.426459,-1683,48365,27.8699,4025,1542
1.32827,10.843665,-1682,48366,27.8202,4025,1542
1.07865,10.202187,-1681,48367,27.7704,4025,1542
1.19604,9.6450998,-1680,48368,27.9695,4025,1542
0.921287,9.9328036,-1679,48369,27.9695,4025,1542
0.41432,11.111081,-1678,48370,27.8202,4025,1542
1.28817,12.382768,-1677,48371,27.8202,4025,1542
0.710948,12.717594,-1676,48372,27.7704,4025,1542
0.878906,12.144002,-1675,48373,27.9695,4026,1544
1.37067,12.151362,-1674,48374,27.7704,4026,1544
0.921287,12.587456,-1673,48375,27.8202,4026,1544
0.717624,12.028108,-1672,48376,27.621,4026,1544
1.38107,11.041123,-1671,48377,27.7704,4026,1544
1.82437,10.257539,-1670,48378,27.7704,4026,1544
1.09619,10.12963,-1669,48379,27.9695,4026,1544
1.0381,10.495918,-1668,48380,27.6708,4026,1544
1.05631,10.759513,-1667,48381,27.621,4026,1544
1.80334,10.524981,-1666,48382,27.7704,4026,1544
1.63993,9.7854413,-1665,48383,27.7704,4026,1544
0.966748,9.5332147,-1664,48384,27.621,4026,1544
2.27143,9.8688393,-1663,48385,27.8699,4026,1544
0.941763,11.129841,-1662,48386,27.6708,4026,1544
1.3102,12.947512,-1661,48387,27.621,4026,1544
0.828641,14.207432,-1660,48388,27.621,4026,1544
0.352105,13.741452,-1659,48389,27.621,4026,1544
0.926449,11.637725,-1658,48390,27.8202,4026,1544
1.17998,9.4783491,-1657,48391,27.621,4026,1544
0.995902,9.8090161,-1656,48392,27.8202,4026,1544
1.28817,11.428415,-1655,48393,27.7704,4033,1545
0.916097,12.32608,-1654,48394,27.8202,4033,1545
1.58973,12.000822,-1653,48395,27.7704,4033,1545
1.64283,10.773353,-1652,48396,27.621,4033,1545
0.239208,9.7082359,-1651,48397,27.7704,4033,1545
2.15287,10.277856,-1650,48398,27.8699,4033,1545
1.15135,11.150573,-1649,48399,27.7704,4033,1545
1.40163,11.447957,-1648,48400,27.8699,4033,1545
0.805294,11.967872,-1647,48401,27.8699,4033,1545
1.43857,12.500143,-1646,48402,27.6708,4033,1545
1.35668,13.091152,-1645,48403,27.6708,4031,1546
1.80334,12.659462,-1644,48404,27.7704,4031,1546
1.07865,11.661389,-1643,48405,27.6708,4031,1546
1.85804,10.658633,-1642,48406,27.8699,4031,1546
1.42859,10.159008,-1641,48407,27.7704,4031,1546
0.995902,10.245183,-1640,48408,28.0193,4031,1546
1.04268,10.933303,-1639,48409,27.7704,4031,1546
1.29556,12.285514,-1638,48410,27.7704,4031,1546
1.6165,13.248988,-1637,48411,27.8699,4031,1546
0.632885,13.075776,-1636,48412,27.8202,4031,1546
0.946812,12.69766,-1635,48413,27.8202,4031,1546
1.21188,11.843966,-1634,48414,27.8202,4031,1546
1.86572,11.078848,-1633,48415,27.8699,4031,1546
1.09619,11.210548,-1632,48416,27.6708,4031,1546
1.43857,11.704754,-1631,48417,27.7704,4031,1546
1.00543,12.094205,-1630,48418,27.8699,4031,1546
1.62826,12.736328,-1629,48419,27.7704,4031,1546
0.878906,13.738741,-1628,48420,27.8202,4031,1546
1.67161,13.595915,-1627,48421,27.9695,4031,1546
1.31745,12.557232,-1626,48422,27.8202,4031,1546
0.768946,11.115104,-1625,48423,27.8202,4031,1548
0.921287,10.301028,-1624,48424,27.7704,4031,1548
0.805294,10.734555,-1623,48425,27.8699,4031,1548
0.737289,11.66075,-1622,48426,27.6708,4031,1548
0.793363,12.358074,-1621,48427,27.7704,4031,1548
0.750112,12.033681,-1620,48428,27.621,4031,1548
1.51603,11.271526,-1619,48429,27.8699,4031,1548
0.697405,10.774045,-1618,48430,27.8699,4031,1548
1.80069,10.922394,-1617,48431,27.5713,4031,1548
1.3637,11.014098,-1616,48432,27.7704,4031,1548
0.817051,11.094304,-1615,48433,27.9695,4031,1548
1.81388,11.300573,-1614,48434,27.7704,4031,1548
1.30655,11.514149,-1613,48435,28.0193,4031,1548
1.78206,11.761904,-1612,48436,27.9695,4031,1548
1.01016,11.731459,-1611,48437,27.7704,4031,1548
1.23526,11.122475,-1610,48438,27.8202,4031,1548
1.47781,10.45609,-1609,48439,27.621,4031,1548
0.78733,10.340732,-1608,48440,27.4717,4031,1548
1.27702,10.573009,-1607,48441,27.8699,4031,1548
0.743728,10.473889,-1606,48442,27.9695,4031,1548
1.51603,10.439688,-1605,48443,27.7704,4032,1549
1.49066,10.632037,-1604,48444,27.8699,4032,1549
1.35668,10.993108,-1603,48445,27.8699,4032,1549
1.77132,11.499257,-1602,48446,27.621,4032,1549
1.10916,12.10652,-1601,48447,27.7704,4032,1549
1.90617,12.678282,-1600,48448,27.9695,4032,1549
1.58973,12.829003,-1599,48449,27.8699,4032,1549
1.09183,12.698247,-1598,48450,27.5713,4032,1549
1.73047,12.650042,-1597,48451,27.6708,4032,1549
1.31745,12.481055,-1596,48452,27.6708,4032,1549
1.91615,12.732817,-1595,48453,27.621,4030,1554
0.900346,12.516226,-1594,48454,27.621,4030,1554
0.447517,11.917339,-1593,48455,27.8699,4030,1554
1.30655,11.137871,-1592,48456,27.4717,4030,1554
0.662337,10.439688,-1591,48457,27.621,4030,1554
1.19205,9.6859543,-1590,48458,27.621,4030,1554
1.25061,9.9418008,-1589,48459,27.8202,4030,1554
1.40163,10.482422,-1588,48460,27.8202,4030,1554
0.710948,11.033023,-1587,48461,27.8699,4030,1554
1.22752,11.113092,-1586,48462,27.7704,4030,1554
1.25061,10.84229,-1585,48463,27.6708,4030,1554
1.77401,10.637642,-1584,48464,27.621,4030,1554
1.46484,11.243729,-1583,48465,27.8699,4030,1554
1.07865,11.962891,-1582,48466,27.621,4030,1554
0.525895,12.248465,-1581,48467,27.8699,4030,1554
1.13045,12.151975,-1580,48468,27.8202,4030,1554
2.66907,12.203369,-1579,48469,27.6708,4030,1554
1.3637,11.979073,-1578,48470,27.621,4030,1554
1.05179,11.557422,-1577,48471,27.8699,4030,1554
1.19205,11.131179,-1576,48472,27.621,4030,1554
1.19604,10.772662,-1575,48473,27.8202,4024,1553
0.895034,10.478867,-1574,48474,28.0193,4024,1553
1.05631,10.293068,-1573,48475,27.7704,4024,1553
1.21188,10.733167,-1572,48476,27.8699,4024,1553
0.365396,11.580607,-1571,48477,27.8699,4024,1553
1.09183,12.339371,-1570,48478,27.8202,4024,1553
0.488281,12.235075,-1569,48479,27.8699,4024,1553
1.21581,11.391194,-1568,48480,27.7704,4024,1553
1.33543,10.573009,-1567,48481,27.621,4024,1553
0.889691,10.684465,-1566,48482,27.8202,4024,1553
0.840071,11.103702,-1565,48483,27.7704,4024,1553
0.390625,11.627478,-1564,48484,27.4717,4024,1553
0.926449,11.573527,-1563,48485,27.8202,4024,1553
1.69708,11.521912,-1562,48486,27.5713,4024,1553
1.13045,11.34269,-1561,48487,27.8202,4024,1553
0.889691,10.701884,-1560,48488,27.621,4024,1553
0.560992,10.356571,-1559,48489,27.8202,4024,1553
0.817051,10.409671,-1558,48490,27.7704,4024,1553
0.840071,10.7927,-1557,48491,27.9695,4024,1553
0.569429,11.247705,-1556,48492,27.6708,4024,1553
0.845728,12.129269,-1555,48493,27.621,4031,1551
0.218366,13.052393,-1554,48494,27.9695,4031,1551
1.13886,13.28493,-1553,48495,27.6708,4031,1551
0.971667,12.504315,-1552,48496,27.8699,4031,1551
1.43525,11.87224,-1551,48497,27.6708,4031,1551
1.79539,11.418632,-1550,48498,27.6708,4031,1551
1.27328,11.509619,-1549,48499,27.8699,4031,1551
1.68014,11.586396,-1548,48500,27.8202,4031,1551
1.81651,11.375486,-1547,48501,27.8699,4031,1551
0.834375,11.135195,-1546,48502,27.8202,4031,1551
1.35668,10.734555,-1545,48503,27.8699,4030,1547
1.79273,11.232459,-1544,48504,27.8202,4030,1547
1.42859,11.84774,-1543,48505,27.7704,4030,1547
1.90617,12.043583,-1542,48506,27.8202,4030,1547
1.64283,11.826339,-1541,48507,27.8699,4030,1547
0.218366,11.583823,-1540,48508,27.8202,4030,1547
1.45505,11.826339,-1539,48509,27.8202,4030,1547
0.889691,12.24238,-1538,48510,27.8202,4030,1547
0.76272,12.478667,-1537,48511,27.5713,4030,1547
1.25061,11.79606,-1536,48512,27.8699,4030,1547
1.11773,11.064716,-1535,48513,27.8202,4030,1547
0.889691,10.419686,-1534,48514,27.8202,4030,1547
0.85693,10.234269,-1533,48515,28.1189,4030,1547
1.15135,10.778193,-1532,48516,27.621,4030,1547
1.22752,11.003946,-1531,48517,27.7704,4030,1547
1.01016,10.968002,-1530,48518,27.7704,4030,1547
0.710948,10.911475,-1529,48519,27.6708,4030,1547
2.11714,10.699795,-1528,48520,27.6708,4030,1547
1.25821,10.362324,-1527,48521,27.7704,4030,1547
0.525895,10.197073,-1526,48522,27.7704,4030,1547
1.0381,10.18757,-1525,48523,27.6708,4030,1545
1.50657,10.577236,-1524,48524,27.6708,4030,1545
1.67161,10.881389,-1523,48525,27.8699,4030,1545
1.38107,11.007331,-1522,48526,27.7704,4030,1545
1.67161,11.163262,-1521,48527,27.9695,4030,1545
1.57466,11.642846,-1520,48528,27.6708,4030,1545
1.36019,11.969117,-1519,48529,27.8202,4030,1545
1.18402,11.635805,-1518,48530,27.621,4030,1545
1.57466,11.594752,-1517,48531,27.7704,4030,1545
1.47458,11.891679,-1516,48532,27.8699,4030,1545
1.49704,11.993991,-1515,48533,27.7704,4030,1545
1.28447,11.843337,-1514,48534,27.8202,4030,1545
1.45176,11.640286,-1513,48535,27.7704,4030,1545
1.79007,11.9392,-1512,48536,27.5713,4030,1545
1.70549,11.923589,-1511,48537,27.8202,4030,1545
0.402647,11.813102,-1510,48538,27.8699,4030,1545
1.958,11.265575,-1509,48539,27.7704,4030,1545
1.60466,11.605029,-1508,48540,27.7704,4030,1545
1.36719,12.226547,-1507,48541,27.7704,4030,1545
0.76272,12.14707,-1506,48542,27.8202,4030,1545
1.27328,11.968495,-1505,48543,27.8699,4032,1548
1.13045,11.706664,-1504,48544,27.8202,4032,1548
1.41854,11.594752,-1503,48545,27.621,4032,1548
1.06082,11.542586,-1502,48546,27.8699,4032,1548
0.884315,11.233785,-1501,48547,27.6708,4032,1548
0.743728,11.191258,-1500,48548,27.9695,4032,1548
0.828641,11.473311,-1499,48549,27.5713,4032,1548
1.25061,11.828229,-1498,48550,27.8202,4032,1548
1.10916,11.603745,-1497,48551,27.5713,4032,1548
0.98628,11.191258,-1496,48552,27.9695,4032,1548
0.905627,11.125823,-1495,48553,27.7704,4032,1546
1.48103,11.452512,-1494,48554,27.6708,4032,1546
0.497951,11.452512,-1493,48555,27.8202,4032,1546
1.17998,11.320993,-1492,48556,27.5713,4032,1546
0.447517,11.097662,-1491,48557,27.8699,4032,1546
0.793363,11.311117,-1490,48558,27.7704,4032,1546
0.961803,11.383343,-1489,48559,27.8202,4032,1546
1.38107,11.170601,-1488,48560,27.6708,4032,1546
0.981433,11.154582,-1487,48561,27.5713,4032,1546
1.95556,11.647964,-1486,48562,27.7704,4032,1546
0.76272,11.323625,-1485,48563,27.621,4032,1546
0.662337,11.181267,-1484,48564,27.9695,4032,1546
1.02423,11.127832,-1483,48565,27.7704,4032,1546
0.704209,11.237101,-1482,48566,27.8202,4032,1546
1.73047,10.932622,-1481,48567,27.6708,4032,1546
1.57466,10.473178,-1480,48568,27.621,4032,1546
0.900346,10.541957,-1479,48569,27.7704,4032,1546
1.10916,10.940796,-1478,48570,27.8699,4032,1546
2.34782,11.358444,-1477,48571,27.621,4032,1546
0.683594,11.374176,-1476,48572,27.6708,4032,1546
1.33185,11.041123,-1475,48573,27.8202,4031,1548
1.57769,11.117114,-1474,48574,27.7704,4031,1548
1.17998,11.473311,-1473,48575,27.7704,4031,1548
0.878906,11.57932,-1472,48576,28.0193,4031,1548
1.11773,11.635164,-1471,48577,27.8699,4031,1548
0.640375,11.968495,-1470,48578,27.621,4031,1548
1.24296,12.036777,-1469,48579,27.6708,4031,1548
1.04725,11.866591,-1468,48580,27.8699,4031,1548
1.00068,11.717478,-1467,48581,27.8699,4031,1548
1.54408,11.697113,-1466,48582,27.8699,4031,1548
1.01016,11.603103,-1465,48583,27.8699,4031,1548
1.39139,11.466815,-1464,48584,27.7704,4031,1548
0.966748,11.618503,-1463,48585,27.8202,4031,1548
1.32467,11.842079,-1462,48586,27.8699,4031,1548
2.12388,11.756201,-1461,48587,27.8699,4031,1548
1.56859,11.775831,-1460,48588,27.6708,4031,1548
0.737289,11.734634,-1459,48589,27.8699,4031,1548
1.38452,11.57224,-1458,48590,27.6708,4031,1548
0.352105,11.625555,-1457,48591,27.8202,4031,1548
1.45176,11.58961,-1456,48592,27.5713,4031,1548
1.19205,11.271526,-1455,48593,27.8202,4025,1554
1.09619,10.965285,-1454,48594,27.9695,4025,1554
1.24679,11.319019,-1453,48595,27.8202,4025,1554
1.57769,11.457715,-1452,48596,27.5713,4025,1554
0.458048,11.452512,-1451,48597,27.621,4025,1554
0.878906,11.316385,-1450,48598,27.7704,4025,1554
0.507437,10.85328,-1449,48599,27.5713,4025,1554
1.68863,10.756743,-1448,48600,28.0193,4025,1554
0.525895,10.508687,-1447,48601,27.8202,4025,1554
1.01956,10.468197,-1446,48602,27.4717,4025,1554
1.05631,10.549729,-1445,48603,27.9695,4028,1555
1.58973,10.436833,-1444,48604,27.8699,4028,1555
1.09183,10.391045,-1443,48605,27.8699,4028,1555
1.05631,10.28148,-1442,48606,28.1189,4028,1555
0.323889,10.452527,-1441,48607,27.7704,4028,1555
1.8529,10.529228,-1440,48608,27.621,4028,1555
1.22752,10.53135,-1439,48609,27.6708,4028,1555
1.97739,10.659332,-1438,48610,27.7704,4028,1555
1.80334,10.98158,-1437,48611,27.9695,4028,1555
0.552427,11.30321,-1436,48612,27.7704,4028,1555
0.436732,11.366313,-1435,48613,27.6708,4028,1555
2.01324,11.282097,-1434,48614,27.7704,4028,1555
1.07865,11.599892,-1433,48615,27.8699,4028,1555
0.873464,11.825709,-1432,48616,27.7704,4028,1555
0.840071,11.530961,-1431,48617,27.621,4028,1555
1.28817,11.163262,-1430,48618,27.7704,4028,1555
0.308816,10.875225,-1429,48619,27.8202,4028,1555
1.09619,10.949646,-1428,48620,27.8699,4028,1555
1.68298,10.57794,-1427,48621,27.6708,4028,1555
1.37415,10.634139,-1426,48622,27.7704,4028,1555
0.793363,10.731779,-1425,48623,27.6708,4030,1559
0.717624,11.159256,-1424,48624,27.6708,4030,1559
1.01956,11.573527,-1423,48625,27.6708,4030,1559
1.47134,11.890425,-1422,48626,27.8699,4030,1559
0.78733,11.599892,-1421,48627,27.7704,4030,1559
0.889691,11.442098,-1420,48628,27.7704,4030,1559
1.63702,11.205895,-1419,48629,27.8202,4030,1559
1.64863,11.022888,-1418,48630,27.9695,4030,1559
0.717624,10.676792,-1417,48631,27.7704,4030,1559
0.931581,10.383872,-1416,48632,27.621,4030,1559
1.96287,10.620819,-1415,48633,27.7704,4030,1559
1.13045,10.778193,-1414,48634,27.8699,4030,1559
1.67161,10.726223,-1413,48635,27.7704,4030,1559
1.23912,10.69283,-1412,48636,27.7704,4030,1559
1.76052,10.842978,-1411,48637,27.7704,4030,1559
2.70985,11.070775,-1410,48638,27.7704,4030,1559
1.04268,10.710931,-1409,48639,27.9695,4030,1559
1.13886,10.45894,-1408,48640,27.8202,4030,1559
1.22752,10.347934,-1407,48641,27.5713,4030,1559
1.94088,10.774045,-1406,48642,27.8202,4030,1559
1.39139,11.154582,-1405,48643,27.8699,4032,1563
1.60168,11.412758,-1404,48644,27.7704,4032,1563
1.25821,11.352539,-1403,48645,27.7704,4032,1563
1.4118,11.4108,-1402,48646,27.8202,4032,1563
1.04268,11.737173,-1401,48647,27.621,4032,1563
0.817051,12.217403,-1400,48648,27.6708,4032,1563
1.99897,12.718766,-1399,48649,27.8202,4032,1563
2.03912,12.838872,-1398,48650,27.7704,4032,1563
1.31745,12.838872,-1397,48651,27.8202,4032,1563
1.37415,12.621149,-1396,48652,27.8202,4032,1563
1.33185,12.756202,-1395,48653,27.8699,4032,1563
0.926449,12.79411,-1394,48654,27.8202,4032,1563
1.22363,12.060893,-1393,48655,27.8202,4032,1563
1.1596,11.483696,-1392,48656,27.8699,4032,1563
1.36719,10.805119,-1391,48657,27.7704,4032,1563
0.78733,10.56737,-1390,48658,27.8699,4032,1563
0.655098,10.688648,-1389,48659,27.7704,4032,1563
1.32827,11.071448,-1388,48660,27.7704,4032,1563
1.1472,11.041798,-1387,48661,27.6708,4032,1563
1.97498,10.929214,-1386,48662,27.8202,4032,1563
1.66016,10.951687,-1385,48663,27.8202,4032,1567
0.900346,11.477855,-1384,48664,27.8699,4032,1567
1.4681,11.899195,-1383,48665,27.8699,4032,1567
1.5034,11.529669,-1382,48666,27.8699,4032,1567
1.91615,11.338749,-1381,48667,27.9695,4032,1567
1.54099,11.412758,-1380,48668,27.7704,4032,1567
1.06082,11.552909,-1379,48669,27.8202,4032,1567
0.905627,11.825079,-1378,48670,27.621,4032,1567
1.20794,11.706027,-1377,48671,27.8202,4032,1567
1.1596,11.756201,-1376,48672,27.8202,4032,1567
0.805294,12.08681,-1375,48673,27.8202,4031,1574
1.11773,12.2235,-1374,48674,27.8202,4031,1574
0.78733,11.98156,-1373,48675,27.7704,4031,1574
1.21188,11.721928,-1372,48676,27.8699,4031,1574
0.981433,11.389232,-1371,48677,27.8202,4031,1574
0.851347,11.324283,-1370,48678,27.4717,4031,1574
0.840071,11.127163,-1369,48679,27.5713,4031,1574
0.961803,11.003946,-1368,48680,27.7704,4031,1574
1.13045,10.589907,-1367,48681,27.8699,4031,1574
1.19604,10.623624,-1366,48682,27.6708,4031,1574
0.743728,10.450388,-1365,48683,27.6708,4031,1574
0.239208,10.342173,-1364,48684,27.7704,4031,1574
1.55638,10.176594,-1363,48685,27.7704,4031,1574
1.54099,10.114908,-1362,48686,27.621,4031,1574
0.889691,10.156808,-1361,48687,27.8202,4031,1574
1.29556,9.9192927,-1360,48688,27.8202,4031,1574
1.51603,9.8029378,-1359,48689,27.8699,4031,1574
1.19604,10.01051,-1358,48690,27.7704,4031,1574
0.845728,10.509396,-1357,48691,27.7704,4031,1574
1.57769,10.757435,-1356,48692,27.9695,4031,1574
1.13045,10.800981,-1355,48693,27.8202,4031,1575
1.13886,10.776811,-1354,48694,28.0193,4031,1575
0.900346,10.976151,-1353,48695,27.7704,4031,1575
1.38452,11.216528,-1352,48696,28.0193,4031,1575
1.17998,11.557422,-1351,48697,27.8202,4031,1575
1.06082,11.558711,-1350,48698,27.8202,4031,1575
1.52856,11.68373,-1349,48699,27.8202,4031,1575
1.28817,11.926088,-1348,48700,27.8699,4031,1575
1.17594,12.047913,-1347,48701,27.8202,4031,1575
1.84257,12.030585,-1346,48702,27.7704,4031,1575
0.690534,12.256978,-1345,48703,27.6708,4031,1575
0.956832,12.378556,-1344,48704,27.6708,4031,1575
1.83479,12.63295,-1343,48705,27.7704,4031,1575
1.49066,12.632361,-1342,48706,27.621,4031,1575
1.31745,12.64533,-1341,48707,27.7704,4031,1575
1.00543,12.57739,-1340,48708,27.8699,4031,1575
1.11773,12.124354,-1339,48709,27.5713,4031,1575
0.308816,11.490831,-1338,48710,27.6708,4031,1575
0.926449,11.529669,-1337,48711,27.7704,4031,1575
0.308816,11.790375,-1336,48712,27.621,4031,1575
1.16371,12.144002,-1335,48713,27.8202,4026,1578
0.640375,12.096053,-1334,48714,27.8699,4026,1578
1.13886,12.112672,-1333,48715,27.6708,4026,1578
1.52544,12.37374,-1332,48716,27.8699,4026,1578
1.79539,12.39179,-1331,48717,27.8202,4026,1578
0.717624,12.793528,-1330,48718,27.8202,4026,1578
1.62532,12.808079,-1329,48719,27.8699,4026,1578
0.690534,12.645919,-1328,48720,27.8699,4026,1578
0.478416,12.144002,-1327,48721,27.8699,4026,1578
1.55638,11.828859,-1326,48722,27.8699,4026,1578
1.50022,11.348601,-1325,48723,27.8202,4027,1575
0.76272,10.606779,-1324,48724,27.621,4027,1575
1.34255,10.217511,-1323,48725,27.8699,4027,1575
0.488281,9.9694907,-1322,48726,27.7704,4027,1575
1.29923,10.154607,-1321,48727,27.8699,4027,1575
2.31303,10.540544,-1320,48728,27.7704,4027,1575
1.05631,11.247042,-1319,48729,27.7704,4027,1575
0.577742,11.926088,-1318,48730,27.8202,4027,1575
1.4118,12.112672,-1317,48731,27.9695,4027,1575
0.750112,11.97534,-1316,48732,27.8202,4027,1575
1.45505,11.963513,-1315,48733,27.621,4027,1575
0.817051,11.483047,-1314,48734,27.8202,4027,1575
0.884315,11.156585,-1313,48735,27.6708,4027,1575
0.534885,10.963246,-1312,48736,27.6708,4027,1575
1.17998,10.701884,-1311,48737,27.621,4027,1575
0.743728,10.536302,-1310,48738,27.7704,4027,1575
1.88606,10.615205,-1309,48739,27.8699,4027,1575
1.24296,10.447536,-1308,48740,27.7704,4027,1575
0.889691,10.640443,-1307,48741,27.7704,4027,1575
0.497951,10.745655,-1306,48742,27.7704,4027,1575
1.56859,10.979544,-1305,48743,27.8699,4023,1578
1.62532,11.429067,-1304,48744,27.7704,4023,1578
1.86572,11.790375,-1303,48745,27.621,4023,1578
0.946812,12.154428,-1302,48746,27.6708,4023,1578
1.98701,12.389385,-1301,48747,27.8699,4023,1578
1.958,12.258801,-1300,48748,27.6708,4023,1578
1.25821,12.023771,-1299,48749,27.621,4023,1578
0.655098,11.782157,-1298,48750,27.9695,4023,1578
1.73047,11.436236,-1297,48751,27.8699,4023,1578
0.85693,11.258298,-1296,48752,27.8202,4023,1578
0.895034,11.084899,-1295,48753,27.8202,4023,1578
1.0381,11.180601,-1294,48754,27.621,4023,1578
1.60168,11.550974,-1293,48755,27.8202,4023,1578
2.17052,11.383343,-1292,48756,27.621,4023,1578
1.13045,11.154582,-1291,48757,27.8699,4023,1578
1.48103,11.1826,-1290,48758,27.8699,4023,1578
1.46484,11.415369,-1289,48759,27.6708,4023,1578
0.905627,11.716842,-1288,48760,27.8699,4023,1578
0.697405,11.951675,-1287,48761,27.8202,4023,1578
1.80334,11.984047,-1286,48762,27.8202,4023,1578
1.69427,12.309749,-1285,48763,27.7704,4031,1573
1.45176,12.658874,-1284,48764,27.7704,4031,1573
0.488281,12.658285,-1283,48765,27.6708,4031,1573
1.01956,12.43141,-1282,48766,27.4717,4031,1573
0.690534,12.123739,-1281,48767,27.8202,4031,1573
1.43857,12.244206,-1280,48768,27.6708,4031,1573
1.62239,12.309749,-1279,48769,27.6708,4031,1573
1.58673,12.257586,-1278,48770,27.6708,4031,1573
1.38452,12.170967,-1277,48771,27.7704,4031,1573
1.10485,12.249681,-1276,48772,27.9695,4031,1573
1.43525,11.926088,-1275,48773,27.8202,4032,1576
0.817051,11.740347,-1274,48774,27.5713,4032,1576
1.59273,11.536129,-1273,48775,27.8202,4032,1576
1.19205,11.333491,-1272,48776,27.7704,4032,1576
1.00068,11.20523,-1271,48777,27.8699,4032,1576
0.840071,11.105715,-1270,48778,27.8202,4032,1576
2.24609,11.191258,-1269,48779,27.8202,4032,1576
1.49066,11.360412,-1268,48780,27.8699,4032,1576
1.63993,11.423199,-1267,48781,27.621,4032,1576
0.425674,11.007331,-1266,48782,27.6708,4032,1576
0.690534,10.823721,-1265,48783,27.621,4032,1576
0.946812,10.940796,-1264,48784,27.4717,4032,1576
0.799351,11.039773,-1263,48785,27.8202,4032,1576
1.73323,10.867686,-1262,48786,27.8202,4032,1576
0.497951,10.881389,-1261,48787,27.7704,4032,1576
1.45176,11.181267,-1260,48788,27.8699,4032,1576
1.30655,11.044497,-1259,48789,27.7704,4032,1576
1.25821,10.634139,-1258,48790,27.6708,4032,1576
1.13045,10.465349,-1257,48791,27.6708,4032,1576
0.878906,10.580757,-1256,48792,27.6708,4032,1576
1.34255,10.729696,-1255,48793,27.8202,4034,1574
1.69427,10.883443,-1254,48794,27.7704,4034,1574
1.42525,10.790629,-1253,48795,27.8699,4034,1574
1.06082,10.902594,-1252,48796,27.8699,4034,1574
1.39822,11.065389,-1251,48797,27.8202,4034,1574
0.78733,11.273509,-1250,48798,27.8202,4034,1574
1.56859,11.408187,-1249,48799,27.8699,4034,1574
0.690534,11.66075,-1248,48800,27.6708,4034,1574
1.07865,12.273379,-1247,48801,27.8699,4034,1574
1.09183,12.632361,-1246,48802,27.7704,4034,1574
1.27328,12.39179,-1245,48803,27.8202,4034,1574
0.76272,12.02501,-1244,48804,27.621,4034,1574
1.37415,11.903577,-1243,48805,28.0193,4034,1574
0.655098,11.982182,-1242,48806,27.7704,4034,1574
1.34255,11.550974,-1241,48807,27.7704,4034,1574
1.26577,10.900544,-1240,48808,27.6708,4034,1574
1.39139,10.524273,-1239,48809,27.6708,4034,1574
1.37067,10.541957,-1238,48810,27.621,4034,1574
1.66303,10.759513,-1237,48811,27.5713,4034,1574
1.79539,11.247042,-1236,48812,27.8202,4034,1574
0.995902,11.281437,-1235,48813,27.7704,4032,1571
1.34255,11.434281,-1234,48814,27.8699,4032,1571
0.956832,11.508971,-1233,48815,27.9695,4032,1571
1.24296,11.853398,-1232,48816,27.8699,4032,1571
1.17594,12.102827,-1231,48817,27.8699,4032,1571
0.632885,12.151975,-1230,48818,27.9695,4032,1571
0.352105,11.979073,-1229,48819,27.7704,4032,1571
0.534885,11.821298,-1228,48820,27.6708,4032,1571
0.817051,11.334148,-1227,48821,27.6708,4032,1571
0.497951,10.965285,-1226,48822,27.8202,4032,1571
2.88706,10.948965,-1225,48823,27.7704,4031,1576
1.05179,10.809945,-1224,48824,27.9695,4031,1576
2.17052,10.848473,-1223,48825,27.9695,4031,1576
0.840071,11.081537,-1222,48826,27.8202,4031,1576
0.436732,11.131179,-1221,48827,27.8699,4031,1576
1.45176,11.510266,-1220,48828,27.7704,4031,1576
0.402647,11.797955,-1219,48829,27.4717,4031,1576
1.41517,11.961645,-1218,48830,27.7704,4031,1576
1.38107,12.151362,-1217,48831,27.7704,4031,1576
1.82437,11.984047,-1216,48832,27.6708,4031,1576
0.845728,11.384652,-1215,48833,27.7704,4031,1576
1.80334,10.997851,-1214,48834,27.8699,4031,1576
0.78733,10.925804,-1213,48835,27.5713,4031,1576
1.26577,10.905327,-1212,48836,27.7704,4031,1576
1.4681,10.749121,-1211,48837,27.7704,4031,1576
1.43525,10.834041,-1210,48838,27.8202,4031,1576
1.23912,10.936029,-1209,48839,27.621,4031,1576
1.24296,11.157253,-1208,48840,27.9695,4031,1576
1.00543,10.965285,-1207,48841,27.621,4031,1576
1.54099,11.13854,-1206,48842,27.4717,4031,1576
1.05179,11.431023,-1205,48843,27.8202,4024,1573
0.632885,11.949181,-1204,48844,27.7704,4024,1573
1.32827,12.188707,-1203,48845,27.6708,4024,1573
0.966748,12.207642,-1202,48846,27.7704,4024,1573
1.28447,12.068304,-1201,48847,27.8202,4024,1573
1.19205,12.073241,-1200,48848,27.8202,4024,1573
1.36019,11.952298,-1199,48849,27.9695,4024,1573
2.24609,11.750496,-1198,48850,27.621,4024,1573
0.750112,11.670969,-1197,48851,28.0193,4024,1573
1.39822,11.791006,-1196,48852,27.8202,4024,1573
0.768946,11.692017,-1195,48853,27.8699,4024,1573
0.750112,11.420589,-1194,48854,27.8699,4024,1573
1.62532,11.170601,-1193,48855,27.6708,4024,1573
0.834375,11.142552,-1192,48856,27.8202,4024,1573
2.01087,10.831978,-1191,48857,27.621,4024,1573
2.14399,10.965964,-1190,48858,27.7704,4024,1573
0.946812,11.012745,-1189,48859,27.5713,4024,1573
0.941763,11.041123,-1188,48860,27.7704,4024,1573
1.96529,11.143221,-1187,48861,27.8699,4024,1573
0.840071,11.01748,-1186,48862,27.8202,4024,1573
0.946812,10.807187,-1185,48863,27.621,4026,1572
1.38452,11.061349,-1184,48864,27.7704,4026,1572
0.85693,11.126493,-1183,48865,27.8699,4026,1572
1.82437,11.231796,-1182,48866,27.8202,4026,1572
1.17594,11.122475,-1181,48867,27.621,4026,1572
0.365396,11.135195,-1180,48868,27.6708,4026,1572
1.67446,10.897126,-1179,48869,27.7704,4026,1572
1.29923,10.778193,-1178,48870,27.8202,4026,1572
0.497951,10.71858,-1177,48871,27.621,4026,1572
0.981433,10.843665,-1176,48872,27.7704,4026,1572
1.0381,10.951687,-1175,48873,27.8202,4031,1571
1.12623,10.88755,-1174,48874,27.7704,4031,1571
1.01016,10.903961,-1173,48875,27.6708,4031,1571
1.56555,10.982258,-1172,48876,27.8202,4031,1571
1.42859,11.066736,-1171,48877,27.621,4031,1571
1.13886,11.169267,-1170,48878,27.7704,4031,1571
0.805294,11.070775,-1169,48879,27.8699,4031,1571
1.52856,11.083554,-1168,48880,27.8202,4031,1571
1.29923,11.103702,-1167,48881,27.7704,4031,1571
1.37067,11.247705,-1166,48882,27.8202,4031,1571
0.577742,11.157253,-1165,48883,27.7704,4031,1571
0.750112,10.934666,-1164,48884,27.7704,4031,1571
1.27702,11.139877,-1163,48885,27.8202,4031,1571
0.921287,11.296617,-1162,48886,27.7704,4031,1571
1.11773,11.260945,-1161,48887,27.6708,4031,1571
0.98628,11.499257,-1160,48888,28.0193,4031,1571
1.06082,11.635164,-1159,48889,27.8699,4031,1571
0.811194,11.643486,-1158,48890,27.7704,4031,1571
1.36019,11.545167,-1157,48891,27.8202,4031,1571
0.921287,11.702208,-1156,48892,27.8699,4031,1571
1.25821,11.873495,-1155,48893,27.6708,4030,1571
2.34782,11.697113,-1154,48894,27.5713,4030,1571
1.69146,11.489534,-1153,48895,27.5713,4030,1571
1.36019,11.276152,-1152,48896,27.8202,4030,1571
1.5034,11.276152,-1151,48897,27.8202,4030,1571
1.23912,11.740347,-1150,48898,27.7704,4030,1571
1.33185,12.090508,-1149,48899,27.8202,4030,1571
0.845728,12.3442,-1148,48900,27.7704,4030,1571
1.00068,12.188707,-1147,48901,27.8699,4030,1571
1.18402,12.038633,-1146,48902,27.621,4030,1571
0.805294,12.027488,-1145,48903,27.6708,4030,1571
0.569429,12.047913,-1144,48904,27.8699,4030,1571
1.26953,11.720021,-1143,48905,27.8699,4030,1571
1.54408,11.438842,-1142,48906,27.7704,4030,1571
1.65152,11.358444,-1141,48907,27.8202,4030,1571
0.905627,11.141884,-1140,48908,27.9695,4030,1571
1.66303,10.873169,-1139,48909,27.8202,4030,1571
1.1472,10.87591,-1138,48910,27.5713,4030,1571
1.17594,10.720665,-1137,48911,27.6708,4030,1571
0.884315,10.717885,-1136,48912,28.0193,4030,1571
1.05631,10.975472,-1135,48913,27.7704,4034,1568
1.14304,11.204565,-1134,48914,27.7704,4034,1568
1.39822,11.882904,-1133,48915,27.7704,4034,1568
0.402647,11.977207,-1132,48916,27.8699,4034,1568
1.22752,11.832638,-1131,48917,27.621,4034,1568
1.00068,11.679903,-1130,48918,27.7704,4034,1568
1.00068,11.666499,-1129,48919,27.4717,4034,1568
0.895034,11.442098,-1128,48920,27.8202,4034,1568
0.976563,11.342034,-1127,48921,27.7704,4034,1568
0.840071,11.402308,-1126,48922,27.6708,4034,1568
1.20794,11.302551,-1125,48923,27.8202,4034,1568
1.08306,11.431023,-1124,48924,27.8699,4034,1568
2.1771,11.209884,-1123,48925,27.621,4034,1568
0.805294,10.790629,-1122,48926,27.7704,4034,1568
0.921287,10.549729,-1121,48927,27.621,4034,1568
0.931581,10.496627,-1120,48928,27.621,4034,1568
1.45176,10.756743,-1119,48929,27.7704,4034,1568
1.82698,11.276152,-1118,48930,27.7704,4034,1568
1.62532,11.499257,-1117,48931,27.6708,4034,1568
1.19205,11.431023,-1116,48932,27.7704,4034,1568
0.365396,11.529669,-1115,48933,27.8699,4020,1563
1.01016,11.264253,-1114,48934,27.7704,4020,1563
1.43857,11.268882,-1113,48935,27.8699,4020,1563
0.365396,11.477855,-1112,48936,27.8202,4020,1563
0.78733,11.7733,-1111,48937,27.621,4020,1563
1.33543,11.704754,-1110,48938,27.7704,4020,1563
0.625305,11.740347,-1109,48939,27.8699,4020,1563
1.33185,11.865335,-1108,48940,27.6708,4020,1563
2.91337,11.828859,-1107,48941,27.8699,4020,1563
1.5034,11.717478,-1106,48942,27.4717,4020,1563
1.45176,11.710482,-1105,48943,27.8202,4031,1559
0.323889,11.790375,-1104,48944,27.8699,4031,1559
1.56555,12.028108,-1103,48945,28.0193,4031,1559
1.06082,12.094821,-1102,48946,27.8699,4031,1559
1.80334,12.355663,-1101,48947,27.8699,4031,1559
1.33185,12.416417,-1100,48948,27.7704,4031,1559
1.1472,12.356266,-1099,48949,27.8699,4031,1559
1.53168,12.329102,-1098,48950,27.7704,4031,1559
1.57163,12.211913,-1097,48951,27.8202,4031,1559
0.710948,12.163007,-1096,48952,27.8202,4031,1559
2.05078,12.244206,-1095,48953,27.621,4031,1559
0.632885,12.126812,-1094,48954,27.8699,4031,1559
0.878906,11.635805,-1093,48955,27.7704,4031,1559
1.19205,11.223169,-1092,48956,27.8202,4031,1559
0.458048,10.903961,-1091,48957,27.4219,4031,1559
0.931581,10.63484,-1090,48958,27.6708,4031,1559
1.12623,10.536302,-1089,48959,27.6708,4031,1559
1.53168,10.600455,-1088,48960,27.8699,4031,1559
0.690534,10.600455,-1087,48961,27.7704,4031,1559
1.22752,10.286552,-1086,48962,27.8699,4031,1559
0.632885,10.074314,-1085,48963,27.8699,4023,1545
0.585938,10.094263,-1084,48964,27.9695,4023,1545
0.76272,10.114908,-1083,48965,27.8202,4023,1545
2.0156,10.092048,-1082,48966,27.7704,4023,1545
2.44336,10.152405,-1081,48967,27.621,4023,1545
0.900346,10.188302,-1080,48968,27.621,4023,1545
1.54717,10.215323,-1079,48969,27.7704,4023,1545
1.05631,10.310426,-1078,48970,27.8699,4023,1545
1.83479,10.512232,-1077,48971,27.7704,4023,1545
1.73047,10.451101,-1076,48972,27.6708,4023,1545
1.23912,10.421116,-1075,48973,27.7704,4023,1545
1.11345,10.642543,-1074,48974,27.6708,4023,1545
1.97739,10.430406,-1073,48975,27.8699,4023,1545
1.41517,10.674,-1072,48976,27.9695,4023,1545
0.436732,11.030321,-1071,48977,27.8699,4023,1545
1.12198,11.180601,-1070,48978,27.7704,4023,1545
1.12198,11.311117,-1069,48979,27.8699,4023,1545
0.697405,11.050566,-1068,48980,27.6708,4023,1545
1.34255,11.117114,-1067,48981,27.9695,4023,1545
0.845728,11.38007,-1066,48982,27.8202,4023,1545
1.47781,11.470063,-1065,48983,27.8202,4023,1531
1.17998,11.654359,-1064,48984,28.0193,4023,1531
0.78733,11.71239,-1063,48985,27.7704,4023,1531
1.84516,12.023771,-1062,48986,27.9695,4023,1531
1.09183,12.144002,-1061,48987,27.621,4023,1531
1.31383,12.126812,-1060,48988,27.8202,4023,1531
1.17188,11.876632,-1059,48989,27.7704,4023,1531
1.59273,11.775831,-1058,48990,27.6708,4023,1531
1.01016,11.642846,-1057,48991,27.8699,4023,1531
1.89362,11.407534,-1056,48992,27.8699,4023,1531
1.69146,11.338091,-1055,48993,27.6708,4026,1525
1.39139,11.592181,-1054,48994,27.7704,4026,1525
0.569429,11.353195,-1053,48995,27.8202,4026,1525
1.48103,11.00056,-1052,48996,27.8202,4026,1525
2.05078,10.785104,-1051,48997,27.7704,4026,1525
1.5034,10.632037,-1050,48998,27.8202,4026,1525
0.569429,10.805119,-1049,48999,27.8202,4026,1525
0.697405,11.036398,-1048,49000,27.7704,4026,1525
0.981433,11.363035,-1047,49001,27.4717,4026,1525
1.28817,11.669692,-1046,49002,27.4717,4026,1525
1.68014,11.747325,-1045,49003,27.6708,4026,1525
1.54099,11.767603,-1044,49004,27.8202,4026,1525
1.23912,11.794797,-1043,49005,27.8699,4026,1525
1.21188,11.499257,-1042,49006,27.8699,4026,1525
1.33185,11.274831,-1041,49007,28.0193,4026,1525
1.04268,11.402308,-1040,49008,27.8699,4026,1525
2.14177,11.630681,-1039,49009,27.7704,4026,1525
1.5034,11.449909,-1038,49010,27.7704,4026,1525
1.07422,11.068755,-1037,49011,27.9695,4026,1525
0.905627,10.524273,-1036,49012,28.0193,4026,1525
1.98701,10.225529,-1035,49013,27.621,4032,1520
1.22363,10.032813,-1034,49014,27.8699,4032,1520
0.458048,9.9694907,-1033,49015,27.8699,4032,1520
1.16371,10.043205,-1032,49016,27.8202,4032,1520
1.34255,10.18757,-1031,49017,27.7704,4032,1520
1.33185,10.342173,-1030,49018,27.621,4032,1520
1.43525,10.436833,-1029,49019,27.7704,4032,1520
1.06082,10.687254,-1028,49020,27.621,4032,1520
0.76272,10.845039,-1027,49021,27.8202,4032,1520
0.525895,11.195252,-1026,49022,27.6708,4032,1520
0.811194,11.669054,-1025,49023,27.8699,4032,1520
0.730792,11.651162,-1024,49024,27.8202,4032,1520
1.09183,11.775831,-1023,49025,27.6708,4032,1520
1.67161,11.694565,-1022,49026,27.9695,4032,1520
1.57163,11.447957,-1021,49027,27.8202,4032,1520
0.195313,11.228478,-1020,49028,27.8202,4032,1520
1.09619,11.383343,-1019,49029,28.0193,4032,1520
1.32827,11.365657,-1018,49030,27.8202,4032,1520
1.27328,11.447957,-1017,49031,27.8699,4032,1520
0.402647,11.532899,-1016,49032,27.7704,4032,1520
1.0381,11.752398,-1015,49033,27.7704,4033,1517
1.56859,11.728918,-1014,49034,27.621,4033,1517
0.926449,11.847111,-1013,49035,27.6708,4033,1517
1.00543,12.091125,-1012,49036,28.1189,4033,1517
1.19205,11.847111,-1011,49037,27.8202,4033,1517
1.38107,11.608238,-1010,49038,27.6708,4033,1517
2.39208,11.487588,-1009,49039,27.7704,4033,1517
0.697405,11.622991,-1008,49040,27.8202,4033,1517
0.601994,11.651162,-1007,49041,28.1189,4033,1517
1.93596,11.772668,-1006,49042,27.7704,4033,1517
1.69427,11.543231,-1005,49043,27.7704,4032,1518
1.75238,11.316385,-1004,49044,27.6708,4032,1518
0.834375,11.217857,-1003,49045,27.7704,4032,1518
0.834375,11.09699,-1002,49046,27.8202,4032,1518
0.828641,10.976151,-1001,49047,27.7704,4032,1518
1.70829,10.867001,-1000,49048,27.8699,4032,1518
1.24296,11.243067,-999,49049,27.7704,4032,1518
0.805294,11.150573,-998,49050,27.8699,4032,1518
1.77401,10.837479,-997,49051,27.7704,4032,1518
0.507437,10.914206,-996,49052,27.8699,4032,1518
0.617632,10.880704,-995,49053,27.6708,4032,1518
1.17998,10.742881,-994,49054,27.8699,4032,1518
1.27328,10.850533,-993,49055,27.8699,4032,1518
0.697405,10.921712,-992,49056,27.8202,4032,1518
0.995902,11.012745,-991,49057,27.8699,4032,1518
0.817051,10.910109,-990,49058,27.8202,4032,1518
2.19455,10.880704,-989,49059,27.7704,4032,1518
1.54408,11.371556,-988,49060,27.7704,4032,1518
1.48103,11.699661,-987,49061,27.9695,4032,1518
0.560992,11.691379,-986,49062,27.7704,4032,1518
1.10916,12.075093,-985,49063,27.8202,4032,1523
1.19604,12.639436,-984,49064,28.0193,4032,1523
1.75781,13.014092,-983,49065,27.8699,4032,1523
1.27328,13.552004,-982,49066,27.7704,4032,1523
0.966748,13.44049,-981,49067,28.0193,4032,1523
0.632885,13.207872,-980,49068,27.6708,4032,1523
0.690534,13.051823,-979,49069,27.9695,4032,1523
0.878906,12.749775,-978,49070,27.7704,4032,1523
1.00543,12.516226,-977,49071,27.8699,4032,1523
0.323889,12.207642,-976,49072,27.9695,4032,1523
1.37415,11.991506,-975,49073,27.7704,4032,1523
0.632885,11.876632,-974,49074,27.8202,4032,1523
0.577742,11.901073,-973,49075,27.8699,4032,1523
1.22363,11.705391,-972,49076,27.8202,4032,1523
1.38452,11.661389,-971,49077,27.8202,4032,1523
1.05179,12.015713,-970,49078,27.8202,4032,1523
0.76272,12.124968,-969,49079,27.8202,4032,1523
0.239208,12.256978,-968,49080,27.7704,4032,1523
1.78206,12.481055,-967,49081,27.6708,4032,1523
1.17998,12.358677,-966,49082,27.8202,4032,1523
1.82698,11.769503,-965,49083,27.6708,4028,1524
1.77132,11.437539,-964,49084,27.8699,4028,1524
1.47781,11.426459,-963,49085,27.621,4028,1524
0.78733,11.183933,-962,49086,27.8699,4028,1524
1.45176,11.179268,-961,49087,27.4717,4028,1524
1.00068,10.822344,-960,49088,27.6708,4028,1524
0.697405,10.496627,-959,49089,27.621,4028,1524
1.69427,10.060993,-958,49090,27.8202,4028,1524
1.20794,9.7335288,-957,49091,27.621,4028,1524
1.17594,9.9125303,-956,49092,27.7704,4028,1524
1.70549,9.9298028,-955,49093,27.7704,4025,1529
1.80598,10.349374,-954,49094,27.9695,4025,1529
1.23912,10.825786,-953,49095,27.6708,4025,1529
1.23912,11.108398,-952,49096,27.8699,4025,1529
1.05179,11.20523,-951,49097,27.8699,4025,1529
1.51917,11.459666,-950,49098,27.621,4025,1529
1.69427,11.362379,-949,49099,27.6708,4025,1529
1.50657,11.319019,-948,49100,27.9695,4025,1529
1.11773,11.344661,-947,49101,27.7704,4025,1529
1.6341,11.442098,-946,49102,27.7704,4025,1529
1.17998,11.392503,-945,49103,27.7704,4025,1529
1.73872,11.376141,-944,49104,27.6708,4025,1529
1.48103,11.229142,-943,49105,27.621,4025,1529
1.18402,11.177935,-942,49106,27.8699,4025,1529
0.805294,11.133187,-941,49107,27.5713,4025,1529
1.57163,11.610164,-940,49108,27.8699,4025,1529
0.737289,11.848997,-939,49109,27.7704,4025,1529
1.37415,11.737808,-938,49110,27.621,4025,1529
1.17998,11.842079,-937,49111,27.621,4025,1529
0.995902,12.051005,-936,49112,27.8699,4025,1529
0.560992,12.377352,-935,49113,27.7704,4023,1532
1.07422,12.649453,-934,49114,27.621,4023,1532
1.09619,12.649453,-933,49115,27.8699,4023,1532
2.0156,12.595148,-932,49116,27.6708,4023,1532
1.10916,12.598106,-931,49117,27.6708,4023,1532
1.68581,12.443989,-930,49118,27.8202,4023,1532
2.00136,12.526936,-929,49119,27.8699,4023,1532
0.828641,12.408614,-928,49120,27.8202,4023,1532
1.06977,12.140934,-927,49121,27.6708,4023,1532
1.02423,11.961645,-926,49122,27.8202,4023,1532
1.09183,11.93171,-925,49123,27.9695,4023,1532
0.793363,12.050387,-924,49124,27.6708,4023,1532
0.995902,12.050387,-923,49125,27.9695,4023,1532
1.68014,11.995854,-922,49126,27.8699,4023,1532
1.02423,11.763171,-921,49127,27.8699,4023,1532
1.8606,11.503144,-920,49128,27.8699,4023,1532
1.97739,11.477855,-919,49129,27.9695,4023,1532
1.26953,11.490831,-918,49130,27.621,4023,1532
1.19205,11.24638,-917,49131,27.8699,4023,1532
1.25061,11.119795,-916,49132,27.8202,4023,1532
0.811194,10.914206,-915,49133,28.0193,4031,1533
1.17998,10.575827,-914,49134,27.7704,4031,1533
1.33185,10.104591,-913,49135,27.8202,4031,1533
1.36019,10.037268,-912,49136,27.621,4031,1533
0.59402,9.8105352,-911,49137,27.5713,4031,1533
1.15135,9.9207948,-910,49138,27.8699,4031,1533
1.0381,10.15534,-909,49139,27.621,4031,1533
1.0381,9.8105352,-908,49140,27.7704,4031,1533
0.569429,9.6566799,-907,49141,27.7704,4031,1533
0.941763,9.8544846,-906,49142,27.7704,4031,1533
0.905627,10.342893,-905,49143,27.7704,4032,1536
2.20539,10.553965,-904,49144,27.8202,4032,1536
1.64283,10.662127,-903,49145,27.5713,4032,1536
0.577742,10.687254,-902,49146,27.8699,4032,1536
1.49066,11.135195,-901,49147,27.621,4032,1536
1.42859,11.483047,-900,49148,27.6708,4032,1536
0.971667,11.391194,-899,49149,27.621,4032,1536
0.946812,11.511561,-898,49150,27.7704,4032,1536
1.33185,11.599249,-897,49151,27.621,4032,1536
1.38796,11.699024,-896,49152,27.8202,4032,1536
1.13045,11.828229,-895,49153,27.7704,4032,1536
0.905627,11.742885,-894,49154,27.5713,4032,1536
1.38107,12.003305,-893,49155,27.7704,4032,1536
0.931581,12.165457,-892,49156,27.7704,4032,1536
1.38796,11.970362,-891,49157,27.9695,4032,1536
0.905627,12.066451,-890,49158,27.8699,4032,1536
1.77401,12.210083,-889,49159,27.621,4032,1536
2.36199,12.647097,-888,49160,27.8699,4032,1536
1.88858,13.038115,-887,49161,27.8202,4032,1536
1.01016,12.595148,-886,49162,27.8202,4032,1536
1.43857,12.620559,-885,49163,27.7704,4032,1536
1.76323,12.738082,-884,49164,28.0193,4032,1536
0.921287,12.528126,-883,49165,27.8202,4032,1536
0.793363,12.297637,-882,49166,27.5713,4032,1536
1.21188,11.879141,-881,49167,27.8202,4032,1536
0.41432,11.480452,-880,49168,27.8699,4032,1536
1.3029,11.278795,-879,49169,27.8699,4032,1536
0.218366,11.049218,-878,49170,27.8202,4032,1536
0.793363,10.997173,-877,49171,27.8699,4032,1536
0.905627,10.949646,-876,49172,27.8699,4032,1536
2.2819,10.880704,-875,49173,27.9695,4032,1536
1.72772,10.848473,-874,49174,27.8202,4032,1536
1.31745,10.670509,-873,49175,27.5713,4032,1536
0.905627,10.776811,-872,49176,27.7704,4032,1536
2.17052,11.086915,-871,49177,28.0193,4032,1536
1.28447,11.294638,-870,49178,27.6708,4032,1536
1.23526,11.175935,-869,49179,27.8699,4032,1536
1.76323,11.097662,-868,49180,27.621,4032,1536
0.845728,11.215864,-867,49181,27.6708,4032,1536
0.981433,10.8471,-866,49182,27.7704,4032,1536
1.38452,10.861514,-865,49183,28.0193,4033,1538
0.569429,10.632037,-864,49184,27.8699,4033,1538
0.497951,10.581461,-863,49185,27.7704,4033,1538
1.20794,10.71858,-862,49186,27.6708,4033,1538
0.447517,10.625027,-861,49187,27.8202,4033,1538
0.577742,10.32126,-860,49188,28.0193,4033,1538
1.36019,10.277856,-859,49189,27.7704,4033,1538
0.525895,10.580757,-858,49190,27.621,4033,1538
0.78733,10.653739,-857,49191,27.8202,4033,1538
0.655098,10.881389,-856,49192,27.6708,4033,1538
1.32827,10.759513,-855,49193,27.8699,4024,1538
1.09619,10.729696,-854,49194,27.7704,4024,1538
1.66303,10.957808,-853,49195,27.8202,4024,1538
1.08306,10.944201,-852,49196,27.7704,4024,1538
1.19604,11.193921,-851,49197,27.5713,4024,1538
1.97498,11.328888,-850,49198,27.7704,4024,1538
1.81913,11.302551,-849,49199,27.4717,4024,1538
1.31383,11.035723,-848,49200,27.8202,4024,1538
0.971667,11.179268,-847,49201,27.6708,4024,1538
1.42525,11.167933,-846,49202,27.8699,4024,1538
1.11773,11.326257,-845,49203,27.6708,4024,1534
0.811194,11.570952,-844,49204,27.8202,4024,1534
0.966748,11.550329,-843,49205,27.6708,4024,1534
0.931581,11.664583,-842,49206,27.621,4024,1534
1.28447,11.805531,-841,49207,27.8202,4024,1534
0.458048,11.79227,-840,49208,27.8202,4024,1534
1.61945,11.787847,-839,49209,27.8202,4024,1534
0.981433,11.828229,-838,49210,27.621,4024,1534
0.981433,11.376141,-837,49211,27.6708,4024,1534
1.68014,11.391849,-836,49212,27.8699,4024,1534
1.28817,11.484994,-835,49213,28.0193,4028,1535
1.3029,11.233785,-834,49214,27.7704,4028,1535
1.67446,11.188595,-833,49215,27.8699,4028,1535
0.971667,11.290019,-832,49216,27.621,4028,1535
1.27328,11.352539,-831,49217,27.621,4028,1535
1.54408,11.290019,-830,49218,27.6708,4028,1535
2.1771,11.35057,-829,49219,27.8202,4028,1535
1.34255,11.493424,-828,49220,27.8202,4028,1535
1.4118,11.693291,-827,49221,27.6708,4028,1535
1.73047,11.976585,-826,49222,27.8202,4028,1535
0.840071,12.072624,-825,49223,27.6708,4028,1535
1.10485,11.717478,-824,49224,27.8202,4028,1535
1.68863,11.511561,-823,49225,27.8202,4028,1535
1.09183,11.402308,-822,49226,27.8699,4028,1535
0.900346,11.540649,-821,49227,28.0193,4028,1535
1.58973,11.767603,-820,49228,27.8699,4028,1535
1.67161,11.617221,-819,49229,27.7704,4028,1535
1.66303,11.301232,-818,49230,27.7704,4028,1535
1.39822,11.153914,-817,49231,27.8699,4028,1535
0.995902,10.965285,-816,49232,27.8202,4028,1535
0.851347,11.183933,-815,49233,28.0193,4027,1536
1.11345,11.413411,-814,49234,27.8699,4027,1536
1.16371,11.81121,-813,49235,27.4717,4027,1536
1.02423,11.737808,-812,49236,27.6708,4027,1536
1.77132,11.982182,-811,49237,27.7704,4027,1536
1.48746,12.173416,-810,49238,27.8699,4027,1536
1.0381,12.268522,-809,49239,27.7704,4027,1536
1.14304,12.013852,-808,49240,27.7704,4027,1536
0.946812,11.784686,-807,49241,27.6708,4027,1536
0.840071,11.423851,-806,49242,27.8202,4027,1536
1.13045,11.313093,-805,49243,28.0193,4027,1536
0.971667,11.316385,-804,49244,27.8699,4027,1536
1.76323,11.133187,-803,49245,27.8202,4027,1536
1.02423,10.669811,-802,49246,27.8699,4027,1536
1.39139,10.362324,-801,49247,27.6708,4027,1536
1.21581,10.368075,-800,49248,27.7704,4027,1536
1.25821,10.606779,-799,49249,27.8202,4027,1536
1.46484,10.832666,-798,49250,27.9695,4027,1536
0.497951,11.01748,-797,49251,27.7704,4027,1536
1.06977,11.084899,-796,49252,27.8202,4027,1536
1.09183,11.047195,-795,49253,27.7704,4031,1538
1.49385,11.294638,-794,49254,27.6708,4031,1538
1.17998,11.078175,-793,49255,27.8202,4031,1538
1.85547,10.976151,-792,49256,27.7704,4031,1538
0.507437,11.229142,-791,49257,27.621,4031,1538
0.966748,10.92444,-790,49258,27.8202,4031,1538
1.06082,10.873169,-789,49259,27.8699,4031,1538
1.71942,10.674,-788,49260,27.8202,4031,1538
0.402647,10.715799,-787,49261,27.8202,4031,1538
3.22414,10.479578,-786,49262,27.8699,4031,1538
1.88858,10.479578,-785,49263,27.8699,4034,1537
1.09619,10.71858,-784,49264,27.8202,4034,1537
1.39139,10.92785,-783,49265,27.6708,4034,1537
0.488281,11.270204,-782,49266,27.6708,4034,1537
0.85693,11.365657,-781,49267,27.621,4034,1537
0.793363,11.25234,-780,49268,27.8202,4034,1537
1.77132,11.347288,-779,49269,27.621,4034,1537
1.27702,11.57932,-778,49270,27.7704,4034,1537
1.42525,11.985912,-777,49271,27.8699,4034,1537
1.68298,11.866591,-776,49272,27.8202,4034,1537
0.981433,11.676075,-775,49273,28.0193,4034,1537
2.47631,11.681816,-774,49274,27.6708,4034,1537
0.873464,11.763171,-773,49275,27.8699,4034,1537
1.38452,11.62235,-772,49276,27.8202,4034,1537
1.11773,11.597322,-771,49277,27.7704,4034,1537
1.28817,11.635164,-770,49278,27.8699,4034,1537
2.11037,11.604387,-769,49279,27.8699,4034,1537
0.292969,11.796692,-768,49280,27.621,4034,1537
0.793363,11.932958,-767,49281,27.8202,4034,1537
1.08306,12.288546,-766,49282,27.9695,4034,1537
0.981433,12.405611,-765,49283,27.8202,4033,1536
0.840071,12.387581,-764,49284,27.7704,4033,1536
0.895034,12.121896,-763,49285,27.7704,4033,1536
1.3102,12.102211,-762,49286,27.7704,4033,1536
1.55638,12.20581,-761,49287,27.6708,4033,1536
1.09183,12.225328,-760,49288,27.8699,4033,1536
1.60168,11.882904,-759,49289,27.7704,4033,1536
0.811194,11.509619,-758,49290,27.8202,4033,1536
0.488281,11.509619,-757,49291,27.7704,4033,1536
1.19205,11.282097,-756,49292,27.4717,4033,1536
1.09183,11.092961,-755,49293,27.6708,4033,1536
1.4118,10.825097,-754,49294,27.621,4033,1536
1.39822,10.759513,-753,49295,27.8202,4033,1536
0.805294,10.843665,-752,49296,27.8202,4033,1536
1.41517,10.886181,-751,49297,27.7704,4033,1536
0.921287,10.960527,-750,49298,27.6708,4033,1536
1.32827,10.881389,-749,49299,27.8202,4033,1536
1.13045,11.212542,-748,49300,27.9695,4033,1536
0.601994,11.344661,-747,49301,27.6708,4033,1536
0.632885,11.545167,-746,49302,27.9695,4033,1536
0.710948,11.376141,-745,49303,27.8202,4033,1540
0.884315,11.270865,-744,49304,27.8202,4033,1540
0.601994,10.845726,-743,49305,27.7704,4033,1540
0.828641,10.881389,-742,49306,27.621,4033,1540
0.560992,10.965285,-741,49307,27.8699,4033,1540
0.921287,10.927168,-740,49308,27.7704,4033,1540
0.98628,11.022888,-739,49309,27.8202,4033,1540
1.06082,11.100347,-738,49310,27.6708,4033,1540
0.76272,11.300573,-737,49311,27.6708,4033,1540
0.717624,11.540003,-736,49312,27.6708,4033,1540
2.12388,11.66075,-735,49313,27.8699,4032,1544
1.26577,11.423851,-734,49314,27.621,4032,1544
1.18402,11.316385,-733,49315,27.7704,4032,1544
1.13045,11.437539,-732,49316,27.621,4032,1544
1.40163,11.530961,-731,49317,27.8699,4032,1544
1.19205,11.431023,-730,49318,27.7704,4032,1544
2.19672,11.324283,-729,49319,27.6708,4032,1544
1.05179,11.271526,-728,49320,27.9695,4032,1544
1.19205,11.374176,-727,49321,27.9695,4032,1544
1.40163,11.422546,-726,49322,27.7704,4032,1544
1.13045,11.57932,-725,49323,27.7704,4032,1544
0.995902,11.563867,-724,49324,27.6708,4032,1544
2.22262,11.282097,-723,49325,27.7704,4032,1544
1.59273,11.324283,-722,49326,27.6708,4032,1544
0.743728,11.51609,-721,49327,27.7704,4032,1544
1.4118,11.313752,-720,49328,27.7704,4032,1544
1.69708,10.840229,-719,49329,27.7704,4032,1544
1.06082,11.028294,-718,49330,27.8699,4032,1544
1.13886,11.392503,-717,49331,27.7704,4032,1544
1.19604,11.334805,-716,49332,27.621,4032,1544
1.95556,11.257636,-715,49333,27.8699,4026,1549
0.900346,11.115104,-714,49334,27.8202,4026,1549
1.07865,11.212542,-713,49335,27.8202,4026,1549
1.32467,11.233785,-712,49336,27.621,4026,1549
1.32827,11.35057,-711,49337,27.6708,4026,1549
0.436732,11.338091,-710,49338,27.4219,4026,1549
1.40163,11.191924,-709,49339,27.8699,4026,1549
1.78473,11.072121,-708,49340,27.6708,4026,1549
1.44188,11.180601,-707,49341,27.7704,4026,1549
0.884315,11.723835,-706,49342,27.7704,4026,1549
1.38452,11.833897,-705,49343,27.8699,4026,1549
0.76272,11.782789,-704,49344,27.621,4026,1549
0.926449,11.625555,-703,49345,27.8202,4026,1549
2.12388,11.442098,-702,49346,27.8699,4026,1549
1.37067,11.815624,-701,49347,27.7704,4026,1549
1.4118,12.142162,-700,49348,27.621,4026,1549
1.72772,11.925464,-699,49349,27.8202,4026,1549
1.04268,11.556778,-698,49350,27.621,4026,1549
0.921287,11.466815,-697,49351,27.6708,4026,1549
1.11773,11.415369,-696,49352,27.9695,4026,1549
0.697405,11.167933,-695,49353,27.8202,4029,1556
0.921287,11.086915,-694,49354,27.8202,4029,1556
1.27328,11.334805,-693,49355,27.8202,4029,1556
1.19604,11.353852,-692,49356,27.8202,4029,1556
1.35668,11.401655,-691,49357,27.9695,4029,1556
1.62826,11.365657,-690,49358,27.8699,4029,1556
1.39139,11.490831,-689,49359,27.8202,4029,1556
1.54408,11.57932,-688,49360,27.5713,4029,1556
1.28817,11.615297,-687,49361,27.5713,4029,1556
1.39481,11.592181,-686,49362,27.6708,4029,1556
1.67161,10.931258,-685,49363,27.8202,4029,1553
1.87592,10.92785,-684,49364,27.9695,4029,1553
1.8529,10.701188,-683,49365,27.6708,4029,1553
1.24296,10.817524,-682,49366,27.9695,4029,1553
0.981433,10.953047,-681,49367,27.9695,4029,1553
1.05631,11.141884,-680,49368,27.4717,4029,1553
1.45176,11.065389,-679,49369,27.8699,4029,1553
1.31745,10.910109,-678,49370,27.8202,4029,1553
1.5034,11.034373,-677,49371,27.621,4029,1553
1.45176,11.022888,-676,49372,27.7704,4029,1553
1.34255,11.143221,-675,49373,27.7704,4029,1553
1.09183,11.167265,-674,49374,27.5713,4029,1553
1.68298,11.545167,-673,49375,27.8202,4029,1553
1.47781,11.583823,-672,49376,27.8202,4029,1553
1.15548,11.431675,-671,49377,27.8699,4029,1553
1.11773,11.401655,-670,49378,27.6708,4029,1553
1.04268,11.367624,-669,49379,27.7704,4029,1553
2.26722,11.624914,-668,49380,27.8202,4029,1553
1.33185,11.357788,-667,49381,27.621,4029,1553
1.02423,11.161259,-666,49382,27.8699,4029,1553
1.0381,11.072121,-665,49383,27.8202,4034,1557
1.40163,10.881389,-664,49384,27.6708,4034,1557
1.83479,10.867001,-663,49385,27.621,4034,1557
1.27328,10.834729,-662,49386,27.9695,4034,1557
0.601994,11.071448,-661,49387,27.7704,4034,1557
0.497951,11.019508,-660,49388,27.621,4034,1557
1.51603,11.081537,-659,49389,27.7704,4034,1557
1.60168,11.271526,-658,49390,27.7704,4034,1557
0.704209,11.744788,-657,49391,27.8202,4034,1557
1.25442,12.131112,-656,49392,27.8699,4034,1557
1.39822,12.126812,-655,49393,27.8202,4034,1557
0.743728,11.966004,-654,49394,27.6708,4034,1557
0.76272,11.987156,-653,49395,27.9695,4034,1557
0.690534,12.605792,-652,49396,27.6708,4034,1557
2.70985,13.048397,-651,49397,27.8699,4034,1557
0.916097,12.714665,-650,49398,27.6708,4034,1557
1.09183,12.214963,-649,49399,27.8699,4034,1557
1.20794,11.71239,-648,49400,27.6708,4034,1557
1.08306,11.750496,-647,49401,27.7704,4034,1557
1.79273,11.997096,-646,49402,27.7704,4034,1557
0.878906,11.876632,-645,49403,27.7704,4033,1561
0.534885,11.383343,-644,49404,27.7704,4033,1561
1.66016,10.801671,-643,49405,27.8699,4033,1561
1.18804,10.84229,-642,49406,27.8699,4033,1561
1.55638,10.995818,-641,49407,27.8699,4033,1561
1.83479,11.236438,-640,49408,27.7704,4033,1561
0.941763,11.444051,-639,49409,27.6708,4033,1561
0.85693,11.347288,-638,49410,27.8699,4033,1561
0.921287,11.530961,-637,49411,27.621,4033,1561
0.640375,11.720021,-636,49412,27.621,4033,1561
0.534885,11.658833,-635,49413,27.8202,4035,1565
1.66303,11.545167,-634,49414,27.8202,4035,1565
1.59273,11.496665,-633,49415,27.5713,4035,1565
1.73323,11.292659,-632,49416,27.8202,4035,1565
1.01016,11.022888,-631,49417,28.1189,4035,1565
1.02423,10.913523,-630,49418,27.9695,4035,1565
1.37067,10.979544,-629,49419,27.621,4035,1565
1.72772,10.932622,-628,49420,27.7704,4035,1565
0.895034,11.127163,-627,49421,27.6708,4035,1565
0.851347,10.756743,-626,49422,27.621,4035,1565
1.61355,10.541957,-625,49423,27.8202,4035,1565
0.768946,10.352253,-624,49424,27.8202,4035,1565
1.0381,10.62152,-623,49425,27.5713,4035,1565
1.40163,10.913523,-622,49426,27.9695,4035,1565
1.19205,10.979544,-621,49427,27.8699,4035,1565
1.30655,10.834729,-620,49428,27.8699,4035,1565
1.52231,10.97004,-619,49429,27.5713,4035,1565
0.878906,11.070775,-618,49430,27.8699,4035,1565
1.38452,10.925122,-617,49431,27.621,4035,1565
1.34255,10.984293,-616,49432,27.7704,4035,1565
2.02269,10.984293,-615,49433,27.6708,4032,1559
1.25821,11.106386,-614,49434,27.8699,4032,1559
1.58673,11.311776,-613,49435,27.6708,4032,1559
1.42859,11.52773,-612,49436,27.8699,4032,1559
1.17998,11.418632,-611,49437,27.7704,4032,1559
1.27702,11.201905,-610,49438,27.8699,4032,1559
1.09183,11.115104,-609,49439,27.621,4032,1559
0.292969,11.311776,-608,49440,27.8202,4032,1559
1.64863,11.530961,-607,49441,27.7704,4032,1559
1.46158,11.34269,-606,49442,27.7704,4032,1559
1.09183,11.060675,-605,49443,27.6708,4032,1559
1.70549,11.052589,-604,49444,27.7704,4032,1559
0.497951,11.353852,-603,49445,27.8699,4032,1559
0.601994,11.320335,-602,49446,27.6708,4032,1559
1.4219,11.465515,-601,49447,27.7704,4032,1559
2.31509,11.320335,-600,49448,27.7704,4032,1559
1.0381,11.24638,-599,49449,27.7704,4032,1559
0.640375,11.475259,-598,49450,27.5713,4032,1559
1.58973,11.51609,-597,49451,27.8202,4032,1559
1.17998,11.693291,-596,49452,27.6708,4032,1559
1.34255,12.123739,-595,49453,27.8699,4027,1557
1.87592,12.568501,-594,49454,27.621,4027,1557
1.01487,12.382167,-593,49455,27.7704,4027,1557
0.717624,11.963513,-592,49456,27.6708,4027,1557
1.44518,11.722564,-591,49457,27.621,4027,1557
1.19604,12.084344,-590,49458,27.8699,4027,1557
1.25442,12.343596,-589,49459,27.8699,4027,1557
1.46484,12.283695,-588,49460,27.6708,4027,1557
1.71664,12.172804,-587,49461,27.7704,4027,1557
1.71386,12.010751,-586,49462,27.8699,4027,1557
0.840071,11.848369,-585,49463,27.8202,4027,1552
1.9798,12.121896,-584,49464,27.6708,4027,1552
1.31745,12.068304,-583,49465,27.7704,4027,1552
1.3029,11.699024,-582,49466,27.8699,4027,1552
1.05179,11.583823,-581,49467,27.621,4027,1552
1.12623,11.512208,-580,49468,27.8699,4027,1552
0.625305,11.550974,-579,49469,27.621,4027,1552
0.799351,11.307823,-578,49470,27.8699,4027,1552
0.308816,11.307823,-577,49471,28.1686,4027,1552
1.63993,11.307823,-576,49472,27.8202,4027,1552
1.28075,11.651162,-575,49473,27.7704,4027,1552
1.38107,11.545813,-574,49474,27.7704,4027,1552
1.44188,11.105715,-573,49475,27.7704,4027,1552
1.28817,10.897126,-572,49476,27.621,4027,1552
1.39139,11.269543,-571,49477,27.7704,4027,1552
2.0156,11.150573,-570,49478,27.8202,4027,1552
0.525895,10.794081,-569,49479,27.7704,4027,1552
1.05179,10.444683,-568,49480,27.5713,4027,1552
1.12623,9.9170391,-567,49481,27.6708,4027,1552
0.981433,9.5511732,-566,49482,27.8202,4027,1552
0.717624,9.7113052,-565,49483,27.6708,4025,1546
1.60168,10.074314,-564,49484,27.7704,4025,1546
1.3102,10.298857,-563,49485,27.7704,4025,1546
1.05179,10.445396,-562,49486,27.8202,4025,1546
1.46484,10.800981,-561,49487,27.8202,4025,1546
1.25061,11.326915,-560,49488,28.0193,4025,1546
1.21188,11.919214,-559,49489,27.6708,4025,1546
1.36019,12.22289,-558,49490,27.7704,4025,1546
1.20794,12.163007,-557,49491,27.7704,4025,1546
0.425674,12.07139,-556,49492,27.8699,4025,1546
0.981433,12.623511,-555,49493,27.8202,4025,1546
1.36019,12.643562,-554,49494,27.7704,4025,1546
0.690534,12.211913,-553,49495,27.621,4025,1546
0.704209,11.56129,-552,49496,27.8699,4025,1546
1.23912,11.25234,-551,49497,27.9695,4025,1546
2.3539,10.957128,-550,49498,27.7704,4025,1546
1.28447,11.420589,-549,49499,27.8202,4025,1546
1.11773,11.340063,-548,49500,27.8699,4025,1546
0.625305,10.706756,-547,49501,27.621,4025,1546
0.352105,10.161941,-546,49502,27.7704,4025,1546
1.45176,10.383155,-545,49503,27.8202,4032,1544
0.710948,10.910109,-544,49504,27.7704,4032,1544
0.488281,11.135195,-543,49505,27.8699,4032,1544
1.66303,11.047195,-542,49506,27.7704,4032,1544
0.768946,11.191924,-541,49507,27.8202,4032,1544
0.995902,11.352539,-540,49508,28.0193,4032,1544
1.39139,11.689467,-539,49509,27.7704,4032,1544
1.17998,11.956661,-538,49510,27.8202,4032,1544
0.78733,12.043583,-537,49511,27.7704,4032,1544
0.447517,11.848997,-536,49512,27.8202,4032,1544
1.60168,11.594752,-535,49513,27.9695,4032,1544
1.22752,11.858426,-534,49514,27.8202,4032,1544
3.81485,11.896064,-533,49515,28.0193,4032,1544
1.87846,11.603103,-532,49516,27.8202,4032,1544
0.811194,11.466815,-531,49517,27.7704,4032,1544
1.55332,11.415369,-530,49518,27.8699,4032,1544
1.07422,11.828229,-529,49519,27.9695,4032,1544
0.793363,11.710482,-528,49520,27.8202,4032,1544
1.20399,11.154582,-527,49521,27.9695,4032,1544
1.68581,10.901911,-526,49522,27.4717,4032,1544
0.365396,11.143221,-525,49523,27.8699,4031,1537
1.92608,11.503791,-524,49524,27.8699,4031,1537
0.995902,11.57932,-523,49525,27.8202,4031,1537
0.625305,11.15191,-522,49526,27.8202,4031,1537
0.569429,10.785104,-521,49527,28.0193,4031,1537
0.743728,11.01748,-520,49528,27.6708,4031,1537
1.40163,11.243067,-519,49529,27.7704,4031,1537
1.00068,11.065389,-518,49530,28.1189,4031,1537
2.22905,10.995818,-517,49531,27.8699,4031,1537
1.15135,10.845726,-516,49532,27.8202,4031,1537
1.42859,10.88002,-515,49533,27.8699,4032,1532
1.60168,10.700492,-514,49534,27.8699,4032,1532
1.3029,10.7927,-513,49535,27.7704,4032,1532
1.48103,10.995818,-512,49536,27.8202,4032,1532
1.40842,10.93671,-511,49537,27.8699,4032,1532
0.811194,10.736637,-510,49538,27.6708,4032,1532
1.07865,10.536302,-509,49539,27.7704,4032,1532
1.55638,10.795461,-508,49540,27.7704,4032,1532
1.19205,11.062022,-507,49541,27.8202,4032,1532
0.560992,10.92785,-506,49542,27.8699,4032,1532
0.931581,10.606077,-505,49543,27.8699,4032,1532
1.40163,10.527813,-504,49544,27.8202,4032,1532
1.40842,11.016127,-503,49545,27.6708,4032,1532
1.68298,11.13854,-502,49546,27.8202,4032,1532
1.51603,11.270865,-501,49547,27.6708,4032,1532
0.632885,10.888918,-500,49548,27.7704,4032,1532
1.77938,10.951687,-499,49549,27.621,4032,1532
0.697405,11.59411,-498,49550,27.8699,4032,1532
0.655098,11.742885,-497,49551,27.8202,4032,1532
1.3029,11.906706,-496,49552,27.8699,4032,1532
1.19205,11.716842,-495,49553,27.8699,4032,1530
1.57163,12.099748,-494,49554,27.8699,4032,1530
1.08306,11.956038,-493,49555,27.7704,4032,1530
1.31745,11.762537,-492,49556,27.621,4032,1530
0.926449,11.442098,-491,49557,27.6708,4032,1530
1.36019,11.381379,-490,49558,27.8202,4032,1530
1.15135,11.571596,-489,49559,27.7704,4032,1530
1.90116,11.334805,-488,49560,27.9695,4032,1530
1.27702,11.65308,-487,49561,28.0193,4032,1530
1.32467,11.788479,-486,49562,27.8202,4032,1530
1.22752,11.945439,-485,49563,27.621,4032,1530
0.862477,11.775831,-484,49564,27.7704,4032,1530
1.51603,11.431675,-483,49565,27.621,4032,1530
1.19604,11.496665,-482,49566,27.7704,4032,1530
1.37067,11.599892,-481,49567,27.621,4032,1530
1.06082,11.705391,-480,49568,27.8699,4032,1530
0.497951,11.468764,-479,49569,27.7704,4032,1530
2.12613,11.690105,-478,49570,27.8202,4032,1530
1.96287,11.797955,-477,49571,27.6708,4032,1530
1.09183,11.664583,-476,49572,28.0193,4032,1530
1.39481,11.41798,-475,49573,27.7704,4030,1523
1.0381,11.154582,-474,49574,27.6708,4030,1523
0.601994,11.061349,-473,49575,27.8202,4030,1523
1.12623,11.167265,-472,49576,27.8202,4030,1523
1.54408,11.122475,-471,49577,27.7704,4030,1523
1.3029,10.975472,-470,49578,27.9695,4030,1523
1.40163,11.016127,-469,49579,27.8202,4030,1523
1.67446,11.008685,-468,49580,27.8699,4030,1523
1.17188,10.940796,-467,49581,27.8202,4030,1523
1.29556,10.959848,-466,49582,27.8202,4030,1523
1.6165,11.07952,-465,49583,27.8202,4023,1518
1.57163,11.349257,-464,49584,27.8699,4023,1518
1.49385,11.699024,-463,49585,27.621,4023,1518
1.27328,11.578033,-462,49586,27.7704,4023,1518
0.946812,11.022888,-461,49587,27.8202,4023,1518
1.02423,11.263591,-460,49588,27.8699,4023,1518
1.73047,11.440795,-459,49589,27.4717,4023,1518
1.00068,11.115104,-458,49590,27.621,4023,1518
1.52856,10.785104,-457,49591,27.6708,4023,1518
0.617632,10.488106,-456,49592,27.6708,4023,1518
1.49066,10.774045,-455,49593,27.7704,4023,1518
0.625305,11.111752,-454,49594,27.4219,4023,1518
0.926449,11.010715,-453,49595,27.8699,4023,1518
1.36019,10.71858,-452,49596,27.7704,4023,1518
0.878906,10.919665,-451,49597,27.9695,4023,1518
0.840071,11.287379,-450,49598,27.8202,4023,1518
1.78206,11.473311,-449,49599,27.8699,4023,1518
1.54099,11.057307,-448,49600,27.8202,4023,1518
1.25442,10.900544,-447,49601,27.8202,4023,1518
0.402647,11.119795,-446,49602,27.8202,4023,1518
0.926449,11.038424,-445,49603,27.9695,4025,1513
1.14304,11.129841,-444,49604,27.7704,4025,1513
1.1472,11.215864,-443,49605,27.7704,4025,1513
1.10916,11.404268,-442,49606,27.8699,4025,1513
0.884315,11.663945,-441,49607,27.9695,4025,1513
1.37067,11.7543,-440,49608,27.6708,4025,1513
0.585938,11.648604,-439,49609,27.9695,4025,1513
1.85804,11.853398,-438,49610,27.7704,4025,1513
1.19604,12.043583,-437,49611,27.7704,4025,1513
1.26577,12.141548,-436,49612,27.621,4025,1513
1.08306,11.828859,-435,49613,27.7704,4025,1513
1.50657,11.836415,-434,49614,27.8699,4025,1513
1.78206,12.010751,-433,49615,27.7704,4025,1513
2.53906,12.121281,-432,49616,27.8202,4025,1513
0.878906,11.709209,-431,49617,27.8699,4025,1513
0.704209,11.347288,-430,49618,27.8699,4025,1513
0.750112,11.57224,-429,49619,27.8699,4025,1513
0.640375,11.512208,-428,49620,28.1189,4025,1513
1.01016,11.281437,-427,49621,27.8202,4025,1513
0.941763,11.212542,-426,49622,27.621,4025,1513
1.40842,11.431675,-425,49623,27.8699,4033,1511
0.834375,11.647964,-424,49624,27.8699,4033,1511
1.09619,11.725742,-423,49625,28.0193,4033,1511
1.37067,11.425155,-422,49626,27.8699,4033,1511
1.04268,11.263591,-421,49627,27.621,4033,1511
0.921287,11.449909,-420,49628,27.8699,4033,1511
0.946812,11.436236,-419,49629,27.8202,4033,1511
1.25821,11.072793,-418,49630,27.7704,4033,1511
1.86316,10.894391,-417,49631,27.9695,4033,1511
1.12623,10.853966,-416,49632,27.8699,4033,1511
2.83876,11.173935,-415,49633,27.7704,4032,1512
1.39481,11.305187,-414,49634,27.7704,4032,1512
0.710948,11.01748,-413,49635,27.8699,4032,1512
1.74146,10.894391,-412,49636,27.8699,4032,1512
0.507437,11.229142,-411,49637,27.7704,4032,1512
1.27328,11.484345,-410,49638,27.9695,4032,1512
1.53168,11.420589,-409,49639,27.8699,4032,1512
0.916097,11.422546,-408,49640,27.6708,4032,1512
1.45505,11.635805,-407,49641,27.8202,4032,1512
1.3102,11.969117,-406,49642,27.8699,4032,1512
1.56859,11.987156,-405,49643,27.8699,4032,1512
1.05179,12.026869,-404,49644,27.6708,4032,1512
1.69146,12.14707,-403,49645,27.7704,4032,1512
0.768946,12.003305,-402,49646,27.621,4032,1512
0.971667,11.984047,-401,49647,27.8202,4032,1512
1.85804,11.699024,-400,49648,27.9695,4032,1512
0.840071,11.484994,-399,49649,27.6708,4032,1512
2.45892,11.294638,-398,49650,27.621,4032,1512
1.5034,11.423851,-397,49651,27.7704,4032,1512
0.884315,11.39381,-396,49652,27.6708,4032,1512
1.27702,11.363035,-395,49653,27.7704,4033,1499
1.40163,11.499257,-394,49654,27.6708,4033,1499
1.43525,11.762537,-393,49655,27.621,4033,1499
0.793363,11.835785,-392,49656,27.7704,4033,1499
1.08306,11.878514,-391,49657,27.8202,4033,1499
1.07865,11.717478,-390,49658,27.7704,4033,1499
1.63702,11.610164,-389,49659,27.5713,4033,1499
1.52856,11.782789,-388,49660,27.8202,4033,1499
1.20794,11.678627,-387,49661,27.8699,4033,1499
0.76272,11.711118,-386,49662,27.9695,4033,1499
0.966748,11.499257,-385,49663,27.8202,4033,1499
1.06082,11.145895,-384,49664,27.8699,4033,1499
1.20794,10.942839,-383,49665,27.8202,4033,1499
0.98628,11.383997,-382,49666,27.9695,4033,1499
1.11773,11.67033,-381,49667,27.8202,4033,1499
0.966748,11.701571,-380,49668,27.8202,4033,1499
0.730792,11.711118,-379,49669,27.7704,4033,1499
0.817051,11.669692,-378,49670,27.9695,4033,1499
1.3461,11.722564,-377,49671,27.7704,4033,1499
1.25061,11.68883,-376,49672,28.0193,4033,1499
1.72772,11.818777,-375,49673,27.7704,4031,1493
0.995902,11.747325,-374,49674,27.6708,4031,1493
1.89865,11.57932,-373,49675,27.5713,4031,1493
1.46484,11.624273,-372,49676,28.0193,4031,1493
0.690534,11.580607,-371,49677,27.8699,4031,1493
1.59273,11.391849,-370,49678,27.9695,4031,1493
1.69708,11.512208,-369,49679,27.8699,4031,1493
0.805294,11.57932,-368,49680,27.7704,4031,1493
0.845728,11.363691,-367,49681,27.8699,4031,1493
1.04725,10.875225,-366,49682,27.6708,4031,1493
1.96529,10.774045,-365,49683,27.8699,4030,1484
1.00068,10.92444,-364,49684,27.8202,4030,1484
0.601994,10.776811,-363,49685,27.5713,4030,1484
0.717624,10.201456,-362,49686,27.7704,4030,1484
0.497951,10.043946,-361,49687,27.5713,4030,1484
1.31745,10.453952,-360,49688,27.8202,4030,1484
1.20794,10.785104,-359,49689,27.6708,4030,1484
1.58673,10.615205,-358,49690,27.9695,4030,1484
1.06977,10.445396,-357,49691,27.5713,4030,1484
1.73872,10.445396,-356,49692,27.8202,4030,1484
1.46484,10.706061,-355,49693,27.621,4030,1484
0.497951,11.135195,-354,49694,27.8202,4030,1484
1.38107,11.167265,-353,49695,27.8699,4030,1484
1.42525,11.292659,-352,49696,27.8699,4030,1484
1.24296,11.09699,-351,49697,27.8699,4030,1484
0.995902,11.416675,-350,49698,27.8202,4030,1484
1.28447,11.459666,-349,49699,27.8202,4030,1484
0.85693,11.180601,-348,49700,27.8699,4030,1484
2.04845,10.87591,-347,49701,27.7704,4030,1484
1.09619,10.617311,-346,49702,27.6708,4030,1484
1.47781,10.859456,-345,49703,27.8699,4026,1473
1.01956,11.012745,-344,49704,27.6708,4026,1473
0.85693,11.083554,-343,49705,27.8699,4026,1473
0.921287,11.059328,-342,49706,27.8202,4026,1473
1.1596,10.838167,-341,49707,27.7704,4026,1473
1.06082,10.593425,-340,49708,27.5713,4026,1473
1.5034,11.008685,-339,49709,27.8699,4026,1473
1.58673,11.510266,-338,49710,27.6708,4026,1473
1.05631,11.927962,-337,49711,27.9695,4026,1473
0.793363,12.169743,-336,49712,27.6708,4026,1473
1.78473,12.124968,-335,49713,27.8699,4026,1473
1.92608,12.320638,-334,49714,27.9695,4026,1473
1.91864,12.738082,-333,49715,27.8699,4026,1473
1.02423,12.968211,-332,49716,27.8202,4026,1473
1.05179,12.382167,-331,49717,27.8202,4026,1473
1.62826,11.671607,-330,49718,27.9695,4026,1473
0.799351,11.892305,-329,49719,27.8699,4026,1473
0.662337,12.044821,-328,49720,27.6708,4026,1473
1.31383,11.771402,-327,49721,27.8699,4026,1473
0.704209,11.434281,-326,49722,27.7704,4026,1473
1.48103,11.039773,-325,49723,27.7704,4029,1461
1.60168,10.918983,-324,49724,27.7704,4029,1461
1.73047,11.007331,-323,49725,27.9695,4029,1461
1.3461,11.183933,-322,49726,27.8202,4029,1461
1.17594,11.669692,-321,49727,27.8699,4029,1461
1.62239,12.095437,-320,49728,27.6708,4029,1461
1.44518,12.123739,-319,49729,27.8202,4029,1461
1.17998,11.936704,-318,49730,27.7704,4029,1461
0.889691,12.027488,-317,49731,27.9695,4029,1461
1.34255,12.482846,-316,49732,27.6708,4029,1461
1.25821,12.725793,-315,49733,27.8699,4032,1445
1.7551,12.231421,-314,49734,27.6708,4032,1445
0.425674,12.24238,-313,49735,27.8202,4032,1445
0.690534,12.490006,-312,49736,27.8202,4032,1445
0.926449,12.602836,-311,49737,27.8699,4032,1445
0.458048,12.35325,-310,49738,28.0193,4032,1445
1.07422,11.195252,-309,49739,27.8699,4032,1445
0.737289,10.083924,-308,49740,27.8202,4032,1445
0.78733,9.6017438,-307,49741,27.6708,4032,1445
0.956832,9.7854413,-306,49742,27.8699,4032,1445
1.38107,10.00232,-305,49743,27.8699,4032,1445
1.42525,9.7983765,-304,49744,27.7704,4032,1445
1.14304,9.3835474,-303,49745,27.6708,4032,1445
0.690534,9.3581047,-302,49746,27.6708,4032,1445
1.68014,9.6427821,-301,49747,28.0193,4032,1445
1.28817,9.9956133,-300,49748,28.0193,4032,1445
0.750112,9.8552407,-299,49749,27.7704,4032,1445
0.478416,10.043205,-298,49750,27.7704,4032,1445
1.80334,10.479578,-297,49751,27.621,4032,1445
1.34255,10.932622,-296,49752,28.1189,4032,1445
0.834375,11.294638,-295,49753,27.621,4032,1438
1.0381,11.578033,-294,49754,27.8699,4032,1438
0.138107,11.213206,-293,49755,27.8202,4032,1438
1.11345,10.942839,-292,49756,27.8699,4032,1438
0.585938,11.04652,-291,49757,27.6708,4032,1438
1.52231,11.35057,-290,49758,27.8699,4032,1438
1.32827,11.970984,-289,49759,27.8202,4032,1438
1.64863,12.448778,-288,49760,27.6708,4032,1438
1.49066,12.464329,-287,49761,27.5713,4032,1438
0.966748,12.39179,-286,49762,27.6708,4032,1438
1.76323,12.481055,-285,49763,27.9695,4032,1438
0.717624,12.461938,-284,49764,27.9695,4032,1438
1.15548,11.972851,-283,49765,27.621,4032,1438
0.921287,11.63004,-282,49766,27.8699,4032,1438
1.71664,11.669054,-281,49767,27.8699,4032,1438
2.52021,11.52773,-280,49768,27.621,4032,1438
0.308816,11.169934,-279,49769,27.8202,4032,1438
2.05078,10.901911,-278,49770,27.8202,4032,1438
1.29556,10.973435,-277,49771,27.8202,4032,1438
1.38107,10.901911,-276,49772,27.7704,4032,1438
1.37067,10.768511,-275,49773,27.6708,4033,1426
1.34255,11.068755,-274,49774,27.7704,4033,1426
1.05179,11.332176,-273,49775,27.8202,4033,1426
1.49066,11.56129,-272,49776,28.0193,4033,1426
0.730792,11.710482,-271,49777,27.7704,4033,1426
1.09183,11.664583,-270,49778,27.6708,4033,1426
1.64863,11.508324,-269,49779,27.7704,4033,1426
1.27328,11.463566,-268,49780,27.6708,4033,1426
1.7551,11.286059,-267,49781,27.7704,4033,1426
1.76863,11.281437,-266,49782,27.6708,4033,1426
1.09183,11.231132,-265,49783,27.6708,4033,1426
1.19604,10.831978,-264,49784,27.621,4033,1426
1.94088,10.735249,-263,49785,27.8699,4033,1426
1.20794,10.486685,-262,49786,27.6708,4033,1426
1.4681,10.391045,-261,49787,27.9695,4033,1426
0.743728,10.043205,-260,49788,27.8202,4033,1426
1.4118,9.9298028,-259,49789,27.7704,4033,1426
1.06082,10.106065,-258,49790,27.6708,4033,1426
1.21188,10.53135,-257,49791,27.8699,4033,1426
1.42859,10.7927,-256,49792,27.8202,4033,1426
1.64863,10.690042,-255,49793,27.8699,4024,1417
1.55638,10.393913,-254,49794,27.7704,4024,1417
1.4219,10.503014,-253,49795,27.6708,4024,1417
1.37067,10.804429,-252,49796,27.7704,4024,1417
1.51917,11.760003,-251,49797,27.8699,4024,1417
1.47781,12.468513,-250,49798,27.8699,4024,1417
0.946812,12.389385,-249,49799,27.8202,4024,1417
1.36719,12.310354,-248,49800,27.7704,4024,1417
1.69427,12.518607,-247,49801,27.9695,4024,1417
1.10916,13.238299,-246,49802,27.6708,4024,1417
0.840071,13.233796,-245,49803,27.7704,4031,1411
0.995902,12.658874,-244,49804,27.8202,4031,1411
0.976563,12.203979,-243,49805,27.8699,4031,1411
1.07865,12.51444,-242,49806,27.7704,4031,1411
1.76863,13.221967,-241,49807,27.621,4031,1411
1.66303,13.328602,-240,49808,27.6708,4031,1411
1.17998,12.604018,-239,49809,27.7704,4031,1411
1.17998,11.67416,-238,49810,27.7704,4031,1411
1.39139,11.268882,-237,49811,27.6708,4031,1411
1.45505,11.35582,-236,49812,28.0193,4031,1411
1.29923,11.65372,-235,49813,27.7704,4031,1411
2.0156,11.199244,-234,49814,27.7704,4031,1411
1.02423,10.45894,-233,49815,27.8699,4031,1411
1.86572,10.104591,-232,49816,27.8202,4031,1411
0.961803,10.378848,-231,49817,27.621,4031,1411
0.78733,10.518608,-230,49818,27.6708,4031,1411
2.03444,10.886181,-229,49819,27.8699,4031,1411
1.38452,11.119125,-228,49820,27.621,4031,1411
0.873464,11.003946,-227,49821,27.8202,4031,1411
1.28447,10.922394,-226,49822,27.8699,4031,1411
1.47781,10.952367,-225,49823,27.8202,4025,1406
1.3461,10.099428,-224,49824,27.8202,4025,1406
1.54408,9.7396505,-223,49825,27.8202,4025,1406
0.793363,9.8416232,-222,49826,27.8699,4025,1406
0.704209,10.810634,-221,49827,27.8202,4025,1406
1.04268,11.961022,-220,49828,27.8202,4025,1406
0.793363,11.848997,-219,49829,27.8202,4025,1406
2.20539,11.214535,-218,49830,27.6708,4025,1406
1.32827,10.259717,-217,49831,27.8202,4025,1406
0.710948,9.6636213,-216,49832,27.7704,4025,1406
0.905627,10.199995,-215,49833,27.621,4025,1406
1.41517,10.70954,-214,49834,27.8202,4025,1406
1.69708,11.601176,-213,49835,27.8202,4025,1406
1.26953,11.780892,-212,49836,27.6708,4025,1406
1.53168,12.081878,-211,49837,27.621,4025,1406
1.04268,12.847574,-210,49838,28.1189,4025,1406
1.18804,12.808079,-209,49839,27.8202,4025,1406
1.80598,12.647097,-208,49840,27.8202,4025,1406
0.873464,12.183204,-207,49841,27.7704,4025,1406
1.4118,11.470063,-206,49842,27.8202,4025,1406
1.59273,12.195429,-205,49843,27.8202,4030,1398
1.19604,12.981419,-204,49844,27.8202,4030,1398
0.900346,13.267532,-203,49845,27.9695,4030,1398
1.19205,13.394957,-202,49846,27.7704,4030,1398
0.78733,12.865539,-201,49847,27.6708,4030,1398
0.560992,12.648864,-200,49848,27.9695,4030,1398
0.276214,12.126812,-199,49849,27.8202,4030,1398
0.966748,11.640286,-198,49850,27.8699,4030,1398
1.07865,11.949181,-197,49851,27.8202,4030,1398
3.18994,12.738082,-196,49852,27.621,4030,1398
1.30655,13.199973,-195,49853,27.8202,4031,1392
1.33185,13.194327,-194,49854,27.9695,4031,1392
1.27702,12.377954,-193,49855,27.8202,4031,1392
1.3029,11.605029,-192,49856,27.8202,4031,1392
1.01016,10.544077,-191,49857,27.6708,4031,1392
0.569429,9.8899556,-190,49858,27.8699,4031,1392
0.931581,10.043205,-189,49859,27.6708,4031,1392
1.07422,9.9874107,-188,49860,27.8202,4031,1392
1.17594,9.9605186,-187,49861,27.6708,4031,1392
0.811194,9.8188855,-186,49862,27.7704,4031,1392
1.11773,9.9650057,-185,49863,27.6708,4031,1392
0.834375,10.234997,-184,49864,27.8699,4031,1392
1.13045,10.190495,-183,49865,27.7704,4031,1392
0.78733,10.166339,-182,49866,27.8202,4031,1392
1.17998,10.516483,-181,49867,27.621,4031,1392
0.98628,11.00056,-180,49868,27.621,4031,1392
2.56708,10.957128,-179,49869,27.6708,4031,1392
1.49066,10.856025,-178,49870,27.8202,4031,1392
1.11345,10.690042,-177,49871,27.9695,4031,1392
0.534885,10.59905,-176,49872,27.6708,4031,1392
0.878906,10.856712,-175,49873,27.8202,4036,1391
1.07422,11.213206,-174,49874,27.6708,4036,1391
2.05078,11.319019,-173,49875,27.8202,4036,1391
1.94333,10.897126,-172,49876,27.9695,4036,1391
1.60168,10.555377,-171,49877,27.8202,4036,1391
2.0739,10.536302,-170,49878,27.6708,4036,1391
1.09183,11.084899,-169,49879,27.8699,4036,1391
1.13045,11.300573,-168,49880,27.8202,4036,1391
1.15135,11.475259,-167,49881,27.6708,4036,1391
1.89614,11.452512,-166,49882,27.8699,4036,1391
0.436732,11.402308,-165,49883,27.8202,4036,1391
1.87592,11.370245,-164,49884,27.8699,4036,1391
0.862477,11.509619,-163,49885,27.8202,4036,1391
2.53718,11.832008,-162,49886,27.7704,4036,1391
1.9942,12.146456,-161,49887,27.9695,4036,1391
1.06977,12.602245,-160,49888,27.8699,4036,1391
0.946812,12.593965,-159,49889,27.7704,4036,1391
1.56555,12.401407,-158,49890,27.9695,4036,1391
0.704209,12.509676,-157,49891,28.0193,4036,1391
1.72772,12.933118,-156,49892,27.8699,4036,1391
1.78473,13.330838,-155,49893,27.8202,4035,1378
1.11773,13.603585,-154,49894,27.7704,4035,1378
0.921287,13.537702,-153,49895,27.621,4035,1378
1.10916,13.184724,-152,49896,27.621,4035,1378
1.51603,12.780126,-151,49897,27.6708,4035,1378
1.20399,12.35928,-150,49898,27.621,4035,1378
1.04268,12.033062,-149,49899,27.7704,4035,1378
1.83739,11.66075,-148,49900,27.6708,4035,1378
0.811194,11.243729,-147,49901,27.9695,4035,1378
1.06082,10.984972,-146,49902,27.6708,4035,1378
2.06237,11.148569,-145,49903,27.7704,4038,1363
1.58973,11.618503,-144,49904,27.7704,4038,1363
1.11345,11.611447,-143,49905,27.8699,4038,1363
1.12623,11.051915,-142,49906,27.7704,4038,1363
1.77401,10.701884,-141,49907,27.7704,4038,1363
1.40163,10.601158,-140,49908,28.0193,4038,1363
1.11773,10.736637,-139,49909,27.8699,4038,1363
0.793363,10.717885,-138,49910,27.8699,4038,1363
1.28447,10.873169,-137,49911,27.8202,4038,1363
0.138107,10.974114,-136,49912,27.8699,4038,1363
1.96772,11.185265,-135,49913,27.7704,4038,1363
0.946812,11.111081,-134,49914,27.8699,4038,1363
0.352105,11.052589,-133,49915,27.6708,4038,1363
0.365396,11.15191,-132,49916,28.0193,4038,1363
1.00543,11.485642,-131,49917,27.8699,4038,1363
1.79804,11.491479,-130,49918,27.8699,4038,1363
1.46484,11.408187,-129,49919,27.6708,4038,1363
1.28447,11.062696,-128,49920,27.6708,4038,1363
1.14304,10.949646,-127,49921,27.8202,4038,1363
0.971667,10.933303,-126,49922,27.8699,4038,1363
1.17998,11.035723,-125,49923,27.9695,4036,1350
1.07865,10.93671,-124,49924,27.6708,4036,1350
1.17188,10.45894,-123,49925,27.6708,4036,1350
1.32827,10.347934,-122,49926,27.7704,4036,1350
1.58973,10.364481,-121,49927,27.6708,4036,1350
1.00068,10.561022,-120,49928,27.7704,4036,1350
0.845728,10.973435,-119,49929,27.6708,4036,1350
1.17594,11.173935,-118,49930,27.8202,4036,1350
1.1596,11.065389,-117,49931,27.8699,4036,1350
1.42859,11.20789,-116,49932,28.1189,4036,1350
1.40163,11.271526,-115,49933,27.8202,4036,1350
0.926449,11.415369,-114,49934,27.8699,4036,1350
0.916097,11.233785,-113,49935,27.8202,4036,1350
1.23912,11.162594,-112,49936,27.7704,4036,1350
1.67161,10.949646,-111,49937,27.6708,4036,1350
1.02423,11.467465,-110,49938,27.7704,4036,1350
1.77938,12.261232,-109,49939,27.7704,4036,1350
1.65152,12.523962,-108,49940,27.8202,4036,1350
0.931581,12.007029,-107,49941,28.1189,4036,1350
0.0976563,11.416675,-106,49942,27.6708,4036,1350
0.76272,11.415369,-105,49943,27.8202,4034,1345
1.19604,11.566444,-104,49944,27.7704,4034,1345
0.601994,11.670969,-103,49945,27.8699,4034,1345
1.38452,11.574171,-102,49946,28.1189,4034,1345
1.28447,11.027619,-101,49947,27.6708,4034,1345
0.828641,11.049218,-100,49948,27.621,4034,1345
0.690534,11.550974,-99,49949,27.7704,4034,1345
1.23912,11.578676,-98,49950,27.7704,4034,1345
1.3029,11.432326,-97,49951,27.8699,4034,1345
1.20399,11.423851,-96,49952,27.621,4034,1345
1.87592,11.818777,-95,49953,27.9695,4037,1332
2.13508,12.200926,-94,49954,27.6708,4037,1332
1.25821,12.130497,-93,49955,27.8699,4037,1332
1.33185,12.124968,-92,49956,27.7704,4037,1332
0.981433,11.813102,-91,49957,27.8202,4037,1332
0.793363,11.409494,-90,49958,27.6708,4037,1332
0.98628,11.290679,-89,49959,27.8699,4037,1332
0.662337,11.163262,-88,49960,27.8202,4037,1332
0.59402,11.320335,-87,49961,27.621,4037,1332
0.921287,11.484994,-86,49962,27.621,4037,1332
1.14304,11.639006,-85,49963,27.8699,4037,1332
0.750112,11.515443,-84,49964,27.8202,4037,1332
0.946812,11.111081,-83,49965,27.7704,4037,1332
1.3102,10.784413,-82,49966,28.0193,4037,1332
1.15135,10.058031,-81,49967,27.621,4037,1332
0.946812,10.251726,-80,49968,27.8202,4037,1332
0.750112,10.582165,-79,49969,27.8202,4037,1332
1.66589,10.665621,-78,49970,27.8202,4037,1332
1.02423,10.784413,-77,49971,27.6708,4037,1332
0.717624,10.695617,-76,49972,27.5713,4037,1332
1.48103,10.790629,-75,49973,27.621,4038,1319
0.625305,10.413249,-74,49974,28.0193,4038,1319
1.90617,10.421116,-73,49975,27.8699,4038,1319
1.10916,10.762975,-72,49976,27.8202,4038,1319
0.730792,11.143221,-71,49977,27.6708,4038,1319
1.61059,11.606955,-70,49978,27.8699,4038,1319
0.617632,11.376141,-69,49979,27.8202,4038,1319
0.710948,11.137871,-68,49980,27.8202,4038,1319
1.31383,10.92103,-67,49981,27.8699,4038,1319
1.00543,11.022888,-66,49982,27.7704,4038,1319
1.57466,11.560645,-65,49983,27.8202,4038,1319
0.625305,11.699024,-64,49984,27.8699,4038,1319
1.16371,12.104673,-63,49985,27.8699,4038,1319
1.28817,11.98156,-62,49986,27.9695,4038,1319
2.28816,11.941072,-61,49987,27.8699,4038,1319
0.488281,12.04049,-60,49988,27.6708,4038,1319
0.981433,11.85277,-59,49989,27.8202,4038,1319
1.66303,11.684367,-58,49990,28.0193,4038,1319
0.662337,11.050566,-57,49991,27.8699,4038,1319
1.09183,10.965285,-56,49992,27.8202,4038,1319
1.92608,11.00056,-55,49993,27.6708,4051,1292
1.69708,10.945562,-54,49994,27.7704,4051,1292
1.62532,11.124484,-53,49995,27.7704,4051,1292
1.25821,11.395118,-52,49996,27.7704,4051,1292
1.34255,11.919214,-51,49997,27.8202,4051,1292
1.1472,12.084344,-50,49998,27.8202,4051,1292
0.717624,11.984047,-49,49999,27.8699,4051,1292
0.878906,11.543231,-48,50000,27.8202,4051,1292
1.3029,11.803637,-47,50001,27.621,4051,1292
1.36019,12.18565,-46,50002,27.8699,4051,1292
0.41432,12.377352,-45,50003,27.8699,4058,1262
2.46473,12.212523,-44,50004,27.8699,4058,1262
0.76272,11.901699,-43,50005,27.8202,4058,1262
1.09183,11.904203,-42,50006,27.8699,4058,1262
1.51603,11.843966,-41,50007,27.7704,4058,1262
1.20399,11.740347,-40,50008,27.7704,4058,1262
0.292969,11.808686,-39,50009,27.6708,4058,1262
1.31745,11.815624,-38,50010,27.621,4058,1262
1.5625,12.120666,-37,50011,27.7704,4058,1262
1.73047,11.897316,-36,50012,27.8699,4058,1262
1.07422,11.590896,-35,50013,27.9695,4058,1262
1.93596,11.305187,-34,50014,27.8202,4058,1262
1.56859,11.353195,-33,50015,27.6708,4058,1262
1.74966,11.506382,-32,50016,27.8202,4058,1262
1.13045,11.315727,-31,50017,27.621,4058,1262
1.56859,10.968682,-30,50018,27.7704,4058,1262
1.10916,10.563844,-29,50019,27.7704,4058,1262
0.750112,11.072121,-28,50020,27.8202,4058,1262
0.805294,11.642846,-27,50021,27.7704,4058,1262
0.662337,10.789248,-26,50022,27.6708,4058,1262
2.21187,10.319094,-25,50023,27.8699,4057,1296
1.68581,19.444847,-24,50024,27.8202,4057,1296
0.793363,30.800689,-23,50025,27.6708,4057,1296
0.817051,38.565526,-22,50026,27.8699,4057,1296
1.75238,46.986447,-21,50027,27.8202,4057,1296
1.68863,56.589301,-20,50028,27.7704,4057,1296
1.33185,63.970551,-19,50029,27.6708,4057,1296
1.21188,65.71477,-18,50030,27.6708,4057,1296
0.981433,63.840439,-17,50031,27.8202,4057,1296
0.447517,63.182561,-16,50032,27.8699,4057,1296
1.23912,63.40269,-15,50033,27.7704,4057,1296
1.47134,64.503621,-14,50034,27.6708,4057,1296
1.21581,67.492741,-13,50035,27.621,4057,1296
1.25061,71.245572,-12,50036,27.8202,4057,1296
1.17188,69.489108,-11,50037,27.621,4057,1296
2.54844,57.915385,-10,50038,27.6708,4057,1296
2.03678,45.045269,-9,50039,27.7704,4057,1296
1.93596,38.939856,-8,50040,27.7704,4057,1296
1.39822,35.133354,-7,50041,28.0193,4057,1296
0.799351,34.397196,-6,50042,27.8699,4057,1296
0.365396,37.743422,-5,50043,27.7704,4042,1340
1.3102,43.518366,-4,50044,27.621,4042,1340
1.20794,48.237702,-3,50045,27.9695,4042,1340
1.05631,48.746575,-2,50046,27.8202,4042,1340
1.94824,47.722779,-1,50047,27.8202,4042,1340
17.1792,417.65092,0,50048,27.6708,4042,1340
9.69752,817.26356,1,50049,28.0193,4042,1340
3.42772,1290.8269,2,50050,27.6708,4042,1340
4.4805,1009.6675,3,50051,27.7704,4042,1340
1.11345,307.18744,4,50052,27.8202,4042,1340
0.525895,149.64466,5,50053,27.8699,4031,1340
1.36019,240.66038,6,50054,27.6708,4031,1340
1.98701,317.03714,7,50055,27.7704,4031,1340
1.26953,499.81504,8,50056,27.6708,4031,1340
1.04725,659.27816,9,50057,27.621,4031,1340
3.03835,540.74148,10,50058,27.8699,4031,1340
2.23972,269.79434,11,50059,27.8699,4031,1340
2.69397,435.42342,12,50060,27.6708,4031,1340
1.9798,500.18952,13,50061,27.8699,4031,1340
1.86827,275.26014,14,50062,27.8699,4031,1340
1.66303,99.231752,15,50063,27.9695,4031,1360
0.710948,248.98457,16,50064,27.7704,4031,1360
0.905627,320.53686,17,50065,27.7704,4031,1360
1.66303,294.6949,18,50066,27.621,4031,1360
1.23912,201.31212,19,50067,27.6708,4031,1360
1.45176,323.92946,20,50068,27.8202,4031,1360
0.655098,120.73735,21,50069,27.8699,4031,1360
1.45505,311.80431,22,50070,27.6708,4031,1360
1.62826,425.14896,23,50071,27.6708,4031,1360
2.02504,264.532,24,50072,27.9695,4031,1360
2.43162,126.65735,25,50073,27.9695,4035,2228
1.66303,101.23464,26,50074,27.6708,4035,2228
1.17998,139.03637,27,50075,27.8699,4035,2228
2.0693,145.16444,28,50076,27.8699,4035,2228
2.39407,126.53022,29,50077,27.621,4035,2228
1.80334,146.6315,30,50078,27.8202,4035,2228
1.80334,176.92954,31,50079,27.621,4035,2228
2.18584,176.80152,32,50080,27.8202,4035,2228
1.3102,166.42177,33,50081,27.8699,4035,2228
0.946812,175.29106,34,50082,27.6708,4035,2228
1.19205,193.43007,35,50083,27.8202,4035,2228
1.40163,193.39343,36,50084,27.621,4035,2228
1.40163,177.34044,37,50085,27.8202,4035,2228
1.64863,165.78344,38,50086,27.621,4035,2228
1.46484,158.58028,39,50087,27.7704,4035,2228
2.7028,145.54621,40,50088,27.9695,4035,2228
0.601994,130.20995,41,50089,27.7704,4035,2228
1.79804,118.36906,42,50090,27.7704,4035,2228
0.981433,107.34583,43,50091,27.8699,4035,2228
0.793363,95.088386,44,50092,27.9695,4035,2228
0.750112,83.902896,45,50093,27.6708,4033,1387
0.640375,78.688591,46,50094,27.8202,4033,1387
0.921287,79.72612,47,50095,27.8202,4033,1387
0.534885,81.95292,48,50096,27.6708,4033,1387
0.507437,84.274324,49,50097,27.8699,4033,1387
0.632885,81.970737,50,50098,27.7704,4033,1387
0.737289,72.792606,51,50099,27.8202,4033,1387
0.717624,65.325526,52,50100,27.7704,4033,1387
0.793363,61.364954,53,50101,28.1189,4033,1387
1.04268,60.722466,54,50102,27.8699,4033,1387
0.292969,74.129151,55,50103,27.8202,4033,1387
0.976563,96.54473,56,50104,27.8699,4033,1387
2.05543,114.65431,57,50105,27.7704,4033,1387
1.0381,129.3537,58,50106,27.9695,4033,1387
1.81651,143.87533,59,50107,27.7704,4033,1387
2.08537,138.60341,60,50108,27.5713,4033,1387
1.77132,98.166468,61,50109,27.7704,4033,1387
1.59273,42.599741,62,50110,27.8699,4033,1387
1.37415,30.376873,63,50111,27.7704,4033,1387
0.995902,34.454981,64,50112,27.7704,4033,1387
1.3637,33.450607,65,50113,27.8699,4037,1390
0.840071,39.536462,66,50114,27.8202,4037,1390
0.85693,44.92287,67,50115,27.8699,4037,1390
0.85693,46.838905,68,50116,27.8202,4037,1390
0.981433,46.44242,69,50117,27.6708,4037,1390
1.28447,42.097625,70,50118,27.7704,4037,1390
0.560992,34.90656,71,50119,27.8699,4037,1390
0.931581,31.175764,72,50120,27.8699,4037,1390
1.00543,33.688089,73,50121,27.8699,4037,1390
3.65005,40.334218,74,50122,27.8699,4037,1390
1.09183,48.437463,75,50123,27.621,4032,1384
0.793363,51.074721,76,50124,27.8202,4032,1384
1.40163,42.23527,77,50125,27.8699,4032,1384
1.38452,29.288227,78,50126,27.8202,4032,1384
0.569429,26.596205,79,50127,27.8202,4032,1384
2.14622,31.921795,80,50128,27.6708,4032,1384
0.926449,36.976829,81,50129,27.8699,4032,1384
1.5807,41.106351,82,50130,27.8202,4032,1384
1.56555,43.071451,83,50131,27.8202,4032,1384
1.78206,46.321462,84,50132,27.6708,4032,1384
1.48103,53.16565,85,50133,27.8699,4032,1384
1.11773,59.344254,86,50134,27.8699,4032,1384
0.845728,58.170443,87,50135,27.6708,4032,1384
1.16371,50.686234,88,50136,27.8699,4032,1384
1.17188,45.612336,89,50137,27.8699,4032,1384
0.995902,46.486997,90,50138,27.7704,4032,1384
2.15951,46.364869,91,50139,27.7704,4032,1384
0.138107,40.534145,92,50140,27.621,4032,1384
0.956832,33.330561,93,50141,27.6708,4032,1384
1.19205,31.55677,94,50142,27.621,4032,1384
0.78733,37.816193,95,50143,27.8202,4036,1390
0.966748,49.003743,96,50144,27.8202,4036,1390
0.601994,55.00348,97,50145,27.7704,4036,1390
1.68298,57.670181,98,50146,27.8699,4036,1390
1.43525,66.665368,99,50147,28.0193,4036,1390
1.76052,79.213569,100,50148,28.0193,4036,1390
