Linear acceleration,Rotational velocity,Time values,Absolute time values,Temperature,Ambient light,Reflected light
0.625305,31.682832,-2000,28378,27.5713,4149,1539
0.717624,27.626214,-1999,28379,27.3223,4149,1539
1.1472,26.731447,-1998,28380,27.621,4149,1539
1.14304,26.453231,-1997,28381,27.5713,4149,1539
0.768946,23.354064,-1996,28382,27.5713,4149,1539
0.884315,17.447943,-1995,28383,27.5713,4149,1528
1.06082,14.592892,-1994,28384,27.6708,4149,1528
0.577742,17.04182,-1993,28385,27.4219,4149,1528
0.497951,20.14604,-1992,28386,27.6708,4149,1528
1.36019,18.738489,-1991,28387,27.4219,4149,1528
0.926449,14.440459,-1990,28388,27.621,4149,1528
0.601994,13.239424,-1989,28389,27.5713,4149,1528
0.941763,15.151478,-1988,28390,27.6708,4149,1528
1.14304,18.832882,-1987,28391,27.6708,4149,1528
0.730792,20.219133,-1986,28392,27.621,4149,1528
1.3637,19.51064,-1985,28393,27.4717,4149,1528
0.458048,20.230185,-1984,28394,27.4219,4149,1528
0.525895,21.668426,-1983,28395,27.5713,4149,1528
0.352105,23.035092,-1982,28396,27.4717,4149,1528
0.981433,23.081944,-1981,28397,27.621,4149,1528
0.402647,23.722191,-1980,28398,27.5713,4149,1528
1.35668,24.680251,-1979,28399,27.3223,4149,1528
1.09183,25.209219,-1978,28400,27.621,4149,1528
0.845728,24.932544,-1977,28401,27.621,4149,1528
0.625305,24.21427,-1976,28402,27.5713,4149,1528
0.926449,23.205563,-1975,28403,27.4219,4154,1523
1.00068,22.128759,-1974,28404,27.3223,4154,1523
1.04725,21.772704,-1973,28405,27.4717,4154,1523
0.78733,22.097424,-1972,28406,27.4717,4154,1523
1.17594,21.782283,-1971,28407,27.3223,4154,1523
1.72772,20.706306,-1970,28408,27.4219,4154,1523
0.921287,20.786033,-1969,28409,27.4717,4154,1523
1.19205,22.86009,-1968,28410,27.4219,4154,1523
0.625305,26.186003,-1967,28411,27.621,4154,1523
1.17998,29.22711,-1966,28412,27.6708,4154,1523
1.00543,31.47947,-1965,28413,27.4219,4168,1515
4.12128,33.845411,-1964,28414,27.4219,4168,1515
1.28447,36.782481,-1963,28415,27.4219,4168,1515
0.41432,39.364979,-1962,28416,27.5713,4168,1515
0.447517,43.307443,-1961,28417,27.621,4168,1515
0.811194,48.647279,-1960,28418,27.4219,4168,1515
1.30655,52.949396,-1959,28419,27.3223,4168,1515
1.55332,54.781968,-1958,28420,27.5713,4168,1515
1.12623,55.657771,-1957,28421,27.6708,4168,1515
1.49066,57.530483,-1956,28422,27.5713,4168,1515
0.710948,59.435708,-1955,28423,27.621,4168,1515
0.905627,61.145408,-1954,28424,27.4219,4168,1515
0.793363,63.524199,-1953,28425,27.4219,4168,1515
1.01016,69.882562,-1952,28426,27.3223,4168,1515
0.507437,76.798236,-1951,28427,27.4717,4168,1515
1.06082,78.798443,-1950,28428,27.5713,4168,1515
1.62826,76.465043,-1949,28429,27.3223,4168,1515
1.28447,78.291334,-1948,28430,27.2228,4168,1515
0.730792,85.391826,-1947,28431,27.4717,4168,1515
0.552427,93.635648,-1946,28432,27.4717,4168,1515
0.218366,96.997365,-1945,28433,27.4219,4187,1498
0.873464,95.930025,-1944,28434,27.5713,4187,1498
1.71108,94.790486,-1943,28435,27.4717,4187,1498
0.78733,96.774046,-1942,28436,27.621,4187,1498
0.436732,101.06287,-1941,28437,27.4717,4187,1498
1.53789,106.45637,-1940,28438,27.4717,4187,1498
0.308816,110.50364,-1939,28439,27.5713,4187,1498
0.905627,113.19683,-1938,28440,27.4219,4187,1498
0.569429,116.19459,-1937,28441,27.3223,4187,1498
0.497951,119.93605,-1936,28442,27.4717,4187,1498
1.28447,123.05487,-1935,28443,27.621,4187,1498
0.98628,124.68806,-1934,28444,27.5713,4187,1498
1.09183,126.3604,-1933,28445,27.621,4187,1498
1.07865,129.52903,-1932,28446,27.6708,4187,1498
1.28817,133.98706,-1931,28447,27.621,4187,1498
0.569429,137.19324,-1930,28448,27.4717,4187,1498
1.49704,139.43962,-1929,28449,27.3223,4187,1498
0.793363,143.92608,-1928,28450,27.621,4187,1498
1.27328,150.27555,-1927,28451,27.4717,4187,1498
1.38796,156.1474,-1926,28452,27.5713,4187,1498
0.878906,160.43225,-1925,28453,27.4717,4245,1456
1.31383,163.01292,-1924,28454,27.4219,4245,1456
1.76323,165.33341,-1923,28455,27.3223,4245,1456
0.59402,168.44898,-1922,28456,27.5713,4245,1456
1.50022,172.63811,-1921,28457,27.4717,4245,1456
2.01324,177.7998,-1920,28458,27.4717,4245,1456
0.921287,183.2066,-1919,28459,27.5713,4245,1456
0.817051,187.58919,-1918,28460,27.4219,4245,1456
1.27702,190.38942,-1917,28461,27.4717,4245,1456
1.77401,192.95502,-1916,28462,27.4219,4245,1456
1.0381,193.82306,-1915,28463,27.2228,4245,1456
2.10585,193.63038,-1914,28464,27.5713,4245,1456
1.19604,191.66104,-1913,28465,27.621,4245,1456
2.0693,188.03112,-1912,28466,27.4219,4245,1456
1.39822,183.00152,-1911,28467,27.3223,4245,1456
1.07865,176.83683,-1910,28468,27.4717,4245,1456
0.946812,169.20561,-1909,28469,27.4219,4245,1456
1.87592,160.71673,-1908,28470,27.4219,4245,1456
2.06006,152.00837,-1907,28471,27.4717,4245,1456
0.966748,143.32105,-1906,28472,27.5713,4245,1456
0.534885,133.19521,-1905,28473,27.6708,4341,1412
1.49385,122.4409,-1904,28474,27.4717,4341,1412
1.05179,114.61551,-1903,28475,27.4717,4341,1412
1.28817,108.56718,-1902,28476,27.4717,4341,1412
1.29923,100.54215,-1901,28477,27.4219,4341,1412
1.34255,92.16543,-1900,28478,27.5713,4341,1412
0.946812,87.240058,-1899,28479,27.4717,4341,1412
1.19604,89.101462,-1898,28480,27.6708,4341,1412
0.497951,91.556478,-1897,28481,27.6708,4341,1412
1.52856,84.767615,-1896,28482,27.4219,4341,1412
1.73047,77.674904,-1895,28483,27.4717,4443,1400
1.33543,74.759073,-1894,28484,27.4219,4443,1400
1.06082,78.778963,-1893,28485,27.3223,4443,1400
1.07865,89.4009,-1892,28486,27.4717,4443,1400
1.32467,100.01649,-1891,28487,27.5713,4443,1400
1.07865,107.29481,-1890,28488,27.5713,4443,1400
0.878906,113.33931,-1889,28489,27.4717,4443,1400
1.00068,119.21289,-1888,28490,27.4717,4443,1400
0.900346,124.04464,-1887,28491,27.4717,4443,1400
0.308816,128.41774,-1886,28492,27.3223,4443,1400
0.601994,133.21048,-1885,28493,27.4219,4443,1400
1.21581,136.90375,-1884,28494,27.5713,4443,1400
1.07865,139.03642,-1883,28495,27.621,4443,1400
0.737289,138.79588,-1882,28496,27.4717,4443,1400
0.308816,137.50201,-1881,28497,27.2228,4443,1400
0.926449,137.2136,-1880,28498,27.4717,4443,1400
0.447517,137.51051,-1879,28499,27.5713,4443,1400
0.971667,137.10828,-1878,28500,27.4717,4443,1400
0.76272,137.15125,-1877,28501,27.3223,4443,1400
1.3637,139.73212,-1876,28502,27.4717,4443,1400
1.25821,144.35226,-1875,28503,27.3223,4540,1383
1.46484,146.88736,-1874,28504,27.4219,4540,1383
1.10916,148.46786,-1873,28505,27.3223,4540,1383
1.73047,153.13019,-1872,28506,27.4717,4540,1383
0.921287,160.33637,-1871,28507,27.4219,4540,1383
0.889691,169.05015,-1870,28508,27.5713,4540,1383
0.76272,175.47245,-1869,28509,27.3223,4540,1383
0.98628,181.09344,-1868,28510,27.5713,4540,1383
0.85693,186.78692,-1867,28511,27.5713,4540,1383
1.09183,192.08895,-1866,28512,27.4717,4540,1383
1.07865,196.04428,-1865,28513,27.3223,4540,1383
0.811194,199.41705,-1864,28514,27.4717,4540,1383
1.40163,200.30641,-1863,28515,27.5713,4540,1383
1.11773,197.03438,-1862,28516,27.621,4540,1383
1.14304,191.39796,-1861,28517,27.4717,4540,1383
1.00068,185.28725,-1860,28518,27.3223,4540,1383
1.68298,178.64535,-1859,28519,27.4219,4540,1383
1.5807,167.58742,-1858,28520,27.4717,4540,1383
1.3029,156.22721,-1857,28521,27.5713,4540,1383
1.81651,143.36299,-1856,28522,27.6708,4540,1383
1.52544,130.53866,-1855,28523,27.4717,4753,1351
0.884315,118.92343,-1854,28524,27.5713,4753,1351
1.1596,107.45253,-1853,28525,27.621,4753,1351
1.16371,94.99949,-1852,28526,27.6708,4753,1351
1.54099,77.371107,-1851,28527,27.5713,4753,1351
1.68014,62.435713,-1850,28528,27.3223,4753,1351
1.84257,61.958591,-1849,28529,27.3223,4753,1351
1.14304,75.694323,-1848,28530,27.6708,4753,1351
1.62239,85.661445,-1847,28531,27.4717,4753,1351
4.18101,92.390858,-1846,28532,27.5713,4753,1351
0.900346,99.362985,-1845,28533,27.3223,4943,1326
1.76323,107.84289,-1844,28534,27.5713,4943,1326
1.33543,118.52254,-1843,28535,27.4717,4943,1326
2.09904,130.65852,-1842,28536,27.4717,4943,1326
1.20399,139.46126,-1841,28537,27.5713,4943,1326
1.83739,142.544,-1840,28538,27.4219,4943,1326
1.30655,142.20107,-1839,28539,27.3223,4943,1326
1.84774,141.10911,-1838,28540,27.4717,4943,1326
0.750112,141.83331,-1837,28541,27.4219,4943,1326
0.710948,144.41599,-1836,28542,27.621,4943,1326
0.640375,145.2097,-1835,28543,27.621,4943,1326
1.27328,142.24884,-1834,28544,27.4717,4943,1326
0.308816,135.73236,-1833,28545,27.4717,4943,1326
0.276214,128.96311,-1832,28546,27.5713,4943,1326
1.27702,126.27488,-1831,28547,27.3223,4943,1326
1.28817,126.53069,-1830,28548,27.5713,4943,1326
0.41432,124.69833,-1829,28549,27.5713,4943,1326
0.447517,119.09171,-1828,28550,27.5713,4943,1326
1.13045,114.33871,-1827,28551,27.3223,4943,1326
1.04268,113.94392,-1826,28552,27.5713,4943,1326
1.21581,115.31491,-1825,28553,27.3223,4946,1328
1.17998,117.37433,-1824,28554,27.3223,4946,1328
0.625305,119.20427,-1823,28555,27.621,4946,1328
0.425674,120.21577,-1822,28556,27.621,4946,1328
1.40842,119.18295,-1821,28557,27.4717,4946,1328
1.54408,117.34088,-1820,28558,27.4717,4946,1328
1.00543,116.41246,-1819,28559,27.4219,4946,1328
1.39822,118.36232,-1818,28560,27.4219,4946,1328
0.41432,120.98578,-1817,28561,27.4717,4946,1328
0.971667,120.25369,-1816,28562,27.5713,4946,1328
1.62826,116.09554,-1815,28563,27.3223,4946,1328
0.840071,112.89003,-1814,28564,27.3223,4946,1328
0.697405,112.19006,-1813,28565,27.4219,4946,1328
0.292969,115.12946,-1812,28566,27.4219,4946,1328
1.32827,116.8086,-1811,28567,27.4219,4946,1328
1.38107,115.65671,-1810,28568,27.4717,4946,1328
0.655098,113.85241,-1809,28569,27.621,4946,1328
1.68298,112.1609,-1808,28570,27.5713,4946,1328
0.625305,111.06728,-1807,28571,27.4717,4946,1328
0.811194,111.35027,-1806,28572,27.4219,4946,1328
1.00068,112.16322,-1805,28573,27.6708,4980,1332
1.28447,112.54731,-1804,28574,27.4717,4980,1332
0.926449,114.17751,-1803,28575,27.4717,4980,1332
1.19205,117.0569,-1802,28576,27.3223,4980,1332
0.577742,118.19136,-1801,28577,27.4717,4980,1332
2.32946,119.44897,-1800,28578,27.4717,4980,1332
1.52231,122.76827,-1799,28579,27.3223,4980,1332
1.62826,128.01155,-1798,28580,27.621,4980,1332
1.47134,132.82608,-1797,28581,27.5713,4980,1332
1.19604,136.08535,-1796,28582,27.4717,4980,1332
0.793363,137.58001,-1795,28583,27.4717,5004,1339
2.24609,143.74514,-1794,28584,27.4219,5004,1339
0.717624,149.5725,-1793,28585,27.4717,5004,1339
1.05631,154.91016,-1792,28586,27.4219,5004,1339
0.78733,164.24913,-1791,28587,27.3223,5004,1339
0.534885,171.65226,-1790,28588,27.5713,5004,1339
0.926449,176.83738,-1789,28589,27.4717,5004,1339
0.98628,178.93967,-1788,28590,27.3223,5004,1339
1.33185,178.94076,-1787,28591,27.3223,5004,1339
0.889691,180.24598,-1786,28592,27.4717,5004,1339
1.05631,184.32577,-1785,28593,27.2726,5004,1339
0.662337,189.25336,-1784,28594,27.3223,5004,1339
1.63702,190.29055,-1783,28595,27.5713,5004,1339
0.585938,188.1077,-1782,28596,27.4219,5004,1339
1.88858,191.28733,-1781,28597,27.4219,5004,1339
0.85693,192.25528,-1780,28598,27.3223,5004,1339
0.507437,188.72824,-1779,28599,27.3223,5004,1339
1.02423,181.11697,-1778,28600,27.3223,5004,1339
0.750112,174.70394,-1777,28601,27.3223,5004,1339
1.57466,164.83827,-1776,28602,27.4717,5004,1339
0.811194,158.42606,-1775,28603,27.6708,4955,1354
1.25061,159.48574,-1774,28604,27.5713,4955,1354
1.86572,158.1139,-1773,28605,27.4717,4955,1354
1.27328,149.0596,-1772,28606,27.7704,4955,1354
1.19604,135.62083,-1771,28607,27.3223,4955,1354
0.946812,127.6559,-1770,28608,27.4219,4955,1354
1.36019,126.85901,-1769,28609,27.621,4955,1354
1.47458,124.02662,-1768,28610,27.4219,4955,1354
1.28447,109.76409,-1767,28611,27.3223,4955,1354
0.905627,93.229118,-1766,28612,27.4717,4955,1354
1.00543,86.47525,-1765,28613,27.5713,4955,1354
0.76272,91.706414,-1764,28614,27.3223,4955,1354
1.31745,97.394899,-1763,28615,27.5713,4955,1354
1.39822,88.438741,-1762,28616,27.5713,4955,1354
1.28817,71.501116,-1761,28617,27.3223,4955,1354
1.43857,77.533485,-1760,28618,27.5713,4955,1354
0.946812,107.5048,-1759,28619,27.4717,4955,1354
0.640375,121.41217,-1758,28620,27.4717,4955,1354
1.84516,104.98962,-1757,28621,27.621,4955,1354
0.905627,86.090385,-1756,28622,27.2726,4955,1354
1.36019,81.406348,-1755,28623,27.4219,4983,1349
1.52856,93.356978,-1754,28624,27.5713,4983,1349
0.926449,106.41031,-1753,28625,27.621,4983,1349
1.56555,104.99104,-1752,28626,27.4717,4983,1349
1.25442,96.354081,-1751,28627,27.5713,4983,1349
1.00068,94.770991,-1750,28628,27.4219,4983,1349
1.74146,95.764997,-1749,28629,27.3223,4983,1349
0.717624,91.257091,-1748,28630,27.4219,4983,1349
1.09619,85.392088,-1747,28631,27.621,4983,1349
1.47781,88.67003,-1746,28632,27.6708,4983,1349
1.01016,99.463487,-1745,28633,27.4717,5069,1325
1.38452,98.023753,-1744,28634,27.4717,5069,1325
1.19604,82.149693,-1743,28635,27.4219,5069,1325
1.14304,75.22414,-1742,28636,27.621,5069,1325
0.905627,82.441666,-1741,28637,27.4219,5069,1325
0.995902,94.541467,-1740,28638,27.3223,5069,1325
1.09619,99.168738,-1739,28639,27.5713,5069,1325
2.05078,96.730691,-1738,28640,27.4717,5069,1325
1.23912,95.604671,-1737,28641,27.4717,5069,1325
1.17998,95.402303,-1736,28642,27.4717,5069,1325
1.20794,92.143116,-1735,28643,27.3223,5069,1325
0.926449,86.232891,-1734,28644,27.4219,5069,1325
1.45505,85.427069,-1733,28645,27.4717,5069,1325
1.34255,86.12439,-1732,28646,27.4717,5069,1325
1.86316,83.973108,-1731,28647,27.3223,5069,1325
1.32827,82.263527,-1730,28648,27.4219,5069,1325
1.44518,79.521384,-1729,28649,27.5713,5069,1325
0.900346,70.05379,-1728,28650,27.4717,5069,1325
0.845728,56.07241,-1727,28651,27.3223,5069,1325
0.365396,48.148035,-1726,28652,27.5713,5069,1325
1.69708,51.30338,-1725,28653,27.4717,5136,1310
0.76272,54.510238,-1724,28654,27.4717,5136,1310
0.662337,49.733579,-1723,28655,27.5713,5136,1310
1.11773,48.430079,-1722,28656,27.4717,5136,1310
0.76272,55.187798,-1721,28657,27.3223,5136,1310
0.889691,65.36794,-1720,28658,27.4219,5136,1310
1.12623,66.205113,-1719,28659,27.4717,5136,1310
0.497951,60.958692,-1718,28660,27.4717,5136,1310
1.37067,61.84256,-1717,28661,27.3223,5136,1310
1.36719,67.467346,-1716,28662,27.4219,5136,1310
1.15135,75.672863,-1715,28663,27.4717,5136,1310
1.86316,82.903179,-1714,28664,27.5713,5136,1310
0.59402,82.492801,-1713,28665,27.3223,5136,1310
1.15135,79.559882,-1712,28666,27.621,5136,1310
0.601994,81.741639,-1711,28667,27.3223,5136,1310
0.750112,92.188386,-1710,28668,27.5713,5136,1310
1.65152,103.70331,-1709,28669,27.4717,5136,1310
1.54717,115.17889,-1708,28670,27.2726,5136,1310
1.04268,124.88008,-1707,28671,27.4717,5136,1310
0.625305,133.9558,-1706,28672,27.4219,5136,1310
1.02423,139.46334,-1705,28673,27.621,5211,1303
1.06082,145.01568,-1704,28674,27.4717,5211,1303
1.11773,152.38219,-1703,28675,27.621,5211,1303
1.25442,157.42911,-1702,28676,27.4717,5211,1303
1.38107,158.03443,-1701,28677,27.1232,5211,1303
0.85693,156.4959,-1700,28678,27.4219,5211,1303
1.15135,157.12522,-1699,28679,27.2726,5211,1303
1.76863,160.28841,-1698,28680,27.3223,5211,1303
1.31745,166.16142,-1697,28681,27.5713,5211,1303
1.00068,169.71255,-1696,28682,27.3223,5211,1303
1.23912,170.54935,-1695,28683,27.5713,5210,1311
0.683594,176.54896,-1694,28684,27.5713,5210,1311
1.49066,184.63009,-1693,28685,27.4717,5210,1311
1.24296,192.58007,-1692,28686,27.621,5210,1311
0.497951,197.52791,-1691,28687,27.4717,5210,1311
1.17998,201.87293,-1690,28688,27.4219,5210,1311
1.66303,210.76319,-1689,28689,27.4717,5210,1311
1.52231,223.82323,-1688,28690,27.5713,5210,1311
1.49385,232.74481,-1687,28691,27.4219,5210,1311
1.27328,226.11828,-1686,28692,27.4219,5210,1311
1.27328,207.61031,-1685,28693,27.2726,5210,1311
1.00543,192.97865,-1684,28694,27.4717,5210,1311
1.60168,192.05668,-1683,28695,27.5713,5210,1311
1.13886,193.97345,-1682,28696,27.5713,5210,1311
1.69708,183.58608,-1681,28697,27.3223,5210,1311
0.308816,165.91305,-1680,28698,27.4717,5210,1311
1.51603,157.49436,-1679,28699,27.3223,5210,1311
1.14304,154.63466,-1678,28700,27.4717,5210,1311
0.690534,152.02474,-1677,28701,27.6708,5210,1311
1.09619,148.75248,-1676,28702,27.4717,5210,1311
1.28817,145.78538,-1675,28703,27.3223,5191,1310
0.323889,142.48963,-1674,28704,27.4717,5191,1310
0.625305,145.91825,-1673,28705,27.3223,5191,1310
0.41432,146.83131,-1672,28706,27.3223,5191,1310
1.53168,143.03922,-1671,28707,27.5713,5191,1310
0.717624,142.7251,-1670,28708,27.5713,5191,1310
1.62239,141.30755,-1669,28709,27.2726,5191,1310
0.218366,126.40998,-1668,28710,27.621,5191,1310
1.40163,110.06329,-1667,28711,27.6708,5191,1310
1.0381,104.4683,-1666,28712,27.4717,5191,1310
0.717624,115.93557,-1665,28713,27.5713,5191,1310
0.402647,124.82834,-1664,28714,27.5713,5191,1310
0.793363,126.31022,-1663,28715,27.4717,5191,1310
1.21581,125.8025,-1662,28716,27.5713,5191,1310
1.11345,124.89434,-1661,28717,27.5713,5191,1310
1.4118,128.41391,-1660,28718,27.4219,5191,1310
1.41854,134.20569,-1659,28719,27.4219,5191,1310
0.601994,139.82636,-1658,28720,27.6708,5191,1310
0.534885,138.59819,-1657,28721,27.3223,5191,1310
0.169146,132.48414,-1656,28722,27.621,5191,1310
0.905627,130.55595,-1655,28723,27.7704,5298,1306
1.25061,132.63528,-1654,28724,27.4717,5298,1306
0.884315,136.0451,-1653,28725,27.4717,5298,1306
0.323889,139.28875,-1652,28726,27.6708,5298,1306
1.07865,146.64476,-1651,28727,27.621,5298,1306
0.402647,150.11939,-1650,28728,27.5713,5298,1306
1.48103,153.64352,-1649,28729,27.4717,5298,1306
0.560992,154.17925,-1648,28730,27.4717,5298,1306
1.3102,150.03911,-1647,28731,27.3223,5298,1306
0.218366,150.56541,-1646,28732,27.4219,5298,1306
0.402647,160.49865,-1645,28733,27.621,5298,1306
0.966748,161.23215,-1644,28734,27.4219,5298,1306
0.447517,153.14931,-1643,28735,27.4717,5298,1306
1.04268,150.28764,-1642,28736,27.4219,5298,1306
1.14304,150.07799,-1641,28737,27.7704,5298,1306
0.793363,138.43301,-1640,28738,27.4717,5298,1306
1.09183,109.75615,-1639,28739,27.4219,5298,1306
0.889691,92.05599,-1638,28740,27.5713,5298,1306
1.13045,94.541704,-1637,28741,27.4717,5298,1306
0.308816,102.81886,-1636,28742,27.4219,5298,1306
0.905627,102.47401,-1635,28743,27.621,5307,1310
0.905627,93.849527,-1634,28744,27.5713,5307,1310
0.921287,91.399367,-1633,28745,27.4219,5307,1310
0.845728,92.652011,-1632,28746,27.6708,5307,1310
1.54717,94.082006,-1631,28747,27.4717,5307,1310
0.365396,96.793753,-1630,28748,27.4219,5307,1310
0.76272,105.12437,-1629,28749,27.3223,5307,1310
1.57769,117.72376,-1628,28750,27.4717,5307,1310
2.47246,121.8025,-1627,28751,27.4717,5307,1310
1.60168,116.5051,-1626,28752,27.5713,5307,1310
1.13045,117.09248,-1625,28753,27.3223,5349,1318
1.28447,121.12297,-1624,28754,27.4219,5349,1318
1.22363,127.9889,-1623,28755,27.4717,5349,1318
0.971667,139.61306,-1622,28756,27.4219,5349,1318
1.48103,138.11683,-1621,28757,27.3223,5349,1318
1.34255,123.61396,-1620,28758,27.5713,5349,1318
1.48103,108.62399,-1619,28759,27.4717,5349,1318
1.51603,93.220887,-1618,28760,27.5713,5349,1318
1.17188,95.00349,-1617,28761,27.4717,5349,1318
1.05179,108.58894,-1616,28762,27.5713,5349,1318
0.981433,108.01071,-1615,28763,27.3223,5349,1318
1.10916,107.62629,-1614,28764,27.4219,5349,1318
0.601994,127.12789,-1613,28765,27.621,5349,1318
1.60168,137.71512,-1612,28766,27.5713,5349,1318
1.48103,119.1827,-1611,28767,27.2228,5349,1318
0.966748,90.693313,-1610,28768,27.5713,5349,1318
1.01016,90.162045,-1609,28769,27.4717,5349,1318
2.25034,117.7938,-1608,28770,27.5713,5349,1318
2.22905,134.91161,-1607,28771,27.621,5349,1318
2.62948,137.64606,-1606,28772,27.4219,5349,1318
1.61945,147.39211,-1605,28773,27.621,5428,1315
1.02423,151.63265,-1604,28774,27.7704,5428,1315
0.717624,153.33557,-1603,28775,27.4717,5428,1315
1.23912,156.1994,-1602,28776,27.4219,5428,1315
0.690534,134.01969,-1601,28777,27.5713,5428,1315
1.83479,103.99603,-1600,28778,27.5713,5428,1315
0.655098,86.057406,-1599,28779,27.5713,5428,1315
0.625305,80.442113,-1598,28780,27.4717,5428,1315
0.961803,80.487762,-1597,28781,27.3223,5428,1315
1.45176,71.11337,-1596,28782,27.4717,5428,1315
1.41517,69.89706,-1595,28783,27.4219,5428,1315
0.717624,71.648827,-1594,28784,27.5713,5428,1315
0.577742,78.129387,-1593,28785,27.3223,5428,1315
2.21832,82.62943,-1592,28786,27.6708,5428,1315
1.44188,96.910144,-1591,28787,27.621,5428,1315
1.39139,121.19615,-1590,28788,27.3223,5428,1315
1.51603,114.69687,-1589,28789,27.5713,5428,1315
0.828641,114.52394,-1588,28790,27.5713,5428,1315
0.817051,115.02502,-1587,28791,27.3223,5428,1315
1.09619,115.90388,-1586,28792,27.621,5428,1315
0.889691,118.37472,-1585,28793,27.4717,5400,1311
0.840071,118.95763,-1584,28794,27.5713,5400,1311
0.569429,113.61356,-1583,28795,27.5713,5400,1311
1.27702,104.76833,-1582,28796,27.4219,5400,1311
1.25061,90.977441,-1581,28797,27.4717,5400,1311
0.862477,82.037153,-1580,28798,27.4219,5400,1311
1.14304,77.985353,-1579,28799,27.4219,5400,1311
1.09619,71.840116,-1578,28800,27.621,5400,1311
1.81913,62.972311,-1577,28801,27.621,5400,1311
0.655098,45.022934,-1576,28802,27.621,5400,1311
1.01016,40.345669,-1575,28803,27.4219,5466,1300
1.73047,33.630759,-1574,28804,27.3223,5466,1300
1.1472,24.205961,-1573,28805,27.8202,5466,1300
1.5987,38.262764,-1572,28806,27.4717,5466,1300
0.851347,22.089331,-1571,28807,27.4219,5466,1300
0.845728,31.540711,-1570,28808,27.4717,5466,1300
2.31715,41.570632,-1569,28809,27.4717,5466,1300
0.811194,37.87604,-1568,28810,27.7704,5466,1300
1.4118,61.068594,-1567,28811,27.2726,5466,1300
1.57769,76.170017,-1566,28812,27.4219,5466,1300
1.25821,54.258984,-1565,28813,27.4717,5466,1300
2.2944,64.34692,-1564,28814,27.4219,5466,1300
1.04268,72.516444,-1563,28815,27.621,5466,1300
1.27328,94.97996,-1562,28816,27.5713,5466,1300
1.27328,77.164853,-1561,28817,27.3223,5466,1300
1.09183,65.494335,-1560,28818,27.621,5466,1300
0.743728,63.793273,-1559,28819,27.4219,5466,1300
1.51603,66.92905,-1558,28820,27.5713,5466,1300
1.13045,75.50599,-1557,28821,27.4717,5466,1300
1.54717,81.067555,-1556,28822,27.4717,5466,1300
1.25061,65.994783,-1555,28823,27.4219,5392,1308
0.961803,44.309001,-1554,28824,27.4717,5392,1308
1.74146,36.317508,-1553,28825,27.4219,5392,1308
1.22363,46.818063,-1552,28826,27.2726,5392,1308
0.59402,77.840861,-1551,28827,27.2726,5392,1308
1.49066,81.140496,-1550,28828,27.4717,5392,1308
0.683594,54.240306,-1549,28829,27.5713,5392,1308
1.12623,47.038904,-1548,28830,27.4717,5392,1308
1.04268,42.783163,-1547,28831,27.621,5392,1308
1.28817,37.068797,-1546,28832,27.4219,5392,1308
0.625305,43.502441,-1545,28833,27.621,5392,1308
1.52544,52.64062,-1544,28834,27.5713,5392,1308
1.29556,52.471637,-1543,28835,27.3223,5392,1308
2.65833,44.16095,-1542,28836,27.5713,5392,1308
1.4118,36.510657,-1541,28837,27.621,5392,1308
0.655098,29.541016,-1540,28838,27.4717,5392,1308
0.884315,39.209281,-1539,28839,27.3223,5392,1308
0.697405,59.452629,-1538,28840,27.5713,5392,1308
1.59572,58.053514,-1537,28841,27.4717,5392,1308
0.921287,42.500283,-1536,28842,27.3223,5392,1308
1.36019,31.336902,-1535,28843,27.4219,5293,1318
1.27702,28.241541,-1534,28844,27.5713,5293,1318
0.805294,29.914948,-1533,28845,27.3223,5293,1318
1.28447,31.323585,-1532,28846,27.6708,5293,1318
0.497951,31.411232,-1531,28847,27.4219,5293,1318
2.02033,30.625298,-1530,28848,27.5713,5293,1318
0.737289,28.661319,-1529,28849,27.5713,5293,1318
1.41517,25.779967,-1528,28850,27.4717,5293,1318
1.63702,22.905348,-1527,28851,27.4717,5293,1318
2.2944,22.094389,-1526,28852,27.4717,5293,1318
0.507437,23.040266,-1525,28853,27.621,5247,1321
0.390625,25.07052,-1524,28854,27.4219,5247,1321
1.83479,28.637133,-1523,28855,27.4219,5247,1321
1.00543,31.239746,-1522,28856,27.6708,5247,1321
1.11345,32.177049,-1521,28857,27.5713,5247,1321
0.793363,33.189883,-1520,28858,27.621,5247,1321
1.3637,33.994555,-1519,28859,27.4717,5247,1321
0.632885,35.002478,-1518,28860,27.3223,5247,1321
0.601994,38.488559,-1517,28861,27.4219,5247,1321
1.28447,43.61926,-1516,28862,27.4219,5247,1321
1.60466,48.732511,-1515,28863,27.4717,5247,1321
0.926449,51.726134,-1514,28864,27.4717,5247,1321
1.40163,54.173506,-1513,28865,27.4219,5247,1321
1.38796,57.144293,-1512,28866,27.3223,5247,1321
1.31383,59.658048,-1511,28867,27.5713,5247,1321
0.995902,62.293427,-1510,28868,27.621,5247,1321
2.95239,66.758177,-1509,28869,27.4219,5247,1321
1.21581,71.344432,-1508,28870,27.4219,5247,1321
1.20399,75.878066,-1507,28871,27.5713,5247,1321
0.743728,80.648207,-1506,28872,27.5713,5247,1321
0.169146,84.339279,-1505,28873,27.6708,5218,1317
1.36019,86.559817,-1504,28874,27.3223,5218,1317
1.01016,88.486159,-1503,28875,27.6708,5218,1317
0.995902,90.268169,-1502,28876,27.5713,5218,1317
1.18402,91.036795,-1501,28877,27.3223,5218,1317
2.10811,91.726479,-1500,28878,27.621,5218,1317
1.3029,93.817131,-1499,28879,27.4219,5218,1317
1.81913,97.210975,-1498,28880,27.5713,5218,1317
0.697405,101.07967,-1497,28881,27.5713,5218,1317
0.655098,105.54713,-1496,28882,27.3223,5218,1317
0.811194,109.15523,-1495,28883,27.4219,5218,1317
1.13045,112.61143,-1494,28884,27.4717,5218,1317
0.697405,116.7079,-1493,28885,27.4717,5218,1317
1.28817,119.30142,-1492,28886,27.4717,5218,1317
0.402647,119.11479,-1491,28887,27.3223,5218,1317
0.308816,113.96354,-1490,28888,27.621,5218,1317
1.37415,104.13778,-1489,28889,27.5713,5218,1317
1.5034,93.467685,-1488,28890,27.3223,5218,1317
1.22363,86.953915,-1487,28891,27.3223,5218,1317
1.45505,84.010009,-1486,28892,27.4717,5218,1317
1.4118,84.579224,-1485,28893,27.3223,5188,1309
1.25442,87.960194,-1484,28894,27.2228,5188,1309
1.00543,77.62453,-1483,28895,27.4219,5188,1309
1.4118,90.301839,-1482,28896,27.3223,5188,1309
0.534885,97.644424,-1481,28897,27.5713,5188,1309
0.878906,68.047165,-1480,28898,27.621,5188,1309
1.16371,52.215425,-1479,28899,27.4219,5188,1309
1.84516,48.112121,-1478,28900,27.4219,5188,1309
0.41432,30.29976,-1477,28901,27.4717,5188,1309
0.402647,15.184389,-1476,28902,27.4717,5188,1309
2.93294,34.913176,-1475,28903,27.4717,5134,1303
2.19238,239.54342,-1474,28904,27.4717,5134,1303
1.0381,390.82831,-1473,28905,27.3223,5134,1303
1.11773,512.31121,-1472,28906,27.3223,5134,1303
1.45505,576.70928,-1471,28907,27.621,5134,1303
0.683594,527.86534,-1470,28908,27.4717,5134,1303
0.323889,446.39915,-1469,28909,27.4219,5134,1303
0.900346,391.16445,-1468,28910,27.3223,5134,1303
1.54408,377.23695,-1467,28911,27.621,5134,1303
1.63702,407.37877,-1466,28912,27.5713,5134,1303
1.82698,451.9664,-1465,28913,27.4219,5134,1303
2.19672,478.75026,-1464,28914,27.3223,5134,1303
1.3029,463.25737,-1463,28915,27.4717,5134,1303
1.66303,419.85824,-1462,28916,27.8202,5134,1303
1.54408,394.74991,-1461,28917,27.5713,5134,1303
1.82437,412.61163,-1460,28918,27.4717,5134,1303
1.83739,425.29504,-1459,28919,27.4717,5134,1303
2.1771,424.16126,-1458,28920,27.4219,5134,1303
0.817051,415.38432,-1457,28921,27.4717,5134,1303
2.60213,409.74051,-1456,28922,27.4717,5134,1303
1.32467,421.94401,-1455,28923,27.621,5077,1303
1.77132,420.29427,-1454,28924,27.4219,5077,1303
1.89614,397.38492,-1453,28925,27.621,5077,1303
1.5625,391.5942,-1452,28926,27.4219,5077,1303
1.05631,397.89981,-1451,28927,27.5713,5077,1303
1.7551,393.54388,-1450,28928,27.5713,5077,1303
1.55638,405.75278,-1449,28929,27.4717,5077,1303
1.71942,436.81242,-1448,28930,27.621,5077,1303
1.70829,456.81415,-1447,28931,27.4717,5077,1303
2.23545,423.58928,-1446,28932,27.4717,5077,1303
1.48103,392.85136,-1445,28933,27.4717,5077,1303
2.06237,423.47639,-1444,28934,27.621,5077,1303
1.45505,488.65016,-1443,28935,27.4717,5077,1303
2.02269,544.58173,-1442,28936,27.5713,5077,1303
2.55031,578.57205,-1441,28937,27.4219,5077,1303
2.04146,553.3951,-1440,28938,27.5713,5077,1303
2.36199,515.69131,-1439,28939,27.3223,5077,1303
2.1573,513.5432,-1438,28940,27.5713,5077,1303
2.01324,504.26739,-1437,28941,27.5713,5077,1303
2.27772,499.88593,-1436,28942,27.3223,5077,1303
2.15066,519.62556,-1435,28943,27.5713,4852,1316
2.0762,553.98798,-1434,28944,27.4219,4852,1316
2.86051,601.394,-1433,28945,27.3223,4852,1316
2.0785,602.71031,-1432,28946,27.621,4852,1316
1.84257,589.40768,-1431,28947,27.5713,4852,1316
2.24609,578.84014,-1430,28948,27.5713,4852,1316
2.43358,551.21598,-1429,28949,27.3223,4852,1316
2.55404,600.19907,-1428,28950,27.621,4852,1316
2.41983,662.07959,-1427,28951,27.3223,4852,1316
2.64575,688.8554,-1426,28952,27.2726,4852,1316
2.35593,699.3284,-1425,28953,27.4219,4447,1339
4.30796,651.76373,-1424,28954,27.4219,4447,1339
2.4974,592.75827,-1423,28955,27.4717,4447,1339
1.84516,617.18435,-1422,28956,27.4219,4447,1339
2.48592,693.575,-1421,28957,27.621,4447,1339
1.68581,750.02342,-1420,28958,27.4717,4447,1339
3.34321,764.3886,-1419,28959,27.4717,4447,1339
2.58005,763.59301,-1418,28960,27.4219,4447,1339
2.37809,754.88654,-1417,28961,27.3223,4447,1339
2.4974,766.75786,-1416,28962,27.5713,4447,1339
1.25061,815.1528,-1415,28963,27.4717,4447,1339
1.98701,722.71372,-1414,28964,27.4219,4447,1339
3.04149,694.10955,-1413,28965,27.4219,4447,1339
3.03521,753.35964,-1412,28966,27.3223,4447,1339
2.47824,906.4624,-1411,28967,27.3223,4447,1339
2.90517,977.21392,-1410,28968,27.5713,4447,1339
3.16894,958.44418,-1409,28969,27.4717,4447,1339
1.94824,880.75253,-1408,28970,27.4219,4447,1339
3.68903,914.88097,-1407,28971,27.3223,4447,1339
2.90353,1015.5381,-1406,28972,27.2726,4447,1339
2.13284,1073.1186,-1405,28973,27.4219,4109,1366
2.31303,1070.9222,-1404,28974,27.4717,4109,1366
2.31715,1066.2795,-1403,28975,27.4717,4109,1366
2.75349,1153.1616,-1402,28976,27.4219,4109,1366
2.2944,1208.543,-1401,28977,27.3223,4109,1366
2.14177,1223.5773,-1400,28978,27.4219,4109,1366
2.81175,1220.6164,-1399,28979,27.4717,4109,1366
2.26512,1232.1352,-1398,28980,27.5713,4109,1366
4.54075,1282.8766,-1397,28981,27.5713,4109,1366
3.16894,1318.8004,-1396,28982,27.5713,4109,1366
2.84044,1338.1693,-1395,28983,27.621,4109,1366
2.1573,1133.0019,-1394,28984,27.4717,4109,1366
3.75437,1008.1619,-1393,28985,27.4219,4109,1366
6.75242,998.12583,-1392,28986,27.5713,4109,1366
6.88113,1008.4159,-1391,28987,27.621,4109,1366
4.21282,1025.6357,-1390,28988,27.5713,4109,1366
5.20884,1165.1016,-1389,28989,27.6708,4109,1366
5.73268,1259.1627,-1388,28990,27.4219,4109,1366
4.93043,1144.0394,-1387,28991,27.2726,4109,1366
6.61833,815.44637,-1386,28992,27.4219,4109,1366
4.99481,358.42783,-1385,28993,27.3223,3995,1434
5.98419,215.13358,-1384,28994,27.5713,3995,1434
3.89647,357.738,-1383,28995,27.4219,3995,1434
5.47049,351.87896,-1382,28996,27.3223,3995,1434
5.50352,284.5736,-1381,28997,27.621,3995,1434
5.37464,208.26108,-1380,28998,27.4717,3995,1434
4.07005,276.09863,-1379,28999,27.4219,3995,1434
3.28276,244.91683,-1378,29000,27.5713,3995,1434
2.67977,269.5616,-1377,29001,27.621,3995,1434
9.70587,835.84113,-1376,29002,27.4717,3995,1434
15.5206,1735.4265,-1375,29003,27.5713,3995,1434
10.6001,1399.9375,-1374,29004,27.4219,3995,1434
6.7156,461.82494,-1373,29005,27.4219,3995,1434
2.62403,1416.9905,-1372,29006,27.4219,3995,1434
3.02734,1200.6829,-1371,29007,27.4717,3995,1434
3.962,265.76423,-1370,29008,27.621,3995,1434
4.34433,353.26242,-1369,29009,27.621,3995,1434
5.17025,248.2047,-1368,29010,27.4219,3995,1434
5.73102,212.13074,-1367,29011,27.3223,3995,1434
5.14065,376.48497,-1366,29012,27.4219,3995,1434
4.59192,405.83239,-1365,29013,27.4717,4050,1467
3.80484,427.15563,-1364,29014,27.8202,4050,1467
3.71607,439.21784,-1363,29015,27.4219,4050,1467
4.37059,485.31283,-1362,29016,27.4219,4050,1467
6.75877,654.22428,-1361,29017,27.4717,4050,1467
8.85662,821.26332,-1360,29018,27.4717,4050,1467
7.65777,834.43788,-1359,29019,27.4219,4050,1467
6.1306,840.63071,-1358,29020,27.4219,4050,1467
5.79802,884.78747,-1357,29021,27.5713,4050,1467
5.50438,967.38955,-1356,29022,27.6708,4050,1467
5.07437,1104.8166,-1355,29023,27.5713,4294,1492
4.17987,1180.1294,-1354,29024,27.4219,4294,1492
4.0158,1170.7824,-1353,29025,27.621,4294,1492
4.44631,1143.3415,-1352,29026,27.5713,4294,1492
3.55071,1146.5737,-1351,29027,27.5713,4294,1492
5.34618,1180.0628,-1350,29028,27.5713,4294,1492
4.24103,1203.2059,-1349,29029,27.4717,4294,1492
5.06873,1198.0964,-1348,29030,27.4219,4294,1492
5.13044,1185.4914,-1347,29031,27.5713,4294,1492
4.82782,1189.7292,-1346,29032,27.5713,4294,1492
5.01292,1216.5146,-1345,29033,27.5713,4294,1492
5.41002,1257.9572,-1344,29034,27.5713,4294,1492
5.60737,1303.1134,-1343,29035,27.3223,4294,1492
3.79228,1346.2334,-1342,29036,27.4219,4294,1492
4.44309,1386.7541,-1341,29037,27.5713,4294,1492
4.05009,1425.1754,-1340,29038,27.4219,4294,1492
3.46783,1461.2053,-1339,29039,27.4717,4294,1492
2.34985,1488.7778,-1338,29040,27.4219,4294,1492
2.73089,1505.3068,-1337,29041,27.4717,4294,1492
2.85884,1511.7495,-1336,29042,27.3223,4294,1492
3.79982,1511.6599,-1335,29043,27.6708,4856,1140
3.00362,1505.708,-1334,29044,27.4717,4856,1140
3.98121,1494.5578,-1333,29045,27.4717,4856,1140
4.69665,1482.2062,-1332,29046,27.6708,4856,1140
5.32294,1468.5354,-1331,29047,27.3223,4856,1140
5.87319,1449.2867,-1330,29048,27.5713,4856,1140
6.7397,1431.8112,-1329,29049,27.4219,4856,1140
7.00203,1420.4979,-1328,29050,27.8202,4856,1140
7.61844,1414.705,-1327,29051,27.4717,4856,1140
7.3014,1411.0296,-1326,29052,27.4219,4856,1140
6.46231,1408.6594,-1325,29053,27.5713,4856,1140
6.90948,1406.5623,-1324,29054,27.3223,4856,1140
7.33203,1325.4205,-1323,29055,27.4717,4856,1140
14.9946,975.86617,-1322,29056,27.8699,4856,1140
23.1614,680.44999,-1321,29057,27.5713,4856,1140
26.6381,933.48834,-1320,29058,27.3223,4856,1140
27.3106,1599.3176,-1319,29059,27.4717,4856,1140
20.5034,2178.9632,-1318,29060,27.3223,4856,1140
13.2092,2117.8341,-1317,29061,27.4717,4856,1140
9.52486,1393.3912,-1316,29062,27.4219,4856,1140
8.61592,707.37517,-1315,29063,27.4717,5045,952
7.94024,977.17496,-1314,29064,27.2228,5045,952
7.62032,1127.1857,-1313,29065,27.5713,5045,952
6.7397,1110.3979,-1312,29066,27.4717,5045,952
5.78485,1183.7204,-1311,29067,27.5713,5045,952
5.39413,1338.6881,-1310,29068,27.4219,5045,952
3.01472,1430.4333,-1309,29069,27.4717,5045,952
2.4974,1327.5618,-1308,29070,27.4219,5045,952
2.71688,1040.9256,-1307,29071,27.621,5045,952
3.6146,685.20294,-1306,29072,27.6708,5045,952
1.89865,384.67431,-1305,29073,27.5713,4610,989
3.4747,273.62319,-1304,29074,27.5713,4610,989
2.54844,389.32877,-1303,29075,27.3223,4610,989
2.93944,541.84137,-1302,29076,27.4219,4610,989
3.95719,671.61435,-1301,29077,27.3223,4610,989
4.29909,771.72795,-1300,29078,27.4219,4610,989
5.32115,830.43623,-1299,29079,27.4717,4610,989
4.36404,834.39271,-1298,29080,27.3223,4610,989
4.50279,788.57408,-1297,29081,27.4717,4610,989
3.79354,719.50104,-1296,29082,27.5713,4610,989
3.86452,662.16551,-1295,29083,27.3223,4610,989
3.86452,639.63878,-1294,29084,27.4219,4610,989
2.60213,657.42937,-1293,29085,27.5713,4610,989
2.16171,706.20196,-1292,29086,27.4219,4610,989
1.81125,764.59167,-1291,29087,27.5713,4610,989
2.02504,807.00303,-1290,29088,27.5713,4610,989
2.23759,815.7429,-1289,29089,27.5713,4610,989
1.68014,785.55734,-1288,29090,27.4717,4610,989
3.32749,722.53839,-1287,29091,27.6708,4610,989
2.94592,635.14621,-1286,29092,27.3223,4610,989
3.82359,533.18664,-1285,29093,27.5713,4131,1064
4.5355,430.09136,-1284,29094,27.5713,4131,1064
4.06184,344.37753,-1283,29095,27.5713,4131,1064
4.29909,294.30557,-1282,29096,27.4717,4131,1064
3.79982,280.33513,-1281,29097,27.621,4131,1064
4.42265,281.37398,-1280,29098,27.621,4131,1064
3.38995,274.74386,-1279,29099,27.4717,4131,1064
3.96561,247.22783,-1278,29100,27.4219,4131,1064
3.1311,207.58128,-1277,29101,27.5713,4131,1064
2.00136,180.4679,-1276,29102,27.4717,4131,1064
2.56522,174.15588,-1275,29103,27.3223,4131,1064
2.29024,182.39923,-1274,29104,27.6708,4131,1064
2.08537,204.81834,-1273,29105,27.5713,4131,1064
4.99576,237.11944,-1272,29106,27.3223,4131,1064
2.05078,267.52786,-1271,29107,27.5713,4131,1064
2.40797,288.18303,-1270,29108,27.3223,4131,1064
3.32749,297.60457,-1269,29109,27.5713,4131,1064
2.80496,297.30507,-1268,29110,27.4219,4131,1064
1.97739,289.8142,-1267,29111,27.4717,4131,1064
1.98461,277.21612,-1266,29112,27.4717,4131,1064
2.22905,262.91761,-1265,29113,27.621,4037,1077
2.53906,251.14275,-1264,29114,27.4219,4037,1077
1.70829,245.66113,-1263,29115,27.4717,4037,1077
1.23912,247.87927,-1262,29116,27.5713,4037,1077
1.62532,254.78054,-1261,29117,27.3223,4037,1077
2.03209,263.63986,-1260,29118,27.4219,4037,1077
1.79273,273.90582,-1259,29119,27.4717,4037,1077
1.05179,286.40697,-1258,29120,27.621,4037,1077
1.55638,301.88716,-1257,29121,27.4717,4037,1077
1.7551,319.77471,-1256,29122,27.3223,4037,1077
1.55638,339.13703,-1255,29123,27.2726,4083,1071
2.14177,358.97602,-1254,29124,27.5713,4083,1071
1.70829,378.10355,-1253,29125,27.5713,4083,1071
2.37206,396.60348,-1252,29126,27.4219,4083,1071
0.946812,414.60576,-1251,29127,27.4219,4083,1071
1.5034,432.34298,-1250,29128,27.3223,4083,1071
1.85547,449.23291,-1249,29129,27.4717,4083,1071
1.23912,463.06748,-1248,29130,27.5713,4083,1071
2.35997,474.39767,-1247,29131,27.4717,4083,1071
1.48103,483.27503,-1246,29132,27.4717,4083,1071
4.53655,431.69372,-1245,29133,27.4219,4083,1071
10.8368,339.15338,-1244,29134,27.2228,4083,1071
10.8999,283.5892,-1243,29135,27.4219,4083,1071
10.3594,429.4029,-1242,29136,27.621,4083,1071
6.15932,405.60236,-1241,29137,27.3223,4083,1071
2.21402,199.84256,-1240,29138,27.4717,4083,1071
0.338291,172.93111,-1239,29139,27.2726,4083,1071
0.601994,243.37113,-1238,29140,27.3223,4083,1071
0.828641,302.84129,-1237,29141,27.4717,4083,1071
1.54717,353.39431,-1236,29142,27.5713,4083,1071
0.41432,351.89041,-1235,29143,27.6708,4327,1053
1.45176,295.56011,-1234,29144,27.5713,4327,1053
1.80598,271.92693,-1233,29145,27.621,4327,1053
0.85693,275.40107,-1232,29146,27.5713,4327,1053
0.845728,270.34256,-1231,29147,27.6708,4327,1053
1.66303,271.24523,-1230,29148,27.3223,4327,1053
1.40163,276.04468,-1229,29149,27.4219,4327,1053
1.87592,269.87529,-1228,29150,27.5713,4327,1053
1.24679,253.95745,-1227,29151,27.5713,4327,1053
1.73047,241.60737,-1226,29152,27.4717,4327,1053
2.00612,235.93795,-1225,29153,27.4717,4327,1053
2.22262,233.68215,-1224,29154,27.621,4327,1053
1.3029,224.04166,-1223,29155,27.4717,4327,1053
2.08079,209.43143,-1222,29156,27.4717,4327,1053
2.41786,200.03704,-1221,29157,27.4219,4327,1053
0.730792,197.0486,-1220,29158,27.5713,4327,1053
2.21402,194.05379,-1219,29159,27.4219,4327,1053
1.80598,187.45064,-1218,29160,27.4219,4327,1053
1.47134,177.70427,-1217,29161,27.4717,4327,1053
1.90617,169.33493,-1216,29162,27.4717,4327,1053
1.88858,164.58904,-1215,29163,27.4717,4193,1039
0.793363,160.7704,-1214,29164,27.4219,4193,1039
2.5353,156.40675,-1213,29165,27.5713,4193,1039
1.32827,151.10673,-1212,29166,27.2228,4193,1039
2.49549,144.86959,-1211,29167,27.6708,4193,1039
1.85804,139.22337,-1210,29168,27.4717,4193,1039
1.19604,135.23485,-1209,29169,27.3223,4193,1039
1.79804,132.53801,-1208,29170,27.4717,4193,1039
2.0785,127.97522,-1207,29171,27.4717,4193,1039
2.18802,121.34256,-1206,29172,27.4219,4193,1039
2.1771,114.38171,-1205,29173,27.3223,4205,1009
1.87846,108.72388,-1204,29174,27.3223,4205,1009
2.09677,100.29894,-1203,29175,27.4717,4205,1009
1.73872,90.240102,-1202,29176,27.4219,4205,1009
1.66303,77.717865,-1201,29177,27.6708,4205,1009
2.02269,62.685928,-1200,29178,27.4717,4205,1009
1.36719,49.372273,-1199,29179,27.621,4205,1009
1.48103,42.771494,-1198,29180,27.621,4205,1009
1.26953,36.967156,-1197,29181,27.3223,4205,1009
2.36602,34.49777,-1196,29182,27.4717,4205,1009
2.09222,36.085355,-1195,29183,27.4717,4205,1009
2.06237,39.675668,-1194,29184,27.621,4205,1009
2.0716,43.177186,-1193,29185,27.3223,4205,1009
1.41854,49.335136,-1192,29186,27.5713,4205,1009
1.99659,56.808355,-1191,29187,27.4219,4205,1009
1.46484,63.388587,-1190,29188,27.4717,4205,1009
2.29856,74.353948,-1189,29189,27.621,4205,1009
5.25078,91.678381,-1188,29190,27.4717,4205,1009
0.966748,102.78502,-1187,29191,27.4717,4205,1009
2.12388,104.8186,-1186,29192,27.4717,4205,1009
1.31383,106.99545,-1185,29193,27.4717,4272,1007
1.90867,112.82764,-1184,29194,27.4219,4272,1007
1.96772,119.42264,-1183,29195,27.5713,4272,1007
1.77132,125.274,-1182,29196,27.4717,4272,1007
2.0156,124.47665,-1181,29197,27.5713,4272,1007
1.10916,122.77695,-1180,29198,27.4717,4272,1007
1.24679,125.90664,-1179,29199,27.5713,4272,1007
1.73323,136.58457,-1178,29200,27.4219,4272,1007
1.3461,143.54815,-1177,29201,27.621,4272,1007
1.75238,138.36712,-1176,29202,27.4717,4272,1007
1.9942,129.04535,-1175,29203,27.5713,4272,1007
1.24296,127.80243,-1174,29204,27.4717,4272,1007
0.811194,138.59067,-1173,29205,27.4717,4272,1007
1.52856,152.51512,-1172,29206,27.5713,4272,1007
2.97972,155.05208,-1171,29207,27.4219,4272,1007
1.12623,147.95793,-1170,29208,27.5713,4272,1007
1.09183,146.31322,-1169,29209,27.3223,4272,1007
1.40163,151.93974,-1168,29210,27.5713,4272,1007
0.811194,155.95795,-1167,29211,27.3223,4272,1007
1.34255,152.112,-1166,29212,27.5713,4272,1007
1.73872,142.30121,-1165,29213,27.6708,4339,1019
1.31383,134.92652,-1164,29214,27.4717,4339,1019
0.98628,133.7836,-1163,29215,27.3223,4339,1019
0.497951,136.41394,-1162,29216,27.4717,4339,1019
1.66303,139.58573,-1161,29217,27.4219,4339,1019
0.78733,140.85084,-1160,29218,27.621,4339,1019
1.81125,141.11413,-1159,29219,27.621,4339,1019
0.730792,144.2979,-1158,29220,27.4717,4339,1019
1.52856,147.19316,-1157,29221,27.4717,4339,1019
0.981433,146.45782,-1156,29222,27.621,4339,1019
0.436732,145.67556,-1155,29223,27.5713,4336,1043
1.83739,146.37162,-1154,29224,27.4717,4336,1043
1.1472,145.67613,-1153,29225,27.4219,4336,1043
1.89614,145.34684,-1152,29226,27.621,4336,1043
1.82698,145.94209,-1151,29227,27.3223,4336,1043
1.3461,147.08115,-1150,29228,27.3223,4336,1043
1.67446,148.4364,-1149,29229,27.5713,4336,1043
0.817051,149.85532,-1148,29230,27.3223,4336,1043
1.17998,151.90776,-1147,29231,27.4717,4336,1043
0.845728,154.91502,-1146,29232,27.621,4336,1043
1.27328,157.21448,-1145,29233,27.4219,4336,1043
1.48103,160.31904,-1144,29234,27.4717,4336,1043
1.77132,163.65641,-1143,29235,27.621,4336,1043
1.37067,165.34711,-1142,29236,27.4219,4336,1043
1.36019,165.95377,-1141,29237,27.5713,4336,1043
0.76272,161.61201,-1140,29238,27.4717,4336,1043
1.31745,174.64406,-1139,29239,27.4717,4336,1043
1.69427,212.34846,-1138,29240,27.4717,4336,1043
2.49549,214.15719,-1137,29241,27.3223,4336,1043
1.27702,205.58645,-1136,29242,27.5713,4336,1043
1.67161,195.24298,-1135,29243,27.5713,4510,1054
1.54408,144.55646,-1134,29244,27.4717,4510,1054
1.47134,73.375327,-1133,29245,27.4717,4510,1054
1.58673,55.562512,-1132,29246,27.5713,4510,1054
0.905627,88.980801,-1131,29247,27.4717,4510,1054
0.737289,134.80073,-1130,29248,27.5713,4510,1054
0.916097,194.37876,-1129,29249,27.5713,4510,1054
1.07865,300.32763,-1128,29250,27.3223,4510,1054
2.51073,381.56138,-1127,29251,27.621,4510,1054
2.45892,313.88676,-1126,29252,27.4219,4510,1054
2.33151,283.8161,-1125,29253,27.621,4510,1054
1.67446,520.96379,-1124,29254,27.5713,4510,1054
2.20323,697.5185,-1123,29255,27.2726,4510,1054
1.52856,781.49756,-1122,29256,27.3223,4510,1054
1.3102,766.32987,-1121,29257,27.6708,4510,1054
1.34255,649.7207,-1120,29258,27.3223,4510,1054
1.92856,452.6538,-1119,29259,27.4717,4510,1054
1.23912,247.29074,-1118,29260,27.4717,4510,1054
1.7551,230.05497,-1117,29261,27.4717,4510,1054
1.31383,415.53113,-1116,29262,27.4717,4510,1054
1.58673,594.76799,-1115,29263,27.4717,4781,1042
1.24296,700.21848,-1114,29264,27.5713,4781,1042
1.6341,734.86791,-1113,29265,27.5713,4781,1042
0.625305,719.05309,-1112,29266,27.3223,4781,1042
0.402647,654.75105,-1111,29267,27.4219,4781,1042
1.01016,546.51882,-1110,29268,27.4219,4781,1042
0.750112,429.93077,-1109,29269,27.4219,4781,1042
0.323889,373.8016,-1108,29270,27.4717,4781,1042
1.31745,422.80607,-1107,29271,27.4219,4781,1042
1.34255,524.9535,-1106,29272,27.4219,4781,1042
1.67446,622.53517,-1105,29273,27.4717,4615,1042
2.44336,689.55215,-1104,29274,27.3223,4615,1042
1.79804,718.91955,-1103,29275,27.621,4615,1042
2.03678,708.42034,-1102,29276,27.5713,4615,1042
1.39822,661.11169,-1101,29277,27.4219,4615,1042
3.15839,569.74834,-1100,29278,27.4219,4615,1042
7.45585,497.11223,-1099,29279,27.3223,4615,1042
7.44817,656.66243,-1098,29280,27.5713,4615,1042
5.36043,651.79166,-1097,29281,27.621,4615,1042
2.05543,439.45097,-1096,29282,27.3223,4615,1042
1.67161,394.89271,-1095,29283,27.5713,4615,1002
2.15287,412.76834,-1094,29284,27.5713,4615,1002
0.98628,492.27381,-1093,29285,27.4717,4615,1002
0.971667,418.38221,-1092,29286,27.4219,4615,1002
1.1472,273.21019,-1091,29287,27.4717,4615,1002
3.30015,316.63547,-1090,29288,27.3223,4615,1002
4.80207,303.68682,-1089,29289,27.621,4615,1002
3.7442,298.24785,-1088,29290,27.621,4615,1002
3.83106,221.27607,-1087,29291,27.5713,4615,1002
2.88541,325.46518,-1086,29292,27.4717,4615,1002
2.33764,367.47337,-1085,29293,27.6708,4418,988
1.90617,308.61012,-1084,29294,27.621,4418,988
1.33185,271.96296,-1083,29295,27.3223,4418,988
1.80334,294.32818,-1082,29296,27.7704,4418,988
1.47134,341.36502,-1081,29297,27.3223,4418,988
2.66371,349.03617,-1080,29298,27.5713,4418,988
1.59273,294.2835,-1079,29299,27.2726,4418,988
1.53168,221.91899,-1078,29300,27.3223,4418,988
1.54408,187.6877,-1077,29301,27.621,4418,988
1.9942,187.40111,-1076,29302,27.4717,4418,988
2.50313,197.05737,-1075,29303,27.4219,4418,988
1.73872,220.88147,-1074,29304,27.5713,4418,988
1.11773,266.98801,-1073,29305,27.5713,4418,988
1.25821,308.61562,-1072,29306,27.621,4418,988
1.09619,312.0106,-1071,29307,27.3223,4418,988
5.99851,283.61823,-1070,29308,27.4219,4418,988
1.38452,248.22439,-1069,29309,27.3223,4418,988
1.46484,213.74278,-1068,29310,27.5713,4418,988
2.04146,175.9889,-1067,29311,27.4717,4418,988
1.15135,139.32042,-1066,29312,27.4219,4418,988
1.13045,118.52229,-1065,29313,27.621,4357,1008
1.78473,119.133,-1064,29314,27.4219,4357,1008
1.53168,123.82979,-1063,29315,27.621,4357,1008
1.14304,113.19111,-1062,29316,27.4717,4357,1008
1.48103,104.65634,-1061,29317,27.3223,4357,1008
1.54408,107.44608,-1060,29318,27.3223,4357,1008
2.06237,115.73772,-1059,29319,27.7704,4357,1008
0.717624,126.76959,-1058,29320,27.3223,4357,1008
1.70829,142.21081,-1057,29321,27.5713,4357,1008
1.65728,161.7381,-1056,29322,27.4717,4357,1008
0.717624,178.5602,-1055,29323,27.4219,4357,1008
0.601994,182.33681,-1054,29324,27.4219,4357,1008
2.42966,171.43418,-1053,29325,27.6708,4357,1008
1.05179,159.14425,-1052,29326,27.5713,4357,1008
0.683594,148.50565,-1051,29327,27.4219,4357,1008
1.89614,133.30486,-1050,29328,27.3223,4357,1008
2.14622,117.22348,-1049,29329,27.5713,4357,1008
0.577742,105.69442,-1048,29330,27.4219,4357,1008
0.730792,99.781337,-1047,29331,27.5713,4357,1008
0.884315,91.966999,-1046,29332,27.2726,4357,1008
0.569429,83.740412,-1045,29333,27.3223,4472,1013
0.308816,78.311507,-1044,29334,27.621,4472,1013
1.01016,77.544632,-1043,29335,27.3223,4472,1013
0.76272,75.849094,-1042,29336,27.4717,4472,1013
1.43857,70.727501,-1041,29337,27.4219,4472,1013
1.17594,67.265284,-1040,29338,27.621,4472,1013
1.15135,61.980593,-1039,29339,27.4219,4472,1013
1.32827,57.378371,-1038,29340,27.4717,4472,1013
1.38452,53.510535,-1037,29341,27.3223,4472,1013
0.625305,48.146333,-1036,29342,27.4717,4472,1013
1.17998,44.654715,-1035,29343,27.5713,4829,1009
1.01016,42.670166,-1034,29344,27.5713,4829,1009
1.09619,39.430978,-1033,29345,27.4717,4829,1009
0.534885,34.39568,-1032,29346,27.4717,4829,1009
1.60168,28.937359,-1031,29347,27.5713,4829,1009
0.889691,26.573504,-1030,29348,27.5713,4829,1009
0.750112,25.477627,-1029,29349,27.4717,4829,1009
0.981433,24.992536,-1028,29350,27.4219,4829,1009
1.94824,26.090798,-1027,29351,27.5713,4829,1009
1.05179,25.866235,-1026,29352,27.621,4829,1009
1.75781,27.246028,-1025,29353,27.4717,4829,1009
1.09619,30.080612,-1024,29354,27.4717,4829,1009
1.17998,34.661736,-1023,29355,27.4219,4829,1009
1.05631,39.73759,-1022,29356,27.3223,4829,1009
0.577742,46.469684,-1021,29357,27.4717,4829,1009
1.31745,49.726387,-1020,29358,27.621,4829,1009
1.00543,46.902013,-1019,29359,27.5713,4829,1009
0.793363,40.084627,-1018,29360,27.5713,4829,1009
1.21188,35.78243,-1017,29361,27.4219,4829,1009
2.09677,35.58135,-1016,29362,27.4717,4829,1009
0.817051,32.426848,-1015,29363,27.4717,5059,1002
1.47781,32.343335,-1014,29364,27.3223,5059,1002
1.33185,46.815676,-1013,29365,27.4219,5059,1002
1.66303,71.120913,-1012,29366,27.4717,5059,1002
2.28816,83.063085,-1011,29367,27.621,5059,1002
1.24296,68.133827,-1010,29368,27.3223,5059,1002
1.3029,33.219502,-1009,29369,27.3223,5059,1002
0.76272,32.142298,-1008,29370,27.4717,5059,1002
1.60466,45.050396,-1007,29371,27.3223,5059,1002
0.941763,64.721905,-1006,29372,27.4717,5059,1002
1.4118,85.377865,-1005,29373,27.3223,5059,1002
1.55332,101.75079,-1004,29374,27.4219,5059,1002
1.53789,102.14288,-1003,29375,27.5713,5059,1002
0.76272,79.470867,-1002,29376,27.8699,5059,1002
0.447517,45.573607,-1001,29377,27.5713,5059,1002
0.76272,25.53488,-1000,29378,27.5713,5059,1002
1.71942,22.16173,-999,29379,27.3223,5059,1002
0.817051,28.518248,-998,29380,27.5713,5059,1002
0.218366,47.306144,-997,29381,27.4717,5059,1002
1.88858,67.57405,-996,29382,27.4717,5059,1002
0.76272,69.759098,-995,29383,27.3223,5044,1001
0.655098,52.113874,-994,29384,27.621,5044,1001
0.817051,40.004436,-993,29385,27.3223,5044,1001
1.17594,46.264809,-992,29386,27.5713,5044,1001
0.981433,56.774376,-991,29387,27.621,5044,1001
0.811194,66.091577,-990,29388,27.6708,5044,1001
0.834375,76.059699,-989,29389,27.5713,5044,1001
0.966748,80.926449,-988,29390,27.4219,5044,1001
1.40163,74.343426,-987,29391,27.621,5044,1001
2.66371,59.388681,-986,29392,27.5713,5044,1001
1.02423,45.607436,-985,29393,27.4219,5053,1002
0.98628,39.174492,-984,29394,27.5713,5053,1002
0.768946,41.520418,-983,29395,27.5713,5053,1002
1.17998,50.810292,-982,29396,27.5713,5053,1002
1.04268,59.448744,-981,29397,27.621,5053,1002
0.497951,62.481997,-980,29398,27.4717,5053,1002
1.31383,60.477679,-979,29399,27.3223,5053,1002
0.768946,58.679391,-978,29400,27.5713,5053,1002
0.697405,57.309509,-977,29401,27.4717,5053,1002
1.24296,54.262554,-976,29402,27.4717,5053,1002
1.20794,53.283237,-975,29403,27.621,5053,1002
1.00543,55.366793,-974,29404,27.5713,5053,1002
0.811194,57.149378,-973,29405,27.621,5053,1002
0.805294,58.374759,-972,29406,27.4717,5053,1002
1.07422,58.030537,-971,29407,27.4219,5053,1002
1.28817,59.992436,-970,29408,27.4219,5053,1002
1.22752,60.314347,-969,29409,27.5713,5053,1002
0.436732,61.867975,-968,29410,27.4219,5053,1002
1.14304,68.41973,-967,29411,27.4717,5053,1002
1.40163,73.991125,-966,29412,27.2726,5053,1002
0.941763,77.978187,-965,29413,27.4219,5053,995
0.900346,81.130027,-964,29414,27.621,5053,995
0.569429,80.845759,-963,29415,27.3223,5053,995
0.768946,77.815013,-962,29416,27.4717,5053,995
0.743728,74.859464,-961,29417,27.621,5053,995
0.884315,74.37058,-960,29418,27.621,5053,995
0.817051,74.975721,-959,29419,27.621,5053,995
0.323889,72.911853,-958,29420,27.4219,5053,995
1.36019,71.255088,-957,29421,27.3223,5053,995
1.85804,77.122551,-956,29422,27.4219,5053,995
1.80598,85.202805,-955,29423,27.4717,5053,995
1.25061,87.440951,-954,29424,27.5713,5053,995
1.1472,83.46691,-953,29425,27.7704,5053,995
1.07422,86.936348,-952,29426,27.621,5053,995
0.78733,98.719644,-951,29427,27.4717,5053,995
2.10811,102.93278,-950,29428,27.4717,5053,995
1.1472,99.148901,-949,29429,27.4717,5053,995
0.811194,99.18226,-948,29430,27.3223,5053,995
0.697405,102.30111,-947,29431,27.4717,5053,995
1.20794,99.082977,-946,29432,27.3223,5053,995
1.02423,92.617587,-945,29433,27.3223,4841,985
1.39481,89.786428,-944,29434,27.621,4841,985
0.632885,93.021182,-943,29435,27.3223,4841,985
2.02269,98.692696,-942,29436,27.4219,4841,985
1.68298,98.7247,-941,29437,27.3223,4841,985
2.00374,106.45609,-940,29438,27.7704,4841,985
1.4681,140.79539,-939,29439,27.4717,4841,985
1.72772,183.09497,-938,29440,27.4717,4841,985
1.92856,209.46003,-937,29441,27.5713,4841,985
2.58559,237.0245,-936,29442,27.5713,4841,985
3.64482,236.23186,-935,29443,27.3223,4703,965
4.11201,134.81548,-934,29444,27.3223,4703,965
2.64033,183.81592,-933,29445,27.5713,4703,965
2.61128,372.433,-932,29446,27.4219,4703,965
0.683594,365.05198,-931,29447,27.621,4703,965
0.862477,179.83861,-930,29448,27.4219,4703,965
0.878906,101.63957,-929,29449,27.6708,4703,965
1.07865,118.13852,-928,29450,27.6708,4703,965
1.11773,84.963568,-927,29451,27.7704,4703,965
1.49066,72.382446,-926,29452,27.621,4703,965
1.23912,75.319262,-925,29453,27.5713,4703,965
1.50657,100.23697,-924,29454,27.5713,4703,965
0.793363,95.855591,-923,29455,27.4717,4703,965
0.976563,69.745853,-922,29456,27.621,4703,965
0.793363,45.342672,-921,29457,27.5713,4703,965
1.07422,32.558695,-920,29458,27.4717,4703,965
1.62239,44.343795,-919,29459,27.4219,4703,965
0.683594,76.175103,-918,29460,27.621,4703,965
0.585938,104.81156,-917,29461,27.6708,4703,965
1.05631,119.61059,-916,29462,27.621,4703,965
1.38452,129.81763,-915,29463,27.4219,4570,964
1.47781,135.86864,-914,29464,27.4219,4570,964
3.34606,120.11651,-913,29465,27.4717,4570,964
2.47824,144.49274,-912,29466,27.4717,4570,964
1.86572,254.2727,-911,29467,27.4717,4570,964
1.87846,173.02781,-910,29468,27.4717,4570,964
1.24296,147.58069,-909,29469,27.621,4570,964
3.1311,152.93793,-908,29470,27.621,4570,964
1.11773,58.228819,-907,29471,27.621,4570,964
1.13045,96.547508,-906,29472,27.5713,4570,964
1.94824,160.11689,-905,29473,27.5713,4570,964
2.02033,212.83238,-904,29474,27.4219,4570,964
1.84257,196.52797,-903,29475,27.4717,4570,964
1.97739,188.11324,-902,29476,27.4717,4570,964
1.9918,220.54734,-901,29477,27.4717,4570,964
1.60168,233.58559,-900,29478,27.2726,4570,964
1.0381,215.45787,-899,29479,27.5713,4570,964
0.497951,201.59649,-898,29480,27.5713,4570,964
1.68014,205.39124,-897,29481,27.3223,4570,964
1.40163,212.21667,-896,29482,27.621,4570,964
1.23912,210.31978,-895,29483,27.4717,4461,968
1.40163,200.35283,-894,29484,27.3223,4461,968
1.64863,184.46997,-893,29485,27.4717,4461,968
1.39139,170.57255,-892,29486,27.5713,4461,968
1.55332,168.49352,-891,29487,27.3223,4461,968
1.6165,172.62059,-890,29488,27.6708,4461,968
0.884315,169.4802,-889,29489,27.621,4461,968
1.5034,170.51929,-888,29490,27.6708,4461,968
1.24296,193.95482,-887,29491,27.4717,4461,968
1.56859,223.42886,-886,29492,27.4717,4461,968
1.5034,228.20244,-885,29493,27.5713,4367,985
2.11714,221.13983,-884,29494,27.4717,4367,985
1.09183,219.06421,-883,29495,27.5713,4367,985
1.31745,220.1407,-882,29496,27.8202,4367,985
0.78733,216.22419,-881,29497,27.5713,4367,985
0.926449,208.64313,-880,29498,27.5713,4367,985
1.09183,203.43852,-879,29499,27.4219,4367,985
0.895034,210.23733,-878,29500,27.4717,4367,985
1.27702,223.54301,-877,29501,27.5713,4367,985
1.74966,230.63582,-876,29502,27.3223,4367,985
0.905627,227.05134,-875,29503,27.2726,4367,985
1.40163,227.91763,-874,29504,27.621,4367,985
2.01324,242.37047,-873,29505,27.5713,4367,985
1.56859,261.55783,-872,29506,27.4717,4367,985
1.86316,270.57165,-871,29507,27.4717,4367,985
2.01324,264.20139,-870,29508,27.4219,4367,985
2.00612,258.29118,-869,29509,27.5713,4367,985
2.11263,268.91281,-868,29510,27.621,4367,985
2.5819,278.70933,-867,29511,27.2726,4367,985
0.817051,280.0936,-866,29512,27.4717,4367,985
0.921287,282.88109,-865,29513,27.7704,4451,984
0.889691,288.77174,-864,29514,27.4717,4451,984
0.966748,289.82305,-863,29515,27.4717,4451,984
1.37067,287.73948,-862,29516,27.5713,4451,984
0.862477,285.83365,-861,29517,27.3223,4451,984
1.75781,284.49586,-860,29518,27.621,4451,984
1.18402,283.17568,-859,29519,27.4219,4451,984
0.862477,278.54586,-858,29520,27.5713,4451,984
1.57769,267.48294,-857,29521,27.4219,4451,984
1.97739,261.12809,-856,29522,27.621,4451,984
2.04379,270.58726,-855,29523,27.4717,4451,984
2.34782,269.32067,-854,29524,27.6708,4451,984
2.10358,270.86294,-853,29525,27.621,4451,984
1.02423,280.39455,-852,29526,27.7704,4451,984
1.92608,269.21898,-851,29527,27.2726,4451,984
0.851347,233.49485,-850,29528,27.621,4451,984
1.81125,219.59801,-849,29529,27.4219,4451,984
1.64863,246.98852,-848,29530,27.5713,4451,984
1.25821,286.20293,-847,29531,27.621,4451,984
1.26577,306.73323,-846,29532,27.621,4451,984
0.840071,292.31953,-845,29533,27.5713,5290,939
0.921287,252.88615,-844,29534,27.5713,5290,939
1.96772,211.62493,-843,29535,27.4717,5290,939
1.25821,180.94584,-842,29536,27.4219,5290,939
1.76052,162.17908,-841,29537,27.6708,5290,939
1.38452,150.61345,-840,29538,27.3223,5290,939
0.768946,143.1458,-839,29539,27.5713,5290,939
1.24296,139.35822,-838,29540,27.4717,5290,939
1.57769,135.3582,-837,29541,27.621,5290,939
3.25944,122.08826,-836,29542,27.621,5290,939
4.28242,220.95907,-835,29543,27.6708,5874,939
4.35858,349.57862,-834,29544,27.4717,5874,939
3.34891,266.65158,-833,29545,27.5713,5874,939
1.23912,211.7142,-832,29546,27.4717,5874,939
1.93596,193.58747,-831,29547,27.621,5874,939
1.06977,136.60088,-830,29548,27.4717,5874,939
1.67161,157.5818,-829,29549,27.4717,5874,939
0.308816,52.059804,-828,29550,27.621,5874,939
1.14304,148.03314,-827,29551,27.621,5874,939
0.799351,239.09228,-826,29552,27.4717,5874,939
1.70829,200.69826,-825,29553,27.5713,5874,888
1.39822,139.70055,-824,29554,27.4219,5874,888
1.4118,104.61654,-823,29555,27.5713,5874,888
1.73872,86.735317,-822,29556,27.4717,5874,888
1.8529,70.585885,-821,29557,27.4717,5874,888
1.01016,59.210268,-820,29558,27.4717,5874,888
1.63702,78.221929,-819,29559,27.4717,5874,888
1.07865,113.5809,-818,29560,27.4717,5874,888
0.697405,121.88157,-817,29561,27.5713,5874,888
1.11773,106.78704,-816,29562,27.4717,5874,888
1.4681,100.48715,-815,29563,27.4717,5055,878
0.534885,97.555032,-814,29564,27.4717,5055,878
0.365396,79.356783,-813,29565,27.5713,5055,878
1.47781,58.070709,-812,29566,27.4717,5055,878
1.25061,49.538744,-811,29567,27.621,5055,878
1.52231,50.26348,-810,29568,27.5713,5055,878
1.28817,57.981985,-809,29569,27.621,5055,878
1.81913,70.702741,-808,29570,27.6708,5055,878
1.70829,77.576236,-807,29571,27.2726,5055,878
1.70549,77.445124,-806,29572,27.4717,5055,878
1.16371,76.113654,-805,29573,27.3223,5055,878
1.06082,74.781294,-804,29574,27.4717,5055,878
1.56859,73.658991,-803,29575,27.4219,5055,878
0.717624,69.190719,-802,29576,27.4219,5055,878
1.70829,65.710008,-801,29577,27.4219,5055,878
0.750112,82.594166,-800,29578,27.5713,5055,878
1.22363,97.106147,-799,29579,27.4717,5055,878
1.39822,89.211687,-798,29580,27.5713,5055,878
1.73047,73.682959,-797,29581,27.5713,5055,878
0.878906,59.258945,-796,29582,27.3223,5055,878
1.73323,49.332116,-795,29583,27.3223,4604,880
1.78473,44.511998,-794,29584,27.4219,4604,880
2.16832,34.157664,-793,29585,27.3223,4604,880
1.17998,43.423586,-792,29586,27.4717,4604,880
1.98461,58.871185,-791,29587,27.4219,4604,880
1.83739,98.218672,-790,29588,27.5713,4604,880
1.85547,128.56739,-789,29589,27.5713,4604,880
2.64575,111.19755,-788,29590,27.3223,4604,880
1.81913,78.356305,-787,29591,27.5713,4604,880
1.05631,70.483952,-786,29592,27.4717,4604,880
0.601994,74.294804,-785,29593,27.4219,4604,880
1.57769,79.600796,-784,29594,27.7704,4604,880
0.981433,83.060663,-783,29595,27.4717,4604,880
1.45176,88.977619,-782,29596,27.5713,4604,880
1.73047,97.241704,-781,29597,27.4219,4604,880
1.09183,112.28246,-780,29598,27.621,4604,880
0.308816,123.49444,-779,29599,27.621,4604,880
1.00068,116.50299,-778,29600,27.3223,4604,880
1.07422,99.875972,-777,29601,27.4717,4604,880
0.436732,92.245911,-776,29602,27.5713,4604,880
0.292969,92.793834,-775,29603,27.4717,4610,868
1.86572,97.129392,-774,29604,27.4717,4610,868
0.845728,102.85197,-773,29605,27.4219,4610,868
0.625305,105.40466,-772,29606,27.621,4610,868
1.19604,103.54139,-771,29607,27.4219,4610,868
0.85693,103.31635,-770,29608,27.4717,4610,868
1.06082,111.04702,-769,29609,27.4717,4610,868
1.42859,125.86213,-768,29610,27.3223,4610,868
0.926449,137.57763,-767,29611,27.4717,4610,868
3.05712,134.22767,-766,29612,27.4717,4610,868
1.1596,112.32067,-765,29613,27.4717,4899,845
0.534885,87.615791,-764,29614,27.4717,4899,845
0.41432,79.92362,-763,29615,27.3223,4899,845
0.981433,89.642257,-762,29616,27.4717,4899,845
1.28817,95.940976,-761,29617,27.6708,4899,845
1.49385,97.239253,-760,29618,27.4219,4899,845
1.19205,104.71249,-759,29619,27.4717,4899,845
0.862477,114.55926,-758,29620,27.4717,4899,845
1.08306,112.1789,-757,29621,27.4717,4899,845
2.41391,101.20255,-756,29622,27.5713,4899,845
1.31383,100.71814,-755,29623,27.621,4899,845
1.15548,115.79404,-754,29624,27.5713,4899,845
1.48746,129.43356,-753,29625,27.5713,4899,845
0.640375,120.20678,-752,29626,27.4717,4899,845
0.690534,87.920036,-751,29627,27.3223,4899,845
0.805294,71.006109,-750,29628,27.5713,4899,845
1.51603,85.729347,-749,29629,27.4717,4899,845
1.88858,108.81225,-748,29630,27.4219,4899,845
1.70549,124.6583,-747,29631,27.5713,4899,845
1.56555,139.64769,-746,29632,27.3223,4899,845
1.13045,155.23327,-745,29633,27.4717,5020,835
1.28447,161.27041,-744,29634,27.5713,5020,835
1.4118,155.99373,-743,29635,27.621,5020,835
1.09183,150.68175,-742,29636,27.4717,5020,835
1.79539,148.51367,-741,29637,27.5713,5020,835
1.56555,143.26474,-740,29638,27.4219,5020,835
1.34255,138.96615,-739,29639,27.621,5020,835
1.15548,137.62051,-738,29640,27.621,5020,835
1.11773,135.87808,-737,29641,27.4717,5020,835
1.64283,135.75931,-736,29642,27.4717,5020,835
2.11714,137.9663,-735,29643,27.621,5020,835
2.00136,146.20482,-734,29644,27.5713,5020,835
1.09183,155.98833,-733,29645,27.4219,5020,835
3.50204,160.76711,-732,29646,27.5713,5020,835
2.35997,163.683,-731,29647,27.4219,5020,835
2.0693,168.8326,-730,29648,27.621,5020,835
1.93596,172.5247,-729,29649,27.4219,5020,835
1.04268,168.01585,-728,29650,27.5713,5020,835
0.750112,156.05309,-727,29651,27.4219,5020,835
1.74966,151.13118,-726,29652,27.3223,5020,835
1.51603,157.0313,-725,29653,27.4717,4704,834
1.39481,164.26152,-724,29654,27.621,4704,834
1.50022,162.97411,-723,29655,27.5713,4704,834
2.01324,165.24037,-722,29656,27.4717,4704,834
1.53168,174.45599,-721,29657,27.3223,4704,834
1.05631,174.67016,-720,29658,27.4219,4704,834
1.62239,153.58779,-719,29659,27.4219,4704,834
2.04146,137.97882,-718,29660,27.4717,4704,834
1.38796,133.33197,-717,29661,27.5713,4704,834
2.15287,128.70183,-716,29662,27.5713,4704,834
1.62826,125.30926,-715,29663,27.5713,4519,840
1.85547,130.1585,-714,29664,27.4219,4519,840
1.51917,138.66097,-713,29665,27.3223,4519,840
1.59572,134.60066,-712,29666,27.3223,4519,840
2.16392,122.09381,-711,29667,27.3223,4519,840
0.697405,112.87854,-710,29668,27.621,4519,840
2.26722,106.39785,-709,29669,27.3223,4519,840
0.905627,97.355264,-708,29670,27.5713,4519,840
1.73047,89.193228,-707,29671,27.4717,4519,840
1.55638,86.089347,-706,29672,27.5713,4519,840
0.365396,83.015531,-705,29673,27.4219,4519,840
1.38452,82.934718,-704,29674,27.4717,4519,840
1.31745,79.711073,-703,29675,27.5713,4519,840
1.44188,74.228186,-702,29676,27.5713,4519,840
2.06237,74.245047,-701,29677,27.3223,4519,840
1.60466,74.477798,-700,29678,27.3223,4519,840
0.946812,77.172095,-699,29679,27.621,4519,840
1.59273,81.988187,-698,29680,27.5713,4519,840
1.75238,89.604848,-697,29681,27.4717,4519,840
1.91615,104.03155,-696,29682,27.621,4519,840
2.71512,97.283912,-695,29683,27.621,4403,852
0.662337,72.051892,-694,29684,27.3223,4403,852
2.11714,71.464949,-693,29685,27.4717,4403,852
1.46484,62.966158,-692,29686,27.621,4403,852
0.577742,69.154421,-691,29687,27.3223,4403,852
1.45505,73.064767,-690,29688,27.4717,4403,852
2.21617,78.991283,-689,29689,27.4219,4403,852
1.68581,69.987287,-688,29690,27.621,4403,852
1.82437,62.343162,-687,29691,27.4219,4403,852
1.60168,67.842656,-686,29692,27.4717,4403,852
1.37067,73.567798,-685,29693,27.621,4403,852
1.58673,73.673959,-684,29694,27.4717,4403,852
1.13045,83.182656,-683,29695,27.2726,4403,852
1.3461,97.734801,-682,29696,27.5713,4403,852
0.239208,111.62127,-681,29697,27.5713,4403,852
1.0381,128.90891,-680,29698,27.4219,4403,852
1.80598,149.15004,-679,29699,27.4219,4403,852
1.00068,159.90228,-678,29700,27.4219,4403,852
1.45505,158.60678,-677,29701,27.4717,4403,852
1.04268,152.34977,-676,29702,27.4219,4403,852
0.552427,139.52188,-675,29703,27.2726,4403,864
1.62826,123.50542,-674,29704,27.5713,4403,864
1.61355,121.74891,-673,29705,27.621,4403,864
1.98461,137.09578,-672,29706,27.4219,4403,864
0.840071,144.49299,-671,29707,27.3223,4403,864
1.49066,141.08741,-670,29708,27.4219,4403,864
1.25061,156.19763,-669,29709,27.621,4403,864
1.00543,170.36866,-668,29710,27.4717,4403,864
1.49385,180.48062,-667,29711,27.8202,4403,864
0.625305,188.82589,-666,29712,27.4219,4403,864
1.40842,184.90272,-665,29713,27.4219,4356,878
1.53168,185.65502,-664,29714,27.5713,4356,878
1.39822,190.15546,-663,29715,27.4717,4356,878
1.17998,203.86524,-662,29716,27.3223,4356,878
1.73323,215.81883,-661,29717,27.4219,4356,878
1.05631,227.75419,-660,29718,27.5713,4356,878
1.46484,232.83212,-659,29719,27.4717,4356,878
1.4681,247.25648,-658,29720,27.5713,4356,878
1.97256,241.67958,-657,29721,27.621,4356,878
2.51832,177.09348,-656,29722,27.5713,4356,878
2.66729,318.0987,-655,29723,27.5713,4356,878
1.94088,458.96796,-654,29724,27.5713,4356,878
1.85804,396.04648,-653,29725,27.3223,4356,878
2.03444,248.22274,-652,29726,27.5713,4356,878
2.08994,185.69719,-651,29727,27.4717,4356,878
1.05179,188.32209,-650,29728,27.621,4356,878
1.54408,218.55052,-649,29729,27.3223,4356,878
4.87304,256.41842,-648,29730,27.621,4356,878
1.33185,271.60461,-647,29731,27.4219,4356,878
1.74966,262.99705,-646,29732,27.4219,4356,878
3.32892,254.79238,-645,29733,27.4219,4235,908
2.04146,252.84345,-644,29734,27.4717,4235,908
2.22262,252.20628,-643,29735,27.2726,4235,908
2.23118,249.09236,-642,29736,27.3223,4235,908
1.28447,244.8732,-641,29737,27.4219,4235,908
1.83739,241.2017,-640,29738,27.4717,4235,908
2.02033,238.29282,-639,29739,27.5713,4235,908
1.20399,236.48804,-638,29740,27.621,4235,908
1.09183,234.87147,-637,29741,27.4219,4235,908
1.54099,238.32002,-636,29742,27.4717,4235,908
1.17998,237.86499,-635,29743,27.4717,4235,908
1.23912,231.49495,-634,29744,27.621,4235,908
0.921287,228.21524,-633,29745,27.5713,4235,908
0.743728,229.2992,-632,29746,27.5713,4235,908
3.39136,229.65297,-631,29747,27.4717,4235,908
1.68298,227.16032,-630,29748,27.621,4235,908
1.36019,226.77333,-629,29749,27.5713,4235,908
0.845728,227.99963,-628,29750,27.5713,4235,908
1.12198,227.4619,-627,29751,27.4219,4235,908
0.811194,225.09878,-626,29752,27.4717,4235,908
1.39822,220.74667,-625,29753,27.621,4105,943
1.32467,218.02968,-624,29754,27.4717,4105,943
1.07422,220.71075,-623,29755,27.5713,4105,943
0.585938,221.56545,-622,29756,27.4717,4105,943
0.966748,215.46901,-621,29757,27.4219,4105,943
1.35668,208.84076,-620,29758,27.5713,4105,943
1.79804,205.86448,-619,29759,27.4717,4105,943
0.697405,204.73728,-618,29760,27.3223,4105,943
2.00136,199.52362,-617,29761,27.5713,4105,943
1.19205,195.43221,-616,29762,27.3223,4105,943
1.19604,193.07588,-615,29763,27.4717,4045,959
0.768946,185.9695,-614,29764,27.4219,4045,959
1.36019,175.96329,-613,29765,27.4219,4045,959
1.55638,169.90416,-612,29766,27.4219,4045,959
1.80334,167.5503,-611,29767,27.4717,4045,959
0.873464,162.54385,-610,29768,27.2726,4045,959
0.828641,152.02347,-609,29769,27.3223,4045,959
0.946812,144.70003,-608,29770,27.4219,4045,959
0.895034,142.71967,-607,29771,27.3223,4045,959
1.47458,139.02705,-606,29772,27.6708,4045,959
0.961803,129.71825,-605,29773,27.621,4045,959
1.13045,120.53434,-604,29774,27.7704,4045,959
0.676582,114.11707,-603,29775,27.4717,4045,959
1.34255,108.14334,-602,29776,27.3223,4045,959
0.931581,100.04308,-601,29777,27.6708,4045,959
0.916097,89.823679,-600,29778,27.3223,4045,959
1.79804,86.715729,-599,29779,27.4717,4045,959
2.04146,93.081155,-598,29780,27.5713,4045,959
0.793363,85.90264,-597,29781,27.621,4045,959
0.805294,66.823211,-596,29782,27.5713,4045,959
1.19604,48.42331,-595,29783,27.621,4019,964
1.17998,41.626693,-594,29784,27.621,4019,964
0.768946,44.202771,-593,29785,27.5713,4019,964
2.25034,48.451305,-592,29786,27.6708,4019,964
1.54717,46.79944,-591,29787,27.4717,4019,964
1.21188,45.643361,-590,29788,27.4717,4019,964
1.26953,45.776367,-589,29789,27.5713,4019,964
1.52856,56.387104,-588,29790,27.4717,4019,964
1.1472,67.768706,-587,29791,27.7704,4019,964
1.56555,70.155498,-586,29792,27.4717,4019,964
1.80334,68.727212,-585,29793,27.5713,4019,964
2.03444,73.622365,-584,29794,27.4717,4019,964
1.40163,82.868482,-583,29795,27.5713,4019,964
0.981433,88.308148,-582,29796,27.5713,4019,964
0.717624,88.437646,-581,29797,27.4717,4019,964
1.27702,92.515205,-580,29798,27.4717,4019,964
1.5987,96.807915,-579,29799,27.5713,4019,964
1.32467,93.272823,-578,29800,27.3223,4019,964
0.926449,96.938509,-577,29801,27.4717,4019,964
1.37415,98.700245,-576,29802,27.4717,4019,964
1.65152,100.50695,-575,29803,27.621,4015,971
0.926449,98.5298,-574,29804,27.621,4015,971
1.81913,95.465072,-573,29805,27.4717,4015,971
2.24822,92.721623,-572,29806,27.3223,4015,971
0.926449,93.9476,-571,29807,27.5713,4015,971
1.56555,92.387309,-570,29808,27.3223,4015,971
0.926449,89.253852,-569,29809,27.3223,4015,971
1.38107,86.176021,-568,29810,27.621,4015,971
1.68298,80.903521,-567,29811,27.4717,4015,971
1.40163,78.180675,-566,29812,27.3223,4015,971
1.16371,74.626106,-565,29813,27.5713,4020,971
2.14399,73.77007,-564,29814,27.5713,4020,971
0.625305,72.155534,-563,29815,27.621,4020,971
1.52856,65.705246,-562,29816,27.6708,4020,971
1.09619,59.383663,-561,29817,27.3223,4020,971
0.966748,52.312933,-560,29818,27.2726,4020,971
1.27328,49.463336,-559,29819,27.4717,4020,971
1.1596,51.223734,-558,29820,27.621,4020,971
0.811194,44.172927,-557,29821,27.4717,4020,971
1.24296,32.583628,-556,29822,27.621,4020,971
0.218366,24.581336,-555,29823,27.621,4020,972
1.44518,19.591049,-554,29824,27.4219,4020,972
0.218366,18.983798,-553,29825,27.4219,4020,972
1.43857,12.957291,-552,29826,27.5713,4020,972
0.793363,2.7540318,-551,29827,27.4717,4020,972
1.31383,4.0320177,-550,29828,27.4717,4020,972
1.06977,8.6014107,-549,29829,27.4219,4020,972
1.01016,11.721928,-548,29830,27.4717,4020,972
1.41517,13.790704,-547,29831,27.4717,4020,972
1.06977,16.75968,-546,29832,27.3223,4020,972
1.29556,17.244349,-545,29833,27.4219,4015,980
1.64283,20.810751,-544,29834,27.2726,4015,980
0.768946,25.989799,-543,29835,27.4717,4015,980
1.37067,28.611365,-542,29836,27.5713,4015,980
1.26577,27.973818,-541,29837,27.4717,4015,980
1.0381,29.032468,-540,29838,27.3223,4015,980
1.43857,29.053247,-539,29839,27.4717,4015,980
1.49704,26.526078,-538,29840,27.621,4015,980
1.1596,22.743439,-537,29841,27.4219,4015,980
1.31745,21.025172,-536,29842,27.4717,4015,980
1.85547,19.556411,-535,29843,27.621,4015,980
1.88099,16.70937,-534,29844,27.5713,4015,980
1.45176,11.864079,-533,29845,27.4717,4015,980
1.45505,9.1585281,-532,29846,27.5713,4015,980
0.931581,10.563844,-531,29847,27.4717,4015,980
3.34464,19.415704,-530,29848,27.4219,4015,980
0.85693,20.935326,-529,29849,27.4219,4015,980
1.83739,10.360886,-528,29850,27.4717,4015,980
1.45505,5.6271634,-527,29851,27.4717,4015,980
1.62826,7.9063501,-526,29852,27.4717,4015,980
2.02269,15.675463,-525,29853,27.5713,4017,978
1.49066,19.449061,-524,29854,27.5713,4017,978
0.768946,21.498242,-523,29855,27.6708,4017,978
1.14304,22.882242,-522,29856,27.2726,4017,978
1.32827,22.256334,-521,29857,27.3223,4017,978
1.0381,22.544705,-520,29858,27.5713,4017,978
1.4219,23.377341,-519,29859,27.4717,4017,978
0.921287,24.579821,-518,29860,27.4717,4017,978
1.77132,26.759305,-517,29861,27.4219,4017,978
1.20794,27.845948,-516,29862,27.3223,4017,978
1.37415,27.723133,-515,29863,27.5713,4017,978
1.49385,26.077659,-514,29864,27.3223,4017,978
0.961803,26.288799,-513,29865,27.621,4017,978
1.19205,25.738027,-512,29866,27.621,4017,978
1.8529,23.426371,-511,29867,27.4219,4017,978
0.447517,20.602417,-510,29868,27.5713,4017,978
0.690534,18.422509,-509,29869,27.5713,4017,978
1.66589,18.040819,-508,29870,27.621,4017,978
1.85547,20.016554,-507,29871,27.5713,4017,978
1.07422,21.607135,-506,29872,27.3223,4017,978
1.12198,20.618684,-505,29873,27.621,4020,980
0.577742,20.097163,-504,29874,27.4717,4020,980
0.750112,19.734659,-503,29875,27.2228,4020,980
0.926449,21.132624,-502,29876,27.5713,4020,980
0.905627,24.181633,-501,29877,27.4219,4020,980
1.39481,23.788995,-500,29878,27.621,4020,980
1.57466,20.211394,-499,29879,27.4219,4020,980
1.48103,17.836474,-498,29880,27.5713,4020,980
0.601994,18.481058,-497,29881,27.4717,4020,980
0.625305,21.037217,-496,29882,27.621,4020,980
1.06082,24.631599,-495,29883,27.621,4024,975
0.625305,24.925371,-494,29884,27.4717,4024,975
0.884315,25.776499,-493,29885,27.7704,4024,975
0.995902,27.963961,-492,29886,27.3223,4024,975
0.710948,29.844631,-491,29887,27.4717,4024,975
2.23332,32.739658,-490,29888,27.4717,4024,975
1.10485,36.423826,-489,29889,27.621,4024,975
0.365396,37.584575,-488,29890,27.4219,4024,975
1.07865,39.706454,-487,29891,27.4219,4024,975
1.83219,40.736749,-486,29892,27.3223,4024,975
1.10916,41.822223,-485,29893,27.5713,4024,975
0.900346,45.746572,-484,29894,27.4219,4024,975
1.33543,46.806603,-483,29895,27.4219,4024,975
0.845728,48.004684,-482,29896,27.4219,4024,975
1.3102,51.705676,-481,29897,27.4219,4024,975
1.33185,53.418002,-480,29898,27.4219,4024,975
0.625305,54.263103,-479,29899,27.621,4024,975
0.625305,59.613572,-478,29900,27.7704,4024,975
0.85693,62.920704,-477,29901,27.4717,4024,975
1.20794,62.384618,-476,29902,27.4219,4024,975
1.50022,62.36921,-475,29903,27.4219,4030,973
0.840071,67.036166,-474,29904,27.8202,4030,973
1.53168,70.01198,-473,29905,27.4717,4030,973
0.98628,64.562387,-472,29906,27.4717,4030,973
0.534885,65.113042,-471,29907,27.4717,4030,973
0.458048,67.374077,-470,29908,27.621,4030,973
0.601994,61.041504,-469,29909,27.3223,4030,973
0.840071,53.662365,-468,29910,27.4219,4030,973
0.966748,49.106415,-467,29911,27.6708,4030,973
1.05631,47.078486,-466,29912,27.3223,4030,973
0.41432,50.508795,-465,29913,27.621,4030,973
1.31383,54.401604,-464,29914,27.5713,4030,973
1.32827,51.103158,-463,29915,27.5713,4030,973
1.60466,50.867594,-462,29916,27.4717,4030,973
1.79007,52.187593,-461,29917,27.3223,4030,973
1.44518,48.947912,-460,29918,27.621,4030,973
0.981433,44.222656,-459,29919,27.5713,4030,973
1.51917,45.698665,-458,29920,27.5713,4030,973
1.87592,46.858149,-457,29921,27.4717,4030,973
1.1596,41.020348,-456,29922,27.4717,4030,973
0.683594,42.063807,-455,29923,27.3223,4039,971
0.961803,38.716308,-454,29924,27.4219,4039,971
1.08306,40.780438,-453,29925,27.621,4039,971
1.30655,40.324057,-452,29926,27.4717,4039,971
1.23912,38.159031,-451,29927,27.621,4039,971
0.436732,38.896398,-450,29928,27.4717,4039,971
1.5987,37.444558,-449,29929,27.5713,4039,971
1.17998,34.954126,-448,29930,27.4219,4039,971
1.59572,33.141584,-447,29931,27.621,4039,971
2.53718,30.803591,-446,29932,27.2726,4039,971
1.86827,30.962576,-445,29933,27.4717,4045,969
1.88099,29.272705,-444,29934,27.4717,4045,969
1.9798,32.666755,-443,29935,27.4219,4045,969
1.31745,32.719398,-442,29936,27.5713,4045,969
1.05631,25.005948,-441,29937,27.4717,4045,969
1.70829,17.501665,-440,29938,27.621,4045,969
1.49385,16.412443,-439,29939,27.5713,4045,969
0.690534,23.07807,-438,29940,27.4717,4045,969
1.05179,25.906818,-437,29941,27.5713,4045,969
1.37067,21.684924,-436,29942,27.621,4045,969
1.19604,17.30387,-435,29943,27.4219,4045,969
2.22262,16.326876,-434,29944,27.4717,4045,969
1.94088,18.782571,-433,29945,27.5713,4045,969
1.21188,21.496163,-432,29946,27.4717,4045,969
1.40163,24.021192,-431,29947,27.4219,4045,969
1.54717,24.458882,-430,29948,27.4717,4045,969
1.37415,25.227241,-429,29949,27.621,4045,969
0.717624,26.462524,-428,29950,27.4219,4045,969
1.40163,29.431352,-427,29951,27.4219,4045,969
1.38796,32.191633,-426,29952,27.4717,4045,969
1.4681,34.892684,-425,29953,27.4219,4044,966
0.834375,38.320941,-424,29954,27.4717,4044,966
1.85804,41.006541,-423,29955,27.3223,4044,966
1.69708,43.295227,-422,29956,27.2228,4044,966
2.12164,46.026012,-421,29957,27.4717,4044,966
0.98628,48.686624,-420,29958,27.621,4044,966
1.70829,51.204531,-419,29959,27.6708,4044,966
1.37415,53.919854,-418,29960,27.4219,4044,966
2.08994,56.518818,-417,29961,27.4219,4044,966
0.905627,58.54961,-416,29962,27.4219,4044,966
2.0156,60.34695,-415,29963,27.3223,4044,966
1.25442,61.512295,-414,29964,27.4717,4044,966
1.58673,62.508702,-413,29965,27.4717,4044,966
1.52856,62.858626,-412,29966,27.3223,4044,966
0.878906,63.263992,-411,29967,27.621,4044,966
1.07422,63.22382,-410,29968,27.621,4044,966
0.981433,62.569699,-409,29969,27.3223,4044,966
1.17998,62.36694,-408,29970,27.7704,4044,966
1.62239,61.575489,-407,29971,27.3223,4044,966
0.862477,59.71759,-406,29972,27.3223,4044,966
0.447517,57.148726,-405,29973,27.6708,4044,967
1.89865,55.345797,-404,29974,27.5713,4044,967
0.41432,54.701258,-403,29975,27.5713,4044,967
1.11773,53.441987,-402,29976,27.4219,4044,967
1.08306,50.061331,-401,29977,27.5713,4044,967
0.323889,45.479342,-400,29978,27.3223,4044,967
1.96529,42.654798,-399,29979,27.5713,4044,967
1.68298,42.483976,-398,29980,27.4717,4044,967
1.36019,43.879141,-397,29981,27.7704,4044,967
1.34255,44.094764,-396,29982,27.5713,4044,967
0.961803,44.035586,-395,29983,27.4219,4051,963
1.45176,45.501453,-394,29984,27.5713,4051,963
1.23912,47.202871,-393,29985,27.4717,4051,963
1.07422,47.799374,-392,29986,27.3223,4051,963
1.40163,48.533197,-391,29987,27.3223,4051,963
1.19604,49.848051,-390,29988,27.6708,4051,963
0.889691,51.560223,-389,29989,27.7704,4051,963
1.16371,53.262118,-388,29990,27.4717,4051,963
0.169146,53.753368,-387,29991,27.621,4051,963
1.41854,53.642229,-386,29992,27.4219,4051,963
0.662337,54.836751,-385,29993,27.5713,4051,963
0.78733,50.556271,-384,29994,27.3223,4051,963
1.37415,47.147594,-383,29995,27.4219,4051,963
0.585938,47.58582,-382,29996,27.621,4051,963
2.51832,47.264547,-381,29997,27.3223,4051,963
1.09619,43.525043,-380,29998,27.4219,4051,963
1.32467,40.253599,-379,29999,27.5713,4051,963
0.85693,38.434512,-378,30000,27.4219,4051,963
1.64283,35.658742,-377,30001,27.5713,4051,963
2.46473,33.082856,-376,30002,27.4717,4051,963
1.22752,29.451597,-375,30003,27.4717,4063,965
1.49385,27.464193,-374,30004,27.4219,4063,965
1.40163,25.607431,-373,30005,27.4717,4063,965
0.560992,23.1625,-372,30006,27.4717,4063,965
2.46086,19.883227,-371,30007,27.5713,4063,965
1.37067,17.295688,-370,30008,27.5713,4063,965
1.32827,15.307539,-369,30009,27.4717,4063,965
0.845728,14.777064,-368,30010,27.4717,4063,965
0.926449,16.317746,-367,30011,27.5713,4063,965
1.20794,17.762384,-366,30012,27.4717,4063,965
1.18402,18.433021,-365,30013,27.5713,4063,965
1.59273,19.957656,-364,30014,27.4219,4063,965
1.36719,21.580222,-363,30015,27.4717,4063,965
2.44921,24.473499,-362,30016,27.2726,4063,965
0.690534,29.537989,-361,30017,27.2228,4063,965
0.625305,34.669903,-360,30018,27.4717,4063,965
0.497951,37.297824,-359,30019,27.5713,4063,965
1.32827,37.341147,-358,30020,27.621,4063,965
0.966748,37.202618,-357,30021,27.5713,4063,965
0.683594,38.358059,-356,30022,27.4717,4063,965
1.54408,40.181164,-355,30023,27.3223,4067,960
0.961803,40.301879,-354,30024,27.4717,4067,960
0.981433,38.527448,-353,30025,27.4219,4067,960
1.17998,35.808448,-352,30026,27.5713,4067,960
0.683594,32.511521,-351,30027,27.3223,4067,960
0.497951,29.233228,-350,30028,27.3223,4067,960
1.3029,25.621974,-349,30029,27.4717,4067,960
1.14304,21.082854,-348,30030,27.5713,4067,960
1.78206,17.174647,-347,30031,27.4717,4067,960
0.78733,15.100251,-346,30032,27.5713,4067,960
0.889691,14.667753,-345,30033,27.4717,4068,958
1.94824,15.071111,-344,30034,27.5713,4068,958
0.59402,15.002734,-343,30035,27.4717,4068,958
0.601994,14.62655,-342,30036,27.4219,4068,958
0.895034,16.362887,-341,30037,27.5713,4068,958
0.85693,19.388055,-340,30038,27.3223,4068,958
0.662337,22.391169,-339,30039,27.6708,4068,958
1.09619,24.86162,-338,30040,27.4717,4068,958
0.717624,26.031333,-337,30041,27.4219,4068,958
0.85693,28.297942,-336,30042,27.621,4068,958
0.811194,31.139895,-335,30043,27.621,4068,958
0.218366,32.317755,-334,30044,27.5713,4068,958
1.44188,33.399562,-333,30045,27.4717,4068,958
1.30655,34.331719,-332,30046,27.5713,4068,958
0.647778,35.232673,-331,30047,27.5713,4068,958
1.39139,35.800956,-330,30048,27.3223,4068,958
2.05078,36.272347,-329,30049,27.3223,4068,958
3.03364,36.836322,-328,30050,27.6708,4068,958
1.02423,37.297824,-327,30051,27.4219,4068,958
1.55638,37.692261,-326,30052,27.4717,4068,958
0.632885,38.186552,-325,30053,27.5713,4068,960
1.19604,39.031016,-324,30054,27.5713,4068,960
0.971667,39.440614,-323,30055,27.5713,4068,960
0.730792,39.693317,-322,30056,27.4219,4068,960
0.931581,41.949938,-321,30057,27.5713,4068,960
1.61355,44.270646,-320,30058,27.5713,4068,960
1.26953,44.645704,-319,30059,27.621,4068,960
1.47781,45.414422,-318,30060,27.621,4068,960
0.981433,47.383727,-317,30061,27.4219,4068,960
0.981433,48.774843,-316,30062,27.3223,4068,960
0.926449,49.902875,-315,30063,27.5713,4068,960
1.52231,51.856038,-314,30064,27.3223,4068,960
1.16371,52.984141,-313,30065,27.5713,4068,960
1.52231,54.56816,-312,30066,27.3223,4068,960
2.25034,56.035725,-311,30067,27.4717,4068,960
0.710948,57.255792,-310,30068,27.4219,4068,960
1.06977,57.581357,-309,30069,27.4717,4068,960
1.17594,57.474639,-308,30070,27.4219,4068,960
0.525895,58.540956,-307,30071,27.621,4068,960
1.68298,58.37629,-306,30072,27.4717,4068,960
1.00068,58.052873,-305,30073,27.621,4065,951
1.14304,58.42477,-304,30074,27.4219,4065,951
1.81125,59.097666,-303,30075,27.5713,4065,951
1.48103,59.249389,-302,30076,27.4717,4065,951
0.811194,58.676217,-301,30077,27.4717,4065,951
1.63702,58.251206,-300,30078,27.5713,4065,951
1.32467,57.719124,-299,30079,27.3223,4065,951
0.981433,56.5291,-298,30080,27.4717,4065,951
1.58673,55.844333,-297,30081,27.5713,4065,951
0.683594,54.538387,-296,30082,27.4717,4065,951
1.61355,53.12822,-295,30083,27.621,4058,951
1.3461,51.376667,-294,30084,27.6708,4058,951
1.14304,48.947151,-293,30085,27.4717,4058,951
2.64575,46.987716,-292,30086,27.5713,4058,951
1.17594,48.17588,-291,30087,27.3223,4058,951
0.239208,49.057688,-290,30088,27.3223,4058,951
2.19672,46.820927,-289,30089,27.6708,4058,951
1.39822,44.201422,-288,30090,27.621,4058,951
2.05078,44.882218,-287,30091,27.4717,4058,951
1.06082,48.687695,-286,30092,27.3223,4058,951
1.3029,50.544333,-285,30093,27.5713,4058,948
0.697405,48.683563,-284,30094,27.621,4058,948
1.26953,46.052229,-283,30095,27.5713,4058,948
1.32827,45.343987,-282,30096,27.621,4058,948
1.80334,47.986832,-281,30097,27.5713,4058,948
0.750112,51.550396,-280,30098,27.621,4058,948
1.45176,50.410605,-279,30099,27.4219,4058,948
1.28817,46.784313,-278,30100,27.4219,4058,948
0.534885,45.350559,-277,30101,27.5713,4058,948
1.15135,46.90249,-276,30102,27.6708,4058,948
0.497951,46.68611,-275,30103,27.3223,4059,945
0.768946,46.449959,-274,30104,27.5713,4059,945
0.966748,46.457979,-273,30105,27.4717,4059,945
0.41432,46.003667,-272,30106,27.4717,4059,945
2.06237,46.10591,-271,30107,27.3223,4059,945
0.981433,45.963809,-270,30108,27.621,4059,945
0.488281,45.63226,-269,30109,27.5713,4059,945
1.84516,45.01499,-268,30110,27.4219,4059,945
0.862477,45.203776,-267,30111,27.4717,4059,945
1.28447,44.616657,-266,30112,27.5713,4059,945
1.12198,43.935987,-265,30113,27.4219,4059,945
0.488281,42.234211,-264,30114,27.4219,4059,945
2.06006,40.507852,-263,30115,27.4219,4059,945
1.18402,39.698384,-262,30116,27.4219,4059,945
1.73047,40.235271,-261,30117,27.4219,4059,945
1.32467,38.987087,-260,30118,27.4717,4059,945
1.67446,35.159005,-259,30119,27.5713,4059,945
1.28817,31.731942,-258,30120,27.4219,4059,945
0.525895,33.182025,-257,30121,27.621,4059,945
0.941763,37.428637,-256,30122,27.4219,4059,945
1.96529,38.018191,-255,30123,27.621,4066,941
0.525895,36.725113,-254,30124,27.621,4066,941
0.625305,35.781597,-253,30125,27.7704,4066,941
1.4219,34.977778,-252,30126,27.4717,4066,941
1.16371,35.083696,-251,30127,27.4717,4066,941
1.02423,38.123675,-250,30128,27.621,4066,941
1.69708,39.098723,-249,30129,27.621,4066,941
0.895034,35.937011,-248,30130,27.4717,4066,941
1.05631,32.405702,-247,30131,27.3223,4066,941
0.862477,32.418575,-246,30132,27.3223,4066,941
0.966748,33.484,-245,30133,27.621,4066,941
0.768946,34.622162,-244,30134,27.621,4066,941
0.625305,32.430524,-243,30135,27.7704,4066,941
1.09619,30.098193,-242,30136,27.4219,4066,941
1.54717,29.468542,-241,30137,27.4717,4066,941
0.85693,33.375461,-240,30138,27.3223,4066,941
0.717624,39.303987,-239,30139,27.6708,4066,941
0.961803,43.591751,-238,30140,27.4717,4066,941
0.655098,42.756162,-237,30141,27.4717,4066,941
1.22752,39.840017,-236,30142,27.6708,4066,941
0.905627,39.252961,-235,30143,27.4717,4074,941
1.52856,42.582947,-234,30144,27.6708,4074,941
0.625305,46.455734,-233,30145,27.4219,4074,941
0.900346,48.845975,-232,30146,27.4219,4074,941
2.40203,49.794215,-231,30147,27.5713,4074,941
0.497951,50.536815,-230,30148,27.7704,4074,941
1.37415,55.759415,-229,30149,27.5713,4074,941
0.662337,57.039893,-228,30150,27.4717,4074,941
1.33185,56.422108,-227,30151,27.4717,4074,941
3.63696,58.107777,-226,30152,27.4219,4074,941
0.697405,66.113556,-225,30153,27.3223,4082,932
1.89362,67.94888,-224,30154,27.3223,4082,932
0.710948,64.818991,-223,30155,27.5713,4082,932
1.24296,69.073462,-222,30156,27.4717,4082,932
0.218366,76.18234,-221,30157,27.5713,4082,932
1.57769,82.271134,-220,30158,27.5713,4082,932
0.632885,83.109087,-219,30159,27.621,4082,932
0.768946,80.344896,-218,30160,27.5713,4082,932
1.02423,80.524318,-217,30161,27.621,4082,932
1.15135,80.871835,-216,30162,27.5713,4082,932
1.20399,78.880472,-215,30163,27.4219,4082,932
1.26577,75.32312,-214,30164,27.4219,4082,932
1.27328,71.477771,-213,30165,27.5713,4082,932
1.36019,70.366415,-212,30166,27.4219,4082,932
2.04146,67.017046,-211,30167,27.4717,4082,932
1.24296,62.433804,-210,30168,27.621,4082,932
2.65474,60.141282,-209,30169,27.6708,4082,932
1.49385,59.856042,-208,30170,27.4717,4082,932
1.25821,59.515881,-207,30171,27.4219,4082,932
0.683594,57.637227,-206,30172,27.5713,4082,932
0.750112,53.790502,-205,30173,27.621,4102,936
1.09183,50.919857,-204,30174,27.621,4102,936
1.3029,52.154318,-203,30175,27.6708,4102,936
1.21188,57.22312,-202,30176,27.4717,4102,936
1.21188,55.262135,-201,30177,27.4717,4102,936
0.365396,49.794065,-200,30178,27.5713,4102,936
1.28447,50.852359,-199,30179,27.621,4102,936
0.560992,55.381459,-198,30180,27.5713,4102,936
0.941763,62.103684,-197,30181,27.4219,4102,936
0.805294,65.428093,-196,30182,27.4219,4102,936
0.625305,65.438113,-195,30183,27.3223,4102,936
1.28817,69.203102,-194,30184,27.4219,4102,936
2.53342,70.893641,-193,30185,27.4717,4102,936
0.768946,73.226011,-192,30186,27.5713,4102,936
1.90617,71.407377,-191,30187,27.4219,4102,936
0.840071,67.492079,-190,30188,27.5713,4102,936
1.22752,78.851469,-189,30189,27.4219,4102,936
1.26953,91.558349,-188,30190,27.5713,4102,936
1.06082,90.10443,-187,30191,27.4717,4102,936
1.21188,88.492473,-186,30192,27.621,4102,936
1.4118,89.60676,-185,30193,27.3223,4113,931
0.941763,84.465335,-184,30194,27.3223,4113,931
0.640375,94.815635,-183,30195,27.4219,4113,931
1.80334,100.80746,-182,30196,27.621,4113,931
1.66016,91.836961,-181,30197,27.3223,4113,931
1.55332,87.879604,-180,30198,27.5713,4113,931
1.9798,95.343557,-179,30199,27.4717,4113,931
1.19205,102.85436,-178,30200,27.6708,4113,931
1.11773,104.24111,-177,30201,27.4219,4113,931
1.4118,104.03578,-176,30202,27.5713,4113,931
1.53789,101.28203,-175,30203,27.621,4127,922
1.09619,98.609317,-174,30204,27.7704,4127,922
1.14304,104.99998,-173,30205,27.4717,4127,922
1.67161,105.05291,-172,30206,27.3223,4127,922
1.67161,95.394415,-171,30207,27.621,4127,922
1.90617,86.94586,-170,30208,27.621,4127,922
0.981433,85.376731,-169,30209,27.5713,4127,922
0.534885,95.211479,-168,30210,27.621,4127,922
1.28447,106.04208,-167,30211,27.3223,4127,922
1.31745,103.34757,-166,30212,27.621,4127,922
0.840071,86.980045,-165,30213,27.4717,4127,922
1.62532,77.649577,-164,30214,27.4717,4127,922
0.78733,80.451097,-163,30215,27.4219,4127,922
1.26577,87.214689,-162,30216,27.4717,4127,922
2.0716,90.011689,-161,30217,27.4717,4127,922
1.09619,84.454485,-160,30218,27.5713,4127,922
1.30655,79.169539,-159,30219,27.4717,4127,922
1.00543,78.892089,-158,30220,27.5713,4127,922
0.878906,78.709703,-157,30221,27.621,4127,922
2.44336,77.649481,-156,30222,27.621,4127,922
1.85804,76.821807,-155,30223,27.5713,4109,919
1.24296,74.305534,-154,30224,27.5713,4109,919
1.4118,72.106366,-153,30225,27.4219,4109,919
0.704209,70.907933,-152,30226,27.3223,4109,919
1.57769,70.616278,-151,30227,27.4717,4109,919
1.76323,68.800998,-150,30228,27.5713,4109,919
1.42525,66.323846,-149,30229,27.5713,4109,919
2.06237,66.41444,-148,30230,27.4717,4109,919
0.717624,64.730308,-147,30231,27.5713,4109,919
2.03444,62.997862,-146,30232,27.5713,4109,919
2.14622,64.077729,-145,30233,27.4717,4109,919
1.19604,66.466921,-144,30234,27.4717,4109,919
0.239208,63.98406,-143,30235,27.4717,4109,919
1.28817,60.584272,-142,30236,27.4717,4109,919
1.55638,62.059159,-141,30237,27.621,4109,919
1.5034,65.729168,-140,30238,27.5713,4109,919
1.39822,66.83815,-139,30239,27.4717,4109,919
1.60168,64.346109,-138,30240,27.3223,4109,919
0.98628,61.765769,-137,30241,27.621,4109,919
0.834375,61.808335,-136,30242,27.3223,4109,919
1.5034,64.078543,-135,30243,27.5713,4093,913
1.96529,65.771548,-134,30244,27.5713,4093,913
2.0156,65.822164,-133,30245,27.3223,4093,913
0.878906,65.549598,-132,30246,27.5713,4093,913
1.63702,65.579939,-131,30247,27.621,4093,913
1.23912,66.063388,-130,30248,27.4219,4093,913
1.11773,68.441505,-129,30249,27.4219,4093,913
1.4118,68.910502,-128,30250,27.5713,4093,913
1.12198,69.261323,-127,30251,27.4717,4093,913
1.22363,72.767218,-126,30252,27.4717,4093,913
1.02423,76.028346,-125,30253,27.4717,4088,905
1.66303,75.832098,-124,30254,27.4219,4088,905
1.24296,79.648049,-123,30255,27.6708,4088,905
1.34255,85.153734,-122,30256,27.4219,4088,905
1.6165,86.167721,-121,30257,27.621,4088,905
1.04725,86.803752,-120,30258,27.5713,4088,905
0.840071,89.583726,-119,30259,27.4717,4088,905
1.66589,90.650584,-118,30260,27.4219,4088,905
1.32827,89.69801,-117,30261,27.621,4088,905
1.80334,90.537256,-116,30262,27.4717,4088,905
1.64283,94.354666,-115,30263,27.4717,4088,905
1.33185,96.280362,-114,30264,27.4717,4088,905
1.58673,95.885434,-113,30265,27.4717,4088,905
1.0381,97.953877,-112,30266,27.6708,4088,905
1.66589,97.439717,-111,30267,27.4717,4088,905
1.30655,96.368849,-110,30268,27.5713,4088,905
1.85804,95.515242,-109,30269,27.5713,4088,905
4.80207,97.092642,-108,30270,27.4219,4088,905
2.3539,101.15395,-107,30271,27.4717,4088,905
0.625305,101.78424,-106,30272,27.4219,4088,905
1.63702,91.194449,-105,30273,27.621,4115,893
1.60466,73.194361,-104,30274,27.4219,4115,893
1.25442,69.760273,-103,30275,27.3223,4115,893
2.0693,71.498824,-102,30276,27.4717,4115,893
1.1472,71.66068,-101,30277,27.621,4115,893
2.15951,72.182479,-100,30278,27.4717,4115,893
1.93596,73.09576,-99,30279,27.7704,4115,893
2.23545,78.166664,-98,30280,27.621,4115,893
2.23118,79.978788,-97,30281,27.621,4115,893
1.70829,81.570466,-96,30282,27.3223,4115,893
1.34255,81.009634,-95,30283,27.6708,4115,893
1.06082,82.342194,-94,30284,27.3223,4115,893
1.19604,85.837913,-93,30285,27.5713,4115,893
1.1472,85.281032,-92,30286,27.4717,4115,893
2.98451,83.928112,-91,30287,27.4717,4115,893
0.811194,85.023178,-90,30288,27.4717,4115,893
0.98628,84.898301,-89,30289,27.621,4115,893
0.931581,82.288973,-88,30290,27.4717,4115,893
1.20399,79.506392,-87,30291,27.4219,4115,893
1.14304,77.424726,-86,30292,27.621,4115,893
1.22752,74.769636,-85,30293,27.4717,4143,887
1.01487,70.222267,-84,30294,27.621,4143,887
1.44188,64.487448,-83,30295,27.621,4143,887
1.27702,60.898529,-82,30296,27.3223,4143,887
1.10916,60.608494,-81,30297,27.621,4143,887
1.05631,62.087006,-80,30298,27.4717,4143,887
0.717624,61.710859,-79,30299,27.3223,4143,887
1.64863,60.450939,-78,30300,27.4717,4143,887
1.25821,59.981879,-77,30301,27.621,4143,887
0.921287,60.504899,-76,30302,27.621,4143,887
1.53789,59.413391,-75,30303,27.4717,4172,881
0.921287,56.523827,-74,30304,27.5713,4172,881
1.11773,54.552593,-73,30305,27.3223,4172,881
2.29648,54.745371,-72,30306,27.4717,4172,881
1.23912,55.763023,-71,30307,27.4717,4172,881
0.98628,56.465272,-70,30308,27.5713,4172,881
1.82698,60.115756,-69,30309,27.621,4172,881
0.793363,64.892973,-68,30310,27.4717,4172,881
1.3029,71.279551,-67,30311,27.3223,4172,881
1.31745,79.749667,-66,30312,27.4717,4172,881
1.32827,84.625107,-65,30313,27.5713,4172,881
0.971667,81.533466,-64,30314,27.4219,4172,881
1.71386,75.331231,-63,30315,27.4717,4172,881
1.6165,74.338315,-62,30316,27.4717,4172,881
1.19604,75.452094,-61,30317,27.5713,4172,881
0.625305,77.214949,-60,30318,27.4219,4172,881
1.15135,81.956466,-59,30319,27.4219,4172,881
0.98628,89.262367,-58,30320,27.4717,4172,881
1.34255,95.398554,-57,30321,27.5713,4172,881
1.56859,103.13735,-56,30322,27.621,4172,881
0.921287,114.201,-55,30323,27.5713,4190,872
1.97498,128.14807,-54,30324,27.621,4190,872
1.73047,146.59364,-53,30325,27.4219,4190,872
1.0381,155.41608,-52,30326,27.4219,4190,872
2.77591,152.2963,-51,30327,27.4717,4190,872
0.895034,154.87644,-50,30328,27.5713,4190,872
0.497951,166.62115,-49,30329,27.4219,4190,872
1.19604,176.76915,-48,30330,27.4219,4190,872
0.534885,182.55884,-47,30331,27.4717,4190,872
1.26577,187.06781,-46,30332,27.4717,4190,872
1.25061,192.8245,-45,30333,27.6708,4190,872
1.02423,195.0169,-44,30334,27.4717,4190,872
1.27702,192.37387,-43,30335,27.4717,4190,872
0.601994,183.33124,-42,30336,27.3223,4190,872
0.218366,173.67731,-41,30337,27.4717,4190,872
0.497951,174.43455,-40,30338,27.5713,4190,872
0.717624,192.51943,-39,30339,27.621,4190,872
0.690534,217.27946,-38,30340,27.4717,4190,872
1.09183,234.82702,-37,30341,27.4717,4190,872
0.811194,243.12,-36,30342,27.4219,4190,872
0.41432,257.15698,-35,30343,27.8202,4170,870
2.03678,277.80449,-34,30344,27.2228,4170,870
1.48103,279.51599,-33,30345,27.3223,4170,870
1.28447,252.2564,-32,30346,27.4717,4170,870
1.63702,230.57596,-31,30347,27.4717,4170,870
1.02423,234.27793,-30,30348,27.4717,4170,870
0.971667,240.12053,-29,30349,27.4717,4170,870
1.10916,233.45465,-28,30350,27.4717,4170,870
0.655098,233.86897,-27,30351,27.6708,4170,870
0.365396,251.96717,-26,30352,27.6708,4170,870
0.276214,286.12068,-25,30353,27.621,4157,870
2.17052,324.6722,-24,30354,27.4219,4157,870
1.41854,359.00036,-23,30355,27.7704,4157,870
1.82698,388.99949,-22,30356,27.3223,4157,870
2.02504,425.83824,-21,30357,27.5713,4157,870
1.52544,468.09526,-20,30358,27.5713,4157,870
1.38796,509.45641,-19,30359,27.4219,4157,870
1.33185,540.45242,-18,30360,27.621,4157,870
1.04268,555.64328,-17,30361,27.4717,4157,870
1.71386,558.28641,-16,30362,27.621,4157,870
1.37415,588.48668,-15,30363,27.5713,4157,844
2.78106,665.79321,-14,30364,27.4717,4157,844
4.37387,778.25163,-13,30365,27.621,4157,844
5.24897,769.05884,-12,30366,27.4717,4157,844
5.95463,511.36676,-11,30367,27.3223,4157,844
6.06885,470.70775,-10,30368,27.4219,4157,844
5.35331,525.60493,-9,30369,27.3223,4157,844
4.91978,531.27515,-8,30370,27.621,4157,844
5.58095,550.62027,-7,30371,27.4717,4157,844
4.02292,551.47432,-6,30372,27.2228,4157,844
3.69161,576.61009,-5,30373,27.4717,4290,790
3.03364,624.57654,-4,30374,27.621,4290,790
2.69397,679.76543,-3,30375,27.4717,4290,790
2.05543,754.17139,-2,30376,27.4717,4290,790
12.8265,843.51795,-1,30377,27.6708,4290,790
20.5761,1033.6704,0,30378,27.4717,4290,790
8.15006,1007.6721,1,30379,27.621,4290,790
3.48429,650.35467,2,30380,27.3223,4290,790
2.9909,645.1315,3,30381,27.4717,4290,790
2.86717,510.37224,4,30382,27.4219,4290,790
2.31303,331.83402,5,30383,27.4219,4290,790
1.96287,370.85833,6,30384,27.7704,4290,790
2.42573,93.656573,7,30385,27.7704,4290,790
1.27328,704.66153,8,30386,27.3223,4290,790
0.737289,1011.2431,9,30387,27.4717,4290,790
1.54099,835.65236,10,30388,27.5713,4290,790
0.981433,529.22942,11,30389,27.621,4290,790
1.45505,438.06998,12,30390,27.6708,4290,790
1.78206,571.1526,13,30391,27.5713,4290,790
2.93781,640.89296,14,30392,27.4717,4290,790
1.60466,666.44531,15,30393,27.4717,4227,823
1.3637,925.02168,16,30394,27.4717,4227,823
1.67446,1000.0398,17,30395,27.4717,4227,823
1.36019,909.57355,18,30396,27.5713,4227,823
1.05179,837.50025,19,30397,27.5713,4227,823
1.06977,804.0383,20,30398,27.6708,4227,823
2.36804,792.11129,21,30399,27.3223,4227,823
2.08079,759.72628,22,30400,27.5713,4227,823
2.01324,686.93173,23,30401,27.5713,4227,823
3.03049,605.5041,24,30402,27.4219,4227,823
2.73612,530.3637,25,30403,27.4219,4227,823
3.83355,452.36626,26,30404,27.5713,4227,823
4.00867,374.27375,27,30405,27.4219,4227,823
4.49749,305.09581,28,30406,27.4219,4227,823
3.56947,292.47071,29,30407,27.5713,4227,823
2.85384,307.55784,30,30408,27.621,4227,823
3.78347,284.9563,31,30409,27.5713,4227,823
4.08175,302.32982,32,30410,27.4219,4227,823
3.36312,286.01504,33,30411,27.4717,4227,823
3.86822,237.34845,34,30412,27.3223,4227,823
3.84969,207.65524,35,30413,27.3223,3995,848
3.78095,165.10383,36,30414,27.5713,3995,848
3.6304,112.29182,37,30415,27.4717,3995,848
3.77337,87.996525,38,30416,27.5713,3995,848
2.88375,103.24024,39,30417,27.4717,3995,848
3.23005,122.23384,40,30418,27.3223,3995,848
2.86717,130.65436,41,30419,27.4219,3995,848
2.9717,135.22724,42,30420,27.4717,3995,848
3.82484,144.72047,43,30421,27.4717,3995,848
2.06237,158.05032,44,30422,27.4717,3995,848
3.19442,166.54404,45,30423,27.3223,3950,864
3.12195,178.1941,46,30424,27.5713,3950,864
2.48016,202.69973,47,30425,27.4219,3950,864
2.6922,228.37362,48,30426,27.4219,3950,864
3.1097,253.9319,49,30427,27.621,3950,864
3.12805,276.41822,50,30428,27.4219,3950,864
1.96044,298.87514,51,30429,27.621,3950,864
2.77247,322.55638,52,30430,27.6708,3950,864
4.40429,348.08388,53,30431,27.3223,3950,864
3.05556,374.36632,54,30432,27.4717,3950,864
2.97651,399.37397,55,30433,27.5713,3950,864
4.00986,422.01234,56,30434,27.5713,3950,864
2.70104,442.0855,57,30435,27.3223,3950,864
3.02892,455.61301,58,30436,27.4717,3950,864
2.91827,468.5948,59,30437,27.5713,3950,864
2.89201,482.68968,60,30438,27.621,3950,864
2.23972,488.76383,61,30439,27.621,3950,864
1.79539,489.81808,62,30440,27.4717,3950,864
2.15951,505.47649,63,30441,27.4717,3950,864
1.75238,542.95784,64,30442,27.3223,3950,864
1.51603,587.88908,65,30443,27.5713,3956,894
2.63129,620.02506,66,30444,27.5713,3956,894
1.20399,627.02883,67,30445,27.3223,3956,894
1.79804,623.70204,68,30446,27.5713,3956,894
1.38452,640.88618,69,30447,27.4717,3956,894
2.02504,675.96285,70,30448,27.621,3956,894
2.03678,693.76078,71,30449,27.8202,3956,894
1.66303,677.80875,72,30450,27.4219,3956,894
2.74308,647.83952,73,30451,27.3223,3956,894
2.24822,629.51943,74,30452,27.621,3956,894
1.77132,635.43476,75,30453,27.4219,3956,894
0.981433,667.25073,76,30454,27.4717,3956,894
2.11037,702.09981,77,30455,27.4717,3956,894
1.07865,716.67805,78,30456,27.4717,3956,894
2.27352,704.9773,79,30457,27.3223,3956,894
1.46484,682.53882,80,30458,27.4219,3956,894
0.690534,667.69816,81,30459,27.621,3956,894
0.926449,671.15482,82,30460,27.3223,3956,894
0.447517,690.60981,83,30461,27.4717,3956,894
2.3539,701.08,84,30462,27.621,3956,894
1.47134,687.51765,85,30463,27.621,4014,968
1.51603,666.88991,86,30464,27.621,4014,968
1.68863,658.40894,87,30465,27.621,4014,968
2.06237,659.80247,88,30466,27.4717,4014,968
1.23912,657.22382,89,30467,27.621,4014,968
2.42573,643.09243,90,30468,27.5713,4014,968
1.66875,624.0168,91,30469,27.5713,4014,968
1.86827,610.19852,92,30470,27.4717,4014,968
1.00068,598.83699,93,30471,27.4219,4014,968
2.26512,581.30178,94,30472,27.4219,4014,968
1.97739,557.92001,95,30473,27.4717,3975,1093
1.11773,535.00985,96,30474,27.621,3975,1093
1.4118,515.42456,97,30475,27.4219,3975,1093
1.44518,495.49825,98,30476,27.621,3975,1093
1.78473,467.38875,99,30477,27.5713,3975,1093
1.21188,433.75327,100,30478,27.4219,3975,1093
