Linear acceleration,Rotational velocity,Time values,Absolute time values,Temperature,Ambient light,Reflected light
1.13045,14.65301,-2000,88798,30.0106,4800,1533
1.81125,14.58779,-1999,88799,29.9608,4800,1533
1.96287,14.61993,-1998,88800,29.9608,4800,1533
1.64863,14.63521,-1997,88801,30.0604,4800,1533
1.49066,14.67182,-1996,88802,30.0106,4800,1533
0.78733,14.62197,-1995,88803,29.8114,4813,1555
1.50657,14.76849,-1994,88804,29.8114,4813,1555
1.84774,14.55353,-1993,88805,30.0106,4813,1555
3.64482,14.69211,-1992,88806,29.8612,4813,1555
2.19672,14.73617,-1991,88807,29.9608,4813,1555
1.24296,14.57194,-1990,88808,30.1599,4813,1555
1.10916,14.65251,-1989,88809,29.8612,4813,1555
1.93596,14.6184,-1988,88810,29.8114,4813,1555
1.96287,14.60208,-1987,88811,30.0106,4813,1555
1.44188,14.47138,-1986,88812,29.9608,4813,1555
1.28817,14.40326,-1985,88813,29.9608,4819,1544
2.48016,14.47344,-1984,88814,30.0604,4819,1544
2.32946,14.68704,-1983,88815,29.9608,4819,1544
2.78106,14.53662,-1982,88816,29.9608,4819,1544
2.62766,14.42084,-1981,88817,29.9608,4819,1544
2.14844,14.66928,-1980,88818,30.0106,4819,1544
1.05631,14.75133,-1979,88819,29.9608,4819,1544
1.80334,14.66928,-1978,88820,29.8612,4819,1544
1.09183,14.43788,-1977,88821,30.0106,4819,1544
2.25457,14.42136,-1976,88822,29.9608,4819,1544
1.86827,14.55353,-1975,88823,29.9608,4795,1538
0.690534,14.68704,-1974,88824,29.8612,4795,1538
1.09619,14.44046,-1973,88825,30.0106,4795,1538
3.89157,14.49042,-1972,88826,30.0604,4795,1538
2.03444,14.5566,-1971,88827,29.9608,4795,1538
1.69427,14.71846,-1970,88828,30.0106,4795,1538
1.80334,14.40326,-1969,88829,29.9608,4795,1538
1.76323,14.45644,-1968,88830,30.0106,4795,1538
2.16171,14.53662,-1967,88831,29.8612,4795,1538
2.0716,14.78513,-1966,88832,30.0604,4795,1538
1.81651,14.76899,-1965,88833,29.9608,4814,1553
1.21188,14.63877,-1964,88834,29.6621,4814,1553
1.70829,14.53713,-1963,88835,30.0106,4814,1553
1.44188,14.65301,-1962,88836,30.0604,4814,1553
1.3102,14.36182,-1961,88837,29.9608,4814,1553
1.49704,14.57194,-1960,88838,30.0106,4814,1553
1.71942,14.71846,-1959,88839,29.8612,4814,1553
2.87713,14.71846,-1958,88840,29.9608,4814,1553
1.60168,14.60208,-1957,88841,29.9608,4814,1553
2.08537,14.71897,-1956,88842,29.9608,4814,1553
1.50657,14.67182,-1955,88843,30.0106,4818,1524
2.0156,14.67182,-1954,88844,30.0106,4818,1524
1.00543,14.58523,-1953,88845,29.9608,4818,1524
2.28816,14.43633,-1952,88846,30.0106,4818,1524
1.55638,14.75133,-1951,88847,30.3093,4818,1524
2.74308,14.58881,-1950,88848,30.0106,4818,1524
1.22363,14.47344,-1949,88849,30.1599,4818,1524
1.87592,14.45593,-1948,88850,29.8114,4818,1524
1.97739,14.57143,-1947,88851,29.8612,4818,1524
1.63993,14.78513,-1946,88852,29.8612,4818,1524
1.62239,14.71846,-1945,88853,30.0106,4795,1554
2.05311,14.75133,-1944,88854,29.8612,4795,1554
2.54094,14.58523,-1943,88855,29.9608,4795,1554
2.08079,14.77101,-1942,88856,29.9608,4795,1554
2.50693,14.43633,-1941,88857,29.9608,4795,1554
2.63129,14.18854,-1940,88858,29.8612,4795,1554
1.06082,14.51918,-1939,88859,29.9608,4795,1554
1.46484,14.53662,-1938,88860,30.0604,4795,1554
0.78733,14.63521,-1937,88861,29.8612,4795,1554
0.961803,14.68653,-1936,88862,30.2097,4795,1554
0.961803,14.61993,-1935,88863,29.8114,4816,1552
0.743728,14.51918,-1934,88864,30.0106,4816,1552
1.54408,14.3696,-1933,88865,30.0106,4816,1552
0.811194,14.10427,-1932,88866,29.8612,4816,1552
1.86827,14.10427,-1931,88867,30.0106,4816,1552
4.77917,14.32494,-1930,88868,30.0106,4816,1552
1.92608,14.44046,-1929,88869,29.9608,4816,1552
2.09677,14.66928,-1928,88870,29.8612,4816,1552
1.55332,14.65251,-1927,88871,29.9608,4816,1552
1.70829,14.51918,-1926,88872,29.8114,4816,1552
1.48103,14.55353,-1925,88873,30.3093,4803,1540
1.38452,14.45593,-1924,88874,30.0106,4803,1540
1.26577,14.66928,-1923,88875,29.8114,4803,1540
1.4118,14.81835,-1922,88876,30.0106,4803,1540
1.56555,14.8525,-1921,88877,30.0106,4803,1540
1.02423,14.69211,-1920,88878,29.9608,4803,1540
0.625305,14.80326,-1919,88879,30.0106,4803,1540
1.27328,14.56939,-1918,88880,29.8612,4803,1540
1.71942,14.48631,-1917,88881,29.9608,4803,1540
1.45505,14.52072,-1916,88882,30.0106,4803,1540
2.01797,14.40326,-1915,88883,29.8612,4807,1553
1.62826,14.51918,-1914,88884,29.8612,4807,1553
0.817051,14.48579,-1913,88885,29.8612,4807,1553
1.21188,14.43788,-1912,88886,29.9608,4807,1553
2.60213,14.38618,-1911,88887,29.9608,4807,1553
1.52856,14.63521,-1910,88888,29.8612,4807,1553
4.05126,14.34105,-1909,88889,29.9608,4807,1553
1.64863,14.58881,-1908,88890,30.0106,4807,1553
1.19604,14.68704,-1907,88891,30.1599,4807,1553
1.67446,14.51918,-1906,88892,30.0106,4807,1553
1.9335,14.48579,-1905,88893,30.2097,4819,1555
1.31745,14.58779,-1904,88894,29.8114,4819,1555
1.48103,14.65301,-1903,88895,30.1599,4819,1555
1.48103,14.58881,-1902,88896,29.8612,4819,1555
2.79986,14.57143,-1901,88897,29.8612,4819,1555
1.5034,14.65301,-1900,88898,29.8612,4819,1555
5.30679,15.0325,-1899,88899,30.0106,4819,1555
2.1771,14.8284,-1898,88900,29.8114,4819,1555
1.53789,14.67182,-1897,88901,30.0106,4819,1555
2.11263,14.80276,-1896,88902,29.8612,4819,1555
1.74966,15.00075,-1895,88903,29.9608,4803,1526
1.76052,14.98534,-1894,88904,30.3093,4803,1526
2.32946,14.88457,-1893,88905,30.0604,4803,1526
1.86572,14.75133,-1892,88906,29.8114,4803,1526
1.60168,14.86754,-1891,88907,30.1599,4803,1526
1.24679,14.65403,-1890,88908,30.0106,4803,1526
2.06237,14.50584,-1889,88909,29.9608,4803,1526
2.16171,14.34677,-1888,88910,30.0604,4803,1526
1.74966,14.50224,-1887,88911,29.8612,4803,1526
2.09222,14.60208,-1886,88912,29.8114,4803,1526
1.76863,14.58779,-1885,88913,29.9608,4812,1558
0.995902,14.50378,-1884,88914,29.8114,4812,1558
1.68298,14.72555,-1883,88915,29.9608,4812,1558
1.9942,14.65301,-1882,88916,30.0106,4812,1558
1.52231,14.67131,-1881,88917,29.9608,4812,1558
2.14177,14.45284,-1880,88918,29.9608,4812,1558
2.2819,14.38618,-1879,88919,29.8612,4812,1558
0.976563,14.74072,-1878,88920,29.8114,4812,1558
2.12613,14.49145,-1877,88921,29.9608,4812,1558
1.7767,14.38618,-1876,88922,30.0604,4812,1558
2.01324,14.35248,-1875,88923,30.1599,4819,1544
1.60466,14.58523,-1874,88924,30.1599,4819,1544
2.25034,14.65251,-1873,88925,29.9608,4819,1544
1.62532,14.65251,-1872,88926,30.0106,4819,1544
1.81125,14.76849,-1871,88927,30.0106,4819,1544
1.44188,14.6184,-1870,88928,29.9608,4819,1544
1.63993,14.48579,-1869,88929,30.0604,4819,1544
3.76958,14.47138,-1868,88930,29.9608,4819,1544
1.62826,14.55609,-1867,88931,30.0106,4819,1544
1.43525,14.68704,-1866,88932,29.8612,4819,1544
2.01797,14.59238,-1865,88933,29.6621,4795,1541
1.73872,14.55353,-1864,88934,29.8114,4795,1541
2.36602,14.51918,-1863,88935,29.9608,4795,1541
1.13045,14.63521,-1862,88936,29.8612,4795,1541
1.68014,14.60667,-1861,88937,30.1599,4795,1541
0.811194,14.74072,-1860,88938,29.8612,4795,1541
1.19205,14.76899,-1859,88939,29.9608,4795,1541
0.976563,14.6184,-1858,88940,29.8114,4795,1541
4.9159,14.63673,-1857,88941,30.2097,4795,1541
1.60168,14.63521,-1856,88942,29.8114,4795,1541
1.38452,14.65301,-1855,88943,29.8612,4818,1550
1.54717,14.63521,-1854,88944,29.9608,4818,1550
0.981433,14.63521,-1853,88945,29.8612,4818,1550
0.905627,14.50224,-1852,88946,30.0106,4818,1550
1.86827,14.28744,-1851,88947,30.0604,4818,1550
1.50657,14.40326,-1850,88948,30.0106,4818,1550
1.4681,14.48579,-1849,88949,29.8612,4818,1550
1.17594,14.48579,-1848,88950,29.7617,4818,1550
1.68014,14.73617,-1847,88951,30.0106,4818,1550
1.52544,14.73617,-1846,88952,30.0106,4818,1550
1.3102,14.6184,-1845,88953,30.0106,4819,1523
1.53168,14.60208,-1844,88954,30.0604,4819,1523
1.32827,14.70175,-1843,88955,29.7617,4819,1523
1.958,14.93504,-1842,88956,29.8612,4819,1523
1.37067,14.73465,-1841,88957,29.8612,4819,1523
1.73872,14.42136,-1840,88958,29.7617,4819,1523
2.0156,14.40688,-1839,88959,30.2097,4819,1523
1.18402,14.53713,-1838,88960,29.8612,4819,1523
1.57769,14.74476,-1837,88961,29.9608,4819,1523
2.75868,14.65708,-1836,88962,29.9608,4819,1523
1.46484,14.73465,-1835,88963,29.7617,4795,1552
2.22905,14.63521,-1834,88964,29.7617,4795,1552
1.54408,14.40326,-1833,88965,30.0106,4795,1552
1.96772,14.63521,-1832,88966,29.8612,4795,1552
1.61945,14.60208,-1831,88967,29.7617,4795,1552
1.52856,14.48579,-1830,88968,30.0604,4795,1552
2.32126,14.40326,-1829,88969,30.0106,4795,1552
1.5034,14.53713,-1828,88970,29.9608,4795,1552
2.46667,14.82086,-1827,88971,30.0604,4795,1552
1.39481,15.05429,-1826,88972,30.0106,4795,1552
1.99659,14.71846,-1825,88973,30.0604,4818,1552
1.56555,14.58779,-1824,88974,29.7617,4818,1552
1.91864,14.6184,-1823,88975,29.8114,4818,1552
2.82698,14.71846,-1822,88976,29.8114,4818,1552
1.6341,14.60208,-1821,88977,30.0604,4818,1552
1.54099,14.52072,-1820,88978,29.8612,4818,1552
1.49385,14.57194,-1819,88979,30.0106,4818,1552
1.79539,14.53713,-1818,88980,30.1599,4818,1552
1.48746,14.73617,-1817,88981,30.2097,4818,1552
2.76214,14.50584,-1816,88982,29.8612,4818,1552
1.92112,14.55455,-1815,88983,30.0106,4802,1543
1.90617,14.56939,-1814,88984,30.0106,4802,1543
1.54099,14.58523,-1813,88985,29.8612,4802,1543
1.5034,14.65301,-1812,88986,29.9608,4802,1543
2.11714,14.47499,-1811,88987,30.0106,4802,1543
1.45176,14.73617,-1810,88988,29.8612,4802,1543
0.811194,14.73617,-1809,88989,29.8114,4802,1543
1.22363,14.8525,-1808,88990,29.9608,4802,1543
1.41854,14.58523,-1807,88991,30.0106,4802,1543
1.63702,14.66978,-1806,88992,30.0604,4802,1543
2.5819,14.53867,-1805,88993,30.0106,4806,1547
1.79539,14.60208,-1804,88994,29.9608,4806,1547
1.85804,14.66928,-1803,88995,30.0604,4806,1547
1.94824,14.43788,-1802,88996,30.0106,4806,1547
2.26512,14.53713,-1801,88997,29.9608,4806,1547
1.36019,14.44046,-1800,88998,29.9608,4806,1547
1.40163,14.53713,-1799,88999,30.0106,4806,1547
1.34255,14.40326,-1798,89000,30.0106,4806,1547
1.46484,14.38618,-1797,89001,30.0604,4806,1547
1.12623,14.60259,-1796,89002,29.9608,4806,1547
4.89257,14.44046,-1795,89003,29.9608,4818,1552
1.68298,14.55353,-1794,89004,29.8612,4818,1552
1.73872,14.45335,-1793,89005,29.8114,4818,1552
1.57163,14.60208,-1792,89006,30.0106,4818,1552
1.40163,14.60208,-1791,89007,29.9608,4818,1552
1.83998,14.50378,-1790,89008,29.6621,4818,1552
1.11773,14.50378,-1789,89009,29.9608,4818,1552
2.33764,14.75133,-1788,89010,29.7617,4818,1552
2.39606,14.80326,-1787,89011,29.8612,4818,1552
2.10358,14.70428,-1786,89012,29.8612,4818,1552
1.0381,14.68704,-1785,89013,29.8612,4800,1526
2.06006,14.75133,-1784,89014,30.0106,4800,1526
0.85693,14.93554,-1783,89015,29.9608,4800,1526
1.43857,14.53662,-1782,89016,29.8612,4800,1526
1.60466,14.38618,-1781,89017,29.8612,4800,1526
1.63702,14.53662,-1780,89018,30.0604,4800,1526
1.10916,14.68755,-1779,89019,29.8114,4800,1526
1.3029,14.55353,-1778,89020,29.9608,4800,1526
1.32827,14.60208,-1777,89021,29.8612,4800,1526
1.15548,14.75638,-1776,89022,29.8612,4800,1526
1.09183,14.75638,-1775,89023,29.9608,4814,1551
2.21187,14.81835,-1774,89024,29.8612,4814,1551
1.92856,14.71846,-1773,89025,29.8114,4814,1551
1.94088,14.51918,-1772,89026,29.7617,4814,1551
2.11037,14.53713,-1771,89027,30.0106,4814,1551
1.1596,14.57143,-1770,89028,29.9608,4814,1551
1.68014,14.6184,-1769,89029,29.8114,4814,1551
1.3029,14.70175,-1768,89030,30.1599,4814,1551
1.61945,14.60208,-1767,89031,30.2097,4814,1551
1.19205,14.63521,-1766,89032,29.6621,4814,1551
1.3637,14.51918,-1765,89033,30.0106,4821,1544
4.18671,14.39964,-1764,89034,29.8612,4821,1544
1.71386,14.30516,-1763,89035,30.3093,4821,1544
2.43554,14.51918,-1762,89036,30.0106,4821,1544
1.96529,14.63521,-1761,89037,30.2097,4821,1544
1.39481,14.51918,-1760,89038,29.7617,4821,1544
1.43857,14.57194,-1759,89039,30.0106,4821,1544
1.94088,14.63673,-1758,89040,29.7617,4821,1544
0.845728,14.63673,-1757,89041,30.1599,4821,1544
2.67264,14.63521,-1756,89042,30.0106,4821,1544
2.58559,14.55353,-1755,89043,29.8114,4794,1540
3.54399,14.83945,-1754,89044,29.9608,4794,1540
2.05543,14.63877,-1753,89045,29.9608,4794,1540
1.91864,14.65301,-1752,89046,30.1599,4794,1540
1.76323,14.75133,-1751,89047,29.8114,4794,1540
2.32332,14.75133,-1750,89048,29.8612,4794,1540
1.95556,14.63521,-1749,89049,30.0106,4794,1540
2.32946,14.55301,-1748,89050,29.8612,4794,1540
1.87846,14.71897,-1747,89051,29.9608,4794,1540
1.75781,14.73465,-1746,89052,30.0106,4794,1540
1.64863,14.68704,-1745,89053,29.9608,4794,1540
1.62826,14.53047,-1744,89054,30.0106,4794,1540
2.4974,14.31818,-1743,89055,30.0604,4794,1540
1.42525,14.55609,-1742,89056,30.0604,4794,1540
1.74966,14.78765,-1741,89057,30.2097,4794,1540
2.11488,14.80276,-1740,89058,29.8612,4794,1540
2.14177,14.80276,-1739,89059,29.8612,4794,1540
1.84774,15.00124,-1738,89060,30.0604,4794,1540
1.49066,15.01713,-1737,89061,30.0106,4794,1540
1.51603,14.90108,-1736,89062,30.0106,4794,1540
2.21402,14.53713,-1735,89063,29.9608,4788,1546
1.56859,14.76899,-1734,89064,30.0106,4788,1546
4.93816,15.22017,-1733,89065,29.8612,4788,1546
2.41588,15.1037,-1732,89066,30.0106,4788,1546
1.36019,14.88457,-1731,89067,29.9608,4788,1546
1.68298,14.78513,-1730,89068,29.8612,4788,1546
1.41517,14.75133,-1729,89069,29.8612,4788,1546
1.98461,14.63521,-1728,89070,29.7617,4788,1546
2.05078,14.73617,-1727,89071,30.0106,4788,1546
1.79539,14.73617,-1726,89072,29.8612,4788,1546
1.54408,14.58779,-1725,89073,29.8612,4815,1515
2.25034,14.35507,-1724,89074,29.9608,4815,1515
4.4032,14.28901,-1723,89075,29.7617,4815,1515
2.85384,14.40481,-1722,89076,29.8612,4815,1515
1.63993,14.6184,-1721,89077,29.7617,4815,1515
1.68298,14.68603,-1720,89078,29.9608,4815,1515
1.57466,14.68603,-1719,89079,30.1599,4815,1515
2.37809,14.55353,-1718,89080,29.9608,4815,1515
1.73047,14.49145,-1717,89081,29.7617,4815,1515
0.98628,14.45644,-1716,89082,30.0604,4815,1515
1.53168,14.48631,-1715,89083,30.0106,4794,1550
1.43857,14.48631,-1714,89084,29.8612,4794,1550
1.68581,14.86754,-1713,89085,29.8612,4794,1550
1.96287,14.82137,-1712,89086,30.0106,4794,1550
1.98701,14.70428,-1711,89087,29.8612,4794,1550
1.79539,14.68755,-1710,89088,29.9608,4794,1550
1.62239,14.48631,-1709,89089,30.0604,4794,1550
2.2819,14.50224,-1708,89090,29.9608,4794,1550
0.655098,14.51918,-1707,89091,30.0106,4794,1550
1.73047,14.78513,-1706,89092,30.0604,4794,1550
2.09677,14.60208,-1705,89093,29.8612,4819,1546
1.17998,14.40326,-1704,89094,29.8612,4819,1546
1.38107,14.1733,-1703,89095,29.8114,4819,1546
2.91827,14.14384,-1702,89096,30.0106,4819,1546
1.9918,14.50224,-1701,89097,29.9608,4819,1546
1.34255,14.55609,-1700,89098,29.9608,4819,1546
1.66303,14.52278,-1699,89099,29.8612,4819,1546
0.995902,14.50378,-1698,89100,29.6621,4819,1546
1.19604,14.88457,-1697,89101,29.8612,4819,1546
1.45176,14.81986,-1696,89102,29.8114,4819,1546
1.92608,14.722,-1695,89103,30.0604,4800,1540
1.07865,14.65301,-1694,89104,30.0106,4800,1540
1.39822,14.59034,-1693,89105,30.0106,4800,1540
1.19205,14.72555,-1692,89106,30.0106,4800,1540
1.958,14.65251,-1691,89107,30.0106,4800,1540
1.48103,14.73465,-1690,89108,29.8114,4800,1540
1.11345,14.83544,-1689,89109,29.9608,4800,1540
0.730792,14.73465,-1688,89110,30.0106,4800,1540
1.49385,14.53713,-1687,89111,30.0106,4800,1540
1.26577,14.57603,-1686,89112,29.9608,4800,1540
1.3461,14.66928,-1685,89113,29.9608,4807,1547
1.20399,14.56939,-1684,89114,29.8612,4807,1547
1.43857,14.37012,-1683,89115,29.7617,4807,1547
1.69427,14.38618,-1682,89116,29.9608,4807,1547
3.05556,14.62553,-1681,89117,30.0604,4807,1547
1.56555,14.40481,-1680,89118,29.9608,4807,1547
1.57769,14.31974,-1679,89119,30.3093,4807,1547
2.65115,14.3369,-1678,89120,29.9608,4807,1547
2.22047,14.63521,-1677,89121,29.8612,4807,1547
1.38796,14.55353,-1676,89122,30.0106,4807,1547
2.18366,14.30568,-1675,89123,29.8612,4819,1546
3.15083,14.27179,-1674,89124,30.0106,4819,1546
1.42525,14.42136,-1673,89125,30.0106,4819,1546
1.93842,14.76899,-1672,89126,29.7617,4819,1546
2.54844,14.6082,-1671,89127,29.8612,4819,1546
2.48208,14.57757,-1670,89128,30.2097,4819,1546
1.57769,14.63673,-1669,89129,30.0604,4819,1546
2.48016,14.63521,-1668,89130,29.8612,4819,1546
1.86572,14.73465,-1667,89131,30.0106,4819,1546
1.79539,14.63521,-1666,89132,29.9608,4819,1546
1.75238,14.61993,-1665,89133,29.8612,4800,1520
2.10585,14.76899,-1664,89134,29.8114,4800,1520
1.66016,14.851,-1663,89135,29.9608,4800,1520
2.45892,14.75133,-1662,89136,30.0604,4800,1520
5.00435,14.63877,-1661,89137,30.2097,4800,1520
2.52588,14.41567,-1660,89138,30.0106,4800,1520
1.48746,14.40688,-1659,89139,30.0106,4800,1520
1.63993,14.42084,-1658,89140,30.0106,4800,1520
1.58673,14.87556,-1657,89141,30.0106,4800,1520
2.10585,14.74021,-1656,89142,30.1599,4800,1520
1.23912,14.80276,-1655,89143,29.9608,4813,1550
1.73872,14.76899,-1654,89144,29.8612,4813,1550
1.4681,14.63521,-1653,89145,29.8612,4813,1550
2.12388,14.53662,-1652,89146,29.6621,4813,1550
1.68298,14.50224,-1651,89147,30.0604,4813,1550
1.97498,14.19432,-1650,89148,30.0106,4813,1550
2.04146,14.45644,-1649,89149,29.9608,4813,1550
1.82437,14.55353,-1648,89150,30.0604,4813,1550
1.54717,14.40326,-1647,89151,29.8612,4813,1550
2.0156,14.53713,-1646,89152,29.9608,4813,1550
2.90681,14.68704,-1645,89153,29.9608,4819,1539
2.18802,14.53662,-1644,89154,30.3093,4819,1539
1.55332,14.37012,-1643,89155,30.0106,4819,1539
1.77132,14.38618,-1642,89156,29.8114,4819,1539
1.89865,14.3696,-1641,89157,29.9608,4819,1539
1.59273,14.72302,-1640,89158,29.8114,4819,1539
2.24822,14.83945,-1639,89159,30.0106,4819,1539
1.48103,14.50378,-1638,89160,30.2097,4819,1539
1.78206,14.43788,-1637,89161,29.8114,4819,1539
2.36401,14.53713,-1636,89162,29.8612,4819,1539
1.73047,14.61993,-1635,89163,30.0604,4795,1525
1.25821,14.75133,-1634,89164,30.0106,4795,1525
1.3029,14.88457,-1633,89165,29.8612,4795,1525
1.45505,14.75133,-1632,89166,29.9608,4795,1525
1.04268,14.51918,-1631,89167,29.8612,4795,1525
4.74613,14.51918,-1630,89168,29.8612,4795,1525
2.58005,14.35248,-1629,89169,29.9608,4795,1525
1.6165,14.38774,-1628,89170,30.0604,4795,1525
2.13954,14.8525,-1627,89171,29.8612,4795,1525
1.35668,14.91857,-1626,89172,30.0106,4795,1525
1.96529,14.78513,-1625,89173,29.9608,4816,1548
1.39139,14.91857,-1624,89174,29.9608,4816,1548
2.06237,14.78765,-1623,89175,30.1599,4816,1548
1.44188,14.80276,-1622,89176,29.8612,4816,1548
0.793363,14.55609,-1621,89177,29.8612,4816,1548
1.00068,14.64539,-1620,89178,29.9608,4816,1548
5.14344,14.98833,-1619,89179,29.9608,4816,1548
1.25821,14.78513,-1618,89180,29.8612,4816,1548
1.01487,14.58523,-1617,89181,29.8612,4816,1548
1.19205,14.73617,-1616,89182,29.9608,4816,1548
1.47781,14.88507,-1615,89183,30.0106,4817,1512
0.895034,14.88507,-1614,89184,30.0106,4817,1512
2.25034,14.88457,-1613,89185,29.8612,4817,1512
1.37067,14.83544,-1612,89186,29.8114,4817,1512
2.29856,14.6184,-1611,89187,29.6621,4817,1512
1.19604,14.65251,-1610,89188,29.8612,4817,1512
1.4118,14.60667,-1609,89189,29.7617,4817,1512
1.88606,14.49042,-1608,89190,29.9608,4817,1512
1.82437,14.31141,-1607,89191,30.0604,4817,1512
1.62826,14.55353,-1606,89192,30.1599,4817,1512
1.60466,14.53662,-1605,89193,29.8612,4795,1547
1.95556,14.40326,-1604,89194,29.8612,4795,1547
1.36019,14.71846,-1603,89195,29.9608,4795,1547
2.11488,14.851,-1602,89196,29.8612,4795,1547
0.817051,14.6184,-1601,89197,29.8612,4795,1547
2.05078,14.51918,-1600,89198,29.8114,4795,1547
1.59273,14.57194,-1599,89199,29.8114,4795,1547
4.6763,14.32494,-1598,89200,30.0604,4795,1547
1.01016,14.42084,-1597,89201,29.8114,4795,1547
1.32827,14.58523,-1596,89202,29.8114,4795,1547
1.35668,14.48579,-1595,89203,29.8114,4817,1546
1.41517,14.51918,-1594,89204,30.0604,4817,1546
1.91615,14.57143,-1593,89205,29.6621,4817,1546
1.59273,14.51918,-1592,89206,29.9608,4817,1546
1.24679,14.63521,-1591,89207,29.7617,4817,1546
1.07422,14.40326,-1590,89208,29.9608,4817,1546
1.79539,14.62553,-1589,89209,29.8612,4817,1546
5.1527,15.00671,-1588,89210,30.0604,4817,1546
1.44188,15.00124,-1587,89211,29.8612,4817,1546
1.32827,14.93504,-1586,89212,29.7617,4817,1546
1.97739,14.98534,-1585,89213,30.0106,4802,1532
1.36019,14.86905,-1584,89214,30.0604,4802,1532
2.08994,14.6184,-1583,89215,29.8612,4802,1532
2.05543,14.63521,-1582,89216,29.8612,4802,1532
1.48103,14.75133,-1581,89217,29.8114,4802,1532
2.36401,14.90108,-1580,89218,29.8612,4802,1532
2.48976,14.7058,-1579,89219,30.0106,4802,1532
2.36401,14.53713,-1578,89220,30.1599,4802,1532
2.38209,14.38618,-1577,89221,29.8612,4802,1532
1.61059,14.80276,-1576,89222,30.0106,4802,1532
1.78206,14.70175,-1575,89223,29.9608,4804,1549
2.29856,14.51918,-1574,89224,30.0106,4804,1549
1.40842,14.42084,-1573,89225,30.2097,4804,1549
1.81651,14.51918,-1572,89226,30.0106,4804,1549
1.17594,14.72302,-1571,89227,30.0106,4804,1549
1.55332,14.72302,-1570,89228,30.0106,4804,1549
1.60168,14.60208,-1569,89229,30.1599,4804,1549
1.44188,14.55609,-1568,89230,29.9608,4804,1549
1.75781,14.7952,-1567,89231,30.0106,4804,1549
2.04146,14.61993,-1566,89232,30.0106,4804,1549
1.6165,14.50224,-1565,89233,29.9608,4817,1547
1.54099,14.58523,-1564,89234,29.8612,4817,1547
2.4277,14.80326,-1563,89235,29.8114,4817,1547
1.48103,14.73617,-1562,89236,30.3093,4817,1547
2.6131,14.60667,-1561,89237,30.0106,4817,1547
2.32742,14.35819,-1560,89238,30.0106,4817,1547
1.73047,14.55353,-1559,89239,29.9608,4817,1547
1.13045,14.6184,-1558,89240,30.1599,4817,1547
2.31715,14.45748,-1557,89241,30.0106,4817,1547
2.20539,14.13804,-1556,89242,29.8612,4817,1547
1.36019,14.24305,-1555,89243,29.9608,4805,1520
1.97739,14.49299,-1554,89244,29.9608,4805,1520
1.31383,14.43788,-1553,89245,29.9608,4805,1520
2.23972,14.51918,-1552,89246,29.9608,4805,1520
1.21581,14.46881,-1551,89247,30.0604,4805,1520
1.29923,14.51918,-1550,89248,29.8114,4805,1520
1.9918,14.6184,-1549,89249,29.9608,4805,1520
2.37809,14.65301,-1548,89250,30.0106,4805,1520
2.73612,14.722,-1547,89251,30.0106,4805,1520
2.9248,14.76042,-1546,89252,29.9608,4805,1520
1.70549,14.65251,-1545,89253,30.1599,4812,1548
1.94579,14.50584,-1544,89254,30.0106,4812,1548
1.61059,14.70175,-1543,89255,29.8612,4812,1548
0.710948,14.78513,-1542,89256,30.0106,4812,1548
1.62826,14.90358,-1541,89257,30.0106,4812,1548
1.45505,14.80326,-1540,89258,30.2097,4812,1548
1.83998,14.81835,-1539,89259,29.6621,4812,1548
1.55638,14.76849,-1538,89260,29.8612,4812,1548
1.81388,14.65251,-1537,89261,30.0604,4812,1548
3.05868,14.80326,-1536,89262,29.9608,4812,1548
1.87592,14.66978,-1535,89263,30.0106,4818,1538
1.13886,14.63521,-1534,89264,29.8612,4818,1538
1.60168,14.57143,-1533,89265,29.9608,4818,1538
1.62826,14.30568,-1532,89266,29.8612,4818,1538
1.92608,14.43788,-1531,89267,30.0106,4818,1538
0.640375,14.55353,-1530,89268,29.8612,4818,1538
1.71386,14.40326,-1529,89269,29.8612,4818,1538
1.9335,14.51918,-1528,89270,29.7617,4818,1538
0.981433,14.61993,-1527,89271,29.8612,4818,1538
5.80459,14.45644,-1526,89272,30.0604,4818,1538
2.70809,14.34105,-1525,89273,30.0106,4792,1526
1.96287,14.50224,-1524,89274,29.8612,4792,1526
1.60466,14.65251,-1523,89275,29.6123,4792,1526
2.15287,14.45644,-1522,89276,29.8114,4792,1526
1.86572,14.32234,-1521,89277,30.2097,4792,1526
1.26953,14.38618,-1520,89278,30.2097,4792,1526
1.70829,14.76899,-1519,89279,29.8114,4792,1526
1.59572,14.75133,-1518,89280,30.0106,4792,1526
1.17998,14.6184,-1517,89281,29.8612,4792,1526
2.2944,14.68653,-1516,89282,30.1599,4792,1526
1.48103,14.70428,-1515,89283,30.0106,4814,1550
0.683594,14.52278,-1514,89284,29.8612,4814,1550
1.72772,14.51918,-1513,89285,29.9608,4814,1550
2.36199,14.6184,-1512,89286,30.0106,4814,1550
1.40163,14.53662,-1511,89287,29.6621,4814,1550
1.77401,14.722,-1510,89288,29.9608,4814,1550
1.77132,14.62553,-1509,89289,29.8612,4814,1550
1.52856,14.59034,-1508,89290,30.2097,4814,1550
1.83479,14.76899,-1507,89291,29.9608,4814,1550
1.27328,14.91907,-1506,89292,29.8612,4814,1550
2.52777,14.40947,-1505,89293,29.9608,4818,1519
1.55332,14.34105,-1504,89294,30.0106,4818,1519
1.87846,14.65301,-1503,89295,30.0106,4818,1519
1.62239,14.76899,-1502,89296,29.9608,4818,1519
1.89614,14.53713,-1501,89297,29.9608,4818,1519
1.81913,14.55353,-1500,89298,30.0106,4818,1519
2.34578,14.86754,-1499,89299,29.8612,4818,1519
2.28816,14.83544,-1498,89300,30.0106,4818,1519
1.63702,14.70175,-1497,89301,29.9608,4818,1519
0.946812,14.83493,-1496,89302,29.9608,4818,1519
5.8805,15.02407,-1495,89303,29.9608,4792,1546
1.42525,14.83493,-1494,89304,30.0106,4792,1546
1.43525,14.55353,-1493,89305,30.0106,4792,1546
1.88606,14.38618,-1492,89306,29.8612,4792,1546
1.68863,14.43788,-1491,89307,30.0604,4792,1546
0.889691,14.49145,-1490,89308,29.9608,4792,1546
1.76323,14.48579,-1489,89309,29.8612,4792,1546
0.98628,14.53867,-1488,89310,29.9608,4792,1546
1.74966,14.71897,-1487,89311,30.1599,4792,1546
1.67446,14.76849,-1486,89312,30.0604,4792,1546
2.21402,14.68755,-1485,89313,30.1599,4816,1550
4.26792,14.40481,-1484,89314,30.1599,4816,1550
2.3539,14.50224,-1483,89315,29.9608,4816,1550
2.3539,14.73465,-1482,89316,29.8612,4816,1550
1.78206,14.75133,-1481,89317,29.8612,4816,1550
0.981433,14.80276,-1480,89318,30.0106,4816,1550
1.07422,14.55353,-1479,89319,30.2097,4816,1550
0.884315,14.45593,-1478,89320,29.8612,4816,1550
1.78206,14.38774,-1477,89321,30.0604,4816,1550
2.20323,14.46881,-1476,89322,30.1599,4816,1550
1.7767,14.60259,-1475,89323,29.8612,4803,1540
1.45505,14.91857,-1474,89324,30.0106,4803,1540
1.99897,14.78513,-1473,89325,29.8114,4803,1540
2.02269,14.6184,-1472,89326,29.9608,4803,1540
1.05179,14.63673,-1471,89327,30.0106,4803,1540
1.89614,14.81986,-1470,89328,29.8612,4803,1540
1.52856,14.47344,-1469,89329,29.8612,4803,1540
2.09449,14.34105,-1468,89330,29.8612,4803,1540
1.09183,14.43788,-1467,89331,30.0106,4803,1540
1.95313,14.7058,-1466,89332,29.9608,4803,1540
1.87592,14.7058,-1465,89333,29.8114,4803,1540
3.18545,14.51918,-1464,89334,30.0106,4803,1540
2.31715,14.55301,-1463,89335,29.8612,4803,1540
1.09619,14.75133,-1462,89336,30.0106,4803,1540
0.655098,14.78513,-1461,89337,30.0106,4803,1540
1.46484,14.76899,-1460,89338,29.9608,4803,1540
0.889691,14.75133,-1459,89339,29.9608,4803,1540
1.79539,14.66928,-1458,89340,30.0106,4803,1540
0.889691,14.61993,-1457,89341,29.8612,4803,1540
1.86572,14.78513,-1456,89342,30.0106,4803,1540
1.57163,14.78765,-1455,89343,30.0604,4798,1518
1.59273,14.72352,-1454,89344,29.9608,4798,1518
5.10248,14.53457,-1453,89345,30.2097,4798,1518
2.03444,14.49299,-1452,89346,29.9608,4798,1518
2.18584,14.60208,-1451,89347,29.7617,4798,1518
0.900346,14.45335,-1450,89348,30.0604,4798,1518
1.77401,14.48579,-1449,89349,30.0106,4798,1518
2.3539,14.53662,-1448,89350,30.0604,4798,1518
1.73323,14.71897,-1447,89351,30.0106,4798,1518
1.97498,14.63673,-1446,89352,29.7617,4798,1518
1.55332,14.53662,-1445,89353,29.8612,4811,1547
2.34985,14.63521,-1444,89354,29.8114,4811,1547
1.96287,14.8284,-1443,89355,30.0106,4811,1547
2.66371,14.74274,-1442,89356,30.0106,4811,1547
1.19604,14.73617,-1441,89357,30.0106,4811,1547
1.91864,14.68603,-1440,89358,29.8612,4811,1547
1.06082,14.851,-1439,89359,30.0106,4811,1547
1.41854,14.80276,-1438,89360,30.0106,4811,1547
1.53789,14.80276,-1437,89361,29.9608,4811,1547
1.68298,14.68704,-1436,89362,29.8612,4811,1547
1.70829,14.3696,-1435,89363,30.0604,4801,1522
2.01087,14.46881,-1434,89364,29.8612,4801,1522
1.52856,14.27022,-1433,89365,30.0106,4801,1522
2.63672,14.30516,-1432,89366,29.9608,4801,1522
1.15135,14.58881,-1431,89367,30.0106,4801,1522
1.89362,14.66928,-1430,89368,30.0604,4801,1522
2.04146,14.63521,-1429,89369,29.9608,4801,1522
2.0693,14.73465,-1428,89370,29.8114,4801,1522
1.81651,14.75133,-1427,89371,29.8612,4801,1522
1.74146,14.59034,-1426,89372,29.9608,4801,1522
1.11773,14.47499,-1425,89373,29.8612,4812,1543
1.73872,14.62553,-1424,89374,30.0106,4812,1543
1.70829,14.66928,-1423,89375,29.9608,4812,1543
4.17645,14.81986,-1422,89376,29.8612,4812,1543
1.3029,14.90108,-1421,89377,30.0106,4812,1543
2.41391,14.73465,-1420,89378,29.9608,4812,1543
1.72772,14.83544,-1419,89379,29.7617,4812,1543
2.43162,14.71897,-1418,89380,29.9608,4812,1543
1.16371,14.60259,-1417,89381,29.8114,4812,1543
1.73047,14.60208,-1416,89382,29.8612,4812,1543
1.39481,14.65301,-1415,89383,29.8612,4817,1539
2.04379,14.60259,-1414,89384,29.9608,4817,1539
1.68581,14.73819,-1413,89385,29.8114,4817,1539
4.38258,14.68603,-1412,89386,30.0604,4817,1539
3.27549,14.42032,-1411,89387,30.0106,4817,1539
1.7551,14.38618,-1410,89388,29.8114,4817,1539
1.41854,14.43788,-1409,89389,29.7617,4817,1539
1.90867,14.50378,-1408,89390,30.0106,4817,1539
1.50657,14.61993,-1407,89391,29.8612,4817,1539
2.1573,14.75133,-1406,89392,29.9608,4817,1539
1.07865,14.86754,-1405,89393,29.8612,4793,1534
1.34255,14.88457,-1404,89394,30.0106,4793,1534
1.25442,14.78513,-1403,89395,29.9608,4793,1534
1.81913,14.68704,-1402,89396,30.0106,4793,1534
1.67446,14.70428,-1401,89397,29.8612,4793,1534
1.58673,14.6184,-1400,89398,29.8114,4793,1534
1.27328,14.48579,-1399,89399,30.0106,4793,1534
1.91864,14.58523,-1398,89400,29.7617,4793,1534
0.793363,14.65251,-1397,89401,29.8612,4793,1534
1.44188,14.68755,-1396,89402,29.8114,4793,1534
1.45505,14.93554,-1395,89403,30.0106,4813,1544
1.11773,14.9515,-1394,89404,30.0604,4813,1544
0.946812,14.71846,-1393,89405,30.0106,4813,1544
1.28075,14.73465,-1392,89406,29.8612,4813,1544
1.77132,14.78664,-1391,89407,29.6621,4813,1544
2.20323,14.65556,-1390,89408,30.0106,4813,1544
2.0739,14.71846,-1389,89409,30.0106,4813,1544
1.7767,14.70428,-1388,89410,29.8612,4813,1544
1.86572,14.58881,-1387,89411,30.0106,4813,1544
0.995902,14.57143,-1386,89412,30.2097,4813,1544
1.77132,14.57143,-1385,89413,30.0604,4816,1512
1.04725,14.55353,-1384,89414,29.7617,4816,1512
2.02504,14.6184,-1383,89415,29.8114,4816,1512
1.4118,14.73465,-1382,89416,30.0604,4816,1512
1.60466,14.78765,-1381,89417,29.8612,4816,1512
1.60168,14.62197,-1380,89418,30.2097,4816,1512
1.43857,14.38618,-1379,89419,29.9608,4816,1512
1.17188,14.38774,-1378,89420,30.0106,4816,1512
1.64863,14.42136,-1377,89421,29.8114,4816,1512
0.737289,14.45593,-1376,89422,29.8612,4816,1512
2.44531,14.53713,-1375,89423,29.9608,4794,1544
2.02504,14.63673,-1374,89424,29.9608,4794,1544
1.92112,14.65251,-1373,89425,30.0604,4794,1544
1.90617,14.80276,-1372,89426,30.0106,4794,1544
0.697405,14.65301,-1371,89427,29.8114,4794,1544
2.15066,14.60208,-1370,89428,30.0604,4794,1544
1.44518,14.70428,-1369,89429,29.8114,4794,1544
1.19205,14.73617,-1368,89430,29.8612,4794,1544
1.27702,14.55353,-1367,89431,29.8612,4794,1544
0.799351,14.55353,-1366,89432,29.8114,4794,1544
1.78206,14.42084,-1365,89433,30.0106,4817,1545
1.07422,14.50224,-1364,89434,29.6621,4817,1545
1.88858,14.73465,-1363,89435,29.7617,4817,1545
1.67446,14.65251,-1362,89436,29.8114,4817,1545
1.58973,14.40326,-1361,89437,30.0106,4817,1545
2.83876,14.60667,-1360,89438,29.7617,4817,1545
1.97498,14.62502,-1359,89439,29.9608,4817,1545
1.02423,14.55353,-1358,89440,30.0604,4817,1545
2.40203,14.46881,-1357,89441,29.9608,4817,1545
1.93596,14.58523,-1356,89442,29.8612,4817,1545
2.03444,14.51918,-1355,89443,30.0106,4799,1538
1.45176,14.57143,-1354,89444,29.9608,4799,1538
1.83219,14.83744,-1353,89445,29.9608,4799,1538
2.13284,14.78513,-1352,89446,29.8612,4799,1538
1.9798,14.60259,-1351,89447,30.0106,4799,1538
4.54075,14.42032,-1350,89448,29.8612,4799,1538
2.52021,14.58779,-1349,89449,30.0106,4799,1538
1.88099,14.52278,-1348,89450,30.0106,4799,1538
2.19889,14.44046,-1347,89451,29.9608,4799,1538
1.92856,14.68755,-1346,89452,29.9608,4799,1538
2.15287,14.67182,-1345,89453,29.9608,4806,1540
1.22752,14.68755,-1344,89454,29.8612,4806,1540
0.730792,14.63521,-1343,89455,30.0604,4806,1540
1.43857,14.68653,-1342,89456,29.8114,4806,1540
0.966748,14.68653,-1341,89457,30.0106,4806,1540
2.47824,14.88507,-1340,89458,29.8612,4806,1540
2.27772,14.62502,-1339,89459,29.8612,4806,1540
2.68865,14.43788,-1338,89460,30.0106,4806,1540
2.23118,14.48579,-1337,89461,29.9608,4806,1540
2.1771,14.53713,-1336,89462,30.0106,4806,1540
1.82437,14.40326,-1335,89463,29.8612,4815,1546
1.3637,14.57143,-1334,89464,29.9608,4815,1546
1.69427,14.78513,-1333,89465,29.9608,4815,1546
1.45176,14.76849,-1332,89466,29.8612,4815,1546
1.55332,14.66928,-1331,89467,29.7617,4815,1546
0.662337,14.51918,-1330,89468,30.0106,4815,1546
1.53168,14.62553,-1329,89469,30.0106,4815,1546
3.43883,14.77253,-1328,89470,29.8612,4815,1546
2.27981,14.68653,-1327,89471,29.9608,4815,1546
1.24296,14.51918,-1326,89472,29.7617,4815,1546
1.79273,14.52072,-1325,89473,29.9608,4799,1531
1.64863,14.45748,-1324,89474,29.8612,4799,1531
1.87592,14.56939,-1323,89475,30.0106,4799,1531
1.83479,14.75133,-1322,89476,29.8612,4799,1531
2.44141,14.44046,-1321,89477,29.9608,4799,1531
1.07865,14.38774,-1320,89478,30.0604,4799,1531
3.8136,14.40481,-1319,89479,29.8612,4799,1531
3.25211,14.6184,-1318,89480,29.8612,4799,1531
1.98701,14.75133,-1317,89481,30.0604,4799,1531
1.05631,14.75133,-1316,89482,29.9608,4799,1531
1.91864,14.8525,-1315,89483,30.0106,4809,1544
1.45505,14.73617,-1314,89484,29.7617,4809,1544
1.40163,14.63877,-1313,89485,30.0604,4809,1544
1.66303,14.65301,-1312,89486,30.0106,4809,1544
1.69427,14.75133,-1311,89487,29.8612,4809,1544
0.981433,14.83493,-1310,89488,29.9608,4809,1544
2.00612,14.8525,-1309,89489,30.0106,4809,1544
3.30736,14.96544,-1308,89490,29.9608,4809,1544
1.39139,14.93754,-1307,89491,29.8612,4809,1544
1.5034,14.73465,-1306,89492,29.8612,4809,1544
1.98461,14.53662,-1305,89493,29.8114,4816,1534
1.28447,14.50224,-1304,89494,29.6621,4816,1534
1.77132,14.53662,-1303,89495,30.0106,4816,1534
1.27702,14.76849,-1302,89496,30.0106,4816,1534
1.33185,14.76899,-1301,89497,29.9608,4816,1534
0.750112,14.55609,-1300,89498,29.8612,4816,1534
1.50022,14.65301,-1299,89499,30.0106,4816,1534
2.06006,14.38618,-1298,89500,29.8114,4816,1534
2.33764,14.50224,-1297,89501,29.8114,4816,1534
2.24822,14.46881,-1296,89502,29.8612,4816,1534
1.58973,14.35248,-1295,89503,30.0604,4795,1521
2.22047,14.22001,-1294,89504,29.8612,4795,1521
2.24609,14.52072,-1293,89505,29.6621,4795,1521
1.49385,14.78513,-1292,89506,29.8612,4795,1521
1.25442,14.88507,-1291,89507,29.9608,4795,1521
1.3637,14.75133,-1290,89508,30.0106,4795,1521
1.22752,14.70428,-1289,89509,29.9608,4795,1521
4.00272,14.83744,-1288,89510,30.0604,4795,1521
2.56336,14.57143,-1287,89511,29.9608,4795,1521
1.34255,14.35507,-1286,89512,29.8612,4795,1521
1.86827,14.27179,-1285,89513,30.0106,4812,1543
1.89865,14.42084,-1284,89514,29.9608,4812,1543
1.71386,14.57194,-1283,89515,30.0604,4812,1543
1.53168,14.73465,-1282,89516,29.7617,4812,1543
2.06237,14.60208,-1281,89517,30.0604,4812,1543
1.44188,14.63673,-1280,89518,29.8612,4812,1543
1.50657,14.48631,-1279,89519,29.9608,4812,1543
2.75176,14.58523,-1278,89520,30.0106,4812,1543
5.71602,14.67334,-1277,89521,29.9608,4812,1543
1.87592,14.60208,-1276,89522,29.9608,4812,1543
1.22752,14.6184,-1275,89523,29.8612,4815,1517
2.03444,14.60259,-1274,89524,30.0106,4815,1517
1.90617,14.6184,-1273,89525,30.0106,4815,1517
1.64863,14.66928,-1272,89526,30.0106,4815,1517
2.50313,14.6184,-1271,89527,29.8612,4815,1517
2.04379,14.55353,-1270,89528,29.9608,4815,1517
2.1771,14.45593,-1269,89529,29.8612,4815,1517
2.41193,14.60208,-1268,89530,30.0106,4815,1517
2.11263,14.28901,-1267,89531,30.1599,4815,1517
2.64575,14.42084,-1266,89532,29.9608,4815,1517
2.87713,14.61993,-1265,89533,29.8114,4790,1544
1.69427,14.50378,-1264,89534,30.0604,4790,1544
1.84774,14.45593,-1263,89535,29.9608,4790,1544
1.83219,14.58881,-1262,89536,30.0604,4790,1544
1.81913,14.68704,-1261,89537,29.9608,4790,1544
1.81388,14.55609,-1260,89538,29.9608,4790,1544
1.84257,14.68704,-1259,89539,29.9608,4790,1544
2.04146,14.71846,-1258,89540,29.9608,4790,1544
1.55332,14.43633,-1257,89541,29.9608,4790,1544
2.26722,14.43633,-1256,89542,29.9608,4790,1544
2.24822,14.63521,-1255,89543,29.8612,4812,1545
1.97256,14.90108,-1254,89544,29.9608,4812,1545
2.61493,14.76849,-1253,89545,30.0106,4812,1545
1.24679,14.53662,-1252,89546,29.8114,4812,1545
0.98628,14.51918,-1251,89547,29.6621,4812,1545
1.43857,14.48579,-1250,89548,30.0106,4812,1545
2.62766,14.60208,-1249,89549,29.9608,4812,1545
1.31745,14.71897,-1248,89550,29.8612,4812,1545
1.22363,14.86754,-1247,89551,30.2097,4812,1545
1.94824,14.49299,-1246,89552,29.9608,4812,1545
1.68014,14.30516,-1245,89553,29.9608,4808,1546
2.41983,14.28744,-1244,89554,29.9608,4808,1546
1.84774,14.43788,-1243,89555,29.8612,4808,1546
1.79539,14.47344,-1242,89556,30.0604,4808,1546
2.04379,14.59034,-1241,89557,29.9608,4808,1546
2.02269,14.60208,-1240,89558,29.9608,4808,1546
1.47781,14.6184,-1239,89559,30.0604,4808,1546
2.17052,14.66978,-1238,89560,29.8114,4808,1546
1.63702,14.58523,-1237,89561,30.1599,4808,1546
1.89865,14.67182,-1236,89562,29.9608,4808,1546
2.74829,14.47499,-1235,89563,29.9608,4802,1544
1.4118,14.55353,-1234,89564,29.8612,4802,1544
1.67446,14.63521,-1233,89565,29.8114,4802,1544
1.31383,14.71897,-1232,89566,29.9608,4802,1544
1.31745,14.52072,-1231,89567,30.1599,4802,1544
1.96287,14.27022,-1230,89568,29.9608,4802,1544
1.56555,14.53713,-1229,89569,30.0604,4802,1544
0.981433,14.65301,-1228,89570,29.9608,4802,1544
0.76272,14.73465,-1227,89571,30.0106,4802,1544
1.09183,14.68603,-1226,89572,29.9608,4802,1544
2.00374,14.48631,-1225,89573,30.1599,4818,1545
1.46484,14.3696,-1224,89574,30.0604,4818,1545
1.54099,14.38774,-1223,89575,29.8612,4818,1545
1.15135,14.52278,-1222,89576,29.9608,4818,1545
1.81125,14.67182,-1221,89577,29.9608,4818,1545
1.77132,14.38774,-1220,89578,29.7617,4818,1545
0.632885,14.40326,-1219,89579,30.0604,4818,1545
2.10585,14.53662,-1218,89580,29.9608,4818,1545
1.44518,14.66928,-1217,89581,30.1599,4818,1545
1.7767,14.851,-1216,89582,29.9608,4818,1545
4.62297,14.70175,-1215,89583,30.3093,4798,1530
1.59273,14.63521,-1214,89584,29.6621,4798,1530
1.59572,14.75133,-1213,89585,29.8114,4798,1530
1.60168,14.53713,-1212,89586,29.8612,4798,1530
1.54408,14.61993,-1211,89587,30.0106,4798,1530
1.41517,14.80276,-1210,89588,29.6621,4798,1530
1.11773,14.80276,-1209,89589,30.0106,4798,1530
2.09677,14.53713,-1208,89590,30.0604,4798,1530
1.81651,14.68704,-1207,89591,29.8612,4798,1530
1.71386,14.63521,-1206,89592,30.0604,4798,1530
1.42525,14.5084,-1205,89593,30.0106,4811,1545
0.507437,14.34469,-1204,89594,29.9608,4811,1545
1.32827,14.45335,-1203,89595,30.0604,4811,1545
2.47246,14.78513,-1202,89596,30.0106,4811,1545
1.41854,14.68755,-1201,89597,30.0106,4811,1545
1.71664,14.50224,-1200,89598,30.0106,4811,1545
1.91864,14.48579,-1199,89599,30.0106,4811,1545
2.75695,14.68603,-1198,89600,30.0106,4811,1545
1.58673,14.73465,-1197,89601,30.2097,4811,1545
2.48208,14.78513,-1196,89602,29.8612,4811,1545
2.03209,14.63673,-1195,89603,30.0106,4816,1536
3.07733,14.74476,-1194,89604,29.6621,4816,1536
1.83739,14.63521,-1193,89605,29.8114,4816,1536
1.76052,14.40688,-1192,89606,30.0106,4816,1536
2.37206,14.40326,-1191,89607,29.8612,4816,1536
1.91864,14.58523,-1190,89608,30.0106,4816,1536
2.54656,14.58523,-1189,89609,29.8612,4816,1536
1.63702,14.40326,-1188,89610,29.9608,4816,1536
1.69427,14.68704,-1187,89611,30.0604,4816,1536
2.00374,14.70428,-1186,89612,29.8612,4816,1536
1.94088,14.58881,-1185,89613,30.0106,4793,1528
5.73517,14.83945,-1184,89614,30.0106,4793,1528
2.34782,14.98733,-1183,89615,30.0106,4793,1528
1.79804,14.75133,-1182,89616,29.8612,4793,1528
2.74134,14.42084,-1181,89617,30.0106,4793,1528
2.03444,14.71897,-1180,89618,29.9608,4793,1528
1.0381,14.851,-1179,89619,29.8612,4793,1528
1.04268,14.57143,-1178,89620,30.0106,4793,1528
1.44188,14.42136,-1177,89621,29.8114,4793,1528
1.65152,14.40326,-1176,89622,29.8612,4793,1528
0.98628,14.50224,-1175,89623,29.8612,4793,1528
0.845728,14.59238,-1174,89624,30.0106,4793,1528
3.75818,14.34677,-1173,89625,30.0604,4793,1528
1.4681,14.40481,-1172,89626,29.8114,4793,1528
1.70829,14.50224,-1171,89627,29.8114,4793,1528
1.62826,14.48579,-1170,89628,29.9608,4793,1528
2.33356,14.5699,-1169,89629,29.9608,4793,1528
1.71942,14.70175,-1168,89630,29.8612,4793,1528
1.54099,14.80276,-1167,89631,29.8612,4793,1528
1.56555,14.80276,-1166,89632,30.0604,4793,1528
1.17594,14.63673,-1165,89633,29.8612,4786,1543
2.11037,14.48631,-1164,89634,29.9608,4786,1543
0.402647,14.82086,-1163,89635,29.9608,4786,1543
1.86572,14.80326,-1162,89636,29.9608,4786,1543
2.15066,14.80276,-1161,89637,30.0106,4786,1543
2.37206,14.68704,-1160,89638,29.9608,4786,1543
1.47781,14.75133,-1159,89639,29.8612,4786,1543
1.09183,14.71846,-1158,89640,30.0106,4786,1543
1.79007,14.58523,-1157,89641,29.9608,4786,1543
1.29923,14.3036,-1156,89642,29.9608,4786,1543
1.45176,14.43788,-1155,89643,29.8612,4814,1511
1.50022,14.45284,-1154,89644,30.0106,4814,1511
3.64743,14.3036,-1153,89645,30.0106,4814,1511
2.38609,14.45335,-1152,89646,30.0106,4814,1511
2.01087,14.60208,-1151,89647,30.0604,4814,1511
1.38452,14.68704,-1150,89648,29.9608,4814,1511
1.51603,14.84096,-1149,89649,30.0106,4814,1511
0.946812,14.85601,-1148,89650,29.9608,4814,1511
2.18366,14.66928,-1147,89651,29.8114,4814,1511
1.06082,14.48631,-1146,89652,29.8612,4814,1511
1.60168,14.50224,-1145,89653,30.0604,4790,1546
1.28447,14.68704,-1144,89654,30.0106,4790,1546
1.11773,14.90358,-1143,89655,29.9608,4790,1546
4.98238,14.75133,-1142,89656,29.8114,4790,1546
2.53342,14.6184,-1141,89657,29.9608,4790,1546
1.69708,14.73465,-1140,89658,30.0106,4790,1546
1.13045,14.58523,-1139,89659,30.0106,4790,1546
2.23972,14.75133,-1138,89660,29.8114,4790,1546
1.38107,14.68704,-1137,89661,29.9608,4790,1546
2.08079,14.55609,-1136,89662,29.9608,4790,1546
1.02423,14.61993,-1135,89663,29.9608,4814,1542
2.27772,14.68603,-1134,89664,30.0604,4814,1542
0.697405,14.53713,-1133,89665,29.6123,4814,1542
1.87592,14.23886,-1132,89666,29.8114,4814,1542
1.40163,14.48631,-1131,89667,30.0604,4814,1542
1.19604,14.71846,-1130,89668,30.0106,4814,1542
1.87592,14.66928,-1129,89669,29.9608,4814,1542
1.22752,14.61993,-1128,89670,30.1599,4814,1542
2.59111,14.51918,-1127,89671,29.8612,4814,1542
1.0381,14.53662,-1126,89672,29.9608,4814,1542
2.31509,14.6184,-1125,89673,29.8114,4808,1547
1.07422,14.38774,-1124,89674,30.0604,4808,1547
2.63129,14.55609,-1123,89675,30.0604,4808,1547
1.54408,14.89058,-1122,89676,29.8612,4808,1547
2.71512,14.8525,-1121,89677,30.2097,4808,1547
1.04268,14.88457,-1120,89678,29.9608,4808,1547
1.41854,14.88457,-1119,89679,30.0106,4808,1547
1.4118,14.61993,-1118,89680,29.9608,4808,1547
1.9942,14.30568,-1117,89681,29.9608,4808,1547
1.36719,14.34053,-1116,89682,30.0106,4808,1547
2.1771,14.57143,-1115,89683,30.0106,4805,1543
1.34255,14.74072,-1114,89684,29.8612,4805,1543
1.49385,14.64284,-1113,89685,30.0106,4805,1543
1.41854,14.58881,-1112,89686,29.8612,4805,1543
3.12653,14.31974,-1111,89687,29.8612,4805,1543
3.03364,14.5699,-1110,89688,30.0106,4805,1543
0.878906,14.47138,-1109,89689,29.8612,4805,1543
2.2819,14.55353,-1108,89690,30.2097,4805,1543
1.80334,14.42084,-1107,89691,29.8114,4805,1543
1.09183,14.45284,-1106,89692,30.0106,4805,1543
1.92361,14.70175,-1105,89693,30.0604,4816,1545
0.878906,14.8525,-1104,89694,30.0604,4816,1545
2.16171,14.93554,-1103,89695,29.8612,4816,1545
1.94088,14.86754,-1102,89696,29.8612,4816,1545
3.46095,14.6184,-1101,89697,29.9608,4816,1545
2.27981,14.55353,-1100,89698,29.8612,4816,1545
1.68863,14.70428,-1099,89699,30.0106,4816,1545
1.43857,14.53662,-1098,89700,29.9608,4816,1545
1.53168,14.43788,-1097,89701,30.0604,4816,1545
1.66589,14.32234,-1096,89702,30.0106,4816,1545
1.33185,14.45593,-1095,89703,29.8612,4797,1527
1.40163,14.65301,-1094,89704,30.0106,4797,1527
1.75238,14.78765,-1093,89705,29.8612,4797,1527
2.0762,14.83744,-1092,89706,29.8612,4797,1527
2.52021,14.77253,-1091,89707,30.0604,4797,1527
2.47246,14.76042,-1090,89708,30.0604,4797,1527
1.4118,14.73617,-1089,89709,29.8612,4797,1527
1.63993,14.63521,-1088,89710,29.8612,4797,1527
1.79539,14.43788,-1087,89711,29.6621,4797,1527
2.12164,14.53662,-1086,89712,29.9608,4797,1527
1.70829,14.70175,-1085,89713,30.0106,4809,1544
1.60466,14.60208,-1084,89714,30.0106,4809,1544
1.49066,14.66928,-1083,89715,29.8612,4809,1544
1.52544,14.91907,-1082,89716,30.0106,4809,1544
1.62239,14.86754,-1081,89717,29.8612,4809,1544
4.93527,14.45644,-1080,89718,29.7617,4809,1544
1.32827,14.27022,-1079,89719,29.9608,4809,1544
1.73047,14.48579,-1078,89720,29.8612,4809,1544
1.53168,14.42136,-1077,89721,30.0604,4809,1544
1.56555,14.66928,-1076,89722,30.0604,4809,1544
1.90617,14.57194,-1075,89723,30.0106,4816,1538
1.64863,14.45644,-1074,89724,29.9608,4816,1538
2.32946,14.3696,-1073,89725,29.8612,4816,1538
1.47134,14.40481,-1072,89726,30.1599,4816,1538
2.32946,14.43633,-1071,89727,29.8114,4816,1538
1.25061,14.70428,-1070,89728,30.0106,4816,1538
2.46086,14.70428,-1069,89729,29.7617,4816,1538
1.52231,14.61993,-1068,89730,30.0106,4816,1538
1.26953,14.71846,-1067,89731,30.0604,4816,1538
1.12198,14.6184,-1066,89732,29.6621,4816,1538
1.33185,14.65251,-1065,89733,29.8612,4797,1509
1.25442,14.50224,-1064,89734,29.8612,4797,1509
1.95313,14.86905,-1063,89735,29.6621,4797,1509
0.926449,14.71897,-1062,89736,30.0106,4797,1509
1.48103,14.48579,-1061,89737,30.0106,4797,1509
1.69708,14.37634,-1060,89738,29.9608,4797,1509
2.87382,14.28014,-1059,89739,30.0106,4797,1509
1.1472,14.58881,-1058,89740,29.8612,4797,1509
1.36719,14.51918,-1057,89741,29.8114,4797,1509
1.34255,14.46881,-1056,89742,29.8612,4797,1509
2.63491,14.46881,-1055,89743,30.1599,4813,1543
1.63702,14.48631,-1054,89744,29.9608,4813,1543
0.931581,14.55353,-1053,89745,29.8612,4813,1543
1.66303,14.80326,-1052,89746,30.0604,4813,1543
1.07865,14.73465,-1051,89747,30.0106,4813,1543
1.54408,14.68603,-1050,89748,29.8114,4813,1543
4.91493,14.9754,-1049,89749,30.0604,4813,1543
1.51603,14.94352,-1048,89750,30.0106,4813,1543
1.5807,14.722,-1047,89751,30.0106,4813,1543
0.878906,14.43788,-1046,89752,29.8612,4813,1543
0.601994,14.50378,-1045,89753,29.9608,4816,1528
1.4681,14.71846,-1044,89754,30.0106,4816,1528
2.0693,14.73617,-1043,89755,29.8612,4816,1528
1.36019,14.78513,-1042,89756,30.0106,4816,1528
1.73323,14.87305,-1041,89757,29.8114,4816,1528
1.60168,14.82137,-1040,89758,30.0106,4816,1528
3.51834,14.49145,-1039,89759,29.9608,4816,1528
3.04305,14.42084,-1038,89760,30.0106,4816,1528
1.76052,14.6184,-1037,89761,29.9608,4816,1528
1.98461,14.51918,-1036,89762,30.0106,4816,1528
1.23912,14.66928,-1035,89763,29.8612,4791,1543
1.74146,14.90358,-1034,89764,30.0106,4791,1543
1.87592,14.93554,-1033,89765,30.0106,4791,1543
1.59273,14.63877,-1032,89766,30.0604,4791,1543
2.15066,14.49042,-1031,89767,30.0604,4791,1543
2.26091,14.38618,-1030,89768,29.9608,4791,1543
1.09183,14.53662,-1029,89769,30.0604,4791,1543
1.55638,14.49145,-1028,89770,29.9608,4791,1543
1.38107,14.40326,-1027,89771,30.0106,4791,1543
1.51917,14.43633,-1026,89772,30.0106,4791,1543
1.39139,14.42032,-1025,89773,30.0106,4813,1542
0.585938,14.52226,-1024,89774,30.0106,4813,1542
1.00068,14.58779,-1023,89775,29.8612,4813,1542
1.84257,14.57194,-1022,89776,30.0106,4813,1542
1.9335,14.77656,-1021,89777,29.8612,4813,1542
1.79539,14.59034,-1020,89778,30.0106,4813,1542
1.73872,14.57143,-1019,89779,29.8612,4813,1542
2.5353,14.68653,-1018,89780,29.9608,4813,1542
1.70829,14.66978,-1017,89781,30.0106,4813,1542
1.67446,14.80276,-1016,89782,29.8612,4813,1542
2.30684,14.90108,-1015,89783,29.8612,4802,1542
1.55638,14.80276,-1014,89784,29.8612,4802,1542
2.72214,14.78664,-1013,89785,30.0106,4802,1542
0.85693,14.68653,-1012,89786,29.8114,4802,1542
2.38009,14.61993,-1011,89787,30.0106,4802,1542
1.82437,14.57552,-1010,89788,29.9608,4802,1542
1.95556,14.45902,-1009,89789,29.9608,4802,1542
4.62297,14.47344,-1008,89790,29.8612,4802,1542
3.08816,14.28483,-1007,89791,30.0106,4802,1542
1.19205,14.42084,-1006,89792,29.8612,4802,1542
1.47134,14.71846,-1005,89793,29.8612,4802,1542
1.57466,14.83493,-1004,89794,30.0604,4802,1542
2.21187,14.83493,-1003,89795,29.8114,4802,1542
1.32467,14.61993,-1002,89796,29.9608,4802,1542
1.10916,14.44046,-1001,89797,30.0106,4802,1542
1.3461,14.7058,-1000,89798,29.8612,4802,1542
0.697405,14.722,-999,89799,29.8114,4802,1542
1.37415,14.9754,-998,89800,29.9608,4802,1542
2.17929,14.95598,-997,89801,29.6621,4802,1542
1.31745,14.71846,-996,89802,29.9608,4802,1542
1.6165,14.78513,-995,89803,29.8114,4816,1542
1.54717,14.88457,-994,89804,30.0106,4816,1542
2.18584,14.78513,-993,89805,29.8114,4816,1542
2.00374,14.32234,-992,89806,29.8114,4816,1542
1.23912,14.13804,-991,89807,29.8114,4816,1542
2.68865,14.45284,-990,89808,29.9608,4816,1542
1.46484,14.71846,-989,89809,29.8114,4816,1542
1.92856,14.51918,-988,89810,29.8612,4816,1542
2.29856,14.30985,-987,89811,29.7617,4816,1542
1.46484,14.22001,-986,89812,29.9608,4816,1542
1.31745,14.22054,-985,89813,29.8612,4797,1524
0.625305,14.3696,-984,89814,30.0106,4797,1524
1.28447,14.66928,-983,89815,30.0106,4797,1524
2.0716,14.68704,-982,89816,30.0604,4797,1524
1.79539,14.42136,-981,89817,29.9608,4797,1524
1.79007,14.44046,-980,89818,29.8114,4797,1524
1.67446,14.59034,-979,89819,29.8612,4797,1524
1.48103,14.51918,-978,89820,29.8114,4797,1524
4.06536,14.75133,-977,89821,29.8612,4797,1524
1.77132,14.76899,-976,89822,30.0604,4797,1524
0.834375,14.86754,-975,89823,29.9608,4809,1543
0.873464,14.91857,-974,89824,29.8612,4809,1543
0.946812,14.76899,-973,89825,29.8612,4809,1543
1.28075,14.65301,-972,89826,29.7617,4809,1543
1.66875,14.65301,-971,89827,30.0106,4809,1543
1.82698,14.71846,-970,89828,29.9608,4809,1543
1.58673,14.68653,-969,89829,30.0604,4809,1543
0.921287,14.63521,-968,89830,30.0106,4809,1543
2.25457,14.35819,-967,89831,29.8114,4809,1543
6.09316,14.30516,-966,89832,30.0106,4809,1543
1.90617,14.37012,-965,89833,30.0106,4815,1527
1.60168,14.65251,-964,89834,29.9608,4815,1527
1.19205,14.53713,-963,89835,29.8612,4815,1527
2.78449,14.55609,-962,89836,30.0106,4815,1527
1.88606,14.65301,-961,89837,29.9608,4815,1527
2.26722,14.76849,-960,89838,29.8612,4815,1527
2.04845,14.76849,-959,89839,30.0106,4815,1527
1.36019,14.81835,-958,89840,29.9608,4815,1527
2.56522,14.8525,-957,89841,29.8114,4815,1527
2.64033,14.70428,-956,89842,29.9608,4815,1527
2.0716,14.47344,-955,89843,29.9608,4793,1511
2.26722,14.65301,-954,89844,30.0106,4793,1511
1.48103,14.65301,-953,89845,29.9608,4793,1511
1.76052,14.66928,-952,89846,30.0106,4793,1511
2.58559,14.55353,-951,89847,29.8114,4793,1511
1.83998,14.71846,-950,89848,30.0106,4793,1511
1.3461,14.65403,-949,89849,30.0604,4793,1511
1.59273,14.68603,-948,89850,30.0106,4793,1511
1.74966,14.6184,-947,89851,29.9608,4793,1511
2.36199,14.83493,-946,89852,29.8114,4793,1511
2.53342,14.68653,-945,89853,29.9608,4811,1535
2.25668,14.35248,-944,89854,29.6621,4811,1535
2.24397,14.50224,-943,89855,29.9608,4811,1535
0.921287,14.53662,-942,89856,29.8612,4811,1535
1.40163,14.53713,-941,89857,29.9608,4811,1535
2.43358,14.42136,-940,89858,29.8114,4811,1535
1.79539,14.55353,-939,89859,29.8612,4811,1535
1.62239,14.78513,-938,89860,29.8612,4811,1535
0.971667,14.66928,-937,89861,29.9608,4811,1535
0.971667,14.63673,-936,89862,30.0106,4811,1535
2.31921,14.48579,-935,89863,29.8612,4814,1527
2.72914,14.55609,-934,89864,29.9608,4814,1527
2.55031,14.65251,-933,89865,30.0604,4814,1527
1.80334,14.73617,-932,89866,29.8612,4814,1527
1.28817,14.68653,-931,89867,29.8612,4814,1527
1.84516,14.58523,-930,89868,30.0604,4814,1527
1.59273,14.6184,-929,89869,30.1599,4814,1527
1.38107,14.68603,-928,89870,29.8114,4814,1527
1.9335,14.65251,-927,89871,29.9608,4814,1527
1.59273,14.65301,-926,89872,29.8612,4814,1527
1.68581,14.77454,-925,89873,30.0106,4792,1529
2.47824,14.63877,-924,89874,29.7617,4792,1529
1.41854,14.63521,-923,89875,29.7617,4792,1529
1.47458,14.68755,-922,89876,29.9608,4792,1529
1.49385,14.66928,-921,89877,29.8114,4792,1529
1.87592,14.53662,-920,89878,30.0604,4792,1529
1.6165,14.63673,-919,89879,30.0604,4792,1529
0.488281,14.6184,-918,89880,29.7617,4792,1529
1.73047,14.75133,-917,89881,29.7617,4792,1529
1.68298,14.65301,-916,89882,29.7617,4792,1529
2.08537,14.47344,-915,89883,29.8612,4813,1529
2.57635,14.32494,-914,89884,29.8612,4813,1529
1.96529,14.54123,-913,89885,29.8114,4813,1529
0.878906,14.53662,-912,89886,29.9608,4813,1529
2.14399,14.51918,-911,89887,29.8612,4813,1529
1.68298,14.48579,-910,89888,30.1599,4813,1529
1.76323,14.68704,-909,89889,30.0106,4813,1529
1.52544,14.67182,-908,89890,29.8114,4813,1529
1.60168,14.61993,-907,89891,30.1599,4813,1529
1.63702,14.45335,-906,89892,29.8612,4813,1529
1.28447,14.35248,-905,89893,30.0604,4801,1521
5.78237,14.57143,-904,89894,29.9608,4801,1521
1.11773,14.66928,-903,89895,30.2097,4801,1521
0.585938,14.65301,-902,89896,29.8612,4801,1521
1.76052,14.53713,-901,89897,30.0604,4801,1521
1.81651,14.61993,-900,89898,29.8612,4801,1521
1.13886,14.30516,-899,89899,29.8612,4801,1521
2.51073,14.58523,-898,89900,29.9608,4801,1521
1.41517,14.60259,-897,89901,29.8114,4801,1521
1.4118,14.37012,-896,89902,29.8114,4801,1521
1.59273,14.58881,-895,89903,30.0604,4800,1521
1.69427,14.67182,-894,89904,29.8612,4800,1521
1.49385,14.52278,-893,89905,29.8612,4800,1521
1.79539,14.42136,-892,89906,30.0604,4800,1521
1.70829,14.3696,-891,89907,30.0604,4800,1521
1.01016,14.48579,-890,89908,29.8114,4800,1521
2.01324,14.43633,-889,89909,29.7617,4800,1521
1.46158,14.48631,-888,89910,30.0106,4800,1521
1.68863,14.53662,-887,89911,30.0604,4800,1521
1.11773,14.68704,-886,89912,29.9608,4800,1521
1.95556,14.65301,-885,89913,30.1599,4800,1494
1.49385,14.76849,-884,89914,29.8612,4800,1494
2.60213,14.57194,-883,89915,29.8612,4800,1494
1.57769,14.66928,-882,89916,29.9608,4800,1494
1.33543,14.60208,-881,89917,29.8612,4800,1494
2.32946,14.68653,-880,89918,29.8612,4800,1494
1.92608,14.71846,-879,89919,30.0604,4800,1494
2.0739,14.75133,-878,89920,30.0604,4800,1494
2.05078,14.66928,-877,89921,29.9608,4800,1494
1.47458,14.63521,-876,89922,30.0106,4800,1494
1.89614,14.68653,-875,89923,29.8612,4809,1528
0.981433,14.70175,-874,89924,30.0604,4809,1528
4.96609,14.83945,-873,89925,29.9608,4809,1528
2.27352,14.82086,-872,89926,29.8114,4809,1528
1.39139,14.68603,-871,89927,30.0106,4809,1528
1.66303,14.48631,-870,89928,29.7617,4809,1528
1.9335,14.38618,-869,89929,30.0106,4809,1528
1.6165,14.48579,-868,89930,30.0106,4809,1528
2.06006,14.51918,-867,89931,30.0106,4809,1528
1.6165,14.57143,-866,89932,29.9608,4809,1528
2.01797,14.68704,-865,89933,29.8612,4799,1505
2.08765,14.78513,-864,89934,30.0106,4799,1505
3.44714,14.50224,-863,89935,29.8114,4799,1505
2.41588,14.33638,-862,89936,29.8612,4799,1505
2.14844,14.56939,-861,89937,29.7617,4799,1505
1.65728,14.35248,-860,89938,29.9608,4799,1505
2.37809,14.67182,-859,89939,29.9608,4799,1505
1.42859,14.91857,-858,89940,30.0106,4799,1505
1.3029,14.76849,-857,89941,30.0106,4799,1505
1.40163,14.55353,-856,89942,30.0106,4799,1505
2.06237,14.65251,-855,89943,30.0106,4809,1523
2.0693,14.66928,-854,89944,29.8612,4809,1523
2.11488,14.57143,-853,89945,29.8114,4809,1523
1.01487,14.57143,-852,89946,29.8114,4809,1523
2.41983,14.51918,-851,89947,29.7617,4809,1523
1.66016,14.50378,-850,89948,29.9608,4809,1523
1.45176,14.35248,-849,89949,30.0106,4809,1523
1.50657,14.52072,-848,89950,30.0106,4809,1523
1.3102,14.45644,-847,89951,29.6621,4809,1523
1.45176,14.70428,-846,89952,29.7617,4809,1523
2.03209,14.61993,-845,89953,30.0106,4816,1516
1.87592,14.63877,-844,89954,29.9608,4816,1516
1.02423,14.65301,-843,89955,30.0106,4816,1516
3.96561,14.75486,-842,89956,29.8612,4816,1516
2.22262,14.73617,-841,89957,29.9608,4816,1516
1.69146,14.42084,-840,89958,29.9608,4816,1516
1.4118,14.55353,-839,89959,29.6621,4816,1516
1.6165,14.65301,-838,89960,30.0106,4816,1516
1.61059,14.58523,-837,89961,29.8612,4816,1516
1.31383,14.61993,-836,89962,30.0106,4816,1516
2.42966,14.86754,-835,89963,29.7617,4791,1512
1.56859,15.10025,-834,89964,29.9608,4791,1512
1.39822,14.98385,-833,89965,30.2097,4791,1512
3.53861,14.68755,-832,89966,29.8612,4791,1512
2.09677,14.36182,-831,89967,29.8612,4791,1512
1.5987,14.68755,-830,89968,29.8114,4791,1512
0.601994,14.66928,-829,89969,30.0106,4791,1512
1.5034,14.60667,-828,89970,29.9608,4791,1512
1.50022,14.65251,-827,89971,30.0106,4791,1512
2.03209,14.66928,-826,89972,29.9608,4791,1512
0.926449,14.55353,-825,89973,29.9608,4809,1530
1.93596,14.53662,-824,89974,30.0106,4809,1530
1.25061,14.40326,-823,89975,29.8114,4809,1530
1.19205,14.43788,-822,89976,30.0604,4809,1530
1.81125,14.58779,-821,89977,30.0106,4809,1530
1.6165,14.61993,-820,89978,29.9608,4809,1530
1.88858,14.67182,-819,89979,29.9608,4809,1530
1.48103,14.65301,-818,89980,29.9608,4809,1530
2.01087,14.71846,-817,89981,29.8612,4809,1530
1.38107,14.63521,-816,89982,30.1599,4809,1530
0.946812,14.73617,-815,89983,30.0106,4812,1512
1.41517,14.71846,-814,89984,29.8612,4812,1512
1.27702,14.58523,-813,89985,29.8612,4812,1512
1.4118,14.51918,-812,89986,29.8114,4812,1512
1.43857,14.23153,-811,89987,29.9608,4812,1512
1.69708,14.28901,-810,89988,30.2097,4812,1512
2.11488,14.38774,-809,89989,30.0106,4812,1512
2.59295,14.42136,-808,89990,29.8612,4812,1512
1.66589,14.55353,-807,89991,29.6621,4812,1512
1.36019,14.63521,-806,89992,29.8612,4812,1512
2.0693,14.58523,-805,89993,30.1599,4791,1531
1.80334,14.38618,-804,89994,29.8612,4791,1531
1.81388,14.50224,-803,89995,30.1599,4791,1531
2.03444,14.73465,-802,89996,29.9608,4791,1531
2.44336,14.87105,-801,89997,29.8612,4791,1531
2.71688,14.9754,-800,89998,29.8612,4791,1531
1.68014,14.76899,-799,89999,29.8612,4791,1531
2.27981,14.65251,-798,90000,30.2097,4791,1531
1.80598,14.55353,-797,90001,30.0604,4791,1531
1.45505,14.45593,-796,90002,29.9608,4791,1531
1.98701,14.65301,-795,90003,30.0106,4812,1527
1.36719,14.88507,-794,90004,29.8612,4812,1527
2.86551,14.86754,-793,90005,30.0106,4812,1527
1.80334,14.88507,-792,90006,30.2097,4812,1527
1.66589,14.76899,-791,90007,29.8114,4812,1527
3.51698,14.47705,-790,90008,29.8612,4812,1527
2.31921,14.6082,-789,90009,29.7617,4812,1527
1.5034,14.65301,-788,90010,29.8612,4812,1527
2.00374,14.53713,-787,90011,29.9608,4812,1527
1.4118,14.35248,-786,90012,29.9608,4812,1527
2.03444,14.48579,-785,90013,29.8612,4801,1528
1.23912,15.00124,-784,90014,29.8612,4801,1528
1.36019,15.00124,-783,90015,30.0106,4801,1528
2.67264,14.83493,-782,90016,29.8114,4801,1528
1.1596,14.63521,-781,90017,29.9608,4801,1528
2.18584,14.77454,-780,90018,30.0106,4801,1528
2.01324,14.77454,-779,90019,29.6621,4801,1528
1.4219,14.50378,-778,90020,29.7617,4801,1528
1.83479,14.3696,-777,90021,29.9608,4801,1528
1.81651,14.55353,-776,90022,29.8114,4801,1528
2.20323,14.65251,-775,90023,29.8114,4802,1531
1.6341,14.49145,-774,90024,29.8612,4802,1531
1.57466,14.51046,-773,90025,30.0604,4802,1531
1.52231,14.722,-772,90026,29.9608,4802,1531
1.34255,14.66928,-771,90027,29.9608,4802,1531
1.52544,14.32234,-770,90028,29.8114,4802,1531
5.39413,14.35819,-769,90029,29.8612,4802,1531
1.8529,14.55353,-768,90030,29.9608,4802,1531
0.76272,14.48579,-767,90031,30.0106,4802,1531
1.79539,14.65251,-766,90032,29.8612,4802,1531
1.13045,14.86754,-765,90033,29.7617,4814,1532
1.54099,14.83493,-764,90034,29.9608,4814,1532
1.23912,14.73617,-763,90035,29.9608,4814,1532
1.89865,14.42136,-762,90036,29.8114,4814,1532
1.83479,14.63521,-761,90037,30.3093,4814,1532
2.14844,14.66928,-760,90038,29.6621,4814,1532
1.05179,14.84096,-759,90039,30.1599,4814,1532
2.00136,14.7058,-758,90040,29.8612,4814,1532
1.52231,14.48579,-757,90041,29.8612,4814,1532
1.25442,14.38877,-756,90042,29.9608,4814,1532
1.66589,14.5699,-755,90043,30.0604,4795,1504
1.90617,14.6184,-754,90044,29.9608,4795,1504
2.35997,14.57194,-753,90045,29.9608,4795,1504
0.966748,14.40326,-752,90046,29.8612,4795,1504
2.0716,14.50224,-751,90047,30.1599,4795,1504
1.37415,14.73465,-750,90048,30.0106,4795,1504
0.683594,14.86754,-749,90049,29.8612,4795,1504
2.74308,14.70428,-748,90050,30.0106,4795,1504
0.921287,14.75486,-747,90051,30.0106,4795,1504
0.905627,14.58523,-746,90052,30.0106,4795,1504
1.63702,14.55455,-745,90053,29.9608,4809,1528
1.86572,14.63673,-744,90054,29.8114,4809,1528
1.56555,14.57143,-743,90055,29.9608,4809,1528
2.19672,14.60667,-742,90056,29.7617,4809,1528
2.10585,14.65301,-741,90057,29.8612,4809,1528
1.75238,14.40326,-740,90058,29.8612,4809,1528
0.817051,14.32234,-739,90059,29.8114,4809,1528
5.54237,14.22577,-738,90060,30.0106,4809,1528
1.27702,14.45644,-737,90061,29.9608,4809,1528
1.14304,14.38618,-736,90062,29.8612,4809,1528
1.6165,14.3696,-735,90063,29.9608,4814,1518
2.54282,14.27179,-734,90064,30.0106,4814,1518
1.67446,14.35507,-733,90065,29.8612,4814,1518
1.64863,14.51918,-732,90066,30.0106,4814,1518
1.3102,14.68755,-731,90067,30.0106,4814,1518
1.25061,14.68704,-730,90068,29.8114,4814,1518
1.25821,14.53713,-729,90069,29.7617,4814,1518
5.09406,14.60667,-728,90070,30.0106,4814,1518
2.30684,14.62655,-727,90071,30.0106,4814,1518
1.19604,14.53713,-726,90072,29.8612,4814,1518
3.07268,14.65251,-725,90073,29.9608,4791,1504
2.06237,14.75133,-724,90074,29.8612,4791,1504
2.75868,14.65301,-723,90075,29.9608,4791,1504
1.78473,14.50224,-722,90076,29.9608,4791,1504
1.73047,14.50224,-721,90077,30.0106,4791,1504
1.23912,14.73465,-720,90078,30.0106,4791,1504
1.5034,14.83493,-719,90079,30.0106,4791,1504
0.966748,14.65251,-718,90080,29.8612,4791,1504
1.41517,14.37789,-717,90081,29.8612,4791,1504
1.81388,14.67182,-716,90082,30.0106,4791,1504
2.04379,14.73465,-715,90083,29.8612,4812,1528
1.67161,14.65301,-714,90084,29.7617,4812,1528
2.32332,14.35974,-713,90085,30.1599,4812,1528
1.32827,14.44046,-712,90086,30.0604,4812,1528
2.05543,14.45593,-711,90087,30.0106,4812,1528
0.884315,14.53662,-710,90088,29.8612,4812,1528
1.15548,14.76849,-709,90089,30.0106,4812,1528
2.15951,14.80276,-708,90090,30.0106,4812,1528
3.90014,15.06172,-707,90091,30.0604,4812,1528
1.71108,14.93754,-706,90092,30.0106,4812,1528
2.13284,14.83493,-705,90093,30.0106,4814,1504
1.48103,14.83493,-704,90094,30.3093,4814,1504
1.82698,14.80276,-703,90095,30.0106,4814,1504
1.64863,14.65301,-702,90096,29.8612,4814,1504
2.22262,14.73465,-701,90097,30.0106,4814,1504
1.09619,14.75133,-700,90098,29.7617,4814,1504
1.18402,14.75133,-699,90099,30.0106,4814,1504
1.15135,14.50224,-698,90100,30.0106,4814,1504
3.94754,14.19432,-697,90101,29.8114,4814,1504
2.51263,14.15437,-696,90102,29.9608,4814,1504
2.21617,14.13751,-695,90103,29.8612,4789,1527
1.96772,14.40326,-694,90104,30.0106,4789,1527
1.92856,14.78513,-693,90105,29.8114,4789,1527
2.14399,14.70428,-692,90106,29.9608,4789,1527
2.19889,14.65301,-691,90107,29.8612,4789,1527
1.26953,14.61993,-690,90108,30.0106,4789,1527
1.45176,14.58523,-689,90109,29.9608,4789,1527
1.20794,14.70428,-688,90110,30.0604,4789,1527
1.68863,14.95299,-687,90111,30.0604,4789,1527
1.78206,15.05281,-686,90112,30.3093,4789,1527
1.95556,14.851,-685,90113,29.8114,4811,1530
2.00374,14.48631,-684,90114,30.0106,4811,1530
1.45505,14.42084,-683,90115,29.8612,4811,1530
1.72495,14.53713,-682,90116,29.8612,4811,1530
1.05631,14.48579,-681,90117,30.0604,4811,1530
1.86827,14.27179,-680,90118,30.0604,4811,1530
1.3029,14.30568,-679,90119,29.7617,4811,1530
1.84516,14.51918,-678,90120,30.0106,4811,1530
2.17052,14.43788,-677,90121,30.0106,4811,1530
2.19238,14.18959,-676,90122,29.6621,4811,1530
1.958,14.48631,-675,90123,30.0604,4799,1529
0.85693,14.55353,-674,90124,29.8612,4799,1529
1.84774,14.60667,-673,90125,30.0106,4799,1529
1.67446,14.67182,-672,90126,29.9608,4799,1529
1.20794,14.68704,-671,90127,29.8612,4799,1529
1.09183,14.75133,-670,90128,30.0604,4799,1529
1.16371,14.63521,-669,90129,29.9608,4799,1529
1.07865,14.71897,-668,90130,29.8612,4799,1529
1.48103,14.6184,-667,90131,30.0106,4799,1529
2.80836,14.90108,-666,90132,29.8612,4799,1529
2.15287,14.88507,-665,90133,30.0106,4799,1530
1.28447,14.9515,-664,90134,29.8612,4799,1530
1.73872,14.86754,-663,90135,29.8612,4799,1530
0.966748,14.51918,-662,90136,29.9608,4799,1530
2.03209,14.48579,-661,90137,29.8612,4799,1530
1.70829,14.75133,-660,90138,30.0106,4799,1530
1.42859,14.78513,-659,90139,29.9608,4799,1530
0.981433,14.49505,-658,90140,29.8612,4799,1530
1.78473,14.45593,-657,90141,30.1599,4799,1530
1.00068,14.50378,-656,90142,29.8612,4799,1530
3.56546,14.65556,-655,90143,30.2097,4813,1527
1.19205,14.50378,-654,90144,29.6621,4813,1527
1.19205,14.68704,-653,90145,30.0106,4813,1527
0.895034,14.65251,-652,90146,30.0106,4813,1527
1.81651,14.66928,-651,90147,29.8114,4813,1527
1.60466,14.57143,-650,90148,30.0106,4813,1527
1.79804,14.65301,-649,90149,30.1599,4813,1527
1.36019,14.73617,-648,90150,29.8612,4813,1527
1.25821,14.63521,-647,90151,30.0106,4813,1527
1.81125,14.80276,-646,90152,30.0106,4813,1527
1.81651,14.6082,-645,90153,29.9608,4795,1503
2.24822,14.58881,-644,90154,29.9608,4795,1503
1.86572,14.78513,-643,90155,29.8114,4795,1503
0.76272,14.851,-642,90156,29.8612,4795,1503
2.79815,14.851,-641,90157,30.0106,4795,1503
1.45176,14.63521,-640,90158,30.0106,4795,1503
1.81125,14.35248,-639,90159,29.9608,4795,1503
1.70829,14.46881,-638,90160,30.0604,4795,1503
1.98461,14.66928,-637,90161,30.0106,4795,1503
1.54717,14.70428,-636,90162,29.9608,4795,1503
3.42354,14.93704,-635,90163,30.0106,4806,1523
1.97256,14.98733,-634,90164,29.8114,4806,1523
1.93842,14.88507,-633,90165,30.2097,4806,1523
1.37415,14.88507,-632,90166,30.1599,4806,1523
1.92856,14.63521,-631,90167,30.2097,4806,1523
2.44336,14.53713,-630,90168,29.8612,4806,1523
1.19604,14.66928,-629,90169,30.0106,4806,1523
2.17929,14.7058,-628,90170,30.0106,4806,1523
1.84257,14.60208,-627,90171,30.0604,4806,1523
1.83479,14.46881,-626,90172,29.8612,4806,1523
1.87592,14.55353,-625,90173,29.8612,4813,1514
1.49066,14.45644,-624,90174,30.0106,4813,1514
2.23972,14.47344,-623,90175,29.8114,4813,1514
0.743728,14.55353,-622,90176,30.0604,4813,1514
1.30655,14.56939,-621,90177,30.0604,4813,1514
1.7767,14.50224,-620,90178,30.0604,4813,1514
0.78733,14.60208,-619,90179,30.0106,4813,1514
1.46484,14.60208,-618,90180,29.8612,4813,1514
1.25442,14.51918,-617,90181,29.9608,4813,1514
2.11488,14.45593,-616,90182,30.0106,4813,1514
1.45176,14.50378,-615,90183,29.8612,4790,1503
1.43525,14.47499,-614,90184,30.0106,4790,1503
2.91827,14.57143,-613,90185,30.0106,4790,1503
1.77132,14.75133,-612,90186,30.0106,4790,1503
1.44188,14.81835,-611,90187,29.8114,4790,1503
2.39606,14.80326,-610,90188,29.8114,4790,1503
2.08765,15.00124,-609,90189,29.9608,4790,1503
2.19672,15.01713,-608,90190,29.9608,4790,1503
0.534885,14.59034,-607,90191,29.6621,4790,1503
1.55638,14.27179,-606,90192,30.0106,4790,1503
1.63702,14.35248,-605,90193,29.8114,4790,1503
3.77337,14.55301,-604,90194,30.0604,4790,1503
3.66959,14.63521,-603,90195,29.8612,4790,1503
1.80598,14.78513,-602,90196,30.0106,4790,1503
1.40163,14.65251,-601,90197,29.9608,4790,1503
1.56555,14.50224,-600,90198,29.8612,4790,1503
2.19238,14.49145,-599,90199,29.6621,4790,1503
1.44188,14.60667,-598,90200,29.6621,4790,1503
1.68863,14.55353,-597,90201,30.0106,4790,1503
1.44188,14.63521,-596,90202,30.0106,4790,1503
2.22905,14.48579,-595,90203,30.0106,4784,1519
1.31383,14.48579,-594,90204,30.0106,4784,1519
4.38802,14.6082,-593,90205,30.1599,4784,1519
1.32827,14.70428,-592,90206,30.0106,4784,1519
0.811194,14.91857,-591,90207,30.0106,4784,1519
1.21581,15.00124,-590,90208,30.0604,4784,1519
1.74146,14.61993,-589,90209,29.9608,4784,1519
2.00612,14.60208,-588,90210,30.0604,4784,1519
1.23912,14.75133,-587,90211,30.2097,4784,1519
1.47458,14.68704,-586,90212,29.8612,4784,1519
2.01797,14.69161,-585,90213,29.9608,4808,1487
2.27352,14.65861,-584,90214,29.9608,4808,1487
1.89865,14.83945,-583,90215,29.9608,4808,1487
1.75238,14.60208,-582,90216,30.0106,4808,1487
2.01324,14.42084,-581,90217,29.9608,4808,1487
0.276214,14.51918,-580,90218,29.9608,4808,1487
1.45176,14.65301,-579,90219,29.8612,4808,1487
1.77132,14.67182,-578,90220,30.0604,4808,1487
1.42525,14.67182,-577,90221,30.0106,4808,1487
1.3102,14.65301,-576,90222,29.7617,4808,1487
1.75238,14.57143,-575,90223,30.0604,4789,1514
1.46158,14.55353,-574,90224,30.0604,4789,1514
0.926449,14.58523,-573,90225,30.0106,4789,1514
2.19455,14.78664,-572,90226,29.9608,4789,1514
2.02504,14.66928,-571,90227,29.8612,4789,1514
2.16171,14.65251,-570,90228,29.8612,4789,1514
1.06082,14.66928,-569,90229,29.8612,4789,1514
2.02504,14.68704,-568,90230,29.9608,4789,1514
1.60168,14.48579,-567,90231,29.8612,4789,1514
1.64283,14.51918,-566,90232,29.9608,4789,1514
2.00374,14.66928,-565,90233,29.7617,4813,1508
2.17052,14.722,-564,90234,30.0106,4813,1508
1.57769,14.68704,-563,90235,30.0604,4813,1508
5.00816,14.32494,-562,90236,30.0106,4813,1508
2.61675,14.42084,-561,90237,29.8612,4813,1508
2.34782,14.50224,-560,90238,29.8612,4813,1508
2.13508,14.63521,-559,90239,30.0106,4813,1508
1.26953,14.81835,-558,90240,30.0106,4813,1508
1.958,14.68603,-557,90241,29.9608,4813,1508
2.04146,14.56939,-556,90242,29.8114,4813,1508
2.25457,14.63521,-555,90243,30.0106,4795,1495
0.921287,14.65301,-554,90244,29.8114,4795,1495
2.54282,14.53713,-553,90245,29.9608,4795,1495
2.11714,14.78765,-552,90246,29.8612,4795,1495
1.60168,14.61993,-551,90247,29.8612,4795,1495
1.62826,14.73617,-550,90248,29.8612,4795,1495
1.90867,14.68704,-549,90249,29.8612,4795,1495
1.60466,14.90108,-548,90250,29.9608,4795,1495
2.32946,14.75284,-547,90251,30.1599,4795,1495
1.9918,14.46881,-546,90252,30.0604,4795,1495
2.43554,14.30568,-545,90253,30.0604,4801,1502
1.59273,14.59034,-544,90254,30.1599,4801,1502
0.569429,14.6184,-543,90255,29.9608,4801,1502
0.845728,14.2744,-542,90256,29.9608,4801,1502
1.84516,14.33638,-541,90257,29.9608,4801,1502
1.80598,14.70783,-540,90258,29.8612,4801,1502
1.19604,14.76849,-539,90259,29.9608,4801,1502
1.81388,14.68704,-538,90260,29.9608,4801,1502
1.42525,14.70428,-537,90261,29.9608,4801,1502
2.21187,14.76849,-536,90262,29.9608,4801,1502
1.37415,14.88807,-535,90263,30.0604,4811,1500
1.70549,14.77101,-534,90264,29.8114,4811,1500
1.54717,14.75133,-533,90265,29.9608,4811,1500
2.68333,14.75133,-532,90266,30.0106,4811,1500
4.39562,14.45644,-531,90267,30.0106,4811,1500
2.33968,14.40326,-530,90268,30.0604,4811,1500
1.69427,14.61993,-529,90269,30.0106,4811,1500
1.57769,14.53713,-528,90270,30.0106,4811,1500
1.67161,14.65301,-527,90271,29.9608,4811,1500
1.25061,14.7058,-526,90272,29.8612,4811,1500
1.40163,14.7058,-525,90273,30.0106,4798,1477
1.45176,14.50378,-524,90274,29.9608,4798,1477
1.56555,14.3696,-523,90275,29.9608,4798,1477
1.21581,14.51918,-522,90276,30.2097,4798,1477
5.01196,14.90358,-521,90277,30.0604,4798,1477
3.29581,14.93704,-520,90278,30.1599,4798,1477
1.9335,14.73465,-519,90279,29.9608,4798,1477
1.01016,14.68603,-518,90280,29.8612,4798,1477
0.710948,14.47138,-517,90281,30.0106,4798,1477
1.49385,14.50378,-516,90282,29.9608,4798,1477
1.87592,14.63521,-515,90283,29.8612,4807,1492
1.12198,14.70175,-514,90284,30.0106,4807,1492
1.17998,14.65251,-513,90285,29.8114,4807,1492
0.840071,14.83895,-512,90286,29.8612,4807,1492
1.3637,14.77303,-511,90287,29.8612,4807,1492
2.31509,14.37012,-510,90288,29.8612,4807,1492
1.32827,13.97052,-509,90289,30.0106,4807,1492
1.33185,14.23625,-508,90290,29.9608,4807,1492
1.88858,14.46881,-507,90291,29.9608,4807,1492
1.9335,14.76899,-506,90292,30.0106,4807,1492
1.6165,14.78765,-505,90293,29.8612,4812,1488
2.0716,14.63521,-504,90294,30.1599,4812,1488
1.36019,14.66928,-503,90295,29.9608,4812,1488
1.89865,14.68704,-502,90296,29.8612,4812,1488
0.632885,14.73617,-501,90297,29.8114,4812,1488
1.83479,14.70428,-500,90298,29.9608,4812,1488
1.38796,14.74021,-499,90299,29.8114,4812,1488
1.77132,14.66928,-498,90300,29.8612,4812,1488
1.22752,14.58523,-497,90301,29.8612,4812,1488
1.3461,14.46881,-496,90302,30.0106,4812,1488
2.28816,14.66928,-495,90303,29.9608,4788,1482
2.26722,14.55353,-494,90304,29.9608,4788,1482
1.34255,14.76849,-493,90305,30.1599,4788,1482
1.66303,14.71846,-492,90306,29.8114,4788,1482
1.48103,14.53713,-491,90307,29.9608,4788,1482
0.817051,14.51046,-490,90308,29.8612,4788,1482
2.04845,14.8284,-489,90309,30.0106,4788,1482
1.20399,14.75133,-488,90310,30.0604,4788,1482
1.69427,14.27022,-487,90311,29.8612,4788,1482
2.47439,14.3696,-486,90312,30.0106,4788,1482
2.26512,14.63521,-485,90313,30.2097,4809,1475
2.32742,14.75133,-484,90314,29.8612,4809,1475
2.19455,14.51918,-483,90315,29.8612,4809,1475
1.98461,14.48579,-482,90316,29.8612,4809,1475
2.48592,14.51918,-481,90317,30.1599,4809,1475
2.37809,14.58881,-480,90318,30.0106,4809,1475
3.38573,14.41567,-479,90319,30.1599,4809,1475
1.37067,14.57143,-478,90320,30.0106,4809,1475
1.80334,14.63521,-477,90321,29.8612,4809,1475
2.2819,14.78513,-476,90322,29.8612,4809,1475
1.97498,14.70428,-475,90323,30.0604,4809,1429
1.39139,14.57143,-474,90324,29.8612,4809,1429
1.82698,14.42136,-473,90325,30.0106,4809,1429
1.00543,14.25351,-472,90326,30.0604,4809,1429
1.56555,14.3369,-471,90327,30.0106,4809,1429
2.31303,14.40326,-470,90328,30.0106,4809,1429
2.42966,14.98733,-469,90329,30.1599,4809,1429
2.03444,15.01961,-468,90330,29.9608,4809,1429
3.02104,14.98385,-467,90331,30.0106,4809,1429
2.14622,14.88457,-466,90332,29.9608,4809,1429
1.68581,14.76849,-465,90333,29.9608,4794,1445
1.04725,14.65301,-464,90334,30.0106,4794,1445
1.36019,14.48579,-463,90335,29.9608,4794,1445
1.51917,14.5699,-462,90336,29.8114,4794,1445
0.811194,14.88507,-461,90337,29.8612,4794,1445
1.29556,14.68704,-460,90338,29.9608,4794,1445
2.40203,14.53662,-459,90339,29.8114,4794,1445
4.66915,14.83493,-458,90340,30.2097,4794,1445
1.55638,14.5699,-457,90341,29.8612,4794,1445
2.43358,14.53713,-456,90342,30.0604,4794,1445
1.23526,14.78513,-455,90343,29.9608,4812,1435
1.60168,14.80326,-454,90344,29.8612,4812,1435
1.06082,14.70428,-453,90345,30.0604,4812,1435
1.60466,14.61993,-452,90346,30.0604,4812,1435
1.54099,14.65301,-451,90347,30.0106,4812,1435
1.73872,14.68704,-450,90348,29.9608,4812,1435
1.36019,14.88507,-449,90349,29.9608,4812,1435
1.28447,14.66928,-448,90350,30.1599,4812,1435
1.9798,14.57143,-447,90351,29.9608,4812,1435
2.05311,14.66928,-446,90352,30.0604,4812,1435
1.60466,14.58881,-445,90353,29.9608,4787,1420
1.99659,14.65251,-444,90354,29.8612,4787,1420
1.36719,14.78513,-443,90355,29.9608,4787,1420
2.02033,14.98385,-442,90356,30.2097,4787,1420
2.1573,14.78513,-441,90357,30.0106,4787,1420
2.59295,14.53713,-440,90358,29.8114,4787,1420
1.09619,14.65301,-439,90359,30.0106,4787,1420
1.05631,14.88958,-438,90360,29.7617,4787,1420
2.79986,14.93754,-437,90361,29.9608,4787,1420
2.13508,14.63521,-436,90362,30.0604,4787,1420
1.28447,14.57194,-435,90363,29.8612,4803,1416
0.995902,14.50224,-434,90364,29.8612,4803,1416
0.507437,14.46881,-433,90365,29.9608,4803,1416
2.05078,14.53662,-432,90366,29.6621,4803,1416
1.13886,14.53662,-431,90367,29.8612,4803,1416
1.5807,14.42084,-430,90368,29.8612,4803,1416
1.92856,14.55353,-429,90369,29.8612,4803,1416
1.92608,14.68755,-428,90370,29.6621,4803,1416
5.81444,14.37064,-427,90371,29.9608,4803,1416
1.52856,14.59238,-426,90372,30.0106,4803,1416
1.31745,14.78765,-425,90373,29.8114,4811,1410
1.82437,14.65861,-424,90374,29.8114,4811,1410
0.976563,14.47499,-423,90375,29.8114,4811,1410
1.88858,14.65301,-422,90376,30.0106,4811,1410
0.981433,14.60208,-421,90377,30.0604,4811,1410
1.49385,14.76849,-420,90378,30.0604,4811,1410
1.69427,14.81986,-419,90379,29.8114,4811,1410
1.66016,14.86754,-418,90380,30.0604,4811,1410
4.83472,14.80879,-417,90381,29.6621,4811,1410
2.24822,14.60667,-416,90382,30.0106,4811,1410
2.09222,14.53713,-415,90383,29.8612,4798,1384
1.12623,14.58881,-414,90384,30.0604,4798,1384
2.11037,14.65251,-413,90385,30.1599,4798,1384
2.03209,14.71897,-412,90386,29.8612,4798,1384
2.25457,14.73465,-411,90387,29.8612,4798,1384
1.28817,14.67182,-410,90388,29.7617,4798,1384
2.35593,14.67182,-409,90389,29.9608,4798,1384
0.655098,14.65301,-408,90390,29.9608,4798,1384
2.57079,14.55353,-407,90391,30.0106,4798,1384
2.45892,14.58881,-406,90392,29.8612,4798,1384
2.99568,14.70428,-405,90393,29.6621,4808,1392
2.08537,14.65301,-404,90394,30.0106,4808,1392
1.33543,14.71846,-403,90395,30.0106,4808,1392
1.83739,14.56939,-402,90396,30.0106,4808,1392
1.10916,14.48631,-401,90397,30.0106,4808,1392
2.64033,14.51918,-400,90398,29.9608,4808,1392
1.22363,14.47138,-399,90399,30.0106,4808,1392
1.1472,14.73617,-398,90400,30.0106,4808,1392
1.84774,14.98385,-397,90401,29.8114,4808,1392
4.87597,14.76899,-396,90402,29.8612,4808,1392
1.76323,14.42136,-395,90403,29.9608,4812,1378
2.60213,14.48579,-394,90404,29.9608,4812,1378
2.01324,14.73617,-393,90405,30.0106,4812,1378
1.80334,14.75133,-392,90406,29.9608,4812,1378
1.14304,14.71846,-391,90407,30.0604,4812,1378
1.69146,14.58523,-390,90408,29.8114,4812,1378
1.48103,14.58779,-389,90409,30.0604,4812,1378
2.06237,14.63673,-388,90410,30.0604,4812,1378
1.68298,14.83895,-387,90411,30.0604,4812,1378
4.42589,14.93704,-386,90412,29.8612,4812,1378
3.40679,14.69161,-385,90413,30.0604,4791,1374
2.42376,14.32494,-384,90414,29.8114,4791,1374
1.51917,14.28744,-383,90415,29.7617,4791,1374
1.4118,14.55353,-382,90416,29.8612,4791,1374
1.5034,14.66928,-381,90417,29.8114,4791,1374
1.87592,14.35507,-380,90418,30.0106,4791,1374
1.70829,14.51046,-379,90419,30.1599,4791,1374
1.74966,14.52278,-378,90420,30.0106,4791,1374
1.77132,14.63521,-377,90421,30.0106,4791,1374
1.87846,14.53662,-376,90422,29.8114,4791,1374
1.88858,14.34105,-375,90423,29.8612,4809,1360
0.971667,14.49505,-374,90424,29.9608,4809,1360
1.20794,14.69161,-373,90425,30.3093,4809,1360
2.27772,14.65301,-372,90426,29.9608,4809,1360
1.84774,14.76849,-371,90427,30.0106,4809,1360
1.77132,14.78765,-370,90428,30.0106,4809,1360
1.33543,14.55609,-369,90429,29.9608,4809,1360
0.690534,14.55609,-368,90430,29.8612,4809,1360
1.98461,14.50224,-367,90431,29.9608,4809,1360
2.04146,14.63521,-366,90432,30.0604,4809,1360
2.43162,14.85902,-365,90433,29.8612,4802,1317
2.04146,14.67182,-364,90434,30.1599,4802,1317
2.37206,14.66928,-363,90435,30.0106,4802,1317
1.80598,14.50224,-362,90436,29.8612,4802,1317
1.64863,14.63521,-361,90437,30.2097,4802,1317
1.12198,14.68704,-360,90438,29.9608,4802,1317
0.76272,14.68704,-359,90439,29.9608,4802,1317
1.71386,14.78765,-358,90440,29.8612,4802,1317
0.365396,14.76899,-357,90441,29.8114,4802,1317
1.92608,14.65301,-356,90442,29.8612,4802,1317
2.4974,14.45644,-355,90443,30.0604,4792,1331
1.60168,14.65251,-354,90444,30.0106,4792,1331
1.86572,14.66928,-353,90445,30.0106,4792,1331
1.23912,14.53662,-352,90446,30.0106,4792,1331
1.15135,14.58523,-351,90447,30.0106,4792,1331
1.6165,14.60208,-350,90448,30.0106,4792,1331
1.6165,14.6184,-349,90449,30.0604,4792,1331
1.64283,14.6184,-348,90450,29.8114,4792,1331
0.805294,14.53713,-347,90451,30.0106,4792,1331
1.79539,14.59034,-346,90452,30.0106,4792,1331
1.81913,14.8279,-345,90453,29.8114,4809,1315
2.20323,14.67943,-344,90454,29.9608,4809,1315
1.49066,14.65301,-343,90455,30.0106,4809,1315
1.04268,14.57143,-342,90456,30.0106,4809,1315
1.28817,14.58881,-341,90457,29.8612,4809,1315
2.28816,14.65251,-340,90458,30.0604,4809,1315
1.11773,14.58523,-339,90459,30.0106,4809,1315
1.69708,14.63521,-338,90460,30.1599,4809,1315
1.79804,14.57194,-337,90461,29.9608,4809,1315
1.54408,14.76849,-336,90462,30.0106,4809,1315
2.51832,14.88457,-335,90463,30.0106,4789,1292
2.68688,14.68603,-334,90464,30.0604,4789,1292
1.83479,14.48579,-333,90465,30.0604,4789,1292
1.55332,14.44046,-332,90466,29.9608,4789,1292
2.12837,14.57143,-331,90467,29.8114,4789,1292
1.39139,14.50224,-330,90468,29.8114,4789,1292
2.11714,14.48579,-329,90469,30.0106,4789,1292
0.981433,14.48579,-328,90470,29.8612,4789,1292
2.24822,14.47499,-327,90471,30.1599,4789,1292
1.64863,14.49145,-326,90472,29.9608,4789,1292
1.86572,14.51046,-325,90473,30.0106,4789,1292
5.24988,14.52791,-324,90474,30.0106,4789,1292
2.5782,14.60667,-323,90475,30.0106,4789,1292
2.25668,14.40326,-322,90476,30.0106,4789,1292
1.73047,14.73465,-321,90477,29.9608,4789,1292
1.77938,14.71897,-320,90478,29.9608,4789,1292
1.28817,14.91907,-319,90479,30.0604,4789,1292
1.69146,15.08643,-318,90480,30.0106,4789,1292
2.31303,14.70428,-317,90481,29.8612,4789,1292
2.26091,14.46881,-316,90482,30.2097,4789,1292
1.21581,14.73465,-315,90483,29.8114,4787,1238
2.00374,14.87105,-314,90484,29.8612,4787,1238
1.20794,14.79873,-313,90485,29.8612,4787,1238
2.33764,14.80326,-312,90486,30.0106,4787,1238
2.12613,14.43788,-311,90487,30.2097,4787,1238
1.38452,14.26134,-310,90488,29.9608,4787,1238
1.47781,14.34053,-309,90489,29.8612,4787,1238
0.793363,14.40326,-308,90490,29.9608,4787,1238
1.52231,14.50224,-307,90491,29.8612,4787,1238
1.4118,14.53662,-306,90492,30.0106,4787,1238
1.44518,14.60667,-305,90493,29.9608,4807,1252
1.6165,14.55609,-304,90494,29.9608,4807,1252
2.05078,14.42084,-303,90495,29.8612,4807,1252
3.27549,14.65251,-302,90496,29.8612,4807,1252
1.92856,14.73819,-301,90497,30.0106,4807,1252
1.62826,14.72453,-300,90498,29.9608,4807,1252
1.5987,14.851,-299,90499,29.8114,4807,1252
1.4681,14.68653,-298,90500,29.8612,4807,1252
1.48103,14.60208,-297,90501,29.8612,4807,1252
1.80598,14.6184,-296,90502,30.0106,4807,1252
1.68014,14.66928,-295,90503,29.8114,4797,1209
2.15951,14.53713,-294,90504,29.9608,4797,1209
4.49749,14.50378,-293,90505,29.8612,4797,1209
2.53906,14.29109,-292,90506,30.0106,4797,1209
1.79804,14.40688,-291,90507,29.9608,4797,1209
1.50657,14.49505,-290,90508,29.9608,4797,1209
1.63993,14.42136,-289,90509,30.1599,4797,1209
1.65152,14.27022,-288,90510,29.9608,4797,1209
1.65152,14.45644,-287,90511,30.0106,4797,1209
1.52231,14.53662,-286,90512,30.0604,4797,1209
1.76052,14.50224,-285,90513,30.1599,4808,1197
1.26577,14.851,-284,90514,29.8612,4808,1197
1.01956,15.03498,-283,90515,29.8612,4808,1197
4.32563,15.06814,-282,90516,30.0604,4808,1197
1.40163,14.86754,-281,90517,29.9608,4808,1197
1.54408,14.78513,-280,90518,29.9608,4808,1197
0.840071,14.65251,-279,90519,29.9608,4808,1197
1.67446,14.65301,-278,90520,30.0604,4808,1197
1.42859,14.75133,-277,90521,30.0106,4808,1197
1.56555,14.60259,-276,90522,29.7617,4808,1197
2.30684,14.37012,-275,90523,30.0106,4814,1155
1.52856,14.48631,-274,90524,29.8612,4814,1155
1.3637,14.63673,-273,90525,29.9608,4814,1155
0.560992,14.28483,-272,90526,29.8114,4814,1155
1.70549,14.37789,-271,90527,30.0106,4814,1155
1.89362,14.51918,-270,90528,29.8612,4814,1155
1.6341,14.71846,-269,90529,29.8114,4814,1155
1.89362,14.48579,-268,90530,30.1599,4814,1155
1.33185,14.57194,-267,90531,29.8612,4814,1155
1.17998,14.63521,-266,90532,29.8612,4814,1155
1.66589,14.70175,-265,90533,30.1599,4789,1138
1.18402,14.71846,-264,90534,29.8612,4789,1138
1.66589,14.73617,-263,90535,30.1599,4789,1138
1.59572,14.98733,-262,90536,29.9608,4789,1138
2.67264,15.13573,-261,90537,29.8612,4789,1138
1.34255,14.88507,-260,90538,30.0106,4789,1138
2.01324,14.53713,-259,90539,30.0106,4789,1138
1.52544,14.3696,-258,90540,30.3093,4789,1138
1.5807,14.3369,-257,90541,29.9608,4789,1138
0.966748,14.3696,-256,90542,29.9608,4789,1138
1.93842,14.27179,-255,90543,29.8114,4814,1125
1.73047,14.50224,-254,90544,29.9608,4814,1125
1.86827,14.50224,-253,90545,29.9608,4814,1125
1.48103,14.6184,-252,90546,29.6621,4814,1125
6.12126,14.42084,-251,90547,30.0106,4814,1125
2.63129,14.6184,-250,90548,30.0604,4814,1125
1.76323,14.71897,-249,90549,29.8612,4814,1125
1.88606,14.75284,-248,90550,29.8612,4814,1125
1.38452,14.75133,-247,90551,30.0106,4814,1125
1.25821,14.8525,-246,90552,29.7617,4814,1125
1.88606,14.86754,-245,90553,30.0106,4806,1112
1.54717,14.80326,-244,90554,30.1599,4806,1112
2.27352,14.70428,-243,90555,29.9608,4806,1112
2.39606,14.53713,-242,90556,29.8114,4806,1112
1.76052,14.58881,-241,90557,29.8612,4806,1112
2.42376,14.57194,-240,90558,30.0106,4806,1112
2.18802,14.38618,-239,90559,29.7617,4806,1112
1.22363,14.63521,-238,90560,30.0106,4806,1112
1.60466,14.66928,-237,90561,29.9608,4806,1112
2.80666,14.55353,-236,90562,29.9608,4806,1112
0.828641,14.50378,-235,90563,30.0106,4801,1112
1.72772,14.60208,-234,90564,29.9608,4801,1112
1.77132,14.60208,-233,90565,29.8114,4801,1112
1.3029,14.45335,-232,90566,29.9608,4801,1112
1.77938,14.69211,-231,90567,29.8612,4801,1112
1.89865,14.76344,-230,90568,30.0106,4801,1112
2.45698,14.59034,-229,90569,30.0106,4801,1112
1.6165,14.66928,-228,90570,29.8612,4801,1112
1.92112,14.86754,-227,90571,30.0106,4801,1112
1.61945,14.67182,-226,90572,30.2097,4801,1112
2.0693,14.66928,-225,90573,30.2097,4815,1109
1.19205,14.63521,-224,90574,30.0106,4815,1109
1.39822,14.63521,-223,90575,29.9608,4815,1109
1.88606,14.53662,-222,90576,30.2097,4815,1109
1.5034,14.37634,-221,90577,30.1599,4815,1109
3.67478,14.22577,-220,90578,29.9608,4815,1109
2.58559,14.53713,-219,90579,29.9608,4815,1109
1.48103,14.75486,-218,90580,30.0106,4815,1109
1.16371,14.73617,-217,90581,29.8612,4815,1109
1.45176,14.5699,-216,90582,30.0106,4815,1109
1.18402,14.35248,-215,90583,30.0106,4798,1070
1.93596,14.25351,-214,90584,30.2097,4798,1070
1.95556,14.53713,-213,90585,30.0106,4798,1070
1.62239,14.62553,-212,90586,29.8612,4798,1070
1.14304,14.55353,-211,90587,29.8612,4798,1070
4.39019,14.63521,-210,90588,29.8114,4798,1070
3.19889,14.80276,-209,90589,30.0604,4798,1070
1.52544,14.83744,-208,90590,30.0604,4798,1070
2.28816,14.98534,-207,90591,30.0604,4798,1070
2.03912,14.71897,-206,90592,30.1599,4798,1070
1.31383,14.63521,-205,90593,29.8612,4811,1098
1.69708,14.76899,-204,90594,29.8612,4811,1098
1.64283,14.38774,-203,90595,30.1599,4811,1098
2.17052,14.38774,-202,90596,29.9608,4811,1098
1.29923,12.75445,-201,90597,29.8612,4811,1098
1.38107,10.74288,-200,90598,29.8612,4811,1098
2.09677,10.83954,-199,90599,30.0106,4811,1098
1.91615,17.7779,-198,90600,29.7617,4811,1098
1.95556,28.85072,-197,90601,30.0106,4811,1098
2.15066,32.13511,-196,90602,30.1599,4811,1098
1.31383,36.04445,-195,90603,30.0106,4826,1088
1.51603,47.29559,-194,90604,29.8612,4826,1088
1.40163,29.31874,-193,90605,30.0106,4826,1088
0.41432,20.3466,-192,90606,29.8612,4826,1088
1.79007,45.63226,-191,90607,30.0106,4826,1088
2.15287,44.06265,-190,90608,29.8612,4826,1088
3.41657,28.76045,-189,90609,30.1599,4826,1088
1.78473,34.34539,-188,90610,29.8612,4826,1088
2.0716,97.09349,-187,90611,29.9608,4826,1088
1.04268,108.104,-186,90612,30.0106,4826,1088
1.12198,86.27824,-185,90613,30.0604,4810,1066
1.34255,102.2742,-184,90614,30.0106,4810,1066
2.20323,128.5239,-183,90615,30.2097,4810,1066
3.67997,130.292,-182,90616,29.8114,4810,1066
3.01788,104.9192,-181,90617,29.8114,4810,1066
2.48208,57.12095,-180,90618,29.9608,4810,1066
1.13886,47.51986,-179,90619,29.8612,4810,1066
2.09904,85.23629,-178,90620,29.9608,4810,1066
0.840071,66.59783,-177,90621,29.8612,4810,1066
1.25442,76.96841,-176,90622,30.0106,4810,1066
1.53168,73.5365,-175,90623,30.0604,4839,1058
1.43525,114.147,-174,90624,30.0106,4839,1058
1.91615,120.57,-173,90625,30.0604,4839,1058
2.28816,25.50715,-172,90626,29.7617,4839,1058
4.15584,92.20721,-171,90627,29.9608,4839,1058
2.96689,106.1594,-170,90628,30.1599,4839,1058
3.23447,61.93069,-169,90629,29.8612,4839,1058
2.84714,170.8595,-168,90630,30.0604,4839,1058
0.805294,194.4332,-167,90631,29.9608,4839,1058
1.39139,55.64023,-166,90632,29.7617,4839,1058
0.793363,83.60783,-165,90633,29.8114,4859,1009
0.817051,95.90198,-164,90634,29.7617,4859,1009
3.23447,43.8246,-163,90635,29.8114,4859,1009
2.31509,23.80434,-162,90636,30.0604,4859,1009
2.08079,24.75139,-161,90637,30.0106,4859,1009
1.34255,23.66402,-160,90638,30.0604,4859,1009
1.45505,14.39602,-159,90639,29.9608,4859,1009
1.42525,21.79699,-158,90640,29.9608,4859,1009
1.43525,43.1777,-157,90641,30.2097,4859,1009
1.58673,56.40943,-156,90642,30.1599,4859,1009
1.77132,88.77198,-155,90643,29.8612,4860,1009
3.06647,97.70369,-154,90644,29.8114,4860,1009
2.60579,66.71732,-153,90645,30.0604,4860,1009
2.36401,40.05339,-152,90646,29.9608,4860,1009
5.22347,73.35309,-151,90647,30.0106,4860,1009
5.3435,83.3793,-150,90648,30.1599,4860,1009
3.92937,274.7337,-149,90649,29.8612,4860,1009
2.77247,330.8293,-148,90650,29.9608,4860,1009
3.45129,329.7334,-147,90651,30.2097,4860,1009
3.87438,371.5565,-146,90652,29.8114,4860,1009
1.6165,440.8097,-145,90653,29.7617,4907,994
2.30477,481.866,-144,90654,29.8612,4907,994
1.70549,493.4634,-143,90655,30.1599,4907,994
2.32742,507.0895,-142,90656,30.0106,4907,994
2.58559,541.9331,-141,90657,30.1599,4907,994
1.73047,583.8952,-140,90658,29.8114,4907,994
2.15951,598.4045,-139,90659,29.8612,4907,994
1.92856,592.9588,-138,90660,29.9608,4907,994
1.58673,579.745,-137,90661,30.0604,4907,994
2.92806,560.7906,-136,90662,30.0106,4907,994
2.21617,543.3286,-135,90663,30.0106,4926,965
1.37415,536.2586,-134,90664,30.0106,4926,965
1.41854,533.0534,-133,90665,30.0604,4926,965
2.91827,462.0362,-132,90666,29.8612,4926,965
2.02269,364.438,-131,90667,29.8114,4926,965
1.40842,336.2396,-130,90668,29.8612,4926,965
1.9942,360.3003,-129,90669,30.1599,4926,965
1.73323,454.7709,-128,90670,29.9608,4926,965
2.74134,538.6327,-127,90671,30.0106,4926,965
5.79473,467.6786,-126,90672,29.9608,4926,965
0.690534,299.0848,-125,90673,29.8114,4937,941
1.29556,168.4811,-124,90674,29.9608,4937,941
3.9596,271.152,-123,90675,30.0604,4937,941
1.86572,527.8102,-122,90676,29.9608,4937,941
1.83219,338.4896,-121,90677,30.0106,4937,941
3.03364,181.2246,-120,90678,30.0106,4937,941
4.08992,274.0486,-119,90679,30.0106,4937,941
1.77132,379.4755,-118,90680,29.9608,4937,941
2.23545,319.9899,-117,90681,29.8612,4937,941
3.62645,274.3634,-116,90682,29.8612,4937,941
1.05179,259.1622,-115,90683,30.0604,4943,952
1.72772,254.5657,-114,90684,29.9608,4943,952
1.1596,231.1079,-113,90685,30.0604,4943,952
2.51832,201.0478,-112,90686,30.0106,4943,952
1.958,195.3739,-111,90687,30.0106,4943,952
2.10811,204.0655,-110,90688,29.8612,4943,952
1.73872,202.4705,-109,90689,29.8114,4943,952
2.01324,186.109,-108,90690,30.0106,4943,952
1.04268,170.4212,-107,90691,29.8612,4943,952
3.75818,154.3765,-106,90692,29.9608,4943,952
2.58559,141.3356,-105,90693,29.8612,4920,960
1.88858,135.1171,-104,90694,30.0106,4920,960
2.48592,133.9699,-103,90695,29.8612,4920,960
1.4681,137.8075,-102,90696,30.2097,4920,960
3.19293,125.5372,-101,90697,29.9608,4920,960
1.53168,85.71057,-100,90698,29.8612,4920,960
0.971667,61.38098,-99,90699,29.6621,4920,960
2.11488,81.82764,-98,90700,30.1599,4920,960
0.851347,101.138,-97,90701,29.9608,4920,960
1.36719,118.1616,-96,90702,29.8114,4920,960
2.63853,112.9839,-95,90703,29.9608,4926,984
1.91615,97.4891,-94,90704,30.0106,4926,984
2.08079,98.27145,-93,90705,29.9608,4926,984
1.05179,81.69167,-92,90706,30.1599,4926,984
2.0156,69.65478,-91,90707,29.9608,4926,984
1.5034,80.58388,-90,90708,29.8114,4926,984
2.45115,104.5382,-89,90709,29.6621,4926,984
1.93842,103.2067,-88,90710,30.0604,4926,984
1.77132,71.37273,-87,90711,29.8612,4926,984
1.76863,47.85935,-86,90712,30.3093,4926,984
5.16841,56.75443,-85,90713,30.0106,4948,994
1.99897,72.00731,-84,90714,29.9608,4948,994
1.59273,65.07046,-83,90715,30.0604,4948,994
1.75781,58.78075,-82,90716,30.0106,4948,994
1.13886,55.00957,-81,90717,29.9608,4948,994
1.39481,58.15328,-80,90718,30.0106,4948,994
1.04268,72.4092,-79,90719,29.6123,4948,994
1.95556,60.75448,-78,90720,30.0106,4948,994
1.71664,50.64638,-77,90721,30.1599,4948,994
1.83739,98.40965,-76,90722,29.8114,4948,994
5.1527,71.954,-75,90723,29.9608,4926,995
1.77401,27.26188,-74,90724,29.9608,4926,995
0.941763,32.88589,-73,90725,29.8612,4926,995
1.44518,25.32746,-72,90726,30.0106,4926,995
1.73872,18.25186,-71,90727,30.0106,4926,995
1.54099,17.31592,-70,90728,30.0106,4926,995
1.5034,11.62299,-69,90729,30.0106,4926,995
1.0381,6.625619,-68,90730,30.0604,4926,995
1.26953,15.47407,-67,90731,30.1599,4926,995
1.78473,27.06192,-66,90732,30.1599,4926,995
1.57769,26.7281,-65,90733,29.9608,4947,1006
1.78206,34.53252,-64,90734,29.9608,4947,1006
2.25034,58.19324,-63,90735,30.0106,4947,1006
1.28447,70.55516,-62,90736,29.9608,4947,1006
0.840071,72.50093,-61,90737,30.0106,4947,1006
2.33968,86.42975,-60,90738,29.9608,4947,1006
2.34782,135.3866,-59,90739,30.0106,4947,1006
2.63129,203.2867,-58,90740,30.2097,4947,1006
2.01087,360.0749,-57,90741,29.8612,4947,1006
3.06647,573.7301,-56,90742,30.0106,4947,1006
2.72914,705.8263,-55,90743,30.0106,4948,1001
3.20931,816.2378,-54,90744,29.9608,4948,1001
2.25457,941.8809,-53,90745,29.9608,4948,1001
1.34255,922.3052,-52,90746,30.2097,4948,1001
1.23912,812.7396,-51,90747,29.8114,4948,1001
2.62948,687.9252,-50,90748,29.9608,4948,1001
2.47246,484.8335,-49,90749,29.9608,4948,1001
2.19455,357.2481,-48,90750,29.8114,4948,1001
1.04268,363.7571,-47,90751,29.9608,4948,1001
0.971667,375.6978,-46,90752,29.9608,4948,1001
0.655098,258.7201,-45,90753,29.9608,4955,1001
3.42076,175.4618,-44,90754,30.0106,4955,1001
1.90617,165.0661,-43,90755,29.8612,4955,1001
0.941763,159.5185,-42,90756,30.0106,4955,1001
0.41432,131.7611,-41,90757,30.0106,4955,1001
1.87592,102.6742,-40,90758,30.0604,4955,1001
2.14177,150.8608,-39,90759,30.0604,4955,1001
2.94592,170.965,-38,90760,30.1599,4955,1001
2.26722,137.8892,-37,90761,29.6621,4955,1001
2.52588,74.34593,-36,90762,30.0106,4955,1001
2.32946,83.3076,-35,90763,29.8114,4955,1050
1.68014,129.0348,-34,90764,29.9608,4955,1050
3.03049,145.9674,-33,90765,29.9608,4955,1050
1.51603,143.6388,-32,90766,29.9608,4955,1050
1.46484,153.5111,-31,90767,30.1599,4955,1050
1.81651,181.2774,-30,90768,30.0604,4955,1050
1.66016,187.9348,-29,90769,29.9608,4955,1050
1.52231,162.0009,-28,90770,30.0604,4955,1050
0.662337,105.5011,-27,90771,29.8612,4955,1050
2.57635,118.4274,-26,90772,29.9608,4955,1050
1.24296,208.4694,-25,90773,29.6621,4944,1074
1.52856,277.9755,-24,90774,30.0106,4944,1074
2.13508,325.9879,-23,90775,30.1599,4944,1074
2.17929,370.8344,-22,90776,29.7617,4944,1074
1.05631,401.5813,-21,90777,29.9608,4944,1074
1.70549,397.0746,-20,90778,30.0604,4944,1074
1.06082,361.9908,-19,90779,30.2097,4944,1074
1.39481,323.523,-18,90780,30.0106,4944,1074
1.00068,300.3671,-17,90781,29.9608,4944,1074
1.17998,294.6944,-16,90782,30.0106,4944,1074
1.67161,294.2957,-15,90783,29.8114,4927,1051
1.05179,295.2402,-14,90784,30.0106,4927,1051
3.98002,299.4572,-13,90785,29.8612,4927,1051
2.48976,307.1543,-12,90786,29.8612,4927,1051
3.2609,324.214,-11,90787,30.2097,4927,1051
2.65474,344.4452,-10,90788,29.8114,4927,1051
1.76052,385.4034,-9,90789,30.0106,4927,1051
1.74966,401.3578,-8,90790,29.8612,4927,1051
1.88099,395.0506,-7,90791,30.0106,4927,1051
2.5615,402.0877,-6,90792,29.8612,4927,1051
1.5034,391.369,-5,90793,30.0106,4886,1002
2.34375,443.1691,-4,90794,30.0604,4886,1002
1.4118,475.9474,-3,90795,30.0604,4886,1002
4.33554,404.6454,-2,90796,30.0604,4886,1002
1.24296,402.2888,-1,90797,30.0106,4886,1002
15.6137,390.5955,0,90798,29.8612,4886,1002
11.1926,643.4941,1,90799,30.2097,4886,1002
0.525895,956.1492,2,90800,30.0106,4886,1002
1.57163,620.8051,3,90801,29.9608,4886,1002
2.56336,146.1236,4,90802,29.9608,4886,1002
2.88706,564.057,5,90803,29.8612,4925,931
2.96689,352.2377,6,90804,29.9608,4925,931
1.90867,113.4042,7,90805,29.8612,4925,931
1.39822,188.9565,8,90806,29.9608,4925,931
2.43358,208.9895,9,90807,29.7617,4925,931
1.52856,461.727,10,90808,29.8612,4925,931
1.13045,533.7887,11,90809,29.9608,4925,931
0.352105,354.4085,12,90810,29.8612,4925,931
2.81853,237.6915,13,90811,30.0106,4925,931
2.25457,235.7318,14,90812,29.9608,4925,931
3.30592,262.8337,15,90813,30.0106,4908,923
2.55404,188.3895,16,90814,29.8612,4908,923
2.83708,103.0721,17,90815,30.0604,4908,923
4.54915,210.3898,18,90816,29.9608,4908,923
2.41391,305.7159,19,90817,29.9608,4908,923
1.96772,347.5769,20,90818,29.8612,4908,923
1.9942,371.1812,21,90819,30.0106,4908,923
2.08994,411.6813,22,90820,29.9608,4908,923
1.02423,470.5466,23,90821,29.9608,4908,923
2.27981,511.0836,24,90822,29.6621,4908,923
1.55332,472.4307,25,90823,30.0604,4891,921
1.36019,332.3982,26,90824,29.8612,4891,921
1.46484,201.3762,27,90825,29.7617,4891,921
1.93596,127.4024,28,90826,30.1599,4891,921
4.44524,102.1391,29,90827,30.0106,4891,921
4.10389,164.9475,30,90828,29.9608,4891,921
2.71688,239.3709,31,90829,29.8114,4891,921
2.39606,278.675,32,90830,30.1599,4891,921
1.56859,284.3212,33,90831,29.8612,4891,921
1.31383,277.8127,34,90832,30.0604,4891,921
1.47458,273.7506,35,90833,29.9608,4885,894
0.525895,262.9349,36,90834,30.0106,4885,894
1.07865,217.8794,37,90835,30.0604,4885,894
2.60945,139.673,38,90836,30.0106,4885,894
2.15951,121.3365,39,90837,29.6621,4885,894
2.66012,186.0744,40,90838,29.8612,4885,894
1.19205,253.3589,41,90839,29.9608,4885,894
1.76323,288.4827,42,90840,30.0106,4885,894
0.931581,267.4662,43,90841,29.7617,4885,894
1.75781,212.2259,44,90842,30.0106,4885,894
1.72772,161.972,45,90843,29.9608,4839,914
1.92608,118.8748,46,90844,30.0106,4839,914
1.81125,84.0492,47,90845,29.8612,4839,914
2.39805,92.65434,48,90846,29.9608,4839,914
0.447517,132.0634,49,90847,29.8114,4839,914
2.13284,147.4756,50,90848,29.9608,4839,914
1.9335,170.9956,51,90849,30.0106,4839,914
1.12623,202.1695,52,90850,29.8612,4839,914
2.02269,230.1608,53,90851,30.0604,4839,914
2.19889,241.8753,54,90852,29.8612,4839,914
2.28607,202.4326,55,90853,30.0106,4830,945
2.32332,117.1228,56,90854,29.9608,4830,945
1.10916,196.9218,57,90855,29.8612,4830,945
0.601994,186.7823,58,90856,30.2097,4830,945
2.21402,136.5344,59,90857,30.0106,4830,945
5.55354,174.027,60,90858,29.8114,4830,945
1.3029,120.3946,61,90859,29.8612,4830,945
1.23912,114.5189,62,90860,30.2097,4830,945
2.33151,94.06007,63,90861,30.0604,4830,945
2.23545,119.1893,64,90862,30.0106,4830,945
1.07865,126.8368,65,90863,29.9608,4799,922
0.921287,116.0438,66,90864,30.0106,4799,922
2.05311,110.5644,67,90865,30.0106,4799,922
1.97498,123.6416,68,90866,30.0106,4799,922
2.39805,178.4742,69,90867,29.9608,4799,922
0.845728,174.6185,70,90868,30.0604,4799,922
2.31509,123.899,71,90869,29.8612,4799,922
1.33185,102.554,72,90870,30.1599,4799,922
1.60168,116.2443,73,90871,29.8612,4799,922
0.976563,116.1136,74,90872,29.8612,4799,922
1.86572,111.8915,75,90873,29.8612,4767,948
1.54408,111.5043,76,90874,30.0106,4767,948
2.08537,111.634,77,90875,30.0106,4767,948
1.47458,122.088,78,90876,30.0604,4767,948
1.81651,124.1487,79,90877,30.0604,4767,948
1.87592,121.1773,80,90878,30.0106,4767,948
2.28816,118.9971,81,90879,30.0106,4767,948
1.83479,104.1112,82,90880,30.0106,4767,948
1.83479,114.7056,83,90881,30.2097,4767,948
1.50657,142.9875,84,90882,29.8114,4767,948
2.45698,132.3008,85,90883,30.2097,4756,944
2.79986,87.01387,86,90884,30.0106,4756,944
3.53995,59.29464,87,90885,30.0106,4756,944
1.68298,77.66483,88,90886,30.0106,4756,944
2.00374,84.95401,89,90887,29.7617,4756,944
1.55638,69.59903,90,90888,30.0106,4756,944
3.63958,47.83256,91,90889,29.8612,4756,944
1.36019,50.90054,92,90890,30.0106,4756,944
1.65152,64.26999,93,90891,30.1599,4756,944
1.71664,63.38365,94,90892,29.9608,4756,944
1.02423,51.9063,95,90893,29.8612,4727,932
0.647778,37.57308,96,90894,29.7617,4727,932
1.37415,29.76739,97,90895,30.0106,4727,932
1.49385,26.10136,98,90896,30.0604,4727,932
1.33185,22.03327,99,90897,30.1599,4727,932
1.60168,35.34731,100,90898,29.7617,4727,932
